<?xml version="1.0" encoding="UTF-8"?>
<kml xmlns="http://www.opengis.net/kml/2.2">
	<Placemark>
		<Style>
			<LineStyle>
				<color>ff0000ff</color>
			</LineStyle>
			<PolyStyle>
				<fill>1</fill>
				<color>330000cc</color>
			</PolyStyle>
		</Style>
			<ExtendedData><SchemaData>
		<SimpleData name="STATE_2006">1</SimpleData>
		<SimpleData name="POA_2006">2431</SimpleData>
	</SchemaData></ExtendedData>
      <MultiGeometry><Polygon><outerBoundaryIs><LinearRing><coordinates>153.01350403199999,-30.898183247499997 153.01500352,-30.894073620500002 153.01545945599997,-30.89107564 153.015785408,-30.888077622500003 153.015524384,-30.8854716385 153.015524352,-30.882147632499997 153.01619532800001,-30.880015637 153.01783625600001,-30.877983634 153.0203952,-30.876257621 153.02330313600001,-30.8746136 153.025116096,-30.873407585 153.02531305599999,-30.873276586499998 153.02586204799999,-30.872880002 153.02877804799996,-30.872456019 153.028788,-30.872508004 153.02879401600001,-30.8725650025 153.028751008,-30.8726109935 153.02866899200001,-30.8726760025 153.028636992,-30.8727520005 153.028668,-30.872836009 153.02873401599999,-30.8729379995 153.02886601599999,-30.873019991500001 153.02894,-30.873096008 153.029072,-30.873299008499998 153.02911798400001,-30.873349994500003 153.029156,-30.873388992500001 153.02917401599998,-30.873407992 153.02950201600001,-30.873792995500004 153.02983900799998,-30.874145994 153.03000300799999,-30.874319006 153.030112,-30.874380999499998 153.030239008,-30.874491000500001 153.03042099199999,-30.874757992500001 153.031332,-30.876051993500003 153.032027008,-30.877156998500002 153.03247299200001,-30.8777840005 153.03284601600001,-30.878324996 153.03331500799999,-30.878905008 153.033624,-30.879233993500002 153.03384201599999,-30.879507997 153.03417001599999,-30.879893000499997 153.03433100800001,-30.880052008 153.03487500799997,-30.880525996500001 153.035084,-30.880667003500001 153.035232,-30.880804995 153.035536992,-30.881189998500002 153.03574,-30.881365008500001 153.03596099200001,-30.881506996 153.03631001599996,-30.881823993499999 153.036696992,-30.882101993 153.037028,-30.882323993 153.037184,-30.882482001499998 153.03758608000001,-30.882540683499997 153.0379,-30.882558998500002 153.03797401599999,-30.882495007 153.03807699199999,-30.882460005 153.038151008,-30.8824800035 153.038151008,-30.882519001499997 153.038186016,-30.882608005 153.038231008,-30.882647003 153.03829401600001,-30.882617995 153.03840300799999,-30.882577998 153.03842601599999,-30.882523996500002 153.038448,-30.882475008500002 153.03857398400001,-30.882484998500004 153.03870601599999,-30.882514006500003 153.038803008,-30.882573003 153.03887100799997,-30.882613 153.03888899200001,-30.882577998 153.038848,-30.882469995 153.038814016,-30.882360993 153.03883100799999,-30.882292006500002 153.03894601600001,-30.882238005 153.03909401600001,-30.882199007 153.039186016,-30.882184003500001 153.03922601599999,-30.882232991499997 153.0393,-30.882238005 153.039344992,-30.882169 153.03941401599997,-30.882149001499997 153.03948300799999,-30.882184003500001 153.039546016,-30.882253008500001 153.039626016,-30.882306991499998 153.03975699200001,-30.8823320035 153.039839008,-30.882365007500002 153.03989299200001,-30.882428 153.03989299200001,-30.882499003 153.03980201600001,-30.882610003 153.0397,-30.8827129925 153.039728,-30.882777002500006 153.03981100799999,-30.882855997500002 153.040068,-30.882975008 153.040391008,-30.883070005499999 153.04063001599997,-30.883086008 153.04076700799999,-30.883038000499997 153.04085001600001,-30.882872 153.04097900799999,-30.882665003499998 153.04111699200001,-30.882490992499999 153.04123699199997,-30.882355998 153.041338016,-30.8823320035 153.04141100800001,-30.882339995500001 153.04153100799999,-30.882261000499998 153.041604,-30.8821179955 153.04165001599998,-30.882022998 153.04175100800001,-30.882031008500004 153.04177900799999,-30.882086009 153.04183401599997,-30.882172996 153.041899008,-30.882181006500002 153.042064,-30.882165004 153.04216499200001,-30.882172996 153.04233100799996,-30.882292006500002 153.042496992,-30.882545993 153.042598016,-30.882815001500003 153.04268099199999,-30.883037001499996 153.042754016,-30.883085009 153.04303001599999,-30.883164004 153.043416992,-30.883155993500001 153.043610016,-30.883093001 153.043750848,-30.883044938 153.043768032,-30.883039221500002 153.04382099199998,-30.883020999 153.04400499199997,-30.8829260015 153.043996,-30.882798999 153.04389500799996,-30.8827360065 153.043812,-30.882616996 153.04389500799996,-30.882530009 153.04397798399998,-30.882521998499996 153.044024,-30.8824499965 153.04413401599999,-30.882378993499998 153.044263008,-30.882403006500002 153.04437299200001,-30.882498004 153.044410016,-30.8826640045 153.04444700799999,-30.882759002 153.04434601599999,-30.882838996 153.044263008,-30.882909999 153.044254016,-30.883037001499996 153.044392,-30.883180006500002 153.044907008,-30.883432994 153.04568,-30.883820994499999 153.04684899200001,-30.884320994 153.047528992,-30.884645003 153.0481,-30.884907 153.04845900800001,-30.8850419945 153.048992,-30.88524 153.049424,-30.885362007499999 153.05040899199997,-30.885702000499997 153.05167798400001,-30.886082009 153.052948,-30.886390996 153.054034016,-30.886556996500001 153.05537699199999,-30.886738999500004 153.05676598400001,-30.886849000499996 153.05796201599998,-30.886856992499997 153.05856,-30.886856992499997 153.05879900799997,-30.886835995 153.059388,-30.886781993499998 153.06028899199998,-30.886686996 153.061512,-30.886456005 153.06234899200001,-30.886169995 153.06341699199996,-30.885861008 153.064152,-30.885558995499999 153.06497100799999,-30.885240999 153.06583500799999,-30.884780996500002 153.066652992,-30.884296999500002 153.06731500800001,-30.883764995 153.06768300799999,-30.883464 153.067938016,-30.883206998 153.068148992,-30.882987995 153.06850700800001,-30.8825989955 153.06879100800001,-30.882203003 153.069048,-30.881776004500001 153.069240992,-30.881292007500001 153.069323008,-30.881087009 153.069323008,-30.8809359935 153.069231008,-30.880713993499999 153.068974016,-30.880524997500004 153.06868899200001,-30.8802240025 153.068431008,-30.879891002499999 153.06834899200001,-30.879597999499996 153.068251008,-30.879172999 153.06827299199998,-30.878857999500003 153.06823299199999,-30.878401993 153.06806700800001,-30.877920993 153.06786099199999,-30.8774559955 153.06782099200001,-30.877177996 153.06774300800001,-30.876974995499996 153.06753699199999,-30.8767810045 153.067164,-30.876486003500002 153.066812,-30.875953999 153.06676300799998,-30.8757179945 153.066732992,-30.875507002 153.066576,-30.875355006 153.0664,-30.875295991 153.06634099199999,-30.875169007 153.06637001600001,-30.875077006499996 153.066576,-30.875033994 153.066968,-30.875118002499999 153.06737900799999,-30.875252997 153.067780992,-30.875514994 153.06816300799997,-30.875802003 153.068428,-30.875987003 153.068614016,-30.876087994500001 153.06881001599999,-30.876104996 153.068986016,-30.876104996 153.06903500799996,-30.876021006 153.06903500799996,-30.875918997 153.06911299199999,-30.875868991499999 153.069288992,-30.875918997 153.069456,-30.875987003 153.06964201599999,-30.876037008500003 153.06977900800001,-30.876079003499999 153.06987699199999,-30.876138 153.069984992,-30.876265002499999 153.07015100800001,-30.876382995500002 153.07031801599999,-30.876441992 153.07042601599997,-30.876458993500002 153.070435008,-30.876408007499997 153.07038601599999,-30.876272994500003 153.070435008,-30.876230999500006 153.07060201599998,-30.876289996 153.07085699199999,-30.876425009 153.07101299199999,-30.8764500025 153.071248,-30.8765260005 153.07134601600001,-30.876543002 153.07131699199999,-30.876433001 153.071444,-30.876425009 153.071552,-30.8764840055 153.07164,-30.876440993 153.07173798400001,-30.876347993500001 153.071864992,-30.876305998499998 153.072032,-30.876374004500001 153.072276,-30.876516991 153.07244300799999,-30.876659996 153.07262,-30.876845995 153.072844992,-30.877031994 153.07304099199999,-30.877140996 153.07312899199997,-30.877157997499996 153.07315801600001,-30.877030995 153.07319699199999,-30.8769300035 153.073256,-30.876938994500001 153.073256,-30.877074007500003 153.07332499200001,-30.877233995499996 153.073472,-30.877369008499997 153.073658016,-30.87747 153.07382499199997,-30.877538006 153.073952,-30.877504003 153.07407001599998,-30.877462008 153.074196992,-30.877545998 153.074344,-30.877537007 153.07444201600001,-30.877570991500001 153.07461801599999,-30.8777189915 153.074795008,-30.8777909935 153.07499900799999,-30.877839001 153.07515699199999,-30.877862995500003 153.07530601600001,-30.877951 153.07540700800001,-30.877951 153.075491008,-30.877934997500002 153.07565801600001,-30.878062999 153.075760992,-30.878191000499999 153.07593699200001,-30.878279005 153.07611299199999,-30.878407006500002 153.07631699199999,-30.878622994 153.07642,-30.878805996 153.076456992,-30.878990996 153.07652201600001,-30.879134001 153.07656899200001,-30.879213995 153.076624,-30.879117998499996 153.07664300799996,-30.8790380045 153.07668,-30.879054007 153.076754016,-30.879182008500003 153.076931008,-30.879469998 153.077191008,-30.879774008499997 153.07733100799999,-30.879886007500001 153.077451008,-30.880045995500002 153.07744601600001,-30.880111004500002 153.077406016,-30.880165006 153.077415008,-30.880242003 153.07746899200001,-30.880264998499996 153.07752201599999,-30.8802580055 153.07753100799999,-30.8802960045 153.077548992,-30.880357998 153.07751401600001,-30.880404007500001 153.07746,-30.880427003 153.077388,-30.880411999500005 153.07733500799998,-30.880418992500001 153.077326016,-30.880472994 153.077282016,-30.880496008 153.07725500800001,-30.880520002499999 153.07725500800001,-30.880580997 153.07727299199999,-30.880612003 153.077228,-30.880657994 153.07721001600001,-30.8807119955 153.07719299199999,-30.880758005 153.077184,-30.880812006500001 153.077148,-30.880842994 153.07713001600001,-30.880874 153.07713900799999,-30.880911999 153.07708499200001,-30.880959007499996 153.077023008,-30.880997006500003 153.07700499200001,-30.8810360045 153.07698700799997,-30.881096999 153.076996,-30.881151000499997 153.076996,-30.881196991499998 153.07697001599999,-30.881244 153.07696099200001,-30.881274007 153.076943008,-30.881336000499999 153.076934016,-30.8813819915 153.07692499199999,-30.881435993 153.076908,-30.881505997 153.07692499199999,-30.881558999499997 153.07696300800001,-30.881629003499999 153.076964992,-30.881723002 153.07699299199999,-30.881907003 153.07703001600001,-30.882082993499999 153.07709500799999,-30.882330005500002 153.07714198400001,-30.8824499965 153.07719699200001,-30.882713991499998 153.07719801600001,-30.882978005 153.077170016,-30.883098995 153.077078016,-30.883146003499998 153.07702499199999,-30.883184002499998 153.07700700800001,-30.8832540065 153.07700700800001,-30.883360992 153.07697100799999,-30.883423004 153.076936,-30.883430996 153.07692700800001,-30.883492009 153.07691801600001,-30.883569006 153.076911008,-30.883663004500001 153.07689500800001,-30.884164003 153.07688300800001,-30.884281996 153.076920992,-30.884418008 153.07694899200001,-30.884570004 153.076976992,-30.884738002499997 153.076968,-30.884898009 153.07690300799999,-30.885090002 153.076754016,-30.885265992499999 153.07663401600001,-30.885506992 153.07656899200001,-30.885538997 153.07643900799999,-30.885482997500002 153.076364,-30.885475005499998 153.07630899200001,-30.8855229945 153.076224,-30.885620008500002 153.076188,-30.885697005499999 153.07620601599999,-30.885765992 153.07624201600001,-30.885803991 153.076267008,-30.8858579925 153.076272,-30.885946996 153.07623299199997,-30.885982997 153.07618700800001,-30.885982997 153.07618700800001,-30.886017999 153.07623299199997,-30.886054 153.076223008,-30.886089002 153.076228,-30.886120008 153.076264,-30.8861509955 153.076248,-30.886195007 153.076202016,-30.886220999500001 153.076172,-30.886242996 153.07620300799999,-30.886278997 153.07619699200001,-30.886310003 153.07616201600001,-30.8863270045 153.07614099200001,-30.886345005 153.076167008,-30.8863759925 153.07616201600001,-30.886402003499999 153.076120992,-30.886420004 153.076075008,-30.886428995 153.07603900800001,-30.886442000499997 153.076028992,-30.886477002499998 153.07605900799999,-30.886526009 153.076120992,-30.886560992499998 153.076188,-30.886588002499998 153.07622,-30.8866240035 153.076235008,-30.886683999 153.07621699200001,-30.886819992499998 153.07610499200001,-30.8869560045 153.076078016,-30.887115992499997 153.07608300800001,-30.887452008 153.07611491200001,-30.887634381 153.076167008,-30.887932009 153.076268992,-30.888443996500001 153.076372,-30.888836992 153.07648300799997,-30.889125 153.076707008,-30.8892929985 153.07699500800001,-30.889413008 153.07719001599997,-30.889476999500001 153.077394016,-30.889459998 153.077607008,-30.889412009 153.077812,-30.889412009 153.07795001599999,-30.889471005499999 153.07805801599997,-30.889553996499998 153.07804899199999,-30.889634009 153.07804899199999,-30.889737997499999 153.078170016,-30.889905996 153.07830899199999,-30.89005 153.07844899200001,-30.890234001 153.07866300800001,-30.890537993 153.078904,-30.890865998 153.07906201599999,-30.891123 153.079276,-30.891363000500004 153.07947100800001,-30.891523007 153.079658016,-30.891698997500001 153.079788,-30.891906993 153.07989900800001,-30.892139001500002 153.07994099199999,-30.892323002499996 153.080016,-30.892595008 153.08014601599996,-30.892803003500003 153.080276,-30.892947007499998 153.08042499199999,-30.893075009 153.080546016,-30.893090993 153.080694016,-30.8930669985 153.080824,-30.892971002 153.08087001600001,-30.892859003 153.08092601600001,-30.892826998 153.081019008,-30.892859003 153.08115801599999,-30.892850992500005 153.081288,-30.892787001 153.08140899200001,-30.892770998500001 153.08143699199996,-30.892809996499999 153.08154899199999,-30.892971002 153.08167900800001,-30.893250999500001 153.081772,-30.893435000500002 153.081856,-30.893563002 153.082004,-30.893642996 153.082199008,-30.893635004 153.08239401599997,-30.893546000500002 153.08253401600001,-30.893466006499999 153.08270099200001,-30.893385994 153.08290499200001,-30.893385994 153.08306300800001,-30.893441993499998 153.083147008,-30.893585997500001 153.08316499199998,-30.893730001499996 153.08327699200001,-30.893769998500002 153.08335100799999,-30.8938099955 153.08336499200001,-30.893899998 153.08336499200001,-30.894076007 153.0833,-30.894156001 153.08336601600001,-30.894244005500006 153.083412,-30.894331991499996 153.083384,-30.894412004 153.08319900800001,-30.894435998500001 153.082976,-30.894429005499997 153.08284499199999,-30.894348993 153.082696992,-30.894348993 153.08262300800001,-30.894413003 153.08255801599998,-30.894548996499999 153.08255801599998,-30.894749 153.08264201599999,-30.894972998 153.08278099200001,-30.895173001500002 153.08293900800001,-30.895348992 153.08298601600001,-30.895460991 153.082976,-30.895564998 153.082912,-30.895661993500003 153.08294899200001,-30.895749998 153.083056,-30.896013993 153.083214016,-30.8963259955 153.083326016,-30.896542001500002 153.083326016,-30.896710999 153.08330700799999,-30.896831008499998 153.08335401599999,-30.897039004 153.08334499199998,-30.897183008 153.08339100799998,-30.897254991500002 153.083484,-30.897230997 153.08363299199999,-30.897254991500002 153.083808992,-30.897295007 153.08384700799999,-30.897214994499997 153.08389299199999,-30.897183008 153.08404201600001,-30.897229998 153.08409699200001,-30.897297005 153.08415500800001,-30.897395998499999 153.08417900800001,-30.897439991500001 153.08422300800001,-30.897524999 153.08423500800001,-30.897614002500003 153.08423100799999,-30.897706003 153.084180992,-30.897855002 153.08415401600001,-30.897999006 153.08411699199999,-30.898151002 153.084070016,-30.898255009 153.083848,-30.898367008 153.083588,-30.898454994 153.083464,-30.898518005 153.08334099199999,-30.898584993500002 153.08318601600001,-30.898656995499998 153.083167008,-30.898707001 153.083271008,-30.898734991500003 153.08334099199999,-30.898780002 153.083432,-30.898813006 153.08348998399998,-30.898852004 153.083471008,-30.898951996500003 153.08338700799999,-30.899041 153.08334201599999,-30.899140992500001 153.08329001600001,-30.899258005 153.08316099199999,-30.899380993 153.08300700800001,-30.899442006 153.08279401600001,-30.899442006 153.08269001599999,-30.899459007500006 153.082560992,-30.899486998 153.08236099199999,-30.899465001500001 153.08220601599999,-30.899443005 153.082128,-30.899498005499996 153.082044,-30.899682006499997 153.08196099199998,-30.899966 153.081928,-30.900167002500002 153.08187401599997,-30.900348006499996 153.08179699199997,-30.900547991500002 153.08174499200001,-30.9007980005 153.081752,-30.901015005499996 153.081771008,-30.901153996 153.08172,-30.9013539995 153.081680992,-30.901554003 153.081668992,-30.901787991 153.08167500799996,-30.901960004 153.081672,-30.902105007 153.08169801599996,-30.902265994 153.08176899200001,-30.902455008499999 153.08177699199999,-30.902519999 153.08178899200001,-30.902611000499999 153.081795008,-30.902850002 153.08177001600001,-30.903106005 153.08175699200001,-30.903345006499997 153.081744,-30.903544991500002 153.08170201600001,-30.903711991 153.081650016,-30.903945997499999 153.081528,-30.904175009 153.081424,-30.904381006499996 153.08139900800001,-30.904542992500001 153.08141500799999,-30.904722997500002 153.08146,-30.904957004 153.081532,-30.905351997500002 153.08160899199999,-30.905725993500003 153.081726016,-30.906066005 153.081824,-30.906243993500002 153.081888,-30.906388996500002 153.081963008,-30.906497998499997 153.081999008,-30.9065660045 153.08204201599997,-30.906605002500001 153.08209398399998,-30.906613993500002 153.082143008,-30.906615991500001 153.08222899200001,-30.906650993500001 153.082308,-30.9066529915 153.08236,-30.9066420025 153.08240499199999,-30.906623003 153.082552,-30.906588001 153.08264201599999,-30.906582007 153.082694016,-30.906497998499997 153.082772,-30.906481996 153.08281699199998,-30.906559992 153.08286201600001,-30.9066879935 153.08295900799999,-30.906805006 153.08306300800001,-30.906899004500001 153.083147008,-30.906933007500005 153.083224992,-30.907021992499999 153.08327699200001,-30.907088999499997 153.08336700800001,-30.907127997500002 153.08344499200001,-30.907110996 153.08348998399998,-30.907117008500002 153.083548,-30.907156006499996 153.083619008,-30.907156006499996 153.08364499199999,-30.907076993 153.083716,-30.906998997 153.083832992,-30.9069770005 153.083968992,-30.906955004 153.08413001599996,-30.906915007 153.084344,-30.906876009 153.08446700799999,-30.906892992 153.08452499200001,-30.906886998 153.08458300800001,-30.906819991 153.084712,-30.906809002 153.084790016,-30.906830998500006 153.08491299199997,-30.906809002 153.085048992,-30.906787005500004 153.085088,-30.906819991 153.085094016,-30.9068980055 153.08499699199999,-30.906993003 153.0849,-30.9070880005 153.08480300799997,-30.907216002 153.08475801599999,-30.9073440035 153.084784,-30.907456002500002 153.08484899199999,-30.907700998 153.08490099199997,-30.9078349935 153.08490099199997,-30.907935004500001 153.08483699199999,-30.908057992500002 153.08475900799999,-30.908158003499999 153.08464899200001,-30.908169991499999 153.08453900800001,-30.908202995500002 153.08447401599997,-30.908248006 153.084468,-30.908326002 153.08448099200001,-30.9083919915 153.084416,-30.908509004 153.08431299200001,-30.908621003 153.08424201599999,-30.908776995 153.08419001600001,-30.908860004499999 153.08423500800001,-30.908911009 153.084264,-30.908951006 153.08431299200001,-30.909022009 153.08441001599999,-30.909144997 153.08446899200001,-30.909211005 153.08454601599999,-30.909211005 153.08468201599999,-30.909166993500001 153.084772,-30.909083003500001 153.084844,-30.9090549945 153.08496601600001,-30.9090549945 153.08505100799999,-30.909027004 153.08513500799998,-30.9090549945 153.085232,-30.909122001499998 153.08533500799999,-30.909211005 153.085407008,-30.909300008499997 153.08543299199997,-30.909289001 153.08544601599999,-30.909244009 153.085478016,-30.909211005 153.08556198399998,-30.909244009 153.08574899199999,-30.909322005 153.086015008,-30.909499993499999 153.086208992,-30.909666993 153.08625500799999,-30.909768003 153.086268,-30.9098630005 153.08630601600001,-30.909945991499999 153.086396992,-30.909995997 153.086552,-30.910001991 153.08667500799999,-30.909956999 153.086772,-30.909900999499996 153.086856,-30.909879003 153.08699900799999,-30.909929008499997 153.087096,-30.909995997 153.087187008,-30.910102002 153.087316,-30.910257994 153.08756201599999,-30.910559007500002 153.087682016,-30.910641998499997 153.08783100799999,-30.910741991 153.087992,-30.910803004 153.088154016,-30.910837007 153.08825100799999,-30.9108699925 153.08834201600001,-30.910925992 153.08844601599998,-30.9110149955 153.088536,-30.911098005 153.08861401599998,-30.911181995 153.088672,-30.911292995 153.088684992,-30.911427009 153.08862,-30.911528000500006 153.08851100800001,-30.911571993500001 153.08842,-30.911595007500001 153.08834899199999,-30.911661996 153.088356,-30.911750999499997 153.08844601599998,-30.9119069915 153.08856300799999,-30.912057008 153.08864700800001,-30.912145993 153.08878300800001,-30.912280007 153.08887900799999,-30.912371008500003 153.08885699199999,-30.912457995500002 153.088843008,-30.9125590055 153.08885001600001,-30.912678996500002 153.088887008,-30.912760008 153.08885100800001,-30.912854006500002 153.08877801599999,-30.912987003 153.088712,-30.913112007500001 153.088616992,-30.913231998500002 153.088464,-30.913275991499997 153.088244992,-30.913339002499999 153.088136,-30.913377001500006 153.087732,-30.913192001499997 153.08761900799999,-30.913227003500001 153.087535008,-30.913170005 153.08748499199999,-30.913041004500002 153.087352,-30.912926008500001 153.08728499200001,-30.912940993500001 153.08715100800001,-30.913055009 153.087068,-30.913126992500001 153.08688700799999,-30.913230000499997 153.086784,-30.9133129915 153.086759008,-30.913388009 153.086770016,-30.913474996 153.08683401600001,-30.913547997 153.086927008,-30.913613006 153.08699900799999,-30.913681992499999 153.08706201599998,-30.913784001499998 153.08706998400001,-30.913863995500002 153.087054016,-30.913948004 153.08697801599999,-30.914027998 153.08691001599996,-30.914088992499998 153.08683500800001,-30.914093007 153.086784,-30.914107992 153.086784,-30.914139997 153.08683001599999,-30.914188004500001 153.08691500800001,-30.9142280015 153.08697001600001,-30.914256991 153.08695299199999,-30.914325996 153.08697801599999,-30.914361997 153.087042016,-30.914369008499996 153.08711299199999,-30.914387009 153.087155008,-30.914455995499999 153.087130016,-30.914510996 153.08713401599999,-30.914550993 153.087184992,-30.914637998500002 153.08718899199999,-30.914725004 153.08714700799999,-30.914786997500002 153.08713500799999,-30.914831009 153.08719401600001,-30.914853005499999 153.08724,-30.914884992 153.087244992,-30.914943008 153.08728201599999,-30.914957993 153.087358016,-30.914993994 153.08737500799998,-30.915048994500001 153.08732099199997,-30.915096003 153.08735001599999,-30.915132004 153.08737500799998,-30.915179993 153.087384,-30.915270994499998 153.08733699199996,-30.915300002499997 153.08727401600001,-30.915263002499998 153.087224,-30.915209001 153.087143008,-30.915183008500001 153.087030016,-30.915193997500001 153.086912,-30.915233994499999 153.086815008,-30.915294008500002 153.08673401600001,-30.915359998 153.086516,-30.9157040055 153.08643699199999,-30.915800002 153.08632899200001,-30.915931999499996 153.08633500799999,-30.915956993 153.08636099200001,-30.916065995 153.086410016,-30.916192997500001 153.08640099199999,-30.916355002 153.08628300800001,-30.916542 153.086184,-30.916753991499998 153.08616499199999,-30.916931998500001 153.08619401599998,-30.917101995 153.08615500799999,-30.917374000499997 153.086156,-30.917636996500001 153.08621500800001,-30.917874999 153.08625500799999,-30.918164006 153.08631401599999,-30.918418991499998 153.086354016,-30.918588007500002 153.08646,-30.918652998 153.08655001599996,-30.9186389935 153.086692,-30.918716009 153.08681699199997,-30.918725 153.08703500799999,-30.9186389935 153.087435008,-30.9186389935 153.08751900799999,-30.918695992 153.087502016,-30.9188110065 153.08728499200001,-30.918896994499999 153.08723500799999,-30.918967997500001 153.08728499200001,-30.919025995 153.087603008,-30.919169 153.08793699200001,-30.919483999500002 153.08796998400001,-30.919540998 153.088004,-30.920056001 153.088030016,-30.920096997 153.08821699200001,-30.920087007 153.088267008,-30.920149000499997 153.08830499199999,-30.9202520085 153.08836499199998,-30.9203280065 153.088447008,-30.920407001500003 153.08850700799999,-30.920505995 153.088572992,-30.920643006 153.08861001599999,-30.920720003 153.08870201600001,-30.920733008500001 153.08873801600001,-30.920694991 153.08884601599999,-30.920679007 153.088936,-30.9206709965 153.08905699199997,-30.920664003499997 153.089048,-30.920605007 153.08898201599996,-30.920529009 153.088932992,-30.920478004499998 153.088878016,-30.920453991499997 153.08885100800001,-30.920384006 153.08885100800001,-30.920332002499997 153.08888899199997,-30.920284994 153.088916,-30.920219004499998 153.08902,-30.920157991500005 153.08908601600001,-30.920162006 153.08919500799999,-30.920213991 153.08931001599998,-30.920313003 153.089472992,-30.920448996499999 153.08959401600001,-30.920509991 153.089692,-30.920548008500003 153.08979001599999,-30.920604008 153.08983401599997,-30.920674992499997 153.08983900800001,-30.920759001 153.08984,-30.920830004 153.08987299200001,-30.920868003 153.08992700799999,-30.920876994 153.08996,-30.920938007 153.089955008,-30.921037000499997 153.08994899199996,-30.921093 153.08999798400001,-30.9211169945 153.090064,-30.921103008500001 153.09014,-30.921130999 153.09023299200001,-30.921149998500002 153.090288,-30.921149998500002 153.090315008,-30.921186998500001 153.090282016,-30.921277001 153.090271008,-30.921328005499998 153.090315008,-30.921360991 153.090396992,-30.9212999965 153.09045699199996,-30.921304991500005 153.090463008,-30.921385004 153.090516992,-30.921455008 153.090610016,-30.921464998 153.09071401599996,-30.921562992499997 153.090654016,-30.9217039995 153.09063801600001,-30.921821992499996 153.090599008,-30.921940004 153.09054,-30.922061993 153.090436,-30.922128001 153.090316,-30.922136992 153.090196,-30.922113996499998 153.090092,-30.922053002 153.09002099200001,-30.921954008500002 153.08993900799999,-30.921878991 153.08983001599998,-30.921765993 153.08980201599999,-30.921677008 153.089731008,-30.921525992499998 153.08967100800001,-30.921460003 153.089556,-30.921370000500001 153.08951001599996,-30.921356995 153.08947001600001,-30.921321993 153.089370016,-30.921241999 153.089304,-30.9211509975 153.089264,-30.921088005 153.08921699199999,-30.921098994 153.089164,-30.921115995499999 153.08913801599999,-30.9211509975 153.089184,-30.921196008 153.08921100800001,-30.9212649945 153.08915100799999,-30.921322992 153.08908499200001,-30.921333999500003 153.089058016,-30.921369001499997 153.08909801600001,-30.9214030045 153.08915801599997,-30.921426 153.089238016,-30.921465997 153.089259008,-30.921551004499999 153.089327008,-30.921653994 153.08946899200001,-30.921841991 153.089528992,-30.922005993499997 153.089572992,-30.922118991499996 153.089608,-30.922218003499999 153.089540992,-30.922218003499999 153.089474016,-30.922303991500002 153.08944499200001,-30.922426998 153.08950300800001,-30.922560993499999 153.089608992,-30.922681003 153.08969100799999,-30.922765992 153.089732,-30.9228440065 153.08974,-30.922921003499997 153.0897,-30.923019997 153.08959299200001,-30.923105004499998 153.08951100799999,-30.923197005 153.08949699199999,-30.923317995 153.08947801599999,-30.923437005499999 153.089472992,-30.923620007499999 153.08945401599999,-30.923762994 153.089376,-30.923871996 153.089288,-30.923973006 153.089180992,-30.924083007 153.089034016,-30.924208992 153.088868,-30.924344005 153.08847801600001,-30.924723995 153.08824300799998,-30.924891993499998 153.088048,-30.924942998 153.08788201600001,-30.925034998499999 153.08773500799998,-30.925103004500006 153.087608,-30.925110996499999 153.087480992,-30.925077992499997 153.08730499200001,-30.924994002499997 153.08713900800001,-30.924867999 153.08711299199999,-30.924848000500003 153.08702499200001,-30.924791002 153.08696700799999,-30.924791002 153.08689900799999,-30.924818992499997 153.08680899199999,-30.924810001500003 153.086756,-30.924828002 153.08673500800001,-30.924860007 153.08674601600001,-30.924941 153.086824992,-30.925054997 153.08685500799999,-30.925161002 153.08687500799996,-30.925187993499996 153.087068,-30.925268006 153.087132,-30.925316994 153.08717900799999,-30.925399004499997 153.08717401600001,-30.925430991 153.087132,-30.925435005500006 153.087068,-30.925407995499999 153.087004992,-30.925381004 153.086972992,-30.925417005 153.08698899199996,-30.9254439965 153.087016,-30.925484992499996 153.08701100799999,-30.925516997500001 153.086963008,-30.925521992500002 153.08692601600001,-30.925494002 153.08692601600001,-30.925458001 153.086916,-30.925399004499997 153.086872992,-30.925363003499996 153.08682,-30.925371994499997 153.086768,-30.925353994 153.08674099199999,-30.925381004 153.086747008,-30.925435005500006 153.08677798399998,-30.925484992499996 153.08680499199997,-30.925531002 153.08683100799999,-30.925567003 153.08677900800001,-30.925635009 153.086715008,-30.925672009 153.08663100800001,-30.925635009 153.086578016,-30.925617008500002 153.08654099200001,-30.925635009 153.086536,-30.925689991 153.08653100800001,-30.925735001500001 153.08647299200001,-30.925743992499996 153.08644099200001,-30.925689991 153.086436,-30.925622003500003 153.08638300800001,-30.925563007 153.086336,-30.9255539975 153.08631500800001,-30.925617008500002 153.086272992,-30.9256990005 153.086236,-30.925762992 153.08612499200001,-30.925845002500004 153.08604601600001,-30.925858008 153.08599900799996,-30.925848998500001 153.085983008,-30.925780992500002 153.08597699200001,-30.9256990005 153.08593500800001,-30.925640004 153.085914016,-30.925681 153.08590899199999,-30.925762992 153.085883008,-30.9258400075 153.08580899200001,-30.925889994499997 153.085767008,-30.925899004 153.08569801600001,-30.925853993500002 153.085608,-30.925822007 153.085524,-30.925804006499998 153.08547100799998,-30.925791001 153.08537100800001,-30.9257720015 153.08534499199999,-30.925726991 153.08537100800001,-30.925677004 153.08535001600001,-30.925604003 153.085244,-30.925608998 153.08508099199997,-30.925673008 153.084923008,-30.925791001 153.084734016,-30.925995000500002 153.084528,-30.926204994 153.084339008,-30.926332995499997 153.08409100799997,-30.926546004499997 153.08377001599999,-30.926836991 153.083032,-30.927568 153.08268201600001,-30.927966009 153.082636992,-30.928064003500001 153.08241100800001,-30.928272998 153.082184,-30.928440996499997 153.08200499200001,-30.928659999499999 153.08184700800001,-30.928886994499997 153.081447008,-30.929386994 153.08126300800001,-30.929537991 153.08092499199998,-30.929915002499996 153.08059900800001,-30.930174002499996 153.08036201600001,-30.930324000500001 153.080230016,-30.930453001 153.08001401600001,-30.930675001 153.079782016,-30.930920995499996 153.07959801600001,-30.931165991 153.079372,-30.9313979995 153.079014016,-30.931817006 153.07861299199999,-30.932240008499999 153.078339008,-30.932576005499996 153.07818700799999,-30.932793991 153.077934016,-30.933162992 153.07764899200001,-30.933427005499997 153.077356,-30.933773991500001 153.07655401599999,-30.934622993499996 153.076143008,-30.935054006499996 153.07599500800001,-30.935277005500001 153.075452,-30.935876997499999 153.075042016,-30.936358996499997 153.074752,-30.9366589925 153.074330016,-30.937099995500002 153.07404601600001,-30.937381991 153.07385100799999,-30.937664005 153.07362499199999,-30.937996006 153.073219008,-30.9385000015 153.072972,-30.938828006499996 153.07278700800001,-30.939069006 153.07267900799999,-30.9392479935 153.072572992,-30.9393890005 153.07242099199999,-30.939586007 153.072336992,-30.939729992500002 153.07218499199999,-30.939887002 153.07199500799999,-30.940096995499996 153.07180499200001,-30.940307007499996 153.071676,-30.940530006500001 153.07156899200001,-30.940733007 153.07146300799999,-30.940968993 153.07126499200001,-30.941484995 153.071108,-30.941893993 153.070892,-30.942338992 153.07080300800001,-30.942509007 153.07060201599998,-30.942849999 153.07041801599999,-30.943123003499998 153.07010700800001,-30.943563007499996 153.06973801599997,-30.944017996500001 153.06951900799999,-30.944299992 153.06930598400001,-30.944526006500002 153.068768992,-30.944966991 153.06864201600001,-30.945067002 153.068516,-30.945212005 153.068388992,-30.945347998500004 153.06819900799999,-30.945507006 153.06803100799999,-30.945712004499999 153.06776201599999,-30.946033997 153.067566016,-30.9462320025 153.066914016,-30.946775995 153.06676300799998,-30.946877005 153.06672,-30.946914005 153.066350016,-30.947185992 153.06611801599996,-30.947408991 153.06593900799999,-30.947595008500002 153.065828,-30.947750001499998 153.065744,-30.947921996 153.065696,-30.948099004 153.06559100800001,-30.948253997 153.06540700799999,-30.948431005 153.06505299200001,-30.948691004 153.064732,-30.948917999 153.064627008,-30.949063002 153.06449500799999,-30.949253996 153.064311008,-30.949472 153.064084,-30.949691003 153.063863008,-30.949921994 153.06352,-30.950181993 153.06337299200001,-30.950349991499998 153.063236,-30.950508999 153.06304601599999,-30.950759008 153.062888,-30.9510040035 153.06266201599999,-30.951313009 153.06250300799999,-30.951518007499999 153.062356,-30.951654001 153.06219299199998,-30.951808994 153.06207699199999,-30.951945006 153.06194,-30.952136 153.061856,-30.952289994 153.061724,-30.9524450055 153.06153900800001,-30.952635999500004 153.06137100800001,-30.9528500075 153.06127100800001,-30.953026997 153.06122300800001,-30.953163009 153.061128,-30.953380994499998 153.06100700799999,-30.953580998 153.06076,-30.953876998 153.060512,-30.954186003500006 153.059964,-30.954840996 153.0596,-30.955274007 153.05929500799999,-30.955662007499999 153.059179008,-30.955843992 153.05906300800001,-30.956016005 153.058872992,-30.956261999500001 153.058784,-30.9564479985 153.058636,-30.956656993 153.058356992,-30.957143006499997 153.05822,-30.957356996 153.057940992,-30.957670996499999 153.057535008,-30.958166001 153.05734,-30.958407000500003 153.05717699199997,-30.958706996499998 153.056860992,-30.9591849995 153.056592,-30.959548006499997 153.05648099199999,-30.959766991 153.056366016,-30.959984995 153.056208,-30.9602490085 153.05600201600001,-30.960553000500003 153.055802016,-30.960852996499998 153.05565900799999,-30.961071000500002 153.05558,-30.961202998 153.05545900800001,-30.961393992 153.05534899200001,-30.961589999499999 153.055248,-30.961779994500002 153.05518,-30.961939002 153.055106016,-30.962093995 153.05505398399998,-30.962217001500001 153.05488,-30.962466992 153.05466899199999,-30.962880004499997 153.054395008,-30.963329998500001 153.05412099200001,-30.963858007 153.05355699200001,-30.964993999499999 153.05297299200001,-30.966077008 153.052804,-30.966381999 153.052636,-30.966709005 153.05232499199997,-30.967398999499999 153.05211401599999,-30.967758991 153.05197699199996,-30.968048997 153.05179801599999,-30.968340002 153.051703008,-30.968585996499996 153.051098016,-30.969734994500001 153.051024,-30.969836004500003 153.05091299200001,-30.969994993500002 153.05078700799999,-30.970204006500001 153.05066601599998,-30.970481007 153.05052899200001,-30.970758007500002 153.05049699200001,-30.970858 153.050464992,-30.971036007 153.050396992,-30.971240006500004 153.05030201599999,-30.971493993 153.05012300799999,-30.971853004 153.049944,-30.972193996 153.04976499200001,-30.972544996500002 153.04965401600001,-30.972734991500001 153.049532992,-30.972963004 153.04944300799997,-30.973217009 153.049296,-30.973430998499996 153.04917401599999,-30.973584992500001 153.04907401599999,-30.973735009 153.049016,-30.973926003 153.04892700799996,-30.974130002500001 153.048848,-30.974371002 153.048748,-30.974645005500001 153.048642016,-30.9748310045 153.04854700800001,-30.975013007499996 153.048463008,-30.975170997500001 153.048404992,-30.975339995 153.04832099199999,-30.975538999499996 153.048052,-30.976109003 153.047836,-30.976544992499999 153.04775699199999,-30.976681004500001 153.047740992,-30.976827006500002 153.047784,-30.976948995500003 153.047778016,-30.977036001 153.04772601599998,-30.977145003 153.047415008,-30.9775680055 153.047272,-30.9778039915 153.047178016,-30.977959003 153.047146016,-30.978109001 153.04708300799999,-30.978258999 153.04704,-30.9783949925 153.046998016,-30.978514003 153.046888,-30.978690992499999 153.046804,-30.978922002 153.04673500800001,-30.979159005500001 153.046692992,-30.979312999499996 153.04660300800001,-30.979490007500001 153.04644,-30.979840009 153.046335008,-30.980067004 153.04624,-30.980312998500001 153.04614,-30.980617009 153.045987008,-30.981089998500003 153.045892,-30.981285007 153.045744,-30.981549002 153.045644,-30.981749005499999 153.045491008,-30.981990005 153.04541798400001,-30.982176004 153.04530700800001,-30.982453004499998 153.045186016,-30.982906994499999 153.04510700799997,-30.983253 153.04504899199998,-30.983461994500001 153.04496499199999,-30.983793995500001 153.044828,-30.984107996 153.044644,-30.984574991499997 153.04441699200001,-30.9849749985 153.044275008,-30.985325 153.04416899199998,-30.985561004500006 153.04406899200001,-30.985743007500002 153.04398499199999,-30.985956997 153.04392099200001,-30.986189005499998 153.04381100800001,-30.986411005499999 153.043668,-30.986766002 153.043552,-30.987010997500001 153.043416,-30.987302002500002 153.0433,-30.987551993 153.04321001599999,-30.987711000500003 153.043184,-30.987852007499999 153.04312,-30.987978991499997 153.043068,-30.988133004 153.043026016,-30.988315007 153.042936,-30.988461009 153.04291001600001,-30.988587993 153.04287299200001,-30.988769996 153.04282601599999,-30.988961008499999 153.042768,-30.989206004 153.042688992,-30.989396998 153.042610016,-30.989582997 153.042552,-30.989724004 153.04249401600001,-30.989906007 153.04244700800001,-30.990060001 153.04235699200001,-30.990278005 153.04232,-30.990545996 153.042288,-30.990713994500005 153.04224601600001,-30.9909329975 153.04219900800001,-30.991132002 153.042124992,-30.991327991 153.042035008,-30.991578 153.04203001600001,-30.991786994499996 153.041967008,-30.992040999500002 153.04188300800001,-30.992255007499999 153.04170300800001,-30.992540999 153.04163500799999,-30.992672996499998 153.04159299200001,-30.992791008 153.04157699199999,-30.99291 153.04151401600001,-30.993109004500003 153.04143001599999,-30.993409000500002 153.041372,-30.993623008499998 153.04130899200001,-30.993799998 153.04124,-30.993954991 153.04116099199999,-30.994141008499998 153.04107100799999,-30.994340993499996 153.04098201599996,-30.994595997499999 153.04094,-30.994777001500001 153.040928992,-30.994923003500002 153.040908,-30.995003996499999 153.04087100800001,-30.995153994499997 153.040787008,-30.995327006500005 153.040719008,-30.995463 153.040650016,-30.995663003500002 153.04061801599997,-30.995817996499998 153.040580992,-30.9959540085 153.04054499199998,-30.996148998500001 153.040508,-30.9964040025 153.04046598400001,-30.996617992 153.040444992,-30.996845005500003 153.04039699200001,-30.997039995499996 153.040344992,-30.997262994500002 153.040292,-30.997440002499999 153.04023900799999,-30.997572 153.04017100799999,-30.9977759995 153.040096992,-30.997961998499999 153.04003401599999,-30.998134992 153.04001401599999,-30.998209991 153.04001299199999,-30.998287006499996 153.04004499199999,-30.998336993500001 153.040043008,-30.9984129915 153.04003299199996,-30.998456004 153.04001699199998,-30.998493004 153.039908,-30.998690991 153.03985299199996,-30.9988470015 153.03975699200001,-30.999138006499997 153.03972099200001,-30.999371994500002 153.03967299199996,-30.999756998 153.039532,-31.000407994500002 153.03930700800001,-31.001531 153.039124,-31.002633008 153.039072992,-31.002785004 153.03895801600001,-31.003180996499996 153.038916,-31.003467006499996 153.03889801599996,-31.003685991 153.039004,-31.004262007 153.03905900800001,-31.004531996 153.03911299200001,-31.004725006499996 153.03913699200001,-31.004957995500003 153.039119008,-31.0052860005 153.03903500799998,-31.0057009925 153.03875001599999,-31.006488001 153.03864899199996,-31.006932001 153.03861500799999,-31.007733994500001 153.03851401599999,-31.007991995499999 153.03831299199999,-31.008335004 153.03817900799996,-31.008893001 153.03807798399998,-31.009708999 153.03801001599999,-31.010669001 153.03801001599999,-31.011127005500001 153.03794300800001,-31.011656993500001 153.03794201599999,-31.0120150055 153.038008,-31.012687998500002 153.03787401599999,-31.013173993500001 153.037790016,-31.013889999 153.037555008,-31.015077995 153.03748700799997,-31.015952009 153.03752,-31.016523992 153.03750300799999,-31.017311999500002 153.03768601600001,-31.018028005 153.037736,-31.018085003499998 153.037868992,-31.018672008500001 153.037868,-31.019116008499999 153.037734016,-31.019732003 153.03743299199996,-31.020376006499998 153.037432,-31.020647993500003 153.03764899199999,-31.021521008499999 153.03764899199999,-31.021708006499999 153.037564992,-31.022008002500002 153.037548,-31.022266003499997 153.03744700799999,-31.022638001500003 153.037496992,-31.023154003499997 153.03763001600001,-31.023841001 153.037646016,-31.024099002 153.037612,-31.025373004499997 153.03764300799997,-31.027349008 153.03777699199998,-31.027850006499996 153.037776,-31.028423007 153.03774198399998,-31.028867007 153.037924992,-31.029984 153.03800700799997,-31.031444001499999 153.038207008,-31.0327760015 153.039107008,-31.035682999 153.03925699199999,-31.036027006499996 153.039656992,-31.036670991499999 153.03975699200001,-31.037057993 153.039774016,-31.037386997 153.04007401600001,-31.038332994499999 153.040190016,-31.038934004 153.040524,-31.039721993 153.04079001599999,-31.040881998500002 153.04100700800001,-31.041425991 153.04114099200001,-31.041683992 153.04149100800001,-31.042228003 153.04204198400001,-31.043416998 153.04245900800001,-31.043860998 153.042676992,-31.044161993 153.043294016,-31.045235992 153.043912,-31.046167004499999 153.044516448,-31.046885729499998 153.044144096,-31.047453254 153.044096096,-31.047700266 153.04397312,-31.0478342615 153.04379315200001,-31.047996266 153.043581152,-31.048185262 153.04337715200001,-31.048361252500001 153.04315612799999,-31.048572263500002 153.04306915199999,-31.048682264500002 153.043018144,-31.048796261500001 153.04294713599998,-31.048919286500002 153.04288614399999,-31.049059276 153.04287616,-31.049200283 153.04267216,-31.0494812795 153.04242716799999,-31.049744275499997 153.042366176,-31.049814279499998 153.04200416,-31.049833279 153.04182918399999,-31.049833279 153.04168518399999,-31.049836276 153.041229216,-31.049843287499996 153.04118121600001,-31.049865284 153.04100320000001,-31.049862305499996 153.0407032,-31.049833297499998 153.04043420799997,-31.049783292 153.04015820800001,-31.049733305 153.0398632,-31.049626301 153.03672422400001,-31.047501335500002 153.03601024,-31.047104344 153.03490822399999,-31.046336353499999 153.03456524800001,-31.046155349499998 153.03422224,-31.045795358 153.03384124799999,-31.045369358499997 153.03357424000001,-31.044959361499998 153.03295324800001,-31.043926377 153.03287622400001,-31.043865364 153.03245622399999,-31.043293381 153.03212022400001,-31.042965376 153.031720224,-31.042627381 153.030797248,-31.041883385 153.03052624,-31.041638389499997 153.030255232,-31.041333398500004 153.03009324799999,-31.041016382500001 153.02997622399999,-31.040597394500001 153.02974422400001,-31.040175391 153.029537248,-31.039741399500002 153.02931724800001,-31.039262397499996 153.02898822399999,-31.038600412 153.02838921599999,-31.036806411499999 153.02833321599996,-31.036648403 153.0281952,-31.0362584045 153.02809619199999,-31.035963403500002 153.02768019199999,-31.034726401 153.027645216,-31.034593404500001 153.02748220800001,-31.033972415 153.02696217599998,-31.03215442 153.02677017600001,-31.031720428500005 153.02622716799999,-31.030006422 153.026178176,-31.02982342 153.02613318399997,-31.029639419 153.02597113600001,-31.029010419 153.02574713600001,-31.028394424500004 153.025594144,-31.0278454185 153.02548614400001,-31.027458454 153.02540713600001,-31.026948446 153.02534812799999,-31.026471442 153.02508809599999,-31.025028442 153.02504611200001,-31.024361443 153.02492009599999,-31.023658443 153.02475206400001,-31.022179442 153.02464707199999,-31.021584445 153.024644064,-31.021180442 153.02458307200001,-31.020687454 153.02472803199998,-31.019722438500001 153.02483104000001,-31.018586446 153.024904,-31.018149439 153.025064,-31.016370442 153.02525097599997,-31.014648443499997 153.02531196800001,-31.014303437 153.02548195200001,-31.013408444 153.02570992,-31.01152544 153.02582390399999,-31.010756450500001 153.02582390399999,-31.010231439 153.02591888000001,-31.009265443 153.025956896,-31.008889449 153.02599488000001,-31.0082664245 153.02610489599999,-31.007723431 153.02621584,-31.007126436 153.02640486399997,-31.006401421 153.02659180800001,-31.005573435 153.026888832,-31.004102426 153.02701577600001,-31.003665419 153.02706179200001,-31.003438424 153.02716480000001,-31.002941421499997 153.027498592,-31.001413950500002 153.027566656,-31.001109662499999 153.02758464,-31.000969266 153.02758896,-31.0008522535 153.02757779199999,-31.000622317 153.02755513599999,-31.0004238675 153.02750544,-31.000236573500001 153.02738377599999,-30.999964864 153.02736035199999,-30.999912934499999 153.02728332800001,-30.999788096500001 153.02714832000001,-30.999626184500002 153.02699388799999,-30.999469767 153.0267984,-30.999282121500002 153.02648953600001,-30.999023991 153.02578643199996,-30.998407404500004 153.02564928000001,-30.998287709500001 153.02484755200001,-30.997588946 153.023953312,-30.996826024500002 153.02379347199999,-30.996694082499999 153.023740928,-30.996650607499998 153.023636896,-30.996583378499999 153.023298496,-30.996452787 153.022895296,-30.996344617499997 153.02269907199999,-30.996314721500003 153.02255257600001,-30.996292410500001 153.02183436799999,-30.996169293 153.02141747199997,-30.996109612 153.021005632,-30.9960505785 153.02066185599998,-30.995992895499999 153.02046060800001,-30.995942945499998 153.02022192000001,-30.995863192 153.02000521599996,-30.9957777035 153.019791008,-30.995677803500001 153.01930032000001,-30.995417971 153.01845900800001,-30.994988752499996 153.01771740799998,-30.994608059500003 153.017114752,-30.994287121499998 153.01690201599996,-30.994160211500002 153.01670688,-30.994014690500006 153.016628768,-30.993942337 153.01654201599996,-30.993841530500003 153.016433632,-30.993654865500002 153.01637712,-30.993501778 153.01636128000001,-30.993420322499997 153.01635228800001,-30.9932935235 153.016365952,-30.993136014500003 153.016462432,-30.992735619 153.01702620799998,-30.991147912 153.01708416,-30.990905728499996 153.01709747199999,-30.990821128 153.0170928,-30.990690444 153.01706617599999,-30.9905327685 153.01701251200001,-30.990348268 153.01693657600001,-30.9901868185 153.016806976,-30.990010051 153.01667772799999,-30.989863975 153.01652147199999,-30.989748683 153.01624464,-30.989610266 153.01597212799999,-30.989533417 153.0157176,-30.989521891500001 153.01538352,-30.98954781 153.015219008,-30.989583182 153.01492019200001,-30.989704949 153.01442016,-30.990051361499997 153.01343843199999,-30.990800963 153.01229328,-30.991696104 153.01204848,-30.99182886 153.0116856,-30.99199869 153.01134540800001,-30.992127209500001 153.011035808,-30.992229995499997 153.01079641600001,-30.992280926 153.01044108799999,-30.992351855 153.009161632,-30.992527438499998 153.00878329599999,-30.9925684715 153.00769609599999,-30.992686557 153.006963488,-30.992757486 153.006035392,-30.992832189 153.00578412799999,-30.992839737 153.005645152,-30.992832263 153.00546300799999,-30.9928060855 153.005263552,-30.992765034 153.004729696,-30.992617441 153.00430777599999,-30.992492066500002 153.00319571200001,-30.992179046500002 153.00299232,-30.992138106 153.00271945599999,-30.9921083025 153.002638432,-30.992105435 153.00250739200001,-30.992100847 153.00207036800001,-30.992130632 153.00184067199996,-30.9921567355 153.00160272,-30.992201468499996 153.00124777600001,-30.992261131 153.00109225599996,-30.992275986499997 153.00087948800001,-30.992267421 153.000486016,-30.992213604500002 153.000158752,-30.992046383 152.99988588799999,-30.9918672845 152.99937468799999,-30.991387764499997 152.99897075199999,-30.991012658499997 152.998748992,-30.990876295 152.99849555200001,-30.990780816500006 152.998289632,-30.990726186 152.998064992,-30.9906929785 152.996003648,-30.990388043 152.99560512,-30.9903389995 152.99555977599999,-30.990333412500004 152.99537651199998,-30.990333412500004 152.99512992000001,-30.990369783499997 152.99494668799997,-30.990418290500006 152.9940168,-30.990867119 152.99360137599999,-30.990806457499996 152.99340409599998,-30.990806457499996 152.99221321600001,-30.990909502499999 152.99179776,-30.990879181 152.99159401599996,-30.990795931 152.991588608,-30.990914460500001 152.991492128,-30.991018134499999 152.99126748800001,-30.991073394 152.990914336,-30.991128653500002 152.99068140799997,-30.991156292500001 152.99056620799999,-30.991188871 152.990472608,-30.991308307 152.99043264,-30.991405043500002 152.99041644799999,-30.991481097 152.99036857600001,-30.991515655 152.99023212799997,-30.991543294 152.99017561599999,-30.991536356499999 152.9900808,-30.991649077 152.989860128,-30.991628745499998 152.98951545599999,-30.991587324 152.98922377599999,-30.9915317685 152.98900316800001,-30.991493751 152.98813718400001,-30.991443764 152.98725116799997,-30.991339757 152.98695417600001,-30.991304755 152.98739318400001,-30.990283758500002 152.98788710399998,-30.988176738 152.98749209600001,-30.986200753 152.98680006399999,-30.983993758500002 152.98495408,-30.982709784499999 152.98132912,-30.980930843 152.97935212799999,-30.980107852 152.97753913599999,-30.978823878 152.97661715199999,-30.977308876 152.97674809599999,-30.975628872499996 152.97793507200001,-30.974146874499997 152.97817008000001,-30.973773877500001 152.979615008,-30.97147886 152.980570976,-30.968349844 152.98113190399999,-30.965813845500001 152.98185689600001,-30.964002843500001 152.983849824,-30.961664813500001 152.98432083200001,-30.961293814499996 152.98586080000001,-30.960083803500002 152.98830201600001,-30.958195952500006 152.98935369599999,-30.9573827665 152.99396758399999,-30.9549457245 152.99798851200001,-30.952706688 153.00031145599999,-30.951751662500001 153.00109046399999,-30.9515216705 153.00149744000001,-30.951475661 153.00268544,-30.951176645499999 153.004099392,-30.950845643500003 153.00735331199996,-30.948895614 153.011772224,-30.9461415745 153.01712512,-30.943765545499996 153.01959606400001,-30.9425345185 153.02409596800001,-30.940335479 153.02795382400001,-30.936850467500001 153.02897177599999,-30.933098464 153.03202464,-30.927200442 153.03241660800001,-30.925274444 153.03261459199999,-30.924305451 153.03122156800001,-30.920981463500002 153.028274592,-30.919426483 153.02618563199999,-30.919158510500001 153.02291670400001,-30.920337515500002 153.02055977599997,-30.921731546 153.01734579199999,-30.922428570499996 153.013594848,-30.921731601499996 153.012040896,-30.920873608500003 153.009924896,-30.919162636 153.00855689599999,-30.917011641 153.00829686399999,-30.914861645 153.00927379199999,-30.910430654500001 153.01135667199998,-30.9048256355 153.01319856000001,-30.8991306325 153.01350403199999,-30.898183247499997</coordinates></LinearRing></outerBoundaryIs></Polygon><Polygon><outerBoundaryIs><LinearRing><coordinates>153.08957100800001,-30.911125995500001 153.089539008,-30.910996995 153.08953801600001,-30.9108970025 153.08954499199999,-30.910807999 153.089616,-30.910769001 153.0897,-30.910707007500001 153.089900992,-30.910507004 153.090036,-30.910395005 153.09010700799999,-30.910294994 153.09021699199999,-30.910228005500002 153.09036601599996,-30.910204991499999 153.09056,-30.910204991499999 153.090728,-30.910283006 153.09087699200001,-30.910404995 153.09104601599998,-30.9105339955 153.09114899199997,-30.910651008 153.09125900800001,-30.910712002499999 153.091356,-30.910733999 153.091408,-30.910801006 153.09141500800001,-30.910952003 153.09138201599998,-30.911012997500002 153.09146,-30.911146993 153.091486016,-30.911307998499996 153.091448,-30.9114530015 153.091344,-30.911565000499998 153.09126,-30.911615006 153.091150016,-30.911632007499996 153.09103401600001,-30.911621 153.09089798400001,-30.911609992500001 153.09076198399998,-30.911621 153.090588,-30.911671005500001 153.090419008,-30.911665992 153.09018,-30.911599003500001 153.090056992,-30.911527001499998 153.08995299200001,-30.911454000499997 153.089798016,-30.911386993499999 153.08968099200001,-30.911265004499999 153.08957100800001,-30.911125995500001</coordinates></LinearRing></outerBoundaryIs></Polygon><Polygon><outerBoundaryIs><LinearRing><coordinates>153.087912,-30.9158639935 153.087752,-30.915672999499996 153.08760998400001,-30.915545997 153.087536,-30.915397997 153.08759801599996,-30.915228000499997 153.08762201600001,-30.915084995499999 153.087591008,-30.914963006500003 153.08749900800001,-30.914852006500002 153.08748,-30.9147509965 153.087548,-30.914681991499997 153.087628,-30.914697994 153.08773299200001,-30.914778006500001 153.087763008,-30.914868009 153.08778201600001,-30.914910004 153.08790499200001,-30.9149260065 153.088052,-30.914919994 153.088144992,-30.9150099965 153.08831100800001,-30.915142993 153.08852,-30.915302000500002 153.08861299200001,-30.915392003 153.088772992,-30.915487000499997 153.08889001599999,-30.915614003 153.088864992,-30.915767997 153.08877900799996,-30.915820999499996 153.08870499199998,-30.915884991 153.088718016,-30.915958991 153.088656,-30.916064996 153.08853299199998,-30.916097001 153.08835500800001,-30.916076003499999 153.08815801599999,-30.916032991 153.08806,-30.915990996 153.087912,-30.9158639935</coordinates></LinearRing></outerBoundaryIs></Polygon><Polygon><outerBoundaryIs><LinearRing><coordinates>153.100695008,-30.938015005500002 153.100796992,-30.937933994 153.100843008,-30.937928 153.10088201600001,-30.938012008499996 153.100876,-30.938174993500002 153.100987008,-30.938376995 153.101104,-30.938521998 153.101176,-30.938712992 153.101196,-30.938875995500002 153.101203008,-30.939038999 153.10133299200001,-30.939155993 153.101516,-30.939228994 153.10159401600001,-30.939330004 153.10162,-30.9394309955 153.101463008,-30.9393579945 153.101280992,-30.939257003 153.101156992,-30.939206997500005 153.10104,-30.939116995 153.10092899200001,-30.939083991 153.10090300799996,-30.939140009 153.10102099199997,-30.939314001499998 153.10097500800001,-30.939364007 153.100819008,-30.939252008 153.100656,-30.939140009 153.100538016,-30.938977005500004 153.10048,-30.938898991 153.100447008,-30.938809007 153.10038899200001,-30.938753007499997 153.100388,-30.938668999 153.10046598399998,-30.938668999 153.100518016,-30.938651997500003 153.100512,-30.938544993500003 153.10046,-30.938393996499997 153.10042099200001,-30.9382869925 153.10046598399998,-30.938141009 153.10057001600001,-30.938062994500001 153.100660992,-30.938035004 153.100695008,-30.938015005500002</coordinates></LinearRing></outerBoundaryIs></Polygon><Polygon><outerBoundaryIs><LinearRing><coordinates>153.07604899199998,-30.949391007 153.07617001599999,-30.949267001499997 153.07637500800001,-30.949149008500001 153.07651100800001,-30.949031996 153.07662499200001,-30.9488689925 153.07679100799999,-30.948718994499998 153.07689001599999,-30.948626994 153.07701801599998,-30.948626994 153.07713900799999,-30.948594008500002 153.07725299200001,-30.948620001 153.07735100799997,-30.948717995500001 153.077359008,-30.948861999499997 153.07729900800001,-30.949058007 153.07715500799998,-30.949181994 153.076928,-30.949272995499999 153.07675299199997,-30.949286001 153.076684992,-30.949378001499998 153.076572,-30.949527999500003 153.07641299199997,-30.949593008500003 153.076268992,-30.949619001 153.076148,-30.949657999 153.076064,-30.949658998 153.07603401599999,-30.949605995500001 153.07604899199998,-30.949514994 153.07604899199998,-30.949391007</coordinates></LinearRing></outerBoundaryIs></Polygon><Polygon><outerBoundaryIs><LinearRing><coordinates>153.08784300799999,-30.910285004 153.087908,-30.910256995 153.087998016,-30.910246006 153.08811500799999,-30.910268002500001 153.088192,-30.910367995 153.08819299199999,-30.910445991 153.08818,-30.910529999499996 153.08820601599999,-30.910580005 153.08829001599997,-30.910614008 153.088392992,-30.910640999499996 153.08849100800001,-30.910692004 153.08861299200001,-30.910691005 153.088652,-30.910714000499997 153.08884700799999,-30.910892007499996 153.088898016,-30.911003007499996 153.088898016,-30.911103999 153.08884700799999,-30.911159998499997 153.088776,-30.911147992 153.08867801599999,-30.911076008499997 153.08857500799999,-30.910970003500001 153.08847801600001,-30.910919998 153.088335008,-30.9108200055 153.08822499199999,-30.910747004499999 153.08818,-30.910669008500005 153.088128,-30.910646993500002 153.087986016,-30.910603000499997 153.08789500799998,-30.910512998 153.087816992,-30.9104239945 153.08779801599999,-30.910345998500002 153.08784300799999,-30.910285004</coordinates></LinearRing></outerBoundaryIs></Polygon><Polygon><outerBoundaryIs><LinearRing><coordinates>153.07604899199998,-30.949253996 153.07595801599999,-30.949331992 153.07586700799999,-30.949450003499997 153.07573100799999,-30.949541005 153.07564,-30.949581002 153.075602016,-30.949509 153.075632,-30.949364996 153.07568499199999,-30.949253996 153.07575401599999,-30.949169007 153.075875008,-30.949058007 153.07601801600001,-30.948881998 153.076072,-30.948809996 153.07611699200001,-30.948770998 153.076176992,-30.948770998 153.076268992,-30.948848994 153.07629100799997,-30.948940994499999 153.07626099199996,-30.9491170035 153.07616300800001,-30.949189005499999 153.07604899199998,-30.949253996</coordinates></LinearRing></outerBoundaryIs></Polygon><Polygon><outerBoundaryIs><LinearRing><coordinates>153.076364,-30.878278006 153.07649401599997,-30.878197993499999 153.07663299199999,-30.878206004 153.07673500800001,-30.878269995500002 153.076754016,-30.878358 153.076763008,-30.878453996499996 153.076856,-30.878534009 153.07695801599999,-30.8786300055 153.077032,-30.878702007499996 153.07706099200001,-30.878870006 153.07706099200001,-30.878989997 153.07698601600001,-30.878957992 153.076884,-30.878901992500001 153.07679100799999,-30.8787899935 153.07668899199999,-30.8786300055 153.076559008,-30.878518006500002 153.076447008,-30.878462007 153.076364,-30.878390005 153.076364,-30.878278006</coordinates></LinearRing></outerBoundaryIs></Polygon><Polygon><outerBoundaryIs><LinearRing><coordinates>153.043499008,-30.882077998500002 153.04342499200001,-30.882005996500002 153.04339801599997,-30.881903007 153.04347100800001,-30.881823993499999 153.04354499199999,-30.881792007 153.043655008,-30.881807991 153.04373801599999,-30.881918991 153.04372899200001,-30.881989994 153.043655008,-30.882054004 153.043499008,-30.882077998500002</coordinates></LinearRing></outerBoundaryIs></Polygon><Polygon><outerBoundaryIs><LinearRing><coordinates>153.10201100800001,-30.938627004 153.10193801599999,-30.938538999499997 153.10192499199999,-30.938477006 153.102068,-30.938477006 153.10215299199999,-30.938555002 153.102159008,-30.938599994 153.10228998400001,-30.938650998499998 153.10233500800001,-30.938745996 153.102264,-30.938847006 153.10217900800001,-30.938797000499999 153.10206201599999,-30.938672995 153.10201100800001,-30.938627004</coordinates></LinearRing></outerBoundaryIs></Polygon><Polygon><outerBoundaryIs><LinearRing><coordinates>153.088663008,-30.911550996 153.08875001600001,-30.911554992 153.08880201599996,-30.911588995 153.08884700799999,-30.911650008 153.08884700799999,-30.911711002499999 153.088854016,-30.911789997500001 153.08883401599999,-30.911850992 153.08876300799997,-30.911856005500002 153.088712,-30.911801005 153.08862099199999,-30.911738993 153.08861401599998,-30.911666991 153.08862,-30.911588995 153.088663008,-30.911550996</coordinates></LinearRing></outerBoundaryIs></Polygon><Polygon><outerBoundaryIs><LinearRing><coordinates>153.084463008,-30.897809991500001 153.08452598399998,-30.897817003 153.08458201600001,-30.8978779975 153.084586016,-30.897967001 153.08454601599999,-30.898047994 153.084475008,-30.898055005500005 153.08442,-30.897993992500002 153.08434499200001,-30.897935995 153.08431299200001,-30.897906006499998 153.08434499200001,-30.897881993499997 153.084376,-30.897851006 153.0844,-30.897817003 153.08443500799999,-30.897806994500005 153.084463008,-30.897809991500001</coordinates></LinearRing></outerBoundaryIs></Polygon></MultiGeometry>

	</Placemark>
</kml>