<?xml version="1.0" encoding="UTF-8"?>
<kml xmlns="http://www.opengis.net/kml/2.2">
	<Placemark>
		<Style>
			<LineStyle>
				<color>ff0000ff</color>
			</LineStyle>
			<PolyStyle>
				<fill>1</fill>
				<color>330000cc</color>
			</PolyStyle>
		</Style>
			<ExtendedData><SchemaData>
		<SimpleData name="STATE_2006">1</SimpleData>
		<SimpleData name="POA_2006">2113</SimpleData>
	</SchemaData></ExtendedData>
      <Polygon><outerBoundaryIs><LinearRing><coordinates>151.14105875199999,-33.80660238 151.140958912,-33.806772987 151.140876832,-33.807005014 151.14082896,-33.807245033 151.140814912,-33.807467976499993 151.14082499200001,-33.807623043500001 151.140854176,-33.807779017 151.140899168,-33.807934972 151.14093913599999,-33.808033984 151.14100499200001,-33.808190031500004 151.141076992,-33.808343045 151.141154048,-33.808494967 151.141236832,-33.808644983500002 151.141325056,-33.808791966 151.14138803200001,-33.808885021 151.14145500800001,-33.808976004 151.14152412799996,-33.809067005499998 151.14159001600001,-33.809158987499998 151.14165084800001,-33.809253023 151.14169584000001,-33.809321972500001 151.141745152,-33.809392975500003 151.141789088,-33.809463997 151.14182112,-33.809535999 151.141835168,-33.809607002 151.14182185600001,-33.809699964499991 151.141782976,-33.809799957 151.141722848,-33.809895990500003 151.14164905600001,-33.809978963 151.14156697600001,-33.810035036499997 151.14146688,-33.810064026 151.14134592,-33.810072036500003 151.14121596800001,-33.810063027 151.14109104,-33.810038995500001 151.14098304000001,-33.810002014 151.140927968,-33.809972044 151.140876832,-33.809934951500004 151.14082787199999,-33.809894011 151.140778912,-33.809852978 151.14072816000001,-33.809814997499998 151.14065184,-33.809763956 151.140575168,-33.809715985499992 151.14049596800001,-33.809669014 151.14041388800001,-33.809625002499999 151.14033107200001,-33.809585042500004 151.14023388800001,-33.80954499 151.14013488,-33.809509988 151.14003299199999,-33.809479019 151.139930048,-33.8094510285 151.139826016,-33.809425017500004 151.13967696,-33.809391995 151.13952505599997,-33.809364985 151.13937203200001,-33.809343025499999 151.13921689599999,-33.809328003499999 151.13906387199998,-33.809318013500004 151.13905884799999,-33.809379026500004 151.139068928,-33.809445996500003 151.13909017599997,-33.809511967499994 151.139121856,-33.8095729805 151.13916217600001,-33.809624003499998 151.13919203200001,-33.809646962 151.139226976,-33.809664962500001 151.139262976,-33.809682963 151.13929609600001,-33.8097030355 151.13932201599999,-33.809725975500001 151.13933712,-33.809751006 151.139346848,-33.809777997499992 151.13935513600001,-33.809806987 151.13936304000001,-33.809834977500003 151.13937385599999,-33.809862968 151.139390048,-33.809893012 151.13940912000001,-33.809922001499999 151.13942892799997,-33.809950972500005 151.13944908799999,-33.809978963 151.13946816000001,-33.810009025500001 151.13949299199996,-33.810053037 151.13951603199999,-33.810096956 151.13953907199999,-33.810141966499998 151.139564992,-33.810185978 151.139593088,-33.8102279915 151.13963593599996,-33.81027696099999 151.139683072,-33.81032402499999 151.13973491199997,-33.810369035500003 151.13978604799999,-33.810413047 151.13983788799999,-33.810456966 151.13988,-33.810495039 151.13992211199999,-33.810532020499998 151.13996387200001,-33.810569002 151.140007072,-33.81060500299999 151.14004992,-33.810641004 151.14011904,-33.810704015 151.140186016,-33.810768987 151.14025008,-33.810834958 151.140313088,-33.810903001 151.140372128,-33.810972024500003 151.14045097599998,-33.811067965500001 151.14052585600001,-33.811166977500001 151.14059603199999,-33.811268043 151.14065904,-33.8113719945 151.14071305600001,-33.811478018 151.14075984,-33.8115999515 151.14079584000001,-33.811727046499996 151.140822112,-33.81185601 151.14084300799999,-33.811985972500004 151.140859936,-33.812115028500003 151.14087504,-33.812256960500001 151.140884032,-33.812397986 151.140888,-33.812540991 151.140884032,-33.812683015499999 151.14087395199999,-33.812823967 151.14085091199999,-33.812963993499999 151.140814912,-33.8131019665 151.14077603199999,-33.813241012500001 151.14074291200001,-33.813378985500002 151.140727072,-33.813518031500003 151.14072384,-33.81363197299999 151.140724928,-33.813747986499997 151.140732128,-33.813863001 151.14075299199999,-33.81397496299999 151.14078793600001,-33.814080986500002 151.14084192000001,-33.814181978 151.140889472,-33.814248208 151.14090995199996,-33.814279972500003 151.14098988800001,-33.814374026499998 151.14107808,-33.814460976500001 151.14117385599999,-33.814538991 151.14127609600001,-33.81460703399999 151.14138803200001,-33.814667973 151.141506112,-33.814721974500003 151.14162995199999,-33.814767965500003 151.14175417600001,-33.814803966500001 151.14186108800001,-33.814825019499992 151.14197196800001,-33.814836008500002 151.14208499200001,-33.81484302 151.14219696000001,-33.814850031500001 151.14230892800001,-33.814861020500004 151.14241692799999,-33.814877041500004 151.14252601600001,-33.814893969 151.14263401599999,-33.81491195099999 151.142742016,-33.814932023499999 151.14284892800001,-33.814954982 151.142928832,-33.814971983500001 151.14301091199997,-33.814988004500002 151.14309193599999,-33.815006005 151.14316896,-33.815028963499998 151.14324204799999,-33.815058027 151.14335184000001,-33.815126976500004 151.143455168,-33.815217959500004 151.143544096,-33.815321004499999 151.143612832,-33.815431986 151.143656032,-33.815540969499999 151.143665056,-33.815588033499999 151.14367513600001,-33.815635023500001 151.14368700799997,-33.815681995 151.14369996799999,-33.815727986 151.14371507199999,-33.815773977 151.14375001600001,-33.815855969 151.14379715199999,-33.815934982500004 151.143843968,-33.816014014499999 151.143882848,-33.816093028 151.143903008,-33.816174021 151.14390192,-33.816249982 151.14388896,-33.816327034499999 151.14386700799997,-33.816403976 151.14384,-33.8164810285 151.14381299199997,-33.816555990499999 151.143792832,-33.816608993 151.14377305599999,-33.8166629945 151.14375107199996,-33.816716015499999 151.143724096,-33.816767038499997 151.14369203199999,-33.816814028499991 151.14362112000001,-33.816887991500003 151.14353113600001,-33.816956034500002 151.14342816000001,-33.817013995 151.143319072,-33.817060985 151.14321001600001,-33.817094007500003 151.143125056,-33.817109048 151.14303683200001,-33.817114986500002 151.142946112,-33.817113987500001 151.14285612800001,-33.817109048 151.14276684800001,-33.817101037500002 151.14270384,-33.817094007500003 151.14264012800001,-33.817085016500002 151.14257712,-33.817074027499999 151.142515936,-33.817059986 151.142456896,-33.817041985499998 151.14239315200001,-33.81701003599999 151.14233305600001,-33.816969983500002 151.14227507199999,-33.816926971 151.14221497599999,-33.816887011 151.142150176,-33.816859020500004 151.14204684800001,-33.81684102 151.14193596800001,-33.81684102 151.141820032,-33.8168539885 151.14170304000001,-33.816871989 151.14159107200001,-33.816891969 151.14146688,-33.816920033500004 151.14134592,-33.816958014 151.14122496,-33.81700104499999 151.141104,-33.817041985499998 151.140980896,-33.817074027499999 151.14087792000001,-33.817098965500001 151.14077315200001,-33.817124976499997 151.14066803200001,-33.817146029500002 151.14056617599999,-33.817156019500004 151.140470048,-33.81714900799999 151.14036816000001,-33.817113007 151.14026988800001,-33.817053955 151.14017699199997,-33.816978993 151.14009312,-33.816896002 151.14001788799999,-33.816813029500004 151.13994300799999,-33.816702954500002 151.13988793600001,-33.816581002499994 151.139844,-33.816450966 151.13980188799999,-33.8163200045 151.13975292800001,-33.816194001 151.13971584000001,-33.816105996499999 151.13968201599999,-33.816016974500002 151.139646016,-33.815927971 151.13960316800001,-33.815843999500004 151.139549152,-33.815765966500003 151.139459872,-33.815678036 151.13935187199999,-33.815600003 151.139232,-33.815529 151.139107072,-33.815463029 151.13898288,-33.81540201599999 151.13886192000001,-33.815346035 151.13873699199999,-33.815294993500004 151.13860992,-33.815248022 151.13847996800001,-33.815207969500001 151.13834784,-33.815172967500004 151.138235872,-33.815150009 151.13812211199999,-33.815130029 151.13800691200001,-33.815115007 151.137891008,-33.815104018 151.13777507200001,-33.815096007500003 151.13766384,-33.815095027 151.13755296,-33.815098986 151.13744099199999,-33.815105997499991 151.137329056,-33.815112028500003 151.13721708799997,-33.815115007 151.137142912,-33.815112028500003 151.13705904,-33.81510501699999 151.13697984000001,-33.815098986 151.13691900799998,-33.815098986 151.13688912000001,-33.815109956500002 151.13688300800001,-33.8151390385 151.136886976,-33.815172967500004 151.13688048,-33.815170433 151.13667750400001,-33.8150384355 151.13645849599999,-33.8148634255 151.13628176,-33.814768409500005 151.13616502400001,-33.814706397500004 151.13601750399999,-33.814627439500001 151.135677504,-33.814494424499998 151.13547248,-33.814448452 151.135249504,-33.814418445 151.135115488,-33.814285448500002 151.13491449599999,-33.81408244799999 151.13462748800001,-33.813848441499992 151.134373504,-33.813730448500003 151.13416851199997,-33.813684457500003 151.13404953599999,-33.813640446 151.13398153599999,-33.813624443500004 151.133845536,-33.8135364575 151.13320851200001,-33.812897467500001 151.132988512,-33.812736462 151.132818528,-33.812648476 151.13273353599999,-33.812618469 151.13266652799999,-33.812574476 151.13230953600001,-33.812440462 151.13222451199999,-33.812396469 151.13181952,-33.812061471 151.13163452799998,-33.811886461 151.131230528,-33.811566466500004 151.13104553599999,-33.811391475 151.13085952,-33.811259477500002 151.13070752,-33.811171491499998 151.13048652800001,-33.8110974915 151.13036656,-33.811081489 151.12925654399999,-33.810864502500003 151.12889856000001,-33.810773501 151.128711552,-33.810713505500004 151.12845555199999,-33.810638506499998 151.12821859199997,-33.810520513500002 151.127947584,-33.810344504500002 151.12784758399997,-33.810200500500002 151.12768057599999,-33.810011504500004 151.127528576,-33.809880506 151.127110816,-33.809491543500002 151.12723104,-33.809364004500004 151.12748953599998,-33.8091155125 151.12898963200001,-33.807669201 151.12785456,-33.806852814500004 151.12586448,-33.805409481499993 151.12488384,-33.804698045499997 151.12466531199999,-33.804539556 151.12392371199999,-33.805211846 151.12326924800001,-33.805804493499998 151.122733216,-33.805738171 151.12236780799998,-33.805471586 151.12159164799999,-33.806246754500002 151.12152972800001,-33.806202576499999 151.12092672,-33.805767956 151.12043465599999,-33.805640602 151.120709664,-33.8053735915 151.120869664,-33.805218598499998 151.120113664,-33.804674606 151.11961065599996,-33.804311617499998 151.11997401599999,-33.8039610055 151.12006864,-33.803870614499999 151.11969164800001,-33.803596611 151.11959478399999,-33.803544589 151.11973945599999,-33.803407078500001 151.12049075199999,-33.802686263 151.12119203200001,-33.802014232 151.12006739199998,-33.801196772499999 151.11990252800001,-33.8010865125 151.119306016,-33.800690242500004 151.119021248,-33.8005010615 151.11844848,-33.800120738499999 151.11832355199999,-33.800037488500003 151.11731664000001,-33.799366808 151.116557056,-33.7988834955 151.116437152,-33.799023096500001 151.11548963199999,-33.799916609499995 151.11539964799999,-33.799950816 151.11531683199999,-33.799930558500002 151.11510480000001,-33.799772346499999 151.11505836800001,-33.799599982 151.11479267199999,-33.798878667 151.11472393599999,-33.798826571 151.11484345599999,-33.798285353499999 151.11487728,-33.798176999 151.11491760000001,-33.798069995 151.11494028800001,-33.798017251499999 151.11497052799999,-33.797952631 151.115003648,-33.797888824499992 151.11503603200001,-33.797831215500004 151.11457164800001,-33.797493997499998 151.11410112,-33.797131564 151.11325331200001,-33.796506597 151.11275148799999,-33.79613408099999 151.112455552,-33.795914301 151.11044316799999,-33.794408068 151.110318976,-33.79431519799999 151.10982998399996,-33.793950045 151.10997372799997,-33.793844724499998 151.11009571199997,-33.793774720500004 151.11037171199999,-33.793678724 151.11052771199999,-33.793594734 151.110816704,-33.793315735500002 151.11087772799999,-33.793255721500003 151.11091372800001,-33.793156728 151.11090070399999,-33.792998719499998 151.11086771199999,-33.792926736 151.11082672000001,-33.792849720500001 151.11062070400001,-33.792464735499998 151.11067372799997,-33.792365723499998 151.11079667199999,-33.792252725499999 151.11084067199999,-33.792204718 151.11095468799999,-33.792082729 151.111041696,-33.792012725 151.11112867200001,-33.791927736 151.111233696,-33.791843727500002 151.11130467199999,-33.791729730500002 151.111358688,-33.791587724500005 151.11136067199999,-33.791515722500002 151.11139056,-33.791432657500003 151.11139667200001,-33.79141573 151.11143369600001,-33.791301733 151.111469696,-33.79123073 151.11244864,-33.790314702499998 151.112659648,-33.790059717 151.11274764800001,-33.789960705 151.11290364800001,-33.789862710500003 151.113165632,-33.78962271 151.11336694400001,-33.789369981500002 151.113447616,-33.789268712500004 151.11409561599996,-33.788576683 151.11414857599999,-33.788520683500003 151.114427648,-33.788280683 151.11453347200001,-33.788138677 151.11473257599999,-33.787654735499999 151.11473651200001,-33.787454676499998 151.11464256,-33.787051654 151.11456048,-33.786864711500002 151.11456553599999,-33.786635663 151.11457504000001,-33.786586009 151.11458460799997,-33.786535689 151.11464256,-33.78622167 151.11471744,-33.785921692499997 151.114824736,-33.785708665 151.11501948799997,-33.785410685500004 151.11519443200001,-33.785241651 151.11542051199999,-33.785086676500001 151.11562860800001,-33.784975713500003 151.11590544,-33.784850709 151.11616464,-33.784739727500003 151.116165376,-33.784696715 151.11627049599997,-33.784597703 151.11646345599999,-33.784371725500002 151.11648252800001,-33.784328694500005 151.11670969599999,-33.7841176465 151.11683536,-33.784063996500002 151.11488556800001,-33.782550382 151.11369036799999,-33.781622403500002 151.11516384000001,-33.780235680499999 151.11517283199998,-33.780235865500003 151.11520236800001,-33.780229113 151.115228288,-33.780215793 151.11524124799996,-33.780203823500003 151.1152488,-33.780196793500004 151.11526176,-33.780173853500003 151.115266816,-33.78014874899999 151.11526284799999,-33.780123441 151.11525168,-33.780101407499991 151.11526544,-33.78008892 151.11621648,-33.779226413 151.11632448,-33.779128418500001 151.11645161600001,-33.779012460499992 151.11635417599999,-33.778946878 151.11802873600001,-33.777384035 151.118108992,-33.777309239499992 151.11976105599999,-33.7756525275 151.12061459200001,-33.77479662499999 151.120410112,-33.774648125500001 151.118371072,-33.773167718499998 151.11901296,-33.772549596499999 151.11911123199999,-33.772454913499999 151.11922067200001,-33.772349519 151.11958896,-33.771995281 151.121666272,-33.769994672500005 151.12199827200001,-33.769743664499998 151.12207926400001,-33.769930662499995 151.12221328000001,-33.77008967 151.12234928000001,-33.770149647 151.12250227199999,-33.770180653 151.122622272,-33.770181652 151.12306822400001,-33.77017366 151.12310224000001,-33.770188645 151.12318723199999,-33.770204647500002 151.12330624000001,-33.770249658 151.12342422399999,-33.770336645 151.12347424000001,-33.770394661 151.12359324799999,-33.770496651500004 151.12360924800001,-33.770539645500001 151.12367523199998,-33.770626651 151.12375824,-33.770756650500005 151.12377724800001,-33.770784659500002 151.12380822399999,-33.770829651499994 151.123873248,-33.771001646 151.12398924799999,-33.771204646500003 151.12418924799999,-33.771450659500005 151.12444224000001,-33.771625632500005 151.12451024000001,-33.771655639500004 151.12533424,-33.772397637499992 151.12545222399999,-33.772485642 151.12548524799999,-33.772543639499993 151.12565024,-33.772661632500004 151.12568822399999,-33.772689641499994 151.12592524799999,-33.772836642500003 151.12609523199998,-33.772895620499995 151.126180224,-33.772911623 151.12628323199996,-33.772912622 151.12638924800001,-33.772882615 151.126473248,-33.772858620500003 151.12683820800001,-33.77259161 151.1270112,-33.772493615500004 151.127100192,-33.7724586135 151.12715020799999,-33.772438615 151.1274432,-33.772342618499998 151.127821216,-33.772290615 151.12859116800001,-33.77231559 151.13030115199999,-33.772483588500002 151.13132713600001,-33.772626575 151.131634144,-33.772645574500004 151.13167785600001,-33.77266487 151.131702144,-33.772675581499996 151.13178812799998,-33.772690585 151.131974144,-33.77277957 151.13209315200001,-33.772838585 151.13217811199999,-33.772868573499991 151.13258409599999,-33.773131569500002 151.132838112,-33.773235558 151.132906112,-33.773294554499998 151.13314112,-33.773526563 151.13313910400001,-33.773626555500002 151.133188096,-33.773742569 151.13318512000001,-33.773870552 151.13314809600001,-33.773970563 151.13306112000001,-33.774055552 151.13299209600001,-33.774083561 151.13259513599999,-33.774220553500001 151.13250812800001,-33.774276553 151.13243913599999,-33.7743185665 151.13235212800001,-33.774360561499996 151.13235113599998,-33.77441756 151.13231612799999,-33.774460554 151.132312128,-33.774646553 151.13236214399998,-33.774747563 151.13256412800001,-33.774893565 151.13290515200001,-33.774983567500001 151.13329715200001,-33.775061563500003 151.133502112,-33.775078565 151.13369110400001,-33.775081562 151.133828096,-33.775054552 151.13411910400001,-33.775058548 151.13458112000001,-33.775122539500003 151.13476809599999,-33.775168549 151.13508371200001,-33.775316438 151.13534761599999,-33.775439962500002 151.13543008,-33.775478535 151.13556707199999,-33.775509541 151.13619408,-33.775790519 151.13626208,-33.775834530499999 151.13631408,-33.775834530499999 151.13636406399999,-33.775864519 151.13646707199996,-33.775879522499999 151.13653606400001,-33.7758805215 151.136587072,-33.775896524 151.13686006399999,-33.77590052 151.13699904000001,-33.775844520500002 151.13720803199996,-33.775689527499999 151.13727804800001,-33.775619523499998 151.13729603199999,-33.7755765295 151.13734803200001,-33.77552053 151.137385056,-33.775434523500003 151.13740403200001,-33.775306522 151.13741104,-33.775005527 151.137465056,-33.774848517500004 151.13757203200001,-33.774649531500003 151.13757904,-33.774645517 151.13769305599999,-33.774580526500003 151.137745056,-33.774566522 151.13778,-33.774538531499999 151.137901024,-33.774496499500003 151.13810700799999,-33.774471506 151.138312,-33.774503511 151.13875401600001,-33.7746385055 151.13894,-33.774769504 151.139124,-33.774986509 151.13925500799999,-33.775303506499995 151.139434016,-33.775750485 151.139548,-33.776010484 151.139648,-33.776183477499998 151.139779008,-33.776471485500004 151.13981001600001,-33.776629494 151.13980902399999,-33.7766584835 151.139915648,-33.777131621 151.13991900799999,-33.777146495 151.14021011200001,-33.777674004 151.140188064,-33.777977182 151.140140992,-33.77823152 151.140046848,-33.778417371 151.13997622400001,-33.778593454 151.13985852799999,-33.7787304095 151.13967024,-33.778808664499998 151.1394584,-33.77878911 151.13914064,-33.7787304095 151.13891702399999,-33.778720623 151.138764,-33.778867365 151.13869340799999,-33.779063002500003 151.138752256,-33.779219512499999 151.13881110399998,-33.779346681500002 151.13886992,-33.779473850500004 151.13895232,-33.779601019499992 151.13904646399996,-33.779679274499998 151.139199488,-33.779865144 151.139293632,-33.779992313 151.13936425599996,-33.780178182500002 151.139376,-33.780305351500004 151.139376,-33.780442288499998 151.13936425599996,-33.7805694575 151.13934070399998,-33.7807455405 151.139376,-33.781283557500004 151.13943484800001,-33.781430299500002 151.1394584,-33.78164551 151.139505472,-33.7818215745 151.13962316800001,-33.782124826500002 151.139740864,-33.782320482499998 151.13984678400001,-33.7824476515 151.139952704,-33.782545461 151.14009392,-33.782604161500004 151.14025008,-33.782636462500001 151.140457056,-33.782567476 151.14068304,-33.782413463499999 151.141176672,-33.781946283 151.14136499200001,-33.7817702185 151.14155328000001,-33.781623495 151.141718048,-33.781496326 151.14184752,-33.781427857499999 151.14204761600001,-33.781320243 151.14230652800001,-33.78123222 151.14256544,-33.781183306 151.14281260799999,-33.781193092500004 151.142918528,-33.781437625500004 151.14294204800001,-33.781691963500002 151.142930304,-33.781926728500004 151.14290675199999,-33.782278876 151.142930304,-33.782611450499999 151.14307152000001,-33.782914702500001 151.14322451199999,-33.783080980500003 151.143424608,-33.783178808500004 151.14361289600001,-33.783208149499998 151.14376588799999,-33.783198363 151.143965984,-33.783208149499998 151.14423667200001,-33.783257063500002 151.14440144,-33.783325532 151.144517216,-33.783471164 151.144644992,-33.784063996500002 151.14475452799999,-33.78451893 151.14487747199999,-33.785109043 151.144845664,-33.785355611 151.144856256,-33.785461283 151.14500460799999,-33.785610985 151.145184704,-33.785681433 151.14536899199996,-33.785715417500001 151.14584198399999,-33.785659418 151.14644198400001,-33.785729385 151.14692230399999,-33.785857534500003 151.14747324799998,-33.786227368 151.148236064,-33.786808564 151.14869894399999,-33.787247384 151.14896713600001,-33.7875834735 151.149019936,-33.787748382499998 151.14893593599999,-33.787915382 151.14861750399999,-33.788041367 151.148246656,-33.788041367 151.14763216,-33.788041367 151.147420256,-33.788094203 151.14717657599999,-33.788235099 151.14713420800001,-33.788411219 151.14720835200001,-33.788648981 151.147356672,-33.7889131425 151.14747321600001,-33.789274188500002 151.14744144,-33.789582398500002 151.14728252800001,-33.78993462 151.14713417600001,-33.79039253199999 151.147144768,-33.790885649499998 151.14719776000001,-33.79156369299999 151.147348,-33.792176376 151.14772752,-33.7927700965 151.14806656,-33.793263214 151.14815132800001,-33.793703514 151.148236064,-33.793976481500003 151.148392,-33.79430335799999 151.148724,-33.794463364500004 151.149135008,-33.7944743535 151.14933001599999,-33.794211339 151.14941001599999,-33.793812331 151.14958099200001,-33.793572330499998 151.149889984,-33.79333233 151.15035798399998,-33.793069334 151.15104393600001,-33.792464347 151.15150992,-33.792003974499998 151.15185955199999,-33.791537275 151.152004928,-33.791116344500004 151.15222192,-33.790716319 151.15242790400001,-33.790499314 151.15260118399999,-33.790480573499998 151.15281308799996,-33.790524603500003 151.15308854400001,-33.790639081500004 151.15352489599996,-33.790899321 151.15391388800001,-33.791173324500001 151.15431756800001,-33.791440409 151.1547096,-33.791607723 151.15504486399999,-33.7915613065 151.15536486400001,-33.791379303500001 151.15566284799999,-33.791265306500001 151.15606185600001,-33.791219278500002 151.156156864,-33.791238278 151.156336864,-33.791276277 151.15651984,-33.791493282 151.15675984000001,-33.791916284499997 151.156789632,-33.792013224500003 151.15683171200001,-33.792157728 151.15687776,-33.792185256 151.157106336,-33.792708843 151.156867328,-33.792749284 151.15633056,-33.792840267 151.15625027199999,-33.792832793 151.156168192,-33.792815976500002 151.15608793599998,-33.792790761 151.156012672,-33.792758552500004 151.15594643200001,-33.7927202945 151.15589136,-33.792670622 151.155847808,-33.792609775500004 151.15576931199999,-33.792477833500001 151.15572179200001,-33.792418078499999 151.155667456,-33.792362375 151.15561056000001,-33.792306838 151.15554972799998,-33.792254557 151.15548492799999,-33.792208732500001 151.15541507200001,-33.792172472499999 151.15533299200001,-33.792144297 151.15524265600001,-33.792124502 151.155148672,-33.792113346500003 151.15505507200001,-33.792110904499999 151.15496579200001,-33.792117472 151.15487472000001,-33.792142761500003 151.15478761599999,-33.792186421499991 151.15470156800001,-33.792237093 151.15461408,-33.792283269 151.15452265600001,-33.792313313 151.15447187199999,-33.792321952500004 151.15444416,-33.792325116 151.1543952,-33.792330684500001 151.15384044800001,-33.792332035 151.153771328,-33.792327354500003 151.153701856,-33.7923275395 151.15360969599999,-33.792334828500003 151.15355100799999,-33.7923431165 151.153493408,-33.792355086 151.15343868799999,-33.792371366 151.15338864,-33.792392789 151.15336019200001,-33.792408532499998 151.15333283199999,-33.792426181499998 151.15330656,-33.792445347499999 151.15328208,-33.792465771499998 151.153259776,-33.792487287 151.15248540799999,-33.79303485 151.15240297599999,-33.793110718500003 151.152256448,-33.793351921500005 151.151468768,-33.794648993500005 151.15121532799998,-33.795146514 151.15117824000001,-33.795197907 151.15113683199999,-33.795247764500004 151.15109148799996,-33.795295568500002 151.15104288,-33.795340745499999 151.151026688,-33.795354158 151.15099177600001,-33.7953825 151.15093129599998,-33.795426067500003 151.15086684799999,-33.795467378 151.15079843199999,-33.795504637 151.150727872,-33.79553568 151.15065516799999,-33.795558638500005 151.1505936,-33.795571311 151.15052953599999,-33.795579691500002 151.150464352,-33.795583650499999 151.15039955200001,-33.795583114 151.150336192,-33.795577971 151.14961260800001,-33.795603353 151.14933648,-33.795647457 151.14916188799998,-33.795705232499991 151.14848291199999,-33.795947786 151.14728089599998,-33.796377171 151.14710736000001,-33.796374562499999 151.14697740799997,-33.796360613499992 151.14593161600001,-33.796102057500001 151.143964928,-33.795677427 151.141348448,-33.795112492500003 151.14086819199997,-33.795008726 151.14079081599996,-33.794991983500005 151.13817433599999,-33.794427067500003 151.13813545599999,-33.794418687 151.13725596800001,-33.7942287845 151.137158048,-33.794210969 151.13686681600001,-33.794145368 151.13676924800001,-33.794125203 151.13659715200001,-33.794092088 151.13651075199999,-33.794076511 151.13642435200001,-33.794062913499999 151.13633724799999,-33.794052387 151.13624220799997,-33.794044284 151.13614032000001,-33.794038808 151.135972192,-33.794036736 151.13590883200001,-33.794035922 151.13559635199999,-33.794032148 151.135530848,-33.794034479 151.135417088,-33.794041768 151.13536019200001,-33.794047262500001 151.13530368,-33.794054644 151.13524825600001,-33.794064171500004 151.13517193600001,-33.794081006500001 151.135095968,-33.794101708 151.135021792,-33.794126017 151.13494908799998,-33.7941538225 151.13453401599998,-33.794336602500003 151.135448416,-33.795049407499995 151.135882208,-33.795400778 151.136498176,-33.795829441500004 151.13653164799999,-33.795854823500001 151.13666627200001,-33.796175132500004 151.13676348800001,-33.796263784499999 151.13677859200001,-33.796291053499999 151.13679193600001,-33.796319932 151.13680201599996,-33.796349735500002 151.13680956799996,-33.796379872 151.13681388800001,-33.796409842 151.13681459200001,-33.796457905 151.136812096,-33.796482121499999 151.13680236799996,-33.796529648 151.13679337600001,-33.796553938499997 151.13675555200001,-33.79662459 151.13674585599998,-33.796648806500002 151.13673648,-33.796682365500004 151.136729632,-33.796716757 151.13672531200001,-33.796751574 151.13672352,-33.796786409500001 151.13672425600001,-33.796820875 151.13673936000001,-33.796937425 151.13671993599999,-33.797015550499999 151.136707328,-33.797091326500002 151.136700832,-33.797166473499999 151.136700832,-33.797238938 151.13670624,-33.79731227199999 151.13671740800001,-33.797385365499998 151.13673433599999,-33.797457441500001 151.13675664,-33.797527464 151.13699785599999,-33.798605126 151.13702051199999,-33.798706654 151.13711737599999,-33.799348252500003 151.13716848,-33.799689096500003 151.13718252800001,-33.799782595499998 151.13723689599996,-33.800143142 151.13757491199999,-33.802381882500001 151.13519532800001,-33.801695273500002 151.13490227199998,-33.801976621500003 151.13438640000001,-33.802472162500003 151.133610592,-33.803220506 151.13340540799999,-33.8034141085 151.134695392,-33.804346453 151.13645641599996,-33.805620714500002 151.13669004799999,-33.805789656500004 151.13748960000001,-33.806366283 151.13824668799998,-33.80690655699999 151.140836288,-33.80662939 151.14105875199999,-33.80660238</coordinates></LinearRing></outerBoundaryIs></Polygon>

	</Placemark>
</kml>