<?xml version="1.0" encoding="UTF-8"?>
<kml xmlns="http://www.opengis.net/kml/2.2">
	<Placemark>
		<Style>
			<LineStyle>
				<color>ff0000ff</color>
			</LineStyle>
			<PolyStyle>
				<fill>1</fill>
				<color>330000cc</color>
			</PolyStyle>
		</Style>
			<ExtendedData><SchemaData>
		<SimpleData name="STATE_2006">8</SimpleData>
		<SimpleData name="POA_2006">2609</SimpleData>
	</SchemaData></ExtendedData>
      <Polygon><outerBoundaryIs><LinearRing><coordinates>149.14898787199999,-35.31030199 149.14902688000001,-35.310284988500001 149.149127456,-35.310235482499998 149.149219872,-35.310189991 149.14940508800001,-35.310108961 149.14941696,-35.310050001500002 149.149455136,-35.310006008500004 149.14951488,-35.310025988500001 149.14958112,-35.310035978500004 149.14960883200001,-35.310021030500003 149.14963692799998,-35.310006008500004 149.14966393599997,-35.309989987500003 149.14969091200001,-35.309973966500003 149.149716832,-35.309958038 149.14976112,-35.309930047500004 149.14980288,-35.309900965499999 149.149844992,-35.309870995499999 149.14988496000001,-35.309840045 149.14992384000001,-35.309808003 149.14995193600001,-35.309782972499995 149.14998,-35.3097569615 149.15000700799999,-35.30972997 149.150032928,-35.309702978499999 149.15005884799996,-35.309675968500002 149.15009593600001,-35.309637988 149.15013299200001,-35.309599027 149.150168992,-35.309559955 149.15020406400001,-35.309513964 149.15023811200001,-35.309478962 149.15027088,-35.309436023499998 149.150301856,-35.309393011 149.150332096,-35.309348999500003 149.150361952,-35.309304988 149.15039004799999,-35.309259996 149.150414176,-35.309221016500004 149.150436128,-35.309181963 149.15045808,-35.309142003 149.15048112,-35.309103023500001 149.15050416,-35.30906397 149.15053116799999,-35.309019958500002 149.15055888000001,-35.308976039500003 149.150586976,-35.30893202799999 149.15061504,-35.3088890155 149.15064313600001,-35.308845004 149.15066796799999,-35.308806024500001 149.150693152,-35.308765972 149.15071798400001,-35.308727011 149.15074284799996,-35.308688031500004 149.15076912000001,-35.308648978 149.15078713599999,-35.308622967 149.15080512,-35.308598047499999 149.15082204800001,-35.30857301699999 149.15084003199999,-35.308548005 149.15085913600001,-35.308522974500001 149.15088108799998,-35.308484013499999 149.15090412800001,-35.308446033 149.15092716800001,-35.30840796 149.15094912000001,-35.3083699795 149.15097289600001,-35.308331999 149.15101897599996,-35.308253966 149.15106505599999,-35.308177024500004 149.15111184,-35.308098991500003 149.15115900800001,-35.308022031500002 149.15120617599996,-35.307944017 149.15125116799999,-35.307869036500001 149.15129616,-35.307792983 149.15134115199999,-35.307718021 149.15138617599999,-35.307641967500004 149.15143296,-35.307567986 149.151463936,-35.307519035 149.15149488,-35.307470972 149.15152691200001,-35.307423001499998 149.15155897599999,-35.307375031 149.151591008,-35.307326968 149.15164211199999,-35.307253985499997 149.15169395199999,-35.307181983500001 149.15174617599999,-35.307109981499998 149.15179907199999,-35.307037979500002 149.151852,-35.306965977499999 149.151930112,-35.306862026 149.15200896,-35.306757982 149.15208889600001,-35.306654049 149.152168096,-35.306550005 149.15224691200001,-35.306445961 149.15232899200001,-35.306335978500002 149.152410016,-35.306225996 149.152492096,-35.306115033 149.152573088,-35.306003977499998 149.15265408,-35.305892996 149.15276784,-35.305729012 149.152888096,-35.305548026499999 149.15299609599998,-35.305389981 149.153077088,-35.305226996 149.153151968,-35.305063012 149.15317609600001,-35.304975988 149.152898752,-35.304850946500004 149.15282003199999,-35.304815963 149.152928704,-35.304565325 149.153059552,-35.304343214 149.15344169599999,-35.304122953 149.15552665600001,-35.3031839115 149.1567144,-35.302493251 149.15790480000001,-35.302033618500005 149.15926857599999,-35.302307881 149.15996854400001,-35.302864860500001 149.161321536,-35.304218857 149.162492544,-35.304909832 149.16395852799999,-35.305031821 149.16481350399997,-35.3052637925 149.16557148800001,-35.305825804 149.166658496,-35.306119787500002 149.168503456,-35.305789766 149.16951740799999,-35.304811745 149.17020640000001,-35.303827748499998 149.17064636800001,-35.302894719500003 149.171942336,-35.302531731 149.173575296,-35.302272712499999 149.174157888,-35.302493158499999 149.17427830400001,-35.302182691500001 149.174395264,-35.301878681 149.17440825599999,-35.301882695499998 149.174449248,-35.3018926855 149.17449827199999,-35.301897680499998 149.17456924800001,-35.3018926855 149.174608256,-35.301882695499998 149.17470326399999,-35.301830692 149.17474025600001,-35.301793692 149.17476227200001,-35.301759689 149.174777248,-35.301710682500001 149.17478124799999,-35.301682692 149.17477926399999,-35.301635683500002 149.174764256,-35.301583698499996 149.17474227199997,-35.301544682 149.17470227199999,-35.301503686 149.17461427200001,-35.301455697 149.17467926399999,-35.301389689 149.17474627199996,-35.301329693500001 149.17533824,-35.300885675 149.17583622399999,-35.30051068 149.17590224,-35.300462672500004 149.17754816,-35.299229647499992 149.17763315199997,-35.2989336475 149.177689152,-35.298466652 149.17735715200001,-35.298389655 149.17727315199997,-35.298366659500005 149.17704217599999,-35.298295656500002 149.17671715200001,-35.298161661 149.176451168,-35.2980186745 149.17629916800001,-35.2979196625 149.17617616000001,-35.297841666499998 149.17592816000001,-35.297642662 149.172680192,-35.294587701499999 149.17228726399998,-35.2942157775 149.172412192,-35.2941267 149.17366934399999,-35.2932301345 149.17366012799999,-35.292646681500003 149.17365248,-35.290225827 149.17379209599997,-35.290123688500003 149.17679001599998,-35.2879846445 149.17810492800001,-35.286169628 149.18001795199999,-35.287504606500001 149.18266387200001,-35.285659601500001 149.18326684799999,-35.286072577 149.18536969600001,-35.276472557 149.194487584,-35.277567461 149.194594368,-35.277578228 149.19386364799999,-35.281846474 149.19317772799999,-35.285970494 149.192884736,-35.287728493499998 149.19282073599996,-35.288011488 149.19274275199999,-35.288263495 149.19264374400001,-35.288521477499998 149.192601792,-35.288618491500003 149.192524768,-35.288776481500001 149.19246678399998,-35.288886482500004 149.192331776,-35.289114513500003 149.19222678400001,-35.289277498499999 149.18710896,-35.297086552 149.186846976,-35.2974225675 149.18653699199999,-35.297726559499999 149.186148992,-35.298019562500002 149.18593100800001,-35.298147564 149.18571699199998,-35.29826256 149.185519008,-35.298351563499992 149.18525904000001,-35.298453572500001 149.18505804799997,-35.298517582499997 149.18478502400001,-35.298592581500003 149.184373024,-35.298678569499998 149.180501088,-35.299145620499999 149.18061110400001,-35.2992606165 149.18067609600001,-35.299334616499998 149.18075209599999,-35.299426617 149.18084310399999,-35.2995506225 149.180906112,-35.299642623 149.18097811199999,-35.299762614 149.18108211200001,-35.299964615500002 149.181166112,-35.300169614 149.18121510399999,-35.30032161 149.181243104,-35.300423619 149.181268128,-35.300532621 149.18128713600001,-35.300645619 149.18130412799999,-35.300780613500002 149.181312128,-35.300905618 149.18130812800001,-35.301149614499998 149.18128214399999,-35.301382622 149.18122912000001,-35.301621623500004 149.18115212800001,-35.301857609500004 149.18108912,-35.301999615500002 149.18103513599996,-35.3021196065 149.18092316799999,-35.302315614 149.18078816,-35.302511621500003 149.180618176,-35.302712624 149.18069017600001,-35.302705612499999 149.18072617600001,-35.302708609500002 149.180763168,-35.302715621 149.18083616000001,-35.302745609499993 149.18089017599999,-35.302788622 149.18091216,-35.302818610500005 149.18092716800001,-35.302847618500003 149.18094016,-35.302885617500003 149.180942176,-35.302936622 149.18093715200001,-35.302970606500004 149.18091315199996,-35.303020612 149.18129715200001,-35.303127616 149.18170416000001,-35.30326459 149.18208816000001,-35.303421599499998 149.18230416,-35.303522591 149.18261712,-35.303688591499998 149.182722144,-35.3037516025 149.18278614399998,-35.3037896015 149.18540313599999,-35.305409572500004 149.18600214400001,-35.305927554 149.186242144,-35.306184556 149.186312128,-35.306268564500002 149.18638313599999,-35.30636556 149.186436128,-35.306454563500004 149.18648512,-35.306549561 149.186706144,-35.307034557 149.18674713599998,-35.307400561 149.18680313600001,-35.307892568500002 149.18686316799997,-35.309946568 149.186933184,-35.310941553500001 149.187021184,-35.312021565 149.18716422400001,-35.312896559500004 149.18739824,-35.3138145665 149.18771622400001,-35.3147145545 149.18802022400001,-35.315400553 149.18984627200001,-35.319109544 149.19016025600001,-35.31958455 149.19057526399999,-35.320026533499998 149.191099264,-35.320423543499999 149.19173724800001,-35.320757524 149.192429248,-35.320989514 149.193116256,-35.321111521500001 149.19393923199999,-35.321130502500004 149.19787017600001,-35.320818481499998 149.205570048,-35.320189426 149.20672204799996,-35.32013540599999 149.207712,-35.320143416500002 149.20867699199999,-35.320199397499998 149.21057808,-35.320408780500003 149.21067296000001,-35.320752399500002 149.21088896000001,-35.321498393500001 149.21096601599999,-35.321762388499998 149.21237203199999,-35.326616381500003 149.205751488,-35.337341682500004 149.20523632,-35.337399458 149.203970368,-35.337579463 149.20338134400001,-35.337830471 149.20249337600001,-35.338227462500001 149.2015864,-35.339165468 149.20107340800001,-35.340429480499999 149.200707456,-35.3410484905 149.20029945600001,-35.341456489500004 149.19961046399999,-35.341779481 149.19882748800001,-35.3416865 149.20294249599999,-35.345845466500002 149.20304848000001,-35.346165461 149.20327049599999,-35.347241476500002 149.20354348800001,-35.347259458499998 149.20387747199996,-35.3478864605 149.20380848,-35.348023471499999 149.203378528,-35.348685475499998 149.20170355199997,-35.348457481499999 149.201714592,-35.351244488 149.20129558399998,-35.351890489500001 149.199902624,-35.351895503 149.19825363199999,-35.3519055115 149.19800963200001,-35.3519055115 149.195997664,-35.351914521 149.19598364800001,-35.350145514 149.19598364800001,-35.350087516500004 149.19594553600001,-35.344126520499998 149.19560256,-35.344117529500004 149.19434057599997,-35.344097531 149.19313158400001,-35.344097549499999 149.191731616,-35.34405753399999 149.19035264,-35.343838568 149.18987865599999,-35.343663558 149.18903363199999,-35.343856568500001 149.18857164799999,-35.343960557 149.18633270399999,-35.344470583499998 149.18722572799999,-35.347847573500005 149.18722675199999,-35.348638578 149.18636480000001,-35.352167601 149.18245990400001,-35.353831620500003 149.182508896,-35.353937607 149.18282089600001,-35.354306608 149.18070092799999,-35.35457963099999 149.17778198400001,-35.354951647500002 149.17704,-35.355046663499998 149.17530601600001,-35.355268682 149.17299910400001,-35.355563701500003 149.17059011200001,-35.355871726499998 149.165714208,-35.356494769500003 149.16589225600001,-35.357208758500001 149.166460288,-35.360649758499996 149.15948048000001,-35.363623837 149.1334128,-35.354042058 149.1332128,-35.353969057 149.13301680000001,-35.353896056 149.12767785599999,-35.351933113499996 149.12736486399999,-35.351818117500002 149.12736387199999,-35.351817118500001 149.12616086400001,-35.350224139 149.12437334399999,-35.347854640500003 149.12479683199999,-35.347758126 149.12525881600001,-35.347609127 149.12620579200001,-35.347306115500004 149.12735977599999,-35.34692311 149.12759475199999,-35.346845114 149.12780876799999,-35.346774092499999 149.12831875200001,-35.346562101 149.12890073599999,-35.346223088500004 149.129843712,-35.345488083500001 149.13018668800001,-35.345263086500005 149.130706688,-35.345010080499996 149.131269664,-35.344830057 149.13237964799998,-35.344569059 149.13302553599996,-35.344413955 149.13321664,-35.344368038 149.133454624,-35.344311039499999 149.135613568,-35.344130017 149.13641657599999,-35.3440980305 149.13720758400001,-35.344117011500003 149.137851552,-35.3441970055 149.138752544,-35.344310003499999 149.13911955200001,-35.344396990500002 149.139765504,-35.344550984500003 149.14150249599999,-35.345184961 149.14255046400001,-35.345457965500003 149.14303548800001,-35.345536942 149.14324048,-35.345570945 149.143929472,-35.345633956 149.14464345600001,-35.345647923500003 149.145291456,-35.345615937 149.1462464,-35.345489933499998 149.14720742399996,-35.345263919 149.15422726400001,-35.343038831500003 149.15432921600001,-35.34300684499999 149.15443820799996,-35.342970844 149.157663168,-35.341935824499998 149.15839216000001,-35.341701799500001 149.16065209600001,-35.340998781 149.16097609600001,-35.340845786 149.161172096,-35.340707776 149.161251072,-35.340651776500003 149.16145907200001,-35.340442782 149.16161606399999,-35.340215787 149.161789056,-35.3398707805 149.162081024,-35.339129763 149.162274016,-35.338325771499996 149.16226,-35.337572766 149.16223100799996,-35.337223763499999 149.162193984,-35.336766776499992 149.16215398400001,-35.336545775499999 149.162044,-35.335926784 149.16176697599997,-35.334264781 149.16160995199999,-35.33296778299999 149.16158297599998,-35.3325057825 149.161516928,-35.3318958005 149.16151193600001,-35.331583798 149.161504928,-35.331147808499999 149.16155792,-35.330539806 149.161562944,-35.330483806499998 149.16157494399999,-35.330353807 149.16040393599997,-35.329654803 149.15931894400001,-35.329007821 149.15678595200001,-35.327495853 149.15455900800001,-35.326166868500003 149.154483008,-35.326121876500004 149.153072,-35.325278887 149.15185104,-35.324550912 149.15043702400001,-35.323316925 149.15035603199996,-35.323277927 149.15058201599999,-35.323096923 149.15070003199997,-35.323001925500002 149.15078502399999,-35.322934937 149.15087203199997,-35.322857921500002 149.15094198400001,-35.322786937 149.15101100800001,-35.322706924500004 149.151048,-35.322657936500001 149.15194297599999,-35.321212938500004 149.15195296,-35.321195937 149.15400188799998,-35.318261911 149.15402390400001,-35.318125917499998 149.15433088,-35.316219918 149.15437385600001,-35.315946913499999 149.15409987199999,-35.3159169065 149.15390886399999,-35.315895909 149.15393088,-35.315759915500003 149.15395187199996,-35.315623903499997 149.15397385599999,-35.31548791 149.15398985600001,-35.315389915499999 149.153995872,-35.315351916499992 149.15401884799999,-35.3152159045 149.15404083199999,-35.315079911 149.154060832,-35.314952908500004 149.15407686399999,-35.314854507 149.154105824,-35.31467091299999 149.1543528,-35.313139927 149.15438969600001,-35.3129070305 149.154047808,-35.31295292899999 149.15365084800001,-35.312905939 149.15300784,-35.312757939 149.15268083199999,-35.312531943 149.15231584,-35.312405939500003 149.15194982400001,-35.312304948 149.15123286400001,-35.312203975 149.15054086399999,-35.312077971500003 149.14983587200001,-35.311763989500001 149.149512864,-35.311359986500001 149.149432864,-35.311259994 149.149063872,-35.310619986500001 149.14898787199999,-35.31030199</coordinates></LinearRing></outerBoundaryIs></Polygon>

	</Placemark>
</kml>