<?xml version="1.0" encoding="UTF-8"?>
<kml xmlns="http://www.opengis.net/kml/2.2">
	<Placemark>
		<Style>
			<LineStyle>
				<color>ff0000ff</color>
			</LineStyle>
			<PolyStyle>
				<fill>1</fill>
				<color>330000cc</color>
			</PolyStyle>
		</Style>
			<ExtendedData><SchemaData>
		<SimpleData name="STATE_2006">1</SimpleData>
		<SimpleData name="POA_2006">2316</SimpleData>
	</SchemaData></ExtendedData>
      <MultiGeometry><Polygon><outerBoundaryIs><LinearRing><coordinates>152.071037504,-32.783461212 152.07103897600001,-32.783381847 152.07104796799996,-32.782891837500003 152.07493184,-32.78279277 152.07427888000001,-32.779801782500002 152.075182848,-32.779293772500004 152.07639481599998,-32.778612750500002 152.07751878400001,-32.777967729499998 152.07968195199999,-32.7768182135 152.08017264,-32.776509152500005 152.08067808000001,-32.776597083 152.081672768,-32.776838101 152.081777536,-32.776863390499997 152.08206768,-32.776940258 152.08235171199999,-32.776953023 152.08280748799999,-32.776924311 152.08342092800001,-32.776880762 152.0835696,-32.7768717525 152.08397136,-32.776847462 152.08426944,-32.776835215 152.08441417599997,-32.776829369 152.08504128000001,-32.776700498 152.08552009599998,-32.776540917 152.08613568000001,-32.776411676 152.086644,-32.776265692500004 152.08759619200001,-32.776042675 152.08811676799999,-32.77592882599999 152.08967232000001,-32.775736592500003 152.090764576,-32.775626425 152.09158128000001,-32.775544525500003 152.09214,-32.775679002 152.09285699200001,-32.775862004 152.09335001599999,-32.7759989965 152.09374700800001,-32.776109996500004 152.09379100800001,-32.776120005 152.093944,-32.776158004 152.094075008,-32.776183996499995 152.094798016,-32.776328000500001 152.09493900800001,-32.776367997500003 152.09508099199999,-32.776404997500002 152.095224992,-32.776438001500004 152.09536899199998,-32.776468008500004 152.09551500800001,-32.776493002 152.095636,-32.776511002500001 152.09575801599999,-32.776525007 152.09642300799999,-32.776589997500004 152.096692,-32.776614991 152.09701801599999,-32.776644998 152.09761401599999,-32.776696002500003 152.097804,-32.776709008 152.098186016,-32.776732003500001 152.098376,-32.776749005 152.098564,-32.776773998499998 152.098696,-32.776797993 152.098827008,-32.776824004 152.09895798400001,-32.776853992500001 152.099088,-32.776886996500004 152.09921699200001,-32.7769209995 152.099324,-32.776955002500003 152.099416,-32.776983992 152.099612,-32.777055994 152.1,-32.777210006499999 152.10054,-32.777416004 152.100656,-32.777457 152.100774016,-32.777494 152.10086700799999,-32.777519992500004 152.10096198400001,-32.777544005499998 152.101152,-32.777586000500001 152.101248,-32.777605 152.101368992,-32.777625997500003 152.10149100799998,-32.777642999 152.10183500799999,-32.777685993 152.10185900799996,-32.777689008499998 152.101990016,-32.777703993499998 152.10225299199999,-32.7777300045 152.102384,-32.777746007 152.10251299199999,-32.777765006500005 152.102628,-32.777786004 152.102743008,-32.777809998500004 152.102856992,-32.777834992 152.102970016,-32.777863001 152.10308201599997,-32.777894007 152.103196,-32.777929009 152.103308992,-32.777966009 152.103420992,-32.778006006 152.103531008,-32.778049 152.10420300800001,-32.778327998500004 152.10432,-32.778376006 152.10435100800001,-32.778386995 152.10443801599999,-32.778419999 152.104558016,-32.778460995 152.10468,-32.778498994 152.10480201600001,-32.778532997 152.104896,-32.778555992500003 152.10499001599999,-32.778575991 152.10508499199997,-32.778595009 152.105276,-32.778628993499993 152.105428,-32.7786520075 152.105583008,-32.77867000799999 152.10589100799999,-32.778701994500004 152.10604499199999,-32.778719995 152.10625001599999,-32.778751001 152.10686300799998,-32.778852991500003 152.106952992,-32.77886699599999 152.107068,-32.778884996500004 152.10739900799996,-32.77892900799999 152.10789699200001,-32.778991001500003 152.10839900799999,-32.779061005500004 152.10856700799999,-32.77908400099999 152.10881001599998,-32.779114008 152.10888700800001,-32.779124997 152.10896201599999,-32.779129992 152.109036992,-32.779134006500001 152.10911299200001,-32.779135005500002 152.10918899200001,-32.779134006500001 152.109264,-32.779130991 152.109399008,-32.779122 152.10946700799997,-32.779116006 152.109532,-32.779104998500003 152.109596,-32.779089995 152.10966201599999,-32.779066000500002 152.109726016,-32.779035993500003 152.10978700800001,-32.779003008 152.10990700799999,-32.778930007 152.109972992,-32.778887993499993 152.109980992,-32.778882998500002 152.11005401599999,-32.778831994 152.110124,-32.778778991499998 152.110192,-32.778722992 152.110256,-32.778664994499998 152.11196201600001,-32.777382001 152.11213001600001,-32.777245008500003 152.113294016,-32.776349997 152.113395008,-32.776276996 152.11348201599998,-32.776104002499999 152.11356899199998,-32.775901002 152.11364601599999,-32.775697002500003 152.11393100800001,-32.774943997 152.11397500799998,-32.774726992 152.11417699200001,-32.774016999 152.114292992,-32.773510006500004 152.11440899199999,-32.7730019965 152.11462601599999,-32.772176008500004 152.11465699199999,-32.772038997500005 152.11487801599998,-32.771308007 152.115076,-32.770652996 152.11532201599999,-32.769839995 152.11536700799996,-32.769432995 152.11523801600001,-32.769032007500002 152.11514300799999,-32.768884007499999 152.11507500799999,-32.7687790015 152.114779008,-32.7684119985 152.11437801599999,-32.767875998 152.11424099199999,-32.767497007 152.114104,-32.767004999500003 152.11406099199999,-32.766852004499995 152.11370201599999,-32.765582997 152.11354601599999,-32.765102996 152.113224,-32.764114004500001 152.113144992,-32.763711999500003 152.113050464,-32.763397148 152.113152,-32.763431003 152.118188992,-32.764155000500004 152.11786700799999,-32.765819001499999 152.12027900800001,-32.766156996500001 152.118438016,-32.766859996500003 152.1209,-32.770381009 152.12093024000001,-32.770502350500003 152.120888992,-32.770538999 152.12072700799999,-32.770631998500001 152.120548,-32.770646003 152.120216992,-32.770616995 152.12004700799997,-32.7706309995 152.11990300799999,-32.770703001500003 152.119383008,-32.771138991 152.118344992,-32.772327005500003 152.11723801599999,-32.773728991 152.116948,-32.774165998 152.116948,-32.774208992 152.11684499200001,-32.774351997 152.11684499200001,-32.774394991 152.11670899200001,-32.774594994499999 152.11660601599996,-32.774831998 152.116479008,-32.775233004 152.11625699199999,-32.776220996500001 152.116187008,-32.776735999499998 152.116187008,-32.7774089925 152.116236,-32.777911008499999 152.116304,-32.778254997499999 152.116456,-32.778856007 152.116676,-32.779516993500003 152.116768,-32.779695000499999 152.116904992,-32.779808997499998 152.117108992,-32.779847995499999 152.117199008,-32.779801005499998 152.117292,-32.779757993 152.117388,-32.779718995 152.11756201599999,-32.779692003500003 152.11764,-32.779682994 152.11769699199999,-32.7796659925 152.11780099200001,-32.7796279935 152.11789401600001,-32.779610992 152.11799100799999,-32.77968599099999 152.11809500800001,-32.779669008 152.11814700799997,-32.779634006 152.11825100799999,-32.779660997500002 152.118328,-32.7796659925 152.118370016,-32.779653005500002 152.11844201599999,-32.779632008 152.11853001599999,-32.7796279935 152.118608,-32.779624996500004 152.118716,-32.779634006 152.118810016,-32.779647992 152.118867008,-32.779653005500002 152.11894899199999,-32.779643996 152.11901699200001,-32.779632008 152.11912,-32.779640999 152.119203008,-32.779655003500004 152.11926,-32.779655003500004 152.119336992,-32.779652006499994 152.11944598399998,-32.779670007 152.119668,-32.779671006 152.11988601599998,-32.779621000500001 152.11998499199998,-32.779603999 152.12006201599999,-32.779603999 152.12026899200001,-32.779605997 152.12039299200001,-32.7796279935 152.12046601599999,-32.779663994499998 152.120543008,-32.779716997 152.12064099200001,-32.7797039915 152.12070300799999,-32.779695999499999 152.120734016,-32.779700994500004 152.120811008,-32.779749002 152.12084198400001,-32.779770998499998 152.12085699199997,-32.7798109955 152.12089801600001,-32.779863998 152.120924,-32.77989000899999 152.12096499200001,-32.779942993 152.12101100800001,-32.779965008 152.12112499200001,-32.779983008500004 152.121228,-32.780028000499996 152.12126899200001,-32.780066998500004 152.12127801599999,-32.780172004500002 152.12122099199996,-32.7802070065 152.121138016,-32.780201993 152.120952,-32.780170006499993 152.12089500799999,-32.780160997 152.120704,-32.780158999 152.12057500799997,-32.780132007500001 152.12057401600001,-32.780189006 152.12072899200001,-32.780202992 152.12083801599999,-32.780216996500002 152.12096099199999,-32.780266003 152.121039008,-32.780292994500002 152.12115299199999,-32.780320004499998 152.12125500799996,-32.7803600015 152.12130201599996,-32.780381998 152.12144,-32.780523005 152.121476,-32.780602 152.121564,-32.780615005500003 152.121620992,-32.780628991500002 152.12164,-32.7807029915 152.121655008,-32.780786001 152.12166,-32.780804001500002 152.12175299200001,-32.780874005500003 152.121788,-32.780966006 152.12177699200001,-32.781031995500001 152.12175100799999,-32.781040006 152.12173001599999,-32.781062002500001 152.121667008,-32.781104996499998 152.12163100800001,-32.781101000500001 152.12154899199996,-32.781083 152.121523008,-32.781090992 152.12146,-32.781120999 152.12143401599999,-32.781169006499994 152.12143401599999,-32.781212999499999 152.12140700800001,-32.781290995500001 152.121318016,-32.781339003 152.12129801599997,-32.781346995 152.12124,-32.781368991500003 152.12114700800001,-32.781355005500004 152.121080992,-32.781337005 152.12101801599999,-32.78134499699999 152.12091500799997,-32.781336006 152.12085299199998,-32.781313991 152.120776,-32.781273994 152.120724,-32.781268999 152.12060499200001,-32.781232998 152.120552992,-32.781242007499998 152.120548,-32.781299006 152.120475008,-32.781310994 152.12040201599999,-32.781337005 152.12029900799999,-32.781309995 152.120206016,-32.781318005500005 152.119916,-32.781333009 152.119792,-32.781315008499995 152.11973500799999,-32.781280006499998 152.11971500799996,-32.781280006499998 152.119584992,-32.781318005500005 152.119471008,-32.781329993500002 152.11943500800001,-32.781312992 152.119372992,-32.78129499149999 152.119352,-32.7813210025 152.119306016,-32.781281005499999 152.119264,-32.781310994 152.119248,-32.781328994500001 152.119176,-32.781337005 152.11914,-32.781337005 152.119108,-32.781336006 152.11906201599999,-32.781326996499999 152.11902601599999,-32.781361998500003 152.11902499199999,-32.781383995 152.119056,-32.781445008 152.119164,-32.781503005499999 152.119215008,-32.781533993 152.119256,-32.781600001 152.119291008,-32.781727003500002 152.11928499199999,-32.781796008500002 152.11915001599999,-32.7818700085 152.119088,-32.781842998500004 152.119088,-32.781886991500002 152.119227008,-32.781910005500002 152.119372,-32.7819150005 152.11947001600001,-32.781929005 152.119584992,-32.781935998 152.11965699199996,-32.781989000499998 152.119664992,-32.782037008 152.119664992,-32.782083998 152.11991900800001,-32.782148008 152.120056992,-32.782229001 152.12020700799999,-32.782322000500002 152.120306016,-32.782359000500001 152.12040899199999,-32.782414001 152.120499008,-32.782466004500002 152.12052499200001,-32.782476993499998 152.120644992,-32.782595005 152.12074,-32.782632005 152.12081699199999,-32.782705006 152.12079900800001,-32.782778007 152.120832992,-32.782843996499999 152.120872,-32.782803999500004 152.12087699200001,-32.782749998 152.12092099200001,-32.782692000499999 152.12097699200001,-32.782695996500003 152.12104601600001,-32.782713997 152.12115299199999,-32.782814008 152.12118700799999,-32.782860998 152.121172992,-32.782952998500001 152.121172,-32.7830659965 152.121216,-32.783091008499994 152.12130601600001,-32.783096003499999 152.12132300799999,-32.783118 152.12141699200001,-32.783279005499999 152.121408,-32.783322998500005 152.121399008,-32.783352006500003 152.121424,-32.783392003499998 152.121496992,-32.783457993 152.121523008,-32.783527997 152.12152601599999,-32.7836229945 152.12153801599999,-32.783659994499992 152.12158099199999,-32.783747 152.12161100799997,-32.783839000500002 152.121624,-32.783918994499999 152.121624,-32.783968001 152.121655008,-32.7841409945 152.12165001599996,-32.784195995 152.12163699199999,-32.7842790045 152.121714016,-32.784396997500004 152.12172499199997,-32.784490996 152.121732,-32.784569991 152.121728,-32.784646007500001 152.121752,-32.784656996500004 152.121852,-32.784536006499998 152.12190899199996,-32.784512992499991 152.121995008,-32.784517007 152.122032,-32.784564996 152.122068,-32.784649004500004 152.122076,-32.784690000499999 152.12205798400001,-32.784763001500004 152.12207001600001,-32.784807993500003 152.12210300800001,-32.784815005 152.122124,-32.784786996 152.122199008,-32.784600997 152.122212,-32.784586992500003 152.12233001599998,-32.784604993 152.122387008,-32.784630005 152.122464992,-32.78459600199999 152.122523008,-32.784564996 152.12259798400001,-32.784521003 152.122626016,-32.784513991499999 152.12267500799999,-32.7845079975 152.12276099199997,-32.784522002 152.12284300799999,-32.784511993500004 152.12299900799997,-32.784509995500002 152.12309299199998,-32.784524 152.123130016,-32.7845380045 152.12319100799999,-32.784559002 152.123268,-32.784629006 152.123264,-32.7846909995 152.123304,-32.784799002500002 152.123278016,-32.784843994500001 152.123232992,-32.784926005 152.123232,-32.784988997499994 152.12320700800001,-32.785050991 152.12319401599999,-32.785081997 152.12316,-32.785155997 152.12317401600001,-32.785252992499998 152.12311299199996,-32.7853540025 152.123042016,-32.785449999 152.12302201599996,-32.785514009 152.123016,-32.78556 152.12295500799999,-32.785660991500002 152.12292,-32.78569900899999 152.12281001599999,-32.785710997 152.12274499200001,-32.785642991 152.12266,-32.785646006500002 152.12258499199999,-32.785646006500002 152.12246,-32.785666005 152.122388992,-32.785725001499998 152.12235900799999,-32.785741004 152.12227900799999,-32.785812007 152.122208,-32.785812007 152.12213801599998,-32.785861994 152.121983008,-32.785810009 152.121904,-32.785738007 152.121816,-32.785611004499998 152.12176601600001,-32.785563996 152.121712,-32.785441008 152.121690016,-32.785188002 152.121696,-32.785081997 152.12168099199999,-32.784993992499999 152.12162998400001,-32.785153999 152.121548,-32.785338999 152.121492,-32.785444005 152.121456,-32.785570008500002 152.12146,-32.785616998500004 152.12142499199999,-32.785675995 152.12124899200001,-32.785755008500004 152.121012992,-32.7858419955 152.12092300800001,-32.785861994 152.12083801599999,-32.785891002 152.12073699199999,-32.785890003 152.120652992,-32.785873001500001 152.120552992,-32.7857960045 152.120484992,-32.785669002 152.120456,-32.785593004 152.12048099200001,-32.785474992499999 152.120496992,-32.785403009 152.12048899199999,-32.785267996 152.120474016,-32.785288993500004 152.12041801599997,-32.785364991499996 152.12036700799999,-32.785376998 152.120308,-32.785313006500004 152.120284,-32.785228998 152.12026,-32.785169002499998 152.12023001599999,-32.785148005 152.12017900800001,-32.785203005500001 152.120148,-32.785286995500002 152.12010700799999,-32.785378996 152.120016,-32.785487998 152.11996601600001,-32.785546994500002 152.119935008,-32.785605991 152.11993001600001,-32.785639994 152.11991900800001,-32.7857580055 152.11991798400001,-32.7858340035 152.11990201599997,-32.785938991 152.119891008,-32.786053006499998 152.11985001599999,-32.786086991 152.119775008,-32.7861620085 152.11976899199999,-32.78627199099999 152.11976300800001,-32.786338998 152.11972700800001,-32.786424005500002 152.119692,-32.786423006500002 152.11955798400001,-32.786375998 152.11952201599999,-32.786388004499997 152.119492,-32.786439009 152.11948099200001,-32.7864980055 152.119486016,-32.786540000500004 152.119506016,-32.786570007500003 152.11954499199999,-32.786577999500004 152.11965100800001,-32.786592004 152.11969500799998,-32.786609005500004 152.119764992,-32.786659991500002 152.119834016,-32.786727997500002 152.119864,-32.786741003 152.119888992,-32.786754008500004 152.119979008,-32.786797002500002 152.12007801599998,-32.786865008500001 152.12015699199998,-32.786966999 152.120206016,-32.787031009 152.12026300799999,-32.787109005 152.120272,-32.787156994 152.120280992,-32.787185003 152.12029001600001,-32.787224001 152.12029001600001,-32.787256006 152.120126016,-32.787230994 152.12007001599997,-32.787214991500001 152.11998499199998,-32.787190997 152.119868,-32.787162007500001 152.11976099200001,-32.7871610085 152.11969001599999,-32.787184004 152.11974601599999,-32.787201005500002 152.11988201599999,-32.787257005 152.119932992,-32.787280999499998 152.120026016,-32.78733300299999 152.12010601599999,-32.787376996 152.12018499199999,-32.78741 152.12022201600001,-32.787438009 152.120292,-32.787473991500001 152.12032499199998,-32.787489994 152.12039500799997,-32.787554004 152.12044,-32.787721003500003 152.12043001599997,-32.787803994500003 152.120372992,-32.787858995 152.12027500799999,-32.787837997499999 152.12023299200001,-32.787825991 152.12012099200001,-32.787774006 152.12016700800001,-32.787833002500001 152.120208,-32.787916992500001 152.120156,-32.787987995500004 152.12003299200001,-32.788050007500004 152.12001900800001,-32.788077998 152.12014601600001,-32.788094999500004 152.12027699199999,-32.788114998 152.120356,-32.788164004499997 152.120398016,-32.788187999 152.120492,-32.788227996 152.120576,-32.788260001 152.120622016,-32.788354998500004 152.12062,-32.788459005500002 152.120634016,-32.788538000500004 152.120704,-32.788586008 152.120768992,-32.78866600199999 152.12078601600001,-32.788808008 152.120748,-32.788878992500003 152.12070499199999,-32.788919008 152.120644,-32.788958006 152.120555008,-32.7889450005 152.12044700800001,-32.788905003499998 152.12038201600001,-32.788885005 152.12025500799999,-32.788844009 152.120148,-32.788832002500001 152.12005398400001,-32.788802994500003 152.11994198400001,-32.788762997500001 152.11988099199999,-32.7887309925 152.11976899199999,-32.788689996500004 152.11972700800001,-32.788673994 152.119652,-32.788606006500004 152.11962499199998,-32.788557999 152.119588,-32.788459005500002 152.119556,-32.788398991499996 152.119464,-32.788247994500004 152.119450016,-32.788188998 152.119427008,-32.7881369945 152.119362016,-32.788054003500001 152.119264,-32.788004997 152.11918899200001,-32.787988994499997 152.119114016,-32.787984998499994 152.11903401599997,-32.787996006 152.11892700799999,-32.787979004500002 152.11884700799996,-32.787930997 152.118828992,-32.787898992 152.11881100799999,-32.787835999500004 152.118796992,-32.787763997500001 152.11879299200001,-32.787685002499998 152.11878899199996,-32.7876179955 152.11878499199997,-32.787581994500002 152.118776,-32.787561996 152.118743008,-32.787577998499998 152.11868099200001,-32.787629003 152.118676,-32.78767599299999 152.118675008,-32.787771009 152.118656,-32.787873998500004 152.11862601600001,-32.7879770065 152.11862099199996,-32.788032007 152.118550016,-32.788102991500004 152.118484,-32.788142008 152.11836499200001,-32.788164004499997 152.11826099199996,-32.788178009 152.11816899199999,-32.7882129925 152.11812899200001,-32.788242000499999 152.118088,-32.788273006499992 152.11803900800001,-32.788301996 152.11793798400001,-32.788337997 152.11788,-32.788358994500001 152.117828992,-32.78837799399999 152.11778201600001,-32.788396993500001 152.117730016,-32.788435991500002 152.117704,-32.788499002500004 152.11772099199999,-32.7885330055 152.117688,-32.788633997 152.11761299200001,-32.78867499299999 152.11746601599998,-32.788696009 152.11741801599999,-32.788696009 152.117334016,-32.788700005 152.117254016,-32.788685001499999 152.117164992,-32.788673994 152.117084992,-32.788630001 152.117084992,-32.788581993500003 152.117074016,-32.788501999499999 152.117092,-32.788489993 152.117120992,-32.788484998 152.117176,-32.788476007 152.11721801600001,-32.788483 152.11736499200001,-32.7884719925 152.11742899199999,-32.788428998500002 152.117426016,-32.788400009 152.11738899199997,-32.788360992500003 152.117355008,-32.788335999 152.117332,-32.788304993 152.117272,-32.788262998 152.117252992,-32.788208996500003 152.117196,-32.788165003499998 152.117144,-32.788165003499998 152.11711801599998,-32.788165003499998 152.11709500799998,-32.7881670015 152.11705500799999,-32.788173994499999 152.117008992,-32.788183004 152.11699401600001,-32.788237005500001 152.116976,-32.788279999499998 152.11696499199999,-32.788295003 152.11691299200001,-32.788309007500004 152.11685299199999,-32.788296002 152.11683001599999,-32.788296002 152.11678899200001,-32.788298 152.11676700800001,-32.788287991499999 152.11675500799998,-32.788266994 152.11675801600001,-32.788242000499999 152.116780992,-32.788225998 152.116788,-32.788187 152.11673401600001,-32.788113999 152.116736992,-32.788094000500003 152.11678,-32.788056001500003 152.116856,-32.787993009 152.11690198400001,-32.787938008499999 152.11693100799997,-32.787896994 152.11687801599999,-32.7877629985 152.116818016,-32.787728995500004 152.11673500800001,-32.787721003500003 152.116703008,-32.787754007499998 152.11666,-32.787771009 152.11661100800001,-32.787759002499996 152.116582016,-32.787790008500004 152.11657299199999,-32.787812005 152.11655001599999,-32.787835999500004 152.11644601599997,-32.787856997 152.116311008,-32.787866006500003 152.11623900799998,-32.7878700025 152.116152992,-32.787872000499995 152.116072992,-32.787877994500001 152.116007008,-32.787921007 152.11596700800001,-32.787907002499999 152.115939008,-32.787858995 152.115864,-32.78781799899999 152.115892992,-32.787754007499998 152.11587401599999,-32.787630002 152.11581001600001,-32.787612001500001 152.11574601599997,-32.787632 152.11568099199999,-32.787719005500001 152.115620992,-32.787759002499996 152.11553699199999,-32.787768992499998 152.11545801599999,-32.787721003500003 152.11542601599999,-32.787647003499998 152.115328,-32.787544994500003 152.11526,-32.787486997 152.11518099200001,-32.787426002499998 152.11508601599999,-32.787348006500004 152.114959008,-32.787273007499998 152.114688992,-32.787109005 152.11469699200001,-32.7870619965 152.11467401600001,-32.786960006 152.114611008,-32.786906004500004 152.11452300799999,-32.786942005500002 152.114476,-32.786880992500002 152.114352,-32.786836999500004 152.11430899199999,-32.786755007499998 152.114260992,-32.786775006 152.114124992,-32.786835001500002 152.113972,-32.786900991 152.113852,-32.786965001 152.11388300799999,-32.787045994 152.11397100799999,-32.787165004500004 152.114046016,-32.787225999 152.114064,-32.787290009 152.11409900800001,-32.787364009 152.114139008,-32.787422006500002 152.11417401599999,-32.787476008 152.114224992,-32.787560997 152.11422899199999,-32.7876179955 152.114204,-32.787654995499992 152.114092,-32.787668001 152.114044,-32.787667002 152.11398499200001,-32.787667002 152.113956,-32.787683004500003 152.11398,-32.787706999 152.114064,-32.7877249995 152.114112,-32.787735008 152.11419100800001,-32.787768992499998 152.11423100799999,-32.787790008500004 152.114274016,-32.787817 152.11429801599999,-32.787871001500001 152.114330016,-32.787885006 152.11439401600001,-32.787898992 152.11445299199997,-32.787960005 152.114408,-32.788006995 152.114352,-32.788000002 152.11426899199998,-32.787999003 152.114256,-32.788022997500001 152.11418,-32.788025994500003 152.114188,-32.788069007 152.114116,-32.788089005499998 152.11408,-32.788072004 152.113976,-32.788105008 152.11394,-32.788105008 152.113967008,-32.788171996500004 152.11406499200001,-32.788200005500002 152.11411699199999,-32.788217007 152.11415100799996,-32.7882360065 152.11418499199999,-32.788283995500002 152.11415401599999,-32.788353999500004 152.114108,-32.788405004 152.11408899199998,-32.788429997500003 152.114024,-32.788467996500003 152.11396,-32.788466997500002 152.113904,-32.788441005 152.113836,-32.788427999499994 152.113798016,-32.788406003 152.11376099200001,-32.788351002500001 152.11367100800001,-32.7883120045 152.113630016,-32.788305992 152.11358,-32.788304993 152.11352,-32.788311005499999 152.113471008,-32.788314002500002 152.113428992,-32.788300997 152.11337699200001,-32.788284994500003 152.11331699199999,-32.788245996500002 152.11325299200001,-32.788190996 152.113204,-32.7881749935 152.11316601600001,-32.788168000500001 152.11314,-32.788149001 152.11314,-32.788124007500002 152.113182016,-32.788062994500002 152.11319801600001,-32.788013007499998 152.113164,-32.7879839995 152.113108,-32.787983000499999 152.11306201599999,-32.788020999499999 152.113024,-32.788072004 152.113008,-32.788126005500004 152.11299404799999,-32.788131019 152.112955008,-32.788145005 152.112842016,-32.788121991 152.112796992,-32.788109004 152.112728992,-32.788078997 152.11264300799999,-32.788037002 152.112582016,-32.788030009 152.112447008,-32.788030009 152.112280992,-32.787958007 152.112143008,-32.7878769955 152.11169801599999,-32.787973991 152.111502016,-32.788273006499992 152.11144201600001,-32.788434992500001 152.11137900799997,-32.788772007 152.111435008,-32.789021997500001 152.11161100800001,-32.789223 152.11198099200001,-32.789276002499996 152.112144,-32.789277001500004 152.1125,-32.7892040005 152.112707008,-32.789205998500002 152.113088992,-32.789445999 152.113192,-32.789534003500002 152.113427008,-32.789685999500001 152.113648,-32.789799996500001 152.11379500799998,-32.789913993500001 152.114047008,-32.789914992500002 152.11421001599999,-32.789917009 152.11446099200001,-32.789993007 152.11453401599996,-32.790069005 152.11473900799999,-32.790244995500004 152.11482700799999,-32.790357993500002 152.114915008,-32.790470991500001 152.11498899200001,-32.790459003500004 152.115108,-32.790423002499999 152.11515299199996,-32.790335997 152.11531699199998,-32.790274003500002 152.115508992,-32.790326007 152.11559699200001,-32.790351000500003 152.115744,-32.790451992 152.115744,-32.790526991 152.11578499199999,-32.790852998 152.115888,-32.790953009 152.115826016,-32.791178006 152.11572,-32.791451991 152.11555401599998,-32.791701001 152.115376,-32.791761995500003 152.114976,-32.791821991 152.11484201600001,-32.79184600399999 152.11464899200001,-32.791919005 152.114796,-32.791982996500003 152.115048,-32.79199700099999 152.11516601599999,-32.792072999 152.115224,-32.792135991500004 152.11532598400001,-32.792324007 152.11547299199998,-32.792462997500003 152.11560499199999,-32.792575995500002 152.11569299199999,-32.792664 152.115602016,-32.792875991500004 152.115424,-32.792874992500003 152.11515900800001,-32.792748008499998 152.115072,-32.792547006 152.11495500800001,-32.792370997 152.114688992,-32.7923450045 152.114555008,-32.792430992500002 152.114363008,-32.792417006500003 152.11418499199999,-32.792404001 152.11406601600001,-32.792502994499991 152.11365001599998,-32.792587003 152.113488,-32.792535998499993 152.113504,-32.792373994 152.113564,-32.792298995 152.113536,-32.792161003499999 152.113271008,-32.79199700099999 152.11309401599999,-32.791996002 152.11282598400001,-32.7920559975 152.112663008,-32.792105004 152.11235299199998,-32.792090999500005 152.11225001599999,-32.791926997 152.11229699200001,-32.791777998 152.11234201600001,-32.791678005500003 152.11234300800001,-32.791577994500003 152.11228598400001,-32.791377991 152.11208,-32.791251007 152.11203699199996,-32.791101009 152.11194700799999,-32.791175009 152.111872,-32.791250008 152.11175299199999,-32.791349001499995 152.11167900800001,-32.791273003500002 152.11162099200001,-32.791222998 152.11142998400001,-32.791072001 152.11095299199999,-32.791355994500002 152.110907008,-32.791504993499998 152.110728,-32.791666998 152.11061001600001,-32.791690992500001 152.11046198400001,-32.791665 152.11024,-32.791588003 152.11009299200001,-32.791475005 152.109992,-32.791260997 152.109800992,-32.791147999 152.109667008,-32.791184 152.109576992,-32.791245993499999 152.10950300799999,-32.791295 152.109516,-32.791508009 152.109780992,-32.791634993 152.10998700799999,-32.791736003 152.11006,-32.791862006500004 152.10996899200001,-32.792011005500001 152.109983008,-32.7921240035 152.109951008,-32.792323008 152.10981699199999,-32.792484994 152.109756,-32.792584006 152.10969699200001,-32.792659005 152.10965100799996,-32.792833996500001 152.10962,-32.792907996499991 152.10955900799999,-32.793083006499991 152.10952899200001,-32.793158005499997 152.10924700800001,-32.793231006500001 152.10899500799999,-32.793267007499992 152.108964,-32.793315995500002 152.10887401599999,-32.7934659935 152.10872601599999,-32.793490006500001 152.108563008,-32.79347600199999 152.10844700800001,-32.793288005 152.10843299199999,-32.793186995 152.10849401600001,-32.793013002500004 152.10858300800001,-32.792914009 152.10861299199999,-32.792875991500004 152.108586016,-32.792688993500001 152.10855699199996,-32.792601007500004 152.108396992,-32.792362006 152.108440992,-32.792325006 152.10847100800001,-32.792325006 152.10858899199999,-32.792401004 152.10861900800001,-32.792263993 152.10860601600001,-32.792126001499994 152.108667008,-32.792001996 152.10859398400001,-32.791913991500003 152.108416992,-32.791799994500003 152.10830099200001,-32.791598992 152.10821100800001,-32.791710991 152.10806201599999,-32.791747991 152.108034016,-32.791559994 152.108082016,-32.791247991500001 152.10803900799999,-32.79111 152.10795100799999,-32.790972008499999 152.107775008,-32.790808006 152.10793801599996,-32.790809005 152.10799801600001,-32.790784992 152.107732992,-32.790594997 152.10769001599999,-32.7904699925 152.107720992,-32.79037 152.10792899200001,-32.790259 152.10772300799999,-32.790169996499998 152.107664,-32.790131997499998 152.10760499200001,-32.79007000399999 152.10754601599999,-32.790018999499999 152.107427008,-32.790117993 152.10736601599999,-32.790255004 152.107306016,-32.790341991 152.10717401599999,-32.790265993 152.107235008,-32.790041995 152.10716201599999,-32.789965997 152.107164,-32.789765993499998 152.107091008,-32.789652995499999 152.107016,-32.7897530065 152.106984,-32.789952991500002 152.10687900799996,-32.790164002499999 152.106627008,-32.790213009 152.10640499199999,-32.790111 152.106376,-32.790060994500003 152.10642201600001,-32.789961002 152.106512,-32.789812003 152.106438016,-32.789774004 152.106364,-32.789785992 152.10630499199996,-32.789834998499998 152.106155008,-32.790008991 152.106036,-32.790057997499993 152.10575500799999,-32.790043993 152.10551900799999,-32.789942002499998 152.105535008,-32.789755004500002 152.10565401599999,-32.789756003500003 152.105772,-32.789756003500003 152.10603900800001,-32.789707996 152.106116,-32.789483998 152.10611900800001,-32.789171995499991 152.10629900800001,-32.788859993 152.10637500799996,-32.7886860005 152.10627299199999,-32.788597996 152.10599001599999,-32.788657991499996 152.10587100800001,-32.788731991500001 152.10554601600001,-32.788705 152.10551801599996,-32.788579995500001 152.10535401600001,-32.788629002 152.10528,-32.788602991 152.104942016,-32.788351002500001 152.10489699199999,-32.788475008 152.10486601599999,-32.788588006 152.104644,-32.788598995 152.10448300799999,-32.788372 152.10442601599999,-32.788147003 152.104428,-32.788009992 152.104356,-32.787772008 152.104252992,-32.787721003500003 152.10413500799999,-32.787694992500001 152.10398601599999,-32.787719005500001 152.103600992,-32.787741002 152.10342300799996,-32.787815002 152.10327100800001,-32.788239003500003 152.103268,-32.788488994 152.10326700799999,-32.788589005 152.10325001599998,-32.788789008500004 152.10320300800001,-32.788926001 152.10297500799999,-32.789058997499993 152.10283801599999,-32.789086007500003 152.10274700799999,-32.789114997 152.102610016,-32.789227995 152.102575008,-32.789295002 152.10251699200001,-32.789390998500004 152.102404,-32.789379991 152.10210899200001,-32.789358993500002 152.10200700799999,-32.78933899499999 152.101884,-32.789214009 152.10182899200001,-32.788955009 152.10168300800001,-32.788848005 152.10137801600001,-32.788702003 152.10116201599999,-32.788720003499996 152.10113801599999,-32.788805991499999 152.10129699199999,-32.788854998 152.10144300799999,-32.7889519935 152.10148700799999,-32.789105007 152.101372,-32.789258002 152.101168,-32.789246994499997 152.101032,-32.789149999 152.100828992,-32.789100992499996 152.10052201600001,-32.789136993500001 152.10048700799999,-32.789212991500001 152.10053100799999,-32.789348004499999 152.10060899199999,-32.789482 152.10078899199999,-32.789674992 152.10094601599999,-32.789849003 152.100899008,-32.790020997500001 152.10098700799998,-32.790299996 152.10092899199998,-32.7904240015 152.10071398399998,-32.7903549965 152.10062499200001,-32.790220002 152.1005,-32.790132996499992 152.10032099200001,-32.789864006500004 152.10022099199998,-32.789728993499999 152.10008601600001,-32.789593999 152.09994,-32.789478004 152.099839008,-32.789257003 152.099887008,-32.789093999500004 152.09986499199999,-32.788960004 152.09987801599999,-32.788797000500004 152.099908992,-32.788554003 152.09996099200001,-32.7884719925 152.100076992,-32.788271008500004 152.100032,-32.7881369945 152.099954016,-32.788088006500004 152.09979801599997,-32.788045993 152.099738016,-32.788028991499999 152.09946601600001,-32.788045993 152.09939699200001,-32.788075001 152.09930499199999,-32.788188998 152.099316,-32.788314002500002 152.09939299199999,-32.788543994500003 152.099344992,-32.788735007 152.09924201600001,-32.788820995 152.09907100799998,-32.788944001499999 152.0989,-32.789048008500004 152.09879801599999,-32.788970993 152.09874300800001,-32.788874996499999 152.09852700799999,-32.788872998500004 152.098456992,-32.789006994 152.09839801599998,-32.789283994500003 152.098340992,-32.789313002500002 152.09809001599999,-32.789377993 152.09793100799999,-32.789395993500001 152.09782899199999,-32.789367004 152.09769401599999,-32.78926 152.09765001599999,-32.789183003 152.097584,-32.788943002499998 152.09748201599999,-32.7889139945 152.097396,-32.788924003 152.09725500799999,-32.788941004500003 152.09718601599999,-32.789017002499996 152.097196,-32.789189996 152.09716,-32.789342991 152.097,-32.789465997500002 152.09687401599999,-32.789541995500002 152.096748,-32.789666001 152.09667801599997,-32.789875994500001 152.09658499199998,-32.789951992500001 152.09644499199999,-32.789968994 152.09638099200001,-32.789886003 152.09634,-32.789749991 152.09623299199998,-32.789704 152.09597401599999,-32.7896840015 152.095866016,-32.789709994 152.09575801599999,-32.789773005 152.09575699199999,-32.789835997499999 152.09581001599997,-32.789909997500004 152.09587398399998,-32.790000999 152.09592700799999,-32.790082991 152.09581801600001,-32.790219003 152.09562499200001,-32.790181004 152.095472992,-32.790261997 152.09531100800001,-32.7902789985 152.09519299199999,-32.790269008500005 152.095128,-32.790314000500004 152.094976992,-32.790303992 152.09488198400001,-32.7902030005 152.094752992,-32.790155992 152.094656,-32.790137991500004 152.094528,-32.790045991 152.09437801600001,-32.789899008500001 152.09425001599996,-32.789807008 152.094132992,-32.789716006500001 152.09399299199998,-32.789632997 152.09378899199999,-32.789576997499999 152.093596,-32.789520998 152.093424992,-32.789438007 152.093242016,-32.789354997499998 152.09307100800001,-32.7892350065 152.09295500799999,-32.789071004 152.09282700799997,-32.788961003 152.09270899200001,-32.788924003 152.092578016,-32.7890140055 152.09248099199999,-32.789057998499999 152.09238300800001,-32.789120991 152.09239299199999,-32.789229993 152.09233798400001,-32.7893569955 152.09223900800001,-32.789501998499993 152.09230300799999,-32.789584009 152.09247398400001,-32.789722000499999 152.09244099199998,-32.789831002500001 152.09229001599999,-32.789848004 152.092256,-32.790011007499999 152.09222201599999,-32.790137991500004 152.092274016,-32.790301994 152.092263008,-32.7903929955 152.09224,-32.790519998 152.09225001600001,-32.790566007500004 152.092228,-32.790684000500001 152.09218300800001,-32.790829003500001 152.092160992,-32.790883005 152.092072992,-32.791054999499998 152.09198700799996,-32.791054000500004 152.091891008,-32.790999 152.09182601599997,-32.790962 152.09168700800001,-32.790916009 152.091612,-32.790896991 152.091568,-32.790914991500003 152.09151401599999,-32.790942001499999 152.09146,-32.790960002 152.09130899199999,-32.79103100499999 152.09124300799999,-32.791140007 152.091124992,-32.791147999 152.09109100799998,-32.791202999500001 152.091036992,-32.791283992499999 152.09089699200001,-32.791282993499998 152.090812,-32.79118200199999 152.09077001599999,-32.791073 152.090619008,-32.791036 152.09045900800001,-32.790980000499999 152.090362016,-32.790914991500003 152.090256,-32.790832999500005 152.090171008,-32.790722998500001 152.090011008,-32.790557997 152.090002016,-32.7903860025 152.090046016,-32.7902409995 152.09003699199999,-32.790050005499999 152.09002899199996,-32.789850002 152.089976992,-32.789685999500001 152.089924,-32.789557998 152.08984899199996,-32.789520998 152.089740992,-32.789584009 152.089664,-32.789647001500001 152.08957801599996,-32.7896919935 152.089536,-32.789628002 152.08934099199999,-32.789645003499999 152.089244,-32.789761997500001 152.089156,-32.789870000500002 152.08899500800001,-32.789806009 152.088943008,-32.789632997 152.08885699199999,-32.789667999 152.08882300799999,-32.789803992499998 152.088768,-32.78989499399999 152.08857500799999,-32.789848004 152.088576,-32.789739002 152.088663008,-32.789621009 152.088772992,-32.789459004500003 152.088774016,-32.789303993 152.08888300800001,-32.789223 152.08880899199997,-32.789112999 152.08876700799999,-32.788977005500001 152.088639008,-32.7888759955 152.08851001599999,-32.788811005 152.088380992,-32.788847006 152.088315008,-32.788974008499999 152.08828099199997,-32.789091002500001 152.088152,-32.789099993500002 152.088067008,-32.789007993 152.0881,-32.788927 152.088166016,-32.788799997499993 152.08814700799999,-32.788596997 152.08807900799999,-32.788557 152.088004,-32.788390000500002 152.08800601599998,-32.788223001 152.08785500799999,-32.78811899399999 152.08770300800001,-32.7880150055 152.08764201599999,-32.7880910035 152.08738099199999,-32.788257004 152.08729100799997,-32.788127004499991 152.0872,-32.788139991499996 152.08712300799996,-32.788190996 152.08697100800001,-32.788202003499997 152.086848992,-32.788175992500001 152.08677299199999,-32.788201004500003 152.08674201599999,-32.788252009 152.08672499199997,-32.788354998500004 152.086496,-32.788429997500003 152.08648300799999,-32.788276003500002 152.08648499200001,-32.788095998499998 152.08642499199999,-32.7879539925 152.086348,-32.7879919915 152.08627100800001,-32.788170997500004 152.08623900799998,-32.788247994500004 152.086208,-32.788364008 152.08614601599999,-32.788452993 152.086056,-32.788323992500004 152.085952,-32.788092002500001 152.08583001599999,-32.788014006499992 152.08582899199999,-32.788220004 152.085826016,-32.788412996 152.085870016,-32.788656992500002 152.085776,-32.788835998499998 152.085684,-32.788939006500001 152.085620992,-32.789144005 152.08551299199996,-32.789322992500004 152.08543401599999,-32.789527991 152.08531100799999,-32.789655992500002 152.085218016,-32.789834998499998 152.08518499199999,-32.790066008 152.08488,-32.790141007 152.08463699199996,-32.790074999 152.08463798400001,-32.789907999500002 152.08470099199999,-32.789689995499998 152.08485401600001,-32.78962700299999 152.08503900799997,-32.789447997 152.084858016,-32.789254006 152.08489001599997,-32.789087006500004 152.084755008,-32.788906002499999 152.08458899199999,-32.788776003 152.08439299200001,-32.788632998 152.08428601599999,-32.788580994500002 152.084059008,-32.788501999499999 152.083922016,-32.788476007 152.08386201600001,-32.788347006500004 152.08392601599999,-32.7881290025 152.08388201599999,-32.787947998500002 152.08383801599999,-32.787767993500005 152.08368601599997,-32.787689997500003 152.08357900799999,-32.787804993500004 152.083516,-32.7879460005 152.08342300800001,-32.7880989955 152.083344,-32.788213991500001 152.083292992,-32.788461003499997 152.083236992,-32.788630001 152.08312,-32.788753007499999 152.08294899200001,-32.788803993499997 152.08280201599999,-32.7887309925 152.08275900800001,-32.788416992 152.08291401599999,-32.788411997 152.082978016,-32.788197008499999 152.08290899199997,-32.788117995 152.08286700799999,-32.787961004 152.08286099200001,-32.787914994499999 152.08297001599999,-32.787709996 152.08283401599999,-32.787580995500001 152.082592,-32.787476008 152.08236300799999,-32.787500002499996 152.08210300799996,-32.787600994 152.081828,-32.787727996500003 152.081612992,-32.787829006500004 152.081536992,-32.787892998 152.08142899200001,-32.787982001499998 152.081276,-32.788083992 152.081367008,-32.788135995499999 152.081335008,-32.788238004500002 152.081120992,-32.788314002500002 152.08105798400001,-32.788544993499997 152.081056,-32.788699006 152.08091801599997,-32.788827007500004 152.08067401599999,-32.7888759955 152.08050601599999,-32.7889139945 152.080368,-32.788950994499999 152.080232,-32.788886004 152.08003500800001,-32.788807009 152.079988,-32.788947997500003 152.07983401600001,-32.78907599899999 152.07966700799997,-32.788997004 152.079486016,-32.788841992500004 152.07938099200001,-32.788673994 152.07941299199999,-32.788494007499999 152.07958201599999,-32.788417991 152.07975100799999,-32.788264996 152.07972201600001,-32.788124007500002 152.079572,-32.787916992500001 152.07940499200001,-32.787786993 152.07914700799998,-32.787759002499996 152.07897900799998,-32.787771009 152.078811008,-32.78785999399999 152.07861299199999,-32.787780999 152.078327008,-32.787547991499999 152.078295008,-32.787702004 152.07812601599997,-32.787764996500002 152.077991008,-32.787634997 152.07788601600001,-32.787441006 152.077887008,-32.78729999899999 152.07793500799997,-32.78711999399999 152.077920992,-32.786979005500001 152.07786099199998,-32.786940007499993 152.077604,-32.786744999 152.07742300800001,-32.786551008 152.077395008,-32.786332005 152.07757801599999,-32.786256007 152.07783801599999,-32.786168002499998 152.07787001599999,-32.786026995500002 152.07769001599999,-32.785794006499998 152.07740099200001,-32.785714993 152.07721801599999,-32.785764998499999 152.07709500799999,-32.785840996499999 152.076943008,-32.785815004 152.07696,-32.785686003499997 152.07703699199999,-32.785531991 152.07691699200001,-32.785403009 152.07661299200001,-32.785361994500001 152.07638499199999,-32.785296005 152.07632499199997,-32.785282999499998 152.076036,-32.7852159925 152.07590099199999,-32.785047994 152.07573100799999,-32.784838000499995 152.07568700799996,-32.784751994 152.07563100799999,-32.784670002 152.07556700800001,-32.784592006 152.07549798400001,-32.784517007 152.07542899200001,-32.784445005 152.07536300800001,-32.784384991 152.07529299199996,-32.784331008 152.075220992,-32.784277006499998 152.07515100799998,-32.784222006 152.075087008,-32.784160993 152.07505801600001,-32.784125991 152.075031008,-32.784087992 152.075004,-32.784049993 152.074975008,-32.784014991 152.07494300799999,-32.783985002500003 152.07489100800001,-32.783955994499998 152.074832,-32.783935996 152.074770016,-32.783921991500002 152.074708,-32.783906007499994 152.07465001599999,-32.783883992500002 152.074592,-32.783853005 152.074536,-32.783819002 152.07448099199999,-32.783782002 152.074428,-32.783742005 152.074378016,-32.783699991500001 152.074310016,-32.783656997500003 152.074243008,-32.783656997500003 152.07407299199997,-32.783556006 152.073691008,-32.783476992499999 152.07347001599996,-32.783469999499999 152.07301900799999,-32.783483005 152.07228,-32.783554008 152.071872,-32.783531993 152.071037504,-32.783461212</coordinates></LinearRing></outerBoundaryIs></Polygon><Polygon><outerBoundaryIs><LinearRing><coordinates>152.09467001600001,-32.791841009 152.094807008,-32.7919790005 152.094812,-32.792101008 152.094828,-32.792325006 152.094856,-32.792514002 152.09469900799999,-32.792533001500004 152.09447798399998,-32.792348001500002 152.094384,-32.792103006 152.094244992,-32.792067005 152.094064992,-32.792003994 152.093886016,-32.791825006499998 152.093928992,-32.791698004 152.09384,-32.791579992500004 152.093792992,-32.791442001 152.09390300800001,-32.791362007 152.09411401599999,-32.791352997499999 152.094288992,-32.7913539965 152.094488,-32.791355994500002 152.09456601599999,-32.79141199399999 152.09449801599999,-32.791579992500004 152.09454499200001,-32.791702 152.09467001600001,-32.791841009</coordinates></LinearRing></outerBoundaryIs></Polygon><Polygon><outerBoundaryIs><LinearRing><coordinates>152.120192992,-32.788940005500002 152.120308,-32.788972991 152.12041500800001,-32.7890140055 152.12051699199998,-32.789064991499998 152.120611008,-32.789130999500003 152.120666016,-32.789170996499998 152.120704,-32.7892040005 152.120776,-32.789313002500002 152.12077100799999,-32.7893490035 152.12070598400001,-32.789406002 152.120672,-32.789430995499998 152.12063699199999,-32.7894630005 152.120611008,-32.789478004 152.120576992,-32.789502997500001 152.120512,-32.789527991 152.12047801599999,-32.789541995500002 152.12043900800001,-32.789567007500004 152.12043500799999,-32.789592001 152.120416992,-32.789679006500002 152.120408,-32.789736005 152.12044601599999,-32.789786991 152.12050499199998,-32.789837995500001 152.12050899199997,-32.789882007 152.12051699199998,-32.789946997500003 152.12052,-32.790015003500002 152.12051100799999,-32.790116994 152.12043401599996,-32.790123006500004 152.120348992,-32.790068006 152.120268,-32.789992008 152.1202,-32.789933992 152.12016598400001,-32.789878991500004 152.120150016,-32.789792004500001 152.120147008,-32.789717005500002 152.120170016,-32.789578995500001 152.120170016,-32.789524994 152.12015401599999,-32.789445999 152.12000899200001,-32.789362009 152.11997500800001,-32.789347005499991 152.11991500799999,-32.789371999 152.11986300799998,-32.789392996499998 152.11983801599999,-32.789382007500002 152.119752,-32.789323991499998 152.119676,-32.789268991 152.119604,-32.789221002 152.11959100799999,-32.789182004 152.119608992,-32.789127003499999 152.119652,-32.789094998499998 152.119687008,-32.789085008500003 152.11971699200001,-32.789022996500002 152.119743008,-32.788950994499999 152.11979100799999,-32.788865006500004 152.119868,-32.7888690025 152.11994899199999,-32.788884006 152.12007299199999,-32.788909998500003 152.120116,-32.788918009 152.120192992,-32.788940005500002</coordinates></LinearRing></outerBoundaryIs></Polygon><Polygon><outerBoundaryIs><LinearRing><coordinates>152.123887008,-32.784305996 152.123952,-32.784291991499998 152.12401699200001,-32.784320000499996 152.12409401599999,-32.784378997 152.124048,-32.78444100899999 152.124100992,-32.784489997 152.12415001599999,-32.78452499899999 152.12413801599999,-32.7845380045 152.124096,-32.784573006500004 152.1241,-32.784628007 152.124148,-32.784708001 152.124135008,-32.784781002 152.124111008,-32.784794007500004 152.12404899200001,-32.784803997499999 152.123988,-32.784789993 152.12397100800001,-32.784800001500003 152.12398300800001,-32.784820999 152.12397001599999,-32.784882992500002 152.123888,-32.784893001 152.123872,-32.784916995499998 152.12386300799997,-32.784951997500002 152.12381299200001,-32.785009995 152.12378099200001,-32.785037005 152.12370601599997,-32.785060999500004 152.12364099199996,-32.785040002 152.123556,-32.784984002499996 152.123527008,-32.784963005 152.12350700799999,-32.784934996 152.12350300799997,-32.784896997 152.123532,-32.784852005 152.12357801600001,-32.7847970045 152.12361900799999,-32.784756008500004 152.123648,-32.7847289985 152.12366899200001,-32.784693996500003 152.12369500799997,-32.7845839955 152.1237,-32.784487 152.12372499200001,-32.784428003500004 152.12374598400001,-32.784383992 152.123808,-32.784332007 152.123887008,-32.784305996</coordinates></LinearRing></outerBoundaryIs></Polygon><Polygon><outerBoundaryIs><LinearRing><coordinates>152.08099299199998,-32.789397991500003 152.08129500800001,-32.789372998 152.08137100799999,-32.7894329935 152.081408,-32.789629001 152.08121401599999,-32.789641007500002 152.080974016,-32.789671995 152.080780992,-32.789664003 152.080636,-32.7895320055 152.080612992,-32.789413994 152.080646016,-32.789302994 152.08072198400001,-32.789350002500001 152.08099299199998,-32.789397991500003</coordinates></LinearRing></outerBoundaryIs></Polygon><Polygon><outerBoundaryIs><LinearRing><coordinates>152.080116992,-32.789527991 152.080248,-32.789621009 152.080184992,-32.789751008499998 152.080052,-32.789828005499999 152.07986598400001,-32.789866004499999 152.07969001599997,-32.789695009 152.07966,-32.789576997499999 152.079815008,-32.789545991499999 152.079947008,-32.789553003 152.080116992,-32.789527991</coordinates></LinearRing></outerBoundaryIs></Polygon><Polygon><outerBoundaryIs><LinearRing><coordinates>152.07757900799999,-32.788778001 152.07759401600001,-32.7888759955 152.07753801600001,-32.789005995 152.07749100800001,-32.789091002500001 152.077383008,-32.789051005499999 152.07735299199999,-32.7889070015 152.077339008,-32.788789008500004 152.07757900799999,-32.788778001</coordinates></LinearRing></outerBoundaryIs></Polygon></MultiGeometry>

	</Placemark>
</kml>