<?xml version="1.0" encoding="UTF-8"?>
<kml xmlns="http://www.opengis.net/kml/2.2">
	<Placemark>
		<Style>
			<LineStyle>
				<color>ff0000ff</color>
			</LineStyle>
			<PolyStyle>
				<fill>1</fill>
				<color>330000cc</color>
			</PolyStyle>
		</Style>
			<ExtendedData><SchemaData>
		<SimpleData name="STATE_2006">1</SimpleData>
		<SimpleData name="POA_2006">2125</SimpleData>
	</SchemaData></ExtendedData>
      <Polygon><outerBoundaryIs><LinearRing><coordinates>151.05812588800001,-33.738225251499998 151.058161888,-33.738367239 151.05837388800001,-33.739341227 151.058635552,-33.740539287 151.05857328,-33.740558009 151.05848544,-33.740588256499997 151.05830291199999,-33.740664384 151.058102752,-33.740759881 151.05791952000001,-33.74085708 151.05647088000001,-33.741715054499998 151.05626784,-33.741840429 151.05605616,-33.741983619 151.05587616,-33.742110418 151.055787968,-33.742175852500004 151.05570265599999,-33.742243266500004 151.05562128,-33.742311217 151.05554137599998,-33.742380777 151.055463616,-33.742451872499998 151.055388,-33.742524503499993 151.05531420799997,-33.7425983925 151.054594208,-33.743325054 151.052856128,-33.74507952 151.05228409599999,-33.745642382500002 151.052219648,-33.745712312500004 151.05168144000001,-33.746293897 151.05115584000001,-33.746852153 151.05063132800001,-33.747372724500003 151.05052332799997,-33.747467481500003 151.05037753599998,-33.74759537199999 151.050162976,-33.747752973499999 151.05002473599998,-33.747854224 151.04985516799999,-33.748027828 151.049783168,-33.7481317795 151.04969136,-33.748264443 151.04956140799999,-33.748486554 151.049526112,-33.7485507305 151.04949264000001,-33.748615795 151.04946169600001,-33.748681581 151.04943289600001,-33.748748014500002 151.049376352,-33.748903803 151.04930508800001,-33.749137791 151.04925395199999,-33.7493324665 151.049174048,-33.750057962500001 151.04909593599999,-33.750624247499999 151.049000896,-33.751127965500004 151.04895155200001,-33.751243886499999 151.04890224,-33.751359622500004 151.04869993599999,-33.75166733299999 151.048267552,-33.752251267 151.04801952,-33.752625577499998 151.04789856,-33.752839326500002 151.047841312,-33.752963165499999 151.04778985600001,-33.753074757500002 151.047706336,-33.753342952 151.04764729599998,-33.753665518 151.0476408,-33.753961888 151.04765088,-33.754085375500004 151.04766348800001,-33.754238648 151.04781216000001,-33.754730766500003 151.04824307199999,-33.755848296 151.04830752000001,-33.756015055 151.04853251200001,-33.756686457 151.048703872,-33.757349663500001 151.048725472,-33.757477387500003 151.04884931199999,-33.758044560500004 151.04887091200001,-33.758154543 151.04889289600001,-33.758285856 151.04892601599997,-33.758523174 151.04893932799999,-33.758638207 151.04895193600001,-33.758765468499995 151.048957696,-33.758845111 151.04893139199999,-33.758883813 151.04890979199999,-33.758907308 151.04888748799999,-33.75892566 151.04886156800001,-33.758941773499998 151.04883347200001,-33.758956259 151.04877552,-33.758982455 151.048724032,-33.759003785499999 151.04867004799999,-33.75902223 151.04861424000001,-33.759037807 151.04855772799999,-33.759050035500003 151.04850121600001,-33.759058952499998 151.04634985600001,-33.759288981499999 151.04582064,-33.759340208 151.04349648,-33.759565297500004 151.043141152,-33.759622444 151.042847392,-33.759669785500002 151.04186713600001,-33.759837895 151.041532,-33.759918999 151.04143152,-33.759944011 151.04132784000001,-33.759969300500003 151.040981888,-33.760053531 151.03977804799999,-33.760367365 151.03873187199997,-33.760592454499992 151.03831052800001,-33.760683456 151.03808550400001,-33.760734442 151.03723536000001,-33.760914391500002 151.03712700799997,-33.7609503 151.036347616,-33.761218957 151.03620937599999,-33.761285723500002 151.03607257600001,-33.761355209500003 151.03593721600001,-33.761425861 151.03580832,-33.761496068500001 151.035681248,-33.761568773500002 151.03555561600001,-33.7616432915 151.03503888,-33.761952944499996 151.03497996799999,-33.761988187 151.03486188799999,-33.762059819 151.03413145600001,-33.762580464499997 151.03400361600001,-33.762669505 151.0338256,-33.762798505500001 151.03346262400001,-33.763054508499998 151.03275264000001,-33.763562814499998 151.032562912,-33.763676941 151.0323408,-33.763800058500003 151.032112192,-33.763916164500003 151.032006016,-33.763965300500004 151.03187747199999,-33.764024889 151.03163843199999,-33.764125677 151.03139616,-33.764218288 151.03121507200001,-33.764281299 151.031031136,-33.764340055 151.030845376,-33.764394426500004 151.030658176,-33.764444469 151.030469536,-33.7644899975 151.03029024,-33.764528699499998 151.03010915199999,-33.764563257500001 151.02992700799999,-33.764594041500004 151.029744128,-33.764621033 151.02956089599999,-33.764644713 151.02945216000001,-33.764657034 151.02885872,-33.763653538500002 151.027501664,-33.76136055599999 151.02586169599999,-33.76048558 151.02446272,-33.75973758799999 151.01926278400001,-33.756960645500001 151.01924777599999,-33.756978646 151.01921078399999,-33.757063653499998 151.01921078399999,-33.757106647500002 151.01919276800001,-33.75714966 151.019187776,-33.757335659 151.01934876799999,-33.757810646499998 151.019364768,-33.757853659 151.01942576,-33.758198647 151.01943776,-33.758427658500004 151.019378784,-33.758770648500004 151.0192528,-33.759069645499999 151.01893481599998,-33.75947966099999 151.018882816,-33.759507651500002 151.01879580799999,-33.759577655500003 151.0187608,-33.7596206495 151.018690816,-33.759647659500004 151.01863881599999,-33.759690653500002 151.01850681600001,-33.759715647 151.0185008,-33.759716646 151.018466816,-33.759727672 151.01841481599999,-33.759744673500002 151.01834579199996,-33.759771665 151.01808780799999,-33.759824667499998 151.01777984,-33.759820671500002 151.01757484800001,-33.759788666499993 151.01754083200001,-33.759773663 151.01740384,-33.759771665 151.01702883199999,-33.759708672499997 151.016890848,-33.759706674500002 151.01677184,-33.759690672 151.016429824,-33.759684696500003 151.01610284799997,-33.759722695500002 151.01524585600001,-33.759767687500002 151.01485088000001,-33.759804706 151.01479888,-33.759817711499998 151.01464486399999,-33.759815713500004 151.014303872,-33.759738716500003 151.01411686399999,-33.759678702500004 151.01404886399999,-33.759648714 151.01399888,-33.759604702499999 151.01393088,-33.759589699 151.01367788799999,-33.759413708499999 151.013525888,-33.75928271 151.01340790399999,-33.759223713499999 151.01327289599999,-33.759106719500004 151.01317289599996,-33.759005728 151.012918912,-33.7588437235 151.01251190400001,-33.758694724499996 151.01220489599999,-33.758617727500003 151.01199990399999,-33.758600726 151.01177590399999,-33.758640723 151.011533888,-33.758750742499998 151.011446912,-33.758806742 151.01097792,-33.759085740499998 151.01038492800001,-33.759378743500001 151.01030992,-33.7591187445 151.010242944,-33.759046742500004 151.010107936,-33.758929748500002 151.01002294399999,-33.75889976 151.00995593600001,-33.758855767 151.009836928,-33.758810756500004 151.009666944,-33.7587227705 151.00929395200001,-33.758573771500004 151.00885497600001,-33.758266764 151.00880595199999,-33.758164755 151.00872396799997,-33.7580207695 151.00869395199996,-33.757805781 151.008551936,-33.757287781 151.008520928,-33.757129772500001 151.00852294399999,-33.757043784499999 151.008543936,-33.756843781 151.008599936,-33.75665778199999 151.00879993599997,-33.756145757500001 151.009002944,-33.755489766 151.00904188800001,-33.755261772 151.00904390400001,-33.755175765499999 151.00906588800001,-33.754975762 151.00903289600001,-33.754931769 151.009034912,-33.754817772 151.008921888,-33.754514760499994 151.008788896,-33.754326782 151.008773056,-33.754311815500003 151.00880889600001,-33.754226789500002 151.00886089599999,-33.754184757499992 151.008912896,-33.754171770500001 151.009033888,-33.7541017665 151.00918889600001,-33.754060770500004 151.00918988800001,-33.754046766 151.00948188799998,-33.753993763499999 151.009723872,-33.753882763500002 151.01012387199998,-33.753602766 151.010159872,-33.7535457675 151.01059785599998,-33.753108742 151.01103584000001,-33.752732748 151.011138848,-33.752644743499999 151.01115216,-33.752629148 151.01147382400001,-33.752248751 151.01180582399999,-33.751923743 151.011982816,-33.751682725 151.0120368,-33.751569727 151.01221580800001,-33.751199727 151.012217792,-33.7511427285 151.012254816,-33.7510287315 151.01237081599996,-33.750572725 151.012385792,-33.750514727500004 151.0124208,-33.75045872799999 151.012422816,-33.750386726 151.012510816,-33.750273728 151.01249481599999,-33.750230734 151.012565792,-33.750130723 151.01274278400001,-33.749847728500001 151.01295478399996,-33.749592724500005 151.01321776,-33.749310729 151.013758752,-33.748846712 151.01393372800001,-33.748690701500003 151.014106752,-33.748593706 151.01431875200001,-33.748438713 151.01433875199999,-33.748423709500003 151.01506169599998,-33.7478597 151.01577872,-33.747311693 151.017020672,-33.746199695 151.01716467200001,-33.746101682 151.01775763200001,-33.745609674500002 151.01793664,-33.745482672 151.018314656,-33.745173666500001 151.01845865600001,-33.745018673499999 151.01854864000001,-33.744947670500004 151.01862064,-33.744863662 151.01890860799998,-33.744624679 151.01914262399998,-33.74439864599999 151.01928761599999,-33.74424365299999 151.01989862400001,-33.743708651499993 151.02027859200001,-33.74328465 151.02033356799998,-33.743199661 151.02062358399999,-33.742831659 151.02071459199999,-33.742704656500003 151.020824576,-33.7425336425 151.02086156799996,-33.742462639500005 151.021024544,-33.742250629499999 151.02106153599999,-33.742179626500004 151.02115155199996,-33.742094637500003 151.02136953600001,-33.741811624500002 151.02153353599999,-33.741585628500005 151.02162355199999,-33.741500639500003 151.02166054400001,-33.741429636500001 151.02207651200001,-33.740949635500002 151.02213251200001,-33.740821634 151.02213552000001,-33.74067763 151.02211952,-33.740605628 151.02210851199999,-33.74048763499999 151.022105504,-33.740448637 151.02208950400001,-33.740376635 151.022092512,-33.74023363 151.02207651200001,-33.740161628 151.02209552,-33.740090625 151.022070528,-33.7396596305 151.02210652799997,-33.739589626499992 151.02211852799996,-33.739073624500001 151.02210252799998,-33.739001641 151.02210752,-33.738772629499998 151.02209152,-33.738700627500002 151.02210947200001,-33.737899633 151.02208048,-33.737612642500004 151.02208547199999,-33.737368627500004 151.02211849599999,-33.736696633500003 151.02198547200001,-33.736207641500002 151.02227846400001,-33.7358396395 151.02245744000001,-33.735614642499996 151.02341945599997,-33.736124613500003 151.02399344,-33.736470619 151.02693536000001,-33.732753599 151.02701536000001,-33.732798591 151.02714291199999,-33.7328704265 151.02722131199999,-33.732914586 151.02862931199999,-33.734095570500003 151.029269312,-33.734717559 151.02994032000001,-33.735338567 151.030327328,-33.735696560500003 151.03038931200001,-33.73575256 151.030474336,-33.735835551 151.03049232000001,-33.735851553499998 151.03050832,-33.735869535500001 151.03054131199997,-33.735904537499998 151.03055632,-33.735922538 151.03138201600001,-33.736943997 151.032294304,-33.737772519499991 151.03269430399999,-33.73807653 151.03297430399999,-33.738146515499999 151.03306028799997,-33.738148513500001 151.03338928,-33.738156524 151.03375529600001,-33.738141520500001 151.03420329599999,-33.738122502499998 151.03441427199999,-33.738105501 151.03474326400001,-33.738159502500004 151.03507724799999,-33.738264508500002 151.035569248,-33.738469507 151.036201248,-33.739021491500004 151.03638323199999,-33.739225195 151.03650528,-33.739342929 151.03657081599999,-33.739398447500001 151.0366968,-33.739493852 151.03676915200001,-33.739543080499999 151.03684656,-33.739590514499994 151.03688291200001,-33.739611475 151.0369488,-33.73964496 151.0370208,-33.739676724500001 151.03709532799999,-33.739705436500003 151.037172,-33.739730911 151.03724940800001,-33.739752963 151.03732787199999,-33.739771222500003 151.04002220800001,-33.740321449500001 151.0406152,-33.740522433500004 151.04115619199999,-33.740858430499998 151.0413472,-33.740981437 151.04295916800001,-33.74071241 151.042750176,-33.739736405500004 151.04390512,-33.739545411500004 151.04394912000001,-33.739531407 151.043987136,-33.739507412499997 151.04400912,-33.739484417 151.04402412799999,-33.739457407 151.04403312,-33.739429416500002 151.04403312,-33.7393894195 151.04398912,-33.739189416 151.04385308799999,-33.738572404 151.043794112,-33.738306411 151.043792096,-33.738289409499998 151.04379609599999,-33.738263417 151.04380310400001,-33.738247414500002 151.04381411200001,-33.738232411 151.04383411200001,-33.738212412500005 151.043860096,-33.738198408 151.04388908799999,-33.738189417 151.04459110400001,-33.738074384 151.04431606399999,-33.736676413 151.04431008,-33.736350406 151.044851072,-33.736227399499995 151.04578902399999,-33.7360873915 151.04590304000001,-33.73607039 151.04633203200001,-33.736646369 151.04669104000001,-33.737232375 151.04740208,-33.738647366 151.047565056,-33.738972355500003 151.04767206400001,-33.739241364 151.04793004800001,-33.738561359500004 151.048440992,-33.737222348 151.048508,-33.736967362500003 151.048524,-33.7368643545 151.04865801599999,-33.736121357500004 151.04875283199999,-33.735459779 151.04876544000001,-33.735419541500001 151.048783456,-33.735376085 151.048799296,-33.735348631 151.04882377600001,-33.7353179395 151.04885328,-33.735290041500001 151.04886912000001,-33.73527770199999 151.048891072,-33.735263586500004 151.04892598399999,-33.735245364 151.049710976,-33.735028359 151.04941632000001,-33.734260257500004 151.049406976,-33.734223997500003 151.049399392,-33.734168645499992 151.049399392,-33.734113016 151.049406976,-33.734057664 151.04942208,-33.734003496 151.04945376000001,-33.733934195 151.04948579200001,-33.733885318 151.04952432,-33.733839863500002 151.04960195199999,-33.733773356 151.04967337599996,-33.733729714500001 151.04971225599999,-33.733711529 151.04979395199999,-33.733682354500004 151.05172691199999,-33.733147334500003 151.05349388799999,-33.732677323499999 151.05377587199999,-33.732616310499999 151.05395488,-33.732577312499998 151.055042848,-33.732288305499999 151.055302848,-33.732574297 151.05534284800001,-33.7326173095 151.05548384,-33.732744293499998 151.05557584,-33.732798295 151.055964832,-33.73302529 151.05628483199999,-33.733212288 151.05642384000001,-33.733295279 151.05686185599998,-33.733556277 151.0571448,-33.733727272499998 151.05790486399999,-33.737227250499998 151.05808988800001,-33.738081247499998 151.05812588800001,-33.738225251499998</coordinates></LinearRing></outerBoundaryIs></Polygon>

	</Placemark>
</kml>