<?xml version="1.0" encoding="UTF-8"?>
<kml xmlns="http://www.opengis.net/kml/2.2">
	<Placemark>
		<Style>
			<LineStyle>
				<color>ff0000ff</color>
			</LineStyle>
			<PolyStyle>
				<fill>1</fill>
				<color>330000cc</color>
			</PolyStyle>
		</Style>
			<ExtendedData><SchemaData>
		<SimpleData name="STATE_2006">1</SimpleData>
		<SimpleData name="POA_2006">2174</SimpleData>
	</SchemaData></ExtendedData>
      <Polygon><outerBoundaryIs><LinearRing><coordinates>150.86732716799997,-33.97066456099999 150.86657257600001,-33.975389831 150.86950953600001,-33.977028801499998 150.867903584,-33.978597823500003 150.86589564799999,-33.980064855 150.860661792,-33.98284892 150.8595488,-33.983349918500004 150.858995808,-33.983755938 150.85673187200001,-33.985148969500003 150.85673456000001,-33.985247981500002 150.856725888,-33.985249961 150.856445888,-33.985311973 150.85506092799997,-33.985728981500003 150.85353593599996,-33.986189002499998 150.85353395199999,-33.986183008499999 150.853373952,-33.985799004 150.852978944,-33.984845014500003 150.85225091199999,-33.983122017 150.85217491200001,-33.983144013500002 150.85144192000001,-33.981404014499994 150.85120291199999,-33.980837026499998 150.85010051200001,-33.9782219035 150.85002387200001,-33.977991042 150.84977148799999,-33.977229933499999 150.84859609599999,-33.974317164 150.848492768,-33.9740583305 150.84833363199999,-33.973658915500003 150.84820608000001,-33.973328653499998 150.848078848,-33.972999057500004 150.84795286400001,-33.972668055499994 150.84788284800001,-33.972477061500001 150.84781385599999,-33.972286049 150.847920864,-33.972142063500002 150.84777888,-33.971904098 150.84778249600001,-33.971830116500001 150.84779328,-33.9717248145 150.84782099199998,-33.971616534 150.847864192,-33.971510066499995 150.84792035199999,-33.971409815 150.84798841599999,-33.971320441499998 150.84805084800001,-33.971257060500001 150.84812195200001,-33.971196787499998 150.848199712,-33.971141879500003 150.84828288,-33.971093909 150.84836892800001,-33.971054578 150.84849059199999,-33.971019668499999 150.84862345600001,-33.971001927 150.84876281599998,-33.970996044 150.84890281599999,-33.970998042 150.84904032,-33.971001483 150.84926137599999,-33.97102002 150.84948131199999,-33.971059887500004 150.84970128,-33.971111817 150.84992083200001,-33.971167039500003 150.85014083199999,-33.971215047 150.8503048,-33.971249013 150.8504688,-33.971285014 150.8506328,-33.971319017 150.85079680000001,-33.971350023 150.85096278399999,-33.971372019500002 150.851124,-33.971387041500002 150.85128579199997,-33.971396014 150.8514488,-33.971401027500001 150.851611776,-33.9714000285 150.85177308799999,-33.971394774499998 150.85218976,-33.971393997500002 150.852188224,-33.97138265699999 150.853785824,-33.970927242500004 150.856370016,-33.970189999 150.85775500799997,-33.969795005500004 150.860095008,-33.9691280065 150.86339100800001,-33.968198992 150.863424928,-33.968189390500001 150.86425401599999,-33.967954995500001 150.867224,-33.967102996500003 150.87187299199999,-33.964819005 150.87493900800001,-33.963308998 150.875192992,-33.963411007 150.87448700799999,-33.966872005500001 150.87423132800001,-33.967017711499992 150.87239836800001,-33.9680637385 150.87212569600001,-33.968191148 150.8706344,-33.968884768500004 150.869812448,-33.969358775499998 150.86914883200001,-33.969740763499999 150.86824147199999,-33.970200803 150.86814067200001,-33.970252122 150.86745395200001,-33.970600255 150.86732716799997,-33.97066456099999</coordinates></LinearRing></outerBoundaryIs></Polygon>

	</Placemark>
</kml>