<?xml version="1.0" encoding="UTF-8"?>
<kml xmlns="http://www.opengis.net/kml/2.2">
	<Placemark>
		<Style>
			<LineStyle>
				<color>ff0000ff</color>
			</LineStyle>
			<PolyStyle>
				<fill>1</fill>
				<color>330000cc</color>
			</PolyStyle>
		</Style>
			<ExtendedData><SchemaData>
		<SimpleData name="STATE_2006">1</SimpleData>
		<SimpleData name="POA_2006">2110</SimpleData>
	</SchemaData></ExtendedData>
      <Polygon><outerBoundaryIs><LinearRing><coordinates>151.136886976,-33.815172967500004 151.13689993599999,-33.815208968500002 151.136916128,-33.815243970499999 151.13693484800001,-33.815275013499999 151.13698092800001,-33.815319025 151.13704896,-33.815354045500001 151.13712889600001,-33.815382036 151.13721312000001,-33.815406955500002 151.137293056,-33.815430987 151.13744713599999,-33.815467987 151.13760912000001,-33.815486968 151.13777401600001,-33.815500029 151.13793817600001,-33.815518011 151.138094048,-33.815553031500002 151.13821715200001,-33.815591012 151.138340992,-33.815633044 151.138461952,-33.815681014500001 151.13857104,-33.815738975 151.13866211199999,-33.815807998499992 151.13873808,-33.815889990500004 151.13880396799999,-33.815985025 151.13885689599999,-33.81608799599999 151.138890016,-33.816191041 151.13889792000001,-33.8162900345 151.13887488,-33.816372026499998 151.13882700799999,-33.816452039 151.138769056,-33.816531959 151.13871289599999,-33.816614043500003 151.13867616,-33.816697016 151.13865385599999,-33.816790977499991 151.13864195199997,-33.816887991500003 151.13863907199999,-33.816986004499995 151.13864592,-33.817083037 151.138664992,-33.817175999500002 151.13869091199996,-33.8172440425 151.13872512,-33.817310013499998 151.13876508799999,-33.817374985500003 151.13880396799999,-33.8174409565 151.13883888000001,-33.81750702 151.13886912,-33.817578023 151.13889900800001,-33.817649044500001 151.138926016,-33.817721046500004 151.13895299199999,-33.8177930485 151.138978912,-33.817865032 151.13900304000001,-33.817955034500002 151.13902211199999,-33.818048015500004 151.13904192,-33.818140978 151.13907001600001,-33.818228002 151.13911609600001,-33.818304962 151.13919817600001,-33.818384974499999 151.13930112,-33.818456976500002 151.13941884799999,-33.818517989500002 151.13954412800001,-33.818567033 151.139667968,-33.818600962 151.13976912000001,-33.818616002499994 151.13987497599999,-33.818621034499998 151.13998188799997,-33.818617982 151.140089152,-33.818608972499995 151.140192832,-33.818595023500002 151.14030083199998,-33.818570992 151.14040595200001,-33.818537969499992 151.14051107200001,-33.818499008499991 151.14061513600001,-33.81846002899999 151.14072096000001,-33.818425027 151.14089987200001,-33.818372006 151.14107987200001,-33.818319984 151.14126096,-33.8182720135 151.14144384,-33.81823296 151.14162889599999,-33.818205968500003 151.141796992,-33.818198032 151.141968,-33.81820299 151.14213900799996,-33.818213979 151.14231107200001,-33.818221971 151.142480992,-33.818219011 151.14261708800001,-33.818209021 151.14275388799999,-33.818196959 151.14288889599999,-33.8181810305 151.14302387199999,-33.818160958 151.143154912,-33.818132967499992 151.14321900799999,-33.818118038 151.143282016,-33.818100037499995 151.14334499200001,-33.818082037 151.14340691199999,-33.818063037500004 151.143468832,-33.818041984499999 151.14351996799999,-33.8180210055 151.14357216,-33.817994014 151.14362291200001,-33.817968983499995 151.143671872,-33.817951982 151.143716896,-33.817950002499998 151.14375792000001,-33.817968983499995 151.14379392000001,-33.818005983500001 151.14382704,-33.818051974500001 151.143859072,-33.818100037499995 151.14389292800001,-33.818144049 151.143984,-33.818254013 151.14407184000001,-33.818365975 151.14415788799997,-33.818479028500001 151.14424608,-33.818589991499998 151.144340032,-33.818698975 151.14446208,-33.818828031 151.14458809600001,-33.818956014 151.14471804799996,-33.819081037 151.144855936,-33.819199011500004 151.14499993599998,-33.819310973499995 151.14515507199999,-33.819419975500004 151.14531708800001,-33.819525 151.14548592,-33.819622014 151.14566089600001,-33.819706984500002 151.14584304,-33.8197750275 151.14593411199999,-33.81980201899999 151.14602809600001,-33.819825958 151.14612384,-33.819847011 151.146219968,-33.81986403099999 151.14631609599999,-33.81987798 151.146415072,-33.819858 151.14653785600001,-33.819860978500003 151.14666598400001,-33.819883012 151.14678012799999,-33.819920992500002 151.14686112000001,-33.819972034 151.14690505600001,-33.820029994500004 151.14693491200001,-33.820100997499999 151.14695184000001,-33.82018101 151.14695904000001,-33.820261022499999 151.14695795199998,-33.820337964 151.14693491200001,-33.820431037500001 151.14688489599999,-33.820523001 151.14682403200001,-33.820614983 151.14676393600001,-33.820707964 151.14671891200001,-33.8208029985 151.14667283200001,-33.820999024500004 151.14665808000001,-33.821202968500003 151.14666492800001,-33.821413017499999 151.14668796800001,-33.821621993500003 151.14671712000001,-33.821827029 151.14674915200001,-33.821992974 151.146790912,-33.822156958 151.14684096,-33.822321034499993 151.14689388799999,-33.822484019500003 151.14695004799998,-33.822646024 151.147000096,-33.822779039 151.14705587200001,-33.822910981 151.14711312,-33.823043015499998 151.14716496,-33.8231750315 151.14720598400001,-33.823310044499998 151.14724307200001,-33.823458007500001 151.14727513599999,-33.823609023 151.14729817599999,-33.823760038499998 151.14730608,-33.823909981 151.147293856,-33.824057037500005 151.14728016000001,-33.824120048499999 151.147262176,-33.824181968 151.14724201600001,-33.824243961500002 151.14722112000001,-33.824305973500003 151.14720384,-33.824368984499998 151.14717612800001,-33.82452999 151.14716208,-33.824693974 151.14715308800001,-33.824859031 151.14713689600001,-33.825023015 151.14710304,-33.825183021500003 151.14708793599996,-33.825248992500001 151.147074976,-33.825319015 151.14705804799999,-33.825386965500002 151.14703212800001,-33.825446998 151.146992896,-33.825493988 151.14694499199996,-33.825519999 151.14688812799997,-33.82553898 151.14682512,-33.825552022499991 151.146761056,-33.825563011500002 151.146699136,-33.825575961499993 151.14656700800001,-33.825601972500003 151.146430912,-33.825619973 151.146294848,-33.825635994 151.146160928,-33.825656973 151.14603097599999,-33.825687035500003 151.145861056,-33.825747956 151.145696896,-33.825823029 151.145538112,-33.825907981 151.14538297600001,-33.825998964 151.145232128,-33.826092037500004 151.14513708800001,-33.826161967499999 151.14504096,-33.826247012 151.14494809600001,-33.826327024500003 151.14492288,-33.826344026 151.14489084799999,-33.826357975 151.14485484799999,-33.826366984499998 151.14481993599998,-33.826372016500002 151.14478787199997,-33.826371036 151.14476412799999,-33.826365005 151.14474108799999,-33.826355015 151.14471913599999,-33.826341954 151.144697888,-33.826327024500003 151.14467808000001,-33.826311984 151.14465612800001,-33.826290024500004 151.14463705599999,-33.826265012500002 151.14462083199999,-33.826237022 151.14460499200001,-33.826210012 151.144587008,-33.826183020499997 151.14456793599999,-33.826158989 151.14454704,-33.826134957500003 151.14452688,-33.826110038 151.14450601600001,-33.826086006499999 151.144488,-33.826060976 151.144458112,-33.826014004500003 151.14443184000001,-33.825966034 151.14440809600001,-33.825915991500004 151.14438899199999,-33.825864968499999 151.14437315199996,-33.825814019500001 151.14432384,-33.825714027 151.144270912,-33.825627983499999 151.14421404800001,-33.825539979 151.144152128,-33.825456988 151.14408192,-33.825384005499998 151.14399913599999,-33.825327025500002 151.143941888,-33.825297962 151.14387996799999,-33.8252720435 151.143815872,-33.825250972 151.14375107199996,-33.825238022 151.14368988800001,-33.825236042500002 151.14364489599998,-33.825240001499999 151.14361104,-33.825247013 151.14355417600001,-33.825263034 151.14351312,-33.825279961500001 151.14348,-33.8253020135 151.14345408,-33.825342954 151.14344508799996,-33.825400026499999 151.143447968,-33.825465997500004 151.14345299199999,-33.825533041500002 151.14345299199999,-33.825596034 151.143446176,-33.825659045 151.143438976,-33.8257209645 151.143432128,-33.825783957 151.14342707200001,-33.825845969 151.14342492799997,-33.825908961499998 151.14342995199999,-33.825985015 151.143438976,-33.826061975 151.14345193599996,-33.826138028500004 151.14346595200001,-33.82621497 151.14347891200001,-33.826291023499998 151.14348684799998,-33.826336015500004 151.14349584000001,-33.826382006500005 151.14350412799999,-33.826427017 151.14351203199999,-33.82647200899999 151.143516,-33.826517001 151.14351996799999,-33.826554981500003 151.14352608,-33.826595034 151.143530048,-33.826634013499998 151.14352608,-33.826667036 151.14351203199999,-33.82669097499999 151.143485056,-33.826701964 151.14344905600001,-33.826706015500001 151.143408,-33.8267050165 151.143365152,-33.826703037 151.14332483199999,-33.8267050165 151.14326112000001,-33.826716986 151.14319811199996,-33.826733007 151.14313513600001,-33.826750027 151.14307283199997,-33.82676900799999 151.14301091199997,-33.826788007499999 151.14293100800001,-33.826806988499996 151.14284892800001,-33.826823009499996 151.14276899199999,-33.826842009 151.14269484799999,-33.826868001500003 151.14263401599999,-33.826903022 151.14260809599998,-33.826923982499999 151.14258217599999,-33.826947033499998 151.14255804800001,-33.826970972499993 151.14253897599997,-33.826996983500003 151.14252707199998,-33.827022994499998 151.14254617599997,-33.827057996500002 151.142607008,-33.827102008 151.14269196799998,-33.827150977500004 151.14278089599998,-33.827202000500002 151.14285504,-33.8272540225 151.14292416000001,-33.827313962499993 151.142990048,-33.827376955 151.14305305600001,-33.827441039 151.14311388799996,-33.827508009 151.143170048,-33.827577032500002 151.143258976,-33.8277639565 151.14334499200001,-33.827951972 151.14342601600001,-33.828141967 151.14350304000001,-33.828332036 151.14357612799998,-33.828524010500004 151.14360816000001,-33.828623004 151.143635872,-33.828722996499998 151.143665056,-33.828822989 151.14369888,-33.82892100199999 151.14374208000001,-33.829014963499993 151.14378995199999,-33.829095956499998 151.143843968,-33.829173989499999 151.143903008,-33.829251023499999 151.14396707200001,-33.829324024500004 151.14403404800001,-33.829395027499999 151.14415715199999,-33.829502031499999 151.14429612800001,-33.829597972500004 151.144444096,-33.829686994500001 151.144596,-33.829773038 151.14474611199998,-33.829859969499999 151.14486995199999,-33.829930972500001 151.14499705599999,-33.829998035 151.14512304,-33.830064986499998 151.14524688,-33.830135009 151.14528953600001,-33.830162407499998 151.14536496,-33.830209971 151.14541104,-33.830246971 151.14545388799999,-33.830289003 151.14549708800001,-33.830328963 151.14554316799999,-33.830361985499998 151.14559283200001,-33.830384037500004 151.14562201599998,-33.830390975 151.14565187199997,-33.830396007 151.145682112,-33.830398985500004 151.14571308800001,-33.830398985500004 151.14574297600001,-33.830397986500003 151.14607792000001,-33.830402408 151.14630096,-33.830405997 151.14636288,-33.830389976 151.14642515200001,-33.830375046500002 151.14648816,-33.830361985499998 151.146551872,-33.830351015 151.14661596799999,-33.830343004500001 151.14669587200001,-33.830333014499992 151.14677795199998,-33.830325004 151.146858976,-33.830319953500002 151.14693817599999,-33.830323024500004 151.14701088000001,-33.830337954 151.14703897599998,-33.830346963499998 151.14706704,-33.830357046 151.14709513599996,-33.830369015500004 151.147121056,-33.830381965500003 151.14714588800001,-33.830396007 151.14719916799996,-33.830436966 151.14724595199999,-33.8304860095 151.14728592,-33.830542971 151.14731904000001,-33.830602023 151.14734496,-33.830660964 151.14735504000001,-33.830703995 151.14735792,-33.830748987 151.147360096,-33.830793997500002 151.14736585599999,-33.83083701 151.14738096,-33.83087697 151.147428128,-33.830930971500003 151.14749795200001,-33.830979034500004 151.14758185599999,-33.831018994499999 151.14767113600001,-33.831052017 151.147757888,-33.831075956 151.147796032,-33.831081987 151.14783708799999,-33.831083966500003 151.147877056,-33.831086038500004 151.147914848,-33.831090996500002 151.14794796800001,-33.831101967 151.14796992000001,-33.83111402899999 151.14799187200001,-33.83112897699999 151.14801097599999,-33.831145978500004 151.148027872,-33.831163979 151.14804192,-33.831182978499996 151.14875113599999,-33.831783988 151.148994112,-33.831890011500001 151.14981708799999,-33.831918002 151.15033296,-33.831839969 151.150335136,-33.831819008499998 151.15034089599999,-33.831797049 151.15034988799999,-33.831775977500001 151.15036105600001,-33.831755997500004 151.150374016,-33.83173799699999 151.150389856,-33.831722975 151.15040784000001,-33.831710006500003 151.15042908800001,-33.831696964 151.150449952,-33.831685975 151.150471936,-33.831675004499992 151.15049209599999,-33.831666994 151.15051296,-33.831659964 151.15053385600001,-33.831654025500001 151.150555072,-33.831647014 151.15058604799998,-33.831633953 151.150606912,-33.831622982500001 151.15062816,-33.831612992499991 151.150658048,-33.831604982 151.15069008,-33.831600024 151.15072499199999,-33.831597952 151.15075811200001,-33.831600024 151.15078908800001,-33.831604982 151.15151196799999,-33.831492021 151.15187916799997,-33.831438038 151.15199004799996,-33.831404997 151.15209696,-33.831365037 151.15219488,-33.831315993499992 151.152278048,-33.831257034 151.152324128,-33.8312040315 151.152360128,-33.831143018500001 151.15239289600001,-33.831079027 151.152428896,-33.831017995499998 151.15247497600001,-33.830964993 151.152524992,-33.830922961 151.15258009600001,-33.830883001 151.152639136,-33.830847 151.15270105600001,-33.830818029 151.15276403199999,-33.8307990295 151.15283209599997,-33.830791019 151.15290409599999,-33.830793997500002 151.15297715200001,-33.830803987499998 151.153049888,-33.830819009500004 151.15311792,-33.830838009 151.15317984000001,-33.8308610415 151.15324105600001,-33.830890012499999 151.153299008,-33.830921962 151.15335696,-33.830956982499998 151.15341385599999,-33.830990005 151.15351392,-33.831053996500003 151.15361004799999,-33.831122039500002 151.153702912,-33.831192968499998 151.15379795199999,-33.831262972499992 151.15389696,-33.831326964 151.15398300800001,-33.831378986 151.154069056,-33.831430027499998 151.15415795199999,-33.831478978500002 151.15424796799999,-33.831523989 151.15434192000001,-33.8315609705 151.15439593599999,-33.8315769915 151.15445100799997,-33.83159003399999 151.15450608,-33.831602003500002 151.15452515199999,-33.8316069615 151.154548928,-33.831629013499999 151.154571968,-33.8316519535 151.15459609600001,-33.831674005499998 151.15461984000001,-33.831695965 151.15464396799996,-33.831719016 151.15467491199999,-33.831748986 151.154706976,-33.831780029 151.15473792,-33.831809999 151.15477104000001,-33.831839969 151.154804896,-33.831867959500002 151.154863936,-33.831909991499998 151.15492691200001,-33.831948952499992 151.154992096,-33.831984953500005 151.15505904,-33.832019974 151.155127072,-33.832053995500004 151.15515984000001,-33.832070997 151.15519296,-33.832089996500002 151.15522716800001,-33.832106998 151.15526208,-33.832122038500003 151.15530204800001,-33.832132028499998 151.155324,-33.832134988500002 151.15556988799997,-33.8321570405 151.155712096,-33.832161998499998 151.15572793600001,-33.832176021500004 151.15574592,-33.832189989 151.15576608000001,-33.8322020325 151.155786976,-33.832212022500002 151.15580784,-33.832220033 151.15583305600001,-33.832225971500002 151.15585897599999,-33.832227951 151.15588595200001,-33.832229042500003 151.15591296,-33.83223002299999 151.15593888000001,-33.832231022 151.155966976,-33.832234981 151.155996128,-33.832239032499999 151.15602384,-33.832242991500003 151.15605299200001,-33.832247043 151.15608108800001,-33.832249022500001 151.156109152,-33.832250003 151.15613795199999,-33.832249022500001 151.15616604799999,-33.8322480235 151.15619484800001,-33.8322480235 151.156222912,-33.8322480235 151.15626,-33.832249022500001 151.156297088,-33.832251002 151.156334176,-33.832253962 151.15637088,-33.832257033 151.15640617599996,-33.832262971500001 151.15643497600001,-33.832269002499999 151.15646304000001,-33.832277013 151.156491136,-33.832285023499999 151.156519936,-33.8322940145 151.156548,-33.832303024 151.15658508800001,-33.832313994499998 151.15662288,-33.832324983500001 151.15665996800001,-33.832337045499997 151.15669705600001,-33.832349015 151.15673411200001,-33.832361965 151.156775872,-33.832377005499993 151.15681801599999,-33.8323930265 151.15685904,-33.832410028 151.15689792,-33.832430008 151.15693392,-33.832451967499999 151.15695804800001,-33.83247204 151.15698,-33.832493999499995 151.15700016,-33.832517032 151.15701996799999,-33.832539990500003 151.15704012800001,-33.832563023 151.15706713599999,-33.832593992 151.15709411200001,-33.832626034 151.15711897599999,-33.832657983499992 151.15714489600001,-33.8326900255 151.15716899200001,-33.832722955500003 151.15718915199997,-33.832742047499998 151.15724604799999,-33.832794957499999 151.15730112,-33.832848959 151.15735513600001,-33.8329029605 151.15740985599999,-33.832961994 151.15746384,-33.833023025500005 151.15751603199999,-33.833084038500004 151.15756787199999,-33.833144977499998 151.15761900800001,-33.833206971 151.157664,-33.833269982 151.157706112,-33.833334954 151.15774896,-33.833399038 151.15779612799997,-33.833458978 151.15785193599999,-33.833511 151.15791312,-33.833547981499997 151.15795884799999,-33.833571032500004 151.158004928,-33.833593972500005 151.158051008,-33.833617023499997 151.15809708800001,-33.833638983 151.15814387200001,-33.833661035 151.15818995199999,-33.833680016 151.15824,-33.833696037 151.15828787199999,-33.833714037500002 151.158328928,-33.833734017499999 151.15835593599996,-33.833760028500002 151.158364928,-33.833781007499994 151.15836889599998,-33.83380404 151.15837104,-33.833826998500001 151.15837392,-33.833851011500002 151.15837897599999,-33.833872971 151.15839299199999,-33.833912043 151.15841100799997,-33.833951004 151.15843296,-33.833988004 151.15845888000001,-33.834022025499998 151.15848985599999,-33.834050016 151.158546016,-33.834077007499999 151.15861584000001,-33.834090956499999 151.15869504,-33.834096987500004 151.15877712,-33.834096987500004 151.15885417600001,-33.834096987500004 151.15891788799999,-33.834097986499998 151.15898304000001,-33.834097986499998 151.15904713599997,-33.834095008 151.15910905599998,-33.834086017 151.15916412799999,-33.834068016499998 151.159205888,-33.834047037499992 151.15924512000001,-33.834018954500003 151.15928185599998,-33.833988004 151.15931603199999,-33.833954963 151.159347008,-33.833921034 151.15936896,-33.833891970499998 151.15938697600001,-33.833860021 151.15940387200001,-33.833827979 151.159424032,-33.833799008 151.15944995199996,-33.833777048500004 151.15948704,-33.833761027500003 151.159529152,-33.8337500385 151.15957488000001,-33.833745006500003 151.15962096000001,-33.833743027 151.15966595200001,-33.833742028 151.15969296,-33.833744007500002 151.15971996799999,-33.833745987 151.15974697600001,-33.8337500385 151.15977395199999,-33.833753997500004 151.15980096,-33.833756976 151.15983084800001,-33.833760028500002 151.15986108800001,-33.833763987499999 151.15989097600001,-33.833766966 151.15992012800001,-33.833770018500005 151.15994998400001,-33.833771998 151.15998096,-33.833771998 151.16001299199999,-33.833771017499998 151.160043968,-33.833770018500005 151.160074912,-33.833769038 151.160105888,-33.833770018500005 151.16014403200001,-33.833773977499995 151.16018112,-33.8337800085 151.160218912,-33.833788019 151.16025708799998,-33.833795049 151.16029488000001,-33.833801968 151.160335936,-33.833807018500003 151.16037696000001,-33.833811958 151.16041801599999,-33.833817008499999 151.16045904000001,-33.833822040500003 151.16049900799999,-33.833829958500004 151.16052204799999,-33.833835989499995 151.16054508799999,-33.833843001 151.16056704,-33.833851011500002 151.16059008,-33.833856968500001 151.16061312,-33.833861001500004 151.16064515199997,-33.833861001500004 151.16067683200001,-33.833858041500001 151.16070889599999,-33.833852010500003 151.16074092799997,-33.833845979499998 151.16077404800001,-33.833842020500001 151.16080499200001,-33.833840041 151.16083596799999,-33.833837969 151.16086691199996,-33.833836988500003 151.16089788799999,-33.833837969 151.16092883199997,-33.833840041 151.160951872,-33.833844999 151.160974912,-33.833850031 151.16099795199997,-33.833856968500001 151.161019936,-33.83386398 151.161042976,-33.8338709915 151.16106995199999,-33.833880001 151.16109696000001,-33.833889991 151.16112288,-33.833900961499999 151.16114988800001,-33.833909971 151.161176896,-33.833918962 151.16121612800001,-33.833930043500004 151.16125500800001,-33.833940033499999 151.16129497599999,-33.833949024500001 151.161336,-33.833957035 151.16137596799999,-33.833963972500001 151.16139683200001,-33.83396802399999 151.16141808,-33.833972963500003 151.16143897599997,-33.833977015 151.16145913599999,-33.833981973 151.16148,-33.8339860245 151.16150809600001,-33.833993036 151.16153616,-33.833998974499998 151.16156387199999,-33.834006004500004 151.16159196800001,-33.834012035500002 151.16162003199997,-33.834017974 151.16163913599996,-33.834020046 151.16165785600001,-33.834022025499998 151.16167692799999,-33.834024005 151.161696,-33.834026965 151.16171401599999,-33.834031016499999 151.16173417600001,-33.834038046499998 151.161752896,-33.834044965499999 151.16177196800001,-33.834052976 151.16178889599999,-33.83406296599999 151.16180291200001,-33.834074047500003 151.161823072,-33.834104017500003 151.16183100800001,-33.834120038500004 151.161836032,-33.83413704 151.16184611200001,-33.8341689895 151.161851872,-33.8341989595 151.16185513600001,-33.8342300025 151.16185513600001,-33.834251962 151.161851872,-33.834275013 151.16184793599999,-33.834296972499999 151.16184288,-33.834320005 151.16183712,-33.834341964499998 151.16182992,-33.834368974500002 151.16181913599996,-33.834394985499998 151.16180796800001,-33.83442197699999 151.16179609599999,-33.834447988 151.16178492799997,-33.834473999 151.161768,-33.834516031 151.16174998400001,-33.834557970500001 151.161732,-33.834599003500003 151.16171113600001,-33.834638963499998 151.16168592,-33.834677036500004 151.16166793599999,-33.834698996 151.161648128,-33.834718976 151.16162688,-33.834738956 151.16160707200001,-33.834759028500002 151.161588,-33.834780007500001 151.16156892800001,-33.834806999 151.16155091199997,-33.83483400899999 151.16153292800001,-33.834861981 151.161514912,-33.834889971500004 151.16149513600001,-33.8349159825 151.16147712,-33.834936961499999 151.16145913599999,-33.834957034 151.16143897599997,-33.834977014 151.16141916800001,-33.834995995 151.16139792,-33.8350149945 151.161372,-33.835034974500005 151.16134499200001,-33.835055047 151.16131584,-33.835074028 151.161288128,-33.835093027500001 151.16126112000001,-33.835113007499999 151.161236992,-33.835132987500003 151.16121289599999,-33.835152967500001 151.16118985599996,-33.835173021500005 151.16116716799999,-33.835194000500003 151.16114412799999,-33.835214961 151.16112108799999,-33.835236032499999 151.16109696000001,-33.835257992 151.16107500800001,-33.835280044 151.16105411199996,-33.835302003499997 151.16103683200001,-33.83532603499999 151.161027136,-33.835352046 151.161020992,-33.835381017 151.16101705599996,-33.835409007500004 151.16100912,-33.835434038 151.160981056,-33.835455997499999 151.160951872,-33.835462028500004 151.16092416000001,-33.835470039 151.16090688,-33.835482989 151.160892832,-33.835498011 151.16087987200001,-33.835516011500005 151.160869088,-33.835535011 151.16085683200001,-33.835553011500004 151.16083705599999,-33.83558396199999 151.16081795199997,-33.835615023500004 151.160801056,-33.835647953500001 151.16078592,-33.835680994500002 151.16077404800001,-33.835714017 151.16074489600001,-33.835751017 151.160718976,-33.835789978 151.160696992,-33.835831011 151.16067900799996,-33.835872969 151.16066496,-33.8359149825 151.160653088,-33.835968984 151.16064697600001,-33.836024965 151.16064697600001,-33.836081038499998 151.16065488000001,-33.836137019500001 151.16066998400001,-33.836189041499999 151.16068691199999,-33.836221971500002 151.16070995199999,-33.836254013500003 151.16073408,-33.836284982499997 151.16075891200001,-33.836316025500004 151.16078195200001,-33.836348974 151.16079708800001,-33.836373986 151.16081113600001,-33.836400996 151.16082588800001,-33.836427007 151.160839936,-33.836453018 151.160853952,-33.836479029 151.160869088,-33.836509979500001 151.160884928,-33.836541022500001 151.160900032,-33.836571991500001 151.16091696000001,-33.8366009625 151.16093712,-33.836628953 151.160967008,-33.836660995 151.16100192,-33.836688985500004 151.16103900799996,-33.836715995500001 151.16107609599999,-33.836742987 151.16111209600001,-33.836770977500002 151.16114592,-33.836802039 151.16117904000001,-33.836832989500003 151.16121216,-33.836864032500003 151.16124601600001,-33.836894002500003 151.161282016,-33.836922992 151.161319072,-33.836947023500002 151.16135904000001,-33.836969963500003 151.16140009599999,-33.836992015500002 151.16144112000001,-33.8370129945 151.161455104,-33.8370210605 151.16148108799996,-33.837036027 151.16151996799999,-33.837064017499998 151.16156099200001,-33.837095967 151.16161788799999,-33.837085977 151.16204089600001,-33.837476031 151.16205708800001,-33.837543981499998 151.16209308800001,-33.837575043 151.16213196800001,-33.837605013 151.16217299199997,-33.837633003500002 151.16221584,-33.837659014499991 151.16226083199999,-33.837680974 151.162323136,-33.837705986 151.16239008,-33.837726965 151.162459936,-33.837741987 151.16253011200001,-33.837752976 151.16259888,-33.837758008 151.162660096,-33.837758008 151.16272307200001,-33.837755048 151.16278499200001,-33.837747037500002 151.16284691199999,-33.837734975499998 151.16290489599996,-33.837719047 151.16294988800001,-33.837702027 151.162992,-33.837680974 151.16303411199999,-33.837658015500004 151.16307587200001,-33.837635963499991 151.16312016000001,-33.837616982500002 151.163142112,-33.837609952500003 151.163164096,-33.837602034500001 151.163186048,-33.837596003500003 151.163208,-33.837588992 151.16323104,-33.837582961 151.163357056,-33.837569992500001 151.16348304,-33.837554970500001 151.16360905599998,-33.837540022500001 151.16373504,-33.83752698 151.16383513599999,-33.837515991 151.16393411199999,-33.83750304099999 151.164033856,-33.837490979 151.16413283200001,-33.837483967499999 151.16423113599998,-33.837483967499999 151.16436288,-33.837498989499998 151.16449500799996,-33.837525000500001 151.16462604799997,-33.837561982 151.16475203199997,-33.837605993499999 151.164872992,-33.837657035 151.16498892800001,-33.837722007 151.16509584,-33.837801039 151.16519987199999,-33.837885991 151.16530608,-33.837967983 151.165419136,-33.838039985 151.16556707199999,-33.838112967500003 151.165721152,-33.838179031 151.16588099200001,-33.838236991500004 151.16604409600001,-33.838287034 151.166207872,-33.838326994 151.16631587200001,-33.838343995500004 151.16642496,-33.838356964 151.16653513599999,-33.838367046500004 151.16664492800001,-33.838372985 151.166754016,-33.838376037499998 151.16684185599999,-33.838372985 151.16693004800001,-33.838365955 151.16701788799998,-33.838358037 151.16710608,-33.838351025500003 151.16719392,-33.838349046 151.167272032,-33.838350026500002 151.16735088,-33.8383539855 151.167428992,-33.838359036 151.16750713600001,-33.838368027 151.16758307200001,-33.838379016 151.167672,-33.838397016500004 151.16776092800001,-33.838417977 151.16784912,-33.838443007500004 151.167931936,-33.838473958 151.16801004800001,-33.838511032 151.16808601599999,-33.838562961500003 151.16815296,-33.838626953 151.168217056,-33.838695995 151.16828112,-33.838764038 151.16835312000001,-33.838823978 151.16843808,-33.838877961 151.16852809599999,-33.838927023 151.16862096,-33.838973014 151.16871491200001,-33.839018006 151.16880816,-33.839063997 151.16889097599997,-33.839111967500003 151.168974112,-33.839163009 151.16905692799997,-33.83921196 151.16914297599999,-33.839254972500001 151.16923296,-33.839287014500002 151.16932512,-33.839308974 151.16942195199999,-33.839324014500001 151.16952096,-33.839332025 151.16961888,-33.839331026 151.16971212799999,-33.839318964 151.16973587199996,-33.839314024499998 151.16976,-33.839308974 151.169784832,-33.839301962500002 151.16980896000001,-33.839295025 151.169832,-33.839288013500003 151.17013584,-33.839091987499998 151.17082812800001,-33.838511032 151.17090192000001,-33.838484040499999 151.170976096,-33.838452997499999 151.17104700799999,-33.838417977 151.17111612799999,-33.838380995500003 151.17118092800001,-33.838341035500001 151.17125616000001,-33.838288014500002 151.17132601599999,-33.838228981 151.17139187199999,-33.838166969 151.17145596799998,-33.8381029775 151.17151788799998,-33.838038005500003 151.17155497600001,-33.837994974499992 151.171589888,-33.8379499825 151.17162409599999,-33.837905971 151.17166115200001,-33.837863032500003 151.171701856,-33.837823979 151.171760896,-33.837780966499999 151.17182496000001,-33.837742986 151.17189408,-33.837707965500002 151.171964992,-33.837676016 151.17203593599999,-33.837645953500001 151.17213312000001,-33.837605013 151.172235008,-33.837567032500004 151.17233795199999,-33.837533011 151.17244307199999,-33.837506001 151.172548928,-33.837486021 151.17260796799999,-33.837479009499994 151.172668096,-33.837472978500003 151.172728928,-33.837469019499999 151.172789056,-33.837468039 151.172849152,-33.837468039 151.17293017599999,-33.837451019 151.17301187199999,-33.837433018500001 151.17309289599999,-33.837415018 151.17317388800001,-33.837398016500003 151.17325488,-33.837380016 151.17336108800001,-33.837356965 151.17346585600001,-33.837333026 151.17357203199998,-33.837308994499999 151.17367788799999,-33.837285962 151.17378300799999,-33.837264983 151.17385500799998,-33.837254993 151.173929888,-33.837247981499999 151.174004032,-33.837239971 151.174072096,-33.837226022 151.17413004799999,-33.837200991499998 151.174159936,-33.837176978500004 151.17418512,-33.837147989 151.17420889600001,-33.837117038500004 151.17423408,-33.8370879565 151.17426396799999,-33.837065997 151.17430608000001,-33.837053047 151.17435289599999,-33.837047016 151.17440291200001,-33.837045036500001 151.17445116799999,-33.837039986 151.17449507200001,-33.837029015500001 151.17453289599999,-33.837010016 151.17456816000001,-33.836987964 151.17460092799999,-33.836961953 151.17463296,-33.836934961499999 151.17466211199999,-33.836907951500002 151.17468012800001,-33.836888970499999 151.17469596800001,-33.836868990500001 151.17471107200001,-33.836849991 151.174728,-33.836830011 151.17474601599997,-33.836813009499998 151.17479712,-33.836785019 151.17485795199997,-33.836766038 151.17492384,-33.836750997500005 151.17498793599998,-33.836732997 151.17504409599999,-33.836707985 151.17507001600001,-33.836690965 151.17509411200001,-33.836672964500004 151.17511788799999,-33.8366539835 151.17513984000001,-33.836634003500002 151.17516108799998,-33.836613024499997 151.17519385599999,-33.836568032500004 151.17521795199997,-33.836516010499999 151.17523811199999,-33.836462009 151.175262976,-33.836410986 151.17529788799999,-33.836369046500003 151.17534217599999,-33.836337004500002 151.17539292800001,-33.836309994499992 151.17544908799999,-33.836286962 151.17550595200001,-33.836266982 151.175563936,-33.836248981499999 151.17561216,-33.836237012 151.175661856,-33.8362280025 151.17571296,-33.836219992 151.17576300799996,-33.836211001 151.17581088,-33.8361980325 151.175862016,-33.8361820115 151.17591312,-33.83616501 151.17596316799998,-33.83614503 151.17600816000001,-33.8361209985 151.176043072,-33.836092027500001 151.17606,-33.836069975500003 151.17607296,-33.836043964499993 151.17608304000001,-33.836018046 151.176096,-33.835992035 151.17611184,-33.835969983 151.17613884799999,-33.835943972 151.17617088,-33.835921013499998 151.17620508799996,-33.835899960500001 151.17624217599999,-33.835879980499996 151.17627888000001,-33.83586198 151.17632892799998,-33.835842999 151.176384,-33.835830030499999 151.17644016,-33.835817968500002 151.17649417599998,-33.835804019500003 151.17654313599996,-33.835784039499998 151.176567968,-33.835769998 151.176591008,-33.835753977 151.176614048,-33.835736975499998 151.17663708800001,-33.835719955500004 151.17666012800001,-33.835703046500001 151.17669900800001,-33.835676036500004 151.17673788799996,-33.835646973 151.17677603199999,-33.835617983500001 151.17681097600001,-33.835588013500001 151.176844096,-33.835554991 151.17686604799999,-33.835527000500001 151.17688512000001,-33.8354960315 151.17690313599996,-33.8354649885 151.17692291200001,-33.835434038 151.17694595199998,-33.835406047500001 151.17698016,-33.835374986 151.177017952,-33.835345016 151.17705900799999,-33.835318024500005 151.17710112,-33.835293993 151.17714611199997,-33.835272033500004 151.17722892800001,-33.8352429515 151.17732,-33.835224951 151.17741504,-33.83521596 151.17751296,-33.835211002 151.17760691199999,-33.835210021500004 151.17770195200001,-33.835213980500001 151.177796992,-33.835224951 151.17789312,-33.835239991499996 151.17798816000001,-33.835256993 151.178082112,-33.835272033500004 151.178172128,-33.835284003 151.178262112,-33.835294973499998 151.178352128,-33.835308034500002 151.17843996799999,-33.835323963 151.178524928,-33.835346995500004 151.178591872,-33.8353740055 151.17865596799999,-33.835408027 151.178718976,-33.835443029 151.17878304000001,-33.835475977500003 151.17885001600001,-33.835502969 151.17888601599998,-33.835515031 151.178922016,-33.835527000500001 151.178958016,-33.835537971 151.17899401599999,-33.83554500099999 151.17903001600001,-33.835546980499998 151.179063136,-33.835541042 151.17909587199998,-33.835527981 151.17912899199999,-33.83551403199999 151.179162112,-33.835500989499998 151.17919596799999,-33.835493978 151.179258976,-33.835505041 151.17932412799999,-33.835539969 151.17939107199999,-33.835589012500002 151.17945696000001,-33.835643014 151.17951996799999,-33.835690984500005 151.17958297600001,-33.835736975499998 151.179643072,-33.835786019 151.17970284799998,-33.835834988500004 151.17976403200001,-33.835883033 151.17982704,-33.835928043500004 151.179882112,-33.835959993 151.17993900799999,-33.835989963 151.17999696000001,-33.836018046 151.18005203199999,-33.836048996500004 151.18010387199999,-33.836083018 151.18015500800001,-33.836122978 151.18020611200001,-33.83616501 151.18025401599999,-33.836210002 151.18029107199999,-33.836256992 151.18031196800001,-33.836306035500002 151.180315936,-33.836361036 151.18030403200001,-33.836421956500004 151.18027993600001,-33.836483968499998 151.18024608,-33.836542021500001 151.18020793599999,-33.836591971499999 151.18014889599999,-33.836641015 151.18007292799999,-33.836681974 151.17998688,-33.836715995500001 151.179896896,-33.836742987 151.17981011200001,-33.836763966 151.17972012800001,-33.836777008499993 151.17962796800001,-33.836778988 151.17953401599999,-33.836776028 151.179440032,-33.836776028 151.17934896,-33.836785019 151.17924995199999,-33.8368069785 151.17915312,-33.836834969 151.179056992,-33.836868990500001 151.17896195200001,-33.836904991499999 151.178869088,-33.836941973 151.17877692799996,-33.836981045 151.17868691199999,-33.837022984500003 151.178598016,-33.837066996 151.17849504,-33.837039005500003 151.17846697600001,-33.837046017 151.17843888,-33.837054027500002 151.178411168,-33.837064017499998 151.178383072,-33.837074007499993 151.17835609599999,-33.837084996500003 151.17831216,-33.837105957 151.17826896,-33.837129988500003 151.17822793600001,-33.837156998499999 151.178187968,-33.837185969499998 151.17815088,-33.837216032 151.17810083200001,-33.837262023 151.17805584000001,-33.837311973 151.17801408,-33.837364975500002 151.177975936,-33.837418977 151.177938848,-33.837473977500004 151.17790608,-33.8375240015 151.17787404800001,-33.837575043 151.17784595200001,-33.837626972499997 151.17782112,-33.837679975 151.17780313599999,-33.837733976500004 151.177796992,-33.837759987499993 151.17779196800001,-33.837786997500004 151.177788,-33.837813989 151.17778512000001,-33.837840999 151.17778403200001,-33.837867990500001 151.17776387200001,-33.837912982500001 151.17773507199999,-33.837958973500001 151.17770304000001,-33.838002985 151.17766812799999,-33.838046016 151.177632128,-33.838088048 151.17759504,-33.838129987500004 151.177527008,-33.838200990499999 151.17745392,-33.838271013 151.177376896,-33.838337964499992 151.177295872,-33.838398996 151.17720912,-33.838452997499999 151.17713497599999,-33.838493031500001 151.17705792000001,-33.838527959499999 151.17697692799999,-33.838560982 151.17689484799999,-33.838588972499998 151.17681203199999,-33.838612023499998 151.176724928,-33.838630024 151.17663708800001,-33.838642974 151.17654707200001,-33.8386519835 151.17645708800001,-33.838658014499998 151.17636707200001,-33.838659994 151.17630083200001,-33.838660974500002 151.17623388800001,-33.838660974500002 151.176168,-33.838658014499998 151.176102112,-33.8386519835 151.17603913600001,-33.838640994500004 151.17597216,-33.83861796199999 151.175907008,-33.838585013500001 151.175844,-33.838549012500003 151.175779936,-33.838517969500003 151.17571296,-33.838499969 151.17567804800001,-33.83849601 151.17564096000001,-33.83849601 151.17560496,-33.838497009 151.17556896,-33.838497989499999 151.17553296,-33.838497009 151.17547609600001,-33.838491958500001 151.175419936,-33.838485021 151.17536304000001,-33.83847603 151.175307968,-33.838464967 151.17525395199999,-33.838451998499998 151.17521398400001,-33.838440029 151.175174048,-33.838425987500003 151.175135872,-33.838410965500003 151.17509699199999,-33.838396017500003 151.17505811199999,-33.838379996500002 151.17503184,-33.838368027 151.17500700799999,-33.8383549845 151.17498108799998,-33.838342016 151.174955168,-33.838331045499999 151.17492816000001,-33.838323035 151.174874176,-33.838325995 151.17481513599998,-33.838344994499991 151.17475392,-33.838374964499998 151.174692,-33.838405027 151.17463008,-33.838428966 151.17457500800001,-33.838443988 151.17451811199999,-33.838457049 151.174461952,-33.838469018499993 151.17440508799999,-33.838480988 151.174348928,-33.838493031500001 151.17428304000001,-33.838506 151.17421609600001,-33.83851599 151.17414912000001,-33.838526979 151.17408288,-33.838540021499995 151.174019168,-33.838557023 151.17396409599999,-33.838574043 151.17390899200001,-33.838593024 151.17385500799998,-33.838613004 151.17380316800001,-33.8386359625 151.17375385599999,-33.838661973500002 151.17369516799999,-33.8386979745 151.173636128,-33.838738027 151.17358211199999,-33.838781039499999 151.17353603199999,-33.838828011 151.17350291199998,-33.838877961 151.17348313599999,-33.8389350335 151.17347593599999,-33.838998026 151.173479168,-33.839063016499999 151.173487072,-33.839128987500004 151.17349609600001,-33.839192979 151.17350508800001,-33.839249034 151.17351696,-33.83930501499999 151.173532096,-33.839360015499999 151.17355116799996,-33.8394149975 151.17357203199998,-33.839468018499993 151.17359616,-33.839513010499999 151.17362496000001,-33.839557022 151.17365484800001,-33.839600034500002 151.17368112,-33.839643953500001 151.17369913600001,-33.839690037 151.173704896,-33.839717047 151.17370992,-33.839744038500001 151.173712096,-33.839772029 151.173713152,-33.839799039 151.173712096,-33.839827011 151.17370992,-33.839856981 151.173704896,-33.8398880425 151.17369696,-33.8399180125 151.173687968,-33.8399479825 151.17367609600001,-33.839976953499999 151.17365088,-33.840088027500002 151.173628928,-33.840460987500002 151.17383699199999,-33.840469978500003 151.17384889600001,-33.840563033500004 151.17387516799997,-33.840857979 151.173703072,-33.840915033 151.17375312,-33.841041036500002 151.17391907199999,-33.841076038499992 151.17454512,-33.842307953499997 151.17431689599999,-33.842951994 151.17430716800001,-33.842970993499996 151.17429312,-33.842988994 151.17427692800001,-33.8430059955 151.174257856,-33.843020037 151.17423804800001,-33.843032006500003 151.17421283199999,-33.843041996499991 151.174184032,-33.843047047 151.174153088,-33.843049026500005 151.17412105599999,-33.843050007 151.17409008,-33.843051986500001 151.17398713599999,-33.843058017499999 151.17388092799999,-33.843058017499999 151.17377616,-33.843051986500001 151.17367104,-33.843040017 151.173569888,-33.843023015500002 151.17339203200001,-33.84279504 151.17288012799997,-33.842765976500004 151.17292908799996,-33.842933013 151.17153193600001,-33.84284003199999 151.171409888,-33.842837978499993 151.16975497599998,-33.843054965 151.16940611199999,-33.843092039 151.16924089599999,-33.842782978 151.169076,-33.8428690215 151.168889888,-33.843178989 151.168779008,-33.843409018 151.16872608,-33.843436028 151.16867100799999,-33.843462039 151.16861593600001,-33.843485978 151.16855904,-33.843508011499999 151.168501088,-33.843528990499998 151.16844204799997,-33.843548970500002 151.16838192,-33.843567951499999 151.16832,-33.8435849715 151.16825808,-33.843599013 151.16819616000001,-33.843611963 151.16815296,-33.84361899299999 151.16810905599999,-33.843625024 151.16806403199999,-33.8436299635 151.16802012799997,-33.843634015 151.16797584,-33.843636993499999 151.167654016,-33.843574981499998 151.16758198400001,-33.843545011499998 151.16757084799997,-33.843502979500002 151.16752908799998,-33.843476968499999 151.167295072,-33.843480021 151.167264128,-33.843480021 151.167233888,-33.8434790405 151.167107168,-33.843464018500001 151.166980096,-33.843432957 151.16685408000001,-33.843391017500004 151.166732032,-33.843341974 151.16661395200001,-33.843290044500002 151.16650992000001,-33.843239003 151.16640912,-33.843182041499993 151.16631084799999,-33.843121028500001 151.16621795200001,-33.843056038 151.16613011199999,-33.842987014500004 151.166081152,-33.842936972 151.16602608,-33.842891961500001 151.16595587200001,-33.842843991 151.16587993600001,-33.842800978500001 151.165802176,-33.84276003799999 151.16579065600001,-33.84275471 151.165721152,-33.842723038 151.165639072,-33.842689016500003 151.16553900799997,-33.842652035 151.165434976,-33.842618013500001 151.16532803199999,-33.842590023 151.16522003200001,-33.842566972 151.165112032,-33.842552042500003 151.16502492800001,-33.842547991 151.16493708799996,-33.842549970499995 151.164848896,-33.8425560015 151.164759968,-33.842559960500004 151.16467212800001,-33.842558961500004 151.16457203199997,-33.842552042500003 151.16447088000001,-33.84254303299999 151.16437187199998,-33.842528991500004 151.16427289599997,-33.84251199 151.164176032,-33.842491011 151.16409504000001,-33.842467978500004 151.16401404800001,-33.842440987 151.16393484799997,-33.842411997500001 151.16385708799999,-33.842381047 151.16378003200001,-33.842349005 151.16369795200001,-33.842312005 151.16361804799999,-33.842271952499999 151.16353993599998,-33.842231012 151.163462176,-33.842187981 151.16338403200001,-33.842145967500002 151.16333113600001,-33.842115997500002 151.16327712,-33.842085028500001 151.16322384,-33.842054966 151.163170912,-33.842024015500002 151.163119072,-33.841991973500001 151.16308416000001,-33.842099976500002 151.162864928,-33.842062976500003 151.16284691199999,-33.842096998 151.16238505600001,-33.842001963500003 151.16234796800001,-33.841985036 151.16230512000001,-33.84197297399999 151.16226012800001,-33.841964963499997 151.16221513599999,-33.841962003500001 151.16217299199997,-33.841963983 151.16213808,-33.841971993499996 151.16210316799996,-33.841982964 151.16206896,-33.841998985 151.16203692799999,-33.842016985500003 151.162008832,-33.8420369655 151.16198185600001,-33.842060997 151.16195808,-33.8420899865 151.16193792000001,-33.842121029499992 151.16192387199999,-33.842152979 151.16191596799999,-33.842185021 151.16191488000001,-33.842206980500002 151.16191705599999,-33.842229032500001 151.16192208000001,-33.842251972500002 151.16192892800001,-33.8422740245 151.16193792000001,-33.842294004500005 151.16202899199999,-33.842635015 151.16205385599997,-33.842969014 151.16207401599999,-33.843581012500003 151.16206105599997,-33.8441789695 151.16200416000001,-33.844185000499998 151.161995168,-33.844599992500001 151.16198688,-33.844616013500001 151.16198291200001,-33.844634014 151.16198003199997,-33.844652995 151.16197715199999,-33.844670995500003 151.16196889599999,-33.844688015500004 151.16195305599999,-33.844705017 151.161933952,-33.844721038 151.16191091199997,-33.844735986 151.16188716799999,-33.844746956500003 151.16186304,-33.844754967 151.161783136,-33.8447750395 151.16169996799999,-33.8447899875 151.16161500800001,-33.844799977500003 151.161530048,-33.844805009499993 151.16144688,-33.84480303 151.16136697600001,-33.844797998 151.16128595199999,-33.844788988499992 151.161206048,-33.8447739665 151.16113008,-33.844752007 151.16106096,-33.844723017500002 151.16100912,-33.844691974500002 151.160959072,-33.844653994 151.16091408,-33.844611962 151.16087305600001,-33.844568043 151.16083811199999,-33.8445219595 151.16080716799999,-33.84446004 151.16078988800001,-33.844391997 151.16077801599999,-33.844321974499991 151.16076288,-33.844253043500004 151.160735872,-33.844188959500002 151.160718976,-33.844161968 151.16069987200001,-33.844134958 151.16068009599999,-33.844107966500005 151.160659936,-33.844082048 151.16063904000001,-33.844055038 151.16046012800001,-33.843840031 151.160256,-33.843633034500002 151.160031008,-33.843439987 151.15979088,-33.843261961499998 151.15953888,-33.843104008499992 151.15945500799998,-33.843069006500002 151.15936787199999,-33.843039036500002 151.159278976,-33.843012026499999 151.15918716799999,-33.8429899745 151.15909609600001,-33.8429739535 151.159011136,-33.842969014 151.15892291200001,-33.8429739535 151.15883507199996,-33.84297900399999 151.15875299199999,-33.842978005 151.15873104,-33.84297197399999 151.158704032,-33.8429600045 151.15867811199999,-33.842945963 151.15865292799998,-33.8429300345 151.15862988800001,-33.842913033 151.15860793600001,-33.842895032500003 151.15858883199999,-33.842877032 151.15857193599999,-33.842858032500004 151.15855500800001,-33.842837978499993 151.15854204799999,-33.842816999500002 151.15853088,-33.842796039 151.15846105599999,-33.842514968499998 151.158448096,-33.842457008 151.15843692799999,-33.842397956 151.15842793600001,-33.842338016 151.15842217599999,-33.842278982499998 151.15841712,-33.842220023 151.15841603199999,-33.842195991499999 151.15841603199999,-33.842171978499998 151.15841497599999,-33.842148021 151.15841497599999,-33.842124008 151.15841603199999,-33.842099976500002 151.15841712,-33.8420600165 151.15842108800001,-33.842019964 151.15842396799999,-33.84198000399999 151.15842620799998,-33.841956971500004 151.15842793600001,-33.841940044 151.15842793600001,-33.8418999915 151.15842793600001,-33.841869022499999 151.15842611199997,-33.841837979499999 151.15842396799999,-33.841807029 151.15842217599999,-33.841776966499992 151.158418912,-33.841745997499999 151.15841712,-33.841724038 151.15841497599999,-33.841702985 151.15841209600001,-33.841682006 151.15840992,-33.841661045500004 151.15840883199999,-33.841639974 151.15841100799997,-33.841608024500005 151.15841603199999,-33.84157500199999 151.15842288,-33.84154296 151.15842611199997,-33.8415110105 151.15842505599997,-33.841478968499999 151.15842,-33.841458988500001 151.15841315200001,-33.841439008500004 151.15840489600001,-33.8414200275 151.15839804800001,-33.841400047500002 151.15839299199999,-33.841379975 151.15839084799998,-33.841355037 151.15839193599999,-33.841330025 151.15839408,-33.8413049945 151.158395872,-33.841278983500004 151.158395872,-33.841253971500002 151.158395168,-33.84122498199999 151.15839408,-33.841196011 151.15839193599999,-33.841167021499999 151.158387968,-33.841137958 151.15837788799999,-33.841096018500004 151.15836889599998,-33.841069027 151.15835808,-33.841043016 151.158348,-33.841020964 151.15833683199997,-33.840999004499999 151.15832496,-33.8409780255 151.15830985599999,-33.840957953 151.15828105599999,-33.840928982 151.15825296,-33.840909982500001 151.158223072,-33.840892981 151.158204,-33.840884970499999 151.158184928,-33.840879032 151.15816512000001,-33.84087300099999 151.15814496,-33.84086697 151.158111136,-33.840852022 151.158080896,-33.840836001 151.15805209600001,-33.84081702 151.15797395199999,-33.840735028 151.15795091199999,-33.840708036499997 151.157937952,-33.8406949755 151.15791203200001,-33.840671036499998 151.15788899200001,-33.840655015499991 151.157862016,-33.840640974 151.15783500800001,-33.840627025 151.15781305600001,-33.840612003 151.15779792000001,-33.840594002499998 151.15777488000001,-33.840579961 151.157698912,-33.840540001 151.15762188799999,-33.840502020500004 151.15754700799999,-33.840462967 151.15747500800001,-33.840419048 151.15742208,-33.840385026500002 151.15736988800001,-33.84035000599999 151.15731804800001,-33.840314005 151.157271968,-33.8402760245 151.15723091199996,-33.840233992500004 151.157197088,-33.840189000500004 151.15716793600001,-33.840142029 151.15698108800001,-33.839846991 151.15707900800001,-33.839800019500004 151.157076128,-33.839758986500001 151.15707216000001,-33.839723966 151.15706713599999,-33.839690037 151.15706316799998,-33.839670963499998 151.15705811199996,-33.839651964 151.157054176,-33.839632983 151.15704912000001,-33.839613983500001 151.157045888,-33.839578981500004 151.15704515199999,-33.83954496 151.15704409599999,-33.839512011499998 151.15704192000001,-33.839487998500005 151.15704012800001,-33.839463967 151.15703689599999,-33.839440028 151.157031136,-33.839416977 151.15701491199999,-33.839384047 151.15699801599999,-33.839361995 151.156978912,-33.839342995500004 151.15693212799997,-33.839354965 151.15685616,-33.8392780235 151.15641804800001,-33.839063016499999 151.15609907199999,-33.838950962 151.15610304,-33.838881032 151.156077856,-33.838876980500004 151.15605193600001,-33.838875001 151.15602204800001,-33.838874002 151.15599216,-33.838875001 151.155965888,-33.838875001 151.15594499199997,-33.838875001 151.15592412800001,-33.838875001 151.15590288000001,-33.838876980500004 151.15588092799999,-33.838877961 151.15585897599999,-33.838876980500004 151.15583699199999,-33.838875001 151.155816128,-33.838871042 151.15579488,-33.838865991500001 151.15577401600001,-33.838857981 151.15575312000001,-33.83884899 151.15573296,-33.838839999 151.155712096,-33.838831988500004 151.155684,-33.838821998500002 151.15565484800001,-33.838811009499999 151.15562713599999,-33.838801019500004 151.15559795199999,-33.838792028500002 151.155569152,-33.838784998500003 151.15554108800001,-33.838779966499999 151.15551408,-33.838776988 151.155486016,-33.838775008500001 151.15545792,-33.838774028 151.15543091200001,-33.838775008500001 151.15540896,-33.838778967499998 151.15538700799999,-33.838784018 151.155366112,-33.838790049 151.15534416,-33.838794988499998 151.155321856,-33.83879904 151.15529411200001,-33.838800039 151.15526496000001,-33.83879904 151.15523616,-33.838796968 151.15520700799999,-33.838794988499998 151.15517785599999,-33.838794008 151.15513609600001,-33.838794008 151.15509395199999,-33.838794988499998 151.15505184,-33.838795987499999 151.15501008000001,-33.838797967 151.15496796799999,-33.838801019500004 151.15492908799999,-33.838804978500001 151.15489091200001,-33.838810029 151.15485203199998,-33.838814968500003 151.15481388800001,-33.838820019 151.15477500799997,-33.838822979 151.15472208,-33.838826031499998 151.15466809599999,-33.838827030499999 151.15461516799999,-33.838827030499999 151.15456188799999,-33.838824958499998 151.15450787200001,-33.838821998500002 151.1541672,-33.838730904500004 151.15408883200001,-33.838710036500004 151.154070848,-33.838687984499991 151.154055008,-33.83866502599999 151.15404313600001,-33.838640014 151.15403484800001,-33.838613004 151.154028,-33.838586012500002 151.15402009600001,-33.838560001499999 151.15400713599999,-33.83853597 151.15364099199999,-33.838247962 151.15355891199999,-33.838277044 151.15349808,-33.838055007 151.15318092800001,-33.837797968 151.15324608,-33.837147008500004 151.153448032,-33.836976993500002 151.153305856,-33.836855041499994 151.15330908799999,-33.836718955500004 151.153311968,-33.836591971499999 151.15335984000001,-33.836435017500001 151.153252928,-33.8364029755 151.15280796799999,-33.836583961 151.15279392,-33.836802039 151.152540832,-33.83682102 151.15246704,-33.836924971499997 151.15229388799997,-33.836990036 151.152046912,-33.83715897799999 151.151969888,-33.837427986500003 151.15193712000001,-33.837472978500003 151.151897152,-33.837515991 151.151851072,-33.837555951 151.15180105600001,-33.837590971499999 151.15174883199998,-33.83762003499999 151.15166892799999,-33.837648025500002 151.15157785599999,-33.837663954 151.15148099199999,-33.837669985 151.15138307199996,-33.8376690045 151.15128912,-33.837666026 151.15117897600001,-33.837657035 151.15106809599999,-33.8376390345 151.15095792,-33.837614004 151.15085209599999,-33.837582961 151.15075091200001,-33.837544980499999 151.15068396800001,-33.837512032 151.15062096,-33.837472978500003 151.15055904,-33.837433018500001 151.15049712000001,-33.837393965 151.15043088,-33.837360036 151.15034089599999,-33.837323036 151.150246912,-33.837289014500001 151.15015116800001,-33.837260043499995 151.15005395200001,-33.837237991500004 151.14995603200001,-33.837225023 151.14987001599999,-33.837220971500003 151.14978288,-33.83722295099999 151.14969504,-33.83722998099999 151.149607936,-33.837242043 151.14952297599999,-33.837255992 151.14948192,-33.837262023 151.14943801599998,-33.837266962500003 151.14939587200001,-33.837273992500002 151.14936096,-33.837282983500003 151.14934188799998,-33.837299004500004 151.14925801599998,-33.837336004500003 151.14917017600001,-33.837369027 151.149078016,-33.837396037 151.14898512,-33.837416017 151.14889187200001,-33.837429966 151.148778112,-33.837434998 151.14866112000001,-33.837427986500003 151.148544128,-33.837411965500003 151.148426048,-33.837392966 151.14831011199999,-33.837373985 151.14818700799998,-33.837353006 151.14806316799996,-33.837327994 151.14794003199998,-33.837300003500005 151.147818016,-33.837271014 151.147697056,-33.8372409515 151.14757104,-33.837208021500004 151.14744505600001,-33.837174 151.14732012799999,-33.837137018500002 151.147195936,-33.837099038 151.14707315199999,-33.837059966 151.146993952,-33.837030995 151.14691513599996,-33.837000026 151.146836992,-33.836968983 151.14675708799996,-33.836940992500004 151.14667609599999,-33.8369210125 151.14659795200001,-33.836907951500002 151.14651804799999,-33.8368979615 151.146437056,-33.836893022 151.146356032,-33.836892023 151.14627683200001,-33.836895982 151.14620809600001,-33.836904991499999 151.146138976,-33.836920013499999 151.146070912,-33.836938014 151.14600217599997,-33.836954035 151.14593305599999,-33.8369670035 151.145831872,-33.836976993500002 151.14572892800001,-33.8369830245 151.14562489599999,-33.836985004 151.14552192,-33.8369830245 151.145418976,-33.836977974 151.14534803199996,-33.836973034499998 151.14527712,-33.836966004499999 151.14520585599999,-33.836957013500005 151.14515705599999,-33.836950020499998 151.145136,-33.836947023500002 151.145066176,-33.836934961499999 151.14500099200001,-33.836931002500002 151.14493584,-33.836921993 151.14487104,-33.836910023499996 151.14480803199999,-33.836893022 151.14474793599999,-33.836873042 151.14470291200001,-33.836851989 151.144661152,-33.836826958499998 151.14462012799999,-33.836799967 151.144578016,-33.836775029 151.14453299199999,-33.836754956500002 151.144466048,-33.836739028 151.14439513600001,-33.836732016500001 151.14432204799999,-33.836729038 151.144250048,-33.836724006 151.14417984,-33.836712036500003 151.144107136,-33.836690965 151.14403404800001,-33.836666045500003 151.14396384,-33.836636963499998 151.14389904000001,-33.836603034500001 151.14384108799999,-33.836563981 151.143815168,-33.836543002 151.14378995199999,-33.836520968500004 151.14376585599999,-33.83649801 151.143746048,-33.836473978500003 151.14372912,-33.8364479675 151.143716896,-33.836406028 151.143717952,-33.836361036 151.143724096,-33.836312973 151.14372803200001,-33.836265002499999 151.14372300799999,-33.836219011499999 151.14371184000001,-33.836187968499999 151.14369817599999,-33.836156019 151.14368195200001,-33.836124957500004 151.143665056,-33.836094987500005 151.14364595200001,-33.836066016499998 151.14361392000001,-33.836025964 151.14357504,-33.835987983500004 151.14353507199999,-33.835950983499991 151.143498016,-33.835913003 151.14346704,-33.835872969 151.143455872,-33.835848031 151.14344688,-33.83582202 151.14343788799999,-33.835796009 151.14342816000001,-33.835770997 151.14341305600001,-33.8357480385 151.14339612800001,-33.835731037 151.14337705599999,-33.835715016 151.14335507199999,-33.835699975499999 151.14333312,-33.835685046 151.143311872,-33.835670005499992 151.14327984,-33.835644993499997 151.14324707200001,-33.835618982500002 151.143213952,-33.835593952 151.14317904000001,-33.835574971 151.14314304000001,-33.835563001499999 151.143087968,-33.835564981 151.14302208000001,-33.83558396199999 151.14295692799999,-33.835615023500004 151.14290185600001,-33.83565300399999 151.14286585599999,-33.835691965 151.14285900799999,-33.835714017 151.14285612800001,-33.835737956 151.14285504,-33.835762986500001 151.14285107200001,-33.835786019 151.142840992,-33.835805999 151.14281292800001,-33.83582597899999 151.142771872,-33.8358390215 151.14272291200001,-33.835848031 151.14267107200001,-33.8358539695 151.14262284799997,-33.835860000499999 151.142562016,-33.835865032499996 151.14250009599999,-33.835866031500004 151.14243888,-33.835863959499996 151.142375872,-33.835862979 151.14231504,-33.835865032499996 151.14223692799999,-33.8358689915 151.14215916799998,-33.835874042 151.14208105599999,-33.83588196 151.142006176,-33.835895002500003 151.14193705599999,-33.835915981500001 151.14188016,-33.835947024500001 151.14182796799997,-33.835987983500004 151.14177900799999,-33.836030996 151.14172716799999,-33.836072047500004 151.14166992,-33.836102998 151.14162204799999,-33.836118038500004 151.141572,-33.836129009 151.141520896,-33.836137019500001 151.14146905600001,-33.836146029 151.14141792000001,-33.836156019 151.141349152,-33.836167988499994 151.141272832,-33.836178959 151.14120192,-33.836191021 151.14114288,-33.836209021500004 151.141107968,-33.836237012 151.14109897599999,-33.836253033 151.141092128,-33.836270034499996 151.141087072,-33.836286962 151.14108313599999,-33.836321964 151.14033107200001,-33.836235032499999 151.13972700799999,-33.836160958499995 151.13970288,-33.836160958499995 151.13967913600001,-33.836160958499995 151.13965500800001,-33.836162031500002 151.13963088,-33.83616501 151.139607136,-33.83616896899999 151.13954412800001,-33.836191021 151.13948508799996,-33.836229001500001 151.13942784,-33.836275973 151.13937097600001,-33.836324036 151.13931193600001,-33.836364995 151.139112832,-33.836470019499998 151.13890009599999,-33.836560022 151.13867904,-33.836639035499999 151.13845404799997,-33.836711037500002 151.138229056,-33.836778007500001 151.138035008,-33.836837041 151.13783808,-33.836893022 151.13764009600001,-33.836942972 151.13743993599999,-33.836982025499999 151.13723795199999,-33.837005964500001 151.13714508800001,-33.8370129945 151.13704896,-33.837021005 151.13695392,-33.837024964 151.13686105599999,-33.837021985500002 151.13677283199999,-33.837008036500002 151.136670976,-33.836970962500004 151.13657593600001,-33.836915962 151.136538656,-33.836884271500004 151.13648412799998,-33.836849991 151.136394112,-33.836780967500005 151.136301952,-33.836716976 151.13622492799999,-33.836660014499991 151.13614716800001,-33.836596023 151.136070112,-33.836534011 151.135992,-33.836489019 151.13590201599999,-33.836469039 151.13566940800001,-33.836383828 151.13513280000001,-33.83556746 151.13513382400001,-33.835538470499998 151.13508604800001,-33.835460326499998 151.13458188800001,-33.835522505 151.134586912,-33.834881887 151.13434032000001,-33.834431338 151.13411136,-33.834013201 151.13415385599998,-33.834001231500004 151.1342928,-33.833491297500004 151.13411747200001,-33.832535754 151.13407177600001,-33.832279085 151.13440835200001,-33.832212392500004 151.13466252800001,-33.831005582 151.13468844799999,-33.830909271 151.13497033600001,-33.830492225500002 151.13281465599999,-33.8294719875 151.130748256,-33.828493319 151.130021056,-33.828149163499994 151.13015785599998,-33.8280684295 151.13044153599998,-33.827636695 151.13069065599998,-33.827266436 151.13141100799999,-33.826192566499998 151.13162304,-33.825875846500004 151.13227139200001,-33.824910239 151.13233043199997,-33.824825194499994 151.132733632,-33.824240631500004 151.13281392,-33.824174753 151.13376576,-33.8228213485 151.134429952,-33.821849432500002 151.13579292799997,-33.819900753500001 151.13603356799999,-33.81955645 151.13604816,-33.819551196 151.13650355199999,-33.819390634500003 151.136766016,-33.819309993 151.13687472000001,-33.819274251 151.13697984000001,-33.819233754500004 151.1370792,-33.819185969 151.13718576,-33.819122791499993 151.13728835200001,-33.8190516035 151.13738448000001,-33.818973663 151.13747161599997,-33.818890043 151.137547552,-33.818802038499996 151.137613792,-33.818709871499991 151.137673216,-33.818611044500003 151.13772217600001,-33.8185079995 151.137756352,-33.818403696499999 151.137771488,-33.818300559 151.13776825599999,-33.818203082499991 151.137749888,-33.818102646 151.137741248,-33.818074748 151.13771856,-33.818003005 151.137674656,-33.8179081555 151.13762028799999,-33.817821927 151.13731321599997,-33.817219104499998 151.13718864000001,-33.8169749415 151.13716777599998,-33.816921846500001 151.13714256,-33.81686936199999 151.13711340799998,-33.816818154 151.13708028799999,-33.816768759 151.13704393599997,-33.8167218615 151.13700505599999,-33.816676684500003 151.13696256,-33.816632136500004 151.13691648,-33.816590271 151.13686681600001,-33.816553104500002 151.13681353600001,-33.816522505500004 151.13675843199999,-33.8165018965 151.13675017599999,-33.816499824499999 151.13669939199997,-33.816487947500001 151.13657484800001,-33.816467782499998 151.13651436800001,-33.816455276499994 151.13634588799997,-33.816418924 151.13626236799999,-33.816399036500002 151.13618352,-33.816373654499998 151.13611260799999,-33.816339448 151.1360352,-33.816280581 151.13596787200001,-33.816207321 151.13590992,-33.816124533500002 151.13586096,-33.816037417 151.13582064,-33.815951003500004 151.13578355199999,-33.815846349 151.13575907199998,-33.815735367500004 151.135747552,-33.815621888500004 151.13575008000001,-33.815509371499999 151.13576665599999,-33.815401553500003 151.13579436800001,-33.815307333 151.13583324800001,-33.815212835 151.135882912,-33.815121204499995 151.135942336,-33.815035346 151.136011072,-33.814958497 151.1360856,-33.814893062499998 151.13617020800001,-33.814832031 151.13626236799999,-33.814777863 151.13628176,-33.814768409500005 151.13645849599999,-33.8148634255 151.13667750400001,-33.8150384355 151.13688048,-33.815170433 151.136886976,-33.815172967500004</coordinates></LinearRing></outerBoundaryIs></Polygon>

	</Placemark>
</kml>