<?xml version="1.0" encoding="UTF-8"?>
<kml xmlns="http://www.opengis.net/kml/2.2">
	<Placemark>
		<Style>
			<LineStyle>
				<color>ff0000ff</color>
			</LineStyle>
			<PolyStyle>
				<fill>1</fill>
				<color>330000cc</color>
			</PolyStyle>
		</Style>
			<ExtendedData><SchemaData>
		<SimpleData name="STATE_2006">1</SimpleData>
		<SimpleData name="POA_2006">2217</SimpleData>
	</SchemaData></ExtendedData>
      <Polygon><outerBoundaryIs><LinearRing><coordinates>151.15475116799999,-33.96689378 151.154710016,-33.966990997499998 151.15465798400001,-33.967113005 151.154604,-33.967234994 151.15454899199997,-33.967357001499998 151.154492,-33.967476992500004 151.15443100799999,-33.967597002 151.154392,-33.967668005 151.154352,-33.967739008 151.154312,-33.967809992500001 151.154270016,-33.967879996500002 151.15422700799999,-33.967950000500004 151.15416300800001,-33.968061000500001 151.154100992,-33.968172000500005 151.15404099199998,-33.968283999500002 151.15398201599999,-33.968395998499993 151.15392700800001,-33.9685099955 151.153888,-33.968594004 151.153852,-33.968677994 151.153816,-33.968764000500002 151.15378,-33.968848009 151.15374,-33.968931999 151.15369900799999,-33.969012992 151.15365500799999,-33.969094003500004 151.15361001599996,-33.9691739975 151.15356499200001,-33.969255009 151.15352099200001,-33.969335003 151.15343401600001,-33.969500004499999 151.15334899199996,-33.96966600499999 151.15332419199999,-33.969713531499998 151.153264,-33.969831006500002 151.153179008,-33.969996008 151.153092,-33.970160991 151.15306899199999,-33.9702030045 151.15304601599999,-33.970244999500004 151.15302300799999,-33.970287993500001 151.153,-33.970330007 151.152976,-33.970372002 151.152904992,-33.970499004499999 151.15283100799999,-33.970626007 151.15275699200001,-33.970751992 151.152682016,-33.970877995499997 151.15260700799999,-33.971003999 151.152559008,-33.971083993 151.15251001600001,-33.971165004500001 151.15246099199999,-33.971244998499998 151.152412,-33.971325991500002 151.152366016,-33.971407003 151.152304,-33.971521 151.15224601599999,-33.971636995 151.15219001599999,-33.971753008500002 151.15213299199996,-33.971869003500004 151.152076,-33.971984998499998 151.152032,-33.972071005 151.15201539200001,-33.97210352799999 151.151988,-33.972156993 151.151944,-33.972242000500003 151.15189900799999,-33.97232800699999 151.15185500800001,-33.972413995 151.15181001600001,-33.972511009 151.15176601600001,-33.972609003500004 151.15172201600001,-33.972706998 151.15167801599998,-33.972803993500001 151.151634016,-33.9729020065 151.15158099199999,-33.973022996499999 151.151528,-33.973144005 151.15147500800001,-33.973263996 151.15142300799999,-33.973385004499995 151.15137299200001,-33.973506993499996 151.15130700799997,-33.973664003 151.15124300799999,-33.973821993 151.15118,-33.973980001500003 151.15112099199999,-33.974137991499994 151.15110627199999,-33.9741894585 151.151068,-33.974297998 151.15103398400001,-33.974411995 151.15100099200001,-33.97452699099999 151.15097100799997,-33.974642005500002 151.15094300800001,-33.974757001500002 151.150915008,-33.974871997500003 151.150892,-33.974978002500002 151.150868992,-33.9750830085 151.150848,-33.975188995 151.150828,-33.975295 151.15081100800001,-33.975401005 151.1508,-33.975475005 151.150790016,-33.975549005 151.15078,-33.975623005 151.150772,-33.975697005 151.15076499200001,-33.975772004 151.150752,-33.97581799499999 151.15074,-33.975864004500004 151.150728,-33.975910994499998 151.150716,-33.975957004 151.15070499199999,-33.976003994 151.15069401599999,-33.976053000500002 151.150684,-33.976102007 151.15067398400001,-33.976150995 151.150664,-33.976200001500004 151.150652992,-33.976249008 151.15064,-33.976307005500004 151.15062601599999,-33.97636500299999 151.150612,-33.976423000499999 151.150598016,-33.976480998 151.15058499200001,-33.9765389955 151.15057100799999,-33.976601007500001 151.150556,-33.976663001 151.150542016,-33.976724994500003 151.150528,-33.976787006500004 151.150516,-33.976849 151.15050499200001,-33.976915008 151.15049500800001,-33.9769809975 151.15048601599997,-33.977047005500005 151.150476,-33.977112995 151.15046201600001,-33.977178004 151.150454016,-33.9772089915 151.15044601599999,-33.9772399975 151.15043699200001,-33.9772710035 151.150428,-33.977301991 151.15042,-33.977332997 151.15041100799999,-33.97736400299999 151.15040201599999,-33.977395009 151.15039299199998,-33.977425996500003 151.150384992,-33.977457002500003 151.15037801599999,-33.977488008500004 151.150368,-33.977545007 151.150362016,-33.977604003499998 151.15035798399998,-33.977663 151.150352,-33.977720997500001 151.15034,-33.977777996 151.150328,-33.977818992 151.150312,-33.9778580085 151.150295008,-33.977898005500002 151.15027900799998,-33.977938002500004 151.15026601599999,-33.977977999499991 151.150250016,-33.978047004499999 151.150239008,-33.978115991 151.15023100799999,-33.978186994 151.15022300800001,-33.978256998 151.150212,-33.978327002 151.15020099200001,-33.978382002499998 151.15018899200001,-33.978438002 151.15017699200001,-33.978493002500002 151.150164,-33.978549002 151.15015100799999,-33.978604002499999 151.15014099199999,-33.978643999500001 151.15013001599996,-33.978683996500003 151.15011900799996,-33.978723993500004 151.15010899200001,-33.978764009 151.1501,-33.978804006 151.150096,-33.978829998500004 151.150092992,-33.978855991 151.15009001600001,-33.978882002 151.15008700799999,-33.978907994499998 151.150082016,-33.9789330065 151.150072,-33.978966991 151.15006,-33.979 151.150047008,-33.979033998 151.150035008,-33.979067002 151.150024,-33.979101005 151.15001900799999,-33.979121003499998 151.150014016,-33.979141002 151.15000899200001,-33.9791619995 151.15000499199999,-33.979181998 151.150000992,-33.979202995500003 151.150004,-33.979220996 151.15000700799999,-33.979238996500001 151.15000899200001,-33.97925699699999 151.150012,-33.979274997499999 151.150014016,-33.979293997 151.15001900799999,-33.979330997 151.150024,-33.979368996 151.150028,-33.979406995 151.15002899199999,-33.979443995 151.150026016,-33.979480995 151.15001900799999,-33.979511002 151.150008,-33.979541009 151.149996,-33.979569998499997 151.149984,-33.979600005500004 151.149976,-33.979629994 151.149972,-33.979657004 151.14997100799999,-33.979683995500004 151.14997001599997,-33.9797110055 151.149968992,-33.979737997 151.14996499200001,-33.979765007 151.14995801599997,-33.979794995500001 151.14994899199999,-33.979825002499993 151.14993801599999,-33.979854991 151.14992700799996,-33.979883999 151.14991500799999,-33.979913007 151.14990700800001,-33.979937001499998 151.14989801600001,-33.979960996 151.149888992,-33.979983991499999 151.149879008,-33.980007005499999 151.149866016,-33.980029002 151.149855008,-33.980045004499999 151.14984201600001,-33.980060008 151.149828,-33.980074993 151.14981500799999,-33.980089996499999 151.149802016,-33.980105999 151.14979001599997,-33.980123000500001 151.149779008,-33.980141001 151.149768,-33.9801600005 151.14975699199999,-33.980178001 151.14974601599999,-33.980196001499998 151.14973001600001,-33.980220995 151.14971401599999,-33.98024700599999 151.149698016,-33.980272998499998 151.14968198400001,-33.980298991 151.149666016,-33.980324003 151.14965001600001,-33.980346998500004 151.14963401599999,-33.980369994 151.14961801599998,-33.980394007 151.14960201599999,-33.980416003500004 151.149584992,-33.980438999 151.149568,-33.980461994500004 151.14955001600001,-33.980486007499998 151.149532,-33.980508004 151.14951500800001,-33.980530999499997 151.149496992,-33.980553995 151.149475008,-33.980584002 151.14945401599996,-33.980612991500003 151.14943299199999,-33.980641999500001 151.149412,-33.980672006500001 151.149392992,-33.980701995 151.14935299199996,-33.980771999 151.149318016,-33.980845 151.14928700799999,-33.980919 151.14925801599998,-33.980993999 151.14923001599999,-33.981067999 151.14920601599999,-33.981129992500001 151.149184,-33.981193003500003 151.14916300799999,-33.981254997 151.14914300800001,-33.981318008 151.149124,-33.981381000500001 151.14902899200001,-33.981579006 151.149008,-33.981644995499998 151.148988,-33.981710004500002 151.148967008,-33.981775994 151.148948,-33.981842002 151.148928,-33.981907991500002 151.148896992,-33.982013996500001 151.148866016,-33.9821200015 151.148836,-33.9822270055 151.148808,-33.982332992 151.14878,-33.982439996 151.148772,-33.982476996 151.148766016,-33.982513996 151.14876,-33.982550996 151.14875001599998,-33.982586997 151.14873500799996,-33.982621 151.14872300799996,-33.982639999500002 151.148708,-33.982657001 151.14869299200001,-33.982675001499992 151.14867801599999,-33.982692003 151.14866499199996,-33.982711002500004 151.14863699200001,-33.982769 151.148619008,-33.982830993500002 151.148608,-33.9828970015 151.1486,-33.982962991 151.14859001600001,-33.983028 151.14857500799999,-33.983107994 151.148563008,-33.983188006500001 151.148552,-33.983268000500004 151.148544,-33.983348993500002 151.148536992,-33.983430005 151.148532,-33.983458994499998 151.148528,-33.983488002500003 151.14852300800001,-33.983516992 151.14851900799999,-33.983546 151.14851401600001,-33.983575008 151.14850201600001,-33.983662994 151.148492,-33.983749999499999 151.148483008,-33.983838004 151.14847401599999,-33.983924991 151.14846601599999,-33.984012995500002 151.148456,-33.984112007499995 151.148444,-33.984211001 151.14843500800001,-33.984310993500003 151.14843100799999,-33.984409006499995 151.148436,-33.984507001 151.14844300799999,-33.984552992 151.148452,-33.984599001500001 151.148462016,-33.984643993500001 151.148471008,-33.984690003 151.148482016,-33.984747001500004 151.14848700799999,-33.984769997 151.148488,-33.984791993500004 151.14848099199997,-33.984817005499998 151.14846700800001,-33.984841 151.14844700800001,-33.984864994499993 151.148426016,-33.984889007500001 151.148408,-33.984913002 151.148391008,-33.984934998500002 151.14837299199999,-33.984956995 151.148356,-33.9849789915 151.14834,-33.9850020055 151.148327008,-33.985025001 151.148315008,-33.985064998 151.14831100800001,-33.985105994 151.14831100800001,-33.985150005500003 151.14831299199997,-33.985192999500001 151.14831299199997,-33.985235993499998 151.14831299199997,-33.9852990045 151.148315008,-33.985362996 151.14831801599999,-33.985426007 151.14832201600001,-33.985488999499999 151.148326016,-33.985552991 151.148328,-33.985607991500004 151.14833100800001,-33.985662992 151.14833401600001,-33.9857179925 151.148336,-33.985772993 151.14833900799999,-33.985828992500004 151.14834099199999,-33.985892003499998 151.14834300800001,-33.985954996 151.147353248,-33.985834838500004 151.14614003200001,-33.985661586 151.14567744,-33.98559039799999 151.145442368,-33.985554212 151.14380364799999,-33.985302038500002 151.14348073599999,-33.986914295 151.143259328,-33.986885398 151.142285888,-33.986758599 151.14257804799999,-33.985074525499996 151.1410464,-33.984853746500001 151.13985443199999,-33.984682288500004 151.13867209599999,-33.984511552 151.13748169600001,-33.984340926500003 151.13688768,-33.984254975500001 151.13679696,-33.98424182199999 151.13628505599999,-33.984176572500004 151.13571587199999,-33.984093063499991 151.13510713599999,-33.984003782500004 151.13335897599998,-33.983736568499999 151.13302236800001,-33.983665029 151.132892,-33.983634004500004 151.13256518399999,-33.984529608 151.132277888,-33.9853176895 151.13217564799999,-33.985298708500004 151.131633472,-33.985221304500001 151.13143500800001,-33.985202009 151.131432,-33.985173001 151.131424,-33.985139997 151.13141001599999,-33.985111007499995 151.13138899200001,-33.985092008 151.13136601599999,-33.985075006500004 151.131348992,-33.985051992500004 151.131338016,-33.985023003 151.131332,-33.984991997 151.13133100799999,-33.984965005499994 151.131336,-33.984936996500004 151.131344,-33.984909006 151.131352,-33.984880997 151.13135500800001,-33.984853006500003 151.13135401599999,-33.984826995500001 151.131352,-33.984802002 151.131348,-33.984775991 151.13134300799999,-33.9847499985 151.131338016,-33.984725005 151.13132499199997,-33.984686007 151.13130899199999,-33.98464700899999 151.13129100800001,-33.984608991500004 151.131272,-33.984571991500005 151.13125500800001,-33.984533992499998 151.13124201599996,-33.984503005 151.13123100799996,-33.98447199899999 151.13121900799996,-33.984441992 151.13120601599999,-33.984411004500004 151.131191008,-33.984381996499998 151.13117699200001,-33.984358002 151.13116300799999,-33.984335006500004 151.131148,-33.984311992500004 151.13113100800001,-33.984289996 151.131112992,-33.984268998499999 151.13108499200001,-33.984245004 151.13105299200001,-33.9842240065 151.13101900800001,-33.984203009 151.13098601600001,-33.984182992 151.130955008,-33.984160995499998 151.13092499199999,-33.984135003 151.130896992,-33.984105995 151.13086899199999,-33.984078004499999 151.130840992,-33.984049995499994 151.130810016,-33.984025002 151.130776,-33.984000008500004 151.13074,-33.983976994500004 151.13070300800001,-33.983954998 151.130664,-33.9839340005 151.13062499199998,-33.983916 151.130592,-33.983901995499998 151.13055699200001,-33.9838890085 151.13052300799998,-33.983878001 151.13048700799999,-33.983866993500001 151.130452,-33.9838580025 151.130415008,-33.983848993 151.13037699200001,-33.983842 151.13034,-33.983836006 151.130302016,-33.983828994500001 151.13026499200001,-33.983821002500001 151.130234016,-33.983813991 151.130203008,-33.983805999 151.130172,-33.983798007 151.13014201600001,-33.9837889975 151.130112,-33.983780006499998 151.130078016,-33.98376999799999 151.130042016,-33.983759009 151.130008,-33.983748001500004 151.129976992,-33.983733997 151.129952,-33.983715996500003 151.12994,-33.983699994 151.129930016,-33.983680994499998 151.12992201599999,-33.983661995 151.12991299199999,-33.983642995499999 151.12990099199999,-33.983625994 151.129887008,-33.983612008 151.129872,-33.983598003499999 151.129856,-33.983585997 151.129839008,-33.983574009 151.12982201599999,-33.983563001500002 151.12980300800001,-33.983568995500001 151.129783008,-33.983576007 151.12976499199999,-33.983583999 151.12974601600001,-33.983595006500003 151.129727008,-33.983606994500001 151.12970899199999,-33.983616004 151.12969100800001,-33.983625994 151.129672992,-33.983635003499998 151.129656,-33.983644993499993 151.129639008,-33.983655002 151.12962198400001,-33.9836680075 151.12960499199997,-33.983680994499998 151.12958899199998,-33.98369499899999 151.12957401599999,-33.983708004500002 151.129556992,-33.9837209915 151.129536992,-33.983735995 151.12951801599996,-33.983751997500001 151.12949801599999,-33.983767001 151.12947699200001,-33.983780006499998 151.12945500800001,-33.983791994500002 151.129426016,-33.983802003 151.12939500799999,-33.983808996 151.12936201599999,-33.983813991 151.12933100800001,-33.983820003499993 151.1293,-33.983828994500001 151.12926899199996,-33.983842 151.12923900800001,-33.983857003499999 151.129210016,-33.983874005 151.12918099199999,-33.983890007500001 151.12915100800001,-33.983904992500001 151.129120992,-33.983916 151.12909100799999,-33.983926008499999 151.12906,-33.983934999500001 151.129030016,-33.983946007 151.12892099199996,-33.98398300699999 151.128770016,-33.984027 151.128576,-33.984062002 151.128368,-33.984115004499998 151.12818899199999,-33.984138 151.128051008,-33.9841939995 151.12796201599997,-33.984271995500002 151.1279,-33.984381996499998 151.12772899199999,-33.984519007499998 151.127552,-33.984603996499999 151.127440992,-33.984676997500003 151.127363008,-33.984747001500004 151.12730601600001,-33.984789995500002 151.127172,-33.9848259965 151.127118016,-33.984882995 151.12703001599999,-33.984902993499993 151.12697801600001,-33.984860998500004 151.126926016,-33.984842998 151.126859008,-33.984856003499999 151.126802016,-33.984898997500004 151.12663001600001,-33.984933999500001 151.126555008,-33.9849640065 151.12645500799999,-33.985021005 151.12637100800001,-33.985093007 151.126224992,-33.985225004500002 151.12615401599999,-33.985320002 151.12607299199999,-33.985402993 151.125988,-33.9855200055 151.125916,-33.985622995 151.12588099199999,-33.985757009 151.125888992,-33.985814007500004 151.125934016,-33.985888007500002 151.12590499199999,-33.985930002499998 151.125876992,-33.985932999500001 151.12577299199998,-33.985836004 151.125676,-33.985864993500002 151.12560499199998,-33.985944007 151.12550700799997,-33.985985003 151.12546499199999,-33.986033991 151.125468,-33.986099999 151.125356,-33.986155998499996 151.125304,-33.986215994 151.12515401600001,-33.986314007 151.12509299199996,-33.986393002 151.12498201599999,-33.986411002499992 151.12494899199999,-33.986432999 151.12496899199999,-33.986572008 151.124944,-33.986643991500003 151.12493299199997,-33.986731996 151.12484499199999,-33.986772992 151.124792,-33.986838001 151.12465699200001,-33.986950999 151.12458,-33.987019005 151.12449401599997,-33.987113003499992 151.12450099200001,-33.987241005 151.12446300799996,-33.9873799955 151.12432201600001,-33.987493992499992 151.12420899200001,-33.987672998499995 151.124088992,-33.987732994 151.12395801599999,-33.987814005499999 151.12376,-33.987826992500004 151.123651008,-33.987817002500002 151.12341699199999,-33.987871004 151.123296,-33.987846991 151.123084,-33.987816003500001 151.122916,-33.987787994500003 151.122739008,-33.987761003 151.12258601600001,-33.987716991500001 151.12244899199999,-33.9876779935 151.122284992,-33.987691998 151.122072,-33.9877010075 151.12188201599997,-33.987714993499999 151.121781376,-33.987595761 151.12124144000001,-33.986865806499999 151.12121257599998,-33.98685084 151.12118758400001,-33.986802832499997 151.121182336,-33.98679278699999 151.12074457599999,-33.986178809 151.12039340800001,-33.985652798499999 151.120408416,-33.985477807 151.12039340800001,-33.985389802500002 151.120408416,-33.985112802 151.120364416,-33.984893799 151.12037939199999,-33.984601795 151.12037939199999,-33.984206801500001 151.120364384,-33.983885808 151.12018937600001,-33.9835348075 151.11986832,-33.982921791500004 151.11966348799999,-33.982643792 151.11937152,-33.982424826 151.11888947200001,-33.982146808 151.11831024,-33.9818267765 151.118089376,-33.981645994499999 151.11813420799999,-33.981615543499998 151.11816553599999,-33.981594398 151.11842048,-33.981421404500004 151.11915913600001,-33.980920202500002 151.11999216000001,-33.980345814499998 151.12025603199999,-33.980160056 151.120328992,-33.980108811 151.121137312,-33.979541138500004 151.12260972799999,-33.978518181 151.12433484799999,-33.977318678 151.12533686399999,-33.976618527 151.126032608,-33.976132384 151.12631449599999,-33.975935285 151.12703017600001,-33.975443610500001 151.12758169599999,-33.975064804500001 151.12967113600001,-33.973629482 151.13028780799999,-33.973205850500001 151.13039760000001,-33.973129353 151.131168352,-33.972592483 151.13113523199996,-33.972556056500004 151.13110211200001,-33.972516189 151.13033001599999,-33.971584603 151.129659616,-33.97077630099999 151.12951056,-33.970596388499999 151.12908540800001,-33.970083476 151.12896083199999,-33.969933533500004 151.12850902400001,-33.969388616 151.12847411199999,-33.969346029 151.127882656,-33.968632132499991 151.12731100799999,-33.967941638500001 151.12711548799999,-33.967714236500001 151.12762524799999,-33.9676120795 151.127853856,-33.967549882500002 151.12808028800001,-33.967480507499999 151.12830384,-33.967404084 151.12841113600001,-33.967363402499998 151.1284896,-33.967337132499999 151.128722528,-33.967263502500003 151.12875132799999,-33.967253253500004 151.12883737599998,-33.967217789 151.128977056,-33.967156054500002 151.12908729599999,-33.967104828 151.12895977599999,-33.966962100499991 151.12819513599996,-33.966063537 151.12725296,-33.964956626499998 151.12688940800001,-33.964515993500001 151.127424,-33.964187766500004 151.127013952,-33.963709948500004 151.12685411199999,-33.963523561 151.12646137600001,-33.963060413500003 151.12641744000001,-33.962990224499997 151.12640176,-33.962957812500001 151.12643904000001,-33.962952151499991 151.12706796800001,-33.962604925 151.12797948799999,-33.962103982 151.12998755199996,-33.961000494 151.13004787199998,-33.960966583500003 151.13008944000001,-33.960944439 151.13199779199999,-33.959898726500001 151.13202444800001,-33.959852994500004 151.13215980800001,-33.959620542 151.13241980799998,-33.959204551 151.13257091200001,-33.95863575 151.132715776,-33.958300548499999 151.13291475199998,-33.957771541 151.13294172799999,-33.957744216500004 151.13299977599999,-33.957686515 151.133895744,-33.957149515499999 151.13394217600001,-33.957082175499998 151.13402857599999,-33.956967771500004 151.13405484800001,-33.956922150499992 151.13416969599999,-33.956888221500002 151.134187328,-33.956897138499997 151.1342928,-33.956926109500003 151.13443177600001,-33.956971194 151.134450496,-33.95692746 151.13477225599999,-33.956200058500002 151.13484755199997,-33.95602836 151.13503692800001,-33.955612739 151.13526624,-33.955133404 151.13542105600001,-33.954829911499999 151.13565465600001,-33.954858512500003 151.136745472,-33.954913624 151.13681062399999,-33.954917490500002 151.13759363200001,-33.954957987 151.137614528,-33.955229881500003 151.13766924800001,-33.955948791499999 151.13774499199997,-33.956922113499999 151.13776099200001,-33.957120008 151.13778768,-33.957487899 151.137855008,-33.958435857499992 151.13786473600001,-33.9585615465 151.137943552,-33.959579213 151.13795584,-33.959827964 151.13806057599999,-33.95984831399999 151.14072348799999,-33.960256646 151.141265632,-33.960339470500003 151.14170464,-33.960400465 151.14156867200001,-33.961051461499999 151.14143808,-33.961678648499998 151.14131603199999,-33.9622821 151.14130681599997,-33.962326629499998 151.14135132800001,-33.962333493 151.14160729599999,-33.962372361500002 151.143919936,-33.962691061 151.14351465599998,-33.963252443500004 151.14335328000001,-33.963483952499992 151.14330217599999,-33.96356873799999 151.14317833600001,-33.963848828 151.14291049600001,-33.964452816 151.14262284799997,-33.965104774499999 151.143248704,-33.965195461500002 151.14461184000001,-33.965392949 151.14496572799999,-33.965444249500003 151.14684563200001,-33.96571644 151.14779388799997,-33.965854191 151.14791232,-33.965879499 151.148176576,-33.965936460500004 151.149135616,-33.966087420500003 151.14928361599996,-33.966111415 151.15040243199999,-33.966269645499999 151.15164048,-33.966444692499998 151.153305856,-33.966679957 151.153524,-33.966711185 151.15388112,-33.966762300500001 151.15475116799999,-33.96689378</coordinates></LinearRing></outerBoundaryIs></Polygon>

	</Placemark>
</kml>