<?xml version="1.0" encoding="UTF-8"?>
<kml xmlns="http://www.opengis.net/kml/2.2">
	<Placemark>
		<Style>
			<LineStyle>
				<color>ff0000ff</color>
			</LineStyle>
			<PolyStyle>
				<fill>1</fill>
				<color>330000cc</color>
			</PolyStyle>
		</Style>
			<ExtendedData><SchemaData>
		<SimpleData name="STATE_2006">8</SimpleData>
		<SimpleData name="POA_2006">2606</SimpleData>
	</SchemaData></ExtendedData>
      <Polygon><outerBoundaryIs><LinearRing><coordinates>149.11169328,-35.355106529499999 149.11168499199999,-35.355112560500004 149.11167708799999,-35.355118591500002 149.1116688,-35.355124715 149.11166089599999,-35.355130746 149.11165260800001,-35.355136851 149.11164467200001,-35.355142974499998 149.11163641599998,-35.355149005500003 149.11162848000001,-35.355155221499999 149.11162057600001,-35.35516134499999 149.11161264,-35.355167468499999 149.111604736,-35.355173666 149.111596448,-35.355179882 149.111588512,-35.355186098 149.111580608,-35.355192295499997 149.111573056,-35.355198511499999 149.11156512,-35.355204801500001 149.11155721599999,-35.35521111 149.11154928,-35.355217326 149.11154137599999,-35.355223616 149.11153379199999,-35.355230017 149.11152588799999,-35.355236307 149.11151795200001,-35.355242708 149.1115104,-35.355248998 149.11150249600001,-35.355255399 149.11149491200001,-35.355261781499998 149.11148700800001,-35.355268164 149.11147945600001,-35.355274657500004 149.11147187200001,-35.35528104 149.11146396799998,-35.355287515 149.11145641599998,-35.35529391599999 149.11144883200001,-35.355300391 149.11144128000001,-35.355306958500002 149.11143372800001,-35.355313433500001 149.11142617600001,-35.355320001 149.11141859200001,-35.355326494499998 149.11141104000001,-35.35533306199999 149.11140348800001,-35.355339629500001 149.11139628800001,-35.355346197 149.11138873600001,-35.355352857 149.11138115200001,-35.355359332 149.11137395200001,-35.355365992 149.11136640000001,-35.35537265199999 149.11135920000001,-35.355379312 149.11135164800001,-35.355385972 149.11134444800001,-35.355392632 149.11133689600001,-35.355399384500004 149.11132969600001,-35.3554060445 149.11132249600001,-35.355412797 149.11131529599999,-35.355419549499992 149.11130771200001,-35.355426302 149.11130051200001,-35.355433054500004 149.11129331199996,-35.355439714500001 149.11128611199996,-35.355446541 149.11127891199999,-35.355453386 149.11127209599999,-35.355460231 149.11126489599999,-35.355466983500001 149.111257696,-35.355473902499995 149.111250496,-35.355480747499996 149.11124364799997,-35.355487592500005 149.11123644799997,-35.355494437499999 149.11122924799997,-35.355501449 149.1112224,-35.355508294 149.1112152,-35.355515213 149.11120835200001,-35.355522150500001 149.11120153600001,-35.355529162 149.11119433599998,-35.355536099499993 149.11118748799998,-35.355543111 149.11118064,-35.3555500485 149.11117379199999,-35.355557078499999 149.11116697599996,-35.35556409 149.11116012799997,-35.355571194 149.11115328,-35.355578224 149.111146432,-35.355585235500001 149.111139616,-35.355592358 149.11113312,-35.355599369499998 149.11112627200001,-35.355606473499996 149.11111945600001,-35.35561359599999 149.11111260800001,-35.3556207 149.11110611199999,-35.355627896500003 149.11109929599999,-35.355635019 149.1110928,-35.355642215499998 149.111086336,-35.355649319500003 149.111079488,-35.355656608499999 149.111072992,-35.355663712500004 149.11106652800001,-35.3556709275 149.11106003200001,-35.355678216500003 149.11105356799999,-35.355685413 149.11104707199999,-35.355692609500004 149.111040608,-35.355699898499992 149.111034112,-35.355707187499995 149.111027648,-35.355714476500005 149.11102115200001,-35.3557217655 149.11101468799998,-35.355729054500003 149.11100857599999,-35.355736436 149.11100208,-35.355743725 149.110995616,-35.355751014 149.110989472,-35.355758488 149.11098300800001,-35.355765777 149.11097689600001,-35.3557731585 149.11097075199999,-35.3557806325 149.11096428799999,-35.355788014 149.110958176,-35.355795395500003 149.110952032,-35.355802777 149.11094592000001,-35.355810325 149.11093980800001,-35.355817706499991 149.11093369599999,-35.355825180499991 149.11092755199999,-35.355832747 149.11092144,-35.355840202499998 149.110915328,-35.355847676499998 149.11090956800001,-35.35585524299999 149.11090345599999,-35.35586271699999 149.11089731199999,-35.355870265 149.110891552,-35.355877831500003 149.11088544,-35.355885398 149.11087968000001,-35.355892946 149.11087356799999,-35.3559005125 149.11086780799999,-35.355908153 149.110862048,-35.355915719500004 149.11085628799998,-35.355923286 149.11085017600001,-35.355930926500001 149.11084441599999,-35.355938678 149.110838656,-35.355946226 149.11083289600001,-35.355953885 149.11082713600001,-35.3559615255 149.11082172799996,-35.355969184500005 149.110815968,-35.355976917500001 149.110810208,-35.355984669 149.11080444800001,-35.355992309500003 149.11079904,-35.3560000425 149.11079328,-35.356007886500002 149.11078787199997,-35.356015619499999 149.11078211200001,-35.356023352500003 149.11077673599999,-35.356031104 149.110771328,-35.356038837 149.11076556800001,-35.356046662499999 149.11076016000001,-35.356054506500001 149.11075475199999,-35.356062239499998 149.110749376,-35.356070065 149.11074396800001,-35.356077909 149.11073856,-35.356085734499999 149.11073315199997,-35.3560936525 149.110727776,-35.356101478 149.11072272000001,-35.356109303499998 149.11071731199999,-35.3561172215 149.110711936,-35.356125065500002 149.11070688000001,-35.356132983500004 149.11070147199999,-35.356140994 149.110696448,-35.356148912 149.11069139199998,-35.35615683 149.11068601599999,-35.356164748 149.11068096,-35.356172666 149.11067593599998,-35.356180584 149.11067088,-35.356188594500004 149.110665856,-35.356196512499999 149.11066080000001,-35.356204615500005 149.11065577599996,-35.356212626 149.11065072,-35.356220636499998 149.11064569600001,-35.356228647 149.11064064000001,-35.356236657499998 149.110635968,-35.356244668 149.110630912,-35.356252678499999 149.11062624,-35.356260781499998 149.110621216,-35.356268792 149.11061651200001,-35.35627689499999 149.11061148799999,-35.356284998 149.11060681599997,-35.356293082499995 149.11060211200001,-35.356301185500001 149.11059744,-35.3563092885 149.110592768,-35.356317391499999 149.11058809599999,-35.356325494499998 149.110583392,-35.356333597500004 149.11057872000001,-35.356341867 149.11057404799999,-35.356350062499999 149.110569376,-35.356358165499998 149.11056505599998,-35.356366342500003 149.11056035199996,-35.356374538 149.11055568,-35.356382733499998 149.11055136,-35.356390929 149.110546688,-35.356399106 149.11054236800001,-35.356407394 149.11053804799997,-35.356415571 149.11053337600001,-35.356423766500001 149.11052905599999,-35.356432054499997 149.110524736,-35.356440324 149.11052041600001,-35.35644861199999 149.110516096,-35.356456807500003 149.11051177600001,-35.356465077 149.11050745599999,-35.356473365 149.11050348799998,-35.356481727 149.11049916799999,-35.356489922500003 149.110494848,-35.356498192 149.11049088,-35.356506572500003 149.11048656,-35.356514842 149.11048259200001,-35.356523222500002 149.11047827199999,-35.356531584500004 149.11047433600001,-35.356539965 149.11047036799999,-35.356548234500004 149.11046604800001,-35.356556615 149.11046208,-35.3565650695 149.110458112,-35.356573431499996 149.11045417599999,-35.356581812 149.110450208,-35.356590174 149.11022809599999,-35.357063034 149.109699968,-35.358191016 149.109722272,-35.358204317499997 149.10974028800001,-35.358227313 149.10975216,-35.358257967500002 149.10975228800001,-35.35829432 149.10973926400001,-35.35832532599999 149.10971795200001,-35.358349043 149.10968700800001,-35.358364971500002 149.10966230400001,-35.358369319 149.10963632,-35.358367321 149.109621312,-35.358361327 149.10909830400001,-35.35947832 149.10896934399997,-35.359707313 149.10882035199998,-35.359928314 149.10861433599999,-35.360183318 149.10855932799998,-35.360240335 149.10838812799997,-35.360415992500002 149.107497376,-35.361188330499999 149.10738438399997,-35.361299330500003 149.10727836800001,-35.361431328 149.107234336,-35.361508214 149.107172416,-35.361616328 149.107106176,-35.361782014 149.10681100799999,-35.361717042 149.10679740800001,-35.361724349500001 149.10678841599997,-35.361730362 149.10677939199999,-35.361735357 149.1067704,-35.361740352 149.10676140799998,-35.361745347 149.10675241600001,-35.361750360499997 149.106744416,-35.361755355500001 149.10673539199999,-35.361759351499991 149.10672540799999,-35.361765364 149.10671641600001,-35.361770359 149.10670739199998,-35.361775354 149.1066984,-35.361781348 149.106688416,-35.361786361500002 149.10667939199999,-35.361791356499999 149.10667040000001,-35.361796351500004 149.10666140800001,-35.361801346499995 149.106652416,-35.36180636 149.106643392,-35.361811355 149.10663340799999,-35.36181635 149.10662441599996,-35.361821363499992 149.10661539200001,-35.361826358500004 149.1066064,-35.361830354499993 149.10659440000001,-35.3618373475 149.10658940799996,-35.361840363 149.10658041600001,-35.361845358 149.10656940800001,-35.361850353 149.10656041600001,-35.361855348 149.106551392,-35.3618603615 149.106541408,-35.361865356500005 149.106529408,-35.361871350500003 149.10652339199999,-35.361874347499999 149.10651539200001,-35.361879361 149.106505408,-35.361883357 149.106495392,-35.361889351 149.1064864,-35.361894364500003 149.10647641599999,-35.3618983605 149.10646841600001,-35.361903355500004 149.106459392,-35.361907351500001 149.1064504,-35.361912346499999 149.10644041599997,-35.36191736 149.10643139199999,-35.361921356 149.10642240000001,-35.36192635099999 149.10641241600001,-35.361931364500002 149.106403392,-35.3619363595 149.106393408,-35.361940355500003 149.106384416,-35.361945350500001 149.106373408,-35.361950364 149.10636441599999,-35.36195535899999 149.1063544,-35.361960354 149.10634540800001,-35.36196435 149.10633539200001,-35.361969363500002 149.106327392,-35.361973359499999 149.106317408,-35.361978354500003 149.10630739199999,-35.361983349500001 149.10629939200001,-35.361986346500004 149.10628841600001,-35.361992359 149.106279392,-35.361996355 149.106269408,-35.36200135 149.106260416,-35.362005364499993 149.1062504,-35.362010359500005 149.10624041599999,-35.362014355500001 149.10623139200001,-35.362019350499999 149.10622140800001,-35.362023346500003 149.10621241600001,-35.36202836 149.1062024,-35.362032356 149.106193408,-35.362037351 149.10618339199999,-35.362041347 149.10617340799999,-35.362046360500003 149.10616441600001,-35.362050356499999 149.10615440000001,-35.362054352500003 149.106145408,-35.362059347500001 149.106135392,-35.362063362 149.10612739199999,-35.362067358 149.10611641599999,-35.362072353 149.1061064,-35.362076349 149.10609740800001,-35.362080363499999 149.1060904,-35.362083360500002 149.10607740799998,-35.362089354499993 149.106067392,-35.362093350499997 149.1060584,-35.362098364 149.10604841599999,-35.36210236 149.1060384,-35.36210635599999 149.10602841599999,-35.362110352 149.10601939199998,-35.362114348 149.10600940800001,-35.362118362499992 149.105999392,-35.362122358499995 149.10598944,-35.362126354499999 149.105979424,-35.362130350500003 149.10596944,-35.3621343465 149.10596044799999,-35.362138361 149.10595043199999,-35.362142357 149.10594044800001,-35.362146353 149.10593043200001,-35.362150349 149.10592044800001,-35.362154363500004 149.10591344,-35.362156361499999 149.105900448,-35.362161356500003 149.10589344,-35.362164353499999 149.10588044799999,-35.362169348500004 149.10587344000001,-35.362171346499998 149.10586342400001,-35.362175361 149.10552342400001,-35.362291356 149.10538643199999,-35.362353349500005 149.10459443199997,-35.360907371 149.10433244800001,-35.36049138 149.104076448,-35.360133368 149.10384844800001,-35.359846377499998 149.10357344,-35.359531378 149.10273244799998,-35.3586954 149.10252742399999,-35.3584914005 149.102516896,-35.358480004500002 149.10222044799997,-35.35815039 149.10195244799999,-35.35781739 149.10151542400001,-35.357191405500004 149.10120742399999,-35.356667411499998 149.10113344000001,-35.356543406 149.100891424,-35.356008404500002 149.10070144,-35.355481413500002 149.10055542399999,-35.354945413 149.10054844800001,-35.354906415 149.100542432,-35.354904417 149.10008144,-35.354756417 149.09742601599999,-35.353901624500004 149.09741648,-35.353973441500003 149.09738547200001,-35.354059448 149.09737648000001,-35.354066441 149.09721545599999,-35.354241451 149.09709446400001,-35.354153446499993 149.09695248,-35.354065442 149.09539148799999,-35.353236475500005 149.09523750400001,-35.353154465 149.09478352,-35.353729482 149.094634528,-35.353885492499998 149.09446854399999,-35.354016491 149.09427254400001,-35.354132486 149.09404752,-35.354228482499998 149.09382857599996,-35.354284482 149.09351356799999,-35.354353487 149.09284355200001,-35.354487501 149.09269555199998,-35.354516509 149.092114592,-35.354632504 149.09224464,-35.357171499499998 149.09169561600001,-35.357190499 149.091699616,-35.357272509499992 149.089763648,-35.357338536 149.08944470399999,-35.357336538 149.08905769599997,-35.357317538499998 149.08877168000001,-35.357270548500004 149.08839968000001,-35.357189537 149.08823068800001,-35.35712956 149.08813068800001,-35.35709256 149.08785468799999,-35.356986555 149.08756572799999,-35.356851560499997 149.08718572800001,-35.356607564 149.08700672000001,-35.356448556499998 149.08685072,-35.356275563 149.08658473599996,-35.355892576 149.08651795200001,-35.3557025255 149.086355712,-35.355736584 149.085342752,-35.355944579500004 149.08533574399999,-35.355931574 149.08146982400001,-35.356725631 149.08120787199999,-35.356779928500004 149.07954387199999,-35.357121660499999 149.079459872,-35.357218656 149.07845590400001,-35.3576716655 149.07690096,-35.358868671 149.076478944,-35.359193697500004 149.07640108800001,-35.359272581500001 149.07628396799998,-35.359388687500001 149.07461500799999,-35.360233712 149.074186016,-35.360206702 149.073767008,-35.360179710499999 149.07369302399999,-35.360175714500002 149.07317804799999,-35.36014173 149.07300003200001,-35.360130722500003 149.071216064,-35.359643747 149.070811072,-35.359533746 149.069282112,-35.359116756 149.06887724800001,-35.358964075500005 149.06922809599999,-35.358148762 149.069555296,-35.357247294 149.069571072,-35.357203763500003 149.06981107199999,-35.356442766 149.06995804799999,-35.354121756 149.070056,-35.3531297675 149.07007702399997,-35.352543761500002 149.070075008,-35.35190375399999 149.07007382399999,-35.351876836500004 149.07004697599999,-35.351273755 149.06999996799999,-35.350715758 149.06998899199999,-35.35062977 149.069928992,-35.350141758500001 149.06983398400001,-35.3495527555 149.06970198400001,-35.3489667865 149.069555968,-35.348369773 149.06950998400001,-35.348198777500002 149.069376992,-35.347734779 149.06928294399998,-35.347443774 149.06920496000001,-35.347212783 149.06899696,-35.346641780500001 149.06859984,-35.345732043 149.06858595200001,-35.34568379499999 149.06828896,-35.344744790500002 149.06787395200001,-35.343633791500004 149.06767894399999,-35.3432937985 149.06658096000001,-35.341386818499991 149.066291936,-35.340884839499999 149.06583296,-35.339986831 149.06578195200001,-35.3398868385 149.06541094400001,-35.3390708405 149.065177952,-35.338515859 149.06480294400001,-35.3375768545 149.06439491200001,-35.336373855 149.06398592,-35.334907878 149.063823904,-35.334213869 149.06370688000001,-35.333638870500003 149.06368188799999,-35.33350987 149.06370688000001,-35.333508871 149.063881888,-35.333500879 149.06466188799999,-35.333463879 149.06598086400001,-35.333395854500004 149.06616684799999,-35.333396853499998 149.06639385599996,-35.333412837499999 149.066680832,-35.333447839500003 149.067682816,-35.333607827500003 149.06792780800001,-35.3336118235 149.06798982399999,-35.333612822500001 149.06831507199999,-35.333574028 149.06853792000001,-35.333522006 149.06876080000001,-35.33344682199999 149.068919776,-35.333372822 149.06897177600001,-35.333348809 149.06914979199999,-35.333241823500003 149.0693648,-35.333074805500004 149.06951174400001,-35.332938793499999 149.06979574399998,-35.332677795500004 149.07017875199998,-35.332323798 149.07034272000001,-35.332260805499992 149.07253968000001,-35.3313997785 149.07287769600001,-35.331741769499999 149.07311270400001,-35.332460753500001 149.07373369600001,-35.333377743 149.07431270399999,-35.334044742 149.074903648,-35.334218753 149.07632761599999,-35.334108733500003 149.07675363199999,-35.334341704 149.07752361600001,-35.334763707499995 149.07811763199999,-35.3358896915 149.07844464,-35.336469685 149.079037632,-35.337204671500004 149.079946624,-35.337323663499994 149.081656256,-35.336854744 149.08166057599999,-35.336867657 149.08167756799998,-35.336893649499999 149.08169657599998,-35.336916645 149.08175856,-35.336966650500003 149.08181056,-35.336990645 149.08184656,-35.337001634 149.08192156800001,-35.337010625 149.081984576,-35.337004631 149.08201456,-35.336997638 149.08218857599999,-35.336934627 149.082363552,-35.336870635499999 149.08257257599996,-35.337490626 149.082600576,-35.33756063 149.08265856,-35.337679640499999 149.08270556799997,-35.337760633500004 149.08282755199997,-35.337924636 149.08284355200001,-35.337940638500001 149.08343155200001,-35.338498617 149.08355456000001,-35.338611615 149.08357856000001,-35.338634610500002 149.083648576,-35.338571618 149.08439353599999,-35.33790362 149.08502649600001,-35.337295599 149.08535350400001,-35.337027589500003 149.08556249599999,-35.336917588499993 149.08579948799999,-35.336815598 149.086030464,-35.336736603 149.086301472,-35.336669596 149.086326464,-35.3366656 149.08650848,-35.3366345755 149.08667545599999,-35.336617574 149.086763456,-35.336609582 149.087010464,-35.336599573500003 149.08722742399999,-35.336610581 149.08751443200001,-35.336639570500004 149.08754144,-35.336642586 149.087684448,-35.336669577500004 149.087878432,-35.336716567499998 149.08874144000001,-35.336926561 149.08935939200001,-35.337397534 149.089519392,-35.337528532500002 149.08976540800001,-35.337708537499999 149.09139440000001,-35.338840515500003 149.09149840000001,-35.3389135165 149.09224236799997,-35.339426503 149.09422937599999,-35.340809489 149.09548835199996,-35.3416724585 149.09658934399999,-35.342319440499992 149.09731632,-35.342746439 149.09759331199996,-35.342924446 149.09783929599999,-35.343104451 149.09813232,-35.343348429 149.098386304,-35.343597420500004 149.09861232,-35.343853423499993 149.09866230399999,-35.3439214295 149.09883232,-35.344155436 149.099005312,-35.34442642399999 149.09916032000001,-35.344715431 149.09930531200001,-35.345055424 149.09939129599999,-35.345316422 149.09996035200001,-35.347295404 149.10020435199999,-35.348145405 149.100322336,-35.348668418500004 149.100405344,-35.349258402 149.10043235200001,-35.349645403499999 149.100460384,-35.35065740899999 149.100461376,-35.350697406 149.10060736,-35.35069341 149.10082336,-35.35068641699999 149.10112835199999,-35.350652414 149.101302336,-35.350635412500004 149.10177433600001,-35.350547389500001 149.10224534400001,-35.350423384 149.10265232,-35.350284393500004 149.10309030400001,-35.350096378 149.10348832,-35.34988636599999 149.104002272,-35.349587369 149.10402828799999,-35.349571366500001 149.10531424,-35.348791351 149.10536924799999,-35.348758347 149.10543923200001,-35.348716352 149.10931510399999,-35.346368295 149.10973510400001,-35.346137304 149.11017209599999,-35.34592829099999 149.11091708800001,-35.345638285 149.11120608,-35.345554276500003 149.11138704000001,-35.345502273 149.11170505600001,-35.345410272500004 149.11213004800001,-35.345317273 149.112550048,-35.345245271 149.11294102400001,-35.345195265500003 149.11344403199996,-35.345153270499999 149.11389500799999,-35.3451382485 149.11429097600001,-35.345143243500004 149.11478499200001,-35.345171252500002 149.11517699199999,-35.345210250500003 149.115610976,-35.3452682295 149.11563897600001,-35.345269228500001 149.116049952,-35.345358232 149.11685494400001,-35.345571222499998 149.11737196799996,-35.34575021 149.117861952,-35.345953210499999 149.12118889600001,-35.347546171499999 149.12153689600001,-35.347681166 149.12193190400001,-35.347806170499993 149.12241289599999,-35.347906144500001 149.122922848,-35.347964160499998 149.123417856,-35.347972152499999 149.12388886400001,-35.347938149500003 149.124287872,-35.347874139499993 149.12437334399999,-35.347854640500003 149.12616086400001,-35.350224139 149.12736387199999,-35.351817118500001 149.124738912,-35.354216143 149.11932012799997,-35.359165207499998 149.11895011199999,-35.359503202500001 149.11522784,-35.354115688 149.11507043200001,-35.354116983 149.11483248,-35.354117242 149.11482169600001,-35.354117242 149.11481088,-35.354117334500003 149.11479971200001,-35.354117334500003 149.114788928,-35.354117427 149.11477776000001,-35.354117519500001 149.114766976,-35.354117612 149.11475616000001,-35.354117797 149.114744992,-35.354117871 149.11473420799999,-35.3541181485 149.11472304,-35.354118333500004 149.11471225599999,-35.354118592500001 149.11470144,-35.35411887 149.11469065599999,-35.354119055 149.11467948800001,-35.354119406500004 149.11466867199999,-35.354119684 149.11465753599998,-35.354119943 149.11464672,-35.354120405499998 149.11463593600001,-35.354120757 149.114624768,-35.354121201 149.11461395200001,-35.354121571 149.11460316799997,-35.354122015 149.114592,-35.354122477499999 149.11458121599998,-35.3541229215 149.11457004799999,-35.354123458 149.114559232,-35.354123994499993 149.11454844799999,-35.354124531 149.11453763200001,-35.354125086 149.11452649599997,-35.3541256225 149.11451568000001,-35.354126251499999 149.114504512,-35.354126880500004 149.11449372800001,-35.354127509500003 149.114482912,-35.354128231 149.11447212799996,-35.354128952499998 149.11446096,-35.354129581500004 149.11445017599996,-35.354130303 149.11443936000001,-35.354131024499992 149.11442857599999,-35.354131838500003 149.11441740800001,-35.354132634 149.11440659199999,-35.354133355500004 149.11439580800001,-35.354134262 149.11438464,-35.354135168500001 149.11437385599999,-35.354136056500003 149.11436304,-35.3541368705 149.11435225599999,-35.354137777 149.11434144,-35.354138757500003 149.11433027199999,-35.354139664 149.11431948799998,-35.354140644499999 149.11430867199999,-35.354141736 149.11429788800001,-35.3541427165 149.11428672,-35.354143808 149.11427593600001,-35.354144788500001 149.11426512,-35.354145861500001 149.11425433599999,-35.354146953 149.11424352,-35.354148118499999 149.11423273599999,-35.354149284 149.114221568,-35.354150468 149.11421113599999,-35.354151633500003 149.11419996800001,-35.354152799 149.11418915199997,-35.354154057 149.11417836800001,-35.35415531499999 149.114167552,-35.354156573 149.11415676799999,-35.354157831 149.114145952,-35.354159107500003 149.11413516799999,-35.354160532 149.114124352,-35.354161882500001 149.11411356799999,-35.35416323299999 149.11410275200001,-35.354164583500001 149.114091968,-35.354166026500003 149.11408115200001,-35.354167469499998 149.11407036799997,-35.3541689125 149.11405955199999,-35.354170355499996 149.114048768,-35.354171872500004 149.11403795199996,-35.354173408 149.11402716800001,-35.354174943499999 149.11401635199999,-35.354176479 149.11400556800001,-35.354178088499999 149.113994752,-35.354179624 149.11398396800001,-35.3541812335 149.11397353599997,-35.3541828615 149.11396272,-35.354184563499999 149.11395193599998,-35.35418628399999 149.11394112,-35.354187986 149.11393033600001,-35.354189706500001 149.11391952,-35.3541914085 149.11390873600001,-35.354193203 149.113898272,-35.354194923500003 149.11388748799999,-35.354196718 149.113876672,-35.354198512499998 149.11386588799999,-35.354200492 149.11385545599998,-35.354202305 149.11384464,-35.354204192 149.11383385600001,-35.354206079 149.11382339199997,-35.354207966 149.11381260799999,-35.354209945499996 149.11380179199998,-35.354211925 149.11379136,-35.3542139045 149.11378057600001,-35.354215884 149.11376976,-35.354217863499997 149.11375932799999,-35.354220028 149.113748512,-35.3542221 149.11373808,-35.354224172 149.11372729600001,-35.354226244 149.11371683199999,-35.354228408499999 149.11370604800001,-35.354230554499999 149.113695616,-35.354232719 149.1136848,-35.354234883499998 149.11367436800001,-35.354237048 149.11366355199999,-35.354239286500004 149.11365312000001,-35.354241543500002 149.113642688,-35.3542438745 149.11363187200001,-35.354246131499998 149.11362144,-35.354248462500003 149.11361065599999,-35.354250812 149.11360019200001,-35.354253143 149.11358976,-35.354255492500002 149.11357897599999,-35.354257823499999 149.113568512,-35.354260265500002 149.11355808,-35.354262689 149.11354764800001,-35.354265112499995 149.113537216,-35.354267647 149.11352640000001,-35.3542700705 149.113515968,-35.354272679 149.11350553599999,-35.354275195 149.11349507200001,-35.354277711 149.11348464,-35.354280338 149.11347420800001,-35.3542829465 149.113463776,-35.354285555 149.11345331199999,-35.354288163500001 149.11344288000001,-35.354290772 149.113432096,-35.354293473 149.11342201599999,-35.354296174 149.113411552,-35.354298875 149.11340112,-35.354301576 149.11339068800001,-35.354304277 149.113380256,-35.354307144499998 149.11336979199999,-35.354309938 149.11335936,-35.354312731500002 149.11334892799999,-35.354315617499999 149.11333849600001,-35.354318392499998 149.113328416,-35.354321278500002 149.11331795199999,-35.354324164499999 149.11330752000001,-35.35432703199999 149.11329744,-35.3543300105 149.11328700799999,-35.354332989 149.113276576,-35.354335949 149.11326649599999,-35.354338927500002 149.11325603199998,-35.354341887499999 149.1132456,-35.3543449585 149.11323552,-35.354347918500004 149.11322508800001,-35.354350971 149.113214656,-35.354354134499999 149.11320457599999,-35.354357187 149.11319411199997,-35.354360332 149.11318403199999,-35.354363495500003 149.11317395200001,-35.354366640500004 149.11316352,-35.354369878 149.11315344,-35.354373115499996 149.11314300800001,-35.354376353 149.113132928,-35.354379609 149.11312284799999,-35.354382846500002 149.11311276800001,-35.354386084 149.11310233599997,-35.354389414 149.11309225599999,-35.354392744 149.11308217600001,-35.354396074 149.113072096,-35.354399404 149.11306201599999,-35.354402826499999 149.11305193600001,-35.354406156499998 149.11304147199999,-35.354409579 149.11303139200001,-35.354413075499991 149.11302131199997,-35.354416498 149.11301123199999,-35.354419920499993 149.11300115200001,-35.354423435500003 149.112991072,-35.354426932 149.11298099199999,-35.354430539500001 149.11297091200001,-35.354434054500004 149.112961216,-35.354437643499999 149.11295113599999,-35.354441251 149.11294105600001,-35.354444858500003 149.112930976,-35.354448447500005 149.11292089599999,-35.354452147499998 149.11291081600001,-35.354455829 149.112900736,-35.354459529 149.11289100799999,-35.354463210500001 149.11288092800001,-35.3544669845 149.112870848,-35.354470777 149.11286112,-35.3544744585 149.11285104000001,-35.354478325 149.11284096,-35.354482117499991 149.11283123199999,-35.354485984 149.11282115200001,-35.354489758 149.11281145599997,-35.354493624500002 149.11280137599999,-35.354497583499999 149.11279164799998,-35.354501468500004 149.112781568,-35.354505427499994 149.11277184,-35.354509294 149.11276211200001,-35.354513345499996 149.112752032,-35.3545173045 149.112742336,-35.354521263499997 149.11273260799999,-35.354525315 149.11272252799998,-35.354529366500003 149.1127128,-35.354533418 149.11270307199999,-35.354537377 149.11269337600001,-35.354541595 149.112683648,-35.354545739 149.11267392,-35.354549790500002 149.11266419200001,-35.354553934500004 149.112654496,-35.354558078499998 149.112644768,-35.354562296499999 149.11263504,-35.354566440500001 149.11262531200001,-35.354570677 149.112615616,-35.354574987500001 149.11260588799999,-35.354579224 149.11259616000001,-35.354583534500001 149.112586816,-35.354587863500001 149.11257708799999,-35.354592174 149.11256736000001,-35.354596503 149.11255763199998,-35.354600813499992 149.112548288,-35.354605235 149.11253856,-35.354609638 149.11252921600001,-35.354613967 149.112519488,-35.35461837 149.11251011199997,-35.354622865499998 149.11250041599999,-35.354627287 149.11249104000001,-35.3546317825 149.112481312,-35.354636278 149.11247196799999,-35.354640866 149.11246259200001,-35.354645361500005 149.11245289600001,-35.354649968 149.11244352,-35.354654556 149.11243417599999,-35.354659144 149.11242480000001,-35.354663732 149.112415072,-35.354668412500004 149.112405728,-35.354672908 149.11239635199999,-35.354677588499996 149.11238700800001,-35.354682269 149.112377632,-35.354687042 149.112368288,-35.3546917225 149.11235891199999,-35.354696495500001 149.11234992,-35.354701268500001 149.11234057600001,-35.354706023 149.1123312,-35.354710796 149.11232185599999,-35.354715569 149.11231248000001,-35.354720434500003 149.11230348800001,-35.354725281499995 149.112294112,-35.354730147 149.11228512,-35.354735012500001 149.11227577599999,-35.354739952 149.1122664,-35.354744817499999 149.112257408,-35.354749683 149.112248032,-35.354754622500003 149.11223904,-35.354759673 149.11223004799999,-35.354764612499991 149.11222067200001,-35.354769663 149.11221168,-35.354774695 149.112202688,-35.354779745500004 149.11219369599999,-35.354784685 149.11218432000001,-35.354789828 149.11217532800001,-35.35479486 149.112166336,-35.354799984499998 149.11215731199997,-35.354805127500001 149.11214832,-35.35481025199999 149.11213932800001,-35.3548153765 149.11213033600001,-35.354820593500001 149.112121312,-35.354825736500004 149.11211232,-35.354830953499999 149.11210332799999,-35.354836263 149.11209468800001,-35.35484148 149.11208569599998,-35.354846697 149.112076672,-35.354852006500003 149.112068032,-35.35485731599999 149.11205904,-35.354862625500004 149.1120504,-35.354867935 149.11204140800001,-35.354873244499991 149.11203276800001,-35.354878554 149.11202377599997,-35.354883956 149.112015136,-35.354889450500004 149.11200649599999,-35.35489476 149.11199747199998,-35.354900162 149.11198883200001,-35.354905656500001 149.111980192,-35.3549111325 149.111971552,-35.354916627 149.11196256,-35.354922029 149.11195392,-35.354927616 149.11194528,-35.354933184499998 149.11193664000001,-35.354938679 149.111928,-35.354944173500002 149.11191936,-35.354949834500005 149.11191072,-35.354955421500001 149.11190243199999,-35.354961082500004 149.11189379199999,-35.354966669499994 149.11188515200001,-35.354972256499998 149.11187651200001,-35.354977917500001 149.11186825600001,-35.354983671 149.111859616,-35.354989258 149.11185132799997,-35.354995011500002 149.111842688,-35.355000783500003 149.1118344,-35.355006537 149.11182576,-35.355012216499993 149.11181747200001,-35.35501797 149.11180921599998,-35.355023816 149.11180057600001,-35.35502966199999 149.111792288,-35.355035434 149.111784,-35.35504128 149.111775712,-35.355047126 149.11176707199999,-35.355052972 149.11175881599999,-35.3550588365 149.11175052799999,-35.355064775 149.11174259200001,-35.355070621 149.11173433600001,-35.355076652 149.11172604800001,-35.355082590499997 149.11171776,-35.355088621500002 149.111709472,-35.355094467500003 149.111701216,-35.355100498500001 149.11169328,-35.355106529499999</coordinates></LinearRing></outerBoundaryIs></Polygon>

	</Placemark>
</kml>