<?xml version="1.0" encoding="UTF-8"?>
<kml xmlns="http://www.opengis.net/kml/2.2">
	<Placemark>
		<Style>
			<LineStyle>
				<color>ff0000ff</color>
			</LineStyle>
			<PolyStyle>
				<fill>1</fill>
				<color>330000cc</color>
			</PolyStyle>
		</Style>
			<ExtendedData><SchemaData>
		<SimpleData name="STATE_2006">1</SimpleData>
		<SimpleData name="POA_2006">2707</SimpleData>
	</SchemaData></ExtendedData>
      <Polygon><outerBoundaryIs><LinearRing><coordinates>146.202658912,-34.762825089 146.20087004800001,-34.772406183500003 146.20083404799999,-34.772584190499998 146.19946617599999,-34.779978252 146.19801328,-34.787834314 146.197980288,-34.78801332 146.18839539199996,-34.786811449 146.1881784,-34.786784457499998 146.18080048,-34.78585955 146.18036550400001,-34.7858045495 146.17941952000001,-34.785686556500004 146.17938051199999,-34.785882564 146.17927299199999,-34.78641799099999 146.17840758400001,-34.790736594 146.178355584,-34.7910636 146.17769500799997,-34.790993004 146.17436566399999,-34.790635639500003 146.17247180800001,-34.800213718500004 146.17166086399996,-34.804314743 146.17032899200001,-34.811050778 146.17029401600001,-34.811229784 146.16945107199996,-34.815491814 146.16894310399999,-34.818060835 146.166976256,-34.828005898500003 146.16693724800001,-34.828201887500001 146.16381152,-34.843997039500003 146.16355753600001,-34.845281032 146.16352256,-34.845460056500002 146.162643616,-34.849900093500004 146.16260460800001,-34.8500971 146.161227744,-34.857052156500004 146.15948288000001,-34.865865242 146.156131168,-34.882788394500004 146.15601100800001,-34.883398006500002 146.15560617599999,-34.885438427 146.155548192,-34.885732429 146.155513184,-34.885905422500002 146.15518220800001,-34.887577452500004 146.15512422399999,-34.887872453499995 146.15395136000001,-34.893789493500002 146.152383488,-34.901700519 146.14563654400001,-34.898006568500001 146.14539257600001,-34.898307582 146.140547744,-34.904279659499998 146.13767584000001,-34.907818709499999 146.12834598399999,-34.906390805500003 146.11868416,-34.904910898 146.11845014400001,-34.904874897 146.09961340800001,-34.901987102500001 146.09061856,-34.900607206 146.090379552,-34.900570206 146.08332764799999,-34.8994872715 146.074841792,-34.898184372 146.069541856,-34.89705343 146.06884787199999,-34.897001426500005 146.06512492799999,-34.896619475500003 146.06503491199999,-34.896610484500002 146.064435936,-34.89654949 146.06437094399999,-34.896542478499995 146.06414896000001,-34.896519483 146.06412694400001,-34.896517485 146.06370694399999,-34.896474509499996 146.06346096,-34.896449497500001 146.06334496,-34.8968145025 146.06325699199999,-34.897203502 146.06299798399999,-34.897819496499999 146.062713984,-34.898344526500004 146.06093305600001,-34.900642541 146.04445641599997,-34.899754707500001 146.04095548800001,-34.899565748500002 146.03732656,-34.898570763 146.03693856000001,-34.898429756 146.036663584,-34.898243775499999 146.03630659199999,-34.897896771 146.03520358399999,-34.89722178 146.034568576,-34.896871778499992 146.03393363199999,-34.89654579 146.03307660799999,-34.896170795 146.03191264,-34.895861789500003 146.03094169600001,-34.895692810500002 146.03019369599997,-34.895525811 146.02916569600001,-34.89546983 146.02819171199999,-34.895483853 146.02710675200001,-34.89556484599999 146.026018752,-34.895806863 146.02512579200001,-34.8960508965 146.0240368,-34.896429887499998 146.01912592,-34.897712973499999 146.01826092799999,-34.897931958 146.00378224,-34.901600156500002 146.003083264,-34.901846169500004 146.00290924800001,-34.901883169500003 146.00216627200001,-34.901859175 146.00161126399999,-34.901786192499998 146.00125228799999,-34.901683184500001 146.000956288,-34.901600193500002 145.99984729599998,-34.900864189499998 145.999459296,-34.900589205500005 145.99918329600001,-34.900107206499996 145.99893628800001,-34.899282180500002 145.99860528,-34.89866219 145.99824630399999,-34.897883192 145.99823827200001,-34.897866190500004 145.99794326400001,-34.897264182 145.99769427199999,-34.896942189500002 145.99700128000001,-34.896574187500001 145.99597328,-34.896205205 145.99461331200001,-34.895882232 145.99229731199998,-34.895300240499992 145.98789238399999,-34.894194273499998 145.98704841599999,-34.894090285 145.97716844799996,-34.885968341 145.97633644800001,-34.885531334 145.97572547199999,-34.885369348 145.97516947199998,-34.885322358 145.974530496,-34.885206344499998 145.96939555200001,-34.884559399499999 145.968062592,-34.884392418499999 145.93347507199999,-34.880038795 145.93303107200001,-34.879982814 145.93269705599999,-34.879940819 145.92441814399999,-34.878898899 145.92025222399997,-34.878375941 145.90181548800001,-34.876062127499999 145.89025766399999,-34.874611246500002 145.89005168,-34.874585254 145.88633574399998,-34.874119294499991 145.863035072,-34.871144513 145.8536392,-34.869943604 145.85350425600001,-34.87070661799999 145.85315228799999,-34.872774622 145.85068729599999,-34.87255166 145.83710649599999,-34.8708507885 145.82786764799999,-34.869726895 145.82466470400001,-34.869336933500001 145.811223904,-34.867633046500004 145.81005792,-34.867422072499991 145.80972496000001,-34.867329073 145.803842016,-34.865460129 145.80348700799999,-34.865347131 145.80306201599998,-34.865212136499999 145.796362112,-34.863083193500003 145.796134112,-34.8630111915 145.79316316800001,-34.862700225 145.785944288,-34.861707293 145.78358835200001,-34.861407315500003 145.77886345600001,-34.860805344 145.776031488,-34.860518390500005 145.77450352,-34.860419397 145.772891552,-34.860389408499998 145.772307584,-34.860421432 145.77211360000001,-34.86043142199999 145.77150259199999,-34.860406428499999 145.766584704,-34.860328488 145.75602592000001,-34.860164578 145.74518908799999,-34.860008697 145.74446710399999,-34.859980706500004 145.743856096,-34.859956712 145.74313414400001,-34.859907724 145.74055216,-34.859436732500001 145.73938716800001,-34.859201764 145.738749184,-34.859061756 145.73797020800001,-34.859057778500002 145.73710921599999,-34.859030768499998 145.73622022399999,-34.859025792 145.72471641600001,-34.858921933 145.71379660799997,-34.858822033 145.70268281599999,-34.858671165499999 145.689761984,-34.858494287 145.67814716800001,-34.858336408 145.67414601600001,-34.858280001499999 145.674728128,-34.854903418500001 145.67755468799999,-34.837760319499999 145.67758566399999,-34.837348306 145.677865664,-34.837120312 145.67808768,-34.837099314500001 145.678616,-34.837056006 145.678977632,-34.837035286 145.67919964800001,-34.836944303 145.679339648,-34.8368302875 145.67945465599999,-34.836327291 145.680358496,-34.830719256500004 145.68167334399999,-34.822342179 145.68321225599999,-34.813485100500003 145.68440217599996,-34.80736506 145.68494700799999,-34.8045599975 145.686193024,-34.797693981500004 145.68671500799999,-34.794854953 145.686777984,-34.793870938 145.68681097599998,-34.7931379495 145.68690096,-34.79226795 145.68704595200001,-34.791466918499999 145.68724595199998,-34.790711933499999 145.68744592,-34.789933916 145.68748192,-34.788925906500005 145.68762691199998,-34.787987901 145.68779888,-34.787300903500004 145.68793888,-34.786879880500003 145.68802688,-34.786614886499997 145.68797388799999,-34.786156882 145.68772588799996,-34.785925891 145.68742288000001,-34.785695880499993 145.68689587200001,-34.785623897 145.686313888,-34.785505904 145.68567587199999,-34.785410906500005 145.68498288000001,-34.785223927 145.684511872,-34.785167927499998 145.683983872,-34.785103936 145.682901888,-34.784983945 145.68193091200001,-34.784909963499999 145.68090489599999,-34.7847899725 145.68015590399997,-34.784624971 145.67949091199998,-34.784506978 145.67888089600001,-34.784342994 145.678244896,-34.784111004 145.677690912,-34.783901991 145.676691936,-34.783759023 145.67574995199999,-34.783593041 145.674640928,-34.783380032 145.673753952,-34.783124047500003 145.67289497600001,-34.782936050499998 145.672840928,-34.782706058500004 145.67287094400001,-34.782455050500005 145.672928928,-34.782111061500004 145.67306995199999,-34.781906063 145.67318294399999,-34.781563054499998 145.67318694399998,-34.781082036 145.673134944,-34.780646028 145.67308195199999,-34.780279043500002 145.672806944,-34.780026037500001 145.672335936,-34.779794047500005 145.67236592,-34.77949603099999 145.672311904,-34.779382034 145.672119904,-34.779083037 145.671871904,-34.778806036499994 145.67162592,-34.778324037499999 145.671490912,-34.777842038500005 145.67154889599999,-34.777476034500005 145.67222288,-34.7764490255 145.672837888,-34.775879022 145.67348288,-34.775149992500005 145.67390483200001,-34.774464993 145.674132832,-34.773618988 145.67402585599999,-34.773136989 145.67383580800001,-34.77251698 145.6734808,-34.771804989 145.673127808,-34.770840972500004 145.67296681600001,-34.770106985 145.67294681600001,-34.769052966 145.67300979199996,-34.7681599525 145.672858784,-34.766119939 145.67291875199999,-34.765546938499995 145.67342374399999,-34.764862938 145.673789728,-34.76417792 145.673959712,-34.763719915500005 145.674296704,-34.763240913499999 145.67454870399999,-34.7629218995 145.67547168,-34.762056895 145.67644864,-34.761282873500001 145.67773164799999,-34.760533845499999 145.67868060800001,-34.759805852 145.67940758399996,-34.759145827499992 145.68058259200001,-34.75796081 145.68100256,-34.75741280299999 145.68156054400001,-34.757072791500001 145.682202528,-34.756525783500003 145.68298451199999,-34.755911768499999 145.68376649599998,-34.755343763 145.68496649599999,-34.754433748 145.68613644800001,-34.753843727499998 145.686724416,-34.753274704500001 145.68742544,-34.752315701500002 145.688627392,-34.751176675 145.69024636799998,-34.7499946545 145.69158432,-34.749153626 145.69229628799999,-34.748465611 145.69265628799999,-34.7482176185 145.69315731200001,-34.747738616499994 145.69354825600001,-34.747327583500002 145.69385625599998,-34.746893592 145.694107264,-34.746527588 145.69435926400001,-34.746001577500003 145.69444822400001,-34.745084569500001 145.69467622400001,-34.7438705625 145.6947912,-34.743023558499992 145.6948792,-34.742037545499997 145.69494118399999,-34.740823538500003 145.695059168,-34.739539527499993 145.69520115200001,-34.7388075195 145.695510144,-34.738051517 145.695846144,-34.7375495195 145.69620809599999,-34.737275497500001 145.697375104,-34.736798475 145.69834806399999,-34.736436485499993 145.69959804800001,-34.736143464 145.70051504,-34.735872439 145.701211008,-34.735508451500003 145.702158016,-34.734732432 145.70254796799998,-34.734367427 145.70293897600001,-34.733910403 145.70338595199996,-34.7333624145 145.70399993599997,-34.732631387 145.70455792000001,-34.731946387500003 145.70528288,-34.731146373500003 145.70589689600001,-34.730553356 145.70642684800001,-34.729936344 145.70709584,-34.729320331 145.70804182399999,-34.72868234 145.7090168,-34.727838314499998 145.71068771199998,-34.726744298500002 145.71160572799997,-34.726175275500005 145.71238470399999,-34.725719250499999 145.71302470399999,-34.725309253500001 145.713886656,-34.724900237 145.71458163200001,-34.724651245499999 145.71516464000001,-34.7245612245 145.715662624,-34.724701214 145.71616064,-34.724978214499991 145.7168256,-34.725279228 145.7175456,-34.72555621 145.718127584,-34.725719195 145.71870857600001,-34.725836207500002 145.71959657599999,-34.725954182 145.72053856,-34.726164175500003 145.72153654399997,-34.726191167 145.72239651199999,-34.726126158 145.72306348799998,-34.725991145 145.72350851199997,-34.725786146499999 145.72428646399999,-34.725445154500001 145.724787456,-34.725241136500003 145.725259424,-34.725059133500004 145.725787424,-34.724947134499999 145.726813408,-34.725043112500003 145.72806041600001,-34.725299097 145.72933536,-34.725442083499999 145.73055536000001,-34.725584071 145.731775328,-34.725703063 145.73294032000001,-34.725754049 145.73463232,-34.725783038499998 145.73554828799999,-34.72567202 145.73721324799999,-34.7256779955 145.737300256,-34.724806997 145.73747225599999,-34.723753977 145.737445216,-34.723386974 145.737724224,-34.723112989 145.73792022399999,-34.722746985 145.73806022400001,-34.722471982500004 145.73786720000001,-34.72215098899999 145.737758208,-34.721851973500002 145.737704192,-34.721484970500001 145.73787318399999,-34.721026966 145.737959168,-34.720408955 145.73826716799996,-34.719813958 145.738353152,-34.719172951499999 145.738466144,-34.718668937499999 145.73834416,-34.718112938499999 145.73818416,-34.717383946 145.73913811200001,-34.717386924499998 145.74008112000001,-34.71729892 145.741053088,-34.717142909499998 145.74438304,-34.716879876500002 145.74543801600001,-34.716745844 145.74607603199999,-34.716633845 145.74679798399998,-34.716475836500003 145.74785299199999,-34.71634284 145.749462016,-34.716119008500002 145.75087792,-34.715871793 145.751932928,-34.715623782 145.75271088,-34.715488769 145.75321088000001,-34.715329761500001 145.753543904,-34.71517075399999 145.753711872,-34.714896750500003 145.75390787200001,-34.714415732 145.75402284800001,-34.713659748 145.75413984,-34.712330745 145.75408784000001,-34.711596720500005 145.754228832,-34.71095571399999 145.754482784,-34.709902731 145.75465475199999,-34.708871707500002 145.75488176,-34.70770371 145.75496972799999,-34.706672686499999 145.75488972799999,-34.70584668 145.75483772800001,-34.705227688499996 145.75497872,-34.704723693 145.755147712,-34.70417468699999 145.755370688,-34.703854674 145.75551068799999,-34.703465674500002 145.75565366399999,-34.702503674499994 145.75576867199999,-34.7016786485 145.75594064000001,-34.700555643 145.756111648,-34.699862651499998 145.75619462399999,-34.699525637 145.75647859200001,-34.698036627500002 145.75684457599996,-34.696754614500001 145.756987584,-34.6959526025 145.75718457599996,-34.6951286125 145.75738454399999,-34.693937601 145.75755552000001,-34.692883600500004 145.75758950400001,-34.691691571500002 145.75762051199999,-34.690935569 145.75756748799998,-34.690408578 145.75779046400001,-34.690019578499999 145.757931488,-34.689515564499999 145.75804844800001,-34.688187560499998 145.758220448,-34.687041541 145.758445408,-34.686354543500002 145.7586424,-34.685668545 145.75886739200001,-34.684912524 145.75903737600001,-34.684225526500001 145.75923436799997,-34.6836075155 145.759320352,-34.682988505499999 145.75915734399996,-34.682209507499998 145.758690336,-34.681198501 145.758138336,-34.680601506 145.75778035199997,-34.680164517500003 145.75744934400001,-34.679750524500001 145.75725734400001,-34.679360526 145.75706534399998,-34.678947513499999 145.75715232,-34.678099492 145.757462304,-34.677046509 145.757798272,-34.676337478 145.75821728,-34.675651479500004 145.75846928000001,-34.675170479500004 145.75883024000001,-34.674874461 145.75869324799999,-34.674484462500004 145.75853024,-34.673818462500002 145.75853721600001,-34.672398458 145.75867820799996,-34.671733438499999 145.75893123199998,-34.671001449 145.75929619199999,-34.670132448499999 145.75968915199996,-34.669033419 145.76008214399999,-34.668003413 145.760723136,-34.667157408 145.76128112000001,-34.666495385499999 145.76156009600001,-34.666083390499999 145.76170208,-34.665373397499998 145.761901056,-34.664297363500005 145.76179206399999,-34.663975371 145.76151404800001,-34.663929361500003 145.76140105600001,-34.6636213735 145.761710048,-34.663586371500003 145.762294048,-34.663267376 145.76276704,-34.662718351500004 145.76310304,-34.662147349 145.76335500799996,-34.661621357 145.76355100800001,-34.661140338500005 145.763804,-34.660408330500005 145.764001952,-34.659583341500003 145.76425596799996,-34.658484312 145.76453792000001,-34.657545307500001 145.76467993599999,-34.656675289500001 145.76485091200001,-34.6556682975 145.76496691200001,-34.654728294 145.76491385599996,-34.654064273499998 145.76491785600001,-34.653285275500004 145.764977856,-34.652322276500001 145.76517484799999,-34.651544259 145.76545584,-34.650697255 145.76562681599998,-34.649895261499999 145.76585180800001,-34.649071234499999 145.76593776000001,-34.648361241499991 145.76608076799999,-34.647445232500004 145.766167776,-34.646597229500003 145.76631174400001,-34.645590219 145.76640073599998,-34.644215225 145.76657369599999,-34.642772206499998 145.76668966400001,-34.641764197 145.76697168000001,-34.640573185500003 145.76705964799999,-34.639611185500002 145.767199648,-34.639200189500002 145.76742563199997,-34.638421173 145.76759862399999,-34.637001168499999 145.76793859200001,-34.635375148 145.768054592,-34.634115131500003 145.76867651200001,-34.631436109500001 145.76899049599999,-34.6295821135 145.76919344000001,-34.627635099500004 145.76944646399997,-34.626925069500004 145.76972841599999,-34.625780067500003 145.769963424,-34.624798069 145.770095392,-34.624246047500002 145.770432384,-34.623308060500001 145.77035139200001,-34.622987048500001 145.770131392,-34.622666055 145.76971737599999,-34.622160061500004 145.769388384,-34.621563048 145.76897638399998,-34.620576054499992 145.76878636800001,-34.619888058 145.768596352,-34.61910906 145.76804934399999,-34.617526033499999 145.76769334400001,-34.616654036 145.76766835199996,-34.616600034500003 145.76731734399999,-34.615828029500001 145.76725436800001,-34.615690038 145.766513312,-34.614267036500003 145.76615632,-34.613624032 145.765826336,-34.612982045 145.76500332800001,-34.611215036 145.76464732799997,-34.61043404 145.764207328,-34.609700034 145.76398832000001,-34.60914903 145.76379731200001,-34.6085300385 145.76349632,-34.607796032499998 145.76322233600001,-34.607176042 145.762947328,-34.606671029 145.76261632000001,-34.606349036499999 145.76228633599999,-34.605913028499998 145.76192832000001,-34.605522031 145.76148832,-34.6047870445 145.76121232,-34.604534038499992 145.761300288,-34.603595034 145.76130428799999,-34.602702020500004 145.76122528,-34.60183102199999 145.76117430400001,-34.601006014500001 145.76093427199999,-34.599057002499997 145.76091126399999,-34.598025997500002 145.76094521599998,-34.596903991 145.760951232,-34.595574988 145.76106521599999,-34.594841981 145.761152192,-34.594040968 145.76135120000001,-34.593147954500004 145.76138118399996,-34.592482972 145.76135616,-34.592024967500002 145.76133216,-34.591199941500001 145.76134217599997,-34.589298937 145.76137712,-34.587740922500004 145.761466144,-34.586572906500002 145.76147910399999,-34.583960891499999 145.761317088,-34.583089893 145.761048096,-34.581301868 145.76091606400001,-34.580132871499991 145.76069907199999,-34.579169854 145.76070406400001,-34.578116852500003 145.760740064,-34.576489833 145.760705024,-34.572411804 145.76076601599999,-34.571106777 145.76113996800001,-34.568404759499998 145.76122796799999,-34.567350740500004 145.76117497600001,-34.566938745500003 145.76109596800001,-34.566136733500002 145.76104496,-34.565219744 145.760938944,-34.564188720499992 145.76095593599999,-34.563773728500003 145.76097094400001,-34.563386727 145.76094694400001,-34.562607710500004 145.761006944,-34.561668706 145.76092595200001,-34.561256711 145.76095792,-34.560385694 145.76106691199999,-34.559570695 145.76427488,-34.56151967 145.76797481599999,-34.5637086455 145.77214275200001,-34.566311632500003 145.77564969599999,-34.568384613 145.777221696,-34.569355604 145.77788665599999,-34.569766618500005 145.77946064,-34.570687585500004 145.77948064,-34.57070159 145.77948166399997,-34.570695596 145.77953065599999,-34.570411602500002 145.77976761599999,-34.569038569500002 145.78298937599999,-34.55035743599999 145.78339136,-34.550704422 145.784255328,-34.550640412 145.785471296,-34.550150384 145.786312288,-34.549979388499992 145.78685728,-34.550150384 145.78724425600001,-34.5504913945 145.78731225600001,-34.550992393 145.78719830399999,-34.551546394 145.78682329599999,-34.552196391500004 145.786988288,-34.552852401500004 145.78771529599999,-34.55336339 145.78906825600001,-34.553790388499991 145.79018227200001,-34.554152378 145.79075024,-34.554568369 145.79090924799999,-34.554994368499997 145.79084128,-34.555591382 145.790523264,-34.556209393 145.79014825600001,-34.556945415500003 145.789870304,-34.5578034085 145.78976729600001,-34.558538413500003 145.789983296,-34.5589544045 145.79035830399999,-34.559157405 145.79107430400001,-34.559124401 145.79247225599997,-34.558783390500004 145.79368924799999,-34.558357372499998 145.794552192,-34.5583143785 145.7950072,-34.558560354500003 145.79512121600001,-34.55907138 145.79498422399999,-34.559508368499998 145.79453024,-34.560159365 145.794439232,-34.560756378500002 145.794484256,-34.5616303925 145.794746272,-34.562216398499999 145.79520025599999,-34.562653387 145.796027232,-34.563184374 145.79681222400001,-34.563674365 145.79743724799999,-34.563876366500004 145.79800524800001,-34.563727349 145.798130208,-34.563397346 145.798130208,-34.562427354 145.798062208,-34.561627358500004 145.79831216,-34.561051342500001 145.79891417600001,-34.560444339 145.79956214399999,-34.559527312499995 145.79981212799999,-34.559005316499999 145.800255136,-34.558578299499999 145.80091510400001,-34.558429300500002 145.80200611199999,-34.558504281 145.80305206399998,-34.558919273 145.803484064,-34.559378276499999 145.80346108800001,-34.559868286 145.80342710400001,-34.560508275 145.80352912000001,-34.560955272 145.803790112,-34.561254287499992 145.80416608,-34.5614462805 145.80460908800001,-34.561403286500003 145.80535907199996,-34.560849267 145.805916032,-34.560305256 145.806030048,-34.559986260500004 145.80592704,-34.559431242 145.80541603200001,-34.558131247 145.80514304,-34.557193241500002 145.80522300800001,-34.556713240500002 145.80568102399999,-34.556090216 145.806283968,-34.555354230500001 145.806396992,-34.5548852 145.806476992,-34.554043209500001 145.80668096,-34.553361207 145.80727193600001,-34.552807187500001 145.80826092800001,-34.552359173 145.80898892799999,-34.552135175 145.809840896,-34.552146145499997 145.81053488000001,-34.552306152 145.81140988799999,-34.552807150500001 145.81225084799999,-34.553574123499999 145.813114848,-34.554374137499998 145.81388784,-34.555216128 145.81426284799997,-34.556133136 145.814364896,-34.557828143 145.81450588800001,-34.55900515 145.81463088000001,-34.5596451575 145.81505187199997,-34.560188151 145.81582489600001,-34.560604142 145.81674489599999,-34.561307142 145.81752985599999,-34.561777153 145.81808684800001,-34.561862123499999 145.81863184,-34.561809139499999 145.819518816,-34.561521113 145.81995081599999,-34.561116111 145.82039382400001,-34.56054009499999 145.820711776,-34.559623087 145.82091676799999,-34.557896075 145.82104176000001,-34.556788073 145.82149072000001,-34.555760065 145.82228672,-34.554555030499991 145.82366166399999,-34.55289201 145.824366656,-34.55208200599999 145.82499161600001,-34.551676985500002 145.82585561600001,-34.551644980500001 145.82663958399999,-34.551814958500003 145.82713958400001,-34.552358969499998 145.827378592,-34.553008967 145.827514624,-34.553957961500004 145.827742624,-34.55458698 145.82814064,-34.555023968500002 145.82846960000001,-34.555183956500002 145.82902659199999,-34.555034957499998 145.82981158399997,-34.554735942 145.830993568,-34.554149936 145.83182352,-34.553605925 145.83246352,-34.5534879135 145.83327049600001,-34.553530907500004 145.83396348799999,-34.553860892 145.83435049599998,-34.554372898 145.83445251200001,-34.554809886500003 145.83437251199999,-34.555342908500002 145.834088544,-34.556067905 145.83361152000001,-34.556824925 145.83309955199999,-34.557986947 145.832963552,-34.558796951 145.83309955199999,-34.559211943 145.83336156799999,-34.55957495 145.834145568,-34.559830953 145.83533955199999,-34.560384935500004 145.83615152,-34.56088993 145.836856544,-34.561795930500004 145.83740252799998,-34.562754933500003 145.83831152,-34.563820903499995 145.83924352,-34.564598902500002 145.84007353600001,-34.564918915500002 145.84061948799999,-34.564918897 145.84184649599999,-34.564662875499998 145.84379043199999,-34.564012859500004 145.84548339200001,-34.56345884 145.84718838399999,-34.562989791 145.84822336,-34.56272279899999 145.84901132799999,-34.562696788 145.849864352,-34.562803773500001 145.85034134399999,-34.5630697665 145.85062534400001,-34.563623767500005 145.851046336,-34.565094776500004 145.85120534399999,-34.565862785500002 145.85131932799999,-34.566651773499999 145.85089836799997,-34.567631792500002 145.85056937599998,-34.568442795500005 145.85062537600001,-34.568921797500003 145.850978368,-34.569433803500004 145.85154636799999,-34.570318806499998 145.85168336000001,-34.57079779 145.85159241599996,-34.571288798499999 145.8513624,-34.571758809500004 145.85080540800001,-34.572163811500005 145.850191424,-34.572494832 145.84946444799999,-34.573144829500002 145.84896448000001,-34.5737528505 145.84868048,-34.574338856499999 145.84845251199997,-34.575297878 145.848361504,-34.576758878500002 145.84846451199996,-34.577205875499999 145.84887350400001,-34.577792880499999 145.849498496,-34.578240876500004 145.85028348799997,-34.5783578705 145.85133945600001,-34.578357852 145.85193145599999,-34.578613855 145.85245347200001,-34.579018857 145.85304144,-34.579793859 145.85351843199999,-34.580049843499999 145.854155424,-34.58015583 145.85499641600001,-34.580059833500002 145.85591641599999,-34.579750809499998 145.85666736,-34.579143806 145.857246336,-34.578439807 145.85754233599999,-34.577768775 145.858190304,-34.576979787 145.85870131199999,-34.576659755500003 145.85926931200001,-34.576712758 145.86020227200001,-34.576840759499994 145.86108825599996,-34.576712739500003 145.861645248,-34.576733737 145.86214524799999,-34.576925748500003 145.86235024000001,-34.577352747 145.86235024000001,-34.577874743 145.86257724800001,-34.5783337465 145.862896256,-34.578556745500002 145.86345225599999,-34.578396720499995 145.8639072,-34.578098722500002 145.86414620799999,-34.577533732500001 145.864157216,-34.576755696499994 145.86423718399999,-34.576062705 145.86448918400001,-34.575529701500002 145.86504614399996,-34.575178682500002 145.865751136,-34.575092694499993 145.866683104,-34.575263671500004 145.86771712,-34.575444675499995 145.86855808000001,-34.575220659 145.86902409599998,-34.574794641 145.86954704,-34.574133636 145.87009305599997,-34.5734516335 145.87077500800001,-34.572875617500003 145.871748,-34.572293589 145.872452,-34.571824595500004 145.87289596799999,-34.571109570499999 145.873554912,-34.56984156199999 145.87416790399999,-34.5684415375 145.874803904,-34.567460538 145.87545187200001,-34.567001516 145.87658883199998,-34.566799496 145.87789584000001,-34.56697051 145.879259808,-34.566863487500001 145.880168768,-34.566575461 145.88105574400001,-34.566074462499998 145.881271744,-34.565594443 145.88121472,-34.565157454500003 145.88062374399996,-34.564848449 145.87973676799999,-34.564709458499998 145.879327776,-34.564507457 145.87891875199998,-34.5641024735 145.87886176000001,-34.563622472500001 145.87906073600001,-34.5630954445 145.87983372799999,-34.562583438499999 145.88049270399998,-34.561911426 145.88104966399996,-34.560973402 145.88141366400001,-34.560089416499999 145.88178864,-34.559673388500002 145.88224364800001,-34.559460398 145.882777632,-34.559524389499998 145.88347062400001,-34.559940380500002 145.8842776,-34.5605473655 145.884834592,-34.5607923795 145.88541459199999,-34.560878367499996 145.886187584,-34.560622346 145.88758556799999,-34.560206336500002 145.888312544,-34.559961341 145.88880153599999,-34.559577318 145.88893849599998,-34.559183323500001 145.88863152,-34.558351323 145.88849849600001,-34.557780302 145.88854352000001,-34.557300301 145.888850496,-34.556916296499992 145.88920352,-34.556863294 145.89071446400001,-34.557076284499999 145.89187443200001,-34.557364255499998 145.89294243200001,-34.5573212615 145.89427241600001,-34.557225246500003 145.89528438400001,-34.557151228 145.89581836799999,-34.557289219499999 145.89619337600001,-34.557748223 145.896977376,-34.55881423 145.89735238399999,-34.55945322 145.89767139200001,-34.559560224 145.898148384,-34.559528200500004 145.89852336,-34.559357205 145.898853344,-34.558995197 145.89903536,-34.558334192 145.89926230399999,-34.557556193 145.89988732800001,-34.55698017699999 145.90035728000001,-34.556567164500002 145.900687296,-34.555917148500001 145.90106227199999,-34.5555121465 145.901608256,-34.5552981385 145.90215324799999,-34.555416131500003 145.90261926400001,-34.555789128500003 145.902903264,-34.556396132 145.90332425599999,-34.556833139 145.90407424,-34.557164141 145.90505123200001,-34.557196109 145.90662019199996,-34.55706808899999 145.90853014399997,-34.556993071499996 145.90925715200001,-34.556716052500001 145.90973513599999,-34.556301060500004 145.90998713600001,-34.555664031500001 145.91002112000001,-34.555013035 145.91011113600001,-34.554470041500004 145.91035008,-34.554107034499999 145.91072508799999,-34.553937019500005 145.91131609600001,-34.553873028 145.91212307200001,-34.553894007 145.91278307199997,-34.553948008500001 145.91341907200001,-34.553937001 145.91397603199999,-34.553733982 145.914806016,-34.553222975 145.91592,-34.552731966499998 145.91645398399999,-34.55261495399999 145.91689696,-34.552721939500003 145.91740896,-34.553115952500001 145.918033952,-34.554170952 145.91892096000001,-34.555482953500004 145.91935296,-34.555833954 145.91985296,-34.555908953 145.92109193600001,-34.555844924500001 145.922210912,-34.555512905 145.923222912,-34.555032885500005 145.924029856,-34.554500881 145.92454086399997,-34.554254868 145.92505283200001,-34.554329867 145.92549584,-34.554627865 145.92584784,-34.555320875 145.92631385600001,-34.556535881 145.92631385600001,-34.55723988 145.92605286400001,-34.558081889 145.925541888,-34.55907389599999 145.924990912,-34.559811916500003 145.92457094400001,-34.560131911 145.92371792,-34.560483929 145.92287696,-34.560770938 145.92251296000001,-34.56110194 145.922252,-34.561666948500005 145.92243398400001,-34.562177955500005 145.92282,-34.562625951500003 145.92368396799998,-34.562796947 145.92441097599996,-34.562806937 145.92579792000001,-34.562519928 145.92690089599998,-34.562401916500001 145.92767388799999,-34.562497894499998 145.928241888,-34.562817889 145.92900390399998,-34.5633619 145.92956086399997,-34.563670887 145.93024288000001,-34.56379887 145.93081088,-34.563766865 145.931526848,-34.563499854500002 145.93248182400001,-34.5631698515 145.93342480000001,-34.56298882899999 145.93416380799999,-34.562732826 145.93449376000001,-34.562401824 145.93461878400001,-34.5618048105 145.93458476800001,-34.561090821500002 145.93423177599999,-34.5600358035 145.93432275200001,-34.559299799499996 145.934723744,-34.558898793499999 145.93534873599998,-34.558834783500004 145.93596272,-34.559122773 145.936860704,-34.559985779500003 145.937860704,-34.560721765 145.93845171199999,-34.56068976 145.93997468800001,-34.560220748 145.94095264000001,-34.559751717499999 145.94179360000001,-34.559580722 145.94296460800001,-34.559377703 145.944589568,-34.558972682499999 145.945532544,-34.558631672 145.94623152,-34.558252644 145.94649350399999,-34.557804648 145.94654950399999,-34.557228650500001 145.946186528,-34.556706654500005 145.94535651199999,-34.555864645500002 145.944765504,-34.555384644500002 145.94412950399999,-34.554819654500001 145.943958528,-34.55417964699999 145.943958528,-34.553689656 145.94421952,-34.553327648 145.944810496,-34.553124629 145.94543548799996,-34.553124629 145.946186496,-34.553359616 145.94747046399999,-34.553806613 145.948175456,-34.553945603500004 145.94868643199999,-34.553753592 145.94919843199997,-34.553359597499998 145.949299424,-34.553240568500001 145.94985737600001,-34.552580581 145.95037539200001,-34.552244565500004 145.9508184,-34.552185550499999 145.95133836799999,-34.552263565 145.95209436799999,-34.552654544 145.95267036800001,-34.553239532500001 145.953329344,-34.5542605475 145.953800352,-34.555144533 145.954013344,-34.555965563 145.95422134399999,-34.556953555500002 145.954498368,-34.557402550500001 145.95503936,-34.557864551 145.95546934399999,-34.557994532 145.955961344,-34.557819540499999 145.95646732799997,-34.557298543500004 145.95724432,-34.556401515499999 145.95797929599999,-34.555692503 145.95864825599998,-34.555310478 145.95919625600001,-34.555225489 145.95980627200001,-34.555394486499992 145.96016726400001,-34.555719476 145.960202272,-34.556005486 145.96013225600001,-34.556357485500001 145.959855264,-34.55696149199999 145.95879430400001,-34.557800504 145.95821932800001,-34.558541521500004 145.95796131200001,-34.559252513499999 145.957899328,-34.559590527 145.95796134400001,-34.560078538500001 145.95821836799999,-34.560475548500001 145.95853036799997,-34.560696531 145.95955632,-34.560891521 145.960811296,-34.56102749599999 145.96166428800001,-34.561047494500002 145.96280124800001,-34.560988479500004 145.96371225600001,-34.560891465499999 145.96420425599996,-34.561021465 145.96474521599998,-34.561424469 145.965064224,-34.561847471499995 145.96545225599999,-34.562633462499996 145.965797248,-34.563185465499998 145.96628924800001,-34.563490475 145.96709424,-34.563510455 145.96748224000001,-34.56325645 145.96795420800001,-34.562859421500001 145.9680232,-34.562365434500002 145.968057184,-34.561832431 145.9677872,-34.561370430499998 145.9667192,-34.559907432 145.9664272,-34.559417422499997 145.96632416,-34.558760432 145.966358176,-34.5581164285 145.966629152,-34.557596412 145.96712112,-34.557115412 145.96857708799999,-34.556588384 145.96922908799999,-34.55638037 145.96965910399999,-34.556387381500002 145.970172064,-34.556497382499998 145.97035907200001,-34.556881368500001 145.97056006400001,-34.557525372 145.97053910400001,-34.5584353685 145.970803104,-34.559352376500001 145.97131609600001,-34.560256379 145.97176710400001,-34.561166375499994 145.97217212800001,-34.561898365 145.97274713600001,-34.5624313685 145.973662112,-34.562665375 145.97474409599997,-34.56268435599999 145.97541008,-34.562782350500001 145.97665107200001,-34.563335334 145.97746208000001,-34.563608338499996 145.97818003200001,-34.563424319 145.97862304,-34.5630403145 145.978734016,-34.562526310500004 145.978672,-34.561655293500003 145.97840099199999,-34.560692294500001 145.97811696,-34.559852302 145.978081984,-34.5590143075 145.97830396800001,-34.55835728 145.97878195199999,-34.557863274500001 145.979711936,-34.55756326 145.98084192,-34.55710224 145.98215888,-34.556790237500003 145.983636832,-34.55631821 145.98455984,-34.556045205499998 145.985259808,-34.556136188499998 145.985807808,-34.556318191500004 145.98629980800001,-34.556709189 145.9866088,-34.557005189 145.9868888,-34.556758195500002 145.98697577600001,-34.556474183499994 145.98750179199999,-34.556040173499994 145.987529792,-34.555880167 145.987281792,-34.555628178500001 145.98725478399999,-34.555467173 145.98750476800001,-34.555148177500001 145.98753276799999,-34.554942161500001 145.987374784,-34.554647179 145.98735174399999,-34.55426515399999 145.98772675199999,-34.553501159500001 145.98829872,-34.552767135 145.98906371199999,-34.55218512499999 145.989634688,-34.551811110500005 145.99013568000001,-34.551253113500003 145.99040166399996,-34.550387091499999 145.99037065600001,-34.549748101500001 145.99002665599997,-34.548984088499999 145.98965865599999,-34.548360102 145.98963465599999,-34.548008102499999 145.98983065599998,-34.547685092500004 145.99025366399999,-34.54745708 145.99087763200001,-34.547380083 145.99198163200001,-34.547372054 145.993187584,-34.547233045 145.99403254399999,-34.546924039499999 145.99539552,-34.546109022 145.99623251200001,-34.545800997 145.99703948800001,-34.545668981 145.99746950400001,-34.545698988 145.99762048,-34.544701986 145.99805446400001,-34.544774968499993 145.99877347200001,-34.54505097 145.999464448,-34.545417973 146.00124745599999,-34.546901950500001 146.00132646399996,-34.546966941 146.001566432,-34.547280941499999 146.00164342400001,-34.547379953499998 146.002098432,-34.547896954499997 146.00245142399999,-34.548264956499992 146.00242742399999,-34.548572944500002 146.00248144,-34.548973950499999 146.00265945599998,-34.549603949500003 146.00283747200001,-34.550005954500001 146.00300246399999,-34.550337955499998 146.00326444800001,-34.550681944499999 146.003540448,-34.550968953500004 146.00405043200001,-34.551473948 146.00481401600001,-34.552161001 146.006092416,-34.553311941499999 146.00666300799998,-34.553818009 146.00751638400001,-34.554575935500004 146.008435392,-34.555379927 146.00911737600001,-34.55472092 146.01529929599997,-34.558419847 146.01838528,-34.56132283 146.01877328,-34.561687816500005 146.02184121600001,-34.562760779499996 146.02369619199999,-34.5633977715 146.02734614400001,-34.565498724 146.028147136,-34.565981722 146.028013152,-34.566661726500001 146.02772316799999,-34.568245733499992 146.02412924799998,-34.567219779 146.02407923199996,-34.567466772499998 146.02165049600001,-34.5840078815 146.022248448,-34.584025882 146.022734464,-34.58401985099999 146.02312947199999,-34.58408186299999 146.02346844799999,-34.584293854500004 146.02385747199997,-34.5848158505 146.024252416,-34.585315831499997 146.02467542400001,-34.585748842500003 146.02529142399999,-34.586239832499992 146.025724416,-34.586411827 146.02621744000001,-34.586513817499998 146.026704384,-34.586557810500004 146.02712140799997,-34.586657803 146.02740339199997,-34.586881801 146.02756739199998,-34.587206809 146.02759539199999,-34.587583802 146.02745340799999,-34.587990802 146.02722944000001,-34.588287819499996 146.02677641599999,-34.588509819500004 146.026255424,-34.588604817 146.025725472,-34.58854484 146.02519446400001,-34.588462829499996 146.024465472,-34.588454856 146.02395849600001,-34.588511854499998 146.02373948799999,-34.588641854 146.02353648,-34.588887867 146.02348550400001,-34.589215872 146.023513536,-34.589598877500002 146.02369753599999,-34.590247876 146.02384153599999,-34.590683865500004 146.02381852799999,-34.590955889500002 146.02361152,-34.591396892500001 146.023196544,-34.591784893 146.02287056,-34.592337913500003 146.022690592,-34.592918906 146.0226416,-34.593385938499999 146.022692576,-34.593828921 146.02283459200001,-34.594137926500004 146.023176576,-34.594504929499998 146.02346560000001,-34.594650931499999 146.023751584,-34.5946529295 146.02465155199999,-34.594574915 146.02518156799999,-34.59464088599999 146.025571552,-34.594846883500004 146.025941536,-34.5951249015 146.02631152000001,-34.595670892 146.026416544,-34.596345901500001 146.026595552,-34.597147913500002 146.02687555200001,-34.597610913 146.02725456,-34.598004907499998 146.027768544,-34.598336908500002 146.028814528,-34.5988449 146.02937353600001,-34.598909890500003 146.02997952000001,-34.598829878 146.030353504,-34.598586880500001 146.030874496,-34.598103864 146.031107456,-34.59756285 146.03137545600001,-34.596588843500001 146.03153843199996,-34.596098834 146.03176944000001,-34.595030810499999 146.03208940799999,-34.593199791499991 146.03230137599999,-34.591483787 146.03223235199999,-34.5908677555 146.031814336,-34.589941756500004 146.03176332800001,-34.589503769 146.03189632,-34.588947751500001 146.032229312,-34.588394749500004 146.032666304,-34.588066744500004 146.033038304,-34.588039734500001 146.033354304,-34.588135731 146.033558304,-34.588360728 146.033736288,-34.58869173 146.03413830400001,-34.589917743500003 146.03437228799999,-34.590596749 146.034593312,-34.590971744 146.03488230399998,-34.591128753500001 146.03510531200001,-34.591214741500004 146.035491296,-34.591192745 146.03603830399999,-34.5909977365 146.03674528,-34.590561728499999 146.03700528,-34.590330719 146.037428224,-34.589576714499998 146.03818419199999,-34.588341691499998 146.03886316800001,-34.58743768899999 146.039305184,-34.586948678500001 146.03974713599999,-34.586100675499992 146.03978115199999,-34.585634679 146.03969315200001,-34.585130665 146.039497152,-34.584548673500002 146.03934515200001,-34.584017668 146.039372128,-34.583589670500004 146.03948614399999,-34.583194677 146.03994112000001,-34.582612648499996 146.040528096,-34.58203165599999 146.041125088,-34.581429629 146.04166803199999,-34.580241633 146.04224604800001,-34.579419622499998 146.04291401599997,-34.578931611 146.043608,-34.578601589500003 146.04468396799999,-34.578388599 146.04541596799999,-34.578173573499996 146.046649952,-34.5776145775 146.04736790399997,-34.577400551 146.04804691199999,-34.57739156 146.04877190400001,-34.577565552499998 146.04929987200001,-34.57785354199999 146.04960387200001,-34.578098537500004 146.04998387200001,-34.578674535 146.05032188800001,-34.579563534 146.05060992,-34.580424542499998 146.05083292800001,-34.581253564500003 146.050855904,-34.581754563 146.050742912,-34.582172552 146.05043392,-34.582525550500002 146.049867936,-34.582815556500002 146.04934096,-34.582922579 146.04831897599996,-34.582951587 146.04745398399999,-34.582929590500001 146.046612,-34.583056593 146.045931008,-34.583336609 146.044862048,-34.583921616 146.04412006399997,-34.584627631499991 146.043556064,-34.5853996365 146.04331408,-34.585891625500004 146.04320409600001,-34.586480647 146.043222112,-34.587079658500002 146.043287104,-34.58751365 146.04357209599999,-34.587870644500001 146.04407910399996,-34.588219647 146.044504096,-34.588385629 146.04509206399999,-34.588489636 146.045877088,-34.588401631499998 146.04685305599997,-34.588195615499998 146.04745305599999,-34.588176616 146.04813404800001,-34.588278606499998 146.048576,-34.588206623 146.04890902400001,-34.588013594 146.04927702399999,-34.587432601499998 146.04944396799999,-34.5870375895 146.04969097599999,-34.5868786005 146.05045699199997,-34.586541586 146.050969952,-34.586441575 146.05150793600001,-34.5865345745 146.05181993599996,-34.586774575 146.05194096,-34.587144575 146.052117952,-34.587851571 146.05241593599999,-34.588458574500002 146.05265696000001,-34.58895258 146.053098944,-34.589279586 146.053515936,-34.58939658 146.05392896000001,-34.5892865605 146.054659904,-34.588977555 146.055920896,-34.588384537499998 146.05666889599999,-34.588247545 146.057440864,-34.588221534 146.058128864,-34.588301528 146.05851785600001,-34.588462515 146.05877385599999,-34.588808520500002 146.05896784000001,-34.589188529 146.05925785599999,-34.589440517500002 146.05968384,-34.589656523500004 146.060330816,-34.58982652 146.06120281599999,-34.590027504 146.061628832,-34.590237497499999 146.061906816,-34.590583503 146.06206883199999,-34.591203512 146.06221881600001,-34.5919555 146.062472864,-34.59253950799999 146.06287286400001,-34.593300505500004 146.06302886399999,-34.593986504 146.062878848,-34.594405529 146.062665888,-34.5949125215 146.06206089599999,-34.595441529 146.061259904,-34.595812546499999 146.06019395199996,-34.596170558499999 146.05984793600001,-34.596407562 146.059717952,-34.596697568 146.05971193600001,-34.597141568 146.05989993599999,-34.597637553 146.06054793600001,-34.598297559 146.061114944,-34.599171554500003 146.061731968,-34.60040655899999 146.062046976,-34.601195565499999 146.062386976,-34.601919563 146.06276598400001,-34.602314556499998 146.063184992,-34.602519555 146.06397299199998,-34.602592556 146.06490195200001,-34.602564547 146.06634892799997,-34.602329523 146.06684492799999,-34.602112518 146.067090912,-34.601881527 146.06726492799999,-34.60157949599999 146.067540896,-34.601465499 146.06814089599996,-34.601441504500002 146.06859388800001,-34.601557499500004 146.068969888,-34.601769509500002 146.06931289600001,-34.6021305 146.069552896,-34.602737503500002 146.069624928,-34.60389651 146.06977292799999,-34.605126501 146.06998992000001,-34.606050502 146.07021094399997,-34.607134528 146.07045395200001,-34.607514518 146.07097296000001,-34.60790953 146.07199696,-34.608345501 146.07334192,-34.608771500499998 146.075239872,-34.609263489500002 146.07650288,-34.609535458 146.07754288000001,-34.60967147 146.07902985600001,-34.609951449 146.08044681600001,-34.610005450500005 146.08111081600001,-34.609936427 146.08163580799999,-34.609712429 146.08216179199997,-34.609179407 146.0825128,-34.608470413 146.08279376,-34.607779401 146.08307376,-34.607464401500003 146.08366972799999,-34.60722939599999 146.08432672,-34.607154378499999 146.084935712,-34.607241365500002 146.08531372799999,-34.607424367500002 146.085655712,-34.607691378 146.08596272,-34.608042378500002 146.08609273600001,-34.608534367499999 146.08602473600001,-34.609062376 146.085803712,-34.609486396 146.085387744,-34.610190395 146.08529475200001,-34.610552384500004 146.08532774400001,-34.61079038699999 146.085510752,-34.611038398 146.085952768,-34.611314399500003 146.08658476799997,-34.611580392500002 146.08717276799999,-34.612021395500001 146.08771574399998,-34.612763393500003 146.08813875199999,-34.61356239 146.08847280000001,-34.614600388 146.08885577599997,-34.615246408 146.08927878399999,-34.615673388 146.09040880000001,-34.616468388500003 146.09109280000001,-34.617047401500002 146.092121792,-34.617777393 146.09258678399999,-34.618311395500001 146.0928128,-34.618530398499999 146.09323974399999,-34.618791396500001 146.09417776,-34.619222372499998 146.09483075200001,-34.61972437 146.09524774400001,-34.620201374 146.095495744,-34.6208413815 146.095496768,-34.621282366 146.09530480000001,-34.621739371499999 146.0948288,-34.622250397 146.09427081600001,-34.622651384500003 146.093540832,-34.623015409 146.093237824,-34.62326342 146.09315084799999,-34.623575404 146.09295984,-34.6240214205 146.09245385599999,-34.624828427499999 146.09231587199997,-34.625423424499992 146.092317888,-34.626333439499994 146.09239888,-34.626814439500002 146.09289689600001,-34.627842447500001 146.094220896,-34.629416427500004 146.095139872,-34.630521432500004 146.09665788800001,-34.6317214165 146.09802889599999,-34.632397406500004 146.09837385599999,-34.632442417 146.09881385599999,-34.632303389500002 146.09912985599999,-34.631966393500001 146.099294848,-34.631598391499999 146.09915184,-34.631223396500005 146.09846985600001,-34.630761396 146.09691385599999,-34.629810403500002 146.096726848,-34.629369419 146.09668985600001,-34.628912413500004 146.09701184,-34.628553384 146.097592832,-34.628263396500003 146.09812780799999,-34.62815038 146.09927177599997,-34.628163367 146.10038777599999,-34.628171359 146.10117974400001,-34.6280383625 146.102319744,-34.627686344499999 146.10475369599999,-34.62701729199999 146.10528268799999,-34.626977295 146.10579865599999,-34.6270532745 146.106210656,-34.627308278500003 146.106380672,-34.6275722735 146.106393696,-34.627882278 146.106056704,-34.628591309 146.10520272,-34.6295623 146.10486873599999,-34.63020832 146.10479772799999,-34.630613322 146.10490976,-34.630895317499998 146.10514272,-34.631097319 146.10563372799999,-34.6313463105 146.10609372799999,-34.631439291500001 146.10669971199999,-34.631354302499993 146.10747168,-34.630967282500002 146.10823468800001,-34.630463287 146.10887465600001,-34.630261267 146.10941267199999,-34.630320263500003 146.11037164800001,-34.63074626299999 146.11114864000001,-34.630957237 146.11185763200001,-34.631020248 146.11268761599999,-34.630882219500002 146.11343158400001,-34.630523227 146.11400860800001,-34.6300322 146.11467456,-34.629336193 146.11562454400001,-34.62852519 146.11697251199999,-34.627688157500003 146.11886246399999,-34.626986138 146.11997942400001,-34.626552109500004 146.12060144,-34.626544117500003 146.12130540800001,-34.626729099 146.12206739199999,-34.626907106 146.123075392,-34.626888069499998 146.12418236799999,-34.62678008499999 146.12491136,-34.6267530565 146.125428352,-34.626896061499998 146.125924352,-34.627389068 146.12632435200001,-34.6276830515 146.12732534400001,-34.627974038 146.12807830400001,-34.628025042499999 146.12934432,-34.628031018 146.13013526399999,-34.627871011499998 146.13095728,-34.627466009500004 146.13162124799999,-34.62706898099999 146.132056256,-34.626619986 146.132357216,-34.625894971 146.1323032,-34.625060972500002 146.1318192,-34.624478962499992 146.13110022399999,-34.623900967 146.12960524799999,-34.623086985500002 146.12897523199999,-34.622683981500003 146.128733248,-34.62237197899999 146.128733248,-34.621960983 146.12918220799997,-34.621544992 146.129937216,-34.620990972500003 146.13023318399999,-34.620393959 146.13042819200001,-34.620146965499998 146.13092118399999,-34.619870945500004 146.13160614399999,-34.6197899525 146.13207913599999,-34.6198279515 146.13246016,-34.619950939500001 146.13270115200001,-34.620201929 146.132681152,-34.620612925 146.13279113600001,-34.621149924499996 146.13313014400001,-34.621649924 146.13354614400001,-34.622071927500002 146.134067136,-34.6223979345 146.13454915200001,-34.622540939499999 146.13521315199998,-34.622492913500004 146.13592912,-34.622172919 146.13676307200001,-34.621501887 146.13789507199996,-34.620903874500002 146.13875504000001,-34.620615866500003 146.13935504,-34.620546861499996 146.13982003199999,-34.620584860499996 146.14009500799997,-34.6207418515 146.140208032,-34.6210008515 146.14013904000001,-34.621517852499998 146.139817056,-34.622248861500005 146.13943008000001,-34.622918876 146.139412096,-34.62314687 146.13977408,-34.623764881 146.13995808000001,-34.624011874499999 146.14021808000001,-34.62487987599999 146.140212096,-34.625700869 146.140144128,-34.626588887499992 146.14021811200001,-34.627204900500004 146.14043312000001,-34.627612899500001 146.14088412800001,-34.62798388 146.14148112000001,-34.628158871499998 146.143857088,-34.628614859500004 146.144837056,-34.628579839 146.145377056,-34.628439831 146.14634003200001,-34.627894821 146.147020032,-34.627818823 146.15010995200001,-34.628525782 146.15108396799999,-34.628618763 146.15195593600001,-34.628589755 146.152680928,-34.62852075 146.15338492800001,-34.628327739500001 146.15374188800001,-34.627940719500003 146.15413289599999,-34.627053718500001 146.154648864,-34.626391714499995 146.156106816,-34.625207696 146.156456832,-34.624628683 146.15665478399998,-34.624132679499994 146.15661980799999,-34.623822675 146.1560208,-34.622821677 146.15471580799999,-34.621129685500001 146.15465980799996,-34.620819681 146.15484176000001,-34.619896679 146.15516476799999,-34.619237672 146.15563676799999,-34.618848654 146.15630473599998,-34.618618662 146.156847744,-34.618599644 146.15736473600001,-34.61871464 146.15781472,-34.6190306385 146.15813673599999,-34.619441634499999 146.158232736,-34.61994563 146.158120736,-34.620451642 146.157961728,-34.621069653 146.157975744,-34.621446646 146.15816873599999,-34.621804658 146.15853372799998,-34.622154659499998 146.159371744,-34.622586634500003 146.15973673600001,-34.622626631500005 146.16039872,-34.622344636 146.16106371199999,-34.621936618500001 146.16213065599999,-34.62165059 146.16315968000001,-34.621620601499991 146.16385264,-34.621560587499999 146.16493363199999,-34.621246568499998 146.16529360000001,-34.621008566 146.16568960000001,-34.620399564499998 146.16596656,-34.61940654 146.166107584,-34.618544551 146.16652054400001,-34.617729515 146.166938528,-34.616415497 146.16727952,-34.615758506500001 146.16792748799998,-34.615217492500001 146.16918147199999,-34.614612468499999 146.16967344,-34.614190465 146.16999244799999,-34.613686451 146.1700104,-34.6131954425 146.169524416,-34.612132451 146.16920441600001,-34.611531441499999 146.1689944,-34.610688452 146.16903139199999,-34.610022433499999 146.169432384,-34.609345426 146.16984137599999,-34.6090244325 146.17027536000001,-34.608935410500003 146.17122233599997,-34.60905542 146.172889312,-34.609465398499992 146.17369532800001,-34.609737367 146.17477132799999,-34.610233370499998 146.175588288,-34.610699367 146.176106272,-34.610842353500004 146.17669929600001,-34.6108453505 146.17726528,-34.610766355499997 146.17774624,-34.61053734399999 146.177928256,-34.61040333 146.17855024,-34.609944345 146.179617216,-34.609270316 146.1803632,-34.609010298500003 146.181248192,-34.608954280500001 146.182159168,-34.609069276499994 146.18267814399996,-34.609295291 146.18349216,-34.609933282 146.184522144,-34.610916261 146.18517116800001,-34.611545261 146.18539616000001,-34.61205826599999 146.18540518399999,-34.612523282 146.18518019199999,-34.61307029 146.18446620799998,-34.613850305500002 146.18406822399999,-34.614683305 146.18390524799997,-34.615146304500001 146.18386825600001,-34.615446319 146.18400425600001,-34.615777321 146.184347264,-34.616160326500001 146.18498425600001,-34.616512307500003 146.186381248,-34.617026293 146.18684624,-34.617391298 146.18719824,-34.617832301 146.18730025599999,-34.618335297500003 146.18723324800001,-34.6189193055 146.18689628800001,-34.619578294 146.18624329599999,-34.6205353175 146.18593731199999,-34.621323325 146.18578432000001,-34.621929329499999 146.18582931200001,-34.622400339500004 146.18590531199999,-34.622621340500004 146.186249312,-34.623354347500005 146.18654032000001,-34.6236163445 146.18718432,-34.624012337 146.18792931199999,-34.624505325 146.18870732799996,-34.624788319499999 146.18932432,-34.624891327500002 146.18989532799998,-34.624822304 146.19018128,-34.6244693055 146.19107225600001,-34.623242274500001 146.19157724799999,-34.622736281 146.19277123200001,-34.622189273 146.19425622399999,-34.622013245499993 146.196062176,-34.621867225 146.197702144,-34.621468217 146.199066144,-34.621333185499999 146.200290112,-34.621400174 146.20152512000001,-34.621633163 146.20282908799999,-34.621748159 146.20388908800001,-34.622059144 146.20480310400001,-34.622329133 146.20554009599999,-34.622353109 146.20664806400001,-34.622310115 146.207407072,-34.62237109099999 146.207992064,-34.622663095 146.20883206400001,-34.623145094 146.20952406399999,-34.623612071 146.21013603200001,-34.623837086500004 146.21075904,-34.62386208 146.21140502399999,-34.623620063 146.21176300799999,-34.623282068 146.211892,-34.622959058 146.211828,-34.6226050605 146.21131398399999,-34.621941058499999 146.21060598400001,-34.621229067500003 146.21027100799998,-34.620693067 146.210184,-34.620284069 146.21035500799999,-34.619910054500004 146.21089795200001,-34.619525051 146.21140396800001,-34.61945205 146.212071968,-34.619576037 146.21280694399999,-34.619826027500004 146.21378694399999,-34.6202340265 146.21433094400001,-34.620238022500004 146.21487788799999,-34.620025013500005 146.21521990400001,-34.619638012 146.215636864,-34.618666984 146.21630288,-34.617732993 146.216888832,-34.61735896 146.21769180800001,-34.617087953500004 146.21858179200001,-34.616689944500003 146.219292768,-34.616113928499999 146.22036972800001,-34.614922917 146.22142169599999,-34.614023891 146.22224464000001,-34.61300887 146.22296265599999,-34.612099854 146.22345161600001,-34.61154185699999 146.223939616,-34.611295844 146.224488576,-34.611182846 146.22509558399997,-34.611152839 146.225703552,-34.61117182 146.226400544,-34.611339818499999 146.22692656,-34.611531811500001 146.22732656,-34.611847828499997 146.22757856000001,-34.612260822499998 146.22770153599998,-34.612713813499994 146.22763459199999,-34.613285815 146.227323584,-34.613805813 146.22695561599997,-34.614393835500003 146.226695616,-34.615080833 146.22655264,-34.61580385 146.22656665599996,-34.6164798585 146.22667964799999,-34.616777856499994 146.22689465600001,-34.617157865 146.227293632,-34.617451848500004 146.22773964799998,-34.617567862 146.228195648,-34.6174558445 146.2292176,-34.61709182 146.22967360000001,-34.61698481599999 146.22841270399999,-34.623458872500002 146.227399808,-34.628654912 146.227367808,-34.628833918 146.22632691199999,-34.634075948499998 146.22597792,-34.635835964500004 146.22589792,-34.636430961500004 146.225626976,-34.637871982 146.225557952,-34.638239984 146.22343715199997,-34.649519082499999 146.223403168,-34.649699087500004 146.22305318400001,-34.6515630735 146.222898176,-34.652386101499999 146.221461312,-34.660390145 146.22127635199999,-34.66142115 146.22094236800001,-34.663283175 146.218903552,-34.674639252 146.21875856,-34.675077239499998 146.21872956799999,-34.675165244 146.21704569600001,-34.684950319500004 146.21687574399999,-34.685938330500001 146.21564281600001,-34.693100402 146.215602848,-34.693328396 146.215256864,-34.693286401 146.21385699199999,-34.701157448 146.21316604800001,-34.705035492 146.2113152,-34.7154356 146.211092224,-34.716688623499998 146.2090064,-34.728402749499999 146.20770649599999,-34.73570383 146.20753548799999,-34.736641854 146.20613161599999,-34.744253938 146.20533868800001,-34.748459968500001 146.20471971200001,-34.751758999499998 146.20468572799999,-34.7519370065 146.20351881600001,-34.758216054500004 146.203053888,-34.760708078500002 146.202658912,-34.762825089</coordinates></LinearRing></outerBoundaryIs><innerBoundaryIs><LinearRing><coordinates>146.01026336000001,-34.557013902500003 146.010108,-34.558194998 146.01001500800001,-34.558901994 146.009588,-34.562139993500004 146.009336448,-34.562116942499998 146.00877945600001,-34.56206394 146.008761472,-34.562336944500004 146.008716,-34.562690997499999 146.00867148799998,-34.563051969500002 146.00862601599999,-34.563410999 146.00857948800001,-34.563776966 146.008535008,-34.564136994500004 146.00849648,-34.564406965 146.00845152,-34.564763959499999 146.00842252800001,-34.564994969 146.008394528,-34.56499197199999 146.008213536,-34.566477984500004 146.006504576,-34.566641006499999 146.00458060799997,-34.566815036 146.00433660799999,-34.566855033 146.00296566399999,-34.5670770515 146.00300764799999,-34.566992062499999 146.00292966399999,-34.56656306599999 146.00283164800001,-34.566289062500005 146.00261766400001,-34.565958060500002 146.00240265599999,-34.565762053 146.00208966400001,-34.565528065 146.001542656,-34.565235062 146.00142566400001,-34.565177064499998 146.00116665600001,-34.565102084 146.00022867199999,-34.564677083500001 145.99959068800001,-34.564305085500003 145.99905968,-34.564093094 145.99831568,-34.563739096500001 145.997500704,-34.563562088499999 145.99645571199997,-34.563597109 145.99540675200001,-34.5639291285 145.99489776,-34.563916141500002 145.99410073599998,-34.56345514 145.99353376,-34.562535135 145.99348976,-34.562223132500002 145.993237792,-34.56385215 145.99313478400001,-34.563843159 145.99297481599999,-34.564832169 145.992911808,-34.565237171 145.99284780799999,-34.565650165 145.992798816,-34.565971177 145.99277081599999,-34.566150164500002 145.992429888,-34.568646184500004 145.98919289599999,-34.568302232499995 145.98809292799999,-34.568184239499999 145.98062105599999,-34.567387315 145.980066112,-34.570511336 145.97952416000001,-34.573560376499998 145.97978316800001,-34.573704380500004 145.981224,-34.573874007 145.983924,-34.574192003500002 145.98589408000001,-34.574424308 145.986624,-34.574507003 145.98932499200001,-34.574811254 145.988824,-34.575365255 145.98873702399999,-34.575507261 145.99171100800001,-34.577569252499998 145.992228,-34.577948003 145.99271299200001,-34.577948003 145.993188,-34.577948003 145.99480195199999,-34.577948206499997 145.99823788800001,-34.578388173500002 145.99821286400001,-34.578094171499998 145.99812387200001,-34.577598168 145.99809088000001,-34.577355170499999 145.99751286399996,-34.57671316499999 145.99734688000001,-34.576620165500003 145.99707788800001,-34.576346162 145.99684188800001,-34.57615317 145.99664588799999,-34.575794177500001 145.99648188800001,-34.575456164 145.99660387200001,-34.575222176 145.996776864,-34.575035178 145.99809884800001,-34.574326147 145.99870182399999,-34.57421215 145.99940380800001,-34.574147141 146.000578784,-34.573984119 146.00110076799999,-34.573837118 146.00124579199996,-34.573792107500005 146.00135977599996,-34.573804114 146.00141577599999,-34.573767114 146.001546752,-34.573607107500003 146.00158374399999,-34.573473112 146.001994752,-34.573454094 146.002086752,-34.573397095499999 146.00225875199999,-34.573317101500002 146.00237075199999,-34.573177093499993 146.002558752,-34.572990095500003 146.00267971199997,-34.572728098500001 146.00276371199999,-34.572429083 146.00277372799999,-34.572195076500002 146.00278870400001,-34.572024081 146.00278870400001,-34.571856082499998 146.00265171199999,-34.571535070499998 146.00236172800001,-34.571253075 146.00217872,-34.571032092499998 146.00187372799999,-34.570597102 146.001781728,-34.570391104500004 146.00176672000001,-34.570204088 146.00182771199997,-34.569883076 146.001903712,-34.569788078500004 146.00222368,-34.569544082 146.002365696,-34.5695020685 146.00252467199999,-34.569440075 146.002612672,-34.5693870725 146.00283168000001,-34.569647071499993 146.003378688,-34.569842061500005 146.00429664000001,-34.569881059499998 146.00511766399998,-34.569764047 146.00595763199999,-34.56974403 146.00666060799998,-34.569725030500003 146.00740259200001,-34.569920002 146.00765657599999,-34.570213005 146.007988576,-34.570779012500005 146.0079496,-34.571228007500004 146.007832608,-34.571696020499999 146.00775462399997,-34.572106017499998 146.00771462399999,-34.572497015 146.007910624,-34.572692023500004 146.008183616,-34.572945029499998 146.00875062399999,-34.573237995500001 146.009140608,-34.57331601 146.009824576,-34.573707007499998 146.01009859199999,-34.573979993500004 146.01013657600001,-34.5744490055 146.01005859199998,-34.574761008 146.009805632,-34.575326997 146.009668608,-34.575834008 146.00962963200001,-34.576107012500003 146.00960963200001,-34.576360999 146.00978563199999,-34.576635002499998 146.01001961599999,-34.576830011 146.01052761599999,-34.577102997 146.01093763200001,-34.577240008 146.01134860799996,-34.577453979 146.01154361599998,-34.577519987 146.01241753599999,-34.572821949 146.01259552,-34.57186794099999 146.01275350399999,-34.571020955500003 146.01283049599999,-34.570836954500002 146.01290150400001,-34.570395951499997 146.01295750400001,-34.570046930499998 146.013292992,-34.568164999499999 146.01354544,-34.566741905499995 146.013558432,-34.566609908 146.01355043199999,-34.566475912500003 146.01346841599999,-34.566287915499998 146.01336544,-34.566176915500002 146.013252416,-34.566105912499999 146.01347942399997,-34.566092907 146.01352544,-34.565799904 146.01388339199997,-34.563069896 146.01389036800001,-34.562734898 146.013914368,-34.562319887500003 146.01404032,-34.560255879499998 146.012428352,-34.55885789 146.01158537599997,-34.558156888 146.01085436799997,-34.5575599115 146.01026336000001,-34.557013902500003</coordinates></LinearRing></innerBoundaryIs></Polygon>

	</Placemark>
</kml>