<?xml version="1.0" encoding="UTF-8"?>
<kml xmlns="http://www.opengis.net/kml/2.2">
	<Placemark>
		<Style>
			<LineStyle>
				<color>ff0000ff</color>
			</LineStyle>
			<PolyStyle>
				<fill>1</fill>
				<color>330000cc</color>
			</PolyStyle>
		</Style>
			<ExtendedData><SchemaData>
		<SimpleData name="STATE_2006">1</SimpleData>
		<SimpleData name="POA_2006">2192</SimpleData>
	</SchemaData></ExtendedData>
      <Polygon><outerBoundaryIs><LinearRing><coordinates>151.09787184,-33.927696886500001 151.10103977599999,-33.927207857500001 151.103601696,-33.926812827 151.10376268799996,-33.927623811499998 151.103790688,-33.927761821499999 151.10393472000001,-33.9284867995 151.10348774400001,-33.928556822 151.10245276800001,-33.928716828499994 151.10154876799999,-33.928855837500002 151.10136976000001,-33.9288838465 151.10072780799996,-33.928982858499992 151.09964780799999,-33.929148877499998 151.09894182400001,-33.929262874500004 151.09854281599999,-33.9293268845 151.09850281600001,-33.929325885499999 151.09700086399999,-33.929535916 151.095964896,-33.929681936500003 151.09483593600001,-33.929840944 151.09398096000001,-33.9300599655 151.09372896,-33.930124974500004 151.093498944,-33.930184988500002 151.09271699199999,-33.930496991 151.09179699200001,-33.930864012500003 151.090410048,-33.931420048500001 151.08915100799999,-33.929295046 151.08907203199999,-33.92911703899999 151.088820032,-33.928556063500004 151.08868700799999,-33.928336061499998 151.08843401599998,-33.927919053 151.08779801599999,-33.926871083500004 151.08734201600001,-33.926121075 151.08690403200001,-33.925400093 151.086670016,-33.924966101500004 151.086413024,-33.924539103 151.08614601599999,-33.924094104 151.08588323199999,-33.923656801 151.085826016,-33.923679926 151.08579900799998,-33.923642001 151.08526585600001,-33.922697761 151.08468444799999,-33.921713783 151.08494998399999,-33.92159912 151.08506697600001,-33.921544119499998 151.08452099199999,-33.920607131499999 151.08427398399999,-33.920182131 151.08402697599999,-33.919758129500003 151.083526944,-33.918900155 151.08319187199999,-33.918323121500002 151.08296256,-33.917918526500003 151.082795968,-33.917654161500003 151.08250096,-33.917143173 151.08169296,-33.915756172500004 151.08128096,-33.91590019499999 151.08125094399998,-33.91590519 151.08059795199998,-33.914772194500003 151.07979296,-33.913374205 151.07925059199999,-33.912327142 151.078731936,-33.91141120699999 151.07833091200001,-33.910702231500004 151.07831193600001,-33.91069222299999 151.078247936,-33.910655223 151.07818492800001,-33.910545222 151.077695936,-33.90969322299999 151.077200928,-33.908833232 151.07685392,-33.908230243 151.076704896,-33.907970244 151.07657123199999,-33.907774606499999 151.07677993600001,-33.907619151 151.07716512,-33.90736707 151.07729184,-33.907284097500003 151.07732387199999,-33.907299748500002 151.07743296000001,-33.907345832 151.07768819200001,-33.907499918500001 151.077908896,-33.907616283499998 151.07811372800001,-33.907712391 151.07832755199999,-33.90778224699999 151.07854931199998,-33.907845424500003 151.078771072,-33.907902034500005 151.07896188800001,-33.907931634499995 151.079160608,-33.90795459299999 151.07949539200001,-33.90795981 151.079964128,-33.907944159 151.08003792,-33.907941717 151.08060384000001,-33.907937314 151.081042336,-33.907930839 151.08138540799999,-33.907916242499994 151.08172812800001,-33.907928212 151.08199849600001,-33.907945676 151.082228896,-33.907982491 151.08242723199999,-33.908025503499992 151.08264467199999,-33.908089587500001 151.08271235199999,-33.90810966 151.08294960000001,-33.908193002499999 151.083202336,-33.908303244 151.08342748800001,-33.908406696 151.08359724799999,-33.908480918 151.08440112,-33.908842167499998 151.085131776,-33.909152135 151.08716339200001,-33.910045000499998 151.08858825600001,-33.910679920500002 151.091366752,-33.911928541 151.09269552000001,-33.912525684 151.09338492800001,-33.912829176499997 151.0937496,-33.912997563499999 151.09403616,-33.913129598 151.09442028800001,-33.913302295500003 151.09461107199999,-33.913376554500005 151.094785312,-33.913439824500003 151.095002048,-33.913500301 151.09515107199999,-33.913531085 151.095197888,-33.913539003 151.09531308800001,-33.913558539 151.09544124799999,-33.913571211499999 151.09557372799998,-33.9135732835 151.095813472,-33.913562757 151.09592076800001,-33.913553673500004 151.09601977599999,-33.913537375 151.09615296000001,-33.913507312500002 151.09629481600001,-33.91347033099999 151.09641539200001,-33.913432979500001 151.09654931200001,-33.913385101499998 151.09665731199999,-33.913340461 151.09677395200001,-33.913288809 151.09692515200001,-33.913212663 151.09709833599999,-33.913122660500001 151.09718940799999,-33.913070546 151.09725456,-33.913032399 151.096692768,-33.913627655 151.096449248,-33.913893148500001 151.09623072,-33.914109857500002 151.09633568000001,-33.914273989500003 151.09745667199999,-33.916179952 151.09740368000001,-33.916298962500001 151.09596569600001,-33.91690197 151.09616771200001,-33.917256966499998 151.09701468799997,-33.918712953499998 151.09822572799999,-33.920786933 151.09725574399999,-33.921198928 151.096411776,-33.9215589565 151.09662976000001,-33.921935949500003 151.09854377600001,-33.925244896499997 151.09707881599999,-33.9258359345 151.097346816,-33.926463917 151.09787184,-33.927696886500001</coordinates></LinearRing></outerBoundaryIs></Polygon>

	</Placemark>
</kml>