<?xml version="1.0" encoding="UTF-8"?>
<kml xmlns="http://www.opengis.net/kml/2.2">
	<Placemark>
		<Style>
			<LineStyle>
				<color>ff0000ff</color>
			</LineStyle>
			<PolyStyle>
				<fill>1</fill>
				<color>330000cc</color>
			</PolyStyle>
		</Style>
			<ExtendedData><SchemaData>
		<SimpleData name="STATE_2006">8</SimpleData>
		<SimpleData name="POA_2006">2905</SimpleData>
	</SchemaData></ExtendedData>
      <Polygon><outerBoundaryIs><LinearRing><coordinates>149.139839808,-35.425094101500001 149.139547808,-35.425343093 149.139030848,-35.425747096 149.132972,-35.430219156500002 149.132611008,-35.430469147 149.13183100800001,-35.430903175499992 149.131442048,-35.431090173500003 149.13107104,-35.431248163500001 149.13038403199999,-35.4314911795 149.12983408,-35.431644174500001 149.129279072,-35.431798168500002 149.128919072,-35.431910186 149.12843811199997,-35.432090191 149.12800512000001,-35.43228618 149.127726112,-35.432431183 149.12743811199999,-35.432598182500001 149.126929152,-35.43294219 149.12647315199999,-35.433342197 149.126207136,-35.433642193 149.12613913600001,-35.43371919 149.12586313599999,-35.434132202500003 149.125743008,-35.434356034 149.12564112000001,-35.434567988499992 149.12481017600001,-35.43547321199999 149.12461020799998,-35.435748214500002 149.12449420799999,-35.435942205499998 149.12440620800001,-35.436088207499999 149.12457619200001,-35.436181207 149.12498019200001,-35.436433214 149.12533718399999,-35.436687182 149.125657184,-35.436943185 149.125761184,-35.437213192500003 149.12589417599997,-35.437489194 149.12602816,-35.437726197499991 149.12620716799998,-35.437996186500001 149.128235168,-35.440604168500002 149.12946118400001,-35.442181145500001 149.129814176,-35.442681145 149.13014217599999,-35.44325113 149.13039417599998,-35.443809127 149.13050518399999,-35.444111139500002 149.13060716800001,-35.444443140499999 149.13074118399999,-35.4450461295 149.13080921599999,-35.445611138 149.13082112000001,-35.446071991499998 149.1308232,-35.4461521335 149.1307832,-35.446728131 149.13069619199999,-35.447255122 149.13060419199999,-35.44763411299999 149.129308256,-35.45218811 149.12620732799999,-35.453519129500002 149.12505337600001,-35.454015151500002 149.12297942399999,-35.455789153499992 149.122468416,-35.456226160500002 149.119500512,-35.459065170500004 149.11852352,-35.4596631645 149.11604057599999,-35.461181182 149.11601958399999,-35.461193188500005 149.115507584,-35.460843002 149.115307616,-35.460706213 149.10964064,-35.456822249 149.10785766399999,-35.453417268500004 149.10779264000001,-35.453293263 149.107718656,-35.453151257 149.09367779199999,-35.443251389 149.09366979199999,-35.443222399500002 149.09363779200001,-35.443169397 149.09360278400001,-35.443135394 149.093549792,-35.443105387 149.09348979200001,-35.4430924 149.09343382399999,-35.443098394 149.09338182400001,-35.443116394500002 149.09335382399999,-35.443135394 149.09336582399999,-35.443096396 149.09339676799999,-35.442994387 149.09342076799999,-35.442844389 149.093427776,-35.442718385500001 149.093426784,-35.442619392 149.093391776,-35.442197388499991 149.093336768,-35.441803394 149.093268768,-35.441446399500002 149.09317676800001,-35.441066391 149.09307577600001,-35.44072539899999 149.09294579199999,-35.440353401 149.092784768,-35.439959406500002 149.09266678399999,-35.439697409499992 149.092516768,-35.439399411499998 149.09233977599999,-35.43908641 149.092167776,-35.438811407500005 149.09195875200001,-35.438499405 149.091738752,-35.438203405 149.09167577599999,-35.438144408500001 149.09128579199998,-35.437692435 149.090826784,-35.43803043 149.09060876800001,-35.438176432 149.08980780799999,-35.438761420500001 149.08931180799999,-35.439131420500004 149.08899782399999,-35.439373437500002 149.08838284800001,-35.439854456 149.08752588799999,-35.440550444499998 149.08703888,-35.440963457 149.085191904,-35.439400466 149.08281494400001,-35.44011649 149.08198198400001,-35.440603502499997 149.081758976,-35.440673506499998 149.081477984,-35.440760512 149.08138499200001,-35.442101503 149.08142700799999,-35.442263507500002 149.08151900799999,-35.442616506 149.08152,-35.442621501 149.08150899200001,-35.442619503 149.08149801600001,-35.442618504 149.08148700800001,-35.442618504 149.081476,-35.442619503 149.08146499200001,-35.442620502 149.08145500799998,-35.4426225 149.081444,-35.442625497 149.081434016,-35.442628512500001 149.081424,-35.442632508500004 149.081414016,-35.442637503500002 149.08140601599999,-35.4426424985 149.08139699199998,-35.442648511 149.081388992,-35.442654505 149.08138201599999,-35.442661498 149.08137500800001,-35.442668509500002 149.08136899199999,-35.442675502500002 149.081364,-35.442683494500002 149.08135900799999,-35.442691505 149.081355008,-35.442700496 149.081352,-35.442708506500004 149.08135001599999,-35.442717497499999 149.08134899199999,-35.442726507 149.08134899199999,-35.442735498 149.08134899199999,-35.442744507500002 149.08135001599999,-35.442753498500004 149.081352,-35.442762508 149.081355008,-35.442771499 149.08135900799999,-35.442779509499999 149.08136300800001,-35.4427875015 149.08136899199999,-35.442795512 149.08137500800001,-35.442803504 149.08138099199999,-35.442810497 149.081388992,-35.442817508499999 149.08139699199998,-35.442823502499998 149.08140499199999,-35.442829496500003 149.081414016,-35.44283451 149.081424,-35.442838506 149.081434016,-35.442843501 149.081444,-35.442846498 149.08145401600001,-35.442848496 149.081470016,-35.442851511499995 149.08140704,-35.443854507499999 149.08139702400001,-35.443859502500004 149.081389024,-35.443864497500002 149.08137904,-35.44387051 149.081370048,-35.443875505 149.08136102399996,-35.4438805 149.08135203200001,-35.443885495 149.08134304000001,-35.443890508500004 149.081334048,-35.443895503500002 149.08132502399999,-35.4439004985 149.08131603199999,-35.443906511 149.08130704000001,-35.443911506 149.08129804800001,-35.443916501 149.081289024,-35.443921496 149.081280032,-35.443926509500002 149.08127104,-35.443932503500001 149.08126204800001,-35.443937498499999 149.08125302400001,-35.44394251199999 149.081244032,-35.443947507 149.08123504,-35.443953501 149.08122604799999,-35.443958496 149.08121702400001,-35.443963509499994 149.081209024,-35.443968504499999 149.08120003199997,-35.443974498500005 149.08119104,-35.443979512 149.08118204799999,-35.443984507 149.08117302399998,-35.443989502 149.081164032,-35.443995496 149.08115504,-35.4440005095 149.08114604799999,-35.444006503499999 149.08113702399999,-35.444011498500004 149.08112902400001,-35.444016512 149.081120032,-35.444021507 149.08111104,-35.444027501 149.08110204799999,-35.444032496 149.08109302400001,-35.444038508499993 149.08108403200001,-35.444043503499998 149.08107504,-35.444048498500003 149.08106704,-35.444054511 149.08105804799999,-35.444059506 149.08104902400001,-35.444064501 149.081040032,-35.444070495 149.08103104,-35.444076507499993 149.08102204799999,-35.444081502499998 149.08101404799999,-35.444086497500003 149.08100502399998,-35.44409251 149.080996032,-35.444097505 149.08098704,-35.444103499 149.08097904,-35.444108512500001 149.08097004800001,-35.4441145065 149.080961024,-35.444119501499998 149.080953024,-35.444125495500003 149.08094403199999,-35.444130509 149.08093504000001,-35.444136503 149.08092704000001,-35.444141498 149.08091804799997,-35.444147510500002 149.08090902399999,-35.4441525055 149.08090102400001,-35.444158499499999 149.08089203200001,-35.444163494500003 149.08088304,-35.444169507 149.080874048,-35.444174502 149.08086604799999,-35.444180496 149.08085702400001,-35.444186508500003 149.080849024,-35.444191503500001 149.080840032,-35.444197497499999 149.08083104,-35.44420351 149.08082304000001,-35.444208505 149.08081404800001,-35.444214499 149.080806048,-35.444220511499999 149.08079702399999,-35.444225506500004 149.08078803199999,-35.444231500500003 149.08078003200001,-35.4442364955 149.08077104,-35.444242508 149.08076304,-35.444248502 149.08075404799996,-35.444253497 149.08074604800001,-35.4442595095 149.080737024,-35.444265503499999 149.08072902399999,-35.444271497500004 149.08072003199999,-35.444276511 149.08071203200001,-35.444282505 149.08070304,-35.444288499 149.080692032,-35.444295510499998 149.08068403199997,-35.444301504500004 149.08067504,-35.444307498500002 149.08066704000001,-35.444313511 149.080658048,-35.444318506 149.08065203199999,-35.444322502 149.08064403200001,-35.444328496 149.08063504,-35.444334508499999 149.08062704,-35.444340502500005 149.08061904,-35.444346496500003 149.08061004800001,-35.44435151 149.080602048,-35.444357504 149.080593024,-35.444363498 149.08058502399999,-35.444369510500003 149.08057603200001,-35.444375504500002 149.080568032,-35.4443814985 149.08056003199999,-35.444386512 149.08055104,-35.444392506 149.08054304000001,-35.4443985 149.08053504,-35.4444045125 149.080526048,-35.444410506499992 149.08051804799999,-35.444416500500004 149.08051004800001,-35.444422494500003 149.08049904000001,-35.444430505 149.080490048,-35.4444355 149.08048204799999,-35.444441512499999 149.08047404800001,-35.444447506499998 149.08046604800001,-35.444453500500003 149.080458048,-35.444459494500002 149.08044902399999,-35.444465507 149.08044102400001,-35.444471501 149.080433024,-35.444477495 149.08042502399999,-35.444483507500003 149.08041702400001,-35.444489501500001 149.08040902400001,-35.444496494500001 149.080401024,-35.444502507 149.08039203199999,-35.444508501 149.08038403200001,-35.444514495 149.080377024,-35.444520507500002 149.08036902399999,-35.4445265015 149.08036102400001,-35.4445334945 149.08035203200001,-35.444539507 149.080345024,-35.444545501 149.08033705599999,-35.444551495 149.08032905600001,-35.444558506500002 149.080321056,-35.4445645005 149.08031305599999,-35.444570494499999 149.08030505599999,-35.444576507 149.08029705600001,-35.4445835 149.080289056,-35.444589512500002 149.08028208,-35.444596505500002 149.08027408000001,-35.4446024995 149.08026608,-35.444608512 149.08025907199999,-35.44461550499999 149.08025107200001,-35.444621499 149.080243072,-35.444628510500003 149.08023507199999,-35.444634504500002 149.08022806400001,-35.444641497500001 149.080220064,-35.44464751 149.08021206399999,-35.444654503 149.08020505600001,-35.444660497 149.080197056,-35.444667508500004 149.08019008,-35.444673502500002 149.08018208,-35.444680495500002 149.080175072,-35.444686508 149.08016707199999,-35.444693501 149.08016006400001,-35.444700512499999 149.080152064,-35.444706506500005 149.08014505599999,-35.444713499500004 149.08013808,-35.444720511 149.08013008,-35.444726505 149.08012307199996,-35.444733498 149.08011606400001,-35.444740509499994 149.08010806399997,-35.4447475025 149.08010105599999,-35.444753496499999 149.08009408000001,-35.444760508 149.080087072,-35.444767501 149.08007907199999,-35.444774512500004 149.08007206400001,-35.444781505500004 149.08006505599997,-35.444788498500003 149.08005808,-35.444794511 149.080051072,-35.444801504 149.08004406399999,-35.444808497 149.08003606400001,-35.4448155085 149.080029056,-35.444822501499999 149.08002208,-35.444829494499999 149.08001507200001,-35.444836506 149.080008064,-35.444843499 149.08000105599999,-35.444850510500004 149.07999408000001,-35.444857503499996 149.07998707199999,-35.444864496500003 149.07998105600001,-35.444871508 149.07997408,-35.444878501 149.07996707199996,-35.444885512500001 149.07996006400001,-35.4448925055 149.07995107199997,-35.444901496500002 149.07994505600001,-35.444908508 149.079939072,-35.444913503 149.07993305599999,-35.444920496 149.07992608000001,-35.444927507500005 149.079919072,-35.444934500500004 149.07991305600001,-35.444942511 149.07990608,-35.444949504 149.07989907199999,-35.444956497 149.07989305599997,-35.444963508500003 149.07988608,-35.444970501499995 149.07987907200001,-35.444978512 149.079873056,-35.444985505 149.07986608,-35.444992498 149.079860064,-35.445000508500002 149.07985408,-35.445007501500001 149.07984707200001,-35.445014494500001 149.07984105599999,-35.445021506 149.07983408000001,-35.445029498 149.079828064,-35.4450365095 149.07982105599999,-35.445043502499999 149.079815072,-35.445051494499999 149.07980905599999,-35.445058506 149.07980208,-35.445065499 149.07979606399999,-35.445073509499998 149.07979008,-35.445080502499998 149.07978406399999,-35.445088494499991 149.07977705600001,-35.445095506 149.07977107199997,-35.445103498 149.07976505600001,-35.445110509500005 149.079759072,-35.445118501499998 149.07975305599999,-35.445125494499997 149.079747072,-35.44513350499999 149.07974105599996,-35.445140498 149.07973507200001,-35.445148508500004 149.07972905599996,-35.445155501500004 149.07972307200001,-35.445163512 149.07971705599999,-35.445170505 149.07971107200001,-35.445178497 149.07970505599999,-35.445186507500004 149.07969907200001,-35.445193500500004 149.079693056,-35.445201511 149.07968707200001,-35.445208504 149.07968208,-35.445216496 149.07967606400001,-35.445224506500004 149.07967008,-35.445231499500004 149.07966406400001,-35.44523951 149.079659072,-35.445247502 149.07965305600001,-35.445254495 149.079647072,-35.445262505500004 149.07964105600001,-35.445270497500005 149.079636064,-35.445278508 149.07963008,-35.4452865 149.079625056,-35.445293511500005 149.07961907200001,-35.445301503499998 149.07961408,-35.445309495499998 149.07960806400001,-35.445317506 149.07960307199997,-35.445324499 149.07959705600001,-35.445332509499998 149.079592064,-35.445340501499999 149.07958608000001,-35.445348512 149.07958105599999,-35.445356504 149.07957507200001,-35.445364496 149.07957008,-35.4453725065 149.07956505600001,-35.4453794995 149.07956006399999,-35.445388509 149.07955408000001,-35.445395502 149.07954905599996,-35.4454035125 149.079544064,-35.445411504500001 149.07953907199999,-35.445419496500001 149.07953408,-35.445427507 149.07952905600001,-35.445435499 149.079524064,-35.445443509500002 149.07951808000001,-35.445451501500003 149.079513056,-35.44545951199999 149.07950806400001,-35.445467504 149.07950307199999,-35.445475496 149.07949808000001,-35.445483506500004 149.07949408,-35.445491498500004 149.079489056,-35.445500508 149.07948406400001,-35.4455085 149.079479072,-35.445516510499999 149.07947408000001,-35.4455245025 149.07946905599999,-35.4455324945 149.07946406400001,-35.445540505 149.07945907199999,-35.445548497 149.079455072,-35.445556507500001 149.07945008,-35.445564499499994 149.07944608,-35.44557251 149.07944105600001,-35.445581501 149.07943606399999,-35.445589511500003 149.07943107199998,-35.445597503499997 149.07942707199999,-35.445605495500004 149.07942208,-35.445613506 149.07941808000001,-35.445621498 149.07941305599999,-35.445630507499999 149.079409056,-35.445638499499999 149.07940406399996,-35.44564651 149.07940006399997,-35.445654502 149.07939507200001,-35.445663511500001 149.079391104,-35.445671503500002 149.07938710400001,-35.445679495500002 149.07938211199999,-35.445688505 149.079378112,-35.445696497 149.07937411200001,-35.445704507500004 149.07937011199999,-35.445713498499998 149.079366112,-35.445721509 149.07936108800001,-35.445729501 149.07935708799999,-35.4457385105 149.079353088,-35.4457465025 149.07934908799999,-35.445754494500001 149.079345088,-35.445763504 149.07934108800001,-35.445771496 149.07933708799999,-35.445779506500003 149.079333088,-35.445788497500004 149.07932908800001,-35.445796508 149.07932508799996,-35.4458045 149.07932108799997,-35.445813509499999 149.07931708799998,-35.445821501499999 149.07931308799996,-35.445830511 149.07930908799997,-35.445838503 149.07930611200001,-35.445847512500002 149.07930211199999,-35.445855504500003 149.079298112,-35.445864495500004 149.07929411200001,-35.445872506 149.079290112,-35.445881497 149.079287104,-35.445889507499999 149.07928310400001,-35.445898498499993 149.07927910399999,-35.445906509 149.079276096,-35.4459155 149.07927209600001,-35.445923510500002 149.07926908799999,-35.445932501500003 149.079265088,-35.445940512 149.07926211200001,-35.445949503 149.07925811199999,-35.445957495 149.079255104,-35.445966504499999 149.07925110400001,-35.4459744965 149.07924809599999,-35.445983506 149.07924508799999,-35.445992497 149.079241088,-35.446000507500003 149.07923811200001,-35.446009498500004 149.07923510399999,-35.446018508 149.079231104,-35.4460265 149.07922809600001,-35.4460355095 149.07922508799999,-35.4460435015 149.07922211199997,-35.446052511 149.079219104,-35.44606150199999 149.07921510400001,-35.446069512500003 149.07921209599999,-35.446078503500004 149.079209088,-35.446086495499998 149.07920611200001,-35.446095505 149.07920409600001,-35.446104496 149.07920108799999,-35.446113505500001 149.079197088,-35.446121497500002 149.07919510399998,-35.446130507 149.07919209600001,-35.446139498 149.07918908799999,-35.446147508500005 149.079186112,-35.446156499499999 149.07918310399998,-35.446165509 149.07918108800001,-35.446173501 149.07917811199999,-35.446182510500002 149.079175104,-35.446191501500003 149.07917209599998,-35.446200511 149.07917011200001,-35.446208503 149.07916710399999,-35.446217512499999 149.07916409599997,-35.4462265035 149.07916211200001,-35.446235494500002 149.07915910400001,-35.446243505 149.07915708799996,-35.446252496 149.079154112,-35.446261505499997 149.079152096,-35.446270496499999 149.07914908800001,-35.446279506 149.07914710399999,-35.446287498 149.07914409599999,-35.446296507500001 149.079142112,-35.446305498500003 149.079140096,-35.446314508 149.07913708799998,-35.446323499 149.07913510399999,-35.446331509499998 149.07913308799999,-35.4463405005 149.079130112,-35.44634951 149.07912908799997,-35.44635850099999 149.07912611200001,-35.446367510500004 149.07912409599999,-35.446376501499998 149.07912211199999,-35.446385511 149.079120096,-35.446393503 149.079118112,-35.446402512500001 149.07911609600001,-35.446411503500002 149.07911411200001,-35.446420494500003 149.07911209599999,-35.446429504 149.079110112,-35.446438495 149.079108096,-35.446446505499999 149.07910611200001,-35.4464554965 149.07910409600001,-35.446464506 149.07910211199999,-35.446473497 149.07910108799999,-35.446482506500004 149.07909910399999,-35.446491497499999 149.079097088,-35.446500507 149.079095104,-35.446509498 149.07909411200001,-35.446518507500002 149.07909209600001,-35.446529496499998 149.079085088,-35.446522503499999 149.07907811199999,-35.446514511499998 149.07893209599999,-35.446357520499994 149.07892508800001,-35.446350527500002 149.078918112,-35.446342517 149.07891110400001,-35.446334525 149.078904096,-35.446327513500002 149.07890211200001,-35.446324516499999 149.078892096,-35.446313527500003 149.07888508799999,-35.446306516 149.07887910400001,-35.446299523 149.078872096,-35.44629253 149.07886508799999,-35.446284519500004 149.07885811200001,-35.446276527500004 149.07885209599999,-35.446270515 149.07885209599999,-35.446269516 149.07884508800001,-35.446262523 149.07884009599999,-35.446256529 149.078838112,-35.44625553 149.07883308800001,-35.446248518499999 149.07883209600001,-35.446248518499999 149.07882009599999,-35.446234514 149.078813088,-35.446226522 149.07880710399999,-35.446219529 149.078806112,-35.446219529 149.07880009600001,-35.4462115185 149.07879708799996,-35.446209520499998 149.07879308799997,-35.446205524500002 149.07878908799998,-35.446200529500004 149.078780096,-35.44619052099999 149.078780096,-35.446189522 149.07877308799999,-35.446182529 149.078768096,-35.446176516500003 149.07876611200001,-35.446175517500002 149.078760096,-35.446168524500003 149.07875510400001,-35.44616151299999 149.07875411200001,-35.44616151299999 149.078747104,-35.446153521 149.07874108799999,-35.446146528 149.078735104,-35.446140515499991 149.07872908799999,-35.446132523500005 149.07872108800001,-35.446124513 149.078715104,-35.44611752 149.07870908800001,-35.446110527 149.078703104,-35.446103515499999 149.07869609599999,-35.446095523499999 149.078690112,-35.446088530499999 149.078689088,-35.446088530499999 149.07868310399996,-35.446081519 149.07867708800001,-35.446074526 149.078670112,-35.4460665155 149.07866310399999,-35.4460585235 149.078657088,-35.446052529500001 149.078657088,-35.4460515305 149.07865110399999,-35.446044519 149.07865011199999,-35.446044519 149.078645088,-35.446037526 149.07863811199999,-35.446030514500002 149.07863811199999,-35.446029515500001 149.07863209600001,-35.446023521500003 149.07862508799997,-35.446015529500002 149.07861811199999,-35.446007519 149.078612096,-35.446000526 149.07860611199999,-35.445992515500002 149.07859910400001,-35.445985522500003 149.07859308799999,-35.445978529500003 149.07858611200001,-35.445970519 149.078580096,-35.445963526 149.07857308800001,-35.445956514500004 149.078567104,-35.445948522500004 149.07856211199999,-35.445942528499998 149.078555104,-35.445935517 149.07854908799999,-35.445927525 149.078543104,-35.445920513499999 149.07853910399999,-35.445916517500002 149.07853609599999,-35.445911522500005 149.07852908800001,-35.445904529499998 149.078523104,-35.445897518 149.07851708800001,-35.445890525 149.07851110399997,-35.4458835135 149.07850409599999,-35.445876520500001 149.078501088,-35.445871525500003 149.07849811200001,-35.445867529499999 149.07849209599996,-35.445861517 149.07848611200001,-35.445853525 149.07848211199999,-35.445849529 149.078478112,-35.4458455145 149.07847209599998,-35.445838521500001 149.07846908799999,-35.445835524499998 149.078467104,-35.445831528500001 149.07846310400001,-35.445827514 149.07846009599999,-35.445823518 149.07845308799997,-35.445816525 149.07845011200001,-35.445812529 149.07844809599999,-35.445809513500002 149.07844108799998,-35.445801521499995 149.07843510399999,-35.445794528500002 149.07842908800001,-35.445787517 149.078422112,-35.445779525 149.07841609600001,-35.445772513499996 149.07841308799999,-35.445768517499992 149.078409088,-35.445764521500003 149.07840310399999,-35.445756529500002 149.078397088,-35.445749518 149.07839411200001,-35.445746521 149.078388096,-35.445738529 149.07838409600001,-35.445734514500003 149.07838211200001,-35.445731517500001 149.07837910399999,-35.445727521500004 149.07837308800001,-35.445720528500004 149.07836908799999,-35.445716514 149.07836611199997,-35.445712518 149.078363104,-35.445708522 149.07836009600001,-35.445705525 149.07835708799999,-35.445701529 149.078353088,-35.445697514500004 149.07834710399996,-35.445690521499998 149.07834508799999,-35.445686525500001 149.078342112,-35.445683528499998 149.07833811200001,-35.445679514 149.078329088,-35.44566752599999 149.07832310399999,-35.445660514499998 149.07831609600001,-35.445652522499998 149.078310112,-35.445645529499998 149.07830508800001,-35.445638518 149.078298112,-35.445631525 149.07829510400001,-35.44562653 149.078285088,-35.445615522499999 149.07827910399999,-35.445607530499998 149.078276096,-35.445604515 149.078274112,-35.445601518 149.07826710399999,-35.445593526 149.07825811199999,-35.445582518500004 149.07825510399999,-35.4455785225 149.07824809600001,-35.4455705305 149.078242112,-35.445563519 149.07823609600001,-35.445555527 149.078230112,-35.445548515500001 149.07822409600001,-35.4455405235 149.078218112,-35.445533530499993 149.07821209599999,-35.44552552 149.078206112,-35.445518527 149.07819910399999,-35.445510516500001 149.07819308800001,-35.445503523500001 149.07818710399999,-35.445495513 149.07818108800001,-35.44548852 149.078175104,-35.445480528 149.07817011199998,-35.445473516500002 149.07816310399997,-35.445466523500002 149.07815708800001,-35.445458513 149.07815110399997,-35.44545152 149.07815110399997,-35.44545052099999 149.07814508800001,-35.445443528 149.07814508800001,-35.445442529 149.078139104,-35.445436516500003 149.078139104,-35.445435517500002 149.07813308799999,-35.445428524500002 149.078127104,-35.44542151299999 149.07812108799999,-35.445413521 149.07812108799999,-35.445412522 149.07811510400001,-35.445406528 149.07810908799996,-35.445398517500003 149.07810310400001,-35.445391524499996 149.07809708799996,-35.445383514 149.07809110400001,-35.44537552199999 149.07809011200001,-35.44537552199999 149.07808508799999,-35.445368529 149.07807910400001,-35.445360518500003 149.07807811199999,-35.445360518500003 149.078073088,-35.445353525500003 149.078071104,-35.445350528500001 149.07806611199999,-35.445344516 149.078061088,-35.445338522 149.07805510399999,-35.44533053 149.078049088,-35.445323518500004 149.07804310399999,-35.445315526500004 149.078037088,-35.445307516 149.07803011199999,-35.445299524 149.078025088,-35.445292531 149.07801910399999,-35.445285519500004 149.07801308800001,-35.445277527500004 149.07801308800001,-35.445276528500003 149.07800710399999,-35.445270516 149.07800108800001,-35.44526252399999 149.07799510399997,-35.445254513500004 149.07799510399997,-35.445253514500003 149.07799011200001,-35.445247520500004 149.07798310399997,-35.445239528500004 149.07798310399997,-35.445238529500003 149.07797708800001,-35.445231518 149.077972096,-35.44522452499999 149.07796508800001,-35.445216514499997 149.07796009599997,-35.445209521500004 149.077959104,-35.445208522500003 149.07795411199999,-35.445201529500004 149.07794809599997,-35.445194518 149.077947104,-35.445193519 149.07794211199999,-35.445186526 149.07794108799996,-35.445185527 149.077936096,-35.445178515500004 149.07793011199999,-35.445171522500004 149.077924096,-35.445163530500004 149.077924096,-35.44516251299999 149.07791811199999,-35.445156519 149.07791811199999,-35.44515552 149.077913088,-35.445148527 149.07791209600001,-35.445147528 149.07790710399999,-35.445140516500004 149.07790611199999,-35.445139517500003 149.077901088,-35.445133523500004 149.07789510399999,-35.445125513 149.07788908800001,-35.445117521 149.07788310399999,-35.445110528 149.07787708800001,-35.445102517500004 149.07787708800001,-35.445101518500003 149.077871104,-35.445094525500004 149.07786508800001,-35.445087514 149.07786508800001,-35.445086515 149.07786009599999,-35.445079522 149.077859104,-35.44507852299999 149.07785411200001,-35.44507153 149.07785308800001,-35.44507153 149.077848096,-35.445064518500004 149.077847104,-35.445063519500003 149.07784211200001,-35.445056526500004 149.07784211200001,-35.445055527500003 149.077836096,-35.44504951499999 149.077836096,-35.445048516 149.07783011199999,-35.445041523 149.07783011199999,-35.445040524 149.077825088,-35.445033531 149.077824096,-35.445033531 149.07781910400001,-35.445026519500004 149.077813088,-35.445018527500004 149.07780710399999,-35.445010517 149.077802112,-35.445003524 149.077801088,-35.445002525 149.07779609599996,-35.444995513500004 149.07779510399999,-35.444994514500003 149.077790112,-35.444987521500003 149.077789088,-35.444986522499995 149.07778409599996,-35.444980528500004 149.077779104,-35.444972518 149.07777308799996,-35.444964526 149.07777209599999,-35.444963527 149.07776611200001,-35.444956515500003 149.07776108799996,-35.444949522500004 149.07776108799996,-35.444948523500003 149.077756096,-35.444941530500003 149.07775209600001,-35.444937516 149.07774908799999,-35.44493352 149.077744096,-35.444926527 149.07774310400001,-35.444925528 149.07773811199999,-35.444918516500003 149.077733088,-35.444910524500003 149.07773209600001,-35.444910524500003 149.07772710399999,-35.44490351299999 149.07772611199999,-35.444902514 149.077721088,-35.444895521 149.07771510399999,-35.444887529 149.07771510399999,-35.44488653 149.07771011200001,-35.444880517500003 149.07770409599999,-35.444872525500003 149.07770310399999,-35.444871526500002 149.07769811200001,-35.444864515 149.07769811200001,-35.444863516 149.07769308799999,-35.444856523 149.07769209599999,-35.444856523 149.07768611200001,-35.44484953 149.07768611200001,-35.44484853099999 149.07768108799999,-35.444841519500002 149.07768108799999,-35.444840520499994 149.07767510400001,-35.444833527500002 149.07767011199996,-35.444826516 149.07766908799999,-35.444825517 149.07766409600001,-35.444818524 149.07765811199997,-35.444810513500002 149.07765308800001,-35.444803520500002 149.07764710399996,-35.444795528500002 149.077646112,-35.444794529500001 149.07764108800001,-35.444787518 149.07764108800001,-35.444786519 149.07763609599999,-35.444779526 149.077633088,-35.44477553 149.07763011200001,-35.444771515500001 149.07762508799999,-35.444764522500002 149.07762409599997,-35.444763523500001 149.07761910400001,-35.444756530499994 149.07761308799999,-35.44474852 149.07761209599997,-35.44474852 149.07760809599998,-35.444741527 149.07760710400001,-35.444740528 149.07760211199999,-35.444733516500001 149.07760108799999,-35.4447325175 149.07759609599998,-35.444725524500001 149.07759110399999,-35.444717514 149.077590112,-35.444716515 149.07758508799998,-35.444710521 149.07758508799998,-35.444709522 149.07758009599999,-35.444702529 149.07757910399999,-35.44470153 149.07757411200001,-35.4446945185 149.07757308799998,-35.444693519499999 149.07756809599999,-35.4446865265 149.07756310400001,-35.444679515 149.07756211200001,-35.444678516 149.07755708799999,-35.444671523 149.077556096,-35.444670524 149.07755110400001,-35.444663531 149.07755110400001,-35.444662513499999 149.07754611199999,-35.4446555205 149.07754508799999,-35.4446555205 149.07754009600001,-35.4446485275 149.07754009600001,-35.444647528499999 149.07753510399999,-35.444640517 149.077534112,-35.444639518 149.07752908800001,-35.444632525 149.07752809600001,-35.444631526 149.07752409599999,-35.444624514499999 149.07752310399999,-35.444623515499991 149.07751811200001,-35.444616522499999 149.07751308799999,-35.444609529499999 149.07751209599999,-35.444608530499998 149.07750710400001,-35.444601537499992 149.07750611200001,-35.444600538499998 149.07750108799999,-35.444593545499998 149.07750108799999,-35.444592546499997 149.077496096,-35.444585535 149.07749510400001,-35.444585535 149.07749011199996,-35.444578542 149.07749011199996,-35.444577543 149.07748409600001,-35.444569532500005 149.07747910399996,-35.444561540500004 149.077476096,-35.444558543500001 149.077474112,-35.444554547499997 149.07746809599999,-35.444546537 149.07746310399997,-35.44453854499999 149.07746211200001,-35.44453854499999 149.07745708799999,-35.444531533500005 149.07745708799999,-35.444530534499997 149.077452096,-35.444523541500004 149.07745110399998,-35.444522542500003 149.07744611199999,-35.444515549500004 149.07744611199999,-35.444514532 149.077441088,-35.444507539 149.07743510399999,-35.444499547 149.077429088,-35.444491536500003 149.07742409599999,-35.444484543500003 149.07742409599999,-35.444483544500002 149.077419104,-35.44447653299999 149.077418112,-35.444475534 149.07741308799996,-35.444468541 149.07741308799996,-35.44446754199999 149.077408096,-35.444460549 149.077407104,-35.444460549 149.07740211199999,-35.444453537500003 149.07740211199999,-35.444452538500002 149.077397088,-35.444444546500002 149.077396096,-35.444444546500002 149.07739209600001,-35.444437535 149.077386112,-35.444429543 149.077385088,-35.444428544 149.07738009600001,-35.444421532500002 149.07738009600001,-35.444420533500001 149.077375104,-35.4444125415 149.07737011200001,-35.444405548500001 149.07736908800001,-35.444405548500001 149.077364096,-35.444398537 149.077364096,-35.444397538 149.07735910400001,-35.444390545 149.07735811200001,-35.444389546 149.077353088,-35.444382534500001 149.077353088,-35.4443815355 149.07734809600001,-35.4443745425 149.07734710400001,-35.444373543499999 149.07734310399999,-35.444366532 149.077342112,-35.444365533 149.07733708800001,-35.44435854 149.077331104,-35.444350548 149.077329088,-35.444347532500004 149.07732611200001,-35.4443435365 149.07732108799999,-35.444335544499999 149.07732108799999,-35.444334545499999 149.077316096,-35.444327534 149.07731510400001,-35.444326535 149.07731110399999,-35.444319542 149.077305088,-35.444311531499999 149.07730409600001,-35.444310532500005 149.07730009599999,-35.444303539499998 149.07729910399996,-35.444303539499998 149.077294112,-35.444295547499998 149.07728908799999,-35.444288536 149.07728809599999,-35.444287537 149.07728310399997,-35.44427954499999 149.07727811199999,-35.444272533499998 149.07727811199999,-35.444271534500004 149.077273088,-35.444264541500004 149.07727011200001,-35.4442595465 149.07726710399999,-35.444255532 149.077262112,-35.444248539 149.077262112,-35.44424754 149.07725708800001,-35.444240547 149.07725609599999,-35.444239548 149.077252096,-35.444232536500003 149.077251104,-35.444231537500002 149.07724611200001,-35.444225543500004 149.07724611200001,-35.444224544500003 149.07724108799997,-35.444216534 149.07723510400001,-35.444209541 149.07723510400001,-35.44420854199999 149.077230112,-35.444200531499995 149.07722508799998,-35.444193538500002 149.07722508799998,-35.444192539500001 149.07722009599999,-35.444185546500002 149.07721910399999,-35.444184547500001 149.07721411200001,-35.444177536 149.07721411200001,-35.444176537 149.07720908799999,-35.444169544 149.07720908799999,-35.444168545 149.077204096,-35.444161533500001 149.07720310400001,-35.4441605345 149.07719910399999,-35.4441535415 149.07719811199999,-35.4441535415 149.077193088,-35.444145549499993 149.07718809599999,-35.444138538 149.07718710399999,-35.444137539 149.077183104,-35.444129547 149.077182112,-35.444129547 149.07717708800001,-35.4441225355 149.07717708800001,-35.444121536499999 149.077172096,-35.4441145435 149.07716710400001,-35.444106533 149.07716710400001,-35.444105534 149.077162112,-35.444098541 149.077161088,-35.444097542 149.07715708800001,-35.444090549 149.07715609600001,-35.444089531499998 149.077151104,-35.444082538499998 149.077151104,-35.444081539500004 149.07714611199998,-35.444074546499991 149.07714508800001,-35.444073547500004 149.07714409600001,-35.444071549500002 149.07714108799999,-35.44406653599999 149.077136096,-35.444058544 149.07713510400001,-35.444057545 149.07713110399996,-35.444050533500004 149.07713011199999,-35.444049534499996 149.077125088,-35.444042541500004 149.077125088,-35.444041542500003 149.07712009599999,-35.444035548500004 149.07711910399996,-35.44403353199999 149.07711510399997,-35.444026539 149.077114112,-35.444026539 149.07711011200001,-35.444018547 149.07710908799999,-35.444018547 149.077104096,-35.444011535500003 149.077104096,-35.444010536500002 149.07709910399998,-35.444003543499996 149.07709910399998,-35.444002544500002 149.077094112,-35.443994534 149.07709209599997,-35.443991537 149.07708908800001,-35.443987541 149.07708409599996,-35.443979549 149.077083104,-35.443978531500001 149.07707811200001,-35.443970539499993 149.07707411199999,-35.443963546500001 149.07707308799996,-35.4439625475 149.077068096,-35.443955536 149.077068096,-35.443954537 149.07706310399999,-35.443946545 149.077058112,-35.4439395335 149.077058112,-35.443938534499999 149.07705308799999,-35.4439315415 149.07705308799999,-35.443930542499999 149.07705209599999,-35.443930542499999 149.077048096,-35.443923549499999 149.077047104,-35.443922532 149.07704310400001,-35.443915539 149.07704211199999,-35.44391454 149.077037088,-35.443907547 149.077037088,-35.443906548 149.07703209600001,-35.443899536499991 149.07703209600001,-35.443898537500004 149.077027104,-35.443891544499998 149.077027104,-35.443890545499997 149.07702211200001,-35.443883534 149.07702211200001,-35.443882535 149.07701708799999,-35.443875542 149.07701609599999,-35.443874543 149.077012096,-35.443867531500004 149.07701110400001,-35.443866532500003 149.07700611199999,-35.443858540500003 149.077002112,-35.443851547500003 149.077001088,-35.443850548500002 149.07699708800001,-35.443843537 149.07699609599999,-35.443842538 149.076992096,-35.443835545 149.076991104,-35.443834546 149.07698710400001,-35.443827534500002 149.07698611199996,-35.443826535500001 149.076981088,-35.443818543500001 149.07697609600001,-35.443811532 149.07697609600001,-35.443810533 149.07697110399999,-35.44380354 149.07697110399999,-35.443802541 149.07696611199998,-35.443795548 149.07696611199998,-35.443794549 149.07696108799999,-35.4437875375 149.07696108799999,-35.443786538499992 149.076956096,-35.4437795455 149.076956096,-35.443778546499999 149.07695110399996,-35.443771535 149.07695110399996,-35.443770536 149.076946112,-35.443763543 149.076946112,-35.443762544 149.07694108800001,-35.443755532499999 149.07694108800001,-35.443754533499998 149.076936096,-35.443747540499999 149.07693510399997,-35.443746541499998 149.07693110399998,-35.443739548499998 149.07693011200001,-35.443738549500004 149.076926112,-35.443731538 149.076925088,-35.443730539 149.07692108800001,-35.44372354599999 149.07692009599998,-35.443722547 149.07691609599996,-35.443715535499997 149.07691609599996,-35.443714536500003 149.076911104,-35.443706544499996 149.07690611199999,-35.443698534 149.076901088,-35.443691541 149.076901088,-35.44369054199999 149.07689609600001,-35.443683549 149.07689609600001,-35.443682531500002 149.076891104,-35.443675538500003 149.076890112,-35.443674539500002 149.07688611200001,-35.443667546500002 149.07688508799998,-35.443666547500001 149.07688108799999,-35.443659536 149.076880096,-35.443658537 149.07687609600001,-35.443651544 149.07687510400001,-35.443650545 149.07687110399999,-35.443643533500001 149.07687110399999,-35.4436425345 149.076866112,-35.4436345425 149.07686108799999,-35.443626532 149.076856096,-35.44361854 149.07685110400001,-35.443610548 149.07685110400001,-35.443609549 149.076847104,-35.443602537499999 149.076846112,-35.443601538500005 149.07684211200001,-35.443594545499998 149.07684108800001,-35.443593546499997 149.07683609599999,-35.443586535 149.07683609599999,-35.443585536 149.07683110400001,-35.443578543 149.07683110400001,-35.44357754399999 149.07682710399999,-35.443570532500004 149.07682611199999,-35.443569533500003 149.076822112,-35.443562540500004 149.076821088,-35.443561541500003 149.07681708800001,-35.443554548500003 149.07681609599999,-35.443553549500002 149.076812096,-35.443546538 149.076812096,-35.443545539 149.07680710400001,-35.443538546 149.07680710400001,-35.443537547 149.07680211199997,-35.443530535500003 149.07680211199997,-35.443529536500002 149.07679811199998,-35.443522543500002 149.07679708800001,-35.443521544500001 149.07679308799999,-35.443514533 149.07679209599999,-35.443513534 149.076788096,-35.44350654099999 149.076787104,-35.443505542 149.07678310399996,-35.4434975315 149.07678211199999,-35.443496532499999 149.076778112,-35.4434895395 149.076777088,-35.443488540499999 149.07677308800001,-35.443481547499999 149.07677209600001,-35.443480548499998 149.076768096,-35.443473537 149.076768096,-35.443472538 149.07676310399998,-35.443465545 149.07676310399998,-35.44346454599999 149.07675910399999,-35.443457534499998 149.07675811199999,-35.443456535500005 149.076754112,-35.443449542499998 149.076753088,-35.443448543500004 149.07674908800001,-35.443441532 149.07674809599996,-35.443440533 149.07674409599997,-35.443432541 149.07673910400001,-35.443425548 149.07673910400001,-35.443424549 149.076734112,-35.443416538500003 149.07673011200001,-35.443408546500002 149.07672908800001,-35.443408546500002 149.07672508799996,-35.443400536 149.07672409599999,-35.443399537 149.076720096,-35.443392544 149.07671910400001,-35.443391545 149.07671510399999,-35.443383534500001 149.076710112,-35.443376541500001 149.076710112,-35.4433755425 149.07670508799998,-35.443368549500001 149.07670508799998,-35.443367532 149.07670108799999,-35.443360539 149.076700096,-35.44335954 149.07669510400001,-35.443351548 149.07669110399999,-35.443343537499992 149.076686112,-35.443335545499998 149.07668211199999,-35.443327535 149.07668108799999,-35.443326536 149.076677088,-35.443319543 149.076676096,-35.443318544 149.07667209600001,-35.443311532500005 149.07667209600001,-35.443310533500004 149.07666710399999,-35.443303540500004 149.07666710399999,-35.443302541500003 149.076663104,-35.443295548500004 149.07666211200001,-35.443294549500003 149.07665811199999,-35.443286539 149.07665708799999,-35.443286539 149.076653088,-35.443278547 149.07664809600001,-35.443270536500002 149.076644096,-35.443262544500001 149.076643104,-35.4432615455 149.07663910400001,-35.443254534 149.07663811200001,-35.443253535 149.07663411199997,-35.443246542 149.07663308799999,-35.443245543 149.076629088,-35.4432385315 149.076629088,-35.4432375325 149.07662508799999,-35.443229540499999 149.07662409599999,-35.443229540499999 149.076620096,-35.443221548499999 149.076619104,-35.443221548499999 149.07661510400001,-35.443212539 149.07661110399997,-35.443205546 149.076610112,-35.443204547 149.07660611200001,-35.443197535499991 149.07660508800001,-35.443196536500004 149.07660108799999,-35.443189543500004 149.07660108799999,-35.443188544499996 149.076597088,-35.443181533 149.076596096,-35.443180534 149.07659209600001,-35.443173541 149.07659110399999,-35.443172542 149.076587104,-35.443164531500003 149.076587104,-35.443163532500002 149.07658310399998,-35.443156539500002 149.07658211200001,-35.443155540499994 149.07657811199999,-35.443148547500002 149.07657708799999,-35.443147548500001 149.076573088,-35.443140537 149.076573088,-35.443139538 149.07656908800001,-35.443132545 149.07656809599996,-35.443131546 149.07656409599997,-35.4431235355 149.07655910400001,-35.443115543499999 149.07655910400001,-35.443114544499998 149.07655510399999,-35.443107533 149.076554112,-35.443106534 149.07655011200001,-35.443098542 149.07654611199999,-35.443091549 149.07654508799996,-35.443090531500005 149.07654108799997,-35.443083538499998 149.076540096,-35.443082539500004 149.07653609600001,-35.443075546499998 149.07653609600001,-35.443073548500003 149.07653209599999,-35.443066537 149.076531104,-35.443065538 149.07652710400001,-35.443057546 149.07652310399999,-35.443050534500003 149.07652211199999,-35.443049535500002 149.076518112,-35.443042542499995 149.076517088,-35.443041543500001 149.07651308800001,-35.443033533 149.07650908799999,-35.443025541 149.076508096,-35.443024542 149.07650409600001,-35.443017549 149.07650310400001,-35.4430165315 149.07649910399999,-35.443008539499999 149.076495104,-35.4430015465 149.07649411200001,-35.443000547499992 149.07649011199999,-35.442991538 149.076486112,-35.442984545 149.076485088,-35.442983546 149.07648108800001,-35.442976534499998 149.07648108800001,-35.442975535499997 149.07647609599999,-35.442968542500005 149.07647609599999,-35.442967543500004 149.076472096,-35.442960532 149.07647110400001,-35.44295953299999 149.07646809600001,-35.442951541 149.07646710399999,-35.442951541 149.076463104,-35.442943549 149.076462112,-35.442942531499995 149.07645811200001,-35.442935538500002 149.07645811200001,-35.442934539500001 149.07645411199996,-35.442927546500002 149.07645308799999,-35.442926547500001 149.076449088,-35.442918537 149.07644508800001,-35.442910545 149.07644409599999,-35.442910545 149.076440096,-35.4429025345 149.076440096,-35.442901535499999 149.07643609600001,-35.442894542499999 149.07643510400001,-35.442893543499999 149.07643110399997,-35.442885533 149.07642611200001,-35.442876542 149.07642211199999,-35.442869549 149.07642211199999,-35.442868531500004 149.076418112,-35.442861538500004 149.076417088,-35.442860539500003 149.07641308800001,-35.442853546500004 149.07641308800001,-35.442852547500003 149.07640908799999,-35.442844537 149.07640809599997,-35.442844537 149.076405088,-35.442836545 149.076404096,-35.442835546 149.07640009599996,-35.442828534500002 149.07640009599996,-35.442827535500001 149.07639609599997,-35.442820542500002 149.07639110400001,-35.442811533 149.07638710399999,-35.442803541 149.07638611199999,-35.442802542 149.076383104,-35.442795549 149.076382112,-35.442794531499999 149.07637811199999,-35.442787538499999 149.07637708799996,-35.442786539499998 149.076374112,-35.442779546499999 149.07637308799997,-35.442778547499998 149.07636908799998,-35.442770537 149.07636809600001,-35.442769538 149.07636508799999,-35.44276254499999 149.07636409599999,-35.442761546 149.076360096,-35.442754534500004 149.076360096,-35.442753535500003 149.07635609600001,-35.442746542500004 149.07635510399999,-35.442745543499996 149.076351104,-35.442737533 149.07634710400001,-35.442729541 149.07634611200001,-35.442728542 149.07634211199999,-35.442720531500001 149.076338112,-35.442713538500001 149.076338112,-35.442712539499993 149.07633411200001,-35.4427045475 149.07632908799999,-35.442696537 149.07632908799999,-35.442695538 149.076325088,-35.442688545 149.076325088,-35.442687546 149.07632108799999,-35.442679535499991 149.076316096,-35.442671543499998 149.07631209600001,-35.442663533 149.07631011199999,-35.442659537 149.07630710399999,-35.442654542 149.076303104,-35.442646531500003 149.076303104,-35.442645532500002 149.07629910399999,-35.442638539500003 149.07629811199999,-35.442637540500002 149.076294112,-35.442629548500001 149.076292096,-35.442625534 149.07629011200001,-35.442621538 149.07628611199996,-35.442613546 149.07628211199997,-35.4426055355 149.076281088,-35.442604536499999 149.07627708800001,-35.4425975435 149.07627708800001,-35.442596544499999 149.07627308799999,-35.442588534 149.07626809600001,-35.442580542 149.07626409599999,-35.442572531499998 149.076260096,-35.442563540500004 149.07625609600001,-35.442555548500003 149.07625110399997,-35.442547538 149.07624710399998,-35.442539546 149.07624611200001,-35.442538547 149.07624211199999,-35.4425295375 149.076239104,-35.442522544500001 149.076238112,-35.4425215455 149.07623411200001,-35.442513535 149.07623209600001,-35.442509539 149.076226112,-35.442497532499999 149.07622310400001,-35.442493536500002 149.07622108800001,-35.442488541499998 149.07621910399999,-35.442484545500001 149.076213088,-35.442472539 149.07620908800001,-35.442464547 149.07620611199999,-35.4424605325 149.076204096,-35.442454538500002 149.076202112,-35.442450542499998 149.07620009600001,-35.442447545500002 149.07619609599999,-35.442439535 149.076192096,-35.442431543 149.076191104,-35.442429545 149.07618809600001,-35.4424225335 149.07618710400001,-35.442421534499999 149.07618310399999,-35.442413542499999 149.076179104,-35.442405532 149.07617510399999,-35.44239754 149.07617411199999,-35.442396541 149.076171104,-35.442389548 149.076170112,-35.442388549 149.07616710400001,-35.442381537500005 149.07616611200001,-35.442380538500004 149.07616310399999,-35.442372546500003 149.07616211199999,-35.442371547500002 149.076158112,-35.442364536 149.076158112,-35.442363537 149.07615411200001,-35.442356544 149.07615411200001,-35.442354546 149.07615011199999,-35.442347534500001 149.076146112,-35.442339542500001 149.07614211200001,-35.442330533 149.076137088,-35.442322541 149.07613308800001,-35.442314549 149.07612908799999,-35.442305539499998 149.076125088,-35.442297547500004 149.076123104,-35.442292534 149.07612009600001,-35.442288538 149.07611609599999,-35.442280546 149.076112096,-35.442271536500002 149.07611011200001,-35.442268539499999 149.07610908800001,-35.442264543500002 149.07610409599999,-35.442255534 149.07610409599999,-35.442254535 149.076100096,-35.442247542 149.076100096,-35.442246543 149.07609609599999,-35.442238532499999 149.07609308799999,-35.442233537500002 149.076092096,-35.442230540499999 149.07608809600001,-35.442222567 149.07608409599999,-35.442213557500004 149.076081088,-35.442208562499999 149.07607910399997,-35.442204566500003 149.076078112,-35.442201551 149.07607609600001,-35.442197555 149.07607110399999,-35.442188564 149.07607110399999,-35.442187565 149.07606710399997,-35.442179554500001 149.07606508800001,-35.442174559500003 149.07606409600001,-35.4421715625 149.07606108799999,-35.442166567500003 149.076059104,-35.442162553 149.076057088,-35.442159556 149.07605609599997,-35.44215556 149.07605110399999,-35.442146550499999 149.07605011199999,-35.442143553499996 149.076047104,-35.442137559500004 149.07604310400001,-35.442130566499991 149.07604310400001,-35.442129567500004 149.07603910399999,-35.442120558 149.07603708799996,-35.442117561 149.076035104,-35.44211356499999 149.076033088,-35.442108551499999 149.07603110400001,-35.442104555500002 149.07602710399999,-35.442096563500002 149.07602611199999,-35.442095564500001 149.07540108800001,-35.440785561 149.07379107200001,-35.437419578499998 149.07345008,-35.436707569 149.07344608,-35.436698578 149.07344208000001,-35.436690586 149.07343808,-35.436682575500001 149.07343408,-35.436673584499999 149.07343008000001,-35.436665574 149.07342608,-35.436656583 149.07342208,-35.436648572500005 149.07341808000001,-35.436640580500004 149.07341408,-35.436631571 149.07341008,-35.436623579 149.07340608000001,-35.436615568500002 149.07340105599999,-35.436606577500001 149.073397056,-35.436598585500001 149.07339305599999,-35.436590575 149.073389056,-35.436581584 149.07338505600001,-35.436573573499999 149.07338006399999,-35.436565581499998 149.073376064,-35.436556572 149.07337206400001,-35.43654858 149.07336806399999,-35.436540569500004 149.073364064,-35.436531578500002 149.07335907199999,-35.436523586500002 149.073355072,-35.436515576 149.07335107199998,-35.436506585 149.07334707199999,-35.4364985745 149.07334208,-35.436490582499999 149.07333808000001,-35.436481573 149.07333408,-35.436473581 149.07333008000001,-35.436465570500005 149.07332505599996,-35.436457578500004 149.07332105599997,-35.436448569 149.07331705599998,-35.436440577 149.07331206399999,-35.436432585 149.073308064,-35.436423575500001 149.07330307199999,-35.436415602 149.073299072,-35.4364075915 149.07329507200001,-35.436399599499993 149.07329008,-35.43639059 149.07328608,-35.436382598 149.07328105600001,-35.436374587499998 149.07327705599999,-35.436366595500004 149.073273056,-35.436357604499996 149.07326806399999,-35.43634959399999 149.073264064,-35.436341602 149.07326006400001,-35.436333591500002 149.07325507199999,-35.436325599500002 149.07325107200001,-35.43631659 149.07324608,-35.436308598 149.073241056,-35.4363005875 149.07323705600001,-35.436291596499998 149.07323305599999,-35.436283604499998 149.07322806400001,-35.436275594 149.07322307199999,-35.436267602 149.073219072,-35.436259591500004 149.07321408,-35.436250600500003 149.07321008,-35.43624259 149.07320505600001,-35.436234598 149.07320006399999,-35.436226587500002 149.073196064,-35.436218595500002 149.07319107199999,-35.4362096045 149.07318608,-35.436201594 149.07318208000001,-35.436193602 149.07317705599999,-35.436185591499999 149.073173056,-35.436177599499999 149.07316806399996,-35.436169589 149.073163072,-35.436161597 149.07315907200001,-35.436152587500004 149.07315408,-35.436144595499997 149.07314905600001,-35.436136603500003 149.07314406399999,-35.436128593 149.073140064,-35.436120601 149.07313507200001,-35.436112590500002 149.07313008,-35.436103599500001 149.07312608000001,-35.436095589 149.07312105599999,-35.436087597 149.073116064,-35.436079605 149.07311107199999,-35.4360715945 149.07310608,-35.436063602499999 149.07310105600001,-35.436055592 149.07309705599999,-35.4360476 149.07309206400001,-35.436039589499998 149.07308707199999,-35.436031597499998 149.07308208000001,-35.436022588 149.07307705599999,-35.436014596 149.073072064,-35.43600660399999 149.07306806400001,-35.435998593499995 149.073063072,-35.435990601500002 149.07305808000001,-35.435982591 149.07305305599999,-35.435974599 149.07304806400001,-35.435966588500001 149.07304307199999,-35.435958596500001 149.07303808,-35.4359506045 149.07303305600001,-35.435942594 149.07302707199997,-35.435932604 149.07302208,-35.435924593500005 149.073017056,-35.435916601500004 149.07301408000001,-35.435911588 149.073007072,-35.435900599 149.07300208000001,-35.435892588500003 149.07299907199999,-35.435886594500005 149.07299408,-35.435878602500004 149.07298905600001,-35.435870592 149.072984064,-35.4358626 149.07297907200001,-35.435855588500004 149.072972064,-35.435843600499993 149.07296707200001,-35.435836589 149.07296208,-35.435828597 149.07295606400001,-35.435820605 149.07295206399999,-35.435811595499999 149.07294707200001,-35.435804602499999 149.07294105599999,-35.435796592 149.07293808,-35.435791597 149.07293107199999,-35.435779590500005 149.07292608,-35.435772597499998 149.07292105600001,-35.435764587 149.072915072,-35.435756595 149.07291107200001,-35.435748603 149.07290707199999,-35.435743589499999 149.07290208000001,-35.435735597499999 149.07289705599999,-35.435727587 149.072892064,-35.435719595 149.07288608,-35.435711603 149.072881056,-35.435703592499998 149.07287606400001,-35.435695600500004 149.07287008,-35.43568759 149.07286505600001,-35.435679598 149.072860064,-35.435671587500003 149.07285507200001,-35.435663595500003 149.07284707199997,-35.435653587 149.07284208,-35.435645595 149.072837056,-35.435637603 149.07283107199999,-35.4356295925 149.07282608,-35.435621600499999 149.07282105600001,-35.43561359 149.07281705599999,-35.435608595 149.07281008000001,-35.435598605 149.07280505599996,-35.435589595499998 149.072801056,-35.435585599500001 149.07279606399999,-35.435577589 149.07279008,-35.435569597 149.07278505599999,-35.435561605 149.072780064,-35.4355535945 149.07277408,-35.4355456025 149.072767072,-35.435535594 149.07276105599999,-35.435527602 149.072756064,-35.435519591500004 149.07275008,-35.435511599500003 149.072747072,-35.435506604499999 149.07274105600001,-35.435498594 149.072736064,-35.435491601 149.07273107200001,-35.435483590499999 149.072725056,-35.435475598499998 149.07271705599999,-35.435464591 149.072712064,-35.435457598 149.07270905600001,-35.435452603 149.072703072,-35.435444592499998 149.07269808,-35.435436600500005 149.07269008,-35.435425593 149.07268406399999,-35.4354186 149.07268105599999,-35.435413605 149.07267507199998,-35.435405594500004 149.07266707199997,-35.435395604500002 149.07266208,-35.435387594 149.07265808,-35.435382599 149.07265305600001,-35.435374588500004 149.072645056,-35.4353635995 149.07263907199999,-35.435356588 149.072633056,-35.435348596 149.07262806399999,-35.435340604 149.07262208,-35.435333592500001 149.07261606399999,-35.435325600499993 149.07261305599997,-35.435320587 149.07260707200001,-35.435312595 149.072601056,-35.435305602 149.07259606400001,-35.435297591500003 149.07259008,-35.435289599500003 149.07258406400001,-35.435281589 149.07257808,-35.435274596 149.07257305600001,-35.435266604 149.072565056,-35.4352565955 149.07256105600001,-35.435251600500003 149.072555072,-35.43524359 149.07254905600001,-35.435235598 149.07254208000001,-35.435225589499993 149.07253606399999,-35.435217597499999 149.07253008,-35.4352106045 149.07252608,-35.435205591 149.072520064,-35.435197599 149.07251408,-35.435190587500003 149.072509056,-35.435182595500002 149.07250307199996,-35.435174603500002 149.07249507199998,-35.435164595 149.07248905599999,-35.435156603 149.072485056,-35.435151589500002 149.07247907199999,-35.435144596500002 149.07247305600001,-35.435136604500002 149.07246707199999,-35.43512959299999 149.07246105600001,-35.435121601 149.072455072,-35.435114589500003 149.07244707199999,-35.4351036005 149.072443072,-35.435098587 149.07243705599998,-35.435091594 149.072431072,-35.435083602 149.07242505599999,-35.435076590500003 149.072419072,-35.435068598500003 149.07241107199999,-35.43505859 149.07240505600001,-35.435050598 149.07240105599999,-35.435046602 149.07239305600001,-35.4350355945 149.072387072,-35.435028601499994 149.07238307200001,-35.435023588 149.07237705599999,-35.435015596 149.07236905600001,-35.435005587500001 149.072363072,-35.434998594500001 149.07235705599999,-35.434990602500001 149.07235008,-35.43498359099999 149.07234707200001,-35.434978596 149.07233808,-35.434968587500002 149.07233408,-35.434963592500004 149.072328064,-35.434956599499998 149.07232208,-35.434948589 149.07231606400001,-35.434941596 149.07231008,-35.434933604 149.07230105599999,-35.434923595500003 149.072295072,-35.434916602500003 149.07228905599996,-35.434908592 149.07228208000001,-35.434901599 149.07227606399999,-35.434893588500003 149.072272064,-35.434888593499998 149.07226608,-35.434881600499999 149.07226006400001,-35.434874589 149.072251072,-35.4348636 149.07224806400001,-35.434859604 149.072241056,-35.434851593499999 149.07223206399999,-35.434841603500004 149.072228064,-35.43483659 149.07222208,-35.434829597 149.072216064,-35.434822604 149.07221008,-35.434814593500001 149.07220105600001,-35.434804603499998 149.07219408,-35.434797592 149.07219107200001,-35.434792597 149.07218208,-35.434782588499999 149.07217606399999,-35.4347755955 149.072171072,-35.434770600500002 149.07216307199997,-35.434760592 149.07215606400001,-35.434753599 149.07215008,-35.434746587500001 149.07214406400001,-35.434738595500001 149.072137056,-35.434731602500001 149.07213305600001,-35.434726589 149.072127072,-35.43471959599999 149.07212006399999,-35.434712603 149.07211408000001,-35.434704592500005 149.07210707199999,-35.434697599499998 149.07209808,-35.434687591 149.072092064,-35.434680598 149.07208608,-35.43467360499999 149.072081056,-35.434668591499999 149.07207507199999,-35.4346615985 149.07206608000001,-35.43465159 149.072061056,-35.434646595 149.07205507200001,-35.434639602 149.07204608000001,-35.434629593499999 149.07204006399999,-35.434622600499999 149.07203305600001,-35.434615589 149.072027072,-35.434607597 149.07202006399999,-35.434600604 149.072013056,-35.434593592500001 149.07200905600001,-35.434588597500003 149.07200006400001,-35.434578589 149.071993056,-35.434571596 149.07198905600001,-35.4345676 149.07198307199997,-35.434560588499998 149.07197606400001,-35.434552596499998 149.071969056,-35.434545603499998 149.07196006399997,-35.434535595 149.07195305600001,-35.434528602 149.071947072,-35.434521590500005 149.07194307200001,-35.4345165955 149.071936064,-35.4345096025 149.07192905599996,-35.434502591 149.07192006400001,-35.434492601 149.07191606399999,-35.434488605 149.07190905599998,-35.434481593499996 149.071900064,-35.4344716035 149.07189606399999,-35.43446659 149.071889056,-35.434459597 149.071880064,-35.434450587500002 149.07187606400001,-35.434445592499998 149.071868064,-35.434438599499998 149.07186208,-35.434431588 149.07185507200001,-35.434424595 149.07184806399999,-35.434417602 149.07184105600001,-35.4344095915 149.071835072,-35.434403597500001 149.07182806399999,-35.434395587 149.071821056,-35.434388594 149.07181408,-35.434381601 149.07180707199998,-35.434374589500003 149.071800064,-35.434367596500003 149.071791072,-35.434358587 149.07178608000001,-35.434353592 149.071777056,-35.434344601 149.07177008,-35.434336590500003 149.07176608,-35.434332594499999 149.07175907199999,-35.434325601499999 149.07175206400001,-35.43431859 149.07174505599997,-35.434311597 149.07173808,-35.434304604 149.07173107200001,-35.434297592500002 149.07172406399999,-35.434290599500002 149.07171705600001,-35.434283588 149.07171008,-35.434276595 149.07170307199999,-35.434269602 149.07169408,-35.434260592500003 149.071687072,-35.434253599500003 149.07168208,-35.434248604499999 149.07167507200001,-35.434241593 149.07166806399999,-35.434235617500001 149.07166105600001,-35.434228606 149.07165206400001,-35.434218616 149.07164505599999,-35.434211623 149.07164006400001,-35.434207608500003 149.071633056,-35.434200615499996 149.07162608,-35.434193622500004 149.071619072,-35.434186611 149.071609056,-35.43417762 149.07160208,-35.434170608500004 149.071597056,-35.434165613499999 149.07159008,-35.434158620499993 149.07158307200001,-35.434152608 149.071576064,-35.434145615 149.07156905599999,-35.434138622 149.07155907200001,-35.434129612499994 149.071555072,-35.434124617500004 149.07154707199999,-35.43411760599999 149.071540064,-35.434111612 149.07153305599999,-35.434104619 149.07152307199999,-35.434094610500004 149.071519072,-35.434090614500001 149.071509056,-35.434081623499999 149.07150406400001,-35.43407661 149.07149408000001,-35.434067619 149.07149008,-35.434063623 149.07148006400001,-35.434054613499995 149.071475072,-35.434049618499998 149.07146806399999,-35.434043606 149.071461056,-35.434036613 149.071453056,-35.43402962 149.07144608,-35.434022608500001 149.071439072,-35.434016614499996 149.071431072,-35.434009621500003 149.07142406399998,-35.43400261 149.071417056,-35.433995617 149.07141008,-35.433989623 149.07140006399999,-35.433979614500004 149.07139206400001,-35.433973620499998 149.07138806399999,-35.433968607 149.07137705599999,-35.433959616 149.071373056,-35.43395562 149.07136608,-35.433948608500003 149.07135507199999,-35.433939617500002 149.07134806400001,-35.433933623500003 149.07134307199999,-35.43392861 149.07133305599999,-35.433919619 149.07132608000001,-35.433913606499999 149.07132105599999,-35.433908611500001 149.07131408,-35.433902617500003 149.07130307200001,-35.433893608 149.07129606399999,-35.433886615 149.07128806399999,-35.433879622 149.071284064,-35.433875607499999 149.07127606399996,-35.433869613500001 149.07126905600001,-35.433862620500001 149.071259072,-35.433853611 149.071251072,-35.433846618 149.07124608000001,-35.433842622 149.071239072,-35.433836609499998 149.07123107199999,-35.433829616499999 149.07122406400001,-35.433822623499999 149.071213056,-35.433813614 149.07120905599999,-35.433809618 149.07119808,-35.4338006085 149.071191072,-35.433794614500002 149.071183072,-35.433787621500002 149.07117808000001,-35.433783607 149.07116806400001,-35.43377461599999 149.071160064,-35.433768622 149.07115606400001,-35.433763608500001 149.07114505600001,-35.433755616500001 149.071137056,-35.433748623500001 149.07113008,-35.433742611 149.07112208000001,-35.433735618 149.07111808,-35.433731622 149.07111008000001,-35.433724610499993 149.07110208,-35.433718616500002 149.07109408,-35.433712622500003 149.07108707200001,-35.433705611 149.07107606399998,-35.43369662 149.07106905599997,-35.433690607500004 149.07106406400001,-35.433686611500001 149.071056064,-35.433679618500001 149.071048064,-35.433673606 149.07104006399999,-35.433666613 149.071033056,-35.433660619 149.071025056,-35.433654606499999 149.07101705599999,-35.4336476135 149.07101008000001,-35.433641619500001 149.07100208,-35.433634608 149.07099408,-35.43362861399999 149.07098608000001,-35.43362262 149.07097808,-35.433615608499998 149.07097107199999,-35.4336096145 149.07096307200001,-35.433603620500001 149.070955072,-35.433596609 149.070944064,-35.433588617 149.07093907199996,-35.433584621 149.070932064,-35.433577609499999 149.070923072,-35.4335716155 149.07091305599999,-35.433562606 149.07090806399998,-35.43355861 149.070900064,-35.433552616 149.07089206399999,-35.433546622 149.07088406400001,-35.433539610499999 149.07087305599998,-35.433531618499998 149.070868064,-35.433527622499994 149.07086105600001,-35.43352161 149.070853056,-35.433514617 149.070845056,-35.433508623 149.07083408,-35.433499613500004 149.07082608,-35.433493619499998 149.070821056,-35.433489623500002 149.07081008,-35.433481613 149.07080505600001,-35.43347761699999 149.070797056,-35.433471623 149.070789056,-35.4334646115 149.07078105599999,-35.433458617500001 149.07077305600001,-35.433452623500003 149.070765056,-35.433446611 149.07075705599999,-35.433439618 149.07074905600001,-35.433433605499999 149.07073808000001,-35.433425613499999 149.07073305599999,-35.433421617500002 149.07072505599996,-35.433415623500004 149.07071705599998,-35.433409611 149.07070905599997,-35.433403617 149.07070105599999,-35.4333966055 149.07069305600001,-35.433390611500002 149.07068208000001,-35.433382619500001 149.07067705599999,-35.433378623500005 149.07066905600001,-35.433372611 149.07065808,-35.43336362 149.07065008000001,-35.4333576075 149.07064406399999,-35.433353611500003 149.07063305599999,-35.433345619500002 149.070628064,-35.433341623499999 149.070617056,-35.433333613 149.070609056,-35.433327619 149.07060406400001,-35.433323623 149.07059305600001,-35.433315612500003 149.070585056,-35.433309618500004 149.07057606399997,-35.433303606 149.07056806400001,-35.433297612 149.070563072,-35.433293616 149.07055507199999,-35.433287622 149.07054406399999,-35.433279611499998 149.07053808000001,-35.433275615500001 149.07053408,-35.433271619500005 149.070527072,-35.433267623500001 149.07052208,-35.433263609 149.070517056,-35.433259613 149.07051107199999,-35.433255617 149.07050208000001,-35.433249623 149.07049408,-35.4332436105 149.07048608,-35.433237616500001 149.07048105600001,-35.433233620500005 149.070472064,-35.433227608 149.07046406399999,-35.433221614 149.07045606400001,-35.43321562 149.07044505600001,-35.433207609500002 149.07043606400001,-35.433201615499996 149.07043107199996,-35.433197619499992 149.07042208,-35.433191607 149.07041206400001,-35.433183615 149.070403072,-35.433177621 149.070395072,-35.433171608500004 149.07038707199999,-35.433166613499999 149.07037808000001,-35.433160619500001 149.07037008,-35.433154607 149.07035606400001,-35.433144617 149.069537088,-35.433325639499998 149.069416096,-35.433153626500001 149.069022112,-35.433005626499998 149.06864211199999,-35.432318629 149.06860409599997,-35.431891630500004 149.06822809600001,-35.431458638 149.06770710399999,-35.431413646 149.067006112,-35.430493659500002 149.06541110399999,-35.429308679 149.06569609600001,-35.428927671499999 149.06426409599996,-35.427767684500004 149.06443708800001,-35.427427673 149.064541088,-35.427221805 149.065160096,-35.427017676 149.06531011199999,-35.426961676499999 149.06545408,-35.426895668500002 149.06553705600001,-35.426851675500004 149.06563507199999,-35.426792679 149.065711072,-35.4267406755 149.06578406400001,-35.426686674 149.06629907199999,-35.426281672 149.06635808,-35.426236661499999 149.066531072,-35.426125661500002 149.06661404799999,-35.426080669500003 149.06668102399999,-35.426048664500001 149.068208992,-35.425342649 149.068296992,-35.42530465 149.068396992,-35.425265652 149.06857100799999,-35.425209652500001 149.06868700800001,-35.425179645500002 149.06885801600001,-35.42514666 149.06904300799999,-35.425123646 149.06989097600001,-35.425048628500001 149.06993398399999,-35.425041635500001 149.069963968,-35.425031627 149.06999296000001,-35.425017641 149.07003398399999,-35.424987634 149.07005296,-35.424966636500002 149.07007296,-35.424934631500001 149.07010998399997,-35.424854637500005 149.07023497599999,-35.424891637500004 149.07033996800001,-35.424918629 149.070638976,-35.424980641 149.07077897599999,-35.425000639499999 149.07087696,-35.425012627500003 149.07112998400001,-35.425030628 149.07140492799999,-35.425033625 149.07173494400001,-35.425021618500004 149.07211894400001,-35.424991611500005 149.07260995199997,-35.424945620500004 149.074360896,-35.424781599500001 149.07523587200001,-35.42469859 149.075453888,-35.424674595500001 149.07580787200001,-35.42462459 149.075980864,-35.424594583 149.076204832,-35.424549572499991 149.07639584,-35.4245055795 149.07653283199997,-35.424470577500003 149.07696784000001,-35.424342576 149.07718083200001,-35.424268576 149.07739385599999,-35.424188582 149.07797782399999,-35.423950579500001 149.07829481600001,-35.4238195625 149.07863180800001,-35.423678555500004 149.07902678400001,-35.42351755 149.079196768,-35.4234535585 149.07942979200001,-35.423372565500003 149.079625792,-35.423311552500003 149.079874784,-35.423240568 149.08029779200001,-35.423138559 149.08067376,-35.423067537499996 149.08088976,-35.423034533499994 149.08109673600001,-35.423008541 149.08147875200001,-35.42297254 149.08178675199997,-35.422956537499999 149.08200675200001,-35.422951542500002 149.08227072,-35.422952541500003 149.08251372800001,-35.422960533500003 149.08268870399999,-35.422970523499998 149.08296272000001,-35.422993519 149.08331171200001,-35.42303551399999 149.08363571199999,-35.423087517500001 149.08536969599999,-35.423422497 149.08568368,-35.423478496500003 149.08592169599999,-35.423514497500001 149.08622665600001,-35.423553495500002 149.08667465600001,-35.423596489499992 149.08700464,-35.423615489 149.08726864,-35.42362448 149.08747766400001,-35.423627477 149.08777465599999,-35.42362448 149.087950656,-35.423619485 149.08829161599999,-35.423601484500004 149.08864163199999,-35.423572476499999 149.08890361600001,-35.4235434685 149.08903660799999,-35.423545466500002 149.089187616,-35.423556474 149.08932163200001,-35.423587461499999 149.08935260800001,-35.423599468 149.089413632,-35.423638466 149.08945462400001,-35.423651471499994 149.08950662399999,-35.423654468500004 149.089562624,-35.42364446 149.08961260800001,-35.423620465500001 149.08965660800001,-35.423578470500004 149.089684608,-35.423537474500002 149.0898016,-35.423456463 149.0899256,-35.423396467499998 149.0900656,-35.42333847 149.090402592,-35.423255460500002 149.090787584,-35.423145459499999 149.09111558399999,-35.423040453500001 149.09121654399999,-35.423005451500003 149.09140755199999,-35.422935447500002 149.091607552,-35.422858450499994 149.091921568,-35.422728451 149.092123552,-35.422636450500001 149.092247552,-35.42257845299999 149.09292851199996,-35.422252446 149.09321952,-35.422123445499992 149.09340553600001,-35.422046448499998 149.093554528,-35.421987452 149.093814528,-35.421890438 149.09397648000001,-35.421833421 149.09414048,-35.421779438 149.094239488,-35.421747433 149.094294496,-35.421730431500002 149.094542496,-35.421656431500004 149.09497248,-35.421543433499998 149.09531148799999,-35.421466436500005 149.09574044799999,-35.421384426 149.09603244799999,-35.421337436 149.096434464,-35.421285414 149.09672947199999,-35.421254408 149.097559424,-35.421197409500003 149.10262336,-35.420864372499999 149.10332732800001,-35.4207973655 149.10411033599999,-35.420723347 149.10478630399999,-35.420618359499997 149.10548428800001,-35.420491357 149.10557331199996,-35.420471358500002 149.10613427199996,-35.420351349 149.10665126399999,-35.420224328 149.10691328,-35.420155341499999 149.10757724799998,-35.41996333 149.108099232,-35.419794332500004 149.10833324800001,-35.4197143385 149.10853523200001,-35.419643335499998 149.108965216,-35.419481312500004 149.109361216,-35.419323322499999 149.109665216,-35.419195321 149.1099552,-35.419066320500001 149.11037616,-35.418871312 149.11087417600001,-35.418622320499999 149.11103318400001,-35.41854031 149.111454176,-35.418310299499993 149.11166214400001,-35.418192306500003 149.11201715199999,-35.4179822945 149.112429152,-35.417673307500003 149.11288710400001,-35.417375291 149.113363104,-35.417081289 149.11412608,-35.416640286 149.11426006400001,-35.416540275 149.11434608,-35.416454287 149.11434908800001,-35.416415289 149.114365088,-35.416372276499999 149.11440006399999,-35.416323288500003 149.11442208,-35.416304289 149.11443708799999,-35.416291283500001 149.11449107199999,-35.416265272499999 149.114557088,-35.416255282500003 149.11459206399996,-35.416258279499999 149.11461907200001,-35.416268288 149.11464806399999,-35.416268288 149.11478406399999,-35.416248289500004 149.114929088,-35.416207275 149.115053088,-35.416151275499992 149.118220992,-35.414211236 149.11837398399999,-35.414122251 149.11860096000001,-35.413995248500001 149.11888896,-35.413845250499996 149.119019936,-35.413779242499992 149.11920995199998,-35.413688241 149.119394048,-35.413605453500004 149.119547936,-35.413536245 149.11980294400001,-35.413430221500001 149.11999091199999,-35.413355222500002 149.12045392,-35.413188223 149.12065891200001,-35.413120217 149.12093692799999,-35.413035228 149.12108192,-35.412992234 149.121248896,-35.412946224500004 149.121405888,-35.412905228500001 149.12169088,-35.412836223500001 149.12186089599999,-35.412798224500001 149.12213888,-35.412741207499998 149.122385888,-35.412695216499998 149.12288284799999,-35.412618201 149.12310086400001,-35.4125912095 149.12346086400001,-35.4125532105 149.12347184000001,-35.412550213500005 149.12408185599998,-35.4125831805 149.12616380799997,-35.412581164 149.12620681599998,-35.41257916599999 149.12698278400001,-35.41253817 149.12771977599999,-35.412463171 149.12830678399999,-35.412381160500004 149.128571744,-35.41233615 149.12885974400001,-35.412272158500002 149.12938176,-35.412134148500002 149.12953376,-35.4121021435 149.12969776,-35.412095150500001 149.129740768,-35.412119145 149.129799744,-35.4121321505 149.12986076799996,-35.412128154499996 149.12991376,-35.41210715699999 149.12995776,-35.412076151 149.129980768,-35.412050158500001 149.13001475199999,-35.411992161 149.13012576,-35.411934145 149.13027072,-35.411885157 149.131483712,-35.411510125 149.13223270399996,-35.411223134499998 149.132926688,-35.410892114 149.13340566400001,-35.41063411299999 149.13393164799999,-35.410323109499998 149.13535664,-35.409373097500001 149.1356816,-35.409186099500005 149.13726256,-35.408276084500002 149.14189260800001,-35.405643201499998 149.14227644799999,-35.405425031 149.14272243199997,-35.405225027500002 149.1430024,-35.405142018 149.14333340799996,-35.405079007 149.143656416,-35.405050998 149.14395740800001,-35.405057010500002 149.14400841599999,-35.405058009500003 149.14429139200001,-35.40508999599999 149.1444224,-35.405130011499999 149.14456339200001,-35.405200996 149.1446744,-35.405288001500004 149.14477539200001,-35.405396004499998 149.144792416,-35.405419 149.144813408,-35.405550997500001 149.14483939199997,-35.40577901 149.14483939199997,-35.406008003 149.14477539200001,-35.406666011 149.144691424,-35.407309996 149.14466643200001,-35.407660996499999 149.144648448,-35.408046999 149.14464451200001,-35.411670020499997 149.14464348799999,-35.41223403 149.144640576,-35.41541603 149.144618592,-35.41602101699999 149.14456860799999,-35.416605043499999 149.14448960000001,-35.417178044 149.14438864,-35.417721037500002 149.14425664000001,-35.418279034500003 149.14409561599999,-35.418840047 149.14391564799999,-35.419369036 149.143710656,-35.419893048499993 149.14363465599999,-35.420063063500002 149.14347670399999,-35.42041806 149.14319568,-35.420977056 149.142900704,-35.421500051 149.14256873599996,-35.422029058500001 149.14223372800001,-35.422516071 149.14185075200001,-35.423022083 149.14143574400001,-35.423521083499999 149.14100880000001,-35.423990077 149.14011481599999,-35.424859096 149.139839808,-35.425094101500001</coordinates></LinearRing></outerBoundaryIs></Polygon>

	</Placemark>
</kml>