<?xml version="1.0" encoding="UTF-8"?>
<kml xmlns="http://www.opengis.net/kml/2.2">
	<Placemark>
		<Style>
			<LineStyle>
				<color>ff0000ff</color>
			</LineStyle>
			<PolyStyle>
				<fill>1</fill>
				<color>330000cc</color>
			</PolyStyle>
		</Style>
			<ExtendedData><SchemaData>
		<SimpleData name="STATE_2006">1</SimpleData>
		<SimpleData name="POA_2006">2118</SimpleData>
	</SchemaData></ExtendedData>
      <Polygon><outerBoundaryIs><LinearRing><coordinates>151.06690764800001,-33.784353392 151.06675500799997,-33.784415737 151.064655488,-33.78525867099999 151.063194592,-33.785846194 151.06302396800001,-33.78591531 151.06271328,-33.786031231 151.06261788800001,-33.7860648825 151.06238892799999,-33.786149668 151.06227552,-33.78618837 151.06210128000001,-33.786283867 151.06202963199999,-33.786334261 151.061905088,-33.786454955 151.0617744,-33.786565659 151.061708512,-33.786624507500001 151.06164553599999,-33.7866850765 151.06158467199998,-33.786747625 151.06147129600001,-33.786877587500001 151.06139315199999,-33.786979023 151.06134563200001,-33.787048416499999 151.06118252799999,-33.787249067499999 151.06147776,-33.787494988 151.06151593600001,-33.787541164 151.061551936,-33.787580661500002 151.06166748800001,-33.78769182799999 151.06170636799999,-33.787732953500004 151.0617384,-33.78777012 151.061799616,-33.787846358499998 151.06190723200001,-33.787992231 151.06195475199999,-33.788061458 151.06200048,-33.788131462 151.06208617600001,-33.788273949 151.062443296,-33.788848596 151.06248144,-33.788909886500001 151.06352905599999,-33.790520977500002 151.0635456,-33.790545083 151.063582336,-33.790591888 151.06362265599998,-33.790636343500005 151.06366115200001,-33.790674324 151.06370256,-33.79071150899999 151.06374684799999,-33.790746141 151.063794016,-33.790776388499999 151.063808416,-33.790783418499998 151.06371731199999,-33.790886556 151.06349088,-33.791458132 151.062602752,-33.79167621 151.06237091200001,-33.791733171499999 151.06112928,-33.792038736 151.05951107199999,-33.792435357499997 151.05867804799999,-33.79263858 151.05839868800001,-33.792704551 151.05800953599996,-33.792803193 151.05741264,-33.792660447 151.05751056,-33.792388293499997 151.05730176,-33.792013446499993 151.05760380800001,-33.791897877 151.05795587199998,-33.7916132175 151.05804697600001,-33.791213876500002 151.05785075200001,-33.790861710500003 151.05740185600001,-33.790056923499996 151.05655008,-33.7896882 151.05632112000001,-33.789675879 151.05605436799996,-33.789774872499997 151.055480512,-33.788746531500003 151.05549635200001,-33.788412181 151.056821888,-33.788731861 151.05691657599999,-33.788748233500002 151.05701267200001,-33.788753820499991 151.05713292799996,-33.788745458500003 151.057339552,-33.788711159500004 151.05741049599999,-33.788692345 151.05747852799996,-33.788667518 151.05754332800001,-33.788636826500003 151.05800880000001,-33.788354849500003 151.058164672,-33.7882603515 151.058349728,-33.78816801799999 151.05835750400001,-33.788130185500002 151.05836844800001,-33.788079181 151.05824243199999,-33.787969013500003 151.057773376,-33.787475452 151.05754224,-33.78723210299999 151.056574208,-33.786213123 151.05651155199996,-33.786161101 151.05646691199999,-33.786129059 151.05634595199996,-33.786059036499999 151.05624121599999,-33.786014211 151.05554928,-33.785813245500002 151.05548953600001,-33.785795874 151.05541753599996,-33.785784182 151.05430585600001,-33.785600754500003 151.052983552,-33.785824401 151.05327552,-33.785036726500003 151.05329353600001,-33.7849721985 151.05330108800001,-33.784928631 151.053306496,-33.784862586 151.05330396799999,-33.78479643 151.05329424000001,-33.784730736500002 151.053276608,-33.784666208499999 151.05325139199999,-33.784603382500002 151.05321936,-33.784542906 151.05319417600001,-33.784504204 151.05315059200001,-33.784448759500002 151.05302569599996,-33.784335095499998 151.05294179200001,-33.784281630500004 151.05289680000001,-33.784258413 151.05285036800001,-33.784237619 151.052727616,-33.784197122499997 151.052438112,-33.784126193500001 151.05242057599997,-33.784147265 151.05231059199997,-33.784275266500003 151.052082592,-33.784484261 151.05179059199997,-33.784730274 151.051499616,-33.784994287499998 151.0512896,-33.785222281499991 151.05117161599998,-33.785477285500001 151.051070624,-33.785905283 151.05104361599999,-33.7861782875 151.05105260799999,-33.786378291 151.05118963199999,-33.786779278499999 151.05120163199999,-33.786883285500004 151.051266656,-33.786976285 151.051187648,-33.787049286 151.05108265600001,-33.7871762885 151.05106563199996,-33.7871762885 151.050837632,-33.787401285500003 151.05050464000001,-33.787725276 151.050174688,-33.787964296 151.05001766399999,-33.788062309 151.04998368,-33.788062309 151.04999968,-33.788091298499999 151.049792672,-33.788159304499999 151.049653664,-33.788271303500004 151.04937168000001,-33.788611296500001 151.04923171199999,-33.788752303499997 151.04905670399998,-33.788907296499993 151.048845696,-33.789133311 151.04873571199997,-33.789461316 151.04871571199999,-33.7896323115 151.04871369599999,-33.789718318 151.04877369600001,-33.790091315 151.04823372800001,-33.7907763145 151.04808217599998,-33.790625003 151.0479072,-33.790425573 151.04780569599998,-33.790295795500001 151.04771136,-33.790162503 151.047623872,-33.790025880500004 151.047518752,-33.789838864 151.047451072,-33.789696654499998 151.047389536,-33.789552484 151.04713321599999,-33.78887001899999 151.04621484800001,-33.789147833500003 151.04525868799999,-33.787058665499998 151.044833152,-33.787180266 151.04459459200001,-33.7872270525 151.04460636799996,-33.787292228 151.04464921600001,-33.787460078500004 151.04470355199999,-33.787626023500003 151.04476944000001,-33.787788564499998 151.04484611199999,-33.787945796 151.04517731199999,-33.788676879 151.04530656,-33.788962445 151.045358752,-33.7890597365 151.04540627200001,-33.78915873 151.04542825599998,-33.78920868 151.04548009600001,-33.78933522 151.04552617600001,-33.789464738500001 151.04556396800001,-33.789595959 151.045590976,-33.789727882500003 151.04560464,-33.789859565500002 151.04560355199996,-33.789984755 151.045590976,-33.79011111 151.04556864,-33.790237372500002 151.045538048,-33.790362303 151.045501312,-33.790484791499999 151.04544515200001,-33.790636972500003 151.04537676800001,-33.790788006500001 151.04534652800001,-33.790843266 151.04529648,-33.790935507 151.04520467200001,-33.791077439 151.045102816,-33.791211545499998 151.044984736,-33.791343117499999 151.04485331199999,-33.791469028500003 151.04471113599999,-33.791587650499999 151.04455993600001,-33.791697004 151.04440188800001,-33.791795368499997 151.04333916799999,-33.792265342500002 151.04326355200001,-33.792298735 151.04302704,-33.792402427500001 151.04297161599999,-33.792424831 151.042862176,-33.792472894 151.04275523199996,-33.7925250085 151.04266380799996,-33.792574144500001 151.04257417599999,-33.792626518 151.042486688,-33.792681962499998 151.04240281599999,-33.792740274499998 151.042322176,-33.792801213499999 151.04223539200001,-33.792874658500004 151.04215404799999,-33.792952673 151.042075936,-33.793033777 151.042000672,-33.793116749500001 151.04192688000001,-33.79320009199999 151.04182537599999,-33.793318529 151.04172780799999,-33.793439852 151.04163456,-33.793563691 151.04154598400001,-33.793689694500003 151.04146249600001,-33.793817585 151.04141011199999,-33.793896543 151.04135718399999,-33.793976481500003 151.04123388799999,-33.793844761500004 151.04112336,-33.793726953499998 151.04107260800001,-33.7936122905 151.04109888,-33.793374787499999 151.041229216,-33.792213690499999 151.04125225599998,-33.792007582 151.04142467200001,-33.791535092 151.041685312,-33.790822823500001 151.041699712,-33.790783141 151.041880448,-33.790282198 151.04201724800001,-33.79002786 151.04209248000001,-33.789889887 151.04233728,-33.7892208345 151.04234339199999,-33.789136141500002 151.04241792,-33.788045973500004 151.04245248000001,-33.788051190499992 151.042361408,-33.785796059 151.04232886399998,-33.784985518499994 151.04204928,-33.785035746 151.041549952,-33.785120883 151.04078892800001,-33.785196751500003 151.040621888,-33.785213494 151.04053980800001,-33.785223743 151.04045881600001,-33.785240134 151.0404192,-33.7852504755 151.04037529600001,-33.785264794500002 151.04030041600001,-33.785296115 151.04020681599999,-33.785337055499994 151.0400304,-33.785407170499994 151.038574208,-33.785975435 151.03847305599999,-33.786019261500002 151.03837008,-33.786060664499999 151.03826531199999,-33.786099533 151.03815984,-33.786135904 151.03805292799998,-33.786169555500003 151.037899552,-33.786212845500003 151.03784124800001,-33.786227257 151.03774368000001,-33.786251196 151.037585632,-33.786284033500003 151.037426176,-33.786311228500004 151.03726633599999,-33.786332096500004 151.03713491199997,-33.7863452315 151.03700208,-33.786355055 151.03686889599999,-33.786360531 151.03673603199999,-33.786360901 151.03660428800001,-33.786355221500003 151.03647251199999,-33.786345416499998 151.036339328,-33.786331837500001 151.03620755200001,-33.786312209 151.03608048000001,-33.786283774499999 151.03596096000001,-33.786243981 151.03588105599999,-33.786209071500004 151.03523161599998,-33.785994157 151.03493497599996,-33.785896144 151.03481904,-33.785863732 151.03470096000001,-33.785836111500004 151.03458179200001,-33.785813430499999 151.03446227200001,-33.785795781499999 151.03432656000001,-33.785783738 151.03418976,-33.785779501500002 151.03405152,-33.785780852 151.03391363200001,-33.785785717499998 151.033776128,-33.785791656 151.03374864,-33.78579395 151.03361376000001,-33.785800924500002 151.03345177599999,-33.785814503499999 151.03328976,-33.785831616 151.033137856,-33.785850153 151.032800896,-33.785897124500003 151.03263420799999,-33.785923413 151.03246860799999,-33.7859524765 151.03230409599999,-33.785984962499995 151.03214064,-33.7860215185 151.032022208,-33.786050212 151.03190377600001,-33.786080367 151.03178604799999,-33.786112779 151.03166976,-33.786148132499996 151.031556,-33.786187297 151.031489408,-33.786212216500005 151.03135836800001,-33.786265681499998 151.03122985600001,-33.786323457 151.030664992,-33.786669962 151.03054188799999,-33.786745553 151.03001555200001,-33.787046696 151.02967033600001,-33.787214546500003 151.028378656,-33.787715489499995 151.02838512,-33.787752933500002 151.026264352,-33.788528361 151.02590723200001,-33.788653643 151.02341568,-33.7895274535 151.02260784000001,-33.789810873500002 151.02220608,-33.790012283 151.02217260800001,-33.790023716 151.02210780799999,-33.790050818499999 151.02204659200001,-33.790082934499999 151.02199548799999,-33.7901176775 151.02194940800001,-33.790157915 151.02190585599999,-33.790201649 151.02177443199997,-33.790342674500003 151.021728,-33.790394881499999 151.021705696,-33.790421336500003 151.02135648000001,-33.790874309 151.02104473599999,-33.791279033500004 151.02045827200001,-33.792040345499998 151.02031968,-33.792194783500001 151.02017676799997,-33.792346890499999 151.02003024000001,-33.792496648 151.01988012800001,-33.792643704500001 151.01972963200001,-33.7927851 151.01957376,-33.792926125500003 151.01941715199996,-33.793061841499998 151.01925731200001,-33.7931949675 151.01909424,-33.79332518899999 151.01892793600001,-33.793452173 151.01878105599999,-33.793560268500002 151.018631296,-33.793666107 151.01847900800001,-33.793769707 151.018324928,-33.793870865 151.01816832,-33.793969581 151.01582976,-33.795100356500001 151.0154208,-33.795298084499997 151.01509100799998,-33.795452226500004 151.015052736,-33.795469968 151.01502947200001,-33.795396097500003 151.014734336,-33.793920685499998 151.01472736,-33.793888680500004 151.01478534399999,-33.793887681500003 151.01475635200001,-33.793735685500003 151.014610304,-33.792969693 151.01453731199999,-33.792601691 151.01446732799999,-33.792240682 151.014431328,-33.79205768 151.01428032,-33.791274704500005 151.01425430399999,-33.79113971 151.014215296,-33.790951713 151.013866272,-33.7893367 151.01384528,-33.789238705500004 151.01382528,-33.789145706 151.01334326400001,-33.787010713500003 151.01311926400001,-33.786019705500003 151.01298121599999,-33.785407707 151.014484224,-33.785086695 151.01370816,-33.781701713 151.013729152,-33.781698716 151.01395116800001,-33.781701713 151.01417414400001,-33.781719713500003 151.014259168,-33.781735716 151.01435616000001,-33.781736696499998 151.01458115200001,-33.781869693 151.01491814400001,-33.782146693500003 151.015473152,-33.782613689 151.01565916799998,-33.782730683 151.01599916799998,-33.782850692499991 151.01671712000001,-33.782918661499998 151.01733411199999,-33.782913666500001 151.018038112,-33.782838649 151.01850108799997,-33.782845660500001 151.01891008000001,-33.782937661 151.01902908799997,-33.782982653 151.01914908800001,-33.782998655499995 151.01943808,-33.783103643 151.01983110399999,-33.783152631 151.019984096,-33.783183637 151.02010409600001,-33.783184636 151.02022409599999,-33.783201637499999 151.02044608,-33.78319063 151.02049609599999,-33.783172629500001 151.020671104,-33.783107639 151.02072307200001,-33.783065625500001 151.020827072,-33.783038634 151.021300064,-33.782573636500004 151.02142204800001,-33.782460638499991 151.02147404799999,-33.7824466155 151.021683072,-33.782320612 151.021941024,-33.782267609500003 151.02199302400001,-33.7822256145 151.02213104,-33.782184618500004 151.02247702400001,-33.782046608500004 151.02303104000001,-33.781754623 151.02323801599999,-33.7817146075 151.023581984,-33.781662604 151.02383798400001,-33.781695589500004 151.024313984,-33.781859592 151.02446700799996,-33.781919587499992 151.024655008,-33.781936589 151.02467299200001,-33.781937588 151.024792,-33.781938605500002 151.024964,-33.7819125945 151.025016,-33.781884604 151.025068,-33.781885584500003 151.02520691199999,-33.781814433500003 151.02525817599999,-33.781788533499999 151.025363008,-33.781703581500004 151.02574995200001,-33.781265575500001 151.02590896000001,-33.781039579500003 151.02596496000001,-33.780825571500003 151.02600595199996,-33.78053958 151.02600896000001,-33.780396575 151.025979968,-33.780180569 151.02594793599997,-33.7800375825 151.02591792000001,-33.779879574 151.02591894400001,-33.779807572 151.025956928,-33.779664585500001 151.02602694399999,-33.7795945815 151.026183936,-33.779467579 151.02639193600001,-33.779356579 151.02651193599999,-33.779344572500001 151.02678592000001,-33.779333583499998 151.02710992,-33.779410562 151.02724694400001,-33.779441568 151.027484896,-33.779516567 151.02760390399999,-33.779546555499998 151.02774089600001,-33.7795485535 151.02793091199999,-33.779508556499998 151.02810390400001,-33.779425565499992 151.028208896,-33.779312567499993 151.028421888,-33.778972556 151.02845891199999,-33.77885756 151.02856489600001,-33.778730557499998 151.028756864,-33.778561541499997 151.02884387199998,-33.778491537500003 151.02903385600001,-33.778437536 151.03013385599999,-33.778296547499998 151.030355872,-33.778328534 151.03062784,-33.778418518 151.03071283200001,-33.778433521499998 151.03106883199999,-33.778596525 151.03134864,-33.778675594 151.03132982400001,-33.7785805225 151.03128384,-33.778279527500004 151.03191500799997,-33.777762008499998 151.03214499200001,-33.777563004 151.0322488,-33.777506523500001 151.032189792,-33.777479513499998 151.032131808,-33.777450524 151.0320768,-33.777418519 151.0320488,-33.777401517500003 151.03202281599999,-33.77738451599999 151.03197180800001,-33.777347516 151.03194681599996,-33.777328516499999 151.03189881599999,-33.777289518499998 151.031875808,-33.777268521 151.0318528,-33.777247523500002 151.03183180799999,-33.777225527 151.03181081599999,-33.777203530500003 151.03179081600001,-33.777180516500003 151.03175180799997,-33.777134525500003 151.0317168,-33.777087517 151.03165481600001,-33.776987524500001 151.03160579199999,-33.776882518499995 151.03157881600001,-33.776801525499998 151.031569792,-33.7767735165 151.03155180799999,-33.776690525500001 151.0311768,-33.774398523500004 151.030410112,-33.774489987500004 151.03037737599999,-33.774496555 151.03033993599999,-33.774498090500003 151.03030140800001,-33.774494760499998 151.03026540799999,-33.774487027500001 151.03023443199999,-33.774474965499998 151.03020995200001,-33.774449121 151.03019484800001,-33.774410437500002 151.03018297599999,-33.774367314 151.03016784,-33.774328353 151.03014336000001,-33.774302157 151.029960832,-33.773295609 151.02994896000001,-33.773236557 151.02985571199997,-33.7727737795 151.029757792,-33.772564082 151.02966780799997,-33.772412067499999 151.02965881599999,-33.772397304500004 151.02937331199999,-33.771737872 151.02921456000001,-33.771108502 151.02858528,-33.771182317 151.02855072,-33.771188070500003 151.02851545600001,-33.771191678 151.02847980799999,-33.771193195 151.02844451199999,-33.771192658499999 151.0284096,-33.771189957499999 151.02838441599999,-33.771186091 151.02828505599996,-33.771161874499995 151.02806905599999,-33.7710438075 151.02879177599999,-33.77014554 151.02902076800001,-33.769860547500002 151.029047776,-33.769817535 151.02906176,-33.769795538499999 151.029091776,-33.769753543500002 151.02916176,-33.7696755475 151.02922076799999,-33.769621546 151.02924278399996,-33.769605543499999 151.02930876799999,-33.76955653699999 151.02933276799999,-33.769542532500004 151.02937977599998,-33.769514542 151.02945577599999,-33.769477542 151.02953574399999,-33.769446536 151.02959075199999,-33.7694305335 151.02964675199996,-33.769414549499999 151.031252704,-33.769069524500004 151.031307712,-33.769104526500001 151.03171872,-33.76857951499999 151.031611712,-33.768365525500002 151.03163971199999,-33.76835252 151.030025696,-33.765585549 151.02962371199999,-33.764946540499999 151.02945216000001,-33.764657034 151.02956089599999,-33.764644713 151.029744128,-33.764621033 151.02992700799999,-33.764594041500004 151.03010915199999,-33.764563257500001 151.03029024,-33.764528699499998 151.030469536,-33.7644899975 151.030658176,-33.764444469 151.030845376,-33.764394426500004 151.031031136,-33.764340055 151.03121507200001,-33.764281299 151.03139616,-33.764218288 151.03163843199999,-33.764125677 151.03187747199999,-33.764024889 151.032006016,-33.763965300500004 151.032112192,-33.763916164500003 151.0323408,-33.763800058500003 151.032562912,-33.763676941 151.03275264000001,-33.763562814499998 151.03346262400001,-33.763054508499998 151.0338256,-33.762798505500001 151.03400361600001,-33.762669505 151.03413145600001,-33.762580464499997 151.03486188799999,-33.762059819 151.03497996799999,-33.761988187 151.03503888,-33.761952944499996 151.03555561600001,-33.7616432915 151.035681248,-33.761568773500002 151.03580832,-33.761496068500001 151.03593721600001,-33.761425861 151.03607257600001,-33.761355209500003 151.03620937599999,-33.761285723500002 151.036347616,-33.761218957 151.03712700799997,-33.7609503 151.03723536000001,-33.760914391500002 151.03808550400001,-33.760734442 151.03831052800001,-33.760683456 151.03873187199997,-33.760592454499992 151.03977804799999,-33.760367365 151.040981888,-33.760053531 151.04132784000001,-33.759969300500003 151.04143152,-33.759944011 151.041532,-33.759918999 151.04186713600001,-33.759837895 151.042847392,-33.759669785500002 151.043141152,-33.759622444 151.04349648,-33.759565297500004 151.04582064,-33.759340208 151.04634985600001,-33.759288981499999 151.04850121600001,-33.759058952499998 151.04855772799999,-33.759050035500003 151.04861424000001,-33.759037807 151.04867004799999,-33.75902223 151.048724032,-33.759003785499999 151.04877552,-33.758982455 151.04883347200001,-33.758956259 151.04886156800001,-33.758941773499998 151.04888748799999,-33.75892566 151.04890979199999,-33.758907308 151.04893139199999,-33.758883813 151.048957696,-33.758845111 151.04896307199996,-33.758946898 151.04896633600001,-33.759076583 151.048965952,-33.759155245 151.04896092799999,-33.759312569 151.048956256,-33.759391046 151.04894579200001,-33.759522359 151.048934656,-33.759576453 151.04893104000001,-33.759653672 151.048912672,-33.7597848 151.048890368,-33.759915299 151.04883420799999,-33.760189358 151.048717216,-33.76057563799999 151.04850768,-33.761029776 151.04819664,-33.761572381 151.04809225599999,-33.7617828 151.04802240000001,-33.761923104 151.04789065599999,-33.762246743 151.04780208,-33.762494883500004 151.04777436800001,-33.76265814599999 151.04774592000001,-33.762906638 151.04759795199999,-33.763855595500004 151.04751337600001,-33.764241246499999 151.04740355199999,-33.764721654500001 151.04736396799998,-33.7648870815 151.04725235199999,-33.765353633 151.04724515199999,-33.765396386500001 151.04723545600001,-33.765482615 151.047232192,-33.76556901 151.04723507200001,-33.765632557499998 151.04725488,-33.765839813 151.04727577599999,-33.766007404500002 151.04742336000001,-33.7665447 151.04862937600001,-33.7663473235 151.050410368,-33.766052304 151.05150736,-33.765871281500004 151.05262432000001,-33.765686263 151.05373728000001,-33.765499246499999 151.05480528000001,-33.765316244499999 151.05506230399999,-33.765270235 151.055902272,-33.765122235 151.057485216,-33.7648431995 151.05782624,-33.764781187499999 151.0585832,-33.764631189500001 151.05864918399999,-33.764458196 151.05870518399996,-33.764448187500001 151.06098115200001,-33.764055155 151.061110176,-33.764021152 151.06141017600001,-33.7660091435 151.06120720000001,-33.766174145 151.06049619199999,-33.766752159 151.059931232,-33.7668401635 151.059852224,-33.76685217 151.058005248,-33.767141195500002 151.05826924799999,-33.768305197 151.058626272,-33.769874182 151.058818304,-33.770664187500003 151.05912828800001,-33.771914177 151.057392128,-33.772234042 151.05740432,-33.772811205 151.05752732799999,-33.773285193500001 151.05720236799999,-33.773345207499993 151.05707235200001,-33.773359212 151.057030368,-33.773854216499998 151.05742636799997,-33.775429195500003 151.05752534399997,-33.775473188500001 151.05863235199999,-33.775277181 151.05990531200001,-33.775053164500001 151.06007132799996,-33.775726157500003 151.06035433599999,-33.776896153 151.06039833599999,-33.777077157 151.060606208,-33.777942938500004 151.06062851199999,-33.77803653 151.06075344000001,-33.7785586185 151.06092624,-33.7791771845 151.06124988799999,-33.780334766500005 151.06227481600001,-33.780098429 151.06254265600001,-33.780108511500003 151.06314457600001,-33.779962898 151.063682048,-33.779841297499999 151.063988032,-33.780745355500002 151.06437072,-33.781006982500003 151.06489056000001,-33.781361498 151.064527328,-33.782059521500003 151.06445100799999,-33.782204524500003 151.064416096,-33.782288403500004 151.06439449600001,-33.782375076 151.064386208,-33.782463635500001 151.064392672,-33.782552287500003 151.06441283199996,-33.782639219 151.064446336,-33.782723375499991 151.06449312000001,-33.782803110499998 151.06449996800001,-33.782825347500001 151.06492435199999,-33.783261096499999 151.06535676799999,-33.782987814500004 151.06539529599999,-33.783021096 151.06566240000001,-33.783355076499994 151.06581324800001,-33.783515101500001 151.065931328,-33.783602033 151.06606739200001,-33.783647043500004 151.06625424000001,-33.783693034500004 151.06639033600001,-33.783767108500001 151.066559168,-33.783869062 151.06672620800001,-33.784058076500003 151.06675932799999,-33.784116037 151.06690764800001,-33.784353392</coordinates></LinearRing></outerBoundaryIs></Polygon>

	</Placemark>
</kml>