<?xml version="1.0" encoding="UTF-8"?>
<kml xmlns="http://www.opengis.net/kml/2.2">
	<Placemark>
		<Style>
			<LineStyle>
				<color>ff0000ff</color>
			</LineStyle>
			<PolyStyle>
				<fill>1</fill>
				<color>330000cc</color>
			</PolyStyle>
		</Style>
			<ExtendedData><SchemaData>
		<SimpleData name="STATE_2006">1</SimpleData>
		<SimpleData name="POA_2006">2130</SimpleData>
	</SchemaData></ExtendedData>
      <Polygon><outerBoundaryIs><LinearRing><coordinates>151.14446147199999,-33.892207356 151.14443251200001,-33.892302409 151.14430352,-33.892487409 151.144047392,-33.892616391 151.14402150399997,-33.892629415 151.14391856,-33.892678421500001 151.14377753599999,-33.8927534205 151.14365856000001,-33.892815414 151.14332256,-33.892985429 151.14319353600001,-33.893138424 151.14317353600001,-33.893254437499998 151.14319856,-33.893362422 151.14322355199999,-33.893486427499994 151.14321459199999,-33.893606437 151.14323059200001,-33.893718436 151.14313801599999,-33.894173073499999 151.14298176,-33.894385287 151.14285683200001,-33.894560075 151.14275459199999,-33.894741504500004 151.142660288,-33.894897848 151.14259657599999,-33.8950420185 151.142548672,-33.89516117699999 151.14250441599998,-33.895289067500002 151.14239712,-33.895297263 151.14217961599999,-33.895313432 151.14190787199999,-33.895384916 151.14169440000001,-33.895444504499999 151.141671712,-33.8954507945 151.141482016,-33.895479506500003 151.14115619200001,-33.895493455500002 151.140799808,-33.895513620500004 151.140691648,-33.895514453 151.14063763199999,-33.895515452 151.139713664,-33.895531473 151.139658688,-33.895532472 151.13874268800001,-33.895547475500003 151.13857468800001,-33.895613465 151.138496704,-33.895644471 151.138228704,-33.895843475500001 151.13791571199999,-33.896075484 151.13726675199996,-33.896552488 151.13655075200001,-33.897063495 151.13638176000001,-33.897180489 151.13598976,-33.897454511 151.13576976,-33.897606507 151.13496179199998,-33.898164504 151.134425824,-33.898527511 151.13446579199996,-33.897955509500001 151.133358848,-33.897885524 151.13224582399999,-33.89781552 151.13231683199999,-33.896941524500001 151.13237283199999,-33.896263518 151.13238579200001,-33.896101532 151.13239481599999,-33.895912517500001 151.13239881600001,-33.895839516500004 151.132401792,-33.895005518 151.132408768,-33.893540521499993 151.13240976,-33.893452517 151.13242374399999,-33.891698532 151.13242473599999,-33.891452519 151.13242572799999,-33.891403531 151.13229872,-33.889809515499998 151.13211270400001,-33.889799525500003 151.13138275200001,-33.889721548 151.13154969600001,-33.889656539 151.13187433600001,-33.889529074 151.132141792,-33.889425566500002 151.132224608,-33.8893903795 151.13234556800001,-33.889338727500004 151.13309724800001,-33.889018862500002 151.13419955200001,-33.888546631499999 151.13431187200001,-33.888494702 151.13441484800001,-33.888447268 151.13487996799998,-33.888232612499998 151.13497609599997,-33.888187084 151.13641177599999,-33.887505414499998 151.13671811200001,-33.887348812 151.13742192000001,-33.886989357 151.13766457599999,-33.886857063500003 151.137733696,-33.886819342 151.13779129599999,-33.886777587499999 151.13788921599999,-33.886754906500002 151.13808252800001,-33.886665274 151.138176128,-33.886610458499995 151.13896236799999,-33.886179982 151.13899081599999,-33.886160094499999 151.139122208,-33.88606839 151.1393832,-33.886139041500002 151.139548096,-33.886191785 151.13968992,-33.886256757 151.13998188799997,-33.886402740500003 151.14001788799999,-33.886418761500003 151.14040704000001,-33.886623778500002 151.140665152,-33.886757515 151.14070368,-33.886774701499995 151.14091968,-33.886884776500004 151.14100896,-33.886942644500003 151.14112812799999,-33.887013573499999 151.14133584000001,-33.887154969 151.14173616,-33.887475093 151.14179808,-33.887522693500003 151.14298176,-33.888429989 151.14345625600001,-33.888782691499998 151.14379824,-33.88904208 151.14407219200001,-33.889250242 151.14429612800001,-33.889402719 151.14436144000001,-33.889442716 151.14444121599999,-33.889490631 151.14461292799999,-33.889591437500002 151.14479040000001,-33.889683771 151.14487356800001,-33.889708986500004 151.144940448,-33.889728411500002 151.14494793599999,-33.889729762 151.14495344,-33.889881406500002 151.14495344,-33.889952409500005 151.144966496,-33.890142404500004 151.144974496,-33.890250407499998 151.14497049600001,-33.890353415500002 151.14494848000001,-33.890433409499998 151.14470947199999,-33.890904419500004 151.14463548800001,-33.891036417 151.14455148799999,-33.89126840699999 151.14454950399997,-33.891430411500004 151.14448950400001,-33.892115411 151.14446147199999,-33.892207356</coordinates></LinearRing></outerBoundaryIs></Polygon>

	</Placemark>
</kml>