<?xml version="1.0" encoding="UTF-8"?>
<kml xmlns="http://www.opengis.net/kml/2.2">
	<Placemark>
		<Style>
			<LineStyle>
				<color>ff0000ff</color>
			</LineStyle>
			<PolyStyle>
				<fill>1</fill>
				<color>330000cc</color>
			</PolyStyle>
		</Style>
			<ExtendedData><SchemaData>
		<SimpleData name="STATE_2006">1</SimpleData>
		<SimpleData name="POA_2006">2131</SimpleData>
	</SchemaData></ExtendedData>
      <Polygon><outerBoundaryIs><LinearRing><coordinates>151.13660755199999,-33.885142483499997 151.13667856000001,-33.885174488499999 151.13736252800001,-33.885457298 151.13757241600001,-33.8855463015 151.137975232,-33.885728286 151.13816208,-33.885800195500003 151.13832624,-33.885871827500004 151.13847635199997,-33.8859117875 151.138738816,-33.885965974 151.13898432,-33.886030502 151.13903328000001,-33.886043378 151.139122208,-33.88606839 151.13899081599999,-33.886160094499999 151.13896236799999,-33.886179982 151.138176128,-33.886610458499995 151.13808252800001,-33.886665274 151.13788921599999,-33.886754906500002 151.13779129599999,-33.886777587499999 151.137733696,-33.886819342 151.13766457599999,-33.886857063500003 151.13742192000001,-33.886989357 151.13671811200001,-33.887348812 151.13641177599999,-33.887505414499998 151.13497609599997,-33.888187084 151.13487996799998,-33.888232612499998 151.13441484800001,-33.888447268 151.13431187200001,-33.888494702 151.13419955200001,-33.888546631499999 151.13309724800001,-33.889018862500002 151.13234556800001,-33.889338727500004 151.132224608,-33.8893903795 151.132141792,-33.889425566500002 151.13187433600001,-33.889529074 151.13154969600001,-33.889656539 151.13138275200001,-33.889721548 151.13211270400001,-33.889799525500003 151.13229872,-33.889809515499998 151.13242572799999,-33.891403531 151.13242473599999,-33.891452519 151.13242374399999,-33.891698532 151.13240976,-33.893452517 151.132408768,-33.893540521499993 151.132401792,-33.895005518 151.13239881600001,-33.895839516500004 151.13239481599999,-33.895912517500001 151.13238579200001,-33.896101532 151.13237283199999,-33.896263518 151.13231683199999,-33.896941524500001 151.13224582399999,-33.89781552 151.133358848,-33.897885524 151.13446579199996,-33.897955509500001 151.134425824,-33.898527511 151.134145824,-33.898720521500003 151.13392684799999,-33.898871518500002 151.133754848,-33.898990529 151.13338684799999,-33.899394532 151.13214291200001,-33.900761515500001 151.13200988799997,-33.900907517500002 151.131559904,-33.901401523 151.13060892799996,-33.90244755 151.12967056,-33.903478425499991 151.12958396799999,-33.903573552499999 151.12930896,-33.903879561 151.128584,-33.9047185545 151.128477984,-33.9046725635 151.12696201599999,-33.904283601 151.126082016,-33.904057605 151.125089024,-33.903803618499992 151.125348256,-33.903356677 151.12554192,-33.902983791 151.125528256,-33.902977223500002 151.12552032,-33.90296913899999 151.125515296,-33.902959500500003 151.12551347199999,-33.9029490665 151.125515648,-33.902938447499999 151.12511136000001,-33.902858157499999 151.123754048,-33.902527636500004 151.123854016,-33.902276628500005 151.12421603199999,-33.90136663199999 151.12433062399998,-33.901079530499999 151.12474499199996,-33.900041643500003 151.12487798399999,-33.899708643499999 151.12498896,-33.897780629 151.124997952,-33.897582642 151.12509392000001,-33.895964632 151.12511369599997,-33.895682618 151.12501494399999,-33.895675643499999 151.12453392,-33.895661639 151.12440694399999,-33.895689629499998 151.12437094399999,-33.895696641 151.12429193599999,-33.895713661 151.12426992,-33.895718656 151.12417692799997,-33.895739653500002 151.12407392,-33.89576165 151.12402793599998,-33.895641659 151.12386393599996,-33.895638662 151.12369696,-33.895634647500003 151.12356195199999,-33.8956316505 151.12337497600001,-33.895626655500003 151.12328896,-33.895623658499993 151.12320297599999,-33.895621660499998 151.12303696000001,-33.8956166655 151.12287795199998,-33.895611670500003 151.12271897599999,-33.895606675499998 151.12255897599999,-33.895601680499993 151.12242595199999,-33.895598665 151.12240595200001,-33.895597666 151.12217596799999,-33.895590673 151.12202896,-33.895586677 151.12188096,-33.895581663499996 151.12172995200001,-33.895576687 151.12170496,-33.895576687 151.121635008,-33.895574689 151.121576992,-33.895572691 151.121404,-33.89556769599999 151.12125398399996,-33.8955626825 151.121228,-33.895561683499999 151.12106300799999,-33.895558686500003 151.121015008,-33.895557687500002 151.120548,-33.895542702500002 151.120405984,-33.895537707499997 151.12007500799999,-33.895527717500002 151.11996099199999,-33.895527717500002 151.119921664,-33.895527736 151.11980300799999,-33.895528716499996 151.119272032,-33.895564736 151.11897504000001,-33.895584734499998 151.11848403199997,-33.89561772 151.118270016,-33.895631724499999 151.11826304,-33.895631724499999 151.117864032,-33.895657754 151.11773203199999,-33.89566574599999 151.11738604799999,-33.895689740500003 151.11721404799999,-33.895696752 151.11673206399999,-33.895722763 151.11662489599996,-33.895728775500004 151.11679897600001,-33.893912075499991 151.11682304000001,-33.89366375 151.11680041599999,-33.893401586499998 151.11700201599999,-33.893359647 151.11702598400001,-33.892991737500004 151.11712499199996,-33.891528739 151.11715897600001,-33.890959753 151.11718297600001,-33.890626753 151.117196,-33.890494996 151.11719065599999,-33.889998696500001 151.11718848000001,-33.889792144 151.11725545600001,-33.889129196500001 151.117275616,-33.888927417 151.11735587199999,-33.8887654125 151.117464928,-33.888536734 151.11691094400001,-33.888521749 151.11727292800001,-33.887485730500003 151.11754291199998,-33.887054736 151.11799091200001,-33.886341727500003 151.11770588799999,-33.886237720499999 151.11717788799999,-33.885961719 151.11657190400001,-33.8856447215 151.116239904,-33.885471746500002 151.115313888,-33.884986750499998 151.11589689600001,-33.884282751500002 151.11614985599999,-33.88397774199999 151.11624585600001,-33.883861747 151.11633488000001,-33.883749304 151.116466336,-33.883825672 151.116788512,-33.883981553 151.1171928,-33.884207641499998 151.11728134399999,-33.8842540765 151.1177904,-33.8845060835 151.11815472000001,-33.884686162500003 151.11841859200001,-33.88481675399999 151.11931644800001,-33.885260735500005 151.119420832,-33.885308521 151.11950112,-33.885345151 151.119606976,-33.885229507499993 151.120146976,-33.884312222 151.120207808,-33.884219685 151.12025180800001,-33.884145685 151.1202888,-33.884082692500002 151.120570816,-33.883662668500001 151.12069580799999,-33.883476669499998 151.12087081600001,-33.883217669499999 151.12156678400001,-33.8821826685 151.12199372800001,-33.881548655 151.12241574399999,-33.880920654 151.12270272000001,-33.880669646 151.12324441600001,-33.880168888 151.123437376,-33.8800214615 151.123543936,-33.879969624499999 151.12351072000001,-33.879922634499998 151.12340070399998,-33.879821643 151.12278569599999,-33.879403635500005 151.12268169599997,-33.879333631500003 151.12138470400001,-33.8784536605 151.121453696,-33.878345657499999 151.12178028799997,-33.877863177500004 151.121983328,-33.877591468 151.12197792000001,-33.877586066 151.12197468799997,-33.877579683500002 151.1219736,-33.877572653500003 151.12197504,-33.877565734500003 151.12197865600001,-33.877559426 151.121984032,-33.877554209 151.121991232,-33.877550527499999 151.12199952,-33.877548622 151.12200780800001,-33.877548807 151.12201609600001,-33.877550879 151.12202291200001,-33.877554838 151.12219139199999,-33.877254231500004 151.12302163199999,-33.87602363 151.123095648,-33.875953626 151.12385664,-33.876578611499994 151.12395689600001,-33.876720136499998 151.124614624,-33.87637661 151.12534956799999,-33.875791603 151.12548358399999,-33.875657589 151.12639856000001,-33.874840592 151.12647036800001,-33.874799041 151.126493536,-33.8747855915 151.126651552,-33.87471457 151.12705353600001,-33.874525574 151.127584544,-33.8742895695 151.127689632,-33.874243171499998 151.1279136,-33.874510681499999 151.128115936,-33.874753494 151.12828691199996,-33.874970129 151.12848384,-33.875226539 151.12872649600001,-33.875550085500002 151.129074976,-33.87600927399999 151.12920672000001,-33.876155979 151.12940003200001,-33.876363863500004 151.12941264,-33.876379884500004 151.12957356800001,-33.876583477 151.12970928,-33.876770401 151.12972512,-33.876798114 151.129816576,-33.876957602499999 151.12982988799999,-33.876981264 151.12994688000001,-33.877213735 151.12997856000001,-33.877264147499993 151.13060064000001,-33.878249735 151.131233888,-33.879250529499998 151.13134979200001,-33.879432606499996 151.13183616000001,-33.880138474 151.13206547199999,-33.880446813500001 151.13230345599999,-33.880766401 151.132523392,-33.881067803 151.13254969599998,-33.881107689 151.13264652800001,-33.881242054499999 151.13299139200001,-33.881872775 151.13307456000001,-33.882017944499999 151.13318112,-33.882154641 151.13338451199999,-33.882410163 151.133572448,-33.882628944 151.13392812800001,-33.883071667499998 151.13429785599999,-33.883637046 151.13446019200001,-33.883896952500002 151.13455993599999,-33.884013872499999 151.134571456,-33.884027377499997 151.13465027199999,-33.884101359 151.134841792,-33.88425542699999 151.13493468799999,-33.884312758500002 151.13515356799999,-33.884439206 151.13566054399999,-33.884700481499998 151.13646054399999,-33.885078492 151.13651056,-33.885101487500002 151.13660755199999,-33.885142483499997</coordinates></LinearRing></outerBoundaryIs></Polygon>

	</Placemark>
</kml>