<?xml version="1.0" encoding="UTF-8"?>
<kml xmlns="http://www.opengis.net/kml/2.2">
	<Placemark>
		<Style>
			<LineStyle>
				<color>ff0000ff</color>
			</LineStyle>
			<PolyStyle>
				<fill>1</fill>
				<color>330000cc</color>
			</PolyStyle>
		</Style>
			<ExtendedData><SchemaData>
		<SimpleData name="STATE_2006">1</SimpleData>
		<SimpleData name="POA_2006">2256</SimpleData>
	</SchemaData></ExtendedData>
      <MultiGeometry><Polygon><outerBoundaryIs><LinearRing><coordinates>151.29523244800001,-33.496030170499999 151.29521958399999,-33.496093163 151.29542592000001,-33.496136009 151.29573193600001,-33.496182999 151.29593603199996,-33.496200000500004 151.29612396799999,-33.496230951 151.296343936,-33.4963340145 151.29663299200001,-33.496424017 151.296786016,-33.496453987 151.29714384,-33.496459019 151.297401248,-33.496418374500003 151.29753820799999,-33.496406368 151.297999936,-33.496341026 151.29873721600001,-33.49619236 151.29991907199999,-33.495993004 151.300108096,-33.495981034499998 151.300158176,-33.495981349 151.3002272,-33.495996352500001 151.30029417599999,-33.496040364 151.3003272,-33.496098361500003 151.300393184,-33.496242365500002 151.30044118399996,-33.496386351 151.30052518400001,-33.496487361 151.3006592,-33.496603337499998 151.30103219200001,-33.496752336500002 151.301202176,-33.496811333 151.30132019199999,-33.496870348 151.30155817599999,-33.496930343500004 151.30205315199998,-33.496965345500001 151.30212214400001,-33.49695234 151.30229216000001,-33.496954338 151.30253593599997,-33.49687797 151.30275011200001,-33.496775998 151.302859936,-33.496658005 151.30288908799997,-33.496539031499999 151.30296899199999,-33.496517978500002 151.30305683200001,-33.49657098099999 151.303136032,-33.496616972 151.303277888,-33.496701036 151.303472992,-33.496725955500004 151.30362384,-33.496713005499998 151.303820032,-33.496731006 151.30399609599999,-33.496806967 151.30421712,-33.496900022 151.30437084799999,-33.496896951 151.30453113600001,-33.496854327 151.30458012799997,-33.496822322 151.30461811200001,-33.496797328499994 151.30488889599999,-33.496700037 151.30510704,-33.496671954 151.305504832,-33.49654497 151.30575683199999,-33.496493040499992 151.306075072,-33.496419965500003 151.30635408000001,-33.496356954500001 151.30683504000001,-33.496088038499998 151.307222048,-33.495828021 151.30757017600001,-33.495622023500005 151.30799603200001,-33.495417987 151.30822393599999,-33.495278034500004 151.30836,-33.495047006500002 151.30847987199999,-33.495004974499999 151.30862713600001,-33.4949069615 151.308848896,-33.494346004500002 151.30900009600001,-33.494049986 151.30912284799999,-33.493820031 151.30944505599999,-33.4935809925 151.30968409600001,-33.493484977500003 151.30997712000001,-33.493389036499998 151.31027017599999,-33.493259962 151.31050992,-33.493120028 151.31072592000001,-33.492902042499999 151.31091312000001,-33.492771987499992 151.31108700799999,-33.492641044500004 151.311210848,-33.492389037499997 151.31133504,-33.492124987 151.31164284799999,-33.491874959500002 151.31193408,-33.491845988500003 151.31340288000001,-33.491700005 151.313745952,-33.491693974 151.314336,-33.491653015 151.31493289599999,-33.491573002500004 151.315250048,-33.49151001 151.315610048,-33.491372037 151.316226016,-33.490915013 151.31665692799999,-33.490512009 151.317140032,-33.490131038500003 151.317430016,-33.489880992499998 151.31756988800001,-33.489761038499992 151.317973088,-33.489402027499992 151.31830787199999,-33.489173978 151.31869596799999,-33.488925023500002 151.318983968,-33.488719026 151.319187008,-33.488444967 151.31950883199997,-33.488183969 151.31969712,-33.487998025499991 151.31992608,-33.487802018 151.32031596799996,-33.487453977500003 151.32059712,-33.487225021499995 151.32094416000001,-33.487085975500001 151.32107593599997,-33.487065995500004 151.321316032,-33.486968963 151.321542112,-33.486861959 151.32170195200001,-33.486786997 151.32194208000001,-33.486678994 151.32202307200001,-33.486591951500003 151.32212387199999,-33.486503040500004 151.32235283200001,-33.48648396699999 151.322906176,-33.485918033499999 151.323491168,-33.485138018 151.32364092799997,-33.484759027 151.32371795199998,-33.484436997499998 151.32385187200001,-33.484187969 151.32401891200001,-33.4836540035 151.32399264,-33.483273218 151.32398275200001,-33.482929173500004 151.32396672,-33.482886216499999 151.32397075200001,-33.482599170500002 151.323939744,-33.482456165500004 151.32394774400001,-33.481997180500002 151.32392275199999,-33.481553180500001 151.32390672,-33.481467174 151.32391670399997,-33.480908178 151.32386470399999,-33.480047169499997 151.32385270399999,-33.479746174499994 151.32381270400001,-33.479173174 151.32377270399999,-33.478542176 151.32377571200001,-33.478398172 151.32370672,-33.47749515 151.32369369599999,-33.477265158 151.32360492800001,-33.477003993499999 151.323707168,-33.476886000500002 151.32381238400001,-33.476858102500003 151.32371689600001,-33.476320973500002 151.32361212800001,-33.4763119825 151.32350304,-33.476270043 151.32339504000001,-33.476212989 151.32330108799999,-33.476108038500001 151.32317795200001,-33.476057996 151.32308291199996,-33.476096975499999 151.32291804799999,-33.476222979 151.32259692799997,-33.476529968 151.32245616,-33.476679004 151.32231001599999,-33.476824987499995 151.32217392000001,-33.476986973500004 151.322110912,-33.477062046500002 151.32195683200001,-33.4771280175 151.32186108799999,-33.4771579875 151.321766048,-33.477194969 151.321662016,-33.47722098 151.32147408,-33.477363985 151.321286176,-33.477534 151.32102697599998,-33.477642003 151.32074796800001,-33.4777840275 151.32057193599999,-33.477807966500002 151.32026304,-33.477881041499998 151.32015107199999,-33.477922981 151.32010787199999,-33.477939002 151.32009097599999,-33.478020994 151.32008483199999,-33.47805096399999 151.32000995199999,-33.478238961 151.31991203199999,-33.47851202099999 151.31988793599999,-33.478718037 151.31995596799999,-33.478883001500002 151.320056032,-33.479047984499999 151.32018601600001,-33.479213041499996 151.32016297599998,-33.479350015500003 151.32017088,-33.479478997500003 151.32020688,-33.479720015499993 151.32023497599999,-33.479866979500002 151.32008809600001,-33.480010983500001 151.31998403200001,-33.480087037 151.31991097599999,-33.480171989 151.31980691199999,-33.480214021 151.31971404799998,-33.48023796 151.31951891200001,-33.480234981500004 151.31938608,-33.480224991500002 151.31925289599999,-33.48019700099999 151.31907001600001,-33.480117987499995 151.318916992,-33.480072995500002 151.31870208000001,-33.480000993499992 151.31855987200001,-33.479938981499991 151.31843712,-33.479910991 151.31831616,-33.479823967 151.31799001600001,-33.479706954500003 151.31779596800001,-33.479652953 151.317507968,-33.479631992500003 151.31734416,-33.479630013 151.31708784,-33.479609034 151.31688300799999,-33.47957196 151.31676096000001,-33.479535959 151.316587072,-33.479472966499998 151.31629187199999,-33.479340025500001 151.31608883199999,-33.479243011500003 151.315844032,-33.479136988 151.31574288,-33.479065985 151.31562192000001,-33.478986953 151.31523888000001,-33.478587001500003 151.31514816000001,-33.478507988 151.314995872,-33.478428956 151.31478204800001,-33.478314034 151.31430505599999,-33.478057975500001 151.314141952,-33.477977963 151.31406096000001,-33.477908033 151.31376899200001,-33.477595013 151.313429888,-33.477190011 151.31340108800001,-33.477107038499994 151.31340217599998,-33.477049984499999 151.313385952,-33.477005973 151.313391008,-33.476749026500002 151.31342592,-33.476662983 151.31350188799999,-33.476276962 151.313508,-33.475961962500001 151.31347488,-33.475860989499999 151.31347705600001,-33.475789986500004 151.31341187199996,-33.475602951500001 151.31331395199999,-33.475343045 151.31320201599996,-33.474968993499999 151.31322505599999,-33.4745970325 151.31324304,-33.474569042 151.313226848,-33.474510989 151.31319408,-33.474453028500001 151.31312496000001,-33.474311004 151.313084992,-33.474224979 151.313025952,-33.474129038 151.31294496000001,-33.474024994 151.31285603200001,-33.4738950315 151.31277504,-33.473726996 151.31274803199997,-33.473645004 151.312664896,-33.473514967500002 151.312583872,-33.473270971 151.31256912000001,-33.473169998 151.312424032,-33.472709995500004 151.31239308799999,-33.472522979 151.31239705600001,-33.472294023 151.312433056,-33.472223001499998 151.31243484799998,-33.472122028499996 151.31240208,-33.472022036 151.312392,-33.471881991 151.31236211199999,-33.471803976499999 151.31232288000001,-33.471726036 151.31227212799999,-33.471682024499998 151.312200832,-33.471655014500001 151.31209788800001,-33.471654034 151.31188297599999,-33.471633961500004 151.31164787200001,-33.471595981 151.31152512,-33.47155998 151.31137392,-33.471464039 151.31120112,-33.471350005 151.311068992,-33.471279002 151.31090809599999,-33.471131039 151.31071584,-33.470964983 151.31061612799999,-33.47083404 151.31049696,-33.470609043 151.310439008,-33.470453976 151.310369888,-33.470271991499999 151.31032416,-33.470166967 151.31030112,-33.47011701699999 151.31025289600001,-33.469970034500001 151.31022588799999,-33.469788956500004 151.31013587199999,-33.469641992500001 151.31003616000001,-33.469503039 151.30992601599996,-33.4693809945 151.30983491200001,-33.469284961 151.30971683199999,-33.469178031 151.309613888,-33.469022964 151.309530016,-33.468884991 151.30961785599999,-33.468805977500004 151.30954297599999,-33.468707964499998 151.30952604800001,-33.468611043 151.30955699200001,-33.468506999 151.30949113599999,-33.468401974500004 151.30941587199996,-33.468311972 151.309351072,-33.46822998 151.30936297599999,-33.468110007500002 151.30935612799999,-33.467949002 151.309388896,-33.467756047 151.30945008,-33.467554989 151.30947312000001,-33.467370026 151.30942704,-33.467289033 151.30945833599998,-33.467095671 151.309424896,-33.466839205500001 151.30943184,-33.466481230500001 151.30950684800001,-33.466138203499995 151.30940684800001,-33.465979214500003 151.309310848,-33.465606217500003 151.30909683199997,-33.465216219 151.30902982399999,-33.465129213499999 151.308881824,-33.464841205500001 151.308688832,-33.464208209500001 151.30867484800001,-33.464178202499994 151.30850784,-33.463833214499999 151.30844384,-33.463589218 151.30840182399999,-33.463101206499999 151.308169824,-33.462754202 151.30676681599999,-33.458864207 151.3067112,-33.4587834915 151.306693408,-33.45864772 151.30920176,-33.458957188 151.31005500799998,-33.459062009 151.310243872,-33.459089666499999 151.310274112,-33.459017313 151.31033532800001,-33.45896592 151.31044176,-33.458897192500004 151.31047977599997,-33.458887165500002 151.31066688000001,-33.458898691 151.31121475200001,-33.458945181499999 151.31219475200001,-33.458857177 151.31236067199998,-33.458836494 151.31253372800001,-33.458815182 151.31265913600001,-33.458781956 151.31285872,-33.458691176500004 151.31294569599999,-33.458637175 151.31303872,-33.458540161 151.31328300800001,-33.458142596 151.31338272,-33.457989157 151.31345072,-33.457895158500001 151.31373369600001,-33.457554148 151.31378771199999,-33.457479149 151.31398067200001,-33.457158174 151.314041664,-33.457057145500002 151.31459555199999,-33.456117863499998 151.31560608000001,-33.456456006499998 151.31550384,-33.456619972 151.315452,-33.456756964500002 151.315499872,-33.45686802 151.31548009599999,-33.457005993 151.31541312,-33.457102026500003 151.315296128,-33.457168978 151.31519712,-33.457167997500001 151.31511216000001,-33.457304971500001 151.31500992,-33.457482997 151.31487491199999,-33.457661004 151.314756128,-33.457851998 151.31475395199999,-33.45796296099999 151.31468483200001,-33.458100027500002 151.31459987199997,-33.45824997 151.31451491199999,-33.458400985499992 151.31436409599996,-33.4585089885 151.314247072,-33.458617972 151.31417795199999,-33.458769006 151.31410883199999,-33.458933970499999 151.31399004799999,-33.459084005500003 151.31388492799999,-33.459229989 151.313676128,-33.459427976 151.31360483199998,-33.459585022500001 151.313571008,-33.4595989715 151.313535008,-33.459713005499999 151.31349900800001,-33.459812998 151.313496128,-33.4599419615 151.31350188799999,-33.45999903399999 151.31351088,-33.460100007 151.313466976,-33.460629033 151.31348099199997,-33.4607579965 151.31389104,-33.461651972 151.31407715200001,-33.461783007500003 151.31419488,-33.461884979499999 151.31434716800001,-33.461958961 151.314584032,-33.462033035 151.314703936,-33.462048963500003 151.314975008,-33.462138966 151.31532492799997,-33.462240031500002 151.31551283199997,-33.462322023500001 151.31579689599999,-33.4623830365 151.31605104,-33.462557010499999 151.31630483199999,-33.462741955 151.31659715200001,-33.4630529955 151.317424096,-33.463767965 151.31762496,-33.4638839785 151.31796300799999,-33.463956961 151.31835395199997,-33.464076027 151.31870387199999,-33.464159998500001 151.31897388799999,-33.464242971 151.31933712,-33.464373026 151.31990195199998,-33.4646309715 151.31994192,-33.464654004 151.32007008,-33.4650189535 151.32021299199999,-33.465349974 151.32026412799999,-33.465533031500001 151.32018096,-33.465621961 151.32024,-33.466088975 151.32021913599996,-33.466440956 151.320035168,-33.466847031 151.31996208000001,-33.467140977500001 151.31984905600001,-33.467389025500005 151.31974499200001,-33.467841998 151.319711168,-33.468204968 151.31966508799999,-33.468443007499999 151.31954915200001,-33.468849989 151.31954412799999,-33.46913403799999 151.319553856,-33.469649004 151.31979900799999,-33.4701739785 151.32043513599999,-33.471055984499998 151.32097008,-33.471576981499993 151.32127715199999,-33.471809008500003 151.32166704,-33.471963002500004 151.32199212800001,-33.472024015500004 151.32208393600001,-33.472172977500001 151.32213504000001,-33.472310044 151.322238016,-33.472483019 151.32246803199999,-33.472673994499999 151.322717888,-33.472824029499996 151.32303504000001,-33.473007993499998 151.323257152,-33.473132998 151.323452992,-33.473268991499992 151.32359305599999,-33.473390037 151.32386016000001,-33.473671015 151.324092,-33.473949033 151.32427993600001,-33.47416404 151.32431196799996,-33.474278962 151.324293952,-33.474320994 151.324292896,-33.47439299599999 151.32425184,-33.474728974500003 151.32421513599999,-33.475202001 151.32425004800001,-33.475536999 151.324272,-33.475814018 151.324239968,-33.4760439545 151.32423817599999,-33.476223959500004 151.32422304,-33.4762360215 151.32413196799996,-33.476274982500001 151.324149952,-33.476831999 151.32424896000001,-33.476857011 151.32425689600001,-33.477215041500003 151.32446316799999,-33.482440977 151.32447504000001,-33.482916982 151.32449017599998,-33.483078006 151.324561088,-33.48322497 151.324756928,-33.483249001499999 151.32523971200001,-33.4832751605 151.32535488,-33.483278971499999 151.32535596799997,-33.483216959499998 151.32545603200001,-33.483218032499998 151.32545891199999,-33.483292014 151.32573216,-33.483409026499999 151.32583907200001,-33.483472019 151.32586608,-33.483450966 151.32594889599997,-33.483473998500003 151.32601584,-33.483391026 151.32606803199999,-33.483420996 151.32602195199999,-33.483492998 151.326091072,-33.483540968500002 151.326024128,-33.483632044 151.32609683199996,-33.483701974 151.32621312,-33.483803039500003 151.326368992,-33.483855968 151.326504,-33.483871989 151.32657888,-33.48386199899999 151.32661884800001,-33.483786038 151.32669408000001,-33.483735995499998 151.32679091200001,-33.483734016 151.32689497600001,-33.483768037499999 151.32703392,-33.483806018 151.32753792,-33.483959013 151.32782700800001,-33.484057026 151.32824496000001,-33.484176998500004 151.32859488,-33.484274993 151.32894409599999,-33.484388046500001 151.329233888,-33.484463008500001 151.32947184,-33.484596023499996 151.32965795199999,-33.484706006 151.32975913600001,-33.484786018500003 151.32990492799999,-33.484803038500004 151.33000787200001,-33.484826977499999 151.33038300800001,-33.484916961499991 151.330784032,-33.485001025500004 151.33111091200001,-33.484955034499997 151.33131900800001,-33.4848429985 151.33150009599998,-33.484780986499999 151.33178304,-33.48479898699999 151.33222908799999,-33.484761987 151.33255596800001,-33.484715996 151.33289904,-33.4846989945 151.333198912,-33.484703046 151.33349088,-33.484692963500002 151.33370291200001,-33.484690984 151.333836128,-33.484660015 151.33394592,-33.484622034499999 151.33405715200001,-33.484557969 151.33413708800001,-33.484454017499999 151.33423104,-33.484436017 151.33435488000001,-33.484490018500004 151.33445497599999,-33.48455697 151.33454784,-33.484597022500004 151.33460185600001,-33.484650025 151.334631008,-33.484735976 151.33473395199999,-33.484704026500005 151.33483584000001,-33.4846530035 151.33493916800001,-33.484596023499996 151.33510403199998,-33.484545981 151.33519008,-33.484534011499996 151.33533193599999,-33.484483987499999 151.33544316800001,-33.484354025 151.33556915200001,-33.484276972499991 151.33575708800001,-33.484259971 151.335936,-33.484289034500001 151.336108096,-33.484310994 151.33625056,-33.48433008599999 151.33635612800001,-33.4843859745 151.33645008,-33.484393985 151.33655088,-33.484434037500002 151.336580032,-33.484519988500004 151.33653612800001,-33.484761006500001 151.336518848,-33.484871969499999 151.33652496,-33.484943971500002 151.33659984,-33.485109028499998 151.33658291199998,-33.485200011499998 151.33651705599999,-33.485355985 151.336468096,-33.485480009 151.33644217599999,-33.485630044 151.33640688,-33.485825977499999 151.33629312,-33.486053046500004 151.33614912,-33.486260043 151.33612393600001,-33.486384955 151.33605408,-33.486557042 151.33598892800001,-33.486674036 151.33589315200001,-33.486815968 151.33559113600001,-33.4871379975 151.33544713599997,-33.487317984 151.33527216,-33.487536968500002 151.33517603199999,-33.487653962499991 151.33511196800001,-33.487795987 151.33503097600001,-33.487964004 151.33494995199999,-33.488081016500004 151.33479084799998,-33.488261003 151.33467996799999,-33.488403027499999 151.33456691200001,-33.488584013 151.334420032,-33.488920972 151.33435417600001,-33.489127987 151.334367136,-33.489297983500002 151.334442016,-33.4894030265 151.33448700799997,-33.489420028 151.33443155200001,-33.489509124 151.334345888,-33.489578961500001 151.33429008,-33.4896170345 151.33413708800001,-33.489720005500004 151.33370508799999,-33.490043996 151.33361865599997,-33.490115073 151.33346208,-33.49029896299999 151.33323164799998,-33.490726091 151.33319603199996,-33.490826009500005 151.332950176,-33.4911950105 151.33277593599999,-33.491378974500002 151.33265366399999,-33.491507105499998 151.33252966399999,-33.491650092 151.33199068799999,-33.492272099 151.33191984000001,-33.4924139755 151.331884672,-33.492457099 151.33166467199999,-33.493271099 151.33137913600001,-33.493998963 151.33133305600001,-33.494093017 151.331240896,-33.494186978500004 151.33114188799996,-33.494298034 151.33107203200001,-33.494409996 151.33101193600001,-33.494529968500004 151.33094208,-33.494675045500003 151.330880896,-33.494850999 151.33083084800001,-33.494955024500001 151.33076099199999,-33.4950990285 151.330732192,-33.495170457 151.33068,-33.49529999399999 151.33060009600001,-33.495452008500003 151.33054896,-33.495629035 151.33048704000001,-33.495804988499998 151.33045609599998,-33.495933952 151.33044384,-33.496054017 151.33042188799999,-33.496223033 151.33039993599999,-33.496368036 151.33039811200001,-33.496472968 151.33037616,-33.496610034499994 151.330392,-33.496739016500001 151.330439168,-33.496836030499992 151.33043593599996,-33.496997036 151.330385888,-33.497076956 151.33035203200001,-33.497367036 151.33037795199999,-33.497513001 151.33042403199997,-33.497625962 151.33043088,-33.497722976 151.33042009600001,-33.497794978 151.33047587199999,-33.497909012 151.33049388800001,-33.497965973500001 151.33044492799999,-33.498045986 151.330431968,-33.498190989 151.330439872,-33.498295014499995 151.33049603200001,-33.498368996 151.33059792,-33.498422997500001 151.33062995200001,-33.498573032499998 151.33087907199999,-33.498978034499999 151.33111705600001,-33.499555012500004 151.331123168,-33.499596952 151.33113216000001,-33.499638003500003 151.331144032,-33.499679036499998 151.33115808,-33.499719995500001 151.33117392,-33.499758956500003 151.33118688,-33.49978398699999 151.33120092799999,-33.499808999 151.33121497600001,-33.499834011 151.33123008000001,-33.499857968500002 151.33124483200001,-33.499882980500004 151.331286976,-33.499952004 151.33133088,-33.500021046 151.331375872,-33.500089977 151.331420896,-33.500159019 151.331466976,-33.500226951 151.33149289599999,-33.500266023 151.33151808,-33.500304984 151.331544,-33.500345036500001 151.331571008,-33.500383017 151.331600896,-33.500419018 151.33162787200001,-33.500447008500004 151.33165596800001,-33.5004740185 151.33168585600001,-33.500500011 151.33171609600001,-33.500525041499998 151.33174595200001,-33.50055096 151.331780896,-33.5005800235 151.33181616,-33.500609013 151.33185216000001,-33.500637984 151.331887072,-33.500666973500003 151.33192201599996,-33.500696037 151.331937856,-33.500710985 151.331954048,-33.500727006 151.331969888,-33.500742028 151.33198608000001,-33.500756976 151.33200192000001,-33.500772997 151.33203792,-33.500810977500002 151.33207212799999,-33.500850031 151.332104896,-33.500889991 151.33214016,-33.500928952 151.33217689599999,-33.500966044500004 151.33221792000001,-33.500999973500001 151.332261856,-33.501031016500001 151.332306848,-33.501061985500002 151.332351136,-33.501093028500001 151.33239395199996,-33.50112597699999 151.33244003199999,-33.501165030499997 151.33248396799999,-33.501205971 151.33252787199999,-33.501247022500003 151.33257216000001,-33.501287963 151.33261788799999,-33.501326036 151.33265603199999,-33.501355025500004 151.332696,-33.501382017 151.33273488,-33.501409027 151.33277411199998,-33.501437017500002 151.33281084800001,-33.501465008 151.33283712,-33.501489021 151.332861952,-33.501512978500003 151.33288608000001,-33.501537990500005 151.332912,-33.501561023 151.33293900800001,-33.501582982500004 151.33297500800001,-33.501605034500002 151.33301497599996,-33.501624034 151.33305491199999,-33.501642034500001 151.33309488,-33.501660035 151.33313305600001,-33.501680995499996 151.333175168,-33.501710965500003 151.33321513600001,-33.501743007499996 151.33325401600001,-33.501776048499998 151.33329289599999,-33.501808978500002 151.33333392,-33.501841020500002 151.33336489600001,-33.501861981 151.33339692800001,-33.50188296 151.33342896,-33.501904013 151.33346208,-33.501924992 151.33349411200001,-33.501944972 151.33353408,-33.501970983 151.33357296,-33.501996994 151.33361292800001,-33.502023005 151.33365395199999,-33.502048017 151.33369609600001,-33.502070975500004 151.33373209600001,-33.502087977 151.33376809599997,-33.502103998 151.333805888,-33.502119038499998 151.333844032,-33.502132987499991 151.33388112,-33.502148009499997 151.33391497599999,-33.502160978 151.33394915199997,-33.5021740205 151.33398300799996,-33.502186989 151.334016832,-33.502200031500003 151.33405104,-33.502212001 151.334091008,-33.502224951 151.33412988800001,-33.502238012 151.33416985599999,-33.50225096199999 151.33420908799999,-33.502263024 151.33425011200001,-33.502274013 151.33443696000001,-33.50232000399999 151.33460688,-33.502321983500003 151.33469292800001,-33.502309015 151.33473683199998,-33.502305962500003 151.33478185600001,-33.502298044500002 151.334826112,-33.502285982499998 151.33486787199999,-33.502271034499998 151.33490604799999,-33.502251961 151.33492691199999,-33.502238012 151.334944928,-33.502220992 151.33496291200001,-33.5022039905 151.33498092799999,-33.502186989 151.33500217599999,-33.5021740205 151.335036,-33.502164030499998 151.335073088,-33.502158998500001 151.33511305600001,-33.502157019 151.33515299199999,-33.502155021 151.33519116799999,-33.502150988 151.33523904,-33.502140998 151.33528691199999,-33.502130009 151.33533408,-33.502118039500004 151.33538016,-33.502102018500004 151.33542300799999,-33.502084018 151.33544713599997,-33.502068996 151.335470176,-33.502052975 151.335492128,-33.502035955 151.335515168,-33.502020026499999 151.33554,-33.502005985 151.335576,-33.501992036 151.33561596800001,-33.501979974 151.33565699199997,-33.501970983 151.33569804800001,-33.501963953 151.335739072,-33.501956035 151.33577904000001,-33.501950004 151.33581900799999,-33.501944972 151.335858976,-33.501941013 151.33589891199998,-33.5019369615 151.33593888,-33.501933002500003 151.33597705599999,-33.501927952 151.33601484799996,-33.501923993 151.33605299199999,-33.501920034 151.33609008,-33.501915002 151.33612787199999,-33.501908971 151.336166048,-33.501903032500003 151.336204928,-33.501897982 151.336243072,-33.501891951 151.33627801599999,-33.50188296 151.33630716799999,-33.501867031499998 151.33632083200001,-33.50185299 151.33633308799998,-33.501834009 151.33634387199999,-33.501816008500001 151.33635612800001,-33.5017999875 151.33638601600001,-33.501786038500001 151.33641984,-33.501787019 151.33645513600001,-33.501790978 151.33647888,-33.501791977 151.33650300799999,-33.501794049 151.336527136,-33.501797009 151.336549088,-33.501801967 151.33656995199999,-33.501809977500002 151.33659299199999,-33.501828958499992 151.33660992,-33.501855968500003 151.336623968,-33.501887011500003 151.33663692799999,-33.501920034 151.33665097599996,-33.501951003 151.33666896,-33.501985024500001 151.33668697600001,-33.502017954499998 151.33670496,-33.502051976 151.336722976,-33.502085997499996 151.33674204799999,-33.502119038499998 151.336760032,-33.502149008499998 151.33677804800001,-33.502178978499998 151.336796032,-33.502209022500004 151.33681404800001,-33.502238992500004 151.33683312,-33.502268962500004 151.33685401599999,-33.502299025 151.33687417600001,-33.50232899499999 151.33689504,-33.502358965 151.336915936,-33.502389027500001 151.33693500800001,-33.502419996500002 151.33695193599999,-33.502449966500002 151.33696704,-33.502480029 151.33698288,-33.502510979500002 151.336998016,-33.502541042 151.337016,-33.502570013 151.33704012800001,-33.502602961500003 151.337067136,-33.502635003500004 151.33709411199999,-33.502665954 151.33712291200001,-33.502697996 151.337148832,-33.502730038 151.33717008,-33.502755956500003 151.33718988799998,-33.5027829665 151.337210048,-33.502809958 151.337230912,-33.502835969 151.33725107199999,-33.502862979 151.33727196800001,-33.502886011500003 151.337292128,-33.502908951500004 151.33731299199999,-33.502932002500003 151.33733388799999,-33.502955035 151.33735404800001,-33.502977993500004 151.337374912,-33.503004004499999 151.33739616,-33.503029016500001 151.33741705599999,-33.503056026499998 151.33743683200001,-33.5030820375 151.337456992,-33.503108048500003 151.33757904000001,-33.503235032500001 151.33767913599999,-33.5033790365 151.33774608,-33.503437977499999 151.33782816,-33.503596023 151.33802905600001,-33.5038429795 151.33811292799999,-33.503914981500003 151.33817916800001,-33.504002005499999 151.33851504,-33.504307015 151.338582016,-33.504380016 151.33883507199999,-33.504569012 151.33890204799999,-33.504641994499998 151.33908707200001,-33.504759007 151.33952809600001,-33.504937014 151.33966307200001,-33.505038986 151.339781152,-33.505126028500001 151.33986505600001,-33.50521296 151.33996512,-33.505300983 151.34042089600001,-33.505593024 151.340672896,-33.505796968 151.34077513599999,-33.5058560015 151.34084208,-33.505913962 151.34128201599998,-33.506119978 151.341535072,-33.506295025 151.34162003200001,-33.506339036500002 151.34215897600001,-33.506704985 151.34295708799999,-33.507230033500001 151.34313312,-33.507297984 151.34316912,-33.507300962500004 151.34320403199999,-33.507304015 151.34324003199998,-33.507307974 151.34327603200001,-33.507312025499999 151.343312032,-33.507315984500003 151.34337107199997,-33.507324994 151.34343011199999,-33.507334984 151.34348915199996,-33.507347046 151.34354784000001,-33.5073580165 151.34360688000001,-33.507367026 151.34365008,-33.5073729645 151.34369184,-33.507377996500004 151.34373395200001,-33.50738304699999 151.343776096,-33.507387986499999 151.34381891199999,-33.507394017500005 151.34386393599999,-33.507399956 151.34390892799999,-33.507405006500001 151.34395392,-33.507411037499999 151.34399891199999,-33.507417956499999 151.34404393599999,-33.507425967 151.34408496,-33.507434976500001 151.34412601599999,-33.507446039500003 151.344165952,-33.507457028499999 151.34420700800001,-33.507467018500002 151.344248032,-33.507476009500003 151.34428403199996,-33.507483021 151.34432112,-33.507487979 151.34435712000001,-33.50749401 151.34439385600001,-33.507497969 151.34443091200001,-33.507502020499999 151.34447196799999,-33.507506978499997 151.34451299200001,-33.5075110115 151.34455404799999,-33.50751399 151.34459507199998,-33.507515969499991 151.34463504,-33.507516968499999 151.34467104000001,-33.50751498899999 151.34470595199997,-33.507512010500001 151.34474195199999,-33.507509032 151.34477689600001,-33.507504999 151.34481216,-33.507501021499991 151.34484601599999,-33.507498968 151.34487984,-33.507496988500002 151.34491404799999,-33.507495009 151.34494787200001,-33.50749301099999 151.34498208,-33.507492030499996 151.34501196799999,-33.50749301099999 151.34504185599999,-33.507495009 151.345072096,-33.507496988500002 151.34510089599999,-33.507496988500002 151.34513004799999,-33.50749401 151.345163168,-33.507485019 151.345194112,-33.507471958 151.34522508800001,-33.507456029499998 151.34525603200001,-33.507440008499998 151.34528700800001,-33.507424986499998 151.34531904,-33.507408965499998 151.345351072,-33.50739096499999 151.34538313600001,-33.507375036499994 151.34541696,-33.507359996 151.34545008000001,-33.507350006 151.34551091200001,-33.507345954500003 151.345577152,-33.507353965 151.34564412799998,-33.507370985 151.34570892799999,-33.507393037 151.345743328,-33.507409113500003 151.34576688000001,-33.5074200285 151.345792096,-33.507432997 151.34581692799998,-33.507448019 151.34584105600001,-33.50746404 151.34586409600001,-33.507480967500001 151.34588604799998,-33.507497969 151.34591017599999,-33.507520021 151.34593392,-33.507542961 151.34595587199999,-33.507566992500003 151.34595100799996,-33.507571007 151.34581801600001,-33.507670000499999 151.345384,-33.507996007500005 151.34523900799996,-33.508171998 151.34497299200001,-33.508380992500001 151.34472499200001,-33.508553005499998 151.34445100799999,-33.508754008 151.34421500799999,-33.50887699599999 151.34392201599999,-33.509006995500002 151.34356499200001,-33.509099995 151.34340601599999,-33.509124008 151.34338300799999,-33.509126006 151.34318,-33.509136995 151.343063008,-33.509128004 151.34295801600001,-33.509120992500002 151.34162,-33.508952994 151.34048300800001,-33.508851003499998 151.34039100800001,-33.508842993 151.33919401599996,-33.508732992 151.33868,-33.508717008 151.338176992,-33.508720005 151.337844,-33.508725 151.337684,-33.508730994 151.337311008,-33.508754008 151.336368,-33.5088599945 151.33626284799999,-33.508878050500002 151.336016992,-33.508920008499999 151.335796,-33.508963002500003 151.335620992,-33.508997005499999 151.335127008,-33.509109004500004 151.334675008,-33.509249993 151.334092,-33.509415993499999 151.333235008,-33.509656993 151.33310499199999,-33.509688998 151.33288,-33.509736006499999 151.332663008,-33.509755006 151.332472,-33.509758003 151.332184,-33.509725998 151.331876,-33.509672995500004 151.33124700799999,-33.509576 151.33105798400001,-33.509530009 151.33105699199999,-33.509536003 151.33104899200001,-33.509550007500003 151.33103699200001,-33.509559997499998 151.33102201599999,-33.509568008 151.331006016,-33.509572004 151.330988,-33.509572004 151.330972,-33.509567009 151.33095699199998,-33.509558998500005 151.330950016,-33.509552005499998 151.33094598399998,-33.509547991 151.330939008,-33.509535004 151.33093699200001,-33.509520000499997 151.33094,-33.509505996 151.33094700800001,-33.509493009 151.33095900800001,-33.509482001500004 151.33096499199999,-33.509479004500001 151.33095299199999,-33.509403006499994 151.33098099200001,-33.508881991 151.33099401600001,-33.508639992500001 151.330588,-33.508607007 151.33048,-33.508541998 151.32997299199999,-33.507949998 151.32961699200001,-33.507534007 151.32959401599999,-33.507506997 151.328847008,-33.507406005500002 151.327642016,-33.507243002 151.326096,-33.507057003 151.325446016,-33.506978008 151.324579008,-33.506873002 151.32405699200001,-33.5068239955 151.324050016,-33.506839998 151.32404099199996,-33.506849007500001 151.324028,-33.5068550015 151.324016,-33.506857998500003 151.32399900799999,-33.506857998500003 151.32398499199999,-33.5068550015 151.323972,-33.5068480085 151.32396300799999,-33.506838 151.32395699200001,-33.506826992500002 151.323956,-33.506815004499998 151.32395699200001,-33.506806994 151.32342300799999,-33.506713994500004 151.32219900800001,-33.506524998499998 151.32163500799999,-33.506437993 151.321596,-33.506628006499994 151.31944,-33.506295006500004 151.319290016,-33.507034007500003 151.31864201600001,-33.506944005 151.318248,-33.506889004500003 151.31714499200001,-33.506735991 151.31612700799997,-33.506594003499998 151.31543203199999,-33.50649723 151.31504201600001,-33.5064430065 151.31393900800001,-33.506289993 151.312838016,-33.506136998 151.31192,-33.505992994 151.31149910400001,-33.505928262499999 151.31103001599999,-33.505855002499999 151.309516,-33.505633002499998 151.306862016,-33.505243004 151.304442016,-33.504925007499999 151.30442201599999,-33.504921992 151.30176700800001,-33.504543001 151.30117801599999,-33.50442600699999 151.30016499199999,-33.504070992 151.30002099199999,-33.504020006 151.29983100799998,-33.503906009 151.29970300799999,-33.503727003 151.299684,-33.5036759985 151.29962726400001,-33.503523355 151.29969024,-33.503212351500004 151.29727001599997,-33.502845996 151.297402272,-33.502162384 151.295074304,-33.501841390500005 151.295038304,-33.502020396500001 151.29444435199997,-33.504900421 151.29346742399997,-33.509640417 151.29243840000001,-33.509489438500005 151.291342464,-33.514675451 151.288157504,-33.514237463500002 151.28920448,-33.509031452499997 151.28975043200001,-33.506316448 151.2899544,-33.505302444500003 151.29000499200001,-33.505049993500002 151.290300992,-33.503616003 151.290787392,-33.501253423500003 151.29137136,-33.498421425 151.29172432,-33.496759422 151.29174531199999,-33.496671417500004 151.29187331199998,-33.496144408 151.29202531199999,-33.495519422500003 151.29171539199999,-33.495370923 151.29031824,-33.494655417 151.28984988799999,-33.494422132 151.28943408000001,-33.494221444 151.28889049599999,-33.493967605499996 151.28892540800001,-33.493959447 151.28916633599999,-33.493891441 151.28938736000001,-33.493908424 151.289896352,-33.494115439 151.29032032000001,-33.494264438 151.29072832,-33.494355439499998 151.29101916799999,-33.494345468 151.291773312,-33.494168404500002 151.292047328,-33.494143411 151.29216729599997,-33.494130405500002 151.29235529600001,-33.494104413 151.292528288,-33.493977410500001 151.29266729599999,-33.493850408 151.29277027199998,-33.493808413 151.29294028800001,-33.493868408499992 151.293075136,-33.493941446500003 151.29343228799999,-33.494032411 151.29366828799999,-33.494235393 151.29380428799999,-33.494405389500002 151.29392528,-33.494577402499999 151.29403628799997,-33.494778386500002 151.294127296,-33.495010395 151.29420828799999,-33.495201389 151.29428828799999,-33.495393400499999 151.29435929600001,-33.4955543875 151.294520288,-33.495705403 151.29481328,-33.495876398500002 151.295015296,-33.49597739 151.29523244800001,-33.496030170499999</coordinates></LinearRing></outerBoundaryIs></Polygon><Polygon><outerBoundaryIs><LinearRing><coordinates>151.295997632,-33.53611935599999 151.29624384,-33.536094381 151.29632736,-33.536087647 151.29651312,-33.536072606499999 151.29660275200001,-33.536063153 151.296748928,-33.536044264499992 151.29689472000001,-33.536022305 151.296967072,-33.536009706500003 151.29703728000001,-33.5359949435 151.29717696,-33.535960478 151.29724716800001,-33.535944716 151.29731808,-33.535932654 151.297423936,-33.535920518 151.297477216,-33.535916374 151.29758377600001,-33.535912859 151.29767376000001,-33.535915023500003 151.29776304000001,-33.535921942500003 151.29783251200001,-33.535931673500002 151.29790777599999,-33.535946695500002 151.29798444799999,-33.535967489500003 151.29803593599996,-33.535984676 151.29808633600001,-33.536004212 151.298135296,-33.536025894 151.29818208,-33.536049759 151.29823248,-33.536081061 151.298279296,-33.536116433 151.298369632,-33.53619213499999 151.29841609600001,-33.536228487500004 151.29848448000001,-33.536276828 151.29869363199998,-33.536418038499995 151.29876096000001,-33.536467174500004 151.29877824,-33.53648121599999 151.29892512000001,-33.536601355 151.29896700799998,-33.536634007499998 151.299058016,-33.536698998 151.29915299199999,-33.536760991500003 151.29920201600001,-33.536789000500001 151.29926499199996,-33.536822004500003 151.29933120000001,-33.536852104 151.29946656000001,-33.536907363499999 151.2996552,-33.536980531 151.2997776,-33.537023821 151.29983987200001,-33.537043523499996 151.29995580799999,-33.537075121500003 151.300132,-33.537118004500002 151.30031401599999,-33.537167991499999 151.300376,-33.537181996 151.300437856,-33.537192023 151.30051500799999,-33.537198997499999 151.30059372799997,-33.537200847500003 151.30067257600001,-33.537198868 151.30075100799999,-33.537194002500001 151.30083001599999,-33.537185992 151.30090300800001,-33.537175003 151.300976416,-33.537160887500001 151.3012248,-33.537102113 151.30139939200001,-33.537060802500001 151.30146636800001,-33.537042006499995 151.30153152,-33.537019954500003 151.30158048000001,-33.536999604500004 151.301771296,-33.536906198 151.30192201599999,-33.536836009 151.301972992,-33.53681299499999 151.302108,-33.53676200899999 151.30219299199999,-33.536735998 151.302236,-33.536725009 151.30232700799999,-33.536714001500002 151.30242201600001,-33.536713002500001 151.30271088000001,-33.536731946499991 151.30284499199999,-33.536736997 151.303046048,-33.536748245 151.30312451199998,-33.536754183499994 151.30328076800001,-33.536768669 151.30335888,-33.536774348500003 151.303436992,-33.53677695699999 151.303512256,-33.536776587 151.30358819199998,-33.536774348500003 151.30366380800001,-33.536770204500002 151.30373904,-33.536764173500003 151.30381392000001,-33.536756255500002 151.30493785600001,-33.536412359 151.30552464,-33.536292756499996 151.30594368000001,-33.536193837 151.30623744,-33.536093123 151.30685299199999,-33.536039991 151.307219008,-33.536018993499994 151.30767900800001,-33.535930008500003 151.30808675200001,-33.535865425 151.30844208,-33.535826649 151.30858140800001,-33.53578902 151.30890288000001,-33.535702088500003 151.30923900799999,-33.535575992499993 151.30952099199999,-33.535545005 151.30981401599999,-33.535495998499997 151.31016,-33.535387995500002 151.31041299200001,-33.535284007 151.31114201599996,-33.535122002500003 151.311228,-33.535103003 151.31188,-33.5350120015 151.31197699200001,-33.5350189945 151.31204,-33.535028004 151.31261500799999,-33.534572996499996 151.312767296,-33.534646256500004 151.31312329599999,-33.534765267 151.31336128000001,-33.534869255499999 151.31346329600001,-33.534870254499992 151.31363401600001,-33.5348590065 151.313736992,-33.534873991499992 151.313908,-33.534847999 151.31399424,-33.534820249 151.31409001599999,-33.534766007 151.31413001600001,-33.534770003 151.31417100799999,-33.534773999 151.31421299199999,-33.534774998 151.31425401600001,-33.534773999 151.31429401599999,-33.534772001 151.31433100800001,-33.534766007 151.314368,-33.534756997500004 151.31440499199999,-33.534747007500002 151.31444201599999,-33.534738997 151.31447900800001,-33.534736 151.31452099200001,-33.534737998 151.31456300799996,-33.534742993 151.314604992,-33.534752002499999 151.31464598399998,-33.534764009 151.3147,-33.534781991 151.31472700799998,-33.534793997500003 151.31475401599999,-33.534807003 151.31479100799999,-33.5348289995 151.31482598399998,-33.534853993 151.31485900800001,-33.534882002 151.314888,-33.534913008 151.31491299199999,-33.534943995500001 151.314932,-33.534975001500001 151.31494899200001,-33.535007006499995 151.31496300800001,-33.535040991 151.314972,-33.535074994 151.31497900799999,-33.535108997 151.31497900799999,-33.535153008499996 151.31497100799999,-33.535197001500002 151.31495801599999,-33.535241993500001 151.314943008,-33.535286005 151.31492899200001,-33.535329998 151.314912,-33.535379004499994 151.31489398400001,-33.535426993500003 151.314875008,-33.535475001 151.314854016,-33.5355230085 151.314832,-33.535569998500002 151.314808,-33.535617007 151.31478300800001,-33.535662998 151.314756,-33.535709007499996 151.314728992,-33.535754998500003 151.3147,-33.535800009 151.31467699199999,-33.535838008 151.31465401599999,-33.535877006 151.314630016,-33.53591400599999 151.31460201600001,-33.535950007 151.314570016,-33.535980994500001 151.31453001599999,-33.536006006500003 151.31448499199999,-33.536025006 151.314436992,-33.536042007500001 151.314390016,-33.53606000799999 151.31434899199996,-33.536084002500004 151.31431500799999,-33.53611099399999 151.31428300799999,-33.536141001 151.31425401600001,-33.53617300599999 151.314228,-33.536207009 151.31420601600001,-33.536241992500003 151.31408300800001,-33.536455001500002 151.31393900800001,-33.536840005 151.31386899200001,-33.536911008 151.313696,-33.537036993 151.313523296,-33.537106238500002 151.31333427199999,-33.537175243500002 151.31317900799996,-33.537288001 151.31279929600001,-33.5374552595 151.312689312,-33.537517271500001 151.31260899200001,-33.537566999500001 151.31255299200001,-33.537586998 151.31249699200001,-33.537608994500005 151.31244201600001,-33.5376350055 151.31239100799999,-33.537662996 151.312340992,-33.537693003 151.31228899199999,-33.537733 151.312242016,-33.537776993 151.312196992,-33.537824001499992 151.31215299199999,-33.537873008 151.312108,-33.537919998 151.312044,-33.53798700499999 151.31198201599997,-33.538054992500001 151.31192099200001,-33.538123997500001 151.311859008,-33.538193002500002 151.31179699200001,-33.538259991 151.311711008,-33.538348994499998 151.31162300799997,-33.538436999 151.31153500799999,-33.538525003499998 151.31144700799996,-33.538613008 151.311360992,-33.538700994 151.311284992,-33.538780007500002 151.31121001599999,-33.538859002500004 151.31113500800001,-33.538938996500001 151.31106,-33.539017991500003 151.31098601599999,-33.539098004 151.31087033599999,-33.53919228 151.310486016,-33.539645992499999 151.31020736,-33.539928284 151.30999734399998,-33.540169283499999 151.309754016,-33.540395002 151.30957900799999,-33.540621997 151.30947500799999,-33.5407070045 151.30919436799999,-33.541075302499998 151.308916,-33.541315007 151.30879337600001,-33.541457309 151.30865299199999,-33.541712997499999 151.30852899199999,-33.541926006499999 151.308458016,-33.542068993 151.30842099200001,-33.542196994500003 151.308368,-33.542297005500004 151.308244,-33.542539004 151.308172,-33.542724004 151.308068,-33.542822997500004 151.30792700800001,-33.543036006500003 151.30782,-33.543249996 151.30780198400001,-33.543335003500005 151.30775699200001,-33.543878996 151.307772992,-33.543950998 151.30777001600001,-33.544109006500001 151.30778544,-33.544180324 151.30778444800001,-33.544252326 151.307816,-33.544395997 151.307830432,-33.544481319 151.30786243200001,-33.544640326500001 151.30789545600001,-33.544712328499998 151.307910432,-33.5447983165 151.307943008,-33.544870004 151.308108,-33.545188000499998 151.308208,-33.545318 151.308356992,-33.545548991 151.30847500799999,-33.545651 151.308695008,-33.545768993 151.30879699199997,-33.545799 151.30883798400001,-33.545799 151.308864992,-33.545799999 151.30895100800001,-33.545758004 151.30903699199999,-33.545759003 151.309156992,-33.545717008 151.30939900800001,-33.545592003499998 151.30969340799999,-33.545380308 151.309731008,-33.545346009 151.30977299200001,-33.545314004 151.30981801600001,-33.545283997 151.309864,-33.545257005499998 151.30991299199999,-33.545233991499998 151.30994,-33.545223002500002 151.309967008,-33.545212994 151.309996,-33.545204003 151.310024,-33.545195992499991 151.310052,-33.545187001499997 151.310084,-33.545177992 151.31011699199999,-33.545168002 151.31014899199999,-33.545158992499999 151.310182016,-33.545150001499998 151.310214016,-33.545140992 151.31024201599999,-33.545133 151.310270016,-33.545125008 151.31029801599999,-33.545116997500003 151.31032499200001,-33.545110004500003 151.31035401599999,-33.545104991 151.31038998400001,-33.545100995 151.310427008,-33.545099996 151.310464,-33.545100995 151.31050099199999,-33.545102993 151.31053801600001,-33.5451070075 151.31058201600001,-33.545113001499999 151.31062700800001,-33.545120993499999 151.31067100800001,-33.545132001 151.31071401599999,-33.545144007499999 151.310756,-33.545157993499998 151.310791008,-33.545172997 151.31082601599999,-33.545190997500001 151.31086,-33.545208998 151.31089299199999,-33.5452279975 151.31092700799996,-33.545246997 151.31096601600001,-33.5452659965 151.311008,-33.545282998 151.311048,-33.545301997500005 151.31108,-33.545321996 151.31109801599999,-33.545346009 151.31110099200001,-33.5453730005 151.31109500799997,-33.545402008499998 151.311083008,-33.545432996 151.31106598400001,-33.545463003 151.31104899199997,-33.545489994500002 151.311028,-33.5455180035 151.311003008,-33.545544995 151.31097500800001,-33.545569008 151.310944992,-33.545591004500004 151.310912992,-33.545610004 151.310884,-33.545669000499998 151.31078,-33.545753009 151.31050300800001,-33.5459220065 151.3102424,-33.546161304 151.310195424,-33.546214306499998 151.309980416,-33.546459302 151.30994441600001,-33.546530305 151.30987440000001,-33.546615294 151.30980342399999,-33.5467573 151.30978035199999,-33.546844194500004 151.30956201599997,-33.546908001 151.30931699199996,-33.546996005499999 151.30922899199999,-33.547027992 151.309028,-33.547098995 151.30881500800001,-33.547179007499999 151.30863500800001,-33.547245996 151.30848,-33.547303993500002 151.30824201600001,-33.547392997 151.30804601599999,-33.54746499899999 151.307952,-33.547499002 151.30767801600001,-33.547597995499999 151.307376992,-33.547707996500002 151.30722899199998,-33.547760999 151.307075008,-33.547815999500003 151.30692300799998,-33.547871 151.30677699200001,-33.547924002499997 151.306623008,-33.547980002 151.30647500800001,-33.548033004499992 151.306320992,-33.548089004 151.30617001600001,-33.548143005500002 151.30602201599999,-33.548197007 151.305868992,-33.548252007500004 151.305724,-33.548304991499997 151.30557100799996,-33.548359992 151.305419008,-33.5484149925 151.305268,-33.548468994 151.305116,-33.548523994500002 151.30496899199997,-33.548576997 151.30481699200001,-33.548631997500003 151.30466899199999,-33.548685999 151.30451299200001,-33.548741998499999 151.30436899200001,-33.548794002 151.30421100800001,-33.548851000500001 151.30406601600001,-33.548903004 151.30391401599999,-33.548958004500001 151.30376899199996,-33.549011007 151.30362300799999,-33.549063991 151.303468,-33.549120009 151.30331900799999,-33.549173992 151.30323299199998,-33.549204998 151.30317100799999,-33.549226994500003 151.30301500799999,-33.549281995 151.30286899199999,-33.5493379945 151.30271699199997,-33.549391996 151.30256499199996,-33.549447995500003 151.30216201600001,-33.548665001499998 151.30178,-33.548802993 151.301012,-33.549719002 151.29941100799999,-33.549801993 151.29826499199999,-33.549960001500004 151.298226016,-33.549974006 151.297548992,-33.550230009 151.297595008,-33.550008009 151.29760198400001,-33.54997600399999 151.29802700799999,-33.547857994499992 151.29841190400001,-33.545950200500002 151.29830361599997,-33.545930405500002 151.29793043199999,-33.545811413499997 151.29764060799999,-33.545735415499998 151.29728464,-33.5456164235 151.29630064,-33.545245424500003 151.296061632,-33.545256432 151.29594179200001,-33.545254415500004 151.29578662399999,-33.545324438 151.295614624,-33.5453644535 151.29535862399999,-33.545347452 151.295086656,-33.545314448 151.29489961600001,-33.545240466499997 151.294612672,-33.545064457500004 151.294478656,-33.544934458 151.29427859200001,-33.544644489 151.294239264,-33.544610430500001 151.295997632,-33.53611935599999</coordinates></LinearRing></outerBoundaryIs></Polygon><Polygon><outerBoundaryIs><LinearRing><coordinates>151.30452492800001,-33.481579321 151.30471302399999,-33.481581300500004 151.30484998399999,-33.481540304500001 151.30495398399998,-33.481455297 151.304972,-33.481427306500002 151.305024,-33.481370308 151.305236992,-33.480929305 151.30537699199999,-33.480758309500004 151.30542707199996,-33.480768965499998 151.305519968,-33.480980994 151.30579392000001,-33.481141019 151.30607795200001,-33.481166031 151.306516096,-33.4811989795 151.30689804799997,-33.48117702 151.30715184,-33.481078026500001 151.307244,-33.481018974500003 151.30755504,-33.480927991500003 151.30780883200001,-33.480836009499995 151.30802195199999,-33.480764007499999 151.30824192,-33.4807329645 151.30847699200001,-33.480756996 151.30868905599999,-33.480738995499998 151.30886905599999,-33.480686973499999 151.30901593600001,-33.480641963 151.30920384000001,-33.480575992 151.30949004799999,-33.480504989 151.309733056,-33.480541989 151.309860128,-33.480707046 151.30988099199999,-33.480878041499999 151.30991916799996,-33.481015015499999 151.30998108799997,-33.481178999499996 151.310115008,-33.481392027 151.31020896000001,-33.481563022499998 151.310310848,-33.481775976 151.31048508800001,-33.481996015 151.31082096,-33.482273034 151.311030112,-33.482384996 151.31127203200001,-33.482510019 151.31150713599999,-33.482527020500001 151.31189699199999,-33.482553031500004 151.312148992,-33.482536011500002 151.312425856,-33.482512979 151.312776832,-33.482441976 151.313159872,-33.482400036500003 151.31348496000001,-33.482403995499993 151.31369593599999,-33.482428027 151.31384784,-33.482485987499999 151.31412,-33.482547000499999 151.31435689599996,-33.482649953 151.314560992,-33.482709985500001 151.315408096,-33.483050015499998 151.315611136,-33.483195999 151.31583001600001,-33.483371046 151.31611692800001,-33.483503968499996 151.31618387200001,-33.4836192235 151.316367872,-33.483822205500005 151.317074848,-33.484361203 151.31758083199998,-33.484725209 151.31761308799997,-33.484760007499993 151.31785715199999,-33.485171040499999 151.317927008,-33.485335024500003 151.31801916800001,-33.485615003500001 151.31803715199999,-33.485975994 151.31800009599996,-33.486193979500001 151.31783808,-33.486579001500004 151.317776896,-33.486795988 151.31756304000001,-33.486922972 151.317252,-33.4870550065 151.317014048,-33.487139977 151.31685888000001,-33.487199010499999 151.31683296,-33.487260023499999 151.316780768,-33.487323201 151.31673001600001,-33.487323034500001 151.31660976000001,-33.487364252500001 151.316300896,-33.487417976499998 151.31590812799999,-33.487413037 151.31577203200001,-33.487397016 151.31539801599999,-33.487335004 151.31495305600001,-33.487358036499991 151.31443788799999,-33.487536968500002 151.314112096,-33.48757602199999 151.31390796799997,-33.4875740425 151.31363507200001,-33.4875269785 151.31329705600001,-33.487379996 151.31224908799996,-33.486806977 151.31194307199999,-33.486717233500002 151.311705856,-33.486599259 151.31155392,-33.486512253499995 151.31136697599999,-33.486466244 151.31121296000001,-33.4864642645 151.31104195200001,-33.486519265 151.31094297600001,-33.486623272 151.31091996800001,-33.4866472665 151.31090195199997,-33.486690260499998 151.310866976,-33.486718269500003 151.31084896,-33.4867612635 151.31084796799999,-33.486818262 151.31075795199999,-33.487103976 151.31058195200001,-33.487359257500003 151.31055795199998,-33.487413259 151.31049296,-33.487558262 151.31035196799999,-33.48777227 151.31026595200001,-33.4878282695 151.31021395199997,-33.487885268 151.30990300799999,-33.488081257 151.309712,-33.488222264 151.30964198399997,-33.488322256499998 151.30958899199999,-33.488435273 151.309551008,-33.488520262 151.30951500800001,-33.48870726 151.30952998399999,-33.488850265 151.309596,-33.4889802645 151.30977900799999,-33.489240263500001 151.30989398400001,-33.489471273 151.309989984,-33.489802256499999 151.30997712000001,-33.490532969499995 151.309900992,-33.490918269 151.309864992,-33.49100425699999 151.30976112,-33.491132018 151.30972512,-33.49121697 151.30943100799999,-33.491442966 151.30917216,-33.491568951 151.30896588799996,-33.4916520345 151.30875801600001,-33.491764292500001 151.308020032,-33.491969291 151.30761004799996,-33.49200729 151.30742204799998,-33.492004293 151.30660105600001,-33.492095017 151.30637891200001,-33.492092038500004 151.30626012799999,-33.492076017500004 151.30612403200001,-33.492045955 151.30607292799999,-33.492044974499997 151.30592006399996,-33.491971307499995 151.305735072,-33.491811301 151.30546883199997,-33.491449977500004 151.30526809599999,-33.491217303 151.30510009599999,-33.491086304500001 151.30503209599999,-33.491057296500003 151.30498108800001,-33.491056297500002 151.30484409600001,-33.49104029499999 151.30467209599999,-33.4911383265 151.30458508800001,-33.491223315499994 151.30451308799999,-33.491380325 151.304479104,-33.491408315500003 151.30437408,-33.4915503215 151.304184096,-33.491662320499998 151.30406310399999,-33.491703316500001 151.30387510400001,-33.491730326500004 151.30368710400001,-33.491742314500001 151.303431136,-33.491724314 151.30300512,-33.491719319 151.30295011199999,-33.491774319499996 151.30289811200001,-33.49190431899999 151.30289811200001,-33.491947313 151.302948128,-33.492019315 151.30306512000001,-33.492164318 151.30326713599999,-33.49231032 151.30360512,-33.492500315 151.30436809599999,-33.492797314 151.30495808000001,-33.493162300500003 151.30558310399999,-33.493529303500004 151.30583609600001,-33.493703296 151.30600409600001,-33.493878306 151.306087104,-33.49402231 151.30608608,-33.494079308499998 151.30610009599999,-33.494237298500003 151.306029088,-33.494394308 151.305941088,-33.494507306 151.30570009600001,-33.494590297 151.30500009599996,-33.494596328 151.30450512,-33.494618324500003 151.30360112,-33.494549319499995 151.30334512,-33.4945463225 151.30291712,-33.494569318 151.30279712000001,-33.494596328 151.302541152,-33.494622339 151.30240316800001,-33.494648331500002 151.30228416,-33.494647332500001 151.30209715199999,-33.494616345 151.301619168,-33.494610332500002 151.30151616000001,-33.494637342499999 151.30141315200001,-33.494636343499991 151.30117414399996,-33.494647332500001 151.30069520000001,-33.4946843325 151.30059219200001,-33.494697338 151.30019920000001,-33.494735355499998 151.2999752,-33.494818365 151.2997872,-33.494859361 151.299460192,-33.494984365500002 151.29940819199999,-33.495011357 151.2994072,-33.495083359 151.29949120000001,-33.495113366 151.2995432,-33.495114365 151.299697184,-33.495087355 151.29980118399999,-33.495031355500004 151.29993718399996,-33.49501835 151.300158176,-33.495093349 151.3002592,-33.4951803545 151.30027417599999,-33.495280365500001 151.30023817599997,-33.495409366 151.30002918400001,-33.495607353 151.29959817599999,-33.495845355500002 151.2994432,-33.495886351499998 151.29930518399999,-33.495942351 151.299066208,-33.495967363 151.298088224,-33.496184368 151.297489216,-33.496291372 151.29711225599999,-33.496343375499997 151.29692425600001,-33.496341377500002 151.29675424000001,-33.496324376 151.29624425599999,-33.496160373500004 151.29592124800001,-33.496099397500004 151.29537587199997,-33.496035036 151.295244768,-33.496007064 151.295288032,-33.49595430199999 151.295388992,-33.495830999500001 151.2957,-33.495632994 151.29582601600001,-33.495557995 151.29599795199996,-33.495466864 151.296143008,-33.495398007 151.296496,-33.495257999 151.296552,-33.495245992500003 151.29664201599999,-33.495201000500003 151.29701401599999,-33.494932991 151.297084,-33.494890996 151.29715401600001,-33.4948620065 151.29728899200001,-33.494827004499996 151.29742,-33.494784991 151.29832198400001,-33.494498999500003 151.29882288,-33.494203258500001 151.29916201599997,-33.494077995 151.2993,-33.494024992500002 151.29937900799999,-33.4939849955 151.29949500800001,-33.493910995500002 151.29973699199999,-33.493735005 151.29976201599999,-33.493715006500004 151.29992099200001,-33.493584008 151.29994201599999,-33.493524993 151.299915008,-33.493469992500003 151.299852,-33.493420005499999 151.299767008,-33.493400007 151.29968201599999,-33.493389998499993 151.299296,-33.493356994500004 151.29900700799999,-33.493325008 151.29884300800001,-33.493297998 151.29871801600001,-33.493255004 151.298636,-33.493205997499999 151.29854499199999,-33.493106005 151.29851100799999,-33.493011007500002 151.29850300800001,-33.492928997 151.298524,-33.492841991500001 151.298572,-33.492740001 151.29873395199999,-33.492566064 151.29891216,-33.492410016500003 151.29908675199999,-33.492237208 151.299208448,-33.492157732 151.299381952,-33.492084472 151.29969155200001,-33.491948571 151.29977916799999,-33.491888353500002 151.299851168,-33.491809358499999 151.299950016,-33.491600993 151.29998899200001,-33.491520999 151.30002096000001,-33.491436028500004 151.300021152,-33.491351354 151.29998016,-33.491221354499991 151.299894016,-33.490903006499998 151.299888,-33.490814003 151.299894016,-33.4906840035 151.29994099199999,-33.490465999500003 151.29998899200001,-33.490380992 151.300119008,-33.490224001 151.300721536,-33.489590394499999 151.30098700799999,-33.489311007499992 151.30128300800001,-33.489000004 151.301336,-33.488950997499998 151.30168499199996,-33.488522001 151.301886016,-33.488248996499998 151.30194499199999,-33.488157995 151.30211472,-33.487944653 151.30224755200001,-33.487854928 151.30239110400001,-33.487785312500002 151.302742016,-33.487685005499998 151.30289500800001,-33.487640994 151.303224,-33.4875420005 151.30329798400001,-33.4874970085 151.303388,-33.487401992500004 151.303718016,-33.486894001 151.30379100799999,-33.486777007 151.30390598399998,-33.4866510035 151.304,-33.486558004 151.30415500799998,-33.486449002 151.30455900800001,-33.486179993500002 151.304599008,-33.486160994 151.304785568,-33.486072397500003 151.30496124800001,-33.485972035 151.30516572799999,-33.485755326 151.30526502399997,-33.485552307 151.30530704,-33.485398294500001 151.30532300799999,-33.485268998 151.305307008,-33.485159996 151.30525401599999,-33.485059004500002 151.30504201599999,-33.484727003499991 151.304956992,-33.484632006 151.30489900800001,-33.484597004 151.304776992,-33.484582000499998 151.303156992,-33.4844769945 151.30300700800001,-33.484490999 151.30298201599996,-33.4845000085 151.30286899199999,-33.484498991 151.30277001600001,-33.484516991500001 151.302464,-33.484617002500002 151.30119500800001,-33.485023003500004 151.300895008,-33.485115004 151.300527136,-33.485219991500003 151.30028198400001,-33.485312991 151.299980992,-33.485324997500001 151.299720992,-33.485303001 151.29931100799996,-33.485235994 151.29895500799998,-33.485100000500005 151.298584992,-33.484918996499999 151.298324,-33.4846910025 151.29811712,-33.484450354499998 151.29785513600001,-33.484062354 151.29759299200001,-33.483662994500001 151.297344,-33.483229003 151.29698512,-33.4827143515 151.296751008,-33.482429007500002 151.296476,-33.4821439965 151.29602201599999,-33.481721993 151.295268,-33.481232002 151.29379798400001,-33.480069998499999 151.29353801600001,-33.479934005 151.29322300800001,-33.479831996 151.29319801599999,-33.479823005 151.29274787200001,-33.479657097 151.292461312,-33.479523989500002 151.29211900799999,-33.4792929985 151.29187299200001,-33.479032000499998 151.291668,-33.4787059935 151.291597696,-33.478333477500001 151.29143299200001,-33.477879006500004 151.29130601599999,-33.477505991 151.291170016,-33.477301973 151.29109980800001,-33.4771965045 151.29068220799999,-33.476851627500004 151.29022464,-33.476587022 151.28974729599997,-33.476370572 151.28938368,-33.476220185500004 151.28902499199998,-33.475980999 151.28879977599999,-33.475753615500004 151.28921718399999,-33.475680411 151.28928518399999,-33.475695414500002 151.28947225600001,-33.4757544295 151.289641184,-33.475828411 151.28987718399998,-33.475975412 151.29009619199999,-33.476149404499999 151.29031619200001,-33.476252412500003 151.29094419200001,-33.476475411499997 151.29126617599999,-33.476580399 151.29140220799999,-33.476653437 151.292377152,-33.477411400500003 151.29251014399998,-33.477613402 151.292625152,-33.477844393 151.29270614399999,-33.478089388500003 151.29290416,-33.478464402 151.29308915199999,-33.47862439 151.293157216,-33.478653416500002 151.29347904,-33.478786357499999 151.29397315200001,-33.478822395500003 151.29441616,-33.478884370499998 151.29448416,-33.478900373 151.29458716799999,-33.478872382500001 151.294931136,-33.478733373499999 151.29505011200001,-33.478735371500001 151.295270112,-33.478838379500004 151.295372128,-33.478897376 151.29543923200001,-33.478940333 151.29579312000001,-33.47918938 151.29592912000001,-33.479248376500003 151.295980128,-33.47926338 151.29608112,-33.479307373 151.29640412800001,-33.479383371 151.29670912,-33.479516349 151.297080128,-33.479779363499993 151.29724912,-33.479867349499997 151.297419136,-33.47991236 151.297555136,-33.479942367 151.29775910399999,-33.479973354500004 151.29787708800001,-33.480047354500002 151.29813110399999,-33.480193356500003 151.298588096,-33.480400353 151.29867209599999,-33.48043135899999 151.29914710400001,-33.480607331 151.29953708799999,-33.480784339 151.29985808000001,-33.480975333 151.30009308799998,-33.481178333500004 151.30036310400001,-33.481354342499998 151.30048208,-33.481384331 151.30063507200001,-33.481400333499998 151.300772064,-33.481388345500001 151.30082304000001,-33.4814022945 151.30101097599999,-33.481419296 151.30143507199998,-33.481554346 151.30162105599999,-33.481642313500004 151.30170604799997,-33.481686325 151.30189206399999,-33.481746320500001 151.30202806400001,-33.4817763275 151.302404064,-33.48179532699999 151.30255804799998,-33.4817833205 151.30266006400001,-33.481784319500001 151.30289904,-33.481787316500004 151.303224032,-33.481734314 151.30354902400001,-33.48172432399999 151.30392588799998,-33.481671303 151.304148032,-33.481631306 151.30452492800001,-33.481579321</coordinates></LinearRing></outerBoundaryIs></Polygon><Polygon><outerBoundaryIs><LinearRing><coordinates>151.278929984,-33.553600949500002 151.27890912,-33.553599025499999 151.27883388800001,-33.553589035499996 151.27876009600001,-33.553574013500004 151.27868700799996,-33.553555014 151.27861715200001,-33.553531981500001 151.278324,-33.553327612 151.27817398400001,-33.553154618500002 151.27814089599997,-33.553067576 151.27812598400001,-33.552967620499999 151.278128,-33.55288161399999 151.27821497599999,-33.552782620500004 151.278233984,-33.552696614 151.27828704000001,-33.552596603 151.27832598399999,-33.55232561499999 151.278378976,-33.552239608500003 151.278365984,-33.5520536095 151.278233984,-33.5517796245 151.27818499200001,-33.551678614499998 151.27810099199999,-33.551605613500001 151.278017984,-33.551489618499993 151.27783299199999,-33.551315626 151.277613984,-33.55118361 151.27749497600001,-33.551138618 151.27739398399999,-33.551065617 151.27729235199996,-33.5510336675 151.27708899199996,-33.550918616 151.27676598400001,-33.550828613500002 151.27603302399999,-33.55074664 151.27579500799999,-33.550700630500003 151.27569203199999,-33.550698632500001 151.27553900800001,-33.55068263 151.27545302399997,-33.550695635499999 151.27536803199999,-33.550680632 151.27519702399999,-33.550677635 151.27482003200001,-33.550730637500003 151.27473401599997,-33.550757629 151.274632064,-33.550770634500005 151.27454604799999,-33.550797644500001 151.274340064,-33.550823637 151.27406505600001,-33.550906646500003 151.27389305599999,-33.550946662 151.27354905600001,-33.551070649 151.27272108799997,-33.551475651 151.272461088,-33.551672657499999 151.27152608,-33.552304673 151.270988128,-33.552727675500002 151.27069212800001,-33.5530236755 151.27046412799999,-33.553321673499994 151.27032112000001,-33.553620670500003 151.27021612799999,-33.553791666 151.27021513599999,-33.553848960499998 151.27016185599999,-33.5539199635 151.270143136,-33.553960016 151.27012297600001,-33.553998995500002 151.27007689600001,-33.554076029500003 151.27002793599999,-33.554147032499998 151.26997500799999,-33.554213003500003 151.26989795200001,-33.554312996 151.26982595199999,-33.554420999 151.26977593599997,-33.554498033 151.269671872,-33.5546589645 151.26956099200001,-33.554831033 151.26953795200001,-33.5548729725 151.26951817599999,-33.554915004500003 151.269499072,-33.554957036499999 151.26947891200001,-33.554998976 151.26945696000001,-33.555041008 151.26943500799999,-33.555078988499993 151.26941305599999,-33.555115988499999 151.26938892799998,-33.55515297 151.26936697599999,-33.555189951500004 151.26934499199999,-33.555228024500003 151.269324832,-33.555267984499999 151.26927084799999,-33.555390029 151.26922297599998,-33.555482011 151.26916105599997,-33.555582984 151.26910201600001,-33.555684956 151.26905916800001,-33.555761009500003 151.26901993600001,-33.555839042500004 151.269003008,-33.555905013500002 151.26899616,-33.556006985499991 151.26899401599999,-33.556089958 151.26899113600001,-33.556116968 151.26898393600001,-33.556142979 151.26897097599999,-33.556172042500002 151.268951872,-33.556199034 151.268883136,-33.556276974500001 151.26881616,-33.556352047499999 151.26879097599999,-33.556373008 151.26873804799999,-33.556397039499998 151.268627872,-33.556410008 151.26853500799999,-33.556422958 151.26847417600001,-33.556429988 151.26840611200001,-33.556440958499998 151.268372992,-33.556446009 151.26834096,-33.556447988500004 151.26831107199999,-33.556443030499999 151.26829417600001,-33.556436999500001 151.268276896,-33.556428008499992 151.268259968,-33.556418999 151.268231168,-33.556397039499998 151.26821785600001,-33.556382017499999 151.26820704,-33.556365996499991 151.26819696000001,-33.556347996 151.26818796800001,-33.556329995500001 151.26817897599997,-33.556312975499999 151.26816816,-33.556292015 151.26815808000001,-33.556269963 151.268140096,-33.556230983500001 151.268127136,-33.556206952 151.268110912,-33.556184012 151.26809401599999,-33.556163033 151.268074912,-33.55614198 151.26805692799999,-33.556121001 151.26803891200001,-33.556100040499999 151.26802595199999,-33.556084019499998 151.26801408,-33.556068997499999 151.26800112000001,-33.556053957 151.26798889599999,-33.556039027499999 151.267976992,-33.556023006499991 151.267961888,-33.556001047 151.267946048,-33.555978995 151.267932,-33.5559560365 151.26791904000001,-33.555933004 151.26790716799999,-33.555908972499999 151.26789708800001,-33.555884034500004 151.26788988800001,-33.555858023500001 151.26788195200001,-33.555832012499998 151.26787513599996,-33.555806001500002 151.26786505600001,-33.555780009 151.26784812799997,-33.555746968 151.26783011200001,-33.555713039 151.26780995199999,-33.555680016499998 151.26778585599999,-33.555648955 151.267759936,-33.555620964500001 151.26774515199997,-33.555607015500001 151.26773004799998,-33.55559397299999 151.26771312,-33.5555820035 151.26769692799999,-33.555570034 151.26768,-33.5555589525 151.26765913599999,-33.555546983 151.267637888,-33.555536012499999 151.267615936,-33.555526022500004 151.267593952,-33.555516032499995 151.26757308800001,-33.555504951 151.26753888,-33.555486969 151.267505056,-33.5554679695 151.26747084799999,-33.555448988500004 151.267436992,-33.555429989 151.26740316799999,-33.555411988499998 151.267362112,-33.555390029 151.26732,-33.555369956500002 151.267277888,-33.555348996 151.26723792000001,-33.555327036500003 151.267197952,-33.555303005 151.26716016,-33.555277974500001 151.26712307199998,-33.555251963499991 151.26708707200001,-33.555223973 151.26705289599997,-33.555195982500003 151.26702012800001,-33.55516503199999 151.267001056,-33.555144959499998 151.26698089600001,-33.5551249795 151.26696217599999,-33.55510302 151.26694595199999,-33.555080968 151.26693299199999,-33.555058028 151.26692112000001,-33.555025986 151.26691392000001,-33.554990965500004 151.266912128,-33.554954964499991 151.26691392000001,-33.5549189635 151.26691788799999,-33.554885034500003 151.26692291199998,-33.554867034 151.26692905600001,-33.554849033499998 151.26693696000001,-33.554831033 151.26694307199998,-33.5548130325 151.26694704,-33.554795032 151.26694704,-33.554775958500002 151.26694416000001,-33.554757958 151.26693984,-33.554739957500004 151.26693984,-33.554703956499999 151.26695497599999,-33.554673986499992 151.26696611200001,-33.5546589645 151.26698592,-33.5546289945 151.26699817599999,-33.554602983500004 151.26700716799999,-33.5545759735 151.26701616,-33.55454898199999 151.267024096,-33.554520991499999 151.26703417600001,-33.554493981500002 151.26704496,-33.554469968499994 151.26705612800001,-33.554446011 151.267068,-33.554421998 151.26707987200001,-33.554397966499998 151.26709104,-33.554374027500003 151.26710185600001,-33.554345038 151.26711408,-33.554314975499992 151.26712416000001,-33.554285005499999 151.26713315200001,-33.554255035499999 151.26713891200001,-33.554223992499999 151.26714,-33.554201034 151.26713785600001,-33.554178001499999 151.267136032,-33.554154969 151.267136032,-33.554132010499998 151.26714108799999,-33.5541110315 151.26715008,-33.55409403 151.26716304000001,-33.554077028500004 151.26717817599999,-33.554061007500003 151.26719292799999,-33.554045967 151.26720588800001,-33.554028965500002 151.267219936,-33.553998995500002 151.26722998400001,-33.553967046 151.26724009599999,-33.553934005 151.26725305599996,-33.553904035 151.267272128,-33.553879023 151.26729011200001,-33.553865962 151.26731100800001,-33.553853992500002 151.26733296,-33.5538440025 151.267353856,-33.553833032 151.26737184000001,-33.553819971 151.267392,-33.5537980115 151.26740998400001,-33.553773998499999 151.26742512000001,-33.553746988500002 151.267436992,-33.553719997 151.26744707200001,-33.553692987 151.26745392,-33.5536620365 151.26745609599999,-33.553630975 151.26745609599999,-33.553598045 151.26745609599999,-33.553566003 151.267458976,-33.55353503399999 151.26746905600001,-33.553494001 151.267482016,-33.553452968 151.26749712,-33.553413008 151.26751008,-33.553371956500001 151.26751692799999,-33.553331996499992 151.267519072,-33.553287985 151.26751692799999,-33.553243973500003 151.267511168,-33.55319996199999 151.267503968,-33.553155969 151.26749388799999,-33.553113030499993 151.267482016,-33.553068038500001 151.26746796799998,-33.553024027 151.26745104,-33.552980015499998 151.26743411199999,-33.552936984500001 151.26741792000001,-33.552892973 151.26740496,-33.552857971 151.26739308800001,-33.552824042 151.26738083199999,-33.552789021500004 151.26736896,-33.5527540195 151.26735708799998,-33.552719998 151.26734988799998,-33.552664017 151.26735888,-33.552219961500001 151.26739596799999,-33.552077049 151.26739705599999,-33.55200504699999 151.26753888,-33.551720998 151.26762601599998,-33.551636046 151.267887008,-33.551409957499999 151.26835283200001,-33.551187032500003 151.26852601600001,-33.551061029 151.26882192,-33.550777979 151.26892704,-33.550635954500002 151.269026048,-33.550442019 151.26905305599999,-33.550408978 151.269078976,-33.550377028500002 151.26910307200001,-33.550343007 151.26912684800001,-33.550309984500004 151.26914988799999,-33.550274964 151.269167872,-33.550246973500002 151.269184096,-33.550218002500003 151.26919993600001,-33.550189013 151.26921612799998,-33.550158969 151.26923196800001,-33.550129979499999 151.26925283200001,-33.550095958 151.26927408,-33.550063028 151.269296032,-33.550029006500004 151.26931513599999,-33.549993986 151.26933097599999,-33.549958984 151.26934211199998,-33.5499260355 151.26935004800001,-33.549891033499996 151.26935689600001,-33.549857012 151.26936192,-33.549821991500004 151.26936588800001,-33.549786989499999 151.269369856,-33.5497419975 151.269370912,-33.549696987 151.269370912,-33.549651995 151.269369856,-33.549606984500002 151.269370912,-33.549560993500002 151.269372,-33.549518961499999 151.26937417600001,-33.5494760415 151.26937596799996,-33.549434009500004 151.26937596799996,-33.549390997 151.26937488,-33.549348965 151.269372,-33.549309005 151.26936803199999,-33.549269045 151.269363008,-33.549228992499998 151.26935616,-33.549189032499996 151.269347168,-33.54914898 151.26933203199999,-33.549102989 151.26931404800001,-33.549057997 151.26929388799999,-33.549012986500003 151.26927408,-33.548967994500003 151.26925609599999,-33.548922003500003 151.26924096,-33.548871961 151.26922691199999,-33.548821012 151.269213952,-33.548769989 151.26919993600001,-33.548718966 151.26918192,-33.548669016 151.269159968,-33.548619954 151.26913513599999,-33.548571983500004 151.269108128,-33.548525012 151.26908291199999,-33.5484770415 151.26905987200001,-33.548427998 151.269040096,-33.548375976 151.26902208000001,-33.548321974499999 151.26900588800001,-33.548267973 151.26898896,-33.548213971500005 151.26896988799999,-33.548162042 151.268951168,-33.548114978 151.26893209599999,-33.548068987 151.26891084799999,-33.548022996 151.26888889599999,-33.547977985500005 151.26886297599998,-33.547933974 151.268815072,-33.547865043 151.26875891200001,-33.547797999 151.26869808000001,-33.547734007500004 151.26863401599999,-33.547671995500004 151.268568128,-33.547610964 151.268514848,-33.547562993500001 151.26846083199999,-33.547515023 151.26840505600001,-33.547469032 151.26834707200001,-33.54742404 151.26828697600001,-33.547382008 151.26823404800001,-33.547346007 151.268177888,-33.547311985500002 151.26812099200001,-33.547278963 151.26806412799999,-33.547247994 151.268005088,-33.547219023 151.26788611200001,-33.5470536885 151.26780412799999,-33.546909684500001 151.26780611199996,-33.546823696499999 151.26770812800001,-33.546578682499998 151.26770912000001,-33.546507698 151.26752089600001,-33.546108967500004 151.26768412800001,-33.546033691 151.26780611199996,-33.545935696500003 151.26799510399999,-33.545851688 151.26857891200001,-33.545687667 151.26875107199999,-33.545661693 151.26931808000001,-33.5454976905 151.27005408,-33.545407669500001 151.27040307199999,-33.54546914499999 151.271019008,-33.546194992499991 151.27114499199999,-33.546343991500002 151.27198099200001,-33.547327007500002 151.27217100799999,-33.547551005500004 151.272456992,-33.547886003500004 151.27264700800001,-33.5481100015 151.272724,-33.548200004 151.2728,-33.548290006500004 151.27287699199999,-33.548380009 151.272952992,-33.548469993 151.27323801599999,-33.548806008500001 151.27330691200001,-33.548876456500004 151.27336601600001,-33.54883999299999 151.273518112,-33.5487386685 151.27355161599999,-33.548713286499996 151.27358291199999,-33.548686202500001 151.27360198400001,-33.548666222499996 151.27365420799998,-33.548602675 151.273674016,-33.548583324 151.27370137599999,-33.548561734499998 151.27373088,-33.548541754499993 151.27376220799999,-33.548523125 151.27379065599999,-33.548508177 151.273852928,-33.548475876 151.273906208,-33.548451567 151.27396128000001,-33.548431235500004 151.274010592,-33.548415751 151.27403580800001,-33.548409276 151.27406137599999,-33.548404762 151.274086208,-33.548403152500001 151.27411177600001,-33.548404688 151.27413769599997,-33.548408721 151.27416361600001,-33.548414937 151.27418809599999,-33.548423225 151.2742104,-33.548433381500004 151.274712032,-33.548633644 151.275533056,-33.549236466499998 151.275593888,-33.549306933 151.27564860800001,-33.549336625500004 151.27576825599999,-33.549372756 151.275631008,-33.550040994500002 151.276832,-33.550210991 151.27951900799999,-33.550592997500004 151.279356,-33.551424998 151.278929984,-33.553600949500002</coordinates></LinearRing></outerBoundaryIs></Polygon></MultiGeometry>

	</Placemark>
</kml>