<?xml version="1.0" encoding="UTF-8"?>
<kml xmlns="http://www.opengis.net/kml/2.2">
	<Placemark>
		<Style>
			<LineStyle>
				<color>ff0000ff</color>
			</LineStyle>
			<PolyStyle>
				<fill>1</fill>
				<color>330000cc</color>
			</PolyStyle>
		</Style>
			<ExtendedData><SchemaData>
		<SimpleData name="STATE_2006">1</SimpleData>
		<SimpleData name="POA_2006">2075</SimpleData>
	</SchemaData></ExtendedData>
      <Polygon><outerBoundaryIs><LinearRing><coordinates>151.18879033600001,-33.728325217 151.18821360000001,-33.728088232 151.18810748800001,-33.728087214499993 151.187877472,-33.728112208 151.18775347199997,-33.728154203 151.18764748800001,-33.728166209500003 151.18752246400001,-33.7282082045 151.18711347199999,-33.728388209499997 151.18691750400001,-33.728500208500002 151.18638249599999,-33.728793211499998 151.18618451200001,-33.728977212499998 151.186077504,-33.7290472165 151.186005376,-33.7291322425 151.18596649599999,-33.729303201 151.18591139199998,-33.729403230500004 151.18576652799999,-33.7295732085 151.18571254400001,-33.729643212500001 151.18546054399999,-33.729869208499998 151.18528054399999,-33.730038224499999 151.18501452800001,-33.730149224500003 151.18480054400001,-33.730261223500001 151.184478592,-33.730499244500002 151.18400956799999,-33.730966221500005 151.18390153600001,-33.731122232 151.18386457599999,-33.731207221 151.18379056000001,-33.731349227 151.183647616,-33.731462225 151.1835216,-33.731575223 151.18309161600001,-33.731898233 151.18287561599999,-33.732139232500003 151.18255264000001,-33.732406224500004 151.18242563199996,-33.732576221 151.182333632,-33.732761221 151.18220377599999,-33.733060199500002 151.18212864,-33.733303234 151.18212662400001,-33.733403226500002 151.18219164800001,-33.733676231 151.182275648,-33.733863229 151.18232764800001,-33.73393623 151.18235862399999,-33.734122229 151.18228464000001,-33.73427922 151.18217766399999,-33.734378232 151.181962656,-33.734518221499997 151.18185564800001,-33.734573185 151.18176665600001,-33.734644225 151.18171065600001,-33.734758222 151.18170467199997,-33.735087226 151.18175568000001,-33.735174231500004 151.181824672,-33.735260256499998 151.18185766400001,-33.7353612295 151.18190867199999,-33.735434230500005 151.18195766400001,-33.7356202295 151.18206867200001,-33.736238222 151.18211968,-33.736325227500004 151.18211068799999,-33.736768228500004 151.18209171199999,-33.736868221 151.181917696,-33.737247230500003 151.18188870399999,-33.737309224 151.18183369600001,-33.73740923499999 151.18157987199999,-33.737749191 151.18129171199999,-33.738046227 151.1811648,-33.738230246500002 151.18108972799999,-33.738401223499999 151.18107072000001,-33.73848723 151.18077574399999,-33.739098229500001 151.18042464000001,-33.739910194499998 151.18040483199999,-33.739995239 151.18034976000001,-33.7400952315 151.180311776,-33.740252222500004 151.180310752,-33.740309221 151.180322752,-33.740581226499998 151.180354752,-33.74075422 151.18040476799999,-33.740869234499996 151.18055964799998,-33.741057231500001 151.18069968,-33.741145254500005 151.18108489599996,-33.741294216500002 151.18143481600001,-33.741399241 151.18164576,-33.741459181 151.18185472,-33.74157721099999 151.18202774400001,-33.741737217500003 151.1821296,-33.741910174 151.18217856000001,-33.742111232 151.18215974399999,-33.7421681935 151.18210476799999,-33.742268186 151.18206659200001,-33.742453223 151.182063712,-33.742554214499997 151.18213177600001,-33.742698181499996 151.18237577599999,-33.742816193 151.18249968000001,-33.742846163 151.18262172799999,-33.742891192 151.18279404800001,-33.742945619 151.18295472,-33.742996198 151.18314672,-33.743099187499993 151.183459744,-33.743304186 151.18358272,-33.743334174499999 151.183653728,-33.7433351735 151.183775744,-33.7433651805 151.1844408,-33.743646177 151.18452755199999,-33.743719178 151.18494659199999,-33.743954165 151.185069728,-33.743985208 151.18538473599997,-33.7441041075 151.18545468799999,-33.744105162 151.18562969600001,-33.744179162 151.18578771200001,-33.744195146 151.186138688,-33.74430015199999 151.18666665599997,-33.744365161 151.18689568,-33.744368158 151.18710867199999,-33.744314156500003 151.18744665599999,-33.744190132500002 151.18779888,-33.743854986500004 151.1879296,-33.743700178499999 151.18813193599999,-33.743606402 151.18838403199999,-33.7436450115 151.188516736,-33.743807756 151.18858969600001,-33.743953943 151.188639456,-33.744061502 151.18873568000001,-33.744188393499996 151.18887830400001,-33.74441733099999 151.18896121599997,-33.744552492 151.18901097599999,-33.74463522399999 151.18922995200001,-33.744968982499998 151.18930291199996,-33.745120682500001 151.189346048,-33.7451951635 151.18940576,-33.745316523500001 151.18944886399998,-33.745388229500001 151.189501952,-33.745473736500003 151.189531808,-33.745539929499998 151.18957494399996,-33.745619923500001 151.18961475200001,-33.745680603499999 151.189657856,-33.745760597500002 151.189704288,-33.74583506 151.18974409599997,-33.745917810500003 151.189770624,-33.745981247 151.18982464000001,-33.746113115 151.18989337599999,-33.746254307 151.19000064,-33.74651512 151.190128896,-33.746742540500001 151.190208512,-33.746869413500001 151.19033036799999,-33.747100404500003 151.19049891199998,-33.747288938 151.19029260799999,-33.7473660645 151.190009632,-33.747405118 151.189903808,-33.747418086499998 151.189358752,-33.747338074 151.18912979199999,-33.747321146499999 151.188742816,-33.747258154 151.188022816,-33.747105159 151.18791660799999,-33.747075096499998 151.18779385600001,-33.747073117 151.18770563199999,-33.747058169 151.187281568,-33.747080128499995 151.18705081600001,-33.7471771425 151.18696153600001,-33.747233123500003 151.18678153600001,-33.747403138500005 151.186709536,-33.747488109 151.18651260799996,-33.747599164500002 151.18630057600001,-33.747611134 151.18596864,-33.74747712 151.18588188800001,-33.747405118 151.18539372800001,-33.747111171500002 151.185182752,-33.747080128499995 151.18497072,-33.747105159 151.184845792,-33.747175163 151.18475580799998,-33.747231144 151.18463161599996,-33.747273176 151.18425792,-33.747439139500003 151.183816928,-33.747462172 151.183711808,-33.747446151 151.18358761600001,-33.7474441715 151.18349977599999,-33.7474291495 151.18307676800001,-33.747394147500003 151.18297164800001,-33.747378126500003 151.18284780799999,-33.747376147 151.182760672,-33.747347157500002 151.182549728,-33.747315208 151.18219980800001,-33.747167152499991 151.181238976,-33.746724188500004 151.18101072,-33.746663157 151.18088688,-33.746662176500003 151.18069392000001,-33.746630227 151.1805168,-33.746628155 151.18025075200001,-33.746739210500003 151.17994691199999,-33.746935236500001 151.17985584,-33.74703423 151.17976691199996,-33.747105233 151.17966,-33.747160233500004 151.17955187199999,-33.747259208500004 151.179231872,-33.747383214 151.17896684799999,-33.747423211 151.17882588800001,-33.747392205 151.178771904,-33.747463208 151.178647904,-33.747476213500001 151.17855888,-33.747489200499999 151.17843488,-33.747516210500002 151.178097888,-33.74764021599999 151.17790089600001,-33.747751216 151.17766592000001,-33.748049214 151.17762892799999,-33.74813420299999 151.17757491200001,-33.748205206 151.17750592,-33.74842221099999 151.17749792000001,-33.748442209499999 151.177423936,-33.748631205500004 151.17735392,-33.748716213 151.177206912,-33.749187204500004 151.17715392,-33.749300202500002 151.17710092799999,-33.749386227499997 151.17703091199999,-33.749456231499998 151.17689094400001,-33.749569229500004 151.17675296,-33.74962423 151.17654694399999,-33.749664227 151.176375968,-33.749662229 151.17596396799996,-33.749685224499999 151.175722944,-33.749739226 151.175654976,-33.749738227 151.17551699199998,-33.749764219500001 151.17534499199999,-33.749776226 151.17529398400001,-33.749790230500004 151.175104992,-33.749816223 151.174688992,-33.7500682485 151.17435603199999,-33.750421247 151.17420003199999,-33.750519241500001 151.17416403199999,-33.75057624 151.17404403200001,-33.750618253499994 151.17326406399999,-33.751065250499998 151.17250406400001,-33.751355256499998 151.17224505600001,-33.751437267 151.17197107199999,-33.751476265 151.17187808,-33.751488271500001 151.17174707199999,-33.7515022575 151.17118108799997,-33.751523273499998 151.17106208000001,-33.751521257 151.170956096,-33.751574259500003 151.17092307199999,-33.75159126099999 151.17065008,-33.751530266499998 151.17061612799998,-33.751515263 151.17042912,-33.751455286 151.170192128,-33.751323288500004 151.17018211199999,-33.751312281 151.17004112000001,-33.751163282 151.16995811199999,-33.751061291500001 151.16869612799999,-33.750010306500002 151.16863712,-33.749913292500004 151.16860512,-33.7498873 151.16854412799998,-33.749862306499999 151.16851612799999,-33.749860308500004 151.16807216000001,-33.749488310499999 151.167547136,-33.749166299500004 151.16736115200001,-33.749049305500002 151.167243136,-33.748976304500005 151.16707216,-33.748930313500004 151.166937152,-33.7488423275 151.16688713600001,-33.748799315 151.16681913599999,-33.74875532199999 151.16661814400001,-33.748551322499999 151.16650016,-33.748449313500004 151.16648214400001,-33.748422322 151.16645814399999,-33.748385322 151.166005152,-33.748057317 151.16563916800001,-33.747837315 151.16553417599999,-33.747807345 151.16518518399999,-33.747630337 151.16497619200001,-33.747484335 151.16478518400001,-33.747310342500001 151.164507168,-33.7471343335 151.164227168,-33.747044331 151.163541216,-33.746934348499998 151.16336620800001,-33.7468603485 151.16315520000001,-33.746828362 151.163068224,-33.7467843505 151.16296220800001,-33.7467833515 151.16287420800001,-33.7467383595 151.16257622399999,-33.746677365 151.16213820799999,-33.746499358 151.161719232,-33.746293379 151.16159824,-33.74619137 151.16120323199999,-33.745641383500001 151.16112620800001,-33.745110378 151.16111520000001,-33.744809383 151.16098022400001,-33.744492367 151.16036320000001,-33.743610398 151.16017120000001,-33.743506391 151.15989020800001,-33.7434453965 151.15933024,-33.743223396499992 151.15912124799999,-33.743105385 151.15887724800001,-33.7429874105 151.158701248,-33.742941419499999 151.15849024,-33.742896409 151.15835424,-33.742829420499994 151.15794924799999,-33.742630416 151.157880256,-33.742543410499998 151.15772825600001,-33.742240417499993 151.15772025599998,-33.741768408499993 151.157867232,-33.741483416 151.15804624,-33.741357412500001 151.15834825600001,-33.741261416 151.15850320000001,-33.741184419 151.15859891199997,-33.740611196499998 151.15869395199999,-33.740060303500002 151.15776768000001,-33.739908659 151.15769603199999,-33.739888327500005 151.15764563199997,-33.739866368 151.1575992,-33.739839099 151.157557088,-33.739807057 151.157532256,-33.739783192 151.15749948800001,-33.739744323499998 151.156986848,-33.738854048 151.15697388800001,-33.738813181499999 151.15696777599999,-33.738771242 151.15696921599999,-33.7386606305 151.156970272,-33.738596639 151.15626323199996,-33.7384963875 151.1557992,-33.738466584 151.15429798400001,-33.738275886 151.15249404799997,-33.738046745 151.15250448,-33.737947566500004 151.15261392,-33.736393344500001 151.15271795199999,-33.736086725500002 151.15292819199999,-33.73568226 151.15302361600001,-33.735579844 151.15338144,-33.735198244499998 151.15364064,-33.734898267 151.15444777600001,-33.7339470525 151.15460652799999,-33.73376751 151.15461660799997,-33.733758149 151.154970848,-33.733429108 151.155682912,-33.732799479 151.15594608000001,-33.732564029500004 151.15606883199999,-33.732444057 151.15624633600001,-33.732206369 151.15638348799999,-33.731962835 151.15623513599999,-33.731865451 151.15578515199999,-33.73173547 151.15566614400001,-33.731950477 151.15554700800001,-33.732167001 151.15552016000001,-33.732214472 151.15536601599999,-33.73235100199999 151.155208192,-33.732488475499991 151.15501017599999,-33.732661469 151.15485516800001,-33.732797462500002 151.154828,-33.732820994500003 151.15474601599999,-33.732797999 151.154492992,-33.732726996 151.15426617599999,-33.732663467 151.154085184,-33.732612462500001 151.15387321599999,-33.732553466 151.15367020799999,-33.732496486 151.1534632,-33.732438488500001 151.15325420799999,-33.732379492 151.1530592,-33.732325490500003 151.1528512,-33.732273487 151.1526592,-33.73215749199999 151.1524632,-33.732041478500001 151.15226822400001,-33.7319254835 151.15207222399997,-33.731809488499998 151.1518992,-33.731714509500001 151.15169420800001,-33.7316315 151.15151222399999,-33.7315575 151.15127523199999,-33.7314615035 151.15107024,-33.731378512500001 151.15086124800001,-33.731294504 151.15064924800001,-33.731208497499992 151.15053324799999,-33.731161507499998 151.15024323200001,-33.731044513499995 151.15002624,-33.730970532 151.149819232,-33.73089853 151.14958624,-33.730818517499998 151.14938425599999,-33.730748532 151.14916928,-33.730675531 151.14895926400001,-33.730603529 151.14874601599996,-33.730529991499992 151.14851401600001,-33.730449997499996 151.14828300799999,-33.7303710025 151.14806726399999,-33.730749549500004 151.14778009599999,-33.730678472500003 151.147816288,-33.730571542500002 151.14787827200001,-33.730388540500002 151.14792928,-33.730238542500004 151.14793526400001,-33.730203540499993 151.14797328,-33.730012546499999 151.14801027199999,-33.729823550500001 151.14804828800001,-33.729632538 151.14808428800001,-33.729443542 151.14832723200001,-33.729404544 151.14836425599998,-33.729333541 151.14838425600001,-33.729218545 151.14849424,-33.729019540499998 151.14865625600001,-33.728850524500004 151.14874323199999,-33.728818519500003 151.14892323199999,-33.728753529 151.14903024,-33.728654517 151.14908524800001,-33.728555523499999 151.14914224,-33.728384528 151.14932822399999,-33.727928521500004 151.14938620800001,-33.727671519499999 151.14940720000001,-33.727486519500005 151.1494472,-33.727300520500002 151.14945222399999,-33.727042519500003 151.14934822399999,-33.7269555325 151.149277216,-33.726954515 151.149118208,-33.726966521500003 151.14912022399997,-33.726880533500001 151.14910521600001,-33.726779542 151.14907721599999,-33.726421548499992 151.14906121600001,-33.726349546500003 151.14909116799998,-33.725748537 151.14912819200001,-33.725620535499999 151.14920217599999,-33.725478548 151.14932918399998,-33.725308533 151.149401184,-33.725237548500004 151.14952716799999,-33.725096541500001 151.14960118400001,-33.724939550500004 151.149602176,-33.724886548 151.149603168,-33.724867548500001 151.14951216,-33.724150544 151.14942915200001,-33.723877539500002 151.14931315199999,-33.723517548 151.14924915200001,-33.723201549500004 151.149254144,-33.722972538 151.14927315200001,-33.722935538 151.14929113599999,-33.722901535 151.149310144,-33.722815547 151.149421152,-33.722588533500002 151.14944016000001,-33.722502545499999 151.149734112,-33.72193354099999 151.14978812800001,-33.7218775415 151.14980812799999,-33.721777549 151.14984512000001,-33.721677538 151.14986412799999,-33.72159155 151.14991910399996,-33.721521546 151.15015811200001,-33.721051535 151.15029107199999,-33.720595547 151.15031008,-33.720509540500004 151.15034707199999,-33.720438537500002 151.15036608,-33.720353548499993 151.15044009600001,-33.720196539 151.15067708800001,-33.719813533500002 151.150772096,-33.719513537499999 151.15074508800001,-33.71908354199999 151.150838048,-33.718856547 151.15093004799999,-33.718685533 151.15098406399997,-33.7186145485 151.15118204800001,-33.718431546499993 151.15132505599996,-33.718347538 151.151804064,-33.718196522500001 151.152301024,-33.718046524500004 151.15240803200001,-33.717990525 151.152783008,-33.717737519 151.15292803200001,-33.717582526 151.153053984,-33.717441519 151.15312899200001,-33.717212526 151.15314,-33.716711527500003 151.15315897599999,-33.716640524500001 151.15316198400001,-33.716483515 151.153172,-33.716463516499999 151.15325299200001,-33.716312519500001 151.15341596799999,-33.716142523 151.15352294399997,-33.716058514499998 151.15370096000001,-33.715975523499992 151.15425545599996,-33.715785473 151.15430496,-33.715768508499998 151.15448294399999,-33.715685499 151.154591936,-33.715543511500002 151.15462992,-33.715429496 151.154702912,-33.715273504 151.15472291200001,-33.715187497500004 151.154759936,-33.715116513 151.15477891199998,-33.7150305065 151.15498092799999,-33.714646502 151.154984928,-33.714432512500004 151.15490291200001,-33.714144504499998 151.15487091200001,-33.714000500499999 151.15484288,-33.713642507 151.15482688,-33.713570505 151.15483689600001,-33.713055502 151.15480688,-33.71284053199999 151.154792896,-33.712625525 151.15478089600001,-33.712338516 151.15480089600001,-33.71222352 151.15478889600001,-33.711966518 151.15480787199999,-33.711894516 151.15480985600001,-33.711808528 151.15486684800001,-33.71159452 151.15486886400001,-33.711508532 151.154906848,-33.711366526 151.15491187200001,-33.711151519 151.15481785599999,-33.71054853 151.15480185600001,-33.710476528 151.15480787199999,-33.710190518 151.154791872,-33.710118516 151.154790848,-33.71010453 151.15477785599998,-33.709960526 151.15476083199999,-33.709888524 151.154770816,-33.709445523 151.154846816,-33.709145527 151.15485081599999,-33.708988517500003 151.15489081600001,-33.708759524500003 151.15485984,-33.708529532500002 151.154825824,-33.708457530499999 151.15474483200001,-33.708141532 151.154766784,-33.707912520500003 151.15484377599998,-33.707584534 151.15491792,-33.70744152899999 151.15500972799998,-33.707271514 151.15533372799999,-33.706918534 151.15574665599999,-33.706580483499998 151.15615776,-33.706299505499999 151.15630176,-33.706144531 151.15634064,-33.705958495 151.156332736,-33.705528481 151.15628483200001,-33.705270535499999 151.15620169600001,-33.704996495 151.15620889600001,-33.704681495500004 151.1563176,-33.704540544 151.15678272,-33.704217534 151.15699584000001,-33.704134561499998 151.15708585600001,-33.70406453899999 151.15729968,-33.703923513499994 151.15760387199998,-33.703713538499997 151.15796281600001,-33.703417538499998 151.15846752,-33.702866460500005 151.15864752,-33.702696538 151.15871952000001,-33.702612474 151.15880953600001,-33.702541471 151.159206592,-33.702103539 151.15924368,-33.70198950499999 151.15924547200001,-33.701903461499995 151.15923072000001,-33.701788521 151.15919651199999,-33.701702496 151.15916268800001,-33.70163049399999 151.15899347199996,-33.7012845255 151.15889376000001,-33.701010485 151.15887971199999,-33.700838490500004 151.158881536,-33.700752539500002 151.158904576,-33.700480478499998 151.158979456,-33.700252503 151.15903452800001,-33.700138469 151.15912451199998,-33.700040548499999 151.15930451199998,-33.699899523 151.15942179199996,-33.699649458499998 151.15954464000001,-33.699387517 151.159551744,-33.699380413 151.15961555199996,-33.6993164955 151.159670656,-33.699245492500005 151.15979555199996,-33.699132531499998 151.16010265599999,-33.698807542 151.160246656,-33.698638526 151.160607712,-33.698227493 151.16071753599999,-33.698057496499992 151.16097168,-33.697717466500002 151.16113548800001,-33.697447477499999 151.16128345600001,-33.697077477500002 151.16146739199999,-33.696721445 151.16163660800001,-33.696222481500001 151.161640576,-33.696036445499999 151.16171257600001,-33.695937452 151.16178563199998,-33.695852481500005 151.16198147200001,-33.695712455 151.16208841599996,-33.695656474 151.162212608,-33.695643505500001 151.162549568,-33.695533523 151.16267449599999,-33.695464499499998 151.16298227199997,-33.695038444499993 151.16332428800001,-33.694700486500004 151.16379155199999,-33.694319516 151.163898496,-33.694249493500003 151.164041408,-33.694137457499998 151.16416848,-33.693967442500004 151.16422428800001,-33.693796447 151.16427241599999,-33.6932094605 151.16431248000001,-33.692938472500003 151.16432041600001,-33.692594483500002 151.16442947199999,-33.691564440500002 151.164520576,-33.6913944255 151.16464835199997,-33.6911814905 151.16472035199999,-33.691110487499998 151.164970208,-33.690956493500003 151.16521932800001,-33.690859461 151.16543244799999,-33.690805478 151.1656632,-33.690694496500001 151.16600233599999,-33.690484447499998 151.16618233599999,-33.690314432500003 151.166237408,-33.690215513 151.16627737599998,-33.689958474 151.16629932800001,-33.689786498 151.16635728,-33.689529459 151.166448352,-33.689358445 151.16659523199999,-33.689103478 151.166739232,-33.688919514 151.16678688,-33.688847623 151.16701212800001,-33.688507500500002 151.167265216,-33.688238492 151.16742611199999,-33.688083425 151.16751539200001,-33.6880844055 151.16797008,-33.688220491500005 151.16821523199997,-33.688309495 151.16859936,-33.688515418500003 151.16901625599999,-33.688807385499999 151.16912028799999,-33.688895408500002 151.169242336,-33.688968391 151.16981328,-33.68949245899999 151.16995008000001,-33.689680474500001 151.170001216,-33.689781447500003 151.17013836800001,-33.689954422500001 151.17058835200001,-33.690362403 151.17076115200001,-33.690536377 151.17103728000001,-33.690855428 151.17133139200001,-33.691146396 151.17145235199999,-33.69123342 151.17178521599999,-33.691324421499992 151.171890112,-33.691383455 151.17220620800001,-33.691444412500005 151.17254022399999,-33.691492401499993 151.172751232,-33.691509366 151.17299641599999,-33.691585401 151.173434176,-33.691734363 151.173661216,-33.691809399 151.173749216,-33.691824402500004 151.17383721600001,-33.691825401500004 151.17380022399999,-33.691954402 151.17370921599996,-33.6920674 151.173584224,-33.692166393500003 151.173280224,-33.692348396500002 151.17274224,-33.6927704 151.17272524800001,-33.69278438599999 151.17263424000001,-33.692940396499999 151.17263024,-33.693112391 151.17274624,-33.69348638699999 151.17279724799999,-33.693558389 151.173021248,-33.693819387 151.17331625599996,-33.694052394499998 151.17342025600001,-33.694111391 151.173785248,-33.694388391499999 151.17387126400001,-33.694490382 151.17395824,-33.694563383 151.17423225600001,-33.694939377 151.17426624000001,-33.695039369500002 151.17440326400001,-33.6952133805 151.174437248,-33.695285382500003 151.174451264,-33.6954723805 151.17431724799999,-33.696000370500002 151.17427824000001,-33.696171384499998 151.174259264,-33.696243368 151.17425529600001,-33.69642936699999 151.17432128,-33.696644374 151.17456528,-33.696805379499999 151.17498326399999,-33.697054371 151.17571526399999,-33.697451362500004 151.17581926400001,-33.697539348500001 151.17623641599999,-33.697831315499997 151.17632425599999,-33.697875364 151.17667526400001,-33.697909348499998 151.17725625599999,-33.697960353 151.17760723200001,-33.698051336 151.17774723199997,-33.698110332500001 151.17783523200001,-33.698126335 151.17816723199999,-33.698245345499998 151.17858921600001,-33.698294333500002 151.17887305599996,-33.698240369 151.17963408,-33.698093312499999 151.18005718399999,-33.6980563125 151.18016320000001,-33.698058329 151.18062019199999,-33.698107317 151.18083107199996,-33.698168274499999 151.18127116799999,-33.6982313225 151.18150016000001,-33.698234319500003 151.18171116799999,-33.698266306 151.18183331199998,-33.698310299 151.18213104,-33.698415323500001 151.18225308799998,-33.698459335 151.18260416000001,-33.698536295 151.18281616,-33.698539310500003 151.18315216,-33.698486308 151.18359516800001,-33.698363301500002 151.18380713599998,-33.698338289500001 151.18433612800001,-33.6983452825 151.184758112,-33.698380284499997 151.18518009600001,-33.698429291 151.185602176,-33.698535296 151.18574108799996,-33.698594255499998 151.18591708799997,-33.698611257 151.18635708799999,-33.698645278500003 151.18677910400001,-33.69870927 151.187715072,-33.6986502735 151.188068896,-33.698569225 151.18829907200001,-33.69854425 151.18840505599997,-33.69854524899999 151.18852704,-33.698576255 151.18859702399999,-33.698620248 151.18897801599999,-33.698968251499998 151.18911504,-33.699171252 151.189166016,-33.699272243499998 151.18939104,-33.699461239500003 151.18942304000001,-33.69961924799999 151.18942006399999,-33.699791242499998 151.18950307200001,-33.700036238 151.18976006400001,-33.700397247 151.18986105600001,-33.700628219500004 151.18989305599999,-33.70078622799999 151.18999305599999,-33.701102226499998 151.19012905599996,-33.701348221 151.19023206400001,-33.701492225 151.19026505599999,-33.701564227 151.190385056,-33.701738219500001 151.19045404799996,-33.701810221500004 151.19076204800001,-33.702287225500001 151.19098707200001,-33.702491225 151.19137107200001,-33.702682219 151.19141705600001,-33.702699220500001 151.19051814400001,-33.707622218499999 151.19045216000001,-33.707985225500003 151.19034416,-33.708578224500002 151.190330144,-33.708659236 151.190293088,-33.708862865500002 151.190262112,-33.709027256500001 151.19022720000001,-33.709219231 151.19007017600001,-33.710083236499997 151.189949216,-33.710755230499998 151.18967123199999,-33.71236123399999 151.18928326399998,-33.712679249 151.18901225600001,-33.712961244500001 151.18888524799996,-33.713175252499994 151.188736288,-33.713559238500004 151.188734272,-33.713645245 151.18875027199999,-33.713731251499993 151.188782272,-33.713875237 151.188795296,-33.714090244 151.18881228800001,-33.714162246 151.18881027200001,-33.714248252499999 151.188859296,-33.714463241 151.18885728000001,-33.714534244 151.188872288,-33.714692252499994 151.188906272,-33.714765253499998 151.18892128,-33.7148512415 151.18895529599999,-33.714923243500003 151.18894828800001,-33.715281237 151.18896428799999,-33.715353239 151.188962272,-33.715424242 151.188995296,-33.715582250499999 151.18902928,-33.715654252500002 151.18909132799999,-33.715975246 151.18909232,-33.715985254499998 151.18899932799997,-33.716226254 151.18883331200001,-33.716597253 151.18870630399999,-33.716767249500002 151.18863232000001,-33.716952249500004 151.188469344,-33.717179244500002 151.188377344,-33.717364244500004 151.188301344,-33.717620247500001 151.188064352,-33.717975244 151.18802736000001,-33.718075255 151.18802435199999,-33.71823224599999 151.18805734399999,-33.718333237499998 151.1879832,-33.718504233 151.187963392,-33.718647238 151.18781148799997,-33.719203255499998 151.18789932799999,-33.720049260499991 151.18784352,-33.720220256 151.18776937599998,-33.720391251500004 151.18774921599996,-33.7204772025 151.187746336,-33.720649289499995 151.187828416,-33.7209651955 151.18791337600001,-33.721110272499992 151.18792921599996,-33.72118118299999 151.18810236799996,-33.721341208 151.18834752000001,-33.721459201 151.18845228800001,-33.721489263500004 151.18862544000001,-33.721649196 151.188623296,-33.721749262499998 151.188586208,-33.7218352135 151.18845948800001,-33.72201927 151.188286336,-33.722719199 151.18827948800001,-33.723062189 151.18831152000001,-33.723234183500004 151.18834428799997,-33.7233212075 151.18837632,-33.723493202 151.188584416,-33.723682198 151.18874028799999,-33.723813233500003 151.18882633600001,-33.723929247 151.18901747199999,-33.724089179499998 151.18912153599999,-33.724148213 151.18922556800001,-33.724250185 151.18927740800001,-33.724322187 151.189238528,-33.724493182499998 151.18904051199999,-33.724677239 151.188967456,-33.724805222 151.18883747199999,-33.725118242 151.18883532800001,-33.725204193 151.188816256,-33.725275196 151.188832448,-33.725347198 151.18883136,-33.7254192 151.18894944,-33.725707208 151.189087328,-33.725823203 151.18919353599998,-33.725825182500003 151.18958627200001,-33.725615226 151.18978032000001,-33.72560423699999 151.189867456,-33.725634207 151.19011225599999,-33.725723229 151.19019936000001,-33.725781171 151.19026956799999,-33.725811233500004 151.19049456,-33.726015177500003 151.190827552,-33.726148192499998 151.19089632000001,-33.726221193500002 151.19105257599998,-33.726352229 151.19117532800001,-33.726382199 151.19126243199997,-33.726441232500001 151.191382336,-33.726600184500001 151.19145145600001,-33.726715199 151.191605536,-33.726932185500004 151.19165449599998,-33.727119202 151.19165232,-33.727191204 151.19163324799999,-33.727262133 151.191682208,-33.727478213 151.191801376,-33.727694126499998 151.191777376,-33.727795173499999 151.19174339200001,-33.727937179500003 151.19173657600001,-33.728295154500003 151.1916624,-33.728451165 151.1915544,-33.728593134 151.19144742399999,-33.728620181 151.19135942400001,-33.728619163499999 151.19120140800001,-33.728588176 151.19078540800001,-33.728263186500001 151.19068041599996,-33.728180195499995 151.190453408,-33.728062184 151.1902424,-33.728031196499998 151.190048416,-33.728028199500002 151.18980243199999,-33.728010199 151.18921945599999,-33.728031196499998 151.189148448,-33.728044183500003 151.18897043199999,-33.728156182500001 151.18879033600001,-33.728325217</coordinates></LinearRing></outerBoundaryIs></Polygon>

	</Placemark>
</kml>