<?xml version="1.0" encoding="UTF-8"?>
<kml xmlns="http://www.opengis.net/kml/2.2">
	<Placemark>
		<Style>
			<LineStyle>
				<color>ff0000ff</color>
			</LineStyle>
			<PolyStyle>
				<fill>1</fill>
				<color>330000cc</color>
			</PolyStyle>
		</Style>
			<ExtendedData><SchemaData>
		<SimpleData name="STATE_2006">1</SimpleData>
		<SimpleData name="POA_2006">2027</SimpleData>
	</SchemaData></ExtendedData>
      <MultiGeometry><Polygon><outerBoundaryIs><LinearRing><coordinates>151.22967875200001,-33.87639185399999 151.22950048000001,-33.876350525 151.229314432,-33.876318335 151.22926547200001,-33.876311527 151.22937248,-33.876219526500002 151.22947248,-33.876147524499999 151.229515456,-33.876105529499995 151.22954745600001,-33.876062517 151.22961446400001,-33.875950518 151.23059241600001,-33.874095504499998 151.23062540800001,-33.874126510499998 151.23068499199999,-33.874155999500005 151.23072201599996,-33.874156998499998 151.23076499199999,-33.874169005 151.230828992,-33.874207004 151.23092499200001,-33.874289995 151.230972,-33.874327994 151.230998016,-33.874344995500003 151.23109100799999,-33.87440499099999 151.231146016,-33.874440992 151.23116198400001,-33.874450001499994 151.23139500799996,-33.874576005 151.231604,-33.87466399099999 151.23182499199999,-33.874751995499999 151.232028,-33.874801002 151.23215299200001,-33.874821999499993 151.232244,-33.874827993499999 151.23231801599999,-33.874828992499999 151.23239100800001,-33.874825995500004 151.232436992,-33.874822998500001 151.23260099199999,-33.874800003 151.232724,-33.874770995 151.23282,-33.874737991 151.23291001600001,-33.874702008500002 151.23301100800001,-33.874651004 151.23309500799999,-33.874600998499993 151.23315100799999,-33.874548995 151.233206016,-33.874501006 151.233284,-33.874443008500002 151.23342700800001,-33.874333007499992 151.23361401599999,-33.874188004499999 151.23393100800001,-33.87391100399999 151.234068,-33.873796008 151.23423699200001,-33.87358100099999 151.234356,-33.873421993500003 151.23451900800001,-33.873212 151.234656,-33.873032994 151.23486,-33.872694999 151.23504,-33.872320004 151.23513299199999,-33.872081002500003 151.235263008,-33.871702992 151.23531500799999,-33.871353009 151.23536700799997,-33.870973999500002 151.235384,-33.870687009 151.235388,-33.870502009 151.235340992,-33.870085000499998 151.235284,-33.869649991500005 151.23516499199999,-33.8689360025 151.23498899200001,-33.867848998 151.23540499200001,-33.86766799399999 151.23569500799999,-33.867548003 151.235951008,-33.867455003499991 151.236548992,-33.867273000499999 151.23673401600001,-33.867235001499999 151.23700499200001,-33.867192007500002 151.23701699200001,-33.867065005 151.23716,-33.867053997500001 151.237167008,-33.867082006499999 151.23780601599998,-33.867030003 151.238079008,-33.867015998499994 151.238108,-33.867330998 151.23842499199998,-33.8671600025 151.23836601599999,-33.866919003 151.23840099200001,-33.866918004 151.238912992,-33.866795996500002 151.238934016,-33.866788004500002 151.23895299199998,-33.866778995 151.238970016,-33.866767007 151.23898700800001,-33.8667559995 151.23900499199999,-33.866743993 151.239023008,-33.866733004 151.23905299200001,-33.8667170015 151.239084,-33.866700999 151.23911699199999,-33.8666869945 151.239148,-33.866677004499998 151.23917798400001,-33.866676005500004 151.23920700799999,-33.866683997500004 151.239236,-33.866695005 151.239264,-33.866698002 151.239295008,-33.866695005 151.23932201599999,-33.866685995499992 151.23991900799999,-33.866493003500004 151.23994499200001,-33.866488008499999 151.239970016,-33.866478999 151.239991008,-33.866461997500004 151.240006016,-33.866436005 151.24002300800001,-33.866412991 151.24004201599999,-33.866403001 151.24006499199999,-33.866396008 151.24009100800001,-33.866391993500002 151.240116992,-33.866389995500001 151.24014300799999,-33.8663889965 151.240184,-33.866391993500002 151.24022601600001,-33.866402002 151.240268,-33.866416006500003 151.240308,-33.866433008 151.24034700799999,-33.866452007500001 151.24038201600001,-33.866471007 151.240416,-33.866492004500003 151.24044899200001,-33.866515999 151.24048,-33.866539993499991 151.240510016,-33.866566004500001 151.240544992,-33.866599008500003 151.240576992,-33.866632993 151.240608,-33.866668994 151.24063801599999,-33.86670699299999 151.24066601600001,-33.866743993 151.24068700800001,-33.866772002 151.24070899200001,-33.866799992499999 151.24072899199999,-33.866828001500004 151.240746016,-33.866856991 151.24075500800001,-33.866886998 151.240756992,-33.866913009 151.24075398400001,-33.8669390015 151.240748,-33.86696599299999 151.24074201600001,-33.866993003 151.240736992,-33.867019994499998 151.240734016,-33.867038994 151.24073100799998,-33.867057993499998 151.240728,-33.867075994 151.240724992,-33.867094993500004 151.240724992,-33.867113993 151.240728,-33.867133991500005 151.24073299200001,-33.867154008500002 151.24074,-33.867174007 151.240744992,-33.867193006500003 151.24074899199999,-33.867213005 151.24074899199999,-33.867239996500004 151.240744992,-33.867268005500001 151.24074,-33.867294997 151.24073500799997,-33.867323006 151.24073001599999,-33.8673499975 151.24071900799999,-33.867416005500004 151.24071699199999,-33.867445994 151.240716,-33.867476001 151.240715008,-33.867500994499991 151.240714016,-33.867519994 151.240715008,-33.867539992499999 151.24071801599999,-33.867566003500002 151.240724,-33.867591996 151.240732,-33.867610995500002 151.24075299200001,-33.867633991 151.24077699200001,-33.867656006 151.240802016,-33.8676780025 151.240826016,-33.867699999 151.24085500800001,-33.867727009 151.24088499199999,-33.8677540005 151.24091500799997,-33.867779993 151.240944,-33.867807003 151.240972992,-33.867834993499997 151.24100099200001,-33.867864001499996 151.241028,-33.867894008500002 151.24105500799999,-33.867922998 151.24108099200001,-33.867953005 151.24110899199999,-33.8679829935 151.241144,-33.868018994499998 151.24118,-33.868055994500004 151.241216,-33.868091995500002 151.241252,-33.868126997499999 151.24129100799999,-33.868161000499995 151.241342016,-33.868206991499996 151.24139500800001,-33.86825300099999 151.24145001599999,-33.868296994 151.241508,-33.868335992 151.241570016,-33.868366998 151.24160700799996,-33.868382001500002 151.241646016,-33.868395007 151.24168499199999,-33.868406995 151.24172499199997,-33.868416004499991 151.24177500799996,-33.868426993500002 151.241795008,-33.868434005 151.24181401600001,-33.868441997 151.241848992,-33.868467009 151.24187900800001,-33.868502991500002 151.24190300800001,-33.86854500499999 151.24192,-33.868588998 151.241930016,-33.868630993 151.24193100799999,-33.868653008 151.241928992,-33.868675004499991 151.24192601600001,-33.868697001 151.24192201599999,-33.868718997500004 151.24192,-33.86874199299999 151.24192099199999,-33.868790000499999 151.241924,-33.868838008 151.241928992,-33.868885997 151.24193100799999,-33.868934004499991 151.241928992,-33.868980994499999 151.24191500800001,-33.869052996500002 151.24189100800001,-33.869123999500005 151.241863008,-33.869194003499999 151.24183398400001,-33.869265006500001 151.24181001599996,-33.869335991 151.24178998400001,-33.869420998500004 151.24178006400001,-33.869466360499999 151.241776,-33.869507005 151.241762016,-33.869593992 151.241744,-33.869678999500003 151.24172899199996,-33.869725009 151.24166099199999,-33.869819007499999 151.24142499199999,-33.870309997500001 151.24114300799999,-33.870935001500001 151.241089888,-33.871081669500001 151.240944,-33.871477995 151.240932,-33.871533994499991 151.240924,-33.871577007 151.24091801599999,-33.871621 151.24091299200001,-33.871664993 151.24091001599999,-33.871709004499991 151.24090899199999,-33.871752997500003 151.24090899199999,-33.871808997 151.240914016,-33.871865995500002 151.24092,-33.87192199499999 151.240927008,-33.871978993500001 151.24093398400001,-33.87203499299999 151.24094,-33.872086996500002 151.24094499200001,-33.872138001 151.240951008,-33.872189005499997 151.24095801600001,-33.872241009 151.24096601599999,-33.872291995 151.24097500799999,-33.872349992499998 151.240984,-33.872409007500003 151.240994016,-33.872468004 151.24100899199999,-33.872525002499998 151.24102899199997,-33.872580003 151.24105699200001,-33.872631007500004 151.24108899199999,-33.872680994500001 151.24112601600001,-33.872730001 151.24116499199999,-33.872776991 151.24120601600001,-33.872823000499999 151.24123699200001,-33.8728550055 151.24126899199999,-33.872886992 151.24130201599996,-33.872917998 151.24131078400001,-33.872926397 151.241221088,-33.87307473 151.24119408000001,-33.873119278 151.24103497600001,-33.873382533 151.24051763200001,-33.874233477499999 151.24008457599999,-33.874940973 151.23971555200001,-33.875543962 151.239372288,-33.876105418500003 151.238859136,-33.876943746 151.23870576,-33.877195105499993 151.23830531199999,-33.877849432 151.23782521599998,-33.878644747 151.23775283200001,-33.878719524 151.237643392,-33.878894404499995 151.23757644799997,-33.87901319299999 151.237546912,-33.879065936499998 151.23753936,-33.879090874500001 151.23834323200001,-33.879255839 151.23839363199997,-33.879259169 151.23848633599999,-33.879265422 151.23864934400001,-33.879237413 151.23925692799997,-33.879000335500002 151.23946464,-33.878842475 151.23972432,-33.878731419499999 151.24005331199999,-33.878670388 151.24095107199997,-33.878505682499998 151.24132656,-33.878536207499991 151.24157228799999,-33.8785563725 151.24183993599999,-33.878563384 151.241946496,-33.878566251500004 151.242141248,-33.878406152499998 151.24238025599999,-33.878783367499999 151.24249824,-33.878969385 151.24264924799999,-33.87913037199999 151.24318224000001,-33.87969736 151.24323024,-33.879748956500002 151.24359097600001,-33.880077368500004 151.24363824,-33.880125357499992 151.24336307199999,-33.880309821 151.242636288,-33.880621379499999 151.242468288,-33.880684372 151.24247126399999,-33.880692382499994 151.24249526400001,-33.880714379 151.24250627199999,-33.880725368 151.24255427200001,-33.880737374500001 151.24255728,-33.880764384500004 151.242298272,-33.880872369 151.242207296,-33.880910368 151.24139532800001,-33.881264458 151.24117033599998,-33.880998779500004 151.24095001599997,-33.880726977500004 151.24091795199999,-33.880655974500002 151.23996217600001,-33.880832816 151.23950604800001,-33.880909147 151.23868636799997,-33.881057406 151.23802499199999,-33.881176805 151.238067392,-33.881312428500003 151.23815440000001,-33.881559440499991 151.23836016000001,-33.882092185 151.238441408,-33.882331427 151.23845916799999,-33.882399266500002 151.23833440000001,-33.882867427499995 151.23826764799998,-33.883140154499998 151.23787235200001,-33.883056090499998 151.23754368,-33.882073463 151.23740688000001,-33.881692677499998 151.237256032,-33.881208754500001 151.236999008,-33.880432050499991 151.236975616,-33.880346007 151.23685356799999,-33.880438988 151.236639008,-33.88060278699999 151.23627142399999,-33.880885448500003 151.23572544000001,-33.880335443500002 151.23548544,-33.880496449 151.23535164800001,-33.880575869499999 151.23524185599999,-33.880651201500001 151.235230272,-33.880657769 151.235044448,-33.880478467 151.23434329599999,-33.879795114 151.23441744,-33.879695473 151.23404844800001,-33.879323475 151.23383443200001,-33.879478468 151.23384243199999,-33.879524477499999 151.23386544,-33.879673476500002 151.23386742400001,-33.879683466499998 151.23370646399999,-33.879705481500004 151.23352745599999,-33.879730493499991 151.23306547199999,-33.879664485500001 151.2329864,-33.879651313499991 151.23314646399996,-33.879398492500002 151.23319523199999,-33.8793156865 151.23219145600001,-33.878715491 151.232007968,-33.878551766 151.23194448000001,-33.878543515 151.23172848,-33.878760501499997 151.23215648,-33.879208497500002 151.232071488,-33.879527511500001 151.23186550400001,-33.880321513 151.23184544,-33.880385985499998 151.23179664,-33.880376606 151.23117347199999,-33.880136587 151.23087072000001,-33.880022460500001 151.230771008,-33.880010047 151.23066752,-33.880043532 151.23061369600001,-33.880079070500003 151.23050784,-33.880148649 151.23047654399997,-33.880070523500002 151.23048752,-33.879900527 151.23064249599997,-33.879275504500001 151.23007452799996,-33.87920452 151.23008553599999,-33.87916752 151.22987052799999,-33.87913052 151.22932153599999,-33.879053523 151.22910752000001,-33.879024533500001 151.22819955200001,-33.878897549500003 151.228010176,-33.8788753125 151.22827907199999,-33.878593983 151.22927196800001,-33.8771491145 151.22942172800001,-33.876931055 151.22947859199999,-33.876848878 151.22951712,-33.876793526 151.22968092799999,-33.876651057499998 151.229742496,-33.876573209500002 151.22974393599998,-33.876508774 151.229719456,-33.876447576 151.22967875200001,-33.87639185399999</coordinates></LinearRing></outerBoundaryIs></Polygon><Polygon><outerBoundaryIs><LinearRing><coordinates>151.24669900800001,-33.872057008 151.246736992,-33.872047998500001 151.24677401599999,-33.872038008499999 151.24679900799998,-33.872041005500002 151.24682201599998,-33.872045001499998 151.246852,-33.872052993499999 151.246880992,-33.872063002 151.24690899199999,-33.872076007499999 151.24693500800001,-33.872089993499998 151.246959008,-33.872106995 151.247255008,-33.872038008499999 151.24758300799999,-33.871914003 151.24803299199999,-33.871691004 151.248188992,-33.871606995500002 151.24841500799999,-33.871494996500005 151.24900499199998,-33.871087996500002 151.24918,-33.870947008 151.24935500800001,-33.870763007 151.249483008,-33.870616006 151.2496,-33.870458996499998 151.249704,-33.870293995 151.24979299200001,-33.870123998499999 151.249864,-33.869952004 151.24988099199996,-33.869904995500001 151.249896992,-33.869857006499998 151.249911008,-33.869808999 151.249924,-33.869760991500002 151.249936,-33.869712003499998 151.24994700799999,-33.86965700299999 151.24995801599997,-33.869602002500002 151.249967008,-33.869546003 151.249972,-33.869490003500005 151.24997500800001,-33.869435003 151.24997299200001,-33.869372991 151.249966016,-33.869311996500002 151.24995699199999,-33.869251002 151.24994601599997,-33.869189008500001 151.24993699199999,-33.869127995500001 151.24992601599999,-33.869053995500003 151.24991401599999,-33.868978996500005 151.24990201599999,-33.868904996499992 151.24989001599999,-33.868830996500002 151.249878016,-33.868756996500004 151.249868,-33.868700997 151.24985900799999,-33.868644997499999 151.24984998400001,-33.868588998 151.24983900800001,-33.868532998499994 151.249828,-33.868477998 151.249819008,-33.868420000499995 151.249812,-33.868358007 151.24980300799999,-33.868297993 151.249784992,-33.868249005 151.24975500799997,-33.868217 151.249731008,-33.868206991499996 151.24970499200001,-33.868200997500004 151.24967801599999,-33.8681960025 151.249650016,-33.868192006500003 151.24962201599996,-33.868186993 151.24958099200001,-33.868181998 151.249538016,-33.868178002 151.249496,-33.868175005 151.24945299199999,-33.868172008 151.24941100800001,-33.8681659955 151.24936700800001,-33.868157004499999 151.249323008,-33.868144998 151.24927801600001,-33.868131992499997 151.249234016,-33.868119005499992 151.249216,-33.868113992 151.24917100799999,-33.868107998 151.24912499199999,-33.868098008 151.24908,-33.868085002500003 151.249036,-33.868069 151.248996,-33.868050000499998 151.248955008,-33.868028004 151.248916,-33.868001993 151.24888,-33.867973003499991 151.248848,-33.867940998500004 151.24882201599999,-33.867907994500001 151.248807008,-33.867882002 151.24879401600001,-33.867853993 151.248783008,-33.867825003500002 151.248776,-33.867795995500003 151.24877001600001,-33.867767006 151.248768,-33.867737998 151.24877100800001,-33.867707991 151.248775008,-33.867677003499999 151.24877900800001,-33.8676469965 151.248783008,-33.867599007500004 151.248784,-33.8675640055 151.24878899199999,-33.867530002500004 151.248795008,-33.867508006 151.248804,-33.867487008499999 151.24881500800001,-33.867465992500001 151.24882601600001,-33.867444995 151.248836,-33.867424996499999 151.248852,-33.867388995500001 151.24886899200001,-33.867353993500004 151.248884,-33.867318991499999 151.248899008,-33.867284008 151.248912,-33.867248007 151.24892201599997,-33.867218999 151.248930016,-33.867189991 151.24893801600001,-33.8671600025 151.24894601599999,-33.867130994500002 151.248952,-33.867101006 151.24895801599999,-33.86706600399999 151.248963008,-33.867031002 151.248966016,-33.866996 151.24896899199999,-33.866960998 151.24897100800001,-33.866924997 151.248975008,-33.866899004499992 151.24897299200001,-33.866868997499999 151.24894700799999,-33.866839009 151.248928,-33.866832996500001 151.248912,-33.86681999099999 151.248856,-33.866803008 151.24875900800001,-33.866772002 151.24873500800001,-33.86676500899999 151.248712,-33.8667550005 151.248694016,-33.866745991 151.248682016,-33.866731006 151.24867500799999,-33.866711007500001 151.24866300799999,-33.866691009 151.248652,-33.866675006500003 151.24864,-33.866659004 151.248624992,-33.866639005499998 151.248606016,-33.866613993500003 151.24858700799999,-33.86658999899999 151.24857500799999,-33.866573996500001 151.24856300799999,-33.866558993 151.24855100799996,-33.866544008 151.24853900799997,-33.866528005500001 151.24852899199999,-33.866511004 151.24851699199999,-33.866490006500001 151.24850601599999,-33.866467991500002 151.248496,-33.866445995 151.24848899199998,-33.866422999500003 151.24848601599999,-33.866400004 151.24848601599999,-33.8663820035 151.24848899199998,-33.86636400299999 151.24849299199997,-33.866346002500002 151.24849798400001,-33.866328002 151.24851001600001,-33.866300992 151.24852198400001,-33.8662829915 151.24853401600001,-33.866266008499998 151.24854601600001,-33.866251005 151.248559008,-33.866236001499999 151.24857299199999,-33.866222996 151.248588,-33.866210009 151.248604,-33.866197003499991 151.248628,-33.866171991499996 151.24865699199998,-33.866145999 151.24868899200001,-33.866122004499999 151.24872201599999,-33.866099009 151.24875299199999,-33.866074996 151.24878099200001,-33.866048004500001 151.24879401600001,-33.866026008 151.248806016,-33.866002994 151.248819008,-33.865980997500003 151.248831008,-33.865959001 151.248844,-33.865937004500005 151.24886,-33.865909994500001 151.248876,-33.865884002 151.248892,-33.865857991 151.248907008,-33.865830999499998 151.24892201599997,-33.865805007 151.24893401599999,-33.865780994 151.24894601599999,-33.865756000499999 151.24895801599999,-33.865732006 151.24896899199999,-33.865706994 151.24897900799999,-33.865682999499995 151.248978016,-33.865660004 151.248968,-33.86559099899999 151.24895699199999,-33.865520995 151.248952992,-33.8654520085 151.24894700799999,-33.865384002500001 151.24894499199999,-33.865361007 151.24894499199999,-33.865337993 151.248944,-33.865312999499999 151.248943008,-33.865291003 151.248940992,-33.865264992 151.248940992,-33.865238999500001 151.24894700799999,-33.865209991500002 151.248956,-33.865182001 151.24896700799999,-33.865153992 151.24897900799999,-33.865127999500004 151.248992,-33.865103006 151.24900499199998,-33.86507299899999 151.24902300799999,-33.865036998 151.249044,-33.865001996 151.249064992,-33.864967993 151.249088,-33.864935007500002 151.24914099200001,-33.864868000499996 151.249202016,-33.864805008 151.249267008,-33.864744994 151.24933401600001,-33.864685997500004 151.24940099200001,-33.864627001 151.249464,-33.864569003500002 151.249527008,-33.864510007 151.249592,-33.864451991 151.24966,-33.864399007 151.24973299199999,-33.864351998499998 151.249796,-33.864319993500004 151.24986201600001,-33.864290005 151.24993100799998,-33.864262995 151.250000992,-33.864240998499994 151.25007100799999,-33.864221 151.250132992,-33.864207994499992 151.25019699199999,-33.864199003499998 151.25026099199999,-33.864191992 151.250324992,-33.864184999 151.250388,-33.864178006 151.250424,-33.864175009 151.25046,-33.864172992500002 151.250496,-33.864169995499999 151.250530016,-33.864165000500002 151.250574016,-33.864150996 151.250596992,-33.864136991499997 151.25062,-33.8641250035 151.250664,-33.864115994 151.25071401599999,-33.864116993 151.250767008,-33.864121007500003 151.25081699200001,-33.864122006500004 151.25086,-33.86411199799999 151.25088099199999,-33.864101009 151.2509,-33.864086005499999 151.25091801600001,-33.864071002 151.25093699199999,-33.8640559985 151.250956992,-33.864041994 151.25097817599999,-33.864029969 151.25099401599996,-33.864020996500003 151.251032,-33.864002996 151.251072,-33.863985994499998 151.251112,-33.863970991 151.25115699200001,-33.863958004 151.25120201600001,-33.8639499935 151.251236,-33.8639420015 151.25126899200001,-33.863931993 151.25130099200001,-33.863920005 151.25132499200001,-33.863906999500003 151.251348,-33.863891996 151.25137001600001,-33.863876992500003 151.25139299200001,-33.863863006500004 151.251418016,-33.863851999 151.251451008,-33.863843008 151.251486016,-33.863838993500003 151.25152300799999,-33.863837994500003 151.25156,-33.863836995500002 151.251596,-33.863836995500002 151.251636,-33.863836995500002 151.25167500800001,-33.863837994500003 151.25171500799999,-33.863839992499997 151.251755008,-33.863840991499998 151.25179500799999,-33.863838993500003 151.25183500799997,-33.863833998499999 151.25187500800001,-33.863826006499998 151.251915008,-33.863816997 151.25195401600001,-33.863807007 151.251994016,-33.863798996500002 151.252036,-33.8637900055 151.25207798399998,-33.863780996 151.25212,-33.863773004 151.252162016,-33.863764993499998 151.252204992,-33.863758000499999 151.25224601599999,-33.863751007499999 151.25228899199999,-33.863743996 151.252331008,-33.863738002 151.25237299200001,-33.863735005 151.25241401599999,-33.863735005 151.252444,-33.863738002 151.25247401600001,-33.863740999 151.252504,-33.863746993 151.252532992,-33.863754004500002 151.25256,-33.863762995500004 151.252592,-33.863776001 151.252624,-33.863792003500002 151.25265401600001,-33.863810004 151.25268099199999,-33.863831001500003 151.25270499199999,-33.863851999 151.252723008,-33.863873995500001 151.25274,-33.863898008499994 151.25275299200001,-33.863924001 151.25276499200001,-33.8639499935 151.252776,-33.863976004500003 151.25278499199999,-33.864007991 151.25279001600001,-33.864040995 151.252794016,-33.864074998 151.25279798400001,-33.864109001 151.252804,-33.864142005 151.25281299199997,-33.864168996499998 151.252827008,-33.864199003499998 151.25284,-33.864227993 151.252847008,-33.864251007 151.252836,-33.864269007499999 151.25281801599999,-33.864275001500005 151.25280099199998,-33.864280995500003 151.252784,-33.86428700799999 151.252759008,-33.864297997 151.252744992,-33.864312001499997 151.25273401600001,-33.864330002 151.25272700799999,-33.864350999500004 151.25272099200001,-33.864372996 151.252715008,-33.864393993500002 151.25270700799996,-33.864425998500003 151.252702016,-33.864459002499999 151.25269900799998,-33.864492006500001 151.25269900799998,-33.86452599099999 151.252700992,-33.864558995 151.25270300799997,-33.864579992499998 151.25270499199999,-33.864602007500004 151.252708,-33.864623005 151.252712992,-33.8646440025 151.25272,-33.864664001 151.252732,-33.864687995499999 151.25274899199999,-33.864710991 151.252768,-33.864732007 151.25278899200001,-33.864752005500002 151.252812,-33.864770006 151.252844,-33.8647880065 151.252880992,-33.864801992499999 151.25292,-33.864813 151.25296,-33.864823008500004 151.25299900799999,-33.8648339975 151.25304,-33.86484700299999 151.25308201600001,-33.864861007500004 151.25312300799999,-33.864872995500001 151.25316499199997,-33.864886001 151.25320700799998,-33.864898007500003 151.253263008,-33.864912992500003 151.25331900800001,-33.86492699699999 151.25337500799998,-33.864940002499999 151.25343100800001,-33.864952009 151.253488,-33.864962998 151.253534016,-33.864969991 151.25358,-33.864977002499998 151.253626016,-33.864982996500004 151.253672,-33.864987991500001 151.25371801599999,-33.864992006 151.25379100800001,-33.864998999 151.25386499199996,-33.865004993 151.25393801599998,-33.865010006499993 151.254012,-33.865010006499993 151.254084,-33.865005992 151.254108992,-33.865004993 151.25413699200001,-33.865004993 151.25416300800001,-33.865002995 151.254199008,-33.864990008 151.25420700800001,-33.8649710085 151.254210016,-33.864948993500001 151.254211008,-33.864921003 151.254210016,-33.864902003499999 151.254208,-33.864884003 151.25421299199996,-33.864850999 151.254232992,-33.864825006499998 151.25424700799999,-33.864813 151.25426198400001,-33.864801992499999 151.254291008,-33.864781994 151.25432,-33.8647649925 151.25435100799999,-33.864747991 151.25438099199997,-33.864732007 151.254412,-33.864716004500004 151.25444198400001,-33.864700002 151.254472,-33.8646820015 151.254512,-33.864651994500001 151.254536992,-33.864627001 151.25456300799999,-33.864603006499998 151.25458499199999,-33.864586005 151.254608,-33.864571001499996 151.254632,-33.864555998 151.254656,-33.864540994500004 151.25468,-33.86452599099999 151.25469699199999,-33.864516001 151.25471401600001,-33.8645059925 151.25473100799999,-33.864496002500005 151.254748,-33.864485994 151.25476499199999,-33.864475005 151.25478700799997,-33.864458003499998 151.25480899199999,-33.864439004 151.254830016,-33.864420004499998 151.254851008,-33.864400006 151.25488201600001,-33.864369999 151.25490300800001,-33.864350000500004 151.254924,-33.864329003 151.25508,-33.864418006500003 151.25521801599999,-33.864314998499999 151.25524099199998,-33.864305008500004 151.255264,-33.864293002 151.25528601600001,-33.864278997499994 151.25530601599999,-33.864262995 151.255324,-33.8642469925 151.25534,-33.86422899199999 151.25535500800001,-33.8642089935 151.25536700800001,-33.864186997 151.25537801600001,-33.864165000500002 151.25538899200001,-33.864143004 151.25539699199999,-33.864120008500002 151.255403008,-33.864094996499993 151.255408,-33.864070003 151.255414016,-33.864044991 151.25542300800001,-33.864021995500003 151.255438016,-33.863994005 151.25545699200001,-33.863967994 151.25547699200001,-33.863943000500001 151.25549801599996,-33.863917008 151.25552,-33.863891996 151.255538016,-33.863869000499996 151.25555699200001,-33.863846005 151.25557500799999,-33.863824008500004 151.255595008,-33.863801993500005 151.255616,-33.863779997 151.255642016,-33.863756002499997 151.25566899200001,-33.863733007 151.255696992,-33.86371099199999 151.25572499200001,-33.863689994499993 151.255754016,-33.86366899699999 151.25578300800001,-33.863647999500003 151.25581100799997,-33.863628001 151.25584,-33.863608002500001 151.25587100800001,-33.863590002 151.25590300799999,-33.863574998499999 151.25592499199999,-33.863565008500004 151.255948,-33.86355599899999 151.255972,-33.863548007 151.255996,-33.863542993499998 151.25601900800001,-33.863541994500004 151.25604,-33.8635449915 151.25606201599999,-33.863553002 151.25608300799999,-33.863562992 151.256103008,-33.863574998499999 151.25612201600001,-33.863587005 151.25614300800001,-33.863599992 151.25616300799996,-33.863615994500002 151.256180992,-33.863631997 151.25619900800001,-33.863648998500004 151.256215008,-33.863666 151.25623100799999,-33.863685998500003 151.25624601600001,-33.863706996 151.256259008,-33.8637289925 151.25627299199999,-33.863751007499999 151.25628601599999,-33.863772005 151.25630099200001,-33.863799995500003 151.256314016,-33.863829003500001 151.256328,-33.863857993 151.25634499200001,-33.863884004 151.25636700800001,-33.8639040025 151.25638499199999,-33.863912993500001 151.256404,-33.863919006 151.25642499200001,-33.863925 151.256444,-33.863930994 151.25646099199997,-33.863940003499998 151.25647900800001,-33.863960002 151.256494016,-33.863981998499995 151.25651001599999,-33.864009008499998 151.25652601599998,-33.864040995 151.25654201599997,-33.864072001 151.256551008,-33.864089002500002 151.256560992,-33.864105005 151.25657100800001,-33.864120008500002 151.25658198400001,-33.864135992500003 151.256598016,-33.864161004499998 151.256610016,-33.864178006 151.25662300799999,-33.864196006500002 151.25664499199999,-33.864223997 151.256664992,-33.864252006 151.25667900799996,-33.864279996500002 151.25668899199999,-33.864308005499993 151.25669299200001,-33.864335996 151.256688,-33.86437099799999 151.25668300799998,-33.864388998500004 151.256676992,-33.864406 151.25667001599999,-33.864423001500001 151.256663008,-33.864444998 151.256656,-33.864465995499998 151.25664700799999,-33.864486993 151.25663801600001,-33.864508009 151.25662700800001,-33.864527008499998 151.256612,-33.864548006 151.256596,-33.864567005499993 151.25657801599999,-33.864586005 151.25655900800001,-33.864604005499999 151.25653001599997,-33.864632995 151.25650899199999,-33.864653992500003 151.25648700799999,-33.864673991 151.256472,-33.864685997500004 151.25645699200001,-33.864698004 151.25644099199999,-33.864708993 151.25642601600001,-33.864720999500001 151.25641299200001,-33.864734005 151.2564,-33.8647500075 151.256388,-33.864767009 151.25637699200001,-33.864783992 151.256368,-33.864801992499999 151.256359008,-33.864819993 151.256350016,-33.864842008 151.25634300799996,-33.8648650035 151.256336992,-33.864887999 151.25633100799999,-33.864909995499993 151.256324992,-33.864932991 151.25631900799999,-33.864956005 151.256315008,-33.864979999500001 151.25631001599999,-33.865003994 151.256303008,-33.865026009 151.256282016,-33.865056996500002 151.25626201599999,-33.865077994 151.256238016,-33.865097992499997 151.25622201600001,-33.865110998 151.25620499199999,-33.865125002500001 151.256188,-33.865137009 151.256170016,-33.865146 151.25614300800001,-33.865147998 151.25612099200001,-33.865141005 151.25610099199997,-33.8651309965 151.25608,-33.865108001 151.25606201599999,-33.865084006499998 151.256034016,-33.865074997 151.256008,-33.865076995 151.25598700799998,-33.865087003500001 151.25597001599999,-33.865103006 151.25597001599999,-33.865127999500004 151.25598201599999,-33.865146 151.25598700799998,-33.865164000500002 151.255988,-33.865182001 151.25598,-33.865205995499998 151.255967008,-33.86522 151.255952992,-33.865233005500002 151.255936,-33.865246991500001 151.25591699199998,-33.865258998 151.255896992,-33.865270005500001 151.255876992,-33.865281993499991 151.25585699199999,-33.865293001 151.25583798400001,-33.865305007499998 151.25581900799997,-33.865317994500003 151.25580099199999,-33.865330001 151.25578201600001,-33.865342007500004 151.25576201600001,-33.865352996499993 151.255740992,-33.865363005 151.255719008,-33.865372995 151.255698016,-33.8653830035 151.25567699199999,-33.865392993500002 151.255656,-33.865404001 151.25563299199999,-33.865419004499998 151.25561100799999,-33.865435007 151.25558899200001,-33.865453007500001 151.25556899200001,-33.865471008 151.255550016,-33.865489008499999 151.255527008,-33.865513003 151.255507008,-33.865536997500001 151.25548700799996,-33.865559993 151.255468992,-33.865579991499999 151.25545299199999,-33.865602006499998 151.25544499200001,-33.865619008 151.25544,-33.865638007500003 151.255436,-33.865658006 151.25543299200001,-33.865678004499998 151.25543001599999,-33.865697004 151.255428,-33.865722996500004 151.255427008,-33.8657490075 151.255427008,-33.865775999 151.255428,-33.8658019915 151.255428,-33.865828002500002 151.255427008,-33.865861006499998 151.255428,-33.865893992 151.255428,-33.865927995 151.255427008,-33.865960999 151.255424992,-33.865994003 151.25542099200001,-33.866021993499992 151.255416,-33.866050002500003 151.25541100800001,-33.866076994 151.25540601599999,-33.86610500299999 151.25540099199998,-33.866132993500003 151.255396,-33.866159004499998 151.255392,-33.866185996 151.255388,-33.866212007 151.255383008,-33.866237999500001 151.25537699200001,-33.86626399199999 151.255371008,-33.866289004 151.25536300799999,-33.866313997499994 151.25535500800001,-33.866338991 151.255344992,-33.866363004 151.25533299200001,-33.866385000499996 151.25531699199999,-33.86640599799999 151.25529798400001,-33.866424997500005 151.25527801600001,-33.866442998 151.255256992,-33.866461997500004 151.25523699199996,-33.866479998 151.255214016,-33.866500995500004 151.255190016,-33.866520994 151.255166016,-33.8665419915 151.255143008,-33.866562008500004 151.25511900799998,-33.866583006 151.255102016,-33.866597991 151.25508499200001,-33.866613993500003 151.255068,-33.866628997 151.255052,-33.866644999500004 151.255034016,-33.866660003 151.25501699200001,-33.866674007500002 151.25500099199999,-33.866687993500001 151.254984,-33.866701998 151.25496700799999,-33.866716002499999 151.25494899200001,-33.866729008 151.25492601600001,-33.866744992 151.25490300800001,-33.866759995500004 151.25487900799999,-33.866774999 151.254856,-33.866790002499997 151.254832,-33.866806005 151.254818016,-33.866815995 151.254788,-33.866836992499991 151.254772992,-33.866847001 151.25475798400001,-33.866856991 151.25473401599999,-33.866868997499999 151.254708,-33.866878007 151.254682016,-33.866886998 151.254656,-33.866897006500004 151.25463100799999,-33.866906996499999 151.25460700799997,-33.86692000199999 151.254583008,-33.866933007500002 151.254559008,-33.8669459945 151.254536992,-33.866960998 151.254500992,-33.866985991500002 151.25447699200001,-33.8670070075 151.25445100799999,-33.867027006 151.25443100799998,-33.867040992 151.25440899200001,-33.867054996500002 151.25438700800001,-33.867068002 151.25436601600001,-33.867082006499999 151.254344992,-33.867094993500004 151.25432499199999,-33.867108998 151.25430601599999,-33.8671220035 151.25428700800001,-33.867136008 151.25426700799997,-33.867148995 151.25424899199999,-33.867163998500004 151.25422601599999,-33.867182998 151.254204,-33.867202996499998 151.25418300800001,-33.867223994 151.25416201600001,-33.867244991500002 151.254143008,-33.867267006500001 151.254112,-33.867308002499996 151.254084992,-33.8673499975 151.25406099200001,-33.867395008 151.25403699200001,-33.867439001 151.25401299199999,-33.867482994 151.253995008,-33.867513001 151.25397801599999,-33.867543008 151.253960992,-33.867571997499994 151.253944,-33.8676020045 151.25392601599998,-33.867630994 151.253904992,-33.867660002 151.25388201600001,-33.867688991499996 151.25385900800001,-33.867717999499995 151.253836992,-33.867747007499993 151.253818016,-33.867776996 151.253808,-33.867797993499991 151.25379900799999,-33.867817992 151.25379100800001,-33.867839008 151.253783008,-33.867860005499992 151.25377401599997,-33.86788100299999 151.25376,-33.867913008 151.25374601600001,-33.867943995499992 151.253732,-33.8679750015 151.25371900799999,-33.868006007499993 151.253708,-33.868037994 151.253703008,-33.868056993499991 151.25369900800001,-33.868075993 151.253696,-33.868094992499998 151.253691008,-33.868114991 151.25368499199996,-33.868132991499998 151.25367299199999,-33.868155006500004 151.253658016,-33.868175005 151.25364201599999,-33.868195003499999 151.253628,-33.868216001 151.25361900799999,-33.8682350005 151.25360998400001,-33.868254999 151.253602016,-33.868274997500002 151.25359401599997,-33.868295995 151.25358700800001,-33.868315993499991 151.25357699200001,-33.868346999499998 151.253568992,-33.868378005499991 151.25356201599999,-33.868409992 151.253556,-33.868440998 151.253552,-33.868473003 151.25355100799999,-33.868492002499998 151.25355100799999,-33.868511002 151.25355100799999,-33.868530001499998 151.25355100799999,-33.86855 151.25355001599999,-33.868568999499999 151.253547008,-33.868594992 151.253544,-33.868621003 151.25353900799999,-33.868647994500002 151.253532992,-33.868674005500004 151.25352700799999,-33.868698999 151.25352099200001,-33.868719996499998 151.253514016,-33.868740994 151.25350700800001,-33.868761991500001 151.2535,-33.868783007499999 151.25349299199999,-33.868804005 151.25348300799999,-33.868837009 151.25347398399998,-33.868869994500002 151.253464,-33.868902998499998 151.253456,-33.8689360025 151.253448,-33.868969006500002 151.25344099200001,-33.868997996 151.253435008,-33.869028003 151.25342899200001,-33.8690579915 151.25342499199999,-33.869086999499999 151.253424,-33.869117006499998 151.25342499199999,-33.869148993 151.25342998400001,-33.869179999 151.253436,-33.869212004 151.253443008,-33.869244009 151.253452,-33.869274996500003 151.25346201599999,-33.869305003500003 151.25347398399998,-33.869334992 151.25348601600001,-33.869364999 151.25349900800001,-33.869394007 151.253512,-33.8694239955 151.253524992,-33.869457998500003 151.25353801599999,-33.869491002499998 151.25355100799999,-33.869525005500002 151.25356499200001,-33.869557991 151.253582016,-33.869590995 151.25359699200001,-33.869616007 151.253612992,-33.869641000500003 151.25363001599999,-33.869664995 151.253647008,-33.869689008 151.25366300799999,-33.8697140015 151.25368,-33.869741992 151.25369500799999,-33.869771 151.25371001600001,-33.86979900899999 151.253726016,-33.8698279985 151.253744,-33.869855008500004 151.25376300799999,-33.869880002 151.253783008,-33.869904995500001 151.253804992,-33.869930007500002 151.253826016,-33.869954002 151.25384601600001,-33.869978995499991 151.253872992,-33.870010001499999 151.2539,-33.870041007499999 151.25392700800001,-33.870071995 151.253950016,-33.870104 151.25396899200001,-33.870138003 151.253976,-33.870158001500002 151.25398201600001,-33.870178999 151.253986016,-33.870200995499999 151.25399100800001,-33.870221993 151.253998016,-33.870243009 151.25401100799999,-33.870271998500002 151.25402499199998,-33.8703010065 151.254042016,-33.870328997 151.25405900800001,-33.870357006 151.25407900799996,-33.870383997499999 151.2541,-33.870410008500002 151.254124,-33.870436001 151.25414899200001,-33.870459995499999 151.254175008,-33.870484008499993 151.25420201599999,-33.870508003 151.25424201600001,-33.870539009 151.25428499200001,-33.870567998499993 151.25430121599996,-33.870578321499991 151.25415385599999,-33.870812254 151.25351939199996,-33.870554993 151.2534744,-33.870542135500003 151.25270761599998,-33.87008043099999 151.252593856,-33.870066926 151.25250745599999,-33.87006485399999 151.252421408,-33.870069719500002 151.252335872,-33.870081263499998 151.252255072,-33.870099689500002 151.25217660799998,-33.870124165 151.25205312,-33.870178351500002 151.25194089600001,-33.870248263 151.25188089599999,-33.870296270499999 151.251843968,-33.870331809 151.25177788799999,-33.870407270500003 151.251737056,-33.870468061499999 151.25155056,-33.870809886 151.25144112000001,-33.870979087 151.25118553600001,-33.871257715500001 151.25101523199999,-33.871434927 151.25076592,-33.8717542925 151.25066352,-33.871873765499998 151.250538976,-33.87201453199999 151.25049900799999,-33.872059431499999 151.25035427200001,-33.872158536 151.249947136,-33.8723418525 151.24975494399999,-33.872399276499998 151.24912057599997,-33.872559486500002 151.24873609599999,-33.872672799 151.24805353599999,-33.872845496499998 151.247833568,-33.8729079525 151.24764275199999,-33.872994625 151.24746384,-33.873140257 151.24738608,-33.8732124255 151.24731984,-33.873279932 151.24730508799999,-33.873298284 151.247292832,-33.873317542499997 151.24725289599999,-33.873279395499999 151.24710704,-33.873145326 151.247090528,-33.873113062 151.24684300800001,-33.872622312499992 151.24681702399999,-33.87259632 151.24679244800001,-33.872581612499999 151.24676300799999,-33.872572325500002 151.24678902400001,-33.87252132099999 151.24683100799999,-33.872446322 151.24674300800001,-33.872171319499998 151.24669900800001,-33.872057008</coordinates></LinearRing></outerBoundaryIs></Polygon><Polygon><outerBoundaryIs><LinearRing><coordinates>151.25861001599998,-33.859664006 151.25864300800001,-33.859707999 151.258454016,-33.859747996 151.25840201599999,-33.859746997 151.25840300799999,-33.8597180075 151.258318016,-33.859688999500001 151.258244,-33.859609005499998 151.25796700800001,-33.859413997 151.257816,-33.859270992 151.25765001600001,-33.859075003 151.257544,-33.858945003500004 151.257454016,-33.858826992 151.25731699199997,-33.858708999 151.257272992,-33.858605991 151.257183008,-33.858475991500001 151.257124,-33.858306994 151.257036,-33.858086992 151.25699299199999,-33.857944005500002 151.25698,-33.857789993 151.25699801600001,-33.857660992500001 151.25707801600001,-33.857559002 151.25720300799998,-33.857484003 151.257374016,-33.857460008499999 151.25757401599998,-33.857488998 151.25775900799999,-33.85751700699999 151.257834016,-33.857596002 151.25786300799999,-33.857698991500001 151.25795299200001,-33.857828991 151.258072992,-33.858010994 151.258194016,-33.858168003499998 151.25828201600001,-33.858361994500001 151.258356,-33.858530992 151.25842899200001,-33.858750994 151.258488,-33.858906005500003 151.2585,-33.859074004 151.25854099200001,-33.859318999500005 151.25863100800001,-33.859463003500004 151.25867500800001,-33.859565993 151.25861001599998,-33.859664006</coordinates></LinearRing></outerBoundaryIs></Polygon></MultiGeometry>

	</Placemark>
</kml>