<?xml version="1.0" encoding="UTF-8"?>
<kml xmlns="http://www.opengis.net/kml/2.2">
	<Placemark>
		<Style>
			<LineStyle>
				<color>ff0000ff</color>
			</LineStyle>
			<PolyStyle>
				<fill>1</fill>
				<color>330000cc</color>
			</PolyStyle>
		</Style>
			<ExtendedData><SchemaData>
		<SimpleData name="STATE_2006">1</SimpleData>
		<SimpleData name="POA_2006">2623</SimpleData>
	</SchemaData></ExtendedData>
      <Polygon><outerBoundaryIs><LinearRing><coordinates>149.44782096,-35.598899566500002 149.44364726399999,-35.59828035299999 149.44402153600001,-35.597302387500001 149.444244736,-35.596678956 149.44426307200001,-35.596566272499992 149.444282528,-35.596449352500002 149.444296576,-35.596224448 149.44429907200001,-35.596186023500003 149.44426524799999,-35.595932943500003 149.444056448,-35.595472238 149.44402873600001,-35.595308605500001 149.44403881599996,-35.595087937500004 149.44374611200001,-35.595020616 149.44358304,-35.59492844899999 149.4434448,-35.594821075 149.44338576000001,-35.594546498 149.44334076799998,-35.594175147500003 149.44338252799997,-35.5938848085 149.44345235199998,-35.593527777 149.44345561599999,-35.593511034500004 149.443546336,-35.593164548 149.44356361600001,-35.592612748500002 149.443674496,-35.592376133500004 149.443766272,-35.592057175 149.443788256,-35.591670728499999 149.44388185599999,-35.591317027 149.44372921600001,-35.591396133 149.443599616,-35.591578025 149.44336812799997,-35.591748114 149.44324393599996,-35.591824445 149.44302,-35.591961955500004 149.44237235200001,-35.592319801 149.44201561599999,-35.592382627 149.441815456,-35.592276326 149.44175891199998,-35.592246448499999 149.44142160000001,-35.592023967500005 149.44097411199999,-35.591702585500002 149.44016988800001,-35.591113712 149.439716992,-35.590815455 149.43952,-35.590685622 149.43908844800001,-35.590366256500005 149.438592,-35.589149456 149.43866867199998,-35.588870457500001 149.43893939200001,-35.587707658500001 149.43897683200001,-35.587507044500001 149.43912697600001,-35.586699297500004 149.43917052800001,-35.586499775 149.43925475200001,-35.586327873 149.43938905600001,-35.586179373500002 149.439515392,-35.586087669 149.439702592,-35.58604338 149.43980233600001,-35.586036276 149.43986099200001,-35.586032039500004 149.44010147200001,-35.586108185500002 149.440414336,-35.5862800875 149.44074841599996,-35.586500219 149.44118147200001,-35.586710194 149.441981408,-35.586912695 149.44226832000001,-35.586964976 149.442759008,-35.587054349500001 149.44294291200001,-35.5870876125 149.442754912,-35.586636619499998 149.44245491199996,-35.586420613500003 149.44215792,-35.586306616500003 149.44158892799999,-35.586420613500003 149.441279936,-35.586384612499998 149.44057993600001,-35.585799624 149.44050092800001,-35.585633623500001 149.44047292799999,-35.5854416305 149.440984896,-35.585143614 149.44218790400001,-35.584867612499998 149.44263788800001,-35.584708623499999 149.44301888,-35.584461611500004 149.44317286399999,-35.58421861399999 149.443112864,-35.5839316235 149.44310688,-35.583722610500004 149.44322188799998,-35.583420616499993 149.443505856,-35.58310262 149.44356083199997,-35.582963611 149.44355683199998,-35.58284362 149.443516832,-35.58274261 149.44322883199996,-35.582418619500004 149.44306784,-35.581954621 149.44302384,-35.580996617 149.442933856,-35.580428611499997 149.442977824,-35.578977619500002 149.44314982399999,-35.578613613500004 149.443651776,-35.578226612 149.44394179199998,-35.578118609 149.44418579200001,-35.578173609499999 149.44427577600001,-35.5782436135 149.444336768,-35.5783206105 149.444394784,-35.578510624 149.444425792,-35.578839609500001 149.44438780799999,-35.579500614499999 149.44461276800001,-35.579669612 149.445123776,-35.5795925965 149.44600278399997,-35.579545606499998 149.44618579199999,-35.579511603500002 149.44656976,-35.579353595 149.44682176000001,-35.579198602 149.447035744,-35.578996600499998 149.44714073599999,-35.578832598 149.447172736,-35.5786826 149.44716774400001,-35.578502595 149.44704976,-35.578265591499999 149.44670675200001,-35.577852597499998 149.44618176,-35.577455606 149.44614176,-35.577354596 149.44634672000001,-35.576840592 149.44683872,-35.576141606500002 149.44690771200001,-35.5760025975 149.44697270399999,-35.575731591 149.446980704,-35.5754915905 149.44681772800001,-35.574954591 149.44661072,-35.574677590500002 149.44639068800001,-35.574202603 149.44627667200001,-35.574054603 149.44611168,-35.573938608 149.44583072,-35.573866624499999 149.44574371199997,-35.573897612 149.44550771199999,-35.574100612500004 149.44542371200001,-35.574234626499994 149.44533872,-35.575075618 149.44514576,-35.575486614 149.44500275199999,-35.575609620499996 149.444786752,-35.575733626 149.44435174399999,-35.575904621500001 149.44409574400001,-35.575927617 149.44387174400001,-35.575812621 149.44383273599999,-35.575722618499995 149.44385776,-35.5756136165 149.44395376,-35.575360610499999 149.443942752,-35.575001618 149.44397776,-35.574940623499998 149.44400675200001,-35.5742026215 149.44412976000001,-35.573888621 149.44420771200001,-35.573587626 149.444277728,-35.572746616 149.44432272,-35.572535623500002 149.44438771200001,-35.572351622500001 149.456732544,-35.574146585 149.45641558400001,-35.575565572 149.45637360000001,-35.575753587499996 149.456306592,-35.576057579500002 149.45625958400001,-35.576271587499996 149.45600163200001,-35.577439585 149.45552764799999,-35.579687575500003 149.45507769599999,-35.581666576 149.45503568000001,-35.581850577 149.45460668800001,-35.583734561500002 149.45456371200001,-35.583922558499999 149.45411971199999,-35.585870553 149.45407776,-35.586054554 149.45380873600001,-35.587238554 149.45371673599999,-35.587640559 149.45368176,-35.587794553 149.45367475199998,-35.58782456 149.45357177599999,-35.588277569500001 149.45354179200001,-35.588456557 149.45440675200001,-35.588555569 149.454612736,-35.588758569500001 149.45427276800001,-35.590254553500003 149.45384380799999,-35.59214357 149.453481856,-35.593735569 149.45342384,-35.593990554500003 149.45272988799999,-35.597043535499992 149.45261740800001,-35.597535487500004 149.45266115199996,-35.597678751499998 149.45269792,-35.597817538500003 149.45278787199999,-35.598114093500001 149.45291353600001,-35.59846220799999 149.45316012800001,-35.598757764 149.45349024000001,-35.599014081500002 149.453661952,-35.59911074399999 149.453856,-35.599181932 149.45408243200001,-35.599308842 149.45429808,-35.599534912 149.45430492799997,-35.599542478499998 149.45458681599999,-35.599748217 149.454673216,-35.599790249 149.45475420799997,-35.599848487 149.4548928,-35.599956212500004 149.448115968,-35.598943559499993 149.44782096,-35.598899566500002</coordinates></LinearRing></outerBoundaryIs></Polygon>

	</Placemark>
</kml>