<?xml version="1.0" encoding="UTF-8"?>
<kml xmlns="http://www.opengis.net/kml/2.2">
	<Placemark>
		<Style>
			<LineStyle>
				<color>ff0000ff</color>
			</LineStyle>
			<PolyStyle>
				<fill>1</fill>
				<color>330000cc</color>
			</PolyStyle>
		</Style>
			<ExtendedData><SchemaData>
		<SimpleData name="STATE_2006">1</SimpleData>
		<SimpleData name="POA_2006">2715</SimpleData>
	</SchemaData></ExtendedData>
      <Polygon><outerBoundaryIs><LinearRing><coordinates>143.56889225599997,-34.634066439500003 143.57076528,-34.63546942399999 143.57042128000001,-34.635780427500002 143.57338825599999,-34.637933402 143.574880576,-34.639035706 143.573579392,-34.6474204425 143.573533408,-34.64769045 143.57338595199997,-34.648568719 143.57310041599996,-34.648543448 143.57279443199997,-34.64865245 143.57264243200001,-34.648913466499998 143.57264243200001,-34.649436461500002 143.572794464,-34.649981453 143.57303446399999,-34.650590454499998 143.573143456,-34.6511794575 143.57310044799999,-34.651810455499998 143.57299148800001,-34.652202452 143.57272950399999,-34.652486464 143.57220649600001,-34.652725484 143.571400512,-34.65303047499999 143.570420512,-34.653226501 143.56985356800001,-34.653248497500002 143.569396544,-34.653030493500005 143.569003552,-34.652660493500001 143.56889456,-34.65231149099999 143.56889452799999,-34.651658496499998 143.568807488,-34.650024502499996 143.568459488,-34.6488924875 143.56813248,-34.648042505 143.56752246399998,-34.647062504499999 143.56710848,-34.646800489 143.56641148799997,-34.646582503499999 143.565735488,-34.646517513 143.56568243199999,-34.646520861500001 143.56501648,-34.646561506 143.56384051200001,-34.646713539 143.56305552000001,-34.646800526 143.56262054399997,-34.646713539 143.56235856000001,-34.646474537499998 143.562358528,-34.646103538499993 143.56248953599999,-34.645711542 143.56275052800001,-34.645275534 143.56329548799997,-34.644709526500002 143.56392748799999,-34.64418651299999 143.564384448,-34.643773519 143.56458044799999,-34.643468509500003 143.56453747200001,-34.642988508500004 143.56427545599999,-34.642640523499999 143.56392745599999,-34.642422519499995 143.56346947200001,-34.642270523500002 143.56285948799999,-34.642291521 143.56183548800001,-34.642509525 143.56107353600001,-34.642596530500001 143.56070252800001,-34.64253154 143.56037552000001,-34.642378545 143.560042528,-34.642109555 143.559918528,-34.642008545 143.55893753599997,-34.641333554 143.55865452800001,-34.641224552 143.55821852799997,-34.641180559 143.55745654399999,-34.641202574 143.55678054399999,-34.641289579500004 143.55634556800001,-34.641442574500005 143.55558259200001,-34.641768581500003 143.5550816,-34.641921595 143.55477657599999,-34.64189958 143.5544936,-34.6416815945 143.5544496,-34.641333591 143.55460259200001,-34.640745587 143.55495056000001,-34.640048581 143.55505955199999,-34.6395695975 143.55492854400001,-34.639155567499998 143.55451456,-34.638763589500002 143.55322956800001,-34.63793558499999 143.55235859199999,-34.63741259 143.5516176,-34.636933606500001 143.55100758399999,-34.636562607500004 143.55022259200001,-34.636214604 143.54978659199998,-34.636127598500003 143.549394592,-34.636105602 143.54889363199996,-34.63625763499999 143.54850163200001,-34.636453624 143.54828361599999,-34.636846619499998 143.54826163199999,-34.637281628499998 143.548370656,-34.637717618 143.54845865600001,-34.638349633499999 143.54882864000001,-34.639874644 143.549002656,-34.640418636500002 143.54930768,-34.64094165 143.54954764799999,-34.641115642500004 143.55033164799997,-34.641398618499991 143.55105065599997,-34.641703628 143.55142166399997,-34.641921632 143.55150864,-34.642226623 143.551333664,-34.642465624499998 143.550985664,-34.642640634500005 143.550680672,-34.642596623 143.55026668799999,-34.642531632500003 143.549046688,-34.642052649 143.548349696,-34.641877639 143.547629728,-34.641703665 143.546627712,-34.641442667 143.54540771200001,-34.641072685499999 143.54333776,-34.640222684500003 143.54233574399998,-34.639656695500001 143.54172579199999,-34.639351704500001 143.541812736,-34.638987698499996 143.54208176,-34.637409685500003 143.54216672000001,-34.636772675 143.542307712,-34.636030677 143.54303401600001,-34.630975996 143.54197465600001,-34.630912670500003 143.54196166400001,-34.63090366099999 143.536252768,-34.630537694 143.53622076799999,-34.630535696 143.5357048,-34.630512700499999 143.52190812800001,-34.629652802 143.52189113599999,-34.629650804 143.50812748800001,-34.628809905 143.50800147199999,-34.628802912 143.50128860800001,-34.628339949500003 143.49648272,-34.628012980500003 143.49195376,-34.627754017500003 143.48185996800001,-34.627152064500002 143.47980998400001,-34.627032092 143.47825904000001,-34.62694210799999 143.46799923200001,-34.62631518 143.457268,-34.625674007 143.44076169600001,-34.624653362 143.44063971200001,-34.62464537 143.43162486400001,-34.624070427 143.42010608,-34.623250488499998 143.41794310399996,-34.623108519500001 143.416713152,-34.623028507 143.41028924799997,-34.622574572499992 143.40552732800001,-34.622219613 143.400487424,-34.621937617500002 143.39338457599999,-34.621426684500001 143.38100777599999,-34.620610779 143.369766016,-34.619854850499998 143.36065817599996,-34.619226905 143.35111833600001,-34.618607969 143.35100732800001,-34.618600976 143.340289536,-34.617880049500002 143.33947552000001,-34.617818074500001 143.338569568,-34.617734066 143.33724256,-34.617601069500004 143.337002592,-34.617573079 143.33676259200001,-34.617540093499997 143.3364536,-34.61748809 143.33614457600001,-34.6174290935 143.33583657599999,-34.617363085500003 143.33553158399999,-34.617290084499992 143.33522758399999,-34.617211089500003 143.334327616,-34.617015100499998 143.334132608,-34.6169721065 143.333965632,-34.616936105500002 143.32426272000001,-34.614826199 143.31155683200001,-34.612006336500002 143.29970796800001,-34.609396430499999 143.29435801599999,-34.60820849 143.28721107199999,-34.606643593499996 143.27855712,-34.604714672500002 143.2736912,-34.603654733500001 143.266600224,-34.602100807500001 143.25772630399999,-34.600122917 143.25509033599999,-34.5995399635 143.25250233599999,-34.598967980499999 143.24472137599997,-34.597202081499994 143.2395384,-34.596047145 143.23112246400001,-34.594081242499996 143.22267648,-34.592198331 143.22247548799999,-34.592153339 143.21425052800001,-34.59027344299999 143.207285536,-34.588727509 143.200363616,-34.587158579499992 143.19402201599999,-34.585672992500001 143.188715712,-34.584503663 143.18407478399999,-34.58338467199999 143.1808328,-34.582645689499998 143.18075881600001,-34.582628688 143.17399084799999,-34.580944725500004 143.17024691200001,-34.580060777 143.16820390399999,-34.579584772 143.168064896,-34.579552767 143.15368704,-34.576027869500003 143.14882512,-34.574882886 143.14584416,-34.574013904 143.14333222399998,-34.573216905500004 143.14285420799999,-34.5730438935 143.14226124800001,-34.57285092 143.14199024,-34.572767910499991 143.14171625599997,-34.572690913500004 143.14144224,-34.572620928 143.14116524799996,-34.572559915 143.140894272,-34.572512925 143.14062028800001,-34.572473927 143.14034627199999,-34.572442921 143.13979628800001,-34.572389918500001 143.13912131199999,-34.572340930500005 143.13860032,-34.572288945499999 143.13824736000001,-34.572244934 143.13789635200001,-34.572194928500004 143.13754633600001,-34.572136931 143.13719734399999,-34.572073938500004 143.13684838399999,-34.572000956 143.1353464,-34.571658965 143.13443740799997,-34.571403961 143.1342144,-34.571341949 143.131715488,-34.570746970500004 143.132772,-34.563428999500005 143.13390105599998,-34.55583188199999 143.133912,-34.555780008 143.133918048,-34.555726876 143.13392198400001,-34.555621000500004 143.133918048,-34.555567887 143.13390307200001,-34.555489891 143.13387907200001,-34.555411876500003 143.13384707200001,-34.555335878500003 143.133769024,-34.555188896 143.13372003200001,-34.5551109 143.13366403200001,-34.555034902 143.13360304,-34.55496190099999 143.13353801599999,-34.554894006 143.133468032,-34.554831901500002 143.12973699200001,-34.550246972499998 143.12420294399999,-34.54332307 143.11817779200001,-34.535800137500004 143.11321801599999,-34.529670995 143.10752259199998,-34.522608268500001 143.10135052800001,-34.514888292500004 143.09654454400001,-34.508897308 143.093320576,-34.504961303500004 143.09296659199998,-34.50452931 143.08819257600001,-34.498490318 143.07692336,-34.484662400499992 143.06251430399996,-34.466921474 143.04084,-34.439183591500004 143.02193705600001,-34.41794265 143.01137110400001,-34.405703697500002 143.01132310400001,-34.405652693 143.00886912000001,-34.402998701500003 143.006186144,-34.4003647085 143.00605312,-34.400224719 143.00203017600001,-34.394485723 143.00091699199999,-34.392580001 143.00031312,-34.39154574 142.994296096,-34.3834477535 142.99044102400001,-34.378259761500004 142.98575696,-34.371988798 142.982892,-34.368154007 142.98287100799999,-34.368126997 142.98302691200001,-34.368019808 142.98328889599998,-34.367765803 142.98363590400001,-34.367325799 142.98378886399999,-34.367113807500004 142.98413987199999,-34.366328797 142.987245696,-34.360574760499993 142.99493523199999,-34.345931622 142.995850176,-34.344449605500003 143.00097795199997,-34.333276493500001 143.00155801599996,-34.331998994500005 143.001796896,-34.331473465 143.00365782399999,-34.328322434 143.00362076799999,-34.321941414 143.00359667199999,-34.314198387 143.00358464000001,-34.313316362500004 143.00357264,-34.3127553685 143.00345152,-34.304521333 143.003414432,-34.298170301500001 143.00359539199999,-34.297029295500003 143.004211328,-34.292861264 143.005164288,-34.287112241 143.00673212800001,-34.277495164 143.00715408,-34.274410141 143.007118048,-34.273438132500004 143.00704604800001,-34.273007138 143.006949056,-34.272557144 143.00663504,-34.271715135 143.00632201600001,-34.270453139 143.00598403199999,-34.269912143500001 143.00594803199996,-34.269862138 143.005742016,-34.269521146 143.005236032,-34.268991139500002 143.00493401599999,-34.268700134500001 143.00462003199999,-34.2684701425 143.00416201600001,-34.268219134500001 143.00383603200001,-34.268059146500001 143.00364300800001,-34.2679591355 143.00261705599999,-34.267518151 143.00231606400001,-34.267408168499998 143.000192064,-34.266314171 142.98917212800001,-34.2603972605 142.98902406400001,-34.256320230500002 142.988707968,-34.247609209499998 142.98974288,-34.244503170500003 142.99106784,-34.240524153500004 142.98302864,-34.220020141 142.97656361599999,-34.210864158 142.976528608,-34.210652166500005 142.9765496,-34.21049216 142.976619008,-34.209971995499998 142.977646464,-34.201655098499998 142.97773344000001,-34.200951099500003 142.97864233600001,-34.192355056 142.980004192,-34.182943995 142.98250297600001,-34.167072900499996 142.98533468799997,-34.148053772 142.98888633600001,-34.124987620500001 142.99109612800001,-34.110233537500001 142.99238099199999,-34.101659490499998 142.992322976,-34.101218487499999 142.99170697599999,-34.098860477500004 142.99161696,-34.098697474 142.99068198399999,-34.097716493 142.99019996800001,-34.09731249 142.990025984,-34.097167487 142.98972796800001,-34.096937495 142.98927996800001,-34.096523502 142.98797996799999,-34.09538849 142.98769296,-34.094963489500003 142.98746198399999,-34.094726504500002 142.97480998399999,-34.083173569 142.96311897599998,-34.072290648 142.949533984,-34.059895722 142.942967968,-34.053851772 142.94115001599999,-34.052179002 142.93947779199999,-34.050639598499998 142.93802496000001,-34.049301789499999 142.93778291199996,-34.049044898499993 142.93621836799997,-34.0476215455 142.93438848,-34.045957082 142.932792608,-34.044505109499994 142.93096272,-34.042840831 142.929133216,-34.0411763675 142.92730368,-34.039511996499996 142.92547417599999,-34.037847533 142.92364499199999,-34.036183088 142.92192131199999,-34.034614824500004 142.92181584,-34.0345182545 142.91999424,-34.032848037500003 142.91817264,-34.031177820499998 142.91635068799999,-34.029507603500001 142.91452908799999,-34.027837294 142.91270784,-34.026166984500001 142.91088624,-34.024496675 142.910595712,-34.024230367500003 142.90676300800001,-34.020715978 142.90494099199998,-34.019046001500001 142.90312,-34.0173750075 142.901298016,-34.015704994 142.900959968,-34.015395008 142.89986198400001,-34.014065006 142.89972,-34.013874992499993 142.89944396800001,-34.013506028500004 142.89897100799999,-34.0129380045 142.89869798399999,-34.0125790305 142.898356,-34.0120530015 142.897568992,-34.010843009 142.897112,-34.010050006500002 142.89594,-34.008015006500003 142.89535513600001,-34.006999412 142.89418368,-34.004965133500001 142.89301225599999,-34.002930966 142.89245136,-34.001957422 142.89236028799999,-34.001799395 142.89118883200001,-33.999765116500001 142.8904512,-33.998484232 142.89028236799999,-33.998196871499999 142.890031072,-33.997725713500003 142.88993568000001,-33.997546448500003 142.889692672,-33.997117137499998 142.889154496,-33.996141188500005 142.88890499199999,-33.995673804500001 142.88881283200001,-33.995501107 142.88869945599998,-33.995294554499999 142.88861593600001,-33.995142262500003 142.887797632,-33.993653031 142.88754636799996,-33.993213933500002 142.88747904,-33.993094497500003 142.887256192,-33.992699485500005 142.88662585599997,-33.991485386 142.88638428799999,-33.991030989 142.88630256,-33.990877716500002 142.88589504000001,-33.990156087 142.88557536,-33.989609153 142.88537161599999,-33.989243038 142.885233728,-33.9889887 142.88520672000001,-33.988941266 142.88514803199999,-33.988833189 142.885089728,-33.988723114 142.88479417600001,-33.988197954500002 142.884769312,-33.9881542205 142.88451731200001,-33.987699176 142.88420736,-33.987103013500004 142.88367744000001,-33.986142623 142.88315507199999,-33.985196459 142.88276880000001,-33.984485726 142.882549216,-33.984091435499998 142.882354816,-33.983741970499999 142.881949088,-33.982990463500002 142.881687712,-33.982518954 142.88141952000001,-33.982040969499998 142.88120928000001,-33.981653524 142.88110560000001,-33.9814629 142.88057315200001,-33.980497477500002 142.88037049600001,-33.980099394499995 142.880165632,-33.979764507500001 142.88008428800001,-33.979601781500001 142.879999328,-33.979432414 142.87980169599999,-33.9790598055 142.87956083200001,-33.978644998500002 142.879378336,-33.978306874 142.87908131200001,-33.97778325 142.87895424000001,-33.977551685500003 142.87884265599996,-33.977347649 142.87860217599999,-33.976922482 142.87832208,-33.976395713 142.87804848,-33.975916026500002 142.87782816000001,-33.975500035499998 142.87775436800001,-33.975360804499999 142.87713875200001,-33.974218799500001 142.876822336,-33.973663688500004 142.87670496000001,-33.973447146 142.87628483200001,-33.972671256 142.87600009599998,-33.972166354 142.87576825599999,-33.971735785 142.875585728,-33.971392795 142.8755544,-33.971334298 142.87539203200001,-33.971059443500003 142.87514652799999,-33.970622677 142.874745856,-33.969872705500002 142.87445568000001,-33.9693426065 142.874333632,-33.969119663 142.87407587199999,-33.968623493 142.87376051199999,-33.968044887 142.873529056,-33.967645287 142.87333427199997,-33.967289254499995 142.87316147199996,-33.96697407 142.87288032000001,-33.966444415 142.872750016,-33.966195127500001 142.87247136,-33.965734403500001 142.87236912,-33.965517509500003 142.87221504,-33.965241748499999 142.87221216,-33.965236809 142.87208905599999,-33.965022967499998 142.87189427199999,-33.964654854500004 142.87167360000001,-33.964269573499998 142.87150873600001,-33.963951429 142.87125312,-33.963472797 142.87109580800001,-33.963181385 142.87096908800001,-33.962946564500001 142.87065481600001,-33.962403053 142.87046832,-33.962059711500004 142.87014611199999,-33.96147857099999 142.87000176,-33.961232336 142.86995171199999,-33.961136765 142.86989628800001,-33.961031648 142.86969433600001,-33.96067038 142.86958921600001,-33.960487137499996 142.86932748800001,-33.959990875 142.86902796800001,-33.959432619 142.868837152,-33.959080712 142.868718016,-33.958861191 142.86835296000001,-33.958200519 142.86799475199999,-33.957537756499995 142.86773411199999,-33.957072093 142.867607392,-33.956845745500004 142.867331648,-33.956318791500003 142.86697993600001,-33.955684204500002 142.86660624000001,-33.955001018 142.86649571199999,-33.954788527 142.866326528,-33.954463167500002 142.86607705599999,-33.9540373715 142.86576636800001,-33.953475323 142.86553488000001,-33.953021999 142.865373248,-33.952735804 142.86518243200001,-33.952397938499992 142.864916768,-33.951888633499998 142.86454777599999,-33.951229016 142.86425328000001,-33.950681915499999 142.864122976,-33.950440268500003 142.863722016,-33.949714994499999 142.863476416,-33.949258192500004 142.863238432,-33.948826920500004 142.86312755200001,-33.948630006500004 142.86300012800001,-33.94840373299999 142.86282336,-33.948038617 142.86265849599999,-33.947722896 142.862488928,-33.947451353 142.86220595200001,-33.946898314 142.86201804800001,-33.946573232 142.861977728,-33.946503487 142.86172499200001,-33.946057618499999 142.861460416,-33.945562447499995 142.861280416,-33.945212335 142.861124512,-33.944947026500003 142.86097008,-33.944650379 142.86089305600001,-33.944521508 142.86070729599999,-33.944210097500005 142.860139936,-33.943134415 142.85990377600001,-33.942692616500004 142.85977884799999,-33.942465455 142.85969676799999,-33.942316049 142.85919996800001,-33.941390845500003 142.85898396799999,-33.941003307500004 142.858746368,-33.940591830500004 142.85864627199999,-33.940416413500003 142.85854153599999,-33.940232727 142.85832841600001,-33.939808022500003 142.85830464,-33.939765176500003 142.85802816,-33.939266139 142.857683296,-33.938627038 142.857188288,-33.937719391 142.85718396799999,-33.937711380499998 142.85703312,-33.937440115 142.85690208,-33.937210715 142.856767072,-33.936950697500002 142.85657484800001,-33.936625893 142.85620764800001,-33.935956914500004 142.856047072,-33.935670442 142.85604419200001,-33.935665132499992 142.85557404799997,-33.934772877500002 142.85509379199999,-33.933910148500004 142.85494224000001,-33.933604676499996 142.85491705600001,-33.93355419 142.854789248,-33.933312006500003 142.85451708799999,-33.932838776499999 142.85436588799999,-33.9326214385 142.85422656,-33.932448907499996 142.85410057599998,-33.932266294 142.853963776,-33.932076299 142.85368115199998,-33.931728813500001 142.85360665600001,-33.9316491525 142.853552992,-33.931591654500004 142.85336688000001,-33.931376721500001 142.853243392,-33.931256675 142.85313072,-33.931147321499992 142.85284272000001,-33.930894149 142.85265481600001,-33.930714236500002 142.852411456,-33.930495085499999 142.85190025599999,-33.930018081500002 142.85131955200001,-33.929473682 142.85113955200001,-33.929314748499998 142.85081340799999,-33.929026833 142.850364128,-33.928593489 142.85014236800001,-33.928393763 142.84932947199999,-33.927637594 142.849465216,-33.927568644499999 142.84979929599999,-33.927391359 142.8500232,-33.927390711500003 142.85029932799998,-33.927413577499998 142.85119177600001,-33.927498085499998 142.851998528,-33.927590511499993 142.85248848000001,-33.927635078 142.85308464,-33.927689431 142.85317824000001,-33.92770005 142.85436409600001,-33.927833065 142.855696448,-33.9279736465 142.85838275200001,-33.9282492225 142.85895155200001,-33.928307553 142.85984617599996,-33.928409617500002 142.86106656000001,-33.928541282 142.86202704,-33.928644863500004 142.863229088,-33.928761413499998 142.86375289599999,-33.928818116 142.86439152,-33.928887158 142.865464672,-33.928998306 142.866438112,-33.9291010735 142.86668435199996,-33.929127084499996 142.86762649600001,-33.929231757499998 142.86865392000001,-33.929335709 142.86912336,-33.929384937500004 142.86975804799999,-33.929451352500003 142.87039308799999,-33.929527683499998 142.870847392,-33.929571417499993 142.871521696,-33.929651245 142.871806816,-33.929679420500001 142.87223987199999,-33.929721989 142.87295376,-33.929802001500001 142.87335696,-33.929838187500003 142.873859168,-33.92988327199999 142.87491865600001,-33.929992718 142.87604329600001,-33.930112505499999 142.87621932799999,-33.930131227499999 142.87792716800001,-33.930319409500001 142.87863059200001,-33.930398256499991 142.878727072,-33.93040652599999 142.87941180799999,-33.930465578 142.880037472,-33.930537117500002 142.88055408,-33.930592821 142.88097168,-33.930634779 142.88139216,-33.930685265500003 142.88141232000001,-33.930687245 142.881888608,-33.930733051 142.88246281599999,-33.930798208 142.88389667199999,-33.930939511 142.88409865599999,-33.930962728499999 142.88460768,-33.931021410500001 142.88538528000001,-33.931091340500004 142.88631587199998,-33.931178734500001 142.886786048,-33.931231737 142.88693363199999,-33.931248479499992 142.88760288,-33.931321388 142.88820515200001,-33.931377535500005 142.88905404799999,-33.931461784500001 142.88947235200001,-33.931507239 142.889912288,-33.931554932 142.890617152,-33.931625047 142.89128748799999,-33.931698029499998 142.8921576,-33.931790992 142.89308496000001,-33.931890096499998 142.89399900800001,-33.931975233500005 142.894842496,-33.932076114 142.895002336,-33.932095298500002 142.89602867199997,-33.932201858500001 142.89698339200001,-33.932295727499998 142.89752736,-33.932362327500002 142.89762924799999,-33.932374833499999 142.89916716799999,-33.932529623 142.90021331200001,-33.9326412335 142.90031808000001,-33.932652389 142.90220592,-33.932859293 142.90289820800001,-33.932929056500001 142.903076416,-33.932946964500005 142.90478496,-33.93312965199999 142.90558380799999,-33.933210201 142.90574867199996,-33.933226851 142.90676675200001,-33.933317131 142.907882048,-33.933431424 142.908436096,-33.93349613699999 142.908645952,-33.933520705 142.90965360000001,-33.933625026500003 142.910497088,-33.933708813 142.91112131200001,-33.933778114 142.91132329600001,-33.933800517500003 142.91208144000001,-33.933872427 142.913472128,-33.934014359 142.91380908799999,-33.934046216 142.91433107200001,-33.934095722 142.91505289599999,-33.934174735499994 142.91593740799999,-33.934258355499999 142.91616636800001,-33.934282461 142.91694540799998,-33.934364545500003 142.918040512,-33.934477321499998 142.91809308799998,-33.934482723500004 142.91904528000001,-33.934592077 142.92017964799999,-33.934708257 142.92072505600001,-33.93476631 142.92093385599998,-33.934788547 142.92178201600001,-33.934880973 142.92259164800001,-33.9349576555 142.92341315199999,-33.935031174500004 142.92353843199999,-33.935042348499998 142.92452016,-33.935148446 142.925257792,-33.935216674 142.92594540799999,-33.935288676 142.92609984000001,-33.935304327 142.92797472000001,-33.935494673500003 142.928789056,-33.935561551 142.92888409599996,-33.935569376499998 142.92982691200001,-33.935650739499998 142.93064339200001,-33.93571824599999 142.93082793599999,-33.935731621500004 142.939509792,-33.881381026500001 142.9395128,-33.881362027 142.94475635200001,-33.848403814500003 142.99241379200001,-33.853568404 142.999512192,-33.810677116 143.001284032,-33.7999900545 143.00432480000001,-33.781649931499999 143.00480576000001,-33.778490927 143.01537574400001,-33.709100516500001 143.01865756800001,-33.687539303 143.02640896,-33.636569860500003 143.03951776,-33.550259202 143.200829024,-33.5675455095 143.210820928,-33.568609407499999 143.22102892800001,-33.498483881 143.22233584,-33.489505812499999 143.226597376,-33.460229618 143.232758784,-33.419772356500005 143.24326473599999,-33.350710931500004 143.24344976,-33.35073093 143.29490313599999,-33.356316413 143.30396636799998,-33.297962029499999 143.30818294400001,-33.270793928499998 143.35567331199999,-33.275941461 143.36724313600001,-33.201280067500001 143.36909011199998,-33.201490061 143.378301088,-33.141269767499999 143.43419536,-33.14725424 143.43529936,-33.147372233 143.472124576,-33.151296342 143.47218384000001,-33.150944601500001 143.47913939200001,-33.151724099 143.482421888,-33.152066367499991 143.54928432,-33.159205166 143.54909244799998,-33.160409460499999 143.54873568,-33.162646499 143.54837856,-33.164883537499996 143.54802179199999,-33.167120576 143.547919936,-33.167763802499998 143.54756531199999,-33.17000102599999 143.54721036800001,-33.172238342 143.546855776,-33.174475565500003 143.54673875200001,-33.175213105 143.54649936000001,-33.176712604 143.54614188799997,-33.178949642500001 143.545784032,-33.181186496 143.54542656000001,-33.183423442 143.54506908799999,-33.185660406499998 143.544711616,-33.187897352500002 143.54437248,-33.190058522500003 143.54428201600001,-33.190636 143.544015008,-33.192295468499999 143.54365536,-33.194532248 143.54350019200001,-33.195497134 143.54329897599999,-33.1967692865 143.54294508800001,-33.199006584 143.5425912,-33.201243992499997 143.54252496000001,-33.201660871500003 143.54222076799999,-33.203479403 143.54184672,-33.205714388 143.54182368,-33.205851547 143.541713536,-33.206668285 143.54170380799997,-33.206998491500002 143.54177795199999,-33.207360388499993 143.541945728,-33.207942602 143.54201376,-33.208152577 143.54224956799996,-33.208614540500001 143.54250227200001,-33.2088420535 143.542739168,-33.2090116245 143.54385408,-33.209572581499998 143.543947328,-33.209614983500003 143.545462912,-33.210302665500002 143.54632153599999,-33.210668614 143.54871660800001,-33.211688944499997 143.55111168,-33.212709275 143.553506752,-33.213729513 143.55377100800001,-33.213842011499999 143.555911552,-33.214733452499992 143.55797148799999,-33.215591427 143.55831888,-33.215733359 143.55929449600001,-33.216132237499998 143.559601216,-33.216265715 143.5619736,-33.21732258299999 143.562644992,-33.217621561500003 143.56679904000001,-33.2194903205 143.56689264,-33.21953559 143.568932,-33.22049599899999 143.57127024,-33.221606128499999 143.57273939199999,-33.222303264 143.57360700800001,-33.222718256 143.574616096,-33.223200754499999 143.57595456000001,-33.223813918499999 143.57619360000001,-33.223923272 143.576430112,-33.224021636499998 143.57676636799999,-33.224128474 143.57714256,-33.224228818 143.57754396799999,-33.224298563 143.57830931199999,-33.224376781 143.578521728,-33.224400091 143.58118464,-33.224692409500001 143.58280499200001,-33.224870342500004 143.58384720000001,-33.224985986 143.58650976000001,-33.225281375500003 143.58670992,-33.225303594 143.588072512,-33.225456422500002 143.590734368,-33.225754864499997 143.59096441599999,-33.225780598 143.59339728,-33.226046184 143.59441321599996,-33.226157073 143.59605984000001,-33.226339316500002 143.59872240000001,-33.226633984499998 143.60138496,-33.226928634 143.60146524800001,-33.226937458500004 143.602602496,-33.227046719500002 143.60299740799999,-33.227118999 143.60346288,-33.227223931 143.60401513599996,-33.227354522499994 143.604057248,-33.227364512500003 143.604716416,-33.227568364 143.604849952,-33.227597168500004 143.605411936,-33.227719823500003 143.60587632,-33.227792195500001 143.60703481599998,-33.227931056500005 143.60749308800001,-33.227983171 143.60931360000001,-33.228189908499999 143.61015529599999,-33.228279985 143.612819296,-33.228564848 143.612931968,-33.228576817499999 143.615481856,-33.228858961 143.61786288,-33.229122308500003 143.61814368,-33.229158476 143.61878412799999,-33.229241189500001 143.61915312,-33.229385545 143.619582976,-33.229590118 143.62003296,-33.2298480635 143.620317376,-33.230065494 143.62044947199999,-33.230199878 143.62059347199997,-33.230346120500002 143.62080588799998,-33.230630613499997 143.621074816,-33.230999244499998 143.62181497599997,-33.23213964 143.62238880000001,-33.233024513499998 143.62309548799999,-33.234123598499998 143.62409411199999,-33.235677099 143.624379232,-33.2361059475 143.62568928,-33.238076216 143.62613315199999,-33.238743659 143.62673075199999,-33.239679204 143.626912576,-33.2399735945 143.6269176,-33.239981438500003 143.62706304,-33.240345111499998 143.62714297599999,-33.240628624 143.62723907200001,-33.241035513 143.627295616,-33.241356451 143.627317568,-33.241701235499995 143.62730819199999,-33.242189765 143.627304256,-33.242385698500001 143.627250976,-33.243669728 143.627244832,-33.2439916465 143.627221792,-33.24525003499999 143.62718003200001,-33.247506776 143.62717859200001,-33.247592819499999 143.627093632,-33.250650037 143.62703641600001,-33.252390091500004 143.627020192,-33.2529062415 143.62694963199999,-33.255162446 143.62687872000001,-33.257418669 143.62683011199999,-33.2589730575 143.6268168,-33.259674966 143.6268024,-33.260460568500001 143.62678332799999,-33.260703473500001 143.62673868799999,-33.260948469 143.62665011199999,-33.261308904499998 143.62662313600001,-33.261423475 143.62658675199998,-33.261539044500005 143.62647011199999,-33.261838282 143.625729248,-33.263687061 143.62563168,-33.263930521 143.625453472,-33.264404824 143.62490521599997,-33.265835281 143.62476444800001,-33.266202561500002 143.624058112,-33.2679771 143.62359948799997,-33.269129002500001 143.6232096,-33.270118567499999 143.622432,-33.272093072499999 143.62241724799998,-33.272131145499998 143.62196832,-33.273303398 143.62158060799996,-33.274275832 143.62093475200001,-33.275896191500003 143.62073065600001,-33.276416855500003 143.62015248,-33.277890417499997 143.62010387199999,-33.278013997499997 143.619604576,-33.279312235 143.61931801599999,-33.280035751500002 143.61868944,-33.281621109 143.61848928000001,-33.282132486 143.61846985599996,-33.282177293 143.61831756799998,-33.282526591500002 143.61794352000001,-33.283322461499999 143.61770483199999,-33.283751939 143.617421888,-33.284253955 143.61627168,-33.286293802 143.61596748799997,-33.286833354500004 143.61512976,-33.28833672 143.61445008000001,-33.289555777499999 143.61398928,-33.290380433500005 143.61284665599999,-33.292423351499998 143.61240889600001,-33.293206623 143.61170867199999,-33.294467879 143.61057289600001,-33.296513405500001 143.61010956800001,-33.297347792499998 143.60943385599998,-33.298557655499998 143.60829264,-33.30060111 143.60812956800001,-33.300893428500004 143.60715612800001,-33.302646174 143.60671008,-33.303448889 143.60600665600001,-33.304686391 143.60505049599999,-33.306368947500005 143.60481539200001,-33.306717062 143.604798112,-33.306842788 143.60469408,-33.3070387215 143.60457059199999,-33.307275595500002 143.60453712,-33.307339402 143.6044176,-33.307597717500002 143.60432329599999,-33.307832519500003 143.60423184000001,-33.3081136825 143.60417856000001,-33.3083196985 143.604124576,-33.308595903499999 143.60409721599999,-33.308840788 143.60408460799997,-33.309177025499999 143.6040864,-33.309474838500002 143.604087488,-33.309683999500002 143.60411449599999,-33.311482736 143.604124576,-33.311731505499992 143.604214912,-33.313987173500003 143.604229312,-33.314359227 143.60428297600001,-33.315750353 143.60430131199999,-33.316615265 143.60433481600001,-33.31822347 143.60435353599996,-33.318871821 143.60441328,-33.320978453 143.60441507199999,-33.3211281365 143.60444425599999,-33.323367154499998 143.60444496,-33.323384877500004 143.60453568,-33.325640545500001 143.604536768,-33.326556573 143.60456268799999,-33.327388703 143.604605152,-33.328746621500002 143.60463612800001,-33.329580842 143.60463792,-33.329644833499998 143.60467571199999,-33.3311193945 143.60471315199999,-33.331900779 143.604716768,-33.331972133500003 143.60472649599998,-33.332224862 143.60474483199999,-33.332451561 143.60478912,-33.332750817 143.604859328,-33.333035495 143.60506739199997,-33.334134839 143.605264672,-33.335176851500002 143.60546233599999,-33.33636719699999 143.60577084799999,-33.338224171500002 143.60583241599997,-33.338602626 143.60619708799999,-33.340838665500002 143.60656176000001,-33.343074723500003 143.606872,-33.344977004500002 143.606928608,-33.345310596499999 143.60730768,-33.347544934 143.60768675199998,-33.349779271500005 143.60806585599997,-33.352013609 143.609738048,-33.351167511500002 143.61186816,-33.350089313 143.61203881599999,-33.349999495500001 143.61257699199999,-33.349716186500004 143.61432227200001,-33.348807096500003 143.614394656,-33.348770004 143.61669072000001,-33.347594976499998 143.61892668799996,-33.346450529500004 143.62123392000001,-33.345291338 143.62251587200001,-33.344647112499999 143.62324668799997,-33.344305195499999 143.62356598399998,-33.344168943 143.62373232,-33.344098014 143.624170816,-33.343932143 143.624733472,-33.343743332 143.625327008,-33.343585009 143.62598736000001,-33.343435621499999 143.62609356799999,-33.343416363 143.62663392,-33.343318442499999 143.627092576,-33.34324509 143.627604128,-33.343187573500003 143.62815529599999,-33.343144117 143.62875360000001,-33.343109004 143.62899900799999,-33.343094999500003 143.63110332799999,-33.342993009 143.63143811200001,-33.342979319 143.63412371199999,-33.342869799 143.63463059200001,-33.342849097499993 143.63520048000001,-33.342808323500002 143.63585136,-33.342710662 143.63636185600001,-33.342613648 143.636766112,-33.342503943 143.63685648000001,-33.342479375 143.63732988800001,-33.342348413499998 143.63805059200001,-33.3420411655 143.6383656,-33.341885192 143.64068112,-33.340737951500003 143.64299664,-33.339590637 143.64439235200001,-33.338899162499999 143.64533411199997,-33.338476178500002 143.64574057600001,-33.33829356499999 143.647717312,-33.33743091 143.648878688,-33.3369240285 143.650100896,-33.336386640500002 143.65248265599999,-33.335339577500001 143.6543424,-33.334522118 143.65486441600001,-33.334291885500001 143.65724435199999,-33.333242047500001 143.65962432000001,-33.332192098500002 143.66056211200001,-33.331778364500003 143.66293452799999,-33.330716279500002 143.66299536,-33.330688918 143.66365884799998,-33.330401002500004 143.66414483200001,-33.330232356499998 143.66462544000001,-33.33011895149999 143.665020352,-33.330045414 143.66545884799999,-33.329993854500003 143.66548835200001,-33.3299903395 143.665957792,-33.329966844499999 143.66631312000001,-33.329965494 143.66693699199996,-33.330003659500001 143.66746899200001,-33.330076993500001 143.668122496,-33.330196263 143.668199168,-33.3302103045 143.66986704,-33.330500366 143.67075084799998,-33.330669844500001 143.67109068799999,-33.33073490899999 143.671824,-33.330820046 143.67224304000001,-33.330848036500001 143.67276073599999,-33.330861005 143.67342169599999,-33.330885480500001 143.67404233600001,-33.330908513 143.676107648,-33.330982772 143.67704940799996,-33.331016608500001 143.67784931200001,-33.331022362 143.67822480000001,-33.3310605275 143.67864060799999,-33.331107332500004 143.67878748800001,-33.331124796499992 143.678987648,-33.331148550500004 143.67936457600001,-33.331215243 143.680704128,-33.331526191 143.681385248,-33.331698981 143.68167395200001,-33.331772241 143.683118272,-33.332162036 143.68358377600001,-33.332287854499995 143.68539491199999,-33.332777549500001 143.686146592,-33.332969616500002 143.68726188799999,-33.333254553499991 143.687697856,-33.333370733500004 143.68804739199999,-33.333439683 143.68834764799999,-33.333488097500002 143.68874291200001,-33.333543634500003 143.68877388799999,-33.333548037500002 143.68908816000001,-33.333582595499998 143.68947913599999,-33.333609864499998 143.69024268800001,-33.3336075335 143.690576768,-33.333581707499995 143.69095043199999,-33.333515366500002 143.691370208,-33.333417187 143.69139971199999,-33.333408714 143.69183209600001,-33.333285337499994 143.69254380800001,-33.333020362 143.69387004800001,-33.332521324499993 143.69632345599999,-33.331598100500003 143.69740883200001,-33.331206955 143.69788224000001,-33.33105729 143.69835708799999,-33.330937225 143.69879808,-33.330874491499998 143.69885603200001,-33.330867831499994 143.699249536,-33.330822654500004 143.6998824,-33.330764342500004 143.70032700799999,-33.330785580499999 143.701012096,-33.330822747 143.70153264000001,-33.330862355500003 143.703575648,-33.331017774 143.70421068799999,-33.331064856499999 143.70561395199996,-33.331168974500002 143.70722425599999,-33.331279234500002 143.70925536,-33.3313938975 143.70939971199999,-33.3313933425 143.70962940800001,-33.331392621 143.7099696,-33.331393435 143.710330688,-33.331379393500001 143.710818848,-33.33133530799999 143.71207417599999,-33.33119526299999 143.714739232,-33.330897894 143.7149088,-33.330879005500002 143.717401792,-33.330584615 143.717527456,-33.330569759500001 143.72006579200001,-33.330280327 143.720466112,-33.330234687500003 143.72272620800001,-33.329953173 143.72341020799999,-33.329867943499998 143.72437321599998,-33.329758941500003 143.72479296,-33.329677504500005 143.72526889599999,-33.329579047499998 143.72536716799999,-33.329549799 143.72566128,-33.329462035 143.72623475200001,-33.329300049 143.72658684800001,-33.329174397 143.727064928,-33.328990988 143.72765929600001,-33.32878443549999 143.72786124800001,-33.328711712 143.72968499199999,-33.328055332 143.7303312,-33.32782053 143.732798656,-33.326923946 143.73389520000001,-33.326525511500002 143.73636227200001,-33.3256288535 143.73882937600001,-33.324732084499999 143.73977904,-33.324386948499999 143.74129715199999,-33.323836851 143.74376531199997,-33.322942357500004 143.746233856,-33.322047845500002 143.747665568,-33.321528902 143.74968444800001,-33.3207691255 143.750124,-33.320616038 143.75221811200001,-33.319886490500004 143.75261017599999,-33.319757434499998 143.753498656,-33.319464746 143.75449763200001,-33.319216809 143.75504412800001,-33.319123199 143.755596736,-33.319068124499999 143.75611763200001,-33.319028072 143.756908192,-33.319025648500002 143.75772576,-33.319045795 143.75779523200001,-33.319047515500003 143.75999916800001,-33.3191611795 143.760409216,-33.319179272500001 143.761505056,-33.319227594499999 143.76404700800001,-33.319359 143.76668940799999,-33.31949553 143.768664352,-33.319591193500003 143.77134816,-33.319721063499991 143.77306681599998,-33.319804221 143.774031616,-33.319855262499999 143.776714688,-33.319997102 143.77798691199999,-33.320064331 143.779398848,-33.320119942 143.78207795200001,-33.320253234500001 143.782854496,-33.320291844 143.78394528000001,-33.320325773 143.78442012799999,-33.320313637 143.78476355199999,-33.320301926500001 143.78489136,-33.320297523500003 143.78530140800001,-33.3202538635 143.78582627200001,-33.320177643500003 143.786431808,-33.320064053499991 143.78739372800001,-33.319854818499998 143.78797872,-33.319717289499998 143.79058044799999,-33.319148766 143.791835776,-33.3188743555 143.793178912,-33.318570604 143.793807488,-33.318428394500003 143.79627996799999,-33.317885438 143.79888096,-33.317314287500004 143.79965027200001,-33.31714517899999 143.80148268799999,-33.3167473735 143.804085472,-33.316182272500001 143.80518998399998,-33.315941994499994 143.80779024,-33.315369937500002 143.80896492799999,-33.315111178 143.811567712,-33.31454733499999 143.81417100799999,-33.313982992500002 143.815909312,-33.313606647 143.81778384,-33.313206159 143.81851392,-33.31304865 143.8196256,-33.312808797500004 143.82083593600001,-33.312541768500004 143.82111564799999,-33.312481477 143.82371952,-33.311920594 143.82632304000001,-33.311359618499999 143.82701856,-33.311209768499999 143.82750851200001,-33.31109978599999 143.828316736,-33.310893788500003 143.828899936,-33.310721257499999 143.82891216,-33.310717557499991 143.829536768,-33.310505973 143.83079929600001,-33.310063527 143.8313832,-33.309858066 143.833862528,-33.308986142500004 143.835527168,-33.308400691500005 143.83634652800001,-33.30812358 143.83750969600001,-33.307730011 143.8399944,-33.306869243 143.84027484800001,-33.306772044 143.84275667199998,-33.305905356 143.84485548800001,-33.30517220099999 143.84689849599999,-33.304453198499992 143.84938537599999,-33.303597388500002 143.85187260800001,-33.302741578500004 143.854359488,-33.3018857685 143.85525660799999,-33.301576985 143.85684313599998,-33.301023113500001 143.85847248,-33.300454146 143.86095648,-33.299592027500005 143.86344012800001,-33.298729835 143.86592412799999,-33.297867531500003 143.867142368,-33.297444621499999 143.86831523199999,-33.297066629500002 143.86842252799997,-33.297037103500003 143.86905504000001,-33.296863314500001 143.86964329599999,-33.296740474499998 143.87008752,-33.296674226 143.87063040000001,-33.296596655499997 143.87103936,-33.296542913 143.87194,-33.296424994 143.87369795199999,-33.29621217 143.87527692800001,-33.296021361 143.87573555200001,-33.295962697500002 143.878222432,-33.295668214499997 143.88088176,-33.2953426885 143.88354108799996,-33.295017051500004 143.88620076800001,-33.294691433 143.888860096,-33.294365722 143.88891049599999,-33.294359617 143.89102188800001,-33.294087537499998 143.89151724800001,-33.294028041499999 143.89417763200001,-33.293708639 143.896559392,-33.293422703 143.89683984000001,-33.293403352 143.89773299199999,-33.293376638 143.89807932799999,-33.293402556499998 143.89843932799999,-33.29344664199999 143.89873164799999,-33.293502086499998 143.89906681599996,-33.293585706500004 143.89948368,-33.293697927499998 143.89967593599999,-33.293759403 143.902188,-33.294561840500002 143.90266393600001,-33.294713855 143.90469756799999,-33.295369587499998 143.90656307200001,-33.295971152 143.907308288,-33.296198757500001 143.90883433600001,-33.296681348500002 143.9092728,-33.296807518499996 143.909768896,-33.296903903500002 143.90985168,-33.296917131 143.910166336,-33.296967358499998 143.91167580799998,-33.297154911500002 143.91250668800001,-33.297266244500001 143.913816736,-33.297441754 143.91516348799999,-33.297606441 143.91782316800001,-33.29793170799999 143.919963008,-33.298193335 143.922624832,-33.298505097 143.925286688,-33.298816859 143.927948512,-33.299128621 143.92952460799998,-33.299313214 143.92969056000001,-33.300573397 143.92977372799996,-33.301409134499998 143.92985689599999,-33.302245778500001 143.929921312,-33.302895757500004 143.93010816,-33.304492807 143.93030473599998,-33.306177324499998 143.93037024,-33.3067390215 143.930631232,-33.308985236 143.93067337599999,-33.309350648 143.93087424000001,-33.311232986 143.93093651199996,-33.311815292 143.931104288,-33.313481642500001 143.93112624,-33.313613751 143.93117555200001,-33.313974205 143.93119644800001,-33.314180036 143.93122236799999,-33.314677371500004 143.93121408,-33.314954409 143.93116835199999,-33.315302875 143.93081376000001,-33.316720918500003 143.93075689599999,-33.316947728500004 143.93024748799999,-33.318927173 143.93004553599999,-33.319697587 143.929728,-33.320953996 143.929348576,-33.322451756 143.92916460800001,-33.323160509499992 143.92902601599999,-33.323694937500001 143.92860409599999,-33.325367855499991 143.928441728,-33.326011267 143.92805004799999,-33.327576367 143.92785852799997,-33.328342267 143.92764217600001,-33.329157654500001 143.92755360000001,-33.329567078 143.92751651200001,-33.329787746 143.927483392,-33.329985751499997 143.92745027199999,-33.330354567500002 143.92746288000001,-33.33062106 143.92752768,-33.331238460500003 143.927595712,-33.331537531499997 143.92772963199999,-33.331919131 143.9277696,-33.332011464499999 143.927828288,-33.332146015 143.92790819199999,-33.332328813499998 143.92806588799999,-33.332622575 143.92848563199999,-33.333208377499993 143.92867212799999,-33.333444178500002 143.929523168,-33.334521119 143.92984105599999,-33.334905956 143.93019168000001,-33.335305648499997 143.93178576,-33.337122922 143.93206691200001,-33.337443157 143.93338704000001,-33.338936162499998 143.93494691199999,-33.340700618500001 143.93498976000001,-33.340748311500001 143.93660435199999,-33.342553079 143.93728691199999,-33.343316278 143.93820060799996,-33.344369094500003 143.93887379200001,-33.345144984500003 143.939297536,-33.345607688 143.93954124799998,-33.345908553500003 143.939658976,-33.346074776 143.93975689600001,-33.346239111500005 143.93990880000001,-33.346531522500001 143.93995523199999,-33.346651402500001 143.940063616,-33.346930678500001 143.94012515200001,-33.347120858499999 143.94022345600001,-33.347489674500004 143.94026736,-33.347844893 143.94027923199999,-33.348131199 143.940279968,-33.348238832 143.94018851199999,-33.348703496500001 143.94010428799999,-33.349069445 143.93982499200001,-33.350201996500004 143.93934899199996,-33.352125201 143.93927987199999,-33.3524122285 143.93874816,-33.354624606500003 143.938224,-33.356805479 143.93821644799999,-33.356836892 143.93767824,-33.359048197 143.93737187199997,-33.360306215500003 143.93710403200001,-33.361252731 143.93648304000001,-33.363448644 143.93623033599999,-33.364402023 143.93608272,-33.365021662 143.93555532799999,-33.367234761500001 143.93502793600001,-33.369447861 143.93480112,-33.37040124 143.934463456,-33.371820449 143.934276608,-33.372614783499998 143.93375603199999,-33.374829067 143.93338236799997,-33.376419549 143.9330688,-33.377744889 143.93254537600001,-33.379958617500002 143.93233836799996,-33.380833852499997 143.932018688,-33.382171791 143.931937312,-33.382511913500004 143.93146931199999,-33.384381024 143.930916,-33.386589628 143.930362016,-33.388797991499999 143.93028348799999,-33.389113953 143.929821952,-33.391009167 143.92928377600001,-33.393220379500001 143.929222208,-33.393473903500002 143.92910771199999,-33.393963413499996 143.92906272,-33.394136407 143.92877580800001,-33.39530549599999 143.928232928,-33.397515894500003 143.92821564799999,-33.397586731 143.92768428799999,-33.399725405 143.92713564799999,-33.401934804500002 143.92658665600001,-33.404144222500001 143.92649699200001,-33.404416191 143.92624860800001,-33.405443644 143.92618416,-33.405663239 143.92588140799998,-33.406891916500001 143.92567907200001,-33.407713261 143.92533456000001,-33.409101686 143.92520569600001,-33.409613877 143.92512793599997,-33.409934278500003 143.92507104000001,-33.4101854715 143.924985728,-33.410715219 143.924784128,-33.411973866499999 143.924566336,-33.4133316 143.92442268799999,-33.414210276 143.92405728,-33.41644622299999 143.92395648,-33.41706290199999 143.92371923199997,-33.418685167 143.9236512,-33.419150812 143.923464,-33.420533853500004 143.92336499199999,-33.420920855 143.92333260800001,-33.421047025 143.92319795200001,-33.421536535 143.923014368,-33.421930104 143.92272563200001,-33.422375787500002 143.922438016,-33.422704014499999 143.92223027200001,-33.422933692 143.92206,-33.4231218 143.92141632,-33.423695096499998 143.92031004799998,-33.424491503 143.92029996799999,-33.424498163 143.91895033599999,-33.425413025 143.91821088,-33.425921072 143.91651241599999,-33.427088551499999 143.91621145600001,-33.427312198 143.91614627199999,-33.427367827499999 143.91591769600001,-33.427562484499994 143.91481212799999,-33.428851657 143.91454787200001,-33.4291796065 143.91410617599999,-33.429727983500001 143.91351324799999,-33.4304242125 143.91302003199999,-33.431037487499999 143.91223776000001,-33.431984817 143.91211859200001,-33.4321295425 143.911072096,-33.433353724500002 143.91068112,-33.433825955499998 143.909146816,-33.435680136500004 143.90761212800001,-33.437534225 143.90704224000001,-33.438200391500004 143.90626140800001,-33.439113366500003 143.90549100800001,-33.440044675 143.90395667199999,-33.441899226 143.90350668799999,-33.442443181500003 143.90241587200001,-33.443749707 143.90087257600001,-33.44559867099999 143.89987644799996,-33.446815194 143.898912736,-33.447959363500004 143.89736003199999,-33.449803018 143.89607484800001,-33.451329323499998 143.895809888,-33.451648208 143.89439545600001,-33.453351984 143.894280256,-33.453505071500004 143.89408835200001,-33.453760316 143.89383241600001,-33.454085842 143.893672928,-33.4543545915 143.893462688,-33.45475347 143.893215008,-33.455556 143.89270272,-33.45696566299999 143.892284768,-33.458222516 143.8920432,-33.458873031499998 143.89188515199999,-33.459364983500002 143.891715232,-33.459866814499996 143.89149529599999,-33.460462163 143.89130988799999,-33.460858174 143.89111692799997,-33.461150048500002 143.89099379199999,-33.461336528499999 143.890637056,-33.461816492499999 143.889563168,-33.462989004 143.887923712,-33.4647791935 143.88755977599999,-33.465183122500001 143.88593760000001,-33.466984467499998 143.88432732800001,-33.468772492500001 143.884315456,-33.468785646 143.88394860799997,-33.469185246 143.88364044799999,-33.469564866 143.88348672000001,-33.4698010185 143.88332435199999,-33.470106305500003 143.883223552,-33.470341736500004 143.88308243200001,-33.470765738 143.88303923199999,-33.470865268 143.88299209600001,-33.471063532500004 143.88270768000001,-33.472556649 143.88228323199999,-33.474785214500002 143.88222889599999,-33.475069892500002 143.88184656000001,-33.477012096499998 143.881408096,-33.479238775 143.881368,-33.479443995499999 143.88122627199996,-33.480094141 143.8811496,-33.480581579 143.88110316800001,-33.4809496735 143.88106032,-33.48131688 143.881039456,-33.481473112499998 143.88100163199999,-33.481918796 143.88098329600001,-33.482311921 143.88100560000001,-33.482945065 143.88102432,-33.48417483399999 143.88105456,-33.486189391499998 143.88105779200001,-33.486431482500002 143.88108985599999,-33.488688057 143.88110316800001,-33.489616405500001 143.88111324799999,-33.490944724 143.881128,-33.492894217 143.88113664,-33.493201372499996 143.8812,-33.495457503 143.88121836799996,-33.496109091500003 143.88124896,-33.497713892500002 143.88126841600001,-33.498728377 143.88128928,-33.499970374500002 143.88132780800001,-33.502226949 143.88133465599998,-33.502638426 143.88139081599996,-33.504483061 143.881423552,-33.50556594 143.88146243200001,-33.506739006499998 143.88150169599996,-33.507917734 143.881513216,-33.508995211 143.88151536000001,-33.509201578500004 143.881542016,-33.509889001499999 143.881587008,-33.511251064 143.88159203199999,-33.511406131 143.88163344,-33.512351407 143.88164963200001,-33.512847299500002 143.881692128,-33.513506010500002 143.881693216,-33.513521032500002 143.88176736,-33.514156433499998 143.88189299199999,-33.514703108500001 143.88201865599999,-33.515347852 143.88214787199999,-33.515725955 143.88225660800001,-33.51608892499999 143.88252768000001,-33.516857526 143.88267888,-33.517218960500003 143.88287545599999,-33.517700811499999 143.88294707199998,-33.517879928500001 143.88304896,-33.518134803 143.88344243200001,-33.519150545500004 143.88362857600001,-33.519630953499998 143.88413833600001,-33.520865495500004 143.88497388799999,-33.522938013499996 143.884999808,-33.523003707 143.885844736,-33.525125731 143.885852288,-33.525144545499998 143.886723488,-33.527280148500004 143.88689305599996,-33.527695769499999 143.88756588800001,-33.529423688 143.887824352,-33.530087616 143.888508,-33.531715893499999 143.88869196799999,-33.532223663 143.88877008,-33.532438318499999 143.88891011199999,-33.532953747 143.88895907200001,-33.533262364 143.88898105600001,-33.533688863 143.8889472,-33.534203662499998 143.88872041600001,-33.535934467 143.88855228799997,-33.537217405 143.88843673599999,-33.538178609500001 143.88830675200001,-33.5392627465 143.88815052800001,-33.540422493 143.888027392,-33.541338243 143.88786035199999,-33.542666099 143.88765049599999,-33.544334429 143.887577408,-33.544910334 143.887292288,-33.547154402499999 143.887007168,-33.549398378500001 143.88695712000001,-33.549791041 143.886714496,-33.551641799500004 143.88670547199999,-33.5517127285 143.886671648,-33.551978666 143.88639913599999,-33.554099691 143.88611113599998,-33.556343482 143.88582889599996,-33.55854228099999 143.885822752,-33.558587199 143.88552432,-33.560829991 143.88522588800001,-33.563072783 143.88506819200001,-33.564258096499998 143.88492995199999,-33.565315852499999 143.88463692799999,-33.567559199500003 143.884520288,-33.568450104 143.88430067199999,-33.569798032500003 143.88419017599998,-33.570158301500001 143.884055872,-33.570653398499999 143.88392953600001,-33.570998016499999 143.88387731200001,-33.571231024 143.8838136,-33.571494630499998 143.883798496,-33.571558529500003 143.88350364799999,-33.573736072 143.88325596799999,-33.575563983 143.88319584,-33.5759780685 143.88311267200001,-33.576550477 143.88286249599997,-33.578217456499999 143.88259104,-33.580130486 143.88237936,-33.581621068 143.88226777599999,-33.582370854499999 143.88201648,-33.58405233799999 143.88193728,-33.584610501500002 143.88169715199996,-33.586299995499999 143.88162012800001,-33.586851517500001 143.88140016,-33.588421742 143.88134544,-33.588769764 143.88127596800001,-33.589089185 143.88114851200001,-33.589446568 143.88103296,-33.589755351499996 143.88090876800001,-33.590052369 143.88075721600001,-33.590329554500002 143.88059267200001,-33.590612882 143.88043715200001,-33.590831755499998 143.880373088,-33.590918076500003 143.88027193600001,-33.5910537 143.88006672,-33.591283747499993 143.879827328,-33.591528817 143.87965020799999,-33.59172303 143.87941225599999,-33.591973131499998 143.87895900800001,-33.59241567 143.878702336,-33.592687379499999 143.87772240000001,-33.593724711500002 143.87700889600001,-33.59444319599999 143.87697180800001,-33.594480455 143.87677884799999,-33.594675297 143.87656787200001,-33.594924233 143.87634972800001,-33.595178127 143.8761744,-33.595430763 143.876025376,-33.595629749 143.87576761599999,-33.596073175500003 143.87558688,-33.596406083 143.8754904,-33.596617686 143.87546051199999,-33.596710019500001 143.87542921599999,-33.596806238 143.87526288000001,-33.5972709025 143.87523625599999,-33.597374576500002 143.87513689599999,-33.597762928500003 143.87505408000001,-33.598219138499999 143.87495004799999,-33.599614501 143.87486688000001,-33.600713752499999 143.87486761599999,-33.600797909 143.87476716800001,-33.602514394499998 143.874683296,-33.603344822499992 143.87465232,-33.603650368499999 143.87451264000001,-33.605471971 143.87450147199999,-33.605596254 143.87447808,-33.605862487499998 143.87442588799999,-33.606273964499998 143.87436108799997,-33.606610109500004 143.87430313600001,-33.606889829499998 143.874077056,-33.607456836 143.87395968,-33.607732856 143.873925472,-33.607786598499999 143.87376348800001,-33.608041103 143.87363171199999,-33.608298512 143.87343731199999,-33.608553294 143.87303628800001,-33.608986564 143.87241564799999,-33.609644183500002 143.872365952,-33.609696834499999 143.870695552,-33.611382351 143.869339072,-33.612750981 143.86899168,-33.613131156 143.86895964799999,-33.613166250499994 143.86866083199999,-33.613522209 143.86838435199999,-33.613946284500003 143.86815577600001,-33.614471888 143.867988736,-33.615086939 143.86796569599997,-33.61518954 143.86776192,-33.616093949499998 143.8674408,-33.617402917 143.86707251199999,-33.618906171500001 143.86700880000001,-33.619326935499998 143.86700412799999,-33.619418825 143.866983232,-33.619808694 143.86699584,-33.6202504185 143.86704553600001,-33.620615460499998 143.867096992,-33.620948812 143.86720284800001,-33.621364710499996 143.86732668799999,-33.621641729499999 143.86767875199999,-33.622504828499991 143.86889161599998,-33.622631461 143.87097491200001,-33.622848984 143.87156892799999,-33.622905871500002 143.874248032,-33.62316740599999 143.87689836800001,-33.623426073 143.877148576,-33.623438671500004 143.87902236799999,-33.623644502499999 143.87982371199996,-33.623725958 143.88078096000001,-33.623823231 143.88130115199999,-33.623859787 143.88160067199999,-33.62385401499999 143.88193801599999,-33.623840158500002 143.882217376,-33.623800827499998 143.8825032,-33.623756187 143.88259321599998,-33.623742145500003 143.88308998400001,-33.623648998 143.884737376,-33.623287471 143.88511968,-33.623209530499999 143.886288256,-33.622971121 143.88704857600001,-33.622828837500002 143.88756876799999,-33.6227246085 143.88774409600001,-33.622688977500005 143.8903656,-33.622156436499999 143.89272972800001,-33.621676102500004 143.89298784,-33.621628761 143.89341625599999,-33.6215501175 143.893746368,-33.621502591 143.894085856,-33.621464888 143.89445017599999,-33.6214200625 143.89488,-33.621391702 143.89756921599999,-33.621217561500004 143.898357952,-33.621166538499999 143.900098912,-33.621039998500002 143.90055683200001,-33.621026216 143.901042112,-33.621023348500003 143.901048608,-33.6210236075 143.901289792,-33.621034596500003 143.9016264,-33.621074186500003 143.902180096,-33.621151054 143.90370432,-33.621406113500001 143.90490995199997,-33.621607893 143.90635177600001,-33.621837663 143.90699868799999,-33.621940800499999 143.908104608,-33.622113146499998 143.909281088,-33.622301698500003 143.91193033600001,-33.6227262365 143.91421129599999,-33.6230917225 143.916860512,-33.623515983 143.91820044799999,-33.623730546 143.91912672000001,-33.623879304500001 143.92015452800001,-33.624047691500003 143.92280195199999,-33.624481239 143.92501849600001,-33.624844209 143.92544940799999,-33.624912955 143.92809936,-33.625335143500003 143.93074931199999,-33.625757258 143.93244780800001,-33.6260277835 143.933398912,-33.626180704500001 143.93604780800001,-33.626606667 143.93630915200001,-33.626648699 143.93869776,-33.627028319 143.93883456,-33.627047041 143.93894364799999,-33.6270717015 143.941480928,-33.627483807499999 143.94343283200001,-33.627800694 143.94412908800001,-33.627912748500002 143.94667824000001,-33.628322967500004 143.948196,-33.628558676 143.94908627199999,-33.628701422 143.95173552,-33.6291259415 143.95438512000001,-33.629550479500004 143.95465763199999,-33.629594121 143.95703292799999,-33.629982214 143.95968035199999,-33.630414836499995 143.959743008,-33.630425011500002 143.96155776000001,-33.630718329 143.962328896,-33.630844055 143.963892,-33.631098929499998 143.96417100799999,-33.6311528385 143.96439888,-33.631178498 143.96467248,-33.631175963499999 143.96498748799996,-33.631188839499998 143.96648832,-33.631250037500003 143.967682432,-33.631282708500002 143.970378848,-33.631356505 143.97307488000001,-33.631430227500005 143.975771296,-33.631503839 143.978155552,-33.631568903499996 143.97846732799997,-33.631580799 143.978979968,-33.631600224 143.97935904,-33.631631285499992 143.97991488,-33.6316954435 143.98114825599998,-33.631821095500001 143.98382627199996,-33.632093970500001 143.985883328,-33.632303575500003 143.98650432,-33.632363700500001 143.98765705599999,-33.632475385 143.98918345600001,-33.632629823 143.99186147200001,-33.632900811 143.99243100799998,-33.63295842 143.99454348800001,-33.6331433645 143.99488908800001,-33.633173612 143.99514899199997,-33.633196478 144.001268,-33.633821001 144.00800201600001,-33.634553009 144.016028,-33.635426005499994 144.02278700799999,-33.636159993 144.029412,-33.636823995 144.03209100800001,-33.637093003499999 144.03744700799999,-33.637638994 144.041864608,-33.638093890500002 144.043375328,-33.63825978 144.04406761600001,-33.63862086299999 144.044561536,-33.638895902500003 144.04527539200001,-33.639782848 144.04574880000001,-33.641876881500004 144.04578048,-33.641999555 144.04635216,-33.644204829 144.04692419200001,-33.646410177 144.04749587200001,-33.6486155435 144.048067936,-33.650820817499998 144.04847075199999,-33.652373948 144.04864393599999,-33.653025444 144.04922928,-33.655228294499999 144.049814656,-33.657431126500001 144.0504,-33.659633884500003 144.050985728,-33.661836716499998 144.05157107199997,-33.664039567 144.05215680000001,-33.666242399 144.05274217600001,-33.668445231 144.053100736,-33.669793973499999 144.05328937600001,-33.670654556500004 144.05340672,-33.671190964 144.053840992,-33.672862994 144.05433696,-33.674777004 144.05441580799999,-33.675067972 144.05501340800001,-33.677268565499993 144.05561136,-33.679469066499998 144.05585689599999,-33.680373938500004 144.05606531199996,-33.681223162499997 144.056607488,-33.683433746 144.05714963199998,-33.685644237 144.0574992,-33.687069033 144.05770441600001,-33.687852656 144.05828099199999,-33.690057005 144.05885856,-33.692261317 144.059436,-33.694465684500003 144.05981219200001,-33.695901987500001 144.06000588800001,-33.69667131 144.06056243200001,-33.698879451499998 144.06077123200001,-33.699707992500002 144.06115248,-33.701081229 144.06176339199999,-33.703279288 144.0620352,-33.704258049 144.06234768,-33.705482305 144.06291107199999,-33.707689114499999 144.06347411199999,-33.709895998 144.06360425599999,-33.710602050499993 144.066191008,-33.720163997500002 144.06674003200001,-33.722373785500004 144.067096,-33.723727005 144.06748236799999,-33.724952093500001 144.06809651200001,-33.726740396 144.06897945599999,-33.729333078499998 144.069598816,-33.731075242 144.07036812800001,-33.733238317500003 144.07113744,-33.735401374499993 144.07190675199999,-33.737564339 144.07230457599999,-33.7386831265 144.07265664,-33.739731984 144.073386368,-33.741904679500003 144.07411571200001,-33.744077282500001 144.07484544,-33.746249885499999 144.075575168,-33.748422488500005 144.07589952000001,-33.749130150500001 144.07635708800001,-33.750578978 144.076535648,-33.751144171499995 144.07721264,-33.7529411135 144.07750764799999,-33.75355511 144.07794179199999,-33.7548897 144.07849068799999,-33.756577122 144.07888268799999,-33.757674116499992 144.07927452800001,-33.758816121500004 144.07942393600001,-33.759229134 144.07995472,-33.760696128500001 144.080352,-33.761619001 144.08044668799999,-33.762233164 144.08030771199998,-33.7629211235 144.0800496,-33.763569123 144.07990345600001,-33.764032714500004 144.07926083199999,-33.766071211 144.07920505600001,-33.766212144 144.07874963200001,-33.767363158500004 144.07842780799999,-33.768372333500004 144.07773228799999,-33.770552669499999 144.07703676799997,-33.772733098 144.07634124800001,-33.774913434 144.07564572800001,-33.777093862500003 144.07494985599999,-33.77927421699999 144.07473673600001,-33.779930486 144.07402896,-33.78210812099999 144.07332083200001,-33.784285774499999 144.07261308799997,-33.786463409500001 144.07190531200001,-33.788641044500004 144.071197216,-33.790818698 144.07048944,-33.792996333 144.069781312,-33.79517396799999 144.06907321599996,-33.797351529 144.06836508800001,-33.799529164 144.068191552,-33.800063407 144.06797737599999,-33.800583423500001 144.067958272,-33.801188484499995 144.067741568,-33.801705356 144.067366432,-33.802435347500001 144.067328288,-33.8025456815 144.06657660799999,-33.804713067500003 144.06654457600001,-33.804805493499998 144.066233536,-33.805885505 144.06605603200001,-33.806924465 144.06604163200001,-33.807010508499999 144.06573673599999,-33.809165018500003 144.06541993600001,-33.811405831 144.065102752,-33.8136466435 144.06478595199999,-33.815887474500002 144.0644688,-33.818128287 144.064152,-33.820369118 144.063834848,-33.822609930499993 144.06351769599999,-33.824850743 144.06320089600001,-33.827091574 144.06312889599999,-33.827480185 144.062905696,-33.8286886235 144.06273900799999,-33.829712913 144.06237504,-33.831948693500003 144.06235596799999,-33.832066686499999 144.062089216,-33.834192392 144.06180803199999,-33.836436534500002 144.061526528,-33.83868060299999 144.06147612799998,-33.839083718 144.06118451200001,-33.840918714499999 144.06086412799999,-33.842933734500001 144.06083785600001,-33.843156382 144.06072803199999,-33.844085729500001 144.06058403200001,-33.8454027075 144.06041411199999,-33.845833702 144.059590816,-33.846980572500001 144.05820156799999,-33.848916301500005 144.05787036800001,-33.849377821 144.05725116799999,-33.850188805500004 144.057042368,-33.85066383 144.05703372799999,-33.850914653 144.057020416,-33.851313809 144.057027968,-33.853170783499998 144.05703731200001,-33.855427173 144.05704524800001,-33.857352801 144.05705280000001,-33.857683377500003 144.05707619200001,-33.858755822500001 144.05716729599999,-33.859538816499999 144.05725513600001,-33.859929055500004 144.057334336,-33.86028087 144.05770153599997,-33.861030841500003 144.05823180799999,-33.862025161 144.05933161600001,-33.864086616 144.06043104,-33.866147978500003 144.06131232000001,-33.867799825 144.06153625600001,-33.868207343 144.06266339199999,-33.87025854899999 144.063790208,-33.872309644 144.06491737600001,-33.874360831499999 144.06505955200001,-33.874650634 144.06608448,-33.876738803 144.06935347199999,-33.882833868500001 144.07402249599997,-33.891636964 144.075116896,-33.893700398500002 144.076211296,-33.8957638145 144.077306048,-33.897827249 144.0784008,-33.899890591 144.07875971199996,-33.900566932499999 144.07948944,-33.90195626399999 144.080574848,-33.904022936 144.08166060799999,-33.906089700499997 144.08274636799999,-33.908156465 144.08356752,-33.909719937 144.083858752,-33.910212684500003 144.08408771200001,-33.910599871 144.08491212800001,-33.912290068 144.085545728,-33.913588860499999 144.08599859200001,-33.914355112 144.08650979199999,-33.915219931500005 144.08714089599999,-33.916400009500002 144.08824355199997,-33.918460558 144.089345888,-33.920521106500004 144.090448576,-33.922581747500004 144.09155088,-33.924642203499999 144.092653568,-33.926702752 144.0932688,-33.92792316 144.09396288,-33.929299893 144.09433475200001,-33.929996936 144.095434912,-33.932058391 144.09653507199999,-33.934119846 144.097089856,-33.935158898499999 144.097606816,-33.935994895 144.09775008,-33.936127558500004 144.09832896,-33.936663873500002 144.09935676800001,-33.937558829499999 144.09964512,-33.9377315455 144.101843296,-33.939048246 144.10404144,-33.940364854 144.10623996800001,-33.941681554500001 144.10843811199999,-33.94299807 144.11063664,-33.944314678 144.11189267200001,-33.945066721499998 144.11282867200001,-33.945638945 144.11492675199997,-33.9469217165 144.11500489599999,-33.946980213499998 144.115301888,-33.947202787 144.11718755199996,-33.948311751 144.11939939199999,-33.949612523 144.11982672,-33.949863716 144.12063961600001,-33.950446743499995 144.12143449600001,-33.951094650500004 144.122070592,-33.951763703 144.122513056,-33.952294523500001 144.12263977599997,-33.952446723 144.12430944,-33.953980687499993 144.125578816,-33.955146724 144.12611376000001,-33.955662596499998 144.12788425599999,-33.957369443499999 144.12810672000001,-33.957583655 144.129776768,-33.958982255 144.13168656,-33.960581543 144.13359673599996,-33.96218075699999 144.13360969600001,-33.9621916535 144.13550220799999,-33.963783578499999 144.137408032,-33.96538647399999 144.13931388799998,-33.966989184500001 144.14121971200001,-33.96859200599999 144.14312556799999,-33.970194716500004 144.14503139199999,-33.971797445500002 144.1469376,-33.973400063500002 144.14884380800001,-33.9750027 144.15075001599999,-33.9766053365 144.15265619199999,-33.978207862 144.1545624,-33.979810406 144.155917536,-33.980996533500004 144.15614352,-33.981186547 144.15727353599999,-33.982133543499998 144.15782352,-33.982466543500003 144.15813452800001,-33.982783541 144.15823152,-33.983188543 144.158903616,-33.991199579499998 144.15916768,-33.9949445715 144.15941273599998,-33.9970806 144.15990172799999,-33.998477590499995 144.16032073599999,-33.999130603499999 144.16066272,-33.999446583500003 144.16123472000001,-33.999891582499998 144.161881728,-34.000516586499998 144.16294572800001,-34.0014105805 144.16366473599999,-34.002208559499998 144.16422873600001,-34.002871562500005 144.16441472,-34.003224561 144.164559712,-34.003577559500002 144.164984,-34.005315005500002 144.16714582399999,-34.014158579 144.16763184000001,-34.015908605 144.16766819200001,-34.016204161 144.16769584,-34.016430582499993 144.16767884800001,-34.0169945735 144.16749884800001,-34.017555586 144.16708499200001,-34.0182836165 144.165567968,-34.020246596 144.16478995200001,-34.021235643 144.16438201599996,-34.021880997 144.16413401599999,-34.0222009915 144.16335699199999,-34.023203007 144.162711008,-34.024119996499998 144.161340064,-34.026066696 144.16066809599997,-34.028702705500002 144.15874300799999,-34.038225007 144.157929344,-34.042549807500002 144.15771036800001,-34.043371799500001 144.15736835199999,-34.044144822 144.1570384,-34.044702819 144.15638540800001,-34.045427834 144.15517744,-34.046355849500003 144.15397747200001,-34.047199856500001 144.15272448,-34.048299866500003 144.15199353599999,-34.048713896500004 144.15141353600001,-34.049216893 144.15036556800001,-34.049980906 144.14912457599999,-34.05077792299999 144.14796860800001,-34.051358952500003 144.14628864,-34.052360968 144.14472768,-34.053327981499997 144.14394528,-34.053884739 144.14336572799999,-34.054297011500005 144.14271574399999,-34.05493602 144.142288576,-34.055635042500001 144.14122188799999,-34.057381054 144.139839008,-34.059660994 144.13867776000001,-34.061698806 144.13789699200001,-34.063080996499998 144.13647798400001,-34.065614109 144.13518611200001,-34.067811150499999 144.13494102399997,-34.068228159 144.134019712,-34.069847667499999 144.132939104,-34.071747192 144.13218912,-34.073034181499999 144.13172796800001,-34.073936093500002 144.13161852799999,-34.074106386 144.130983136,-34.075095211 144.13048633599996,-34.075995217500001 144.13041865599999,-34.076128047499999 144.129853088,-34.077242247 144.12920508799999,-34.078139182500003 144.12882816,-34.078822295 144.128533312,-34.079428262500002 144.128255776,-34.080165173 144.12814416000001,-34.080461284 144.12733452799998,-34.082286660500003 144.12721139199996,-34.082564308500004 144.12646691200001,-34.084423891500002 144.125969408,-34.085667332 144.125570528,-34.086552668 144.124618336,-34.088665053500002 144.12453337599999,-34.088853328 144.12397536,-34.090278383 144.12376368,-34.09080578099999 144.122903648,-34.0929453615 144.12258361599999,-34.093239308 144.12248640000001,-34.093806296 144.12216659199999,-34.094484395 144.12188659200001,-34.095225394 144.12151462400001,-34.09686442 144.12124764800001,-34.097903417 144.12083065599998,-34.099761427499999 144.12047267200001,-34.101145449500002 144.12023369600001,-34.102356441 144.11994473600001,-34.103956469 144.119522784,-34.105864466500002 144.11926176,-34.106728490500004 144.11838083200001,-34.110620502 144.117998016,-34.111478994500004 144.117603712,-34.1124060665 144.1172808,-34.113028499 144.11666195199999,-34.114009591 144.116412,-34.114432001499999 144.11620403200001,-34.1147845745 144.11594195199999,-34.11547253399999 144.11552905600001,-34.1161565345 144.11532025599999,-34.116489627 144.11507292799999,-34.116884546500003 144.114859072,-34.117356592500002 144.11468412799996,-34.117964558 144.114701056,-34.118528586 144.11469312,-34.1186452285 144.11462905600001,-34.1196116315 144.11455056,-34.120898103 144.11453113599998,-34.121217598 144.1145592,-34.122786564500004 144.114528608,-34.123152605500003 144.11449008,-34.123611609 144.114387136,-34.125405387500003 144.11429820800001,-34.126956631 144.114274432,-34.1276593535 144.114198848,-34.129914392499998 144.11418732800001,-34.130256661 144.114102368,-34.132168987500002 144.11403107199999,-34.133770717499999 144.11400876799999,-34.134423564 144.11393136000001,-34.136678603 144.11387017600001,-34.138459709 144.11387232000001,-34.138553763 144.11389824,-34.139814667499998 144.113929216,-34.140164669 144.11406528000001,-34.140731675499993 144.114077536,-34.140796555 144.11423123200001,-34.141603673 144.11434032,-34.143039624499998 144.11437667199999,-34.143246084499999 144.114701344,-34.145050704 144.114948384,-34.147009706 144.115276416,-34.148931726500003 144.11584243199999,-34.153025739500002 144.11621248,-34.155900750500003 144.116406496,-34.157217747 144.116665504,-34.158920764500003 144.11692054400001,-34.160572759 144.11704054399999,-34.161664758500002 144.117273568,-34.162886757500004 144.11749558400001,-34.164459775499999 144.11767660800001,-34.165984786 144.11771260800001,-34.167289776 144.11769062400001,-34.167939773499995 144.11749564799999,-34.169064795499999 144.11720665599998,-34.170620793499999 144.11683468800001,-34.17239281599999 144.11654272,-34.174270843500004 144.11641574399999,-34.175436843 144.11575680000001,-34.178678875499998 144.11557680000001,-34.179378878500003 144.11523782399999,-34.179978870499994 144.11483184,-34.180489896 144.11403484799999,-34.181078899 144.113345856,-34.181667920500004 144.11160492799999,-34.183022934500002 144.108540992,-34.185459958 144.10758201600001,-34.186142978 144.10391612800001,-34.189185025500002 144.10193513600001,-34.190701063500001 144.09970720000001,-34.192557076 144.09938521599997,-34.192854093500003 144.0992552,-34.193198101 144.099285216,-34.19350409099999 144.09938822399999,-34.193854092500004 144.09746825600001,-34.193723112500003 144.09346832,-34.193715157500002 144.09096633599998,-34.193482168500005 144.08939932800001,-34.193357164 144.08638537600001,-34.193026199 144.08478540799999,-34.192857201500004 144.08295542399998,-34.192593225 144.07181356800001,-34.191460322 144.06414966400001,-34.190623400499994 144.05832771199999,-34.189998452 144.057235744,-34.189843440499999 144.05637776,-34.189690464 144.05537174400001,-34.189321463 144.054632768,-34.189040466499996 144.053716,-34.188477992500005 144.05155779200001,-34.18718549 144.04732182399999,-34.184823521 144.04674182400001,-34.184593529 144.046316832,-34.184451523 144.045843808,-34.184398539 144.04451699200001,-34.184365997500002 144.04204988800001,-34.184176576 144.03884992,-34.183968599 144.03552201599999,-34.18371300299999 144.03164201600001,-34.18349067 144.03101702399999,-34.183432672500004 144.02608608,-34.1830937155 144.02510608,-34.182982734 144.01711116800001,-34.181879782499998 144.00127536,-34.17962191299999 143.98232758399999,-34.17682208599999 143.97370470399997,-34.175881157500001 143.96742777599999,-34.1752282 143.96647180799999,-34.175073207 143.96634080000001,-34.175056205499999 143.966155808,-34.1750122125 143.964950816,-34.174914218 143.96476582399998,-34.174843233499992 143.96378883200001,-34.1747602425 143.96348585599998,-34.174790249499999 143.96202185600001,-34.174891241 143.96064486399999,-34.174929258500001 143.95928992,-34.175003277 143.95907289600001,-34.175005275 143.956927936,-34.175229291500003 143.95375196800001,-34.175434327 143.95113004800001,-34.175706351 143.94836608,-34.175881379499991 143.94576809599999,-34.176307416 143.94281315200001,-34.176852426 143.93888422399999,-34.1776764715 143.93829222400001,-34.178041476499992 143.93812921599999,-34.178060476 143.937375264,-34.178517481499995 143.936134272,-34.179094496499999 143.934999296,-34.179445515499999 143.93351731199999,-34.179817532 143.93194835200001,-34.180172547 143.93175334399996,-34.180236557 143.93016339199997,-34.180654583 143.92837641599999,-34.180893603 143.928213408,-34.180894602 143.92682643199998,-34.180977611499998 143.92612044800001,-34.180955615 143.92596944,-34.180947604499998 143.92536144,-34.180907607500004 143.925198464,-34.180899634 143.92459945600001,-34.180696633499998 143.92421846400001,-34.1805916275 143.92396844800001,-34.180529634 143.92340246399999,-34.180389626 143.92253248,-34.180153658500004 143.92173648,-34.1797536515 143.92091648,-34.179191677 143.920259488,-34.178637676 143.91998448000001,-34.1782516735 143.919762496,-34.177757668 143.919593472,-34.177245662 143.91958748799996,-34.176632664499998 143.91954944,-34.176136661 143.91948844800001,-34.175551654 143.91941145600001,-34.175416678 143.91918646400001,-34.174678657500003 143.918987456,-34.174337647 143.918658464,-34.173979672 143.91729145599999,-34.172980672 143.91477244800001,-34.170700695 143.91400345599999,-34.169849695 143.91358944000001,-34.169645695500002 143.906955552,-34.169000767 143.903546592,-34.168664807 143.900011648,-34.168735828500004 143.89913264,-34.168733830500003 143.89551072,-34.168732868500001 143.89305273599999,-34.169174907499993 143.88744784,-34.1704409735 143.88232992,-34.171623012499992 143.873460064,-34.173967110499994 143.867240192,-34.17557119 143.86639619199997,-34.175802181 143.86615817599997,-34.175876181 143.86486022400001,-34.1762642 143.863963232,-34.176523218500002 143.86372524800001,-34.17664123 143.863132256,-34.176979225 143.86202329599999,-34.177780238 143.861411296,-34.1783892395 143.86120832,-34.178678265 143.86093030399999,-34.179095255 143.860555328,-34.179576255 143.86001936,-34.180246288 143.859646336,-34.180862282500001 143.85938134400001,-34.181450286500002 143.859242368,-34.181631272 143.8583664,-34.183035292499994 143.85721344000001,-34.184873323 143.85612848,-34.186981342500005 143.855564544,-34.190185376 143.855520544,-34.191240375500001 143.85542256,-34.192278373500002 143.85554057600001,-34.19317838 143.85592956799999,-34.194167371500001 143.85635257600001,-34.195228365 143.85954563199999,-34.201922368 143.85980064,-34.202488375500003 143.85993964799999,-34.20334438899999 143.860197664,-34.204171394499994 143.86022166399999,-34.204442382499998 143.86021267199999,-34.204595396 143.86015465599999,-34.205254384499995 143.85989868799999,-34.206815414499999 143.859846688,-34.206978418 143.85929273599999,-34.2091184055 143.85929472000001,-34.209280428500001 143.85240099200001,-34.221931542500002 143.84554124799999,-34.234834663500003 143.84011043199999,-34.242147769 143.83913446400001,-34.243353784 143.838105504,-34.244631801 143.83395363199998,-34.250816869 143.832852672,-34.252582897499998 143.83258566399999,-34.252944887 143.83250966400001,-34.252999887499996 143.832434656,-34.253044898 143.832098688,-34.253146907 143.831752704,-34.253247917 143.826258752,-34.253293963499999 143.810246976,-34.253446107500004 143.806209056,-34.253527156 143.80574204799998,-34.253539162500005 143.80492803199999,-34.253553167 143.79460521600001,-34.253801270499999 143.78754729599999,-34.253693341500004 143.778450432,-34.253868425500002 143.77147052800001,-34.253921502 143.76818256,-34.254095531499999 143.76698857599999,-34.254130552 143.7661736,-34.254063563499997 143.76584758399997,-34.254047561 143.765195584,-34.253961554500002 143.76501059199998,-34.25391758 143.76432460800001,-34.253714579499999 143.764138624,-34.253625576 143.763572608,-34.253475578 143.76299660800001,-34.25332558 143.76209260799999,-34.253015594 143.76118864,-34.252769599499999 143.76042966399996,-34.252818606 143.75943065600001,-34.252852609 143.75646771199999,-34.252915657 143.75503472,-34.252897675 143.75487171200001,-34.252880673500002 143.75293875200001,-34.252910680500001 143.75245075199999,-34.252895677 143.752233792,-34.252923686 143.75093078399999,-34.252931696499999 143.75065977599999,-34.252951695 143.74997580799999,-34.253027711500003 143.74973782399999,-34.253073721 143.74872982400001,-34.253215727 143.747732832,-34.253446736500003 143.74697484800001,-34.253649737 143.74583686399998,-34.253927755 143.74558787199999,-34.254045766499999 143.74499286400001,-34.2542297675 143.74470086400001,-34.254339787 143.74329392000001,-34.254898801499998 143.74194195199999,-34.255492799500004 143.74109993600001,-34.255993816500002 143.73625206400001,-34.260394892500003 143.73207916800001,-34.263737953499998 143.73116518399999,-34.264734955500003 143.72960627200001,-34.266528974499998 143.729274272,-34.267152979500004 143.728622016,-34.2682849945 143.728407296,-34.268538000500001 143.72818128,-34.268827007500001 143.72735433599999,-34.269905021 143.72182150399999,-34.279458125 143.72044156800001,-34.281846142 143.71705872000001,-34.2876712 143.701041312,-34.316748519500003 143.70081632,-34.317182511 143.69454857599999,-34.329207640500002 143.69120563199999,-34.332345684499991 143.69112963200001,-34.332418685500002 143.68437584,-34.339803793 143.67209712,-34.348264953 143.669667328,-34.362459059500004 143.669656352,-34.362495060500002 143.66927932799999,-34.364336051 143.66922838400001,-34.364787081 143.6680544,-34.3675431 143.656823648,-34.374446245500003 143.65666166400001,-34.3745642385 143.655742688,-34.37523725 143.654044736,-34.376336279500002 143.65252076799999,-34.377634295 143.641968,-34.386822449500002 143.640941056,-34.387611456 143.640054048,-34.388157483500002 143.63650214399999,-34.390141516 143.63570012799997,-34.390568533 143.63518016,-34.390851527500004 143.63328620799999,-34.391942546499997 143.631065248,-34.393126583499999 143.62989625599997,-34.393880606499998 143.62933628799999,-34.394604604 143.62865529600001,-34.395103623 143.62838428800001,-34.395276635 143.626598368,-34.396403655 143.62408540800001,-34.397831688499998 143.62278544,-34.398514708500002 143.622515424,-34.398723703 143.62150947200001,-34.399467717500002 143.61937952,-34.401200760500004 143.61819155200001,-34.402287765 143.61772656,-34.402741773500004 143.616159584,-34.404029799 143.61329264,-34.406225823 143.614148736,-34.413225871500003 143.614160736,-34.413351875 143.61494880000001,-34.420000886 143.61565788799999,-34.4261459015 143.61576291200001,-34.4270919175 143.61575392,-34.428903918499998 143.615541984,-34.432645950500003 143.61541801600001,-34.434945963 143.61516704,-34.43630797 143.61389913599996,-34.4430580095 143.61385814400001,-34.443301025499999 143.61194928,-34.453255098499994 143.611939296,-34.453291099499999 143.61155331200001,-34.455618103500001 143.61052736,-34.456714136 143.60982636799997,-34.457574127 143.609049376,-34.458435154 143.60861737600001,-34.458905146500001 143.608240416,-34.459448158500003 143.60808041599998,-34.459900169 143.60791843199999,-34.460108164499999 143.60788643199999,-34.460153156499999 143.60756544,-34.460939166 143.606329504,-34.466183194500005 143.60539660800001,-34.471082235 143.60498764799999,-34.473212251 143.60494563200001,-34.473429256 143.602704832,-34.485862347500003 143.601024,-34.495877415 143.60086700799999,-34.496806448 143.60083702399999,-34.498485434 143.60081203199999,-34.499869437500003 143.60077104000001,-34.499944436500002 143.597831168,-34.504902492 143.59772214399999,-34.505041519499997 143.59762115199999,-34.5051895195 143.59753216,-34.505345511500003 143.59745414400001,-34.505506517 143.59738915200001,-34.505670519500001 143.59735516799998,-34.505779521500003 143.59732716799999,-34.505891520500001 143.59730416,-34.506004518499999 143.59724918399996,-34.50632950799999 143.59722019200001,-34.506526514500003 143.597212192,-34.506625508 143.59721017599998,-34.506723521 143.59721619199999,-34.506825511500004 143.5972272,-34.5069275205 143.59724419200001,-34.507029511 143.59726617600001,-34.507129522 143.59729417599999,-34.507227516500002 143.5975992,-34.507925521499999 143.600275232,-34.513832534500004 143.60110524800001,-34.515681535500001 143.60116124800001,-34.51618653 143.60125024000001,-34.517143535 143.601257248,-34.517349532499999 143.60124726399999,-34.517553532 143.60121328,-34.517782543500005 143.60116128000001,-34.518009538500003 143.60109328,-34.5182355345 143.60101529600001,-34.518457553 143.600930272,-34.518675557 143.600851296,-34.518863554 143.600763296,-34.519048554 143.60066928000001,-34.519229558 143.60056832000001,-34.519407546499991 143.60046131199996,-34.519580558500003 143.59682841599997,-34.524585622499998 143.59181456,-34.531595698 143.589078656,-34.53541975899999 143.58660576,-34.5388097915 143.58641177600001,-34.539110786500004 143.586120768,-34.539587809 143.58603977600001,-34.539726818 143.58596576,-34.539867806499991 143.58590076799999,-34.540012809499999 143.585860768,-34.540119813499999 143.585826752,-34.540228815500001 143.58579478399997,-34.540339815499991 143.5857648,-34.540450815500002 143.58569779199999,-34.540702804 143.5856288,-34.540986816 143.58555580800001,-34.5413488055 143.58550678399999,-34.541656830500003 143.58402102399998,-34.557725930499998 143.58365008000001,-34.561607933499999 143.583306112,-34.564183966 143.58327715199999,-34.564359956499999 143.58323715200001,-34.564535965499999 143.58318713599999,-34.564708959 143.583127136,-34.564878955499999 143.58305814399998,-34.565042976500003 143.58298713600001,-34.565177971 143.58289616,-34.56532697 143.58274115199998,-34.565567969500002 143.58271814400001,-34.565609983 143.58259113599999,-34.565789969500003 143.58249116799999,-34.565912976 143.58239516800001,-34.56601998 143.58218617599999,-34.566218984500004 143.58207619199999,-34.566313982 143.58196617600001,-34.566406001 143.581856192,-34.566492988 143.581744192,-34.566576996500004 143.581630176,-34.566658988500002 143.58151417600001,-34.566739001 143.58139916799999,-34.566817996 143.581093216,-34.567017999500003 143.5807792,-34.567206995500001 143.580461216,-34.567388018 143.58014121599999,-34.567567024 143.57948224,-34.567935007500004 143.578797248,-34.568305026 143.57845724800001,-34.568492042500004 143.57812028800001,-34.5686850345 143.577910272,-34.568810039 143.57770128000001,-34.56893706 143.57749328,-34.569065061499998 143.57728726400001,-34.569195061 143.57691228799999,-34.569438058500005 143.57687628799999,-34.569461054 143.576671296,-34.569597047500004 143.57646832,-34.569735057499997 143.57626832,-34.569878062500003 143.57607232000001,-34.570025063500005 143.575873312,-34.57018507 143.57568032,-34.570352069500004 143.57548630400001,-34.570519069 143.575299328,-34.570694079 143.575118336,-34.570873085 143.57497833599999,-34.571018088 143.57484134399999,-34.571166088 143.57470732799999,-34.571317085 143.574578336,-34.571471097500002 143.574454336,-34.5716290875 143.57430534400001,-34.571831089 143.57416137599998,-34.572038085500004 143.57402537600001,-34.572252112 143.57390038400001,-34.57247011599999 143.57379036799998,-34.572694114 143.57370038400001,-34.572908103499998 143.57362038400001,-34.573127106500003 143.57355036800001,-34.573351104499999 143.57349241599999,-34.573577100500003 143.573445408,-34.573804114 143.572534464,-34.577732145 143.572017504,-34.580072154500002 143.57189948800001,-34.580606157 143.571803488,-34.581465167499999 143.57122460799999,-34.586171197500001 143.57081961599999,-34.589622224500005 143.570639648,-34.591153229 143.56990275199999,-34.59724428 143.56927683200001,-34.602315296499995 143.569172864,-34.603164317 143.569010848,-34.604528303500004 143.56898684800001,-34.604730305 143.56859392,-34.608042323 143.56804198399999,-34.61235837299999 143.56802396800001,-34.612520359 143.56799897600001,-34.612845367 143.56798697599999,-34.613171374 143.56798697599999,-34.613354376 143.567992992,-34.613538358500001 143.56801401600001,-34.613904362500001 143.568049024,-34.6142993745 143.568071008,-34.614511366 143.56809801599999,-34.614722358500003 143.568130016,-34.614932370499993 143.568168,-34.615141365 143.568241024,-34.615466373 143.568328,-34.615789364499996 143.568428,-34.616109359 143.56854201600001,-34.616424358499998 143.568668,-34.616732365 143.569505056,-34.61933439 143.56995804799999,-34.620739391 143.57009008,-34.621164391500002 143.57012908799999,-34.621288378500005 143.570721088,-34.623190382 143.571204096,-34.624668384 143.57253913599999,-34.62874337899999 143.57256214399999,-34.628829385499998 143.57258214399999,-34.628915392 143.57259913600001,-34.62900237899999 143.57261212799997,-34.629090383499999 143.57262915199999,-34.629265393499999 143.57263315200001,-34.629440385 143.57262313599998,-34.629613378500004 143.57260012799998,-34.62976639199999 143.57256515200001,-34.629918388 143.57253216,-34.63002539199999 143.572265184,-34.630594378 143.57210899200001,-34.630926009 143.57164016,-34.631457403 143.5714432,-34.631681401 143.5713152,-34.631826404 143.56889225599997,-34.634066439500003</coordinates></LinearRing></outerBoundaryIs></Polygon>

	</Placemark>
</kml>