<?xml version="1.0" encoding="UTF-8"?>
<kml xmlns="http://www.opengis.net/kml/2.2">
	<Placemark>
		<Style>
			<LineStyle>
				<color>ff0000ff</color>
			</LineStyle>
			<PolyStyle>
				<fill>1</fill>
				<color>330000cc</color>
			</PolyStyle>
		</Style>
			<ExtendedData><SchemaData>
		<SimpleData name="STATE_2006">1</SimpleData>
		<SimpleData name="POA_2006">2411</SimpleData>
	</SchemaData></ExtendedData>
      <Polygon><outerBoundaryIs><LinearRing><coordinates>150.17933164799999,-29.451887195 150.17931961599999,-29.451060208 150.1794696,-29.449979197499996 150.17960060799999,-29.448943197500004 150.18004457599997,-29.446257201 150.180369536,-29.444354198499997 150.18058950400001,-29.443190197 150.18067849600001,-29.442365208 150.180728512,-29.441840196499996 150.18088950399999,-29.4415012025 150.18164246399999,-29.439993175 150.182775456,-29.438193180500001 150.1834864,-29.436940175499998 150.183764416,-29.436118183499996 150.18403001600001,-29.434739008499999 150.184158368,-29.434073175 150.18436739200001,-29.433310179500001 150.18449734399999,-29.432257178 150.184664352,-29.431748187499998 150.18508601600001,-29.4296429985 150.185532,-29.427421999500002 150.185742272,-29.426371181 150.18595100799999,-29.425196005499998 150.186764192,-29.420604194500001 150.18733312000001,-29.4177822045 150.18780009599999,-29.415582203 150.18821801600001,-29.413339004 150.188632,-29.411112991500001 150.18904601599996,-29.408886997499998 150.18942793599999,-29.406837234500003 150.189255936,-29.406348242500002 150.18926892799999,-29.405837235500002 150.18951900799996,-29.404624005499997 150.18997699199997,-29.402405004499997 150.19030582400001,-29.400812265500001 150.191180992,-29.396366993 150.19121078399999,-29.396215274500001 150.19210899199999,-29.391931007500002 150.192556,-29.3898009915 150.19297500799999,-29.387575996500001 150.19339168,-29.385366227 150.19358566400001,-29.38433722 150.19384700799998,-29.383131001500001 150.194399648,-29.380576207 150.19493062399999,-29.377851175500002 150.19501360000001,-29.377240176 150.19528099199999,-29.375550996499996 150.195502592,-29.374215167 150.195827584,-29.3735681665 150.19633856,-29.372793164500003 150.19657753600001,-29.372101153499997 150.19667456,-29.371021142 150.19694953600001,-29.369629146499999 150.197124992,-29.368800994 150.19759299199998,-29.366582992 150.19770748799999,-29.366040128 150.197849472,-29.365129132499998 150.198048992,-29.364365008500002 150.19826700799999,-29.363528993499997 150.19853699199999,-29.362152001499997 150.198972,-29.3599290045 150.199388384,-29.357810125500002 150.19982435200001,-29.355423126 150.20028236799999,-29.353551129499998 150.200287008,-29.353372993 150.20030233599999,-29.352812128499998 150.200557312,-29.352132124 150.200602336,-29.35171913 150.20060931199998,-29.35165512 150.20062432,-29.351521124499996 150.200693312,-29.350910125 150.20105529599999,-29.348793133 150.20153398400001,-29.346576999499998 150.20156,-29.346453993 150.20197100799999,-29.344355001500002 150.202404992,-29.342132004500002 150.20284,-29.339909007499998 150.20285718400001,-29.339823112 150.203276,-29.337598006 150.203696,-29.335372992500002 150.20394310399999,-29.334062101 150.20436,-29.331836995 150.20477801600001,-29.329611001 150.20483507200001,-29.3293071015 150.20521299200001,-29.327389003 150.205652,-29.325167005 150.20609100799999,-29.322945007 150.206129984,-29.322748111500001 150.206514016,-29.320719993499999 150.206936,-29.318495997500005 150.207356992,-29.316271002499999 150.20743488,-29.3158621155 150.20796585599999,-29.31248211 150.20836784,-29.310432106500002 150.208804,-29.3082089985 150.20924,-29.3059870005 150.20990976,-29.302576118499996 150.21030700799997,-29.300347997 150.21070601599996,-29.298120005 150.21150460800001,-29.293646113 150.21181763199999,-29.2920401095 150.21225657599999,-29.289626118499999 150.213196,-29.2851920015 150.213306528,-29.284532106499999 150.21342352,-29.284023116 150.21333750400001,-29.283451114499996 150.213115488,-29.282918111 150.21305648000001,-29.282546113 150.21315648,-29.282028113 150.213689472,-29.279299104 150.21388201600001,-29.278331998 150.21396700799997,-29.277634992 150.21481801600001,-29.273187 150.21609532799999,-29.266507131 150.217012,-29.262078009 150.217464,-29.259858009 150.21834700799999,-29.255414993500001 150.21869216,-29.253676141500002 150.21953715199999,-29.249379146499997 150.21968,-29.248774992 150.21976211200001,-29.248429153 150.219887008,-29.2480529925 150.22002310400001,-29.247643143499996 150.22006710400001,-29.247479141 150.220284096,-29.246310144499997 150.22043408,-29.245407141 150.220804,-29.243176004 150.22104505599998,-29.241721145500001 150.22120099200001,-29.240947993499997 150.22165100800001,-29.238727993499996 150.22194201599999,-29.237290155 150.22215401599999,-29.236215138499997 150.22237100800001,-29.235066991500002 150.222792,-29.232841996499999 150.22321299199999,-29.230618000500005 150.22327593599999,-29.230287146499997 150.223430912,-29.229148138499998 150.22358,-29.228386993 150.22390592,-29.22672314 150.22403699200001,-29.226167992 150.224408896,-29.224601153 150.22446688,-29.2238211375 150.224872,-29.221722997 150.2253,-29.2195 150.225728992,-29.217276004 150.226158016,-29.215053007 150.22645577599999,-29.213510162499997 150.22666976,-29.21211517 150.22782,-29.206153008499999 150.22813964799997,-29.204498165 150.22825299199999,-29.203929993 150.22861465599999,-29.202118158499996 150.22877561600001,-29.200771173499998 150.22915561600001,-29.199215157 150.229334016,-29.198570006500002 150.229940992,-29.196378996 150.230103552,-29.195793156500002 150.23022256,-29.195271160499999 150.230760992,-29.193065997499996 150.23080352,-29.1928931705 150.23088953600001,-29.191679163500002 150.23109500799998,-29.190837006500001 150.23136649599999,-29.189723158499998 150.231397504,-29.189298158 150.23154099199999,-29.188620003500002 150.23186646400001,-29.187085169500001 150.231984,-29.186399004500004 150.23228144000001,-29.184666165 150.23243644799999,-29.183762162500003 150.232678432,-29.1827601655 150.2327944,-29.181754172499996 150.2331864,-29.180037169 150.23333337599999,-29.179279168499999 150.23361699200001,-29.177814005499997 150.234048,-29.1755910085 150.23447900799999,-29.173367993 150.23474630399997,-29.171988170499997 150.23491001599999,-29.171145995 150.234994016,-29.170712003499997 150.235334016,-29.168921999 150.23580524799999,-29.166432158 150.235980256,-29.165818161499999 150.23606624,-29.165293168499996 150.236205216,-29.164096163 150.23659420800001,-29.162223167500002 150.23685318400001,-29.161193161500002 150.23697900799999,-29.160027994500002 150.23699398400001,-29.159890003 150.237555136,-29.156896166499997 150.23798611199999,-29.154815157 150.238023008,-29.154678997 150.23836112000001,-29.153440163 150.23845507199997,-29.1525261705 150.23876409600001,-29.151015164500002 150.23889801600001,-29.150305005 150.238928096,-29.150146164 150.239036064,-29.148751171500002 150.23924704000001,-29.1482761655 150.239294048,-29.147840157499999 150.23946601599997,-29.146671161 150.23963900800001,-29.145593166 150.23992,-29.144321994 150.23998297599999,-29.144037168 150.24094096,-29.138785166 150.24122700800001,-29.137361998 150.24163891200001,-29.13531316 150.241671008,-29.135140999 150.24209001599999,-29.132916004 150.24219990399996,-29.132332162499999 150.242485856,-29.130987157 150.24249401599999,-29.130693007 150.242499872,-29.130462164 150.24254684799999,-29.130026156 150.242724864,-29.129340157499996 150.24293283200001,-29.128215172499999 150.24302982399999,-29.127212158 150.243218816,-29.126135162 150.24343878400001,-29.124604157499999 150.24389676800001,-29.122751160500002 150.24417776000001,-29.120879164 150.24452172799997,-29.119279173 150.24479974400001,-29.118276158499999 150.24481872000001,-29.117540173 150.24499971200001,-29.116762174 150.24520268800001,-29.11585116 150.24525270399999,-29.115282174 150.24527801599999,-29.115125997 150.24537971199999,-29.114501159500001 150.24316073599999,-29.1142901855 150.242831008,-29.114236998 150.24126576,-29.1139821975 150.24027475199998,-29.11384021 150.24047177599999,-29.113018199500001 150.24071075200001,-29.111415193 150.24092473600001,-29.110112201 150.241221728,-29.10899321 150.241355008,-29.107986995 150.24166870399998,-29.106251195500001 150.24192166399999,-29.1047852 150.24213568,-29.104098202499998 150.24222166399997,-29.103485205 150.24234966399999,-29.102748202 150.24260764799999,-29.101673204 150.24281062399999,-29.100760210500003 150.24286563199999,-29.099982193 150.24296700799999,-29.099595006500003 150.24304662399999,-29.099293197499996 150.24319660800001,-29.098982194 150.24327961599997,-29.098501194 150.243335616,-29.097721197 150.24358860799998,-29.096990206499996 150.24359961599998,-29.096554198500005 150.24383500799999,-29.095176004 150.24385257599999,-29.0950731995 150.244244,-29.092949991499999 150.24463555200001,-29.090829225500002 150.244656,-29.090723997499996 150.24484649600001,-29.089748215 150.24498249600001,-29.0888792145 150.24533849599999,-29.088104194 150.24617446400001,-29.087340199499998 150.24655747200001,-29.086954197 150.246943456,-29.086354205 150.24718544000001,-29.085796208 150.247279456,-29.085057207 150.247292,-29.084598 150.247324448,-29.0833622 150.247408992,-29.082346994 150.24743241599998,-29.082060207 150.24756342399999,-29.081193204499996 150.24760240000001,-29.080804205 150.247615424,-29.080448209500002 150.24778601599996,-29.080138001499996 150.24815238400001,-29.0798932095 150.248213376,-29.079598208500002 150.24828236799999,-29.079248207 150.24834137600001,-29.07898621 150.24856838400001,-29.079018196499998 150.24983936,-29.079193206499998 150.25025334399999,-29.079250186500001 150.25170230399999,-29.07945019 150.252633312,-29.079631175499998 150.25260032,-29.079205176 150.25207830400001,-29.078318175 150.25158832,-29.077831181 150.25126230399999,-29.0773731765 150.25015331200001,-29.076400206 150.24979430400001,-29.075827205499998 150.249663328,-29.075340193 150.24967232,-29.075214208 150.249695328,-29.074881208 150.24982531199998,-29.074537200499996 150.249955328,-29.073850203 150.249987328,-29.073047210499997 150.25021427199999,-29.072302197 150.25063728000001,-29.071729196500002 150.25171126399999,-29.070553207 150.252035264,-29.069407206 150.25213222399998,-29.068490198 150.25193622399999,-29.06751621 150.25193523199999,-29.066685208500004 150.25219523199999,-29.066112208 150.25252022399999,-29.065596206 150.25265020800001,-29.0651952 150.25265020800001,-29.064679198 150.25235523200001,-29.063791198 150.25212723199999,-29.063447209 150.25183321599999,-29.062732202500001 150.251865216,-29.0625312 150.25199523200001,-29.062330197499996 150.252549184,-29.0618432035 150.25326518400001,-29.061383201 150.2533632,-29.061240196 150.253428192,-29.060982195 150.253405152,-29.060620205500001 150.25332915199999,-29.0601802015 150.25306819199997,-29.059693207499997 150.25251318399998,-29.059121206 150.25186118400001,-29.0586632015 150.251730176,-29.05837721 150.25169718399999,-29.057517200500001 150.25189318400001,-29.056942202 150.252348192,-29.056857194500004 150.25293516799999,-29.056972209 150.25316316799996,-29.057115195499996 150.253359168,-29.057602208 150.25381516799999,-29.058002196500002 150.253979168,-29.058346204 150.253979168,-29.058862206 150.25378416000001,-29.059463197 150.25375216,-29.059836194 150.25381715200001,-29.059979199 150.254013152,-29.060122185500003 150.25456716799999,-29.060150176 150.254991168,-29.060351178499999 150.255252128,-29.060350179499999 150.255480256,-29.060150213 150.25593411200001,-29.059089182500003 150.256162112,-29.058745175 150.256455104,-29.058487192499999 150.25704108799997,-29.0583431885 150.25792108799996,-29.058371160500002 150.258670048,-29.0581131595 150.258931072,-29.058112160500002 150.25912604800001,-29.058198167 150.25938707200001,-29.05842716 150.25938806400001,-29.059172173500002 150.25945404800001,-29.059258161500001 150.25978006400001,-29.059544153 150.26020304,-29.05965815 150.26049702399999,-29.059830144499998 150.260628032,-29.060288149 150.260628032,-29.060890139 150.26056304,-29.061234146499999 150.26059705599999,-29.061606144499997 150.26082502400001,-29.061921144 150.261281024,-29.062064149 150.261640032,-29.062064149 150.26206304,-29.061920145 150.262226016,-29.06177714 150.26242102399999,-29.061461123 150.26274598399996,-29.060745136 150.26294099199998,-29.060573123 150.263556,-29.060279121 150.263723008,-29.060200126 150.26424396799999,-29.060056122 150.26522096,-29.059969135 150.26636092799998,-29.059653118 150.26678492799999,-29.05962411 150.26705692799996,-29.0595351065 150.267534912,-29.059938110499996 150.267860896,-29.060425104499998 150.268122912,-29.06114111 150.26848188799997,-29.061685102499997 150.26893891200001,-29.062114099 150.26994889599999,-29.062744098 150.27056790399999,-29.062944083 150.27105673599999,-29.063000064 150.27157888,-29.062972092 150.27232787200001,-29.062827070500003 150.27284883199999,-29.062655076 150.27338284800001,-29.062382071499997 150.273825824,-29.062310069500004 150.27362982400001,-29.062167064499999 150.27369484799999,-29.061565074499999 150.273465824,-29.061250075 150.27326982399998,-29.060591068 150.2734968,-29.059875081 150.27385481600001,-29.059330071 150.27427776,-29.058957055500002 150.27552176,-29.058396061499998 150.27584073599999,-29.058182053500001 150.27613372799999,-29.058383056 150.27789369600001,-29.058782027 150.27903472,-29.058781028 150.27988166399999,-29.058522009499999 150.28076067200001,-29.058550018499997 150.28137964800001,-29.058435022499999 150.28177065599999,-29.058549019500006 150.28226464,-29.059035014500001 150.28196665600001,-29.059035014500001 150.281902656,-29.059351013 150.28203468800001,-29.06089802 150.28200268800001,-29.06150001 150.28245968,-29.061929025 150.282916672,-29.062100020499997 150.28340467199999,-29.062128011 150.28467564799999,-29.061754995499996 150.285685696,-29.061582039 150.2862816,-29.061589994 150.28676060800001,-29.061665992 150.28750956799999,-29.0616939825 150.28783558399999,-29.061578986500002 150.28838857599999,-29.061090975 150.28874656,-29.061004987 150.28904054399999,-29.061004987 150.29001856,-29.061776973500002 150.29027955199999,-29.061833953500003 150.290768544,-29.061833953500003 150.29093155199999,-29.06191996 150.29151856,-29.062634966499996 150.29191056,-29.062748963500002 150.29217056,-29.062748963500002 150.29265952,-29.062432965 150.293212512,-29.061916944500002 150.29373248,-29.061113952 150.293861472,-29.060368938500002 150.29408944,-29.060081948 150.294806464,-29.060081929500001 150.29545846400001,-29.060366922 150.29584944,-29.060394931 150.296012448,-29.060337932500001 150.29620742399999,-29.060165919500001 150.29685843199999,-29.059448933499997 150.297248384,-29.059361909500002 150.29744438399999,-29.0592189045 150.297508384,-29.058931914 150.29708339199996,-29.058101911499996 150.296887392,-29.057528911 150.29688640000001,-29.057127905 150.29708236799999,-29.056897913 150.29750521599999,-29.056839934 150.298418368,-29.0573549 150.29894035199999,-29.057468897 150.29913536000001,-29.057439907500001 150.29942835200001,-29.057267894500001 150.29988332799999,-29.056464883499999 150.300013312,-29.056350886500002 150.30037132800001,-29.056234891499997 150.300567328,-29.056234891499997 150.30105628799998,-29.056377896500003 150.30229328,-29.057342875 150.30294828799998,-29.057750874 150.303730304,-29.058007876 150.30408928,-29.058293867500002 150.30457929600001,-29.059095861 150.30487328000001,-29.059782877 150.30487430400001,-29.059982862 150.304776288,-29.060240863 150.30448432,-29.060699866500002 150.303866336,-29.061445860499997 150.303573344,-29.061961862499999 150.303574368,-29.062591861499996 150.30367334399998,-29.062821872 150.30386835199999,-29.062964877 150.30412934399999,-29.062963878 150.30507331199999,-29.062647861 150.30585632,-29.062818875 150.306475328,-29.062846847 150.30654032,-29.062960844 150.306410336,-29.063104848 150.30566131200001,-29.063534862 150.30563036800001,-29.064079872 150.305858368,-29.064336874 150.30608633599996,-29.064422862 150.30634732799999,-29.064422862 150.306477312,-29.064364846 150.30787833599999,-29.0643348575 150.30817228800001,-29.064391856 150.30836729599997,-29.064505853 150.30836832,-29.065078853499998 150.30846633600001,-29.065193849500002 150.30882528,-29.065393853 150.30951929599999,-29.065447836 150.30965728000001,-29.065481839 150.31035728000001,-29.065649837500001 150.31074828799998,-29.065964837 150.31104230400001,-29.066364825499999 150.311271296,-29.066565828 150.31179324799999,-29.066764814 150.312249248,-29.066678807500001 150.312834272,-29.066219822499999 150.31309523199999,-29.066132817 150.314040224,-29.066074801 150.31521318399999,-29.066273787 150.31576720000001,-29.066559797 150.31638819200001,-29.067389799500003 150.317041184,-29.068104769 150.317661184,-29.068677769500006 150.31808518400001,-29.0689347715 150.31942115199999,-29.068961763 150.319910144,-29.068702763 150.32013712,-29.068415754 150.32094908799999,-29.066580757500002 150.32117510399999,-29.065549752500001 150.321205088,-29.064231757 150.32136710399999,-29.063514752500001 150.321497056,-29.063285759500001 150.32198905600001,-29.062908748 150.32221305600001,-29.062711741500003 150.32263603199999,-29.0625677375 150.32351603199999,-29.062394744 150.324004,-29.062164733500001 150.32446,-29.062192742500002 150.325112,-29.062392727500001 150.32537299200001,-29.062219715499999 150.32546998399997,-29.062019712 150.32563097600001,-29.0609587185 150.32582598399998,-29.060528723 150.32595596799996,-29.060413727 150.32706294399998,-29.060039712499997 150.327322944,-29.0598107195 150.32742092800001,-29.059666715500001 150.327548896,-29.058520714499998 150.32832992,-29.0579466965 150.32855788800001,-29.057716704499999 150.32855686400001,-29.0572587 150.328131872,-29.056370718500002 150.32813088,-29.056170715 150.32829388799999,-29.055912714 150.32884688,-29.055510709 150.32920483199999,-29.055423703499997 150.32979184000001,-29.0554227045 150.33024784,-29.055508711 150.33063996800001,-29.055736705 150.3309008,-29.055965698 150.3314888,-29.056939686 150.3316848,-29.057368682499998 150.331945824,-29.057740680499997 150.33214182399999,-29.057912675 150.33237081600001,-29.057997682499998 150.33269580800001,-29.057997682499998 150.33308678399999,-29.057739681499999 150.33321676799997,-29.057538679 150.333475776,-29.056563692 150.33376777599997,-29.056305691 150.33415875200001,-29.056276683 150.33451776000001,-29.056361690499998 150.33473875199996,-29.056502660499998 150.33601571200001,-29.056130662499999 150.33640672000001,-29.0558716625 150.33650371199997,-29.055699668 150.33647068799999,-29.055355660499998 150.336241728,-29.055127666500002 150.33607872,-29.054812667 150.33607872,-29.054525658 150.33601270400001,-29.054325673 150.33558870399997,-29.053953656499996 150.33552272,-29.053838660499999 150.335555712,-29.053638657 150.33575072,-29.053379657 150.33601068799999,-29.053236670499999 150.33623868799998,-29.053236670499999 150.33636867199996,-29.0533216595 150.33672768,-29.053407666 150.337085696,-29.0532346725 150.33757465599999,-29.053205664500002 150.337965664,-29.05337666 150.339042624,-29.0542636425 150.339401632,-29.0543776395 150.3405736,-29.054203647 150.34099760000001,-29.054375641499998 150.34132358400001,-29.054431622500001 150.34164857600001,-29.054202629500001 150.34177856,-29.053743626 150.341809568,-29.0531996335 150.34223155199999,-29.052052633500001 150.34232854399997,-29.051966627 150.34255756799999,-29.051965628 150.34285052800001,-29.052108633 150.34311152000001,-29.052337626 150.34389452799999,-29.052823621 150.34487248,-29.053022607 150.345849504,-29.053020609 150.34637145600001,-29.053335608499999 150.346860448,-29.053506604 150.347479456,-29.053390609 150.34780544,-29.053390609 150.34796841599999,-29.053476597 150.348164416,-29.053647592500003 150.34832742399996,-29.053905593500001 150.34849142399997,-29.054421595500003 150.348492416,-29.054736595 150.348200448,-29.055596586 150.348201472,-29.055854587 150.34829945600001,-29.056197595500002 150.34859344,-29.056569593500001 150.34898544000001,-29.056740589 150.349180416,-29.056769597 150.34963744000001,-29.057055588499999 150.34983344,-29.057370588 150.349867424,-29.058086593500001 150.350194432,-29.058658558 150.350945408,-29.059374582 150.35117340799999,-29.0594315805 150.35205340799999,-29.059429564 150.35218339199997,-29.059372565500002 150.352826368,-29.058766561 150.35208336,-29.058025580500001 150.352049376,-29.057567576 150.35211436799997,-29.057423572 150.35227737599999,-29.057280567 150.352733376,-29.05719358 150.35305836800001,-29.057021567 150.353286336,-29.056820564499997 150.35400032000001,-29.055759552499996 150.35426134400001,-29.055529560500002 150.35439132799999,-29.055471563 150.35459529600001,-29.055494558500001 150.35491228800001,-29.055528561500001 150.35517331200001,-29.055728546499999 150.355500288,-29.056100563 150.35595731199999,-29.056357546499999 150.35618531200001,-29.056357546499999 150.35696627199999,-29.056184534499998 150.357390272,-29.056183535500001 150.35800928,-29.056325541500001 150.35885724799999,-29.056782528500001 150.35911824,-29.056982532 150.35925024,-29.057297531500001 150.35925024,-29.057527542 150.35905622399997,-29.058100542499997 150.35905622399997,-29.058300527499998 150.35925324799999,-29.058730523 150.35957923199999,-29.058959516 150.359905088,-29.059072477 150.36120921599999,-29.059271518500001 150.361600192,-29.059528520500002 150.36169820800001,-29.059786521500001 150.3616992,-29.060073512 150.361407232,-29.060732519 150.361408224,-29.061019509500003 150.36153923200001,-29.061276493 150.36163824,-29.061849493500006 150.36176915199997,-29.062049497 150.362062208,-29.062250499500003 150.36255120000001,-29.062220492499996 150.36284521599998,-29.0623925055 150.36352921599999,-29.062534493 150.36379020800001,-29.062705507 150.364378176,-29.063191483500006 150.364639168,-29.063564480500002 150.36484316799999,-29.064190483500003 150.36503216,-29.06450848 150.36522816,-29.064709482499996 150.36555516799999,-29.064909486 150.36588118399999,-29.064966484499998 150.36628816,-29.064837484 150.367607136,-29.06467646 150.367900128,-29.064446468 150.36803011199999,-29.064131468500001 150.36802809599999,-29.063701454499999 150.368450112,-29.062955460499996 150.36864611199999,-29.062754458 150.369036064,-29.062553455500002 150.37001206400001,-29.061892469 150.370273088,-29.061835470499997 150.37076204799996,-29.061891451499999 150.37105504,-29.062091436500001 150.37131705600001,-29.0624634345 150.371612032,-29.063294436 150.37207004800001,-29.063923436 150.37246105599999,-29.064295452499998 150.37282003199999,-29.064466429500005 150.373505024,-29.064580426500001 150.373668,-29.064436422499998 150.37369900799999,-29.0640644245 150.373764,-29.063978418 150.373862016,-29.063977419 150.37425401600001,-29.064292418500003 150.37445001599997,-29.064378425 150.37519897600001,-29.064348418 150.37536198399999,-29.064462433500001 150.375394976,-29.064777433 150.374972896,-29.065150448500003 150.374908,-29.065265426 150.374908,-29.065494419 150.375269024,-29.066582404 150.375856992,-29.067155404499999 150.376541984,-29.067497414 150.37693299200001,-29.067468406 150.37784496,-29.067237396500001 150.378463936,-29.067293396 150.37862694399999,-29.067436382499999 150.37902096,-29.068324382499998 150.37918496,-29.069212382499998 150.37934995200001,-29.069670387 150.37977395199999,-29.070214379499998 150.38003494399999,-29.070041367499996 150.380783904,-29.069782367499997 150.38149990400001,-29.069437361 150.382053888,-29.069436362 150.38260787199999,-29.069693364 150.38290188799999,-29.069950366 150.38316489600001,-29.070264348 150.38326188799999,-29.070523348 150.38375088000001,-29.070379344 150.383977856,-29.070206350499998 150.38456384,-29.069689349500006 150.385148832,-29.069058351500001 150.38566982399999,-29.068828359499999 150.38687478400001,-29.068682339 150.38755779199997,-29.068165338 150.38772080000001,-29.068165338 150.388959744,-29.068621326 150.39042672,-29.0686183105 150.39176371199997,-29.069189313 150.392742688,-29.069388299 150.39313068800001,-29.069254303499996 150.393328704,-29.0691862975 150.394823616,-29.068236304 150.395113632,-29.068120290500001 150.39685459200001,-29.067861272 150.39713760000001,-29.067860273 150.39811555200001,-29.0680312685 150.39879955200001,-29.068001261500005 150.39980953599999,-29.067827250500002 150.40032652799997,-29.067866267 150.400526528,-29.067911259 150.40072252799999,-29.068083253499999 150.40091952,-29.068369263499999 150.40095254400001,-29.068770251 150.401181536,-29.069142249 150.40178352000001,-29.069086231 150.40193049599998,-29.068883249 150.40212649599997,-29.069112242 150.402225504,-29.069427241500001 150.402225504,-29.069713233 150.40216153599999,-29.069885246 150.402194528,-29.070287232499997 150.40229254400001,-29.070458246499999 150.40255449599999,-29.070687239500003 150.40268451199998,-29.070744238 150.40366249599998,-29.070714212499997 150.40434547199999,-29.0704542135 150.40460646399998,-29.070482222499997 150.40506448,-29.070825212499997 150.40513046399997,-29.071312225 150.40525945599998,-29.071743219500004 150.40532745600001,-29.071971213499999 150.40549145599999,-29.072229214499998 150.40578547199999,-29.072514225500001 150.406503456,-29.072886205 150.40660147200001,-29.073000202 150.406569472,-29.073229195 150.40647145599999,-29.073344209500004 150.40627648,-29.073430197500002 150.40554745599999,-29.073536221 150.40510451199998,-29.073719223 150.40484348799998,-29.073949215 150.404584672,-29.074350239499999 150.40442348799999,-29.075211229500002 150.40474950399997,-29.075353217 150.40507651199999,-29.075725215 150.40524051200001,-29.076011206499999 150.40498150400001,-29.076814199 150.404950528,-29.077473206 150.40511452800001,-29.0779602 150.40531152,-29.078275199500002 150.40586649599999,-29.078761194499997 150.40612851200001,-29.079190209500002 150.40622649599999,-29.079534198499999 150.40622748799998,-29.079906196499998 150.406098528,-29.080279212 150.40538454399999,-29.081513199 150.40532054400001,-29.08205721 150.40541952000001,-29.082315211 150.405582528,-29.082458197499999 150.406234528,-29.082686191500002 150.406561536,-29.082972183 150.40685654399999,-29.083401179500001 150.40701952000001,-29.083544184500003 150.40799849599998,-29.084172185499998 150.40806451199998,-29.084316189500001 150.40809750400001,-29.084745186 150.40819651199999,-29.084946188499998 150.40839251200001,-29.085117165499998 150.40893148800001,-29.085234159500001 150.408992512,-29.085059168 150.40943548800001,-29.085086159500001 150.41080048000001,-29.085824161499996 150.411622464,-29.086343142 150.41243744,-29.086685151499996 150.41328544000001,-29.086913145499999 150.41472041599999,-29.086938120500005 150.41612137600001,-29.086821126499999 150.41674038400001,-29.086848118 150.41706636800001,-29.086934106 150.418307328,-29.0876191055 150.41912233599999,-29.0876461155 150.41956230400001,-29.0879350855 150.41961129599997,-29.087702096499999 150.419903296,-29.0874440955 150.420229312,-29.087328100500002 150.42065232,-29.087270084500002 150.42130524800001,-29.087354074500002 150.42166428799999,-29.087469089 150.42234828799999,-29.087467091 150.42257625600001,-29.08726607 150.42257625600001,-29.087180082 150.422379232,-29.086894090499996 150.42198726399999,-29.0864940835 150.42172528,-29.085950091 150.42152627199999,-29.084947095 150.42152524799997,-29.084603087499996 150.42175225599999,-29.084173092 150.42204524799999,-29.083915091 150.422468256,-29.0836841 150.4231192,-29.083110100499997 150.42376921600001,-29.082765094 150.42406217600001,-29.082449077 150.42406019200001,-29.081847087 150.42379718399999,-29.0811311 150.42379718399999,-29.080902088499997 150.42402419199999,-29.080587089 150.42454617600001,-29.080614080499998 150.425426144,-29.080813066499996 150.42594915199999,-29.081156075 150.42601414399999,-29.081270072 150.42601715199999,-29.082130081500001 150.425954144,-29.082904066 150.42634614400001,-29.083390079500003 150.426607136,-29.083532067 150.426966144,-29.083618055 150.427846112,-29.083587049 150.42826908800001,-29.083385066 150.42940707199998,-29.08246606 150.42966809599997,-29.082408062500001 150.42999408,-29.082408044 150.43051609599999,-29.082521042 150.431005056,-29.082721045500001 150.43152704,-29.082777045 150.43201606400001,-29.0827760275 150.432504032,-29.082603034 150.43276403199999,-29.082373042 150.43328201599999,-29.081197015500003 150.43380198400001,-29.080709022500002 150.43490896,-29.080105016 150.43533196800001,-29.079989021 150.436732928,-29.079756994 150.437351936,-29.079754996 150.43780892800001,-29.079841002499997 150.438036928,-29.079925991500001 150.43833088,-29.080154004 150.43855990399999,-29.080526002 150.438755904,-29.080727004499998 150.43918089600001,-29.080954998500001 150.43973488,-29.081096986 150.439995904,-29.081095987 150.44136387199998,-29.080748982500005 150.44299283199999,-29.080659960499997 150.44338380799999,-29.080371971 150.44351280000001,-29.080142959500002 150.443446784,-29.079712964 150.4436088,-29.079540969500002 150.44393478399999,-29.079367957500001 150.444324768,-29.079252961499996 150.44500876800001,-29.078906937500001 150.44627974400001,-29.078932948500004 150.446867712,-29.079246949 150.44807571199999,-29.080046926 150.448532672,-29.080446933 150.44944867199999,-29.081475903 150.44977568,-29.081732905 150.451309632,-29.082445895 150.45150563199999,-29.082617889499996 150.45153862399999,-29.0828468825 150.45147363199996,-29.083046886 150.451051648,-29.083563887 150.45124864,-29.083850896 150.45160662399996,-29.083820889 150.45216064,-29.083618887500002 150.45303961600001,-29.083559891 150.45336659200001,-29.083701897 150.45369360000001,-29.083958862 150.45408656000001,-29.084559871499998 150.454283584,-29.085161861499998 150.454708576,-29.0854468725 150.45542556800001,-29.0855028535 150.45578457600001,-29.085759855500001 150.45588256,-29.085959859 150.455821568,-29.087048843 150.45591958399999,-29.087249845500001 150.456148576,-29.087449849 150.45660553600001,-29.087705852 150.45699654399999,-29.087619845500001 150.45715852799998,-29.08747586 150.45715753600001,-29.087131852500001 150.45725555199996,-29.086959858 150.45741753600001,-29.0868448435 150.45780851200001,-29.086900824500002 150.45823369600001,-29.087186853 150.45829952,-29.087415827499999 150.458757504,-29.088073835500001 150.458758496,-29.088188831499998 150.45859651200001,-29.088560829499997 150.45863049600001,-29.088990825 150.45830454399999,-29.089256836500002 150.45788153599997,-29.089479835500001 150.457296544,-29.089939838 150.45680857599996,-29.09016983 150.45579859200001,-29.090344858499996 150.45560361599999,-29.090430846500002 150.45521360000001,-29.090803843500002 150.45531161599999,-29.091118843 150.45554060800001,-29.091462850499997 150.45593360000001,-29.091805859 150.45629260800001,-29.092004845 150.4565216,-29.092233838 150.4564896,-29.092520828499996 150.45606659200001,-29.092865853500001 150.45577459200001,-29.093295849 150.45571062400001,-29.093467843500001 150.45566163199999,-29.094078843 150.455745632,-29.094355843500001 150.45597462399999,-29.094584836500001 150.45848758400001,-29.095810813 150.458749568,-29.096010816500002 150.45894556799999,-29.096296808 150.45911056,-29.09681281 150.459144576,-29.097442809 150.45931158400001,-29.098502822 150.459279584,-29.098875819 150.45892259199999,-29.099248816 150.458694592,-29.0993068135 150.4580096,-29.099279822 150.45791161599999,-29.099394818 150.458076608,-29.099823814499999 150.45912259199997,-29.100881811 150.4594176,-29.101310789 150.45951660799997,-29.101911798500002 150.459484608,-29.102055802499997 150.459224608,-29.1023138035 150.45906160000001,-29.102371801 150.45805164800001,-29.10228881 150.45788864,-29.102374816499999 150.45779164800001,-29.102517821499998 150.45782464000001,-29.1027188055 150.457987648,-29.102918809 150.45906464000001,-29.103288790500002 150.45955561599996,-29.103631836 150.45984960000001,-29.103945799499996 150.45985059200001,-29.104346787 150.459720608,-29.104576797500002 150.45900464,-29.104950793499999 150.45864659200001,-29.105237784 150.458581632,-29.1053527985 150.458582656,-29.105639789 150.45871465600001,-29.105896791 150.458877632,-29.106068804 150.45917164799999,-29.106153793 150.45982364799997,-29.106152794 150.46099660799999,-29.106006773499999 150.46190956800001,-29.106004775500001 150.46217056,-29.1061187725 150.46233356799996,-29.1062897865 150.46233657599998,-29.107034781499998 150.46223856,-29.107149777500002 150.46168560000001,-29.107408777500002 150.4612616,-29.1075247725 150.46012262400001,-29.108128797500001 150.46002464,-29.108128797500001 150.459370624,-29.107471788500003 150.45881568,-29.107043791 150.45826166399999,-29.107158787 150.45800166399999,-29.107446795 150.45790470399999,-29.1077617945 150.45793868800001,-29.108133792500006 150.45823369600001,-29.108448810500001 150.45862467200001,-29.1086768045 150.45904966399999,-29.109076793 150.45944265599999,-29.109591796 150.45960665600001,-29.110049800500001 150.459608672,-29.110565802500002 150.45973968000001,-29.110880783499997 150.45990368,-29.111051779 150.46039366399998,-29.111308781 150.46098064,-29.11139377 150.46114364799999,-29.111335772500006 150.46140364799996,-29.11113477 150.46166262400001,-29.110589778500003 150.461759648,-29.110503772 150.46189062400001,-29.110503772 150.462250592,-29.110817754 150.4624456,-29.110902761499997 150.46456556799998,-29.111041733499999 150.46495657599996,-29.111126741 150.466100544,-29.1119547455 150.46659052800001,-29.112125741 150.46704649599999,-29.11221073 150.46763449599996,-29.112523713 150.46835552,-29.113696724 150.46904249599999,-29.114296697500002 150.46956448,-29.114610698 150.47041347199999,-29.114952707500002 150.47077043199999,-29.114493704 150.47090144000001,-29.1144357065 150.47116144,-29.1144357065 150.47201145599999,-29.114920684 150.47253344000001,-29.115004692499998 150.47318540800001,-29.114974685500002 150.47375542399999,-29.115187676 150.47485142400001,-29.116059673500001 150.475797376,-29.116314659 150.47628838399999,-29.116743674 150.47723436800001,-29.116941642500002 150.47747734399999,-29.116941642500002 150.477788352,-29.116940643500001 150.478049344,-29.116853656500002 150.47840633600001,-29.116566647499997 150.47899344000001,-29.11624965 150.47987232,-29.1159896325 150.480491328,-29.115959625499997 150.48101328000001,-29.116101631500001 150.48215929599999,-29.116768630500001 150.481998272,-29.117113637 150.48166128,-29.117724636499997 150.481583296,-29.1178766325 150.481380992,-29.118274993 150.48126131199999,-29.118755623 150.48091430400001,-29.119227632 150.480819328,-29.119430632500002 150.48080832,-29.119430632500002 150.48033936,-29.119444637 150.47967833600001,-29.119505631500001 150.479073344,-29.119538635499996 150.478375392,-29.119705653499999 150.47769836800001,-29.119783649499997 150.47710937599999,-29.119771643 150.47650041599999,-29.119971646500002 150.47583942399999,-29.1200496425 150.47512345600001,-29.120216660500006 150.474606432,-29.120280670499998 150.474000448,-29.120316671499999 150.47330646399999,-29.120258674 150.47263347200001,-29.120455680499997 150.47244848,-29.120510681 150.47151750399999,-29.120705689499996 150.47017852799999,-29.1208586845 150.46912553600001,-29.120930705 150.46805657599998,-29.1210306975 150.46716460799999,-29.121146729500001 150.46633660800001,-29.12143372 150.46562064,-29.121688724 150.464684672,-29.122063719 150.46288300800001,-29.122860995 150.462436704,-29.123058741499996 150.46110073599999,-29.123813763499996 150.46067699199997,-29.124010992 150.45840083199997,-29.125069784 150.45735683199996,-29.125574778500006 150.456114848,-29.126077775 150.455882016,-29.126215008 150.45490390399999,-29.126791801 150.45377392,-29.127249787 150.45254595200001,-29.12791982 150.45142899199999,-29.128444998 150.450062016,-29.129088835 150.44802608000001,-29.130010838 150.44588211199999,-29.1310968435 150.444115168,-29.131980866 150.44208220799999,-29.132902869 150.44011827200001,-29.1339028865 150.43953926399999,-29.134211892 150.43862131200001,-29.134699885 150.438193216,-29.134884866499998 150.43796531199999,-29.134971909 150.43737932799999,-29.1352029 150.43647932799999,-29.135621906500003 150.435724384,-29.1359969015 150.43465740799999,-29.136594914 150.433507424,-29.137083924500001 150.43237142399997,-29.1376779225 150.431204,-29.138245003 150.42990451200001,-29.1388029445 150.42884652800001,-29.139127952499997 150.42814352,-29.139413944 150.42732156799997,-29.139624955 150.42646256,-29.139741967500001 150.4255016,-29.139724966 150.42455763199999,-29.139749978 150.42440300800001,-29.139746999500002 150.423562624,-29.139730978500001 150.422707648,-29.139744983 150.421836,-29.139707002499996 150.42155164799999,-29.139694996 150.420593696,-29.139583996 150.41977968,-29.139433998 150.419320992,-29.139295007499999 150.41903772799998,-29.139209001 150.41845472,-29.139017026499999 150.41778572800001,-29.138750016 150.417171744,-29.138378018 150.417032992,-29.138300003499999 150.416610752,-29.1380640175 150.416024768,-29.137920032 150.415460768,-29.1377860365 150.41483779199999,-29.137731036 150.414592,-29.137694998 150.41412678399999,-29.137628028 150.413435808,-29.137522041500002 150.41269081600001,-29.137464062500001 150.412051808,-29.137375059 150.41127184,-29.137317061499996 150.40999299200001,-29.137138999 150.40937187200001,-29.137053066499998 150.408801888,-29.137042077499999 150.40788291199999,-29.136859075500006 150.40746,-29.136809995 150.40696092799999,-29.136753089 150.40594995199996,-29.136597097 150.404918944,-29.136486097 150.40379996799999,-29.136389101500001 150.40142502399999,-29.136028129499998 150.40050204799999,-29.135936129 150.39979104,-29.135922124500002 150.39879708799998,-29.135811143 150.397944064,-29.135750148500005 150.39726912,-29.135692151 150.39627712000001,-29.135447155500003 150.39553315199998,-29.135403162500001 150.39445014399999,-29.135200162 150.39386617599999,-29.135145161499999 150.39301318400001,-29.135084185500002 150.39208819199999,-29.1349751835 150.391116192,-29.1347921815 150.39019123200001,-29.134772201500002 150.38925222399999,-29.134575195 150.38840025600001,-29.134467210500002 150.387583264,-29.1344222 150.38643030399999,-29.134264228500001 150.38554131199996,-29.134200218500002 150.38479734399999,-29.134142221 150.38401632,-29.133947231 150.38343632,-29.133725231 150.383061376,-29.133717239 150.38256137600001,-29.133797233 150.382080352,-29.133834233 150.38142540800001,-29.133731262 150.380788384,-29.133584261 150.38000540799999,-29.133492260500002 150.379350432,-29.133389252500002 150.37848342399997,-29.133192283 150.377561472,-29.13308428 150.37637244800001,-29.132895284 150.37511648,-29.132645293500001 150.37375052799999,-29.1324533005 150.37279152,-29.132345316 150.37201654399999,-29.132103317499997 150.37096956799999,-29.131917318499998 150.37020857600001,-29.131767339 150.36962259200001,-29.131711339500001 150.367772992,-29.131552998 150.365216992,-29.131333995 150.365058688,-29.131320342 150.36012579199999,-29.130742383499999 150.35893676800001,-29.130672379499998 150.35794480000001,-29.130489414500001 150.3567168,-29.130420409499997 150.35549484799998,-29.130214430499997 150.35423388800001,-29.130100433499997 150.35355888000001,-29.130056422 150.35300592,-29.130146424500001 150.35289792,-29.130164425 150.352390912,-29.130329445 150.35237792000001,-29.13033444 150.35183689600001,-29.130622448 150.35124195200001,-29.130867443499998 150.35088892799999,-29.13095345 150.35072294400001,-29.130992448 150.350311936,-29.131028449 150.349761984,-29.130972449499996 150.34899798399999,-29.1310034555 150.347576,-29.130884463499999 150.34679504,-29.130825485499997 150.346173024,-29.130767488 150.34590902400001,-29.130709472 150.345542048,-29.130636489500002 150.34491401599999,-29.1305310025 150.34434505600001,-29.1306114775 150.34382310399999,-29.130753502 150.343481088,-29.130814496499998 150.34330611199999,-29.130845502500001 150.34306601599999,-29.130944995500002 150.34289209600001,-29.131017497 150.34262009599999,-29.131064505499999 150.34225612799997,-29.131059492 150.34184512,-29.130906497 150.34144214399998,-29.1306724905 150.34103712000001,-29.130500514499996 150.340695168,-29.130584523 150.34041715199999,-29.130353513500001 150.33990816,-29.130221516 150.339851168,-29.130206512500003 150.33970416,-29.130181519 150.33933715200001,-29.130120524499997 150.338937184,-29.129842525 150.338364192,-29.1296245395 150.338353184,-29.129620543500003 150.338342208,-29.129619544500002 150.3378192,-29.129563545 150.33730624,-29.129509543499996 150.33693123200001,-29.1294755405 150.336081216,-29.129395546499996 150.33540300799999,-29.129517998 150.334664256,-29.129803545499996 150.33428428799999,-29.130095549499998 150.33393728,-29.130447549 150.334551296,-29.130761549499997 150.335181248,-29.1311645535 150.33568425600001,-29.131700535500002 150.33597324799999,-29.1321865305 150.33613427200001,-29.132836528 150.336251264,-29.133464529 150.336306272,-29.133756533 150.33668425600001,-29.134981529 150.33714524800001,-29.135817525500002 150.33764227200001,-29.136472518 150.338701216,-29.137592526500004 150.339309216,-29.138084497 150.34074220799999,-29.139103495500002 150.34117619200001,-29.139547477 150.3422392,-29.1404424885 150.3428512,-29.140889485500004 150.34332016,-29.141334484499996 150.34375315200001,-29.141822459 150.34414816,-29.1423594585 150.34466716799997,-29.142970458 150.345309152,-29.143642470499998 150.34600899200001,-29.144092002 150.347953088,-29.145259444500002 150.34874201599999,-29.145756003 150.34951408000001,-29.146161430500001 150.35093408,-29.14701441 150.352520032,-29.147692398 150.35403401600001,-29.148295387 150.35512601600001,-29.148842395 150.35615897599999,-29.149461368 150.357292,-29.150355991 150.358224,-29.151384998 150.35833094399999,-29.151503342499996 150.359757952,-29.152739346 150.360036928,-29.152981344500006 150.36049500799999,-29.153490002 150.36083395200001,-29.153867328 150.36146192,-29.154436332500001 150.362263904,-29.155067330500003 150.36273091199999,-29.155589326499999 150.36346390400001,-29.156128305499998 150.36414188799998,-29.156759322 150.36454486400001,-29.15706731 150.36501388799996,-29.15751131 150.36526387200001,-29.1580863085 150.36528486399999,-29.158152316500001 150.36539788799999,-29.158511290500002 150.365472864,-29.159084291 150.365369888,-29.159561295 150.36528688000001,-29.159997303 150.36520886400001,-29.160339294 150.365302912,-29.160778299 150.36531299200001,-29.1613490055 150.365356,-29.163603008500001 150.36536099199998,-29.1636440045 150.36553392,-29.165050300499999 150.36561193599999,-29.166178301 150.365711936,-29.167128276 150.36587593600001,-29.167611274 150.36622294399999,-29.1687452685 150.366644928,-29.1702892785 150.366905952,-29.171239272 150.36709193600001,-29.172247263 150.36715593599999,-29.172642256499998 150.36726694399999,-29.173122257499998 150.36743094400001,-29.173653263 150.36768393599999,-29.17418425 150.36851692799999,-29.175809253 150.37111193600001,-29.180156216500006 150.371276,-29.180445001500001 150.37182793599999,-29.181403227500002 150.37205289600001,-29.181617217 150.37242592000001,-29.181714212500001 150.37282790399999,-29.181978226 150.373227904,-29.182378196 150.373412992,-29.182459004 150.373772992,-29.182613997 150.37481388800001,-29.182981203500002 150.37557587200001,-29.1831312015 150.37628384000001,-29.1832641795 150.377128,-29.183669995499997 150.377833856,-29.184000183500004 150.37809299200001,-29.184204997 150.378338816,-29.184400172 150.37877280000001,-29.184875159499999 150.379291808,-29.18541116 150.38033382399999,-29.186514167 150.38142579199999,-29.187634138499998 150.38214476799999,-29.188820155 150.38263078400001,-29.189956129 150.38319177599999,-29.191064131 150.38298,-29.191622997500001 150.382638816,-29.192525131500002 150.38208083200001,-29.194075135499997 150.38174185599999,-29.195586123 150.38179184000001,-29.196414127500006 150.38200284799998,-29.197200137 150.382313856,-29.198214122 150.383242016,-29.200276002499997 150.38337785600001,-29.200578107499997 150.38401184,-29.201553113 150.38474784,-29.201959095500001 150.38559481600001,-29.202275094 150.38585580799997,-29.202550096500005 150.3862168,-29.203039088499999 150.38665280000001,-29.203436098499999 150.38626982399998,-29.203731099499997 150.38605283199999,-29.204642095 150.385796,-29.2054900055 150.385566848,-29.206242086 150.38516688000001,-29.207270094 150.38588688,-29.20836707 150.386061888,-29.2091970725 150.38603388799999,-29.210247077 150.38608387199997,-29.211075081499999 150.38658086399997,-29.211867066500002 150.38890899200001,-29.215659992 150.39012784,-29.217645042 150.39190585599999,-29.220542012500001 150.39208883200001,-29.220839011500001 150.39238700799999,-29.221339991499999 150.393575008,-29.223339009 150.39379785599999,-29.223714004 150.394572,-29.225416004 150.39489481599998,-29.226124998 150.39511382399996,-29.226564003 150.39513884799999,-29.226999992499998 150.39530880000001,-29.227349975500001 150.39546201600001,-29.227492 150.395638816,-29.227655984 150.39562284799999,-29.228360982 150.39580284799999,-29.228877983 150.396505824,-29.229985985 150.39686380800001,-29.230685988 150.39718880000001,-29.231216956500003 150.39821980799999,-29.231927967 150.398800768,-29.232210961499998 150.399341792,-29.232733956500002 150.399691776,-29.233358942 150.39978377599999,-29.233521945500001 150.40019177600001,-29.234280945 150.400456,-29.234564994 150.40076377599999,-29.234894941499999 150.40193398400001,-29.236409 150.402169792,-29.236713917 150.40243376000001,-29.2368639335 150.40256176,-29.237063918500002 150.40255574400001,-29.237363933 150.40277776,-29.2377139345 150.40322976,-29.237804917499997 150.40325574400001,-29.23781093 150.403516,-29.237911995499999 150.403627744,-29.237955933 150.40388073599999,-29.238485921 150.40407574400001,-29.239224903500002 150.40439776,-29.239877898 150.40492774399999,-29.240713913 150.40555273599998,-29.241388904 150.40638870399999,-29.242185884 150.40726172800001,-29.242849886 150.407927712,-29.243296883 150.40833068799998,-29.2435608965 150.40960268800001,-29.244683865 150.411122656,-29.245883849 150.41208700799999,-29.246595007499998 150.41229164800001,-29.246852860500006 150.41228665599999,-29.247169858 150.41206364799999,-29.247419848500005 150.41193664,-29.247596856499996 150.41193065600001,-29.247808848 150.41227500799999,-29.248429005 150.413838016,-29.250984003 150.414705664,-29.252096833500001 150.41483401599999,-29.252386007 150.41484166399997,-29.252755840499997 150.41464166399999,-29.253263832 150.41423868800001,-29.253869836500002 150.41376169599999,-29.254074835 150.41320268800001,-29.254105841 150.413216,-29.254426002 150.41322300799999,-29.254592002500001 150.41336172800001,-29.255208829500003 150.41426169600001,-29.256308839500004 150.41464768,-29.257141820499996 150.41496969600001,-29.257760812 150.41536169599999,-29.25828081 150.41587568,-29.258646814 150.416550688,-29.258746806500003 150.41720566399999,-29.258888794 150.41755465599999,-29.2591317915 150.41783664,-29.259327799 150.41826364799999,-29.259819788 150.41869465600001,-29.260185792 150.419027648,-29.260405794 150.41973660799999,-29.26041978 150.419802624,-29.260413786 150.42055062399999,-29.260349776 150.42148057599999,-29.2603247825 150.4222256,-29.260252780499997 150.422444576,-29.260316772 150.422591584,-29.260430750499999 150.4235856,-29.261535755500002 150.42385859199999,-29.261838767 150.425025568,-29.263171747499996 150.425663552,-29.263969745 150.427163552,-29.265480732499999 150.42822252799996,-29.266496715500001 150.428684992,-29.267000008 150.43030099200001,-29.268753993 150.431916,-29.270508995499998 150.43205500799999,-29.270659992499997 150.432350496,-29.271052692 150.43243248,-29.271466685 150.43243849599997,-29.271496692 150.432361536,-29.271963687500005 150.43232752,-29.273233694 150.43226352,-29.274885688499996 150.43223798400001,-29.275524993 150.43248054399999,-29.275930679499997 150.433036512,-29.276069688500002 150.43358601599999,-29.2763130005 150.43373852799999,-29.276380692 150.43410252799998,-29.276658673 150.43427552,-29.277174675 150.43438352000001,-29.277577660499997 150.43443852799999,-29.2780466725 150.43465500799999,-29.278221997 150.434838528,-29.278369664 150.43510451200001,-29.278498664499999 150.435388512,-29.278635675500002 150.43597699200001,-29.278774999 150.436863488,-29.279191656 150.43693100799999,-29.2792290075 150.43749750399996,-29.279546652499999 150.43802550399997,-29.280041657 150.43890547199999,-29.280658632 150.43791900799999,-29.2816419995 150.43692752000001,-29.282671654 150.432950624,-29.286941657500002 150.43151868800001,-29.288540668 150.42935072,-29.290963687 150.42911974399999,-29.291399676499999 150.429136736,-29.291999687 150.42926300799999,-29.292463001 150.42986201599999,-29.294655991 150.43043875199999,-29.2967716695 150.43045577599997,-29.297383668 150.43036979199999,-29.298166662 150.43014499200001,-29.299082005 150.42995580799999,-29.299855675 150.429613824,-29.301288666499996 150.429486016,-29.301396003500003 150.42892284800001,-29.301871675499996 150.42854185600001,-29.302308664 150.42845884799996,-29.3028746715 150.42822588799999,-29.3034276735 150.42765286399998,-29.304030681 150.42699792,-29.304458678499998 150.42640300799999,-29.304783002 150.42455795199999,-29.305789698 150.42454793600001,-29.305794711500006 150.424215008,-29.305969 150.42310899200001,-29.306549992500003 150.42213100800001,-29.3070999975 150.42202899199998,-29.307157995 150.41986700800001,-29.308379994 150.41930099199999,-29.308700007 150.41654512,-29.309999743 150.41259222400001,-29.311833759 150.41214224,-29.312166759 150.41156726400001,-29.312855773 150.41081225599999,-29.31336678 150.409976288,-29.313649774499996 150.40882028799999,-29.313841786 150.40840432,-29.313631792500001 150.40820332800001,-29.313530801 150.40722832,-29.313269803 150.40635136,-29.313166795 150.405506368,-29.313163816500001 150.404945344,-29.313238815500004 150.40200342399999,-29.3125838415 150.40033945600001,-29.312208828 150.399512448,-29.312191845 150.398981472,-29.312438857 150.39827648,-29.312169848500002 150.39763449599999,-29.311636845 150.39439651199999,-29.30993688 150.39371056,-29.309650888500002 150.39354656,-29.309278890499996 150.39321955200001,-29.308877884499999 150.39289254400001,-29.308820886 150.39276256,-29.308849894 150.392500544,-29.308735897 150.39204256,-29.308105879499998 150.39184656,-29.3079339035 150.39151955200001,-29.307761909 150.390801568,-29.307734899 150.390082592,-29.307820905500002 150.38884160000001,-29.307678918 150.38857961599999,-29.307507922499997 150.388448608,-29.307134925500002 150.38835062399997,-29.307048919 150.387696608,-29.3067639265 150.387435616,-29.306706928 150.38727264,-29.306734918500002 150.38720764799999,-29.306821924 150.38720764799999,-29.307394924499999 150.387077632,-29.307537929500004 150.38681564800001,-29.307451923 150.38622764799999,-29.306993937 150.386031648,-29.306908948 150.38576963199998,-29.306908948 150.38544368000001,-29.307109950499996 150.38459568,-29.307798946 150.38377971200001,-29.308543941 150.38351971200001,-29.309031952499996 150.38257372800001,-29.310464962499996 150.382410752,-29.310894958 150.38135376,-29.312395955499998 150.381139808,-29.312701964 150.38091081600001,-29.3129019675 150.38029081600001,-29.313131959500001 150.37996384,-29.313304971500003 150.37989884800001,-29.313418968499999 150.379800832,-29.313418968499999 150.37924582400001,-29.313677968499999 150.37888684799998,-29.313677987 150.378494848,-29.3134779835 150.37823385599998,-29.313420985 150.37787385599998,-29.313420985 150.377383872,-29.313507972 150.37656787200001,-29.313479981500002 150.375031904,-29.312679005500001 150.37480291200001,-29.312622007 150.374410912,-29.312650996499997 150.374051936,-29.312908997499999 150.37375792,-29.313023993500003 150.372745952,-29.313197024 150.37218995200001,-29.313197024 150.37133996799997,-29.312894012499999 150.37104816,-29.313313019 150.37082,-29.313972026 150.370852,-29.314259016499996 150.37114700800001,-29.314717021 150.37131100799996,-29.315261013500002 150.37131100799996,-29.315720017 150.37118099200001,-29.316178021500001 150.37105100799999,-29.316379024 150.37030003199999,-29.317010022 150.36977801599997,-29.317240014 150.36820604799999,-29.317755035499999 150.36778608,-29.317987044 150.367721088,-29.318273035499999 150.36795008000001,-29.318645033500001 150.36850608,-29.319132027500004 150.36860409600001,-29.31933303 150.36860508800001,-29.319849032 150.36837708799999,-29.320393043 150.36838809599999,-29.320579042 150.36788713600001,-29.321110029 150.36664816000001,-29.322973034499999 150.36622416,-29.323432038 150.36580016,-29.3237480365 150.36534217600001,-29.323777063 150.36508118399999,-29.323720046 150.3636752,-29.3230620565 150.36331622399999,-29.323034047500002 150.36299020799999,-29.323149062 150.36292422400001,-29.323234051 150.36292521600001,-29.323406064 150.36338220799999,-29.324036063 150.363448224,-29.324352061500001 150.36341622399999,-29.324524056 150.363253216,-29.324753049 150.36271324800001,-29.325227056 150.36253424,-29.324926061 150.36259923200001,-29.324295063 150.362500224,-29.323980063500002 150.36233721599996,-29.323722081 150.36187926400001,-29.323321075 150.361487264,-29.323179069 150.36096425599999,-29.323179069 150.36050726400001,-29.323380071500001 150.36014729600001,-29.323653076 150.359724288,-29.324011069500003 150.35923427200001,-29.324556098 150.35900627199999,-29.324499099499999 150.358777312,-29.324327086499999 150.35861430400001,-29.324327086499999 150.35854832000001,-29.324384085 150.35858131200001,-29.324699084499997 150.358451328,-29.3248430885 150.35806832,-29.3250351 150.35799430399999,-29.3250721 150.357373344,-29.325159087 150.35662233599999,-29.325131096499998 150.35629536,-29.325217103 150.35609936,-29.325561110500001 150.35597036799999,-29.326392112 150.35554537600001,-29.326765109 150.35521939200001,-29.326909113 150.3547624,-29.327024109 150.3537824,-29.327082106499997 150.35286745600001,-29.327226129 150.35188745599999,-29.327226129 150.35139744,-29.327125137500005 150.35018748799999,-29.326339146500004 150.34974732800001,-29.326367155500002 150.349012512,-29.326999152500001 150.34822851199999,-29.327458156 150.34786953599999,-29.327774154500002 150.34728252799999,-29.328433143 150.346335584,-29.329265162 150.345323616,-29.329925168 150.34496460799997,-29.3300971625 150.3442136,-29.330327173 150.34388662399999,-29.330298165 150.34355964799997,-29.330155178500004 150.343265632,-29.330127188 150.343119648,-29.330226181500002 150.34295763199998,-29.3304521775 150.34261264,-29.3307001885 150.34271168000001,-29.331331186500002 150.342678656,-29.33153119 150.34254867199999,-29.331646186 150.34222166399996,-29.331646186 150.34182966399999,-29.331474191499996 150.341633664,-29.331274188 150.341338656,-29.330787175499999 150.34117568,-29.330271192 150.340880672,-29.330042180500005 150.340652672,-29.330042199 150.34042371199999,-29.3301292045 150.34012969599999,-29.330387205499999 150.33977068799999,-29.33084521 150.33915072,-29.331390201499996 150.338595744,-29.331649201499996 150.337752768,-29.331895196 150.33732176000001,-29.331592221499996 150.33712576,-29.331277222 150.33676576,-29.330962222500002 150.336210752,-29.330815221499996 150.33473980799997,-29.330705220500001 150.3337928,-29.330505235499999 150.33300883199999,-29.330449236 150.332485824,-29.330477245 150.33219184000001,-29.330564232 150.33166985599999,-29.330908239500001 150.33052585600001,-29.331195267 150.329055904,-29.331311262 150.32696592,-29.331312279500001 150.326671968,-29.3311972835 150.32640995199998,-29.330796277499999 150.32640995199998,-29.330567284500003 150.32686691200001,-29.330080272 150.32689993599999,-29.329879269500001 150.32683392000001,-29.329822271 150.32653993599996,-29.3297942805 150.32621395199999,-29.329937285500002 150.32571795199996,-29.330429293 150.324712,-29.331141302500001 150.32461398399997,-29.3313993035 150.32461398399997,-29.331915287 150.324352992,-29.332431289 150.324124,-29.3326312925 150.32389603199999,-29.332717299 150.32343900800001,-29.332718298 150.32285100799999,-29.333578289 150.32245904000001,-29.333922296500003 150.32210006399998,-29.33406532 150.32190406399999,-29.33406532 150.32141404800001,-29.333922315 150.32101907200001,-29.333923314 150.32071296,-29.334009339 150.31965008,-29.334554312 150.31947811200001,-29.33460034 150.318899104,-29.334755333 150.318540128,-29.334955336500002 150.31818112,-29.335643333 150.31741014400001,-29.335956334500001 150.31710313599999,-29.335529336 150.31710214399999,-29.335214336500002 150.316874144,-29.33507135 150.31677616,-29.33507135 150.31615513599999,-29.335644350500004 150.31599219200001,-29.335730357 150.31560019200001,-29.335731356 150.31527318400001,-29.335645349500002 150.31514217599999,-29.335530353499998 150.314848192,-29.334986342499999 150.31465219200001,-29.334814348 150.31442316799999,-29.334699370500001 150.31406419199996,-29.334700369500002 150.3134112,-29.335015369 150.312790208,-29.335502363 150.31233321600001,-29.335732373499997 150.31128825600001,-29.336449396499997 150.31096124799998,-29.336592383 150.31040627199999,-29.336736387 150.30978528,-29.336736387 150.30926326400001,-29.336822412 150.30893628800001,-29.336937408 150.30841331199997,-29.337310405 150.30805430399997,-29.337424402 150.30749929599997,-29.337310405 150.307074304,-29.337110401500002 150.306813312,-29.337052404 150.30632332799999,-29.33711042 150.30566934399999,-29.337339431500002 150.30475536,-29.337541433 150.30410137600001,-29.337541451500002 150.303350368,-29.33731244 150.3020104,-29.337398446499996 150.301684416,-29.337341466499996 150.300997408,-29.337026467 150.30018144,-29.336998458 150.29952742399999,-29.336855453 150.29874342399998,-29.336425476 150.29848243199999,-29.336368477500002 150.297397472,-29.336422479 150.29722448000001,-29.336372473500003 150.297273472,-29.336970486 150.29740448000001,-29.337228487 150.29773145600001,-29.337629474500002 150.29769846400001,-29.337772479499996 150.29737145600001,-29.338116487 150.29737145600001,-29.338231483 150.29809145600001,-29.338890471500001 150.29802649600001,-29.3402084855 150.29818950399999,-29.340494477 150.29841849600001,-29.340695479500003 150.29887545599996,-29.340866456500002 150.29988848,-29.340866456500002 150.29979046400001,-29.341095468 150.29956147199999,-29.341267462499999 150.299333472,-29.341353469 150.29923545599999,-29.341468465 150.29926848,-29.341754456500002 150.299333472,-29.341869471 150.29972547200001,-29.342127453500002 150.29979145600001,-29.342270458499996 150.299660512,-29.342872467 150.299693504,-29.34338747 150.29988947199999,-29.343788457500004 150.300706496,-29.344934458500003 150.30087049599999,-29.345966444 150.301001504,-29.346224445 150.301001504,-29.346653441499999 150.30090348799999,-29.346940450499996 150.30090348799999,-29.347226442 150.30096950399999,-29.347427444499999 150.30123049599999,-29.34785744 150.30155750399999,-29.34814345 150.302047488,-29.348401451 150.302080512,-29.348573445500001 150.302015488,-29.348888445 150.30214649600001,-29.349232452499997 150.30227651199999,-29.349260443 150.302376512,-29.349442446 150.30227548799996,-29.349570447500003 150.301666528,-29.350170439500005 150.301172544,-29.350945441500006 150.30069456000001,-29.351761439500002 150.30037856000001,-29.352795441499996 150.299619584,-29.355872454 150.29944460799999,-29.356736459500002 150.29936700799999,-29.357206008 150.299303616,-29.357647455 150.29909801599999,-29.358132007 150.29867264000001,-29.359072454499998 150.29844166399999,-29.3595394685 150.29805865599999,-29.359886454499996 150.29650368,-29.361153482500001 150.29600070399999,-29.361628488499999 150.29539772800001,-29.362042481500001 150.294672736,-29.362556485500004 150.29413376,-29.363159493 150.29324774400001,-29.36405049 150.293050784,-29.364434494499996 150.292883776,-29.364956490499999 150.29298979199999,-29.365486497 150.293275776,-29.366189497 150.2942008,-29.3676754725 150.294558784,-29.368211473 150.29466179199997,-29.3687844735 150.2947448,-29.369425498499997 150.29447577600001,-29.370075496 150.29424179200001,-29.370514501 150.293614816,-29.371284526500002 150.292808992,-29.371882002500001 150.29269782399996,-29.371964531 150.29205881600001,-29.372509541 150.29123686400001,-29.372889549500002 150.29070201600001,-29.373141001500002 150.29036185599998,-29.373300545499998 150.28938988799999,-29.373636579500001 150.28857289600001,-29.373789574500005 150.288275008,-29.373862002 150.28710892800001,-29.374145588499999 150.28597593599997,-29.374736589499999 150.284761952,-29.375236607499996 150.28352598399999,-29.375911635500003 150.282304,-29.376711631 150.28188700799998,-29.377047646499996 150.281656,-29.377439643 150.28142902399998,-29.377778655500002 150.28107302399997,-29.37838466 150.28053705599999,-29.378800669500002 150.280226048,-29.3790646645 150.27996204799996,-29.379445672 150.279654048,-29.379650689 150.27939004800001,-29.379959676 150.27849206400001,-29.381239709500001 150.27734809599997,-29.382342716499998 150.27689209600001,-29.382845713 150.27658112,-29.383109726500006 150.27635910399999,-29.383234712500002 150.275615136,-29.3832177295 150.275356128,-29.383425743500002 150.275165152,-29.383592743 150.27488115200001,-29.384072744 150.274690144,-29.3842397435 150.274434144,-29.3843617325 150.27324816000001,-29.384697766499997 150.27312016,-29.384734766499996 150.27262617599999,-29.3848957535 150.2723152,-29.385145762499999 150.2722952,-29.385800773500002 150.27224819200001,-29.386325785 150.27208419199999,-29.386836773500001 150.271890208,-29.387145779 150.2714672,-29.387650792 150.27111721599999,-29.388128795 150.270854208,-29.388506787 150.27065923200001,-29.388859804 150.27024224,-29.389192822499997 150.269852224,-29.389900817499999 150.26974524799999,-29.3900958075 150.26942624,-29.390659835499999 150.26907625600001,-29.391050833 150.26862326400001,-29.391511834499997 150.26819526400001,-29.391759827 150.26774227199996,-29.392192856499999 150.26715430399997,-29.393306852500004 150.266954304,-29.39387286 150.26659529599996,-29.394606866 150.266140288,-29.39516786 150.26570633599997,-29.395584887 150.26519033599996,-29.395931891499998 150.26462032000001,-29.3962618945 150.26396700800001,-29.396690003 150.26256240000001,-29.397914925 150.2618704,-29.398556930499996 150.26151139199999,-29.399114927500001 150.26148140800001,-29.399161917500003 150.261126432,-29.399750920499997 150.260920416,-29.400531935 150.26084041600001,-29.401014951500002 150.260731424,-29.401839940499997 150.26033145599999,-29.402828950500002 150.260214464,-29.4033869475 150.260159456,-29.403650942499997 150.260001472,-29.404517945 150.259945472,-29.405745938 150.25999244799999,-29.406525953499997 150.26011750399999,-29.410834955 150.260181504,-29.4116179675 150.26010950400001,-29.412400961500001 150.25995952,-29.412967968 150.25971251199999,-29.413389953 150.25928752,-29.413995976 150.25851756799997,-29.4149349805 150.25758755199999,-29.416167987 150.256884576,-29.417151003 150.256492576,-29.417884990499999 150.256337632,-29.418581996500002 150.25637900800001,-29.418839997500001 150.25642601600001,-29.419136996500001 150.25678163200001,-29.419672997 150.257676,-29.420755006500002 150.257798592,-29.420904005499999 150.2584096,-29.421486996 150.259440544,-29.422250990499997 150.259951008,-29.422701003 150.260159552,-29.423175972 150.260365568,-29.423751007500002 150.26072355199997,-29.424270987 150.260730016,-29.426647996500002 150.26073155200001,-29.427065005 150.26068758400001,-29.427493002499997 150.26045257599998,-29.427785006499999 150.26040659200001,-29.427843004 150.2600296,-29.4280070065 150.25949257600001,-29.428392990500001 150.25904262399999,-29.428771001 150.25891763199999,-29.429022989500002 150.258992608,-29.429382000500002 150.25923462399999,-29.429811996 150.25940665600001,-29.430386976 150.258723648,-29.430586979499996 150.258092672,-29.430786983 150.25745667199999,-29.431086979 150.256992704,-29.431420978 150.25528777599999,-29.4324399765 150.2542488,-29.4332869805 150.25383481599999,-29.433578984500006 150.25335683200001,-29.433781985 150.25291785600001,-29.433973978 150.25267084800001,-29.434081981 150.252023872,-29.434239971 150.25135987199999,-29.4343539865 150.250715904,-29.434384974 150.25000691199998,-29.434285 150.24953792,-29.434145991 150.24886592,-29.433959992 150.24744595199999,-29.433887009500001 150.246888,-29.433835006 150.24628201600001,-29.433822000500001 150.24609296,-29.433818023 150.24520998400001,-29.433929023 150.24384899200001,-29.434198031499999 150.242841024,-29.434476031 150.24137408000001,-29.434887027 150.23728217600001,-29.435973051 150.23619120000001,-29.436221062 150.235205216,-29.43637106 150.23393027199998,-29.436560056 150.233046272,-29.436754065500001 150.23236329599999,-29.436923081499998 150.23146329599999,-29.43699007 150.23000534400001,-29.437090081 150.22857737599998,-29.437273064500001 150.22778598400001,-29.437295005500005 150.22769641599999,-29.437298076500003 150.227377408,-29.437290066 150.22652745600001,-29.437401066 150.22557148800001,-29.437696067 150.22468051199999,-29.438018059500003 150.22361353599999,-29.438651055500003 150.222868992,-29.439271009 150.222124608,-29.439890056 150.220936,-29.44076 150.21896,-29.442207995 150.218324736,-29.442673029499996 150.21701100799999,-29.443682001 150.216335808,-29.444201037 150.21557484799999,-29.444754039 150.21500288,-29.445212025 150.213905888,-29.445718018500003 150.212728,-29.446086002 150.21078096,-29.446693042499998 150.2103,-29.446842004500002 150.20905603200001,-29.447226027500001 150.20786700799999,-29.447584002500001 150.207281056,-29.44776003 150.20605008,-29.44820403 150.20545699199999,-29.448379003 150.20398316800001,-29.448815048 150.20345315200001,-29.449018048500001 150.20216300799999,-29.449363998500004 150.20168118399999,-29.4494930545 150.19995324800001,-29.4501570565 150.19978700799999,-29.450229003 150.19747801599999,-29.451231 150.196694304,-29.451571085499999 150.19599430400001,-29.451812085 150.195132,-29.452159996 150.19229740799997,-29.453301113 150.189608448,-29.454326124 150.18882547199999,-29.454482134500001 150.18870348799999,-29.454489127499997 150.18830048000001,-29.454512123 150.18767552,-29.454501152500001 150.186794496,-29.454437142500002 150.18617251200001,-29.454340147 150.185583552,-29.454198141 150.18407856,-29.454168171 150.18338156799999,-29.454237157499996 150.182667584,-29.454351173 150.18044464,-29.455132187500002 150.17976464,-29.454032177500004 150.179394624,-29.452629193 150.17933164799999,-29.451887195</coordinates></LinearRing></outerBoundaryIs></Polygon>

	</Placemark>
</kml>