<?xml version="1.0" encoding="UTF-8"?>
<kml xmlns="http://www.opengis.net/kml/2.2">
	<Placemark>
		<Style>
			<LineStyle>
				<color>ff0000ff</color>
			</LineStyle>
			<PolyStyle>
				<fill>1</fill>
				<color>330000cc</color>
			</PolyStyle>
		</Style>
			<ExtendedData><SchemaData>
		<SimpleData name="STATE_2006">1</SimpleData>
		<SimpleData name="POA_2006">2162</SimpleData>
	</SchemaData></ExtendedData>
      <Polygon><outerBoundaryIs><LinearRing><coordinates>151.01602163199999,-33.88591521 151.01597555199999,-33.886122299 151.015955392,-33.886215816499998 151.01551171200001,-33.888321782499993 151.015394176,-33.888879187500002 151.01528508800001,-33.889395337499991 151.01485129599999,-33.891457403 151.014839776,-33.891509795 151.01483292799998,-33.891545333499998 151.01443657600001,-33.893431741500002 151.01423388800001,-33.894396905 151.013766592,-33.89661927299999 151.01297641599999,-33.896504702500003 151.01190323200001,-33.896348451500003 151.01193276800001,-33.896206482499998 151.01181091199999,-33.896193847 151.011450016,-33.896135997500004 151.00822300799999,-33.895691997500002 151.00808832000001,-33.895592282500004 151.00541136,-33.8952640555 151.004531872,-33.895156237500004 151.00430076800001,-33.896012584 151.002546112,-33.895769309 151.00258428800001,-33.895567085499998 151.00277616,-33.894622346 151.00302003199999,-33.89390095699999 151.003122112,-33.89335901799999 151.00315001600001,-33.893209945 151.00317072,-33.892966984499999 151.00329059200001,-33.892346513 151.001973728,-33.892166526499999 151.000348672,-33.891943675500002 150.99936006399997,-33.891808977 150.998944064,-33.891752996 150.99807961600001,-33.8916356135 150.998009408,-33.891626067499999 150.99804396799999,-33.891583591500002 150.996884096,-33.891425028 150.996875104,-33.89147002 150.99655033600001,-33.891423844 150.99643728000001,-33.891971314500005 150.99636960000001,-33.892298542499994 150.99636275199998,-33.892331676 150.99590118399999,-33.894555043 150.995438656,-33.896777947499999 150.99515315199997,-33.89814837199999 150.99510419199999,-33.898253581500001 150.994034656,-33.897799258500001 150.99443065599999,-33.89556725199999 150.99481836800001,-33.893383586 150.995129056,-33.891642181 150.99520012799999,-33.891244042499999 150.99511177599999,-33.891078874500003 150.99355907200001,-33.88959134499999 150.99242003200001,-33.888520176500002 150.99239670399996,-33.888470837 150.99238908800001,-33.888423144 150.992370016,-33.888376801500002 150.99239017599999,-33.888230559 150.99241315200001,-33.888009058500003 150.99276009600001,-33.886013056499998 150.99277465599999,-33.885930417 150.99279299200001,-33.885824856 150.99304355199999,-33.884385574500001 150.99316883199998,-33.883590518499993 150.99321276800001,-33.883311871499998 150.99332617599998,-33.882760257 150.99334163199998,-33.882684758499998 150.99335568000001,-33.882616715499999 150.993429472,-33.882258333499998 150.99356700800001,-33.881510878 150.99359868799999,-33.881338976 150.99363302399999,-33.881151016 150.99398352,-33.879105637500004 150.99404096000001,-33.878767013500003 150.99419696000001,-33.877860994500004 150.99442057600001,-33.87658643699999 150.99443532800001,-33.876504186 150.994447552,-33.876402473 150.99445116800001,-33.876300242 150.994446912,-33.876202007 150.994434912,-33.876102995 150.99441590399999,-33.876005999500002 150.99439891200001,-33.875942008 150.99410492800001,-33.875060002 150.99352288,-33.873315008 150.99331283199999,-33.872685656499996 150.99307056000001,-33.871962325 150.99310441599999,-33.871774143 150.99290688,-33.871872008 150.99206579200001,-33.872067627 150.99130441599999,-33.872244209500003 150.990452928,-33.872442048499998 150.98956496,-33.872600057 150.989415936,-33.872610065499998 150.98933494400001,-33.872600057 150.989471296,-33.872038101 150.98952195199999,-33.871841039 150.98953193599999,-33.871794049 150.98976992,-33.870701032 150.98742396799997,-33.870404884 150.987305152,-33.870384626499991 150.987187936,-33.870358079 150.98710393600001,-33.870332882 150.98699772800001,-33.870300747500004 150.98681843200001,-33.870255126499998 150.98668272,-33.870220106 150.98650128,-33.870177093500004 150.98577196799999,-33.870156096 150.98695100800001,-33.868586186 150.98713596799999,-33.868608663499998 150.98963651199998,-33.868907642 150.99010988800001,-33.868964048500004 150.992465856,-33.869237996500004 150.99233584,-33.868766006 150.992110432,-33.867957593 150.99197760000001,-33.867487341500002 150.99192281599997,-33.867293998 150.99163683200001,-33.866288023500005 150.99259619200001,-33.866423314 150.993193792,-33.867101006 150.99382979200001,-33.867697982500005 150.99467680000001,-33.868352975 150.99555379200001,-33.868891972500002 150.99675779200001,-33.869574955499999 150.99829974400001,-33.870412931499999 150.99985875199999,-33.8712069145 151.00117872000001,-33.87188592 151.00393168,-33.873412873 151.00395168,-33.873423880499992 151.00405971199999,-33.873483802 151.00464924799999,-33.873810308499998 151.00469568,-33.873763226 151.00475040000001,-33.873730018499998 151.00480224,-33.873718326500004 151.004862368,-33.873722914499993 151.004922112,-33.873737751500002 151.00501321600001,-33.873774122500002 151.00532892800001,-33.8738840125 151.00549523199996,-33.873928560499998 151.00573356800001,-33.873949447 151.00689744,-33.874105864500002 151.0073136,-33.872245745 151.00781040000001,-33.870027872500003 151.00784316799999,-33.869881611499999 151.00899625599999,-33.870034884 151.010123392,-33.870182125499994 151.01082,-33.870273386 151.012628288,-33.870510186 151.01292649600001,-33.870520768 151.01265961600001,-33.870945787 151.01262361600001,-33.871045761 151.012604512,-33.871131804500003 151.01258256,-33.871316767499998 151.01254441599997,-33.871502785 151.01255843199999,-33.871660738 151.01275536,-33.87203577 151.01285651199998,-33.872137742 151.01286947200001,-33.872295787500001 151.0127784,-33.872551735 151.01274240000001,-33.872624736 151.01243641600001,-33.873423751 151.01239068800001,-33.873480805 151.012351456,-33.873665768 151.0122456,-33.873807774 151.01192556800001,-33.874289736 151.01190649599999,-33.874417793 151.01198748799999,-33.8746197575 151.012256896,-33.874815358 151.012290592,-33.874839815 151.01244252800001,-33.874927745500003 151.01247347200001,-33.8750857725 151.01248860799998,-33.875201786 151.01257177599996,-33.875316819 151.01272259199999,-33.875448742499998 151.01280467199999,-33.875621736 151.01285472000001,-33.875694811 151.01298864,-33.875810732 151.01303868799999,-33.875883807 151.01278777600001,-33.876380791 151.01272764800001,-33.876723781 151.01262144,-33.876879754500003 151.01265347200001,-33.87698082 151.01273664000001,-33.877081793 151.01283456,-33.877298798 151.01284860799998,-33.877427761500002 151.01288064,-33.877557816500001 151.01287776000001,-33.877671758 151.01291052799999,-33.877715751 151.01290547199997,-33.877802793499995 151.01290080000001,-33.877889817499991 151.01289648,-33.877976767500002 151.01289251200001,-33.878064772 151.01289072,-33.878151814500001 151.01288748799999,-33.878232807499991 151.01288352,-33.878314799500004 151.01288230399999,-33.878368172 151.022668544,-33.883786674 151.02283753599997,-33.8838896635 151.02295625599999,-33.883951102 151.02321049599996,-33.884084709 151.02254377599999,-33.884710101499998 151.02233353599999,-33.884876971499999 151.02198684799998,-33.885112328499993 151.02128339199999,-33.885424072 151.020918368,-33.8855933655 151.02064691199999,-33.88569857499999 151.02035568,-33.885792444 151.01994851200001,-33.885891715 151.01991324799999,-33.885900262 151.01947801599997,-33.885980903499998 151.01904348799999,-33.88604508 151.018654688,-33.886093587 151.01807651199996,-33.88611168 151.01765603199999,-33.886132289 151.01726976,-33.886096195499995 151.017109568,-33.8860647825 151.01618867199997,-33.88593996299999 151.0160904,-33.885925385 151.01602163199999,-33.88591521</coordinates></LinearRing></outerBoundaryIs></Polygon>

	</Placemark>
</kml>