<?xml version="1.0" encoding="UTF-8"?>
<kml xmlns="http://www.opengis.net/kml/2.2">
	<Placemark>
		<Style>
			<LineStyle>
				<color>ff0000ff</color>
			</LineStyle>
			<PolyStyle>
				<fill>1</fill>
				<color>330000cc</color>
			</PolyStyle>
		</Style>
			<ExtendedData><SchemaData>
		<SimpleData name="STATE_2006">1</SimpleData>
		<SimpleData name="POA_2006">2225</SimpleData>
	</SchemaData></ExtendedData>
      <Polygon><outerBoundaryIs><LinearRing><coordinates>151.07163264,-34.006028550499998 151.07216076799997,-34.006089508 151.07216464000001,-34.005932535500001 151.07218364799999,-34.005817539500001 151.072157664,-34.005459546 151.07209776,-34.005085568499993 151.07208371199999,-34.004913574 151.07205260800001,-34.00479854099999 151.072020608,-34.004668541499996 151.07196963199999,-34.004639533499997 151.071971776,-34.004582553500001 151.07190371199999,-34.004509552500004 151.07187260800001,-34.004394538 151.07170681599999,-34.00413354 151.07163769600001,-34.004062537 151.07162262400001,-34.004046534499992 151.07162361599998,-34.004003540500001 151.07140764799996,-34.003670577500003 151.07137379199997,-34.003641514 151.07122476800001,-34.003410578500002 151.07115779200001,-34.003337577499998 151.0711416,-34.003294565 151.070975648,-34.003033567 151.07095961600001,-34.002961546500003 151.07092668799999,-34.002918534 151.07079862399996,-34.002457532500003 151.07071897599999,-34.002227966 151.07038812799999,-34.002254976 151.07038416,-34.002227966 151.07037913600001,-34.002201955 151.070375168,-34.002176036499996 151.07036905599998,-34.002149045 151.070364,-34.002123034 151.07035500800001,-34.002090992 151.07034313599999,-34.002059042499994 151.07033305600001,-34.002027981 151.07032512000001,-34.001996031499999 151.070324032,-34.001964988499999 151.07033987200001,-34.001915038500002 151.07037408,-34.001865995 151.07041907199999,-34.001818024500004 151.07046912000001,-34.001771034499995 151.07051808,-34.001727023 151.07057603199999,-34.001676999 151.07064012800001,-34.001631008 151.070707072,-34.001587977 151.07077513600001,-34.001546037499999 151.07084208000001,-34.001503025 151.07085024,-34.001498048500004 151.07093209600001,-34.001444972 151.07102496,-34.001389971500004 151.07111712,-34.001334989500002 151.071208928,-34.001279008499992 151.071297856,-34.001219975 151.07137417600001,-34.001165973500001 151.07144905600001,-34.001109992499998 151.071522112,-34.001052032 151.07159484799999,-34.000993979 151.07166684800001,-34.000936018499992 151.071739936,-34.000875986 151.07181193599999,-34.000814973 151.071882848,-34.000752961 151.07195305600001,-34.000691041499998 151.07202217599996,-34.000628049 151.072085888,-34.000567017500003 151.07214816000001,-34.000505005500003 151.07221008,-34.000442993500002 151.07227091199999,-34.000380001 151.07233392,-34.000318988 151.07238108799999,-34.000272997 151.07242896,-34.000227986500001 151.07247612800001,-34.000182994500001 151.072524,-34.000137984 151.072571168,-34.00009299199999 151.07263705599996,-34.000027021 151.07270185600001,-33.999959977 151.07276592,-33.999893007 151.07283107200001,-33.999825963 151.07289804800001,-33.999759992 151.07294988800001,-33.999708969 151.073000992,-33.999657021 151.073052832,-33.999605998 151.07310684800001,-33.999557047 151.073164096,-33.999510963500001 151.073208,-33.999480993500001 151.07325408,-33.999454982499998 151.07330016,-33.999427972500001 151.073345152,-33.99939998199999 151.07338512000001,-33.999369031500002 151.07342185600001,-33.99932897899999 151.07345388799996,-33.999285966500004 151.07348304000001,-33.999239975500004 151.07351401599999,-33.999195964 151.07355001600001,-33.999154024500001 151.07358204799999,-33.999123962 151.07361696000001,-33.999094972499996 151.07365404800001,-33.999066982 151.073690048,-33.999039990499995 151.073727136,-33.999012 151.07376816,-33.998981031 151.073808832,-33.998949988 151.07384988800001,-33.998920018 151.073892,-33.998888975 151.07393305599999,-33.998858006 151.07397587200001,-33.998828036 151.074019072,-33.998798972499998 151.07406083199999,-33.998769002499998 151.074101888,-33.998738033500004 151.074140032,-33.99870501099999 151.074168832,-33.998672969 151.07419513599999,-33.99863904 151.07421996799999,-33.998604038 151.07424588800001,-33.998570016500004 151.074273952,-33.998537974500003 151.07429987200001,-33.9985130365 151.07432688,-33.998490004 151.07435388799999,-33.998466953 151.07438304,-33.998444993500001 151.07441184000001,-33.998423034 151.07445900799999,-33.998389012499999 151.07449104,-33.99836202099999 151.07453388799999,-33.998331958500003 151.07460192,-33.998288039500004 151.074723968,-33.99818201599999 151.074844928,-33.998094992 151.07491692799999,-33.9980630425 151.075121056,-33.997932007 151.07529203199999,-33.9978410055 151.07558291199999,-33.997740032499998 151.07572403200001,-33.997753981500004 151.07582016000001,-33.997849016 151.07587993600001,-33.998020011500003 151.07588387199999,-33.998155024500001 151.07588784000001,-33.998277957 151.075923136,-33.998381002 151.075914848,-33.998423034 151.075914848,-33.998495036 151.07591987199999,-33.998568037 151.075929952,-33.998640039 151.075945088,-33.998712022500001 151.07596595199999,-33.998781952500003 151.07598899199999,-33.998839025 151.07601817599999,-33.998894007 151.07604912,-33.998949007500002 151.076080096,-33.999004988499998 151.07610492800001,-33.999060951 151.07612003200001,-33.999111992499998 151.076132992,-33.999163015500002 151.07614489599999,-33.999213964500001 151.07615712,-33.999264987499998 151.076171168,-33.999316029 151.07618483199997,-33.999361021 151.07619888,-33.999406013 151.07621292799999,-33.9994500245 151.076230912,-33.999492963 151.076252896,-33.999534995 151.07628598400001,-33.999576028 151.07632595199999,-33.999614008500004 151.07636809600001,-33.999651008500003 151.07640697599999,-33.999688989 151.07643792,-33.999731002499999 151.076455936,-33.999788963 151.07645987199999,-33.999851974 151.07645987199999,-33.999918037500002 151.07646598400001,-33.999978958 151.07648905600001,-34.000034032500004 151.07651712000001,-34.000067961500001 151.07655097599999,-34.000101002499996 151.07658912,-34.000131953 151.07663088000001,-34.000158963 151.07667408,-34.000181015 151.076718016,-34.000194964 151.07676588800001,-34.000202974499999 151.076815936,-34.000209005500004 151.07686307200001,-34.000217996499998 151.076904832,-34.00023303699999 151.07693292799999,-34.000253017 151.076957056,-34.000278029 151.076980096,-34.000305039 151.07700384,-34.00032797899999 151.077032992,-34.000344 151.07707584,-34.000349032 151.07712409600001,-34.0003420205 151.077175936,-34.000328978 151.07722883199997,-34.000317008499998 151.077279968,-34.000311958 151.07734691199997,-34.000317008499998 151.07741315199999,-34.000329958500004 151.07747904,-34.000346978499998 151.07754492800001,-34.00036398 151.07761187200001,-34.000377022500004 151.07766515200001,-34.000386032 151.07771808000001,-34.000396022 151.07777100800001,-34.000405013 151.07782284800001,-34.000408972 151.077872896,-34.000405013 151.07792905599999,-34.0003880115 151.07798304,-34.000359022 151.07803488,-34.00032402 151.07808601599999,-34.000287038499998 151.07813712000001,-34.000252018 151.07817491200001,-34.000228985500001 151.07821308800001,-34.000203955 151.07825088,-34.000180016 151.07828905599999,-34.000155984499997 151.078328992,-34.000135024 151.078389856,-34.000107033500001 151.07843916799999,-34.00010198299999 151.07848883200001,-34.000098024 151.07853888,-34.000098024 151.07858892799999,-34.000100003500002 151.07863788799997,-34.0001049615 151.07868288,-34.000112972 151.078727168,-34.000122962 151.07877001599999,-34.000135024 151.07881283200001,-34.000148973 151.078854976,-34.00016399499999 151.07892012799999,-34.000194964 151.078982048,-34.00023303699999 151.079042176,-34.000274976500002 151.07910192,-34.000317989 151.07916313600001,-34.0003580415 151.07922505600001,-34.000397002500002 151.07928697599996,-34.000435982 151.079349952,-34.000473962500003 151.07941404799999,-34.000511036500001 151.07948099199999,-34.000543985 151.07952601599999,-34.000566037 151.07957209599999,-34.000588977 151.079619968,-34.0006100485 151.07966713599998,-34.000625977 151.07971500799999,-34.000633987500002 151.07975712000001,-34.000634968 151.07980105600001,-34.000631009 151.079843872,-34.0006239975 151.07988601599999,-34.000613008500004 151.07992416,-34.000597986500004 151.07996915199999,-34.000571975500002 151.080009856,-34.000538046500004 151.080046912,-34.000496995 151.08007897600001,-34.000454963 151.08010812800001,-34.000412043 151.080128992,-34.000378021499998 151.08014700800001,-34.0003420205 151.08015872,-34.000315380499998 151.08016284799999,-34.000306019500002 151.08017689600001,-34.000269038 151.08018803199997,-34.000232038 151.08019993600001,-34.000190006 151.08020892799999,-34.000146993499996 151.08021504000001,-34.000094971500005 151.08021612799999,-34.0000610425 151.08021216,-34.000019991 151.08019884800001,-33.999975998 151.08018012799999,-33.999932967 151.08015491200001,-33.99989004699999 151.08012505600001,-33.999849994500003 151.080092992,-33.999812994500004 151.080048,-33.999773034500002 151.079995072,-33.999738032499998 151.07993785599999,-33.999705990500004 151.07987987199999,-33.999675021500003 151.07982300800001,-33.999642998 151.079768992,-33.999609957 151.07971500799999,-33.999578007499998 151.07966099199999,-33.999545965499998 151.07960592,-33.999513035500001 151.079551936,-33.999480993500001 151.079454016,-33.999423033 151.07935609599997,-33.99936498 151.07925708799999,-33.999307019500002 151.07915916799999,-33.999249965499999 151.07906089599999,-33.999192005 151.07900905599999,-33.999143035499998 151.07895683199999,-33.999094972499996 151.07890499199999,-33.9990460215 151.078853888,-33.998996978 151.07880492800001,-33.998947028 151.078758112,-33.998895006 151.07871312,-33.998842984 151.07866992000001,-33.998788982500002 151.078629952,-33.998733982 151.078592896,-33.998678001 151.07856588800001,-33.998628957500003 151.07854211199998,-33.998578027 151.07852016000001,-33.9985269855 151.0785,-33.998474963500001 151.07848307200001,-33.998423034 151.07848595199999,-33.998225047 151.07846688000001,-33.998203975500005 151.078577056,-33.997860985500004 151.07857993600001,-33.997746951499998 151.07860297600001,-33.997461034 151.078539968,-33.997202015500001 151.07884307200001,-33.99667101 151.07890716799997,-33.996623039500001 151.07900905599999,-33.996594956500005 151.07910409600001,-33.996556976 151.07916816,-33.9965450065 151.07925888,-33.996517016 151.079290912,-33.996488045 151.079319008,-33.996474984 151.07944105600001,-33.996476963500001 151.07952816,-33.996456003 151.07963113599999,-33.9964380025 151.07972112,-33.996438983 151.079784128,-33.996427013499996 151.07982803199997,-33.996418022500002 151.07990291199999,-33.99643502399999 151.07996988799999,-33.996439982 151.080012,-33.996475983 151.08006096,-33.996558955499999 151.08015097599997,-33.996602967 151.08025283200001,-33.996600987500003 151.08031187199998,-33.996591996500001 151.08035184,-33.996566966 151.08038784,-33.996554016 151.08044688000001,-33.996564986500005 151.08053004800001,-33.996560047 151.08058908800001,-33.9965610275 151.080631936,-33.9965610275 151.08068700800001,-33.996562026500001 151.08070393599999,-33.9965299845 151.080751072,-33.996517016 151.08079104000001,-33.996508025 151.08079897600001,-33.996489025499997 151.08090515200001,-33.996493983500002 151.08095305599997,-33.996488045 151.08101603200001,-33.996456003 151.081044128,-33.996429992 151.081049888,-33.996371032500001 151.08111289600001,-33.996375990499999 151.08118307199996,-33.996385980500001 151.081247168,-33.99635799 151.08131088,-33.996322988 151.08142105600001,-33.996297957499998 151.081517152,-33.996256018 151.08158915199999,-33.9962169645 151.08167484800001,-33.996219036500001 151.08172812800001,-33.996192026500005 151.08179616000001,-33.996144962499997 151.081853056,-33.996125963 151.08191603200001,-33.9961110335 151.08196896000001,-33.99609203399999 151.08204492799999,-33.996089962 151.082106848,-33.996087002 151.08220297599999,-33.996068002499996 151.082264896,-33.996049021499999 151.08232716800001,-33.996033981 151.08241283199999,-33.996023991 151.08250393599999,-33.996008969 151.082595008,-33.996003030499999 151.08262416,-33.995979998 151.08268105599998,-33.995984031 151.08273792,-33.995996999500001 151.08278688,-33.995958038499992 151.082828992,-33.995959019 151.082880832,-33.995984031 151.082948896,-33.995952988 151.083015136,-33.995958038499992 151.08307705600001,-33.995970988499998 151.08309504,-33.996011041 151.083195136,-33.996027968499995 151.08328908799999,-33.996057032 151.08336611199999,-33.996059011500002 151.08344099199999,-33.996087982500001 151.08355008000001,-33.996121023500002 151.08366889600001,-33.996123003 151.08371100799999,-33.996159004 151.08379705600001,-33.996164036 151.08385788800001,-33.996204995 151.083996128,-33.996222995499998 151.08405696,-33.996239997 151.08409116799999,-33.996224975 151.08414300800001,-33.996240996 151.08419484800001,-33.996249987 151.08427692800001,-33.996234965 151.08431507200001,-33.996228027500003 151.08437593599999,-33.996257017 151.08444217600001,-33.996285988 151.08449904,-33.996286987 151.08454297599999,-33.996278976500001 151.08457104,-33.996279957 151.08459913600001,-33.996311999 151.08467004799999,-33.996345021499998 151.08473088,-33.996362041499999 151.08479785599999,-33.996363022 151.08484608,-33.996366981 151.084896832,-33.996395970500004 151.08492492799999,-33.996428012500004 151.08495516799999,-33.996443034500004 151.08501097599998,-33.996510985 151.08517584000001,-33.996580027 151.08529104,-33.996642039 151.08536304,-33.99666102 151.08548508800001,-33.99671097 151.085549152,-33.996772982 151.08574211199999,-33.996884037500003 151.08589296,-33.996934986500001 151.086015008,-33.996967028500002 151.08610211199999,-33.99697404 151.08614604799999,-33.996944976500004 151.086276,-33.996970987499999 151.08637788799999,-33.996953967499998 151.08642217600001,-33.996942997 151.08653088,-33.996944976500004 151.08659497599999,-33.996958019 151.08663996799999,-33.996922018 151.08665507200001,-33.996873955 151.08676416,-33.996876027 151.086771008,-33.996899966 151.08691609600001,-33.996896007 151.08693913599998,-33.996817974 151.08701904,-33.996814015 151.08709788799999,-33.996839045499996 151.087250176,-33.996841025 151.08733116799999,-33.996781973 151.08740316799998,-33.996801953 151.08751187199999,-33.996815014 151.087611968,-33.996841025 151.08769187199999,-33.996848036499998 151.08775705599999,-33.996879005499991 151.08794387200001,-33.996912028 151.08795289599999,-33.996863965 151.088054048,-33.996871975499992 151.08819084799998,-33.996891955500004 151.088285152,-33.996912028 151.08827616,-33.996971968 151.08846985599999,-33.9970709615 151.088528352,-33.997043655500001 151.088594048,-33.99701300099999 151.088774048,-33.997069981 151.08891696000001,-33.997150974 151.088960896,-33.997139004499999 151.08904691199999,-33.997188954500004 151.08903107200001,-33.997248987 151.08919488000001,-33.9973599685 151.08928812799999,-33.997421962 151.089365888,-33.997508005500002 151.089410176,-33.997472004499997 151.08958691199999,-33.997643999 151.08954300799999,-33.997697001500001 151.08959196800001,-33.997752002 151.08957683200001,-33.997788003 151.08964704,-33.997897985500003 151.089680896,-33.998001030499999 151.08970608000001,-33.9981229825 151.08974316800001,-33.998254018 151.089784928,-33.998423034 151.08979500799998,-33.9984510245 151.08981011199998,-33.998500974500004 151.08982201599997,-33.998551017 151.08982992,-33.998613029 151.08983315200001,-33.998676021500003 151.089831008,-33.998739032499998 151.08982704,-33.998803024 151.08982489600001,-33.998866016500003 151.08982416000001,-33.998913987 151.08982416000001,-33.998960977 151.089823072,-33.999009021500001 151.08981913599999,-33.999056011500002 151.08981011199998,-33.999102002499995 151.089798976,-33.999135025 151.08978384,-33.999167973500001 151.089768,-33.999200996 151.08975289599996,-33.999233038 151.089739936,-33.999265986499992 151.08972697600001,-33.999308018500003 151.08971507199999,-33.999350032 151.08970608000001,-33.999392970500004 151.08969708800001,-33.999435983 151.089688096,-33.999478015 151.08967907199997,-33.999526984500001 151.08967187199997,-33.999576028 151.089665056,-33.999624997499993 151.08965712,-33.999674041 151.08964489600001,-33.999722011499998 151.08963084800001,-33.999756033 151.08961500799998,-33.999789962 151.08959916800001,-33.999824964 151.089584032,-33.999858985499998 151.08957395199999,-33.999894006 151.089567136,-33.999944048499998 151.08956604799999,-33.999995978 151.08956998400001,-34.000047981500003 151.08958009599996,-34.000098024 151.089596992,-34.000145994500002 151.08962112,-34.000182994500001 151.08965315200001,-34.000217016 151.089687008,-34.0002510375 151.089716896,-34.000284966500004 151.08973488000001,-34.000320967500002 151.08973811199999,-34.000346978499998 151.08973705599999,-34.00037397 151.08973417600001,-34.000400961499999 151.089732,-34.000427971500002 151.089732,-34.000454963 151.08973596800001,-34.000484045 151.08974099199997,-34.000513016 151.089747136,-34.000542005500002 151.089756128,-34.000569996 151.08976691199999,-34.000597986500004 151.089792832,-34.000646031 151.08982704,-34.000691041499998 151.089867008,-34.000734960500004 151.08990912,-34.000777973 151.08995088,-34.000821004 151.089978976,-34.000850974 151.09000704,-34.000881036500004 151.09003584000001,-34.000910007500003 151.09006608000001,-34.000938997 151.090098848,-34.000965008 151.090136992,-34.000991019 151.09017696000001,-34.00101503199999 151.09021801599999,-34.001037990500002 151.09026083200001,-34.001058951 151.09030512000001,-34.001078043 151.09034291200001,-34.001093971499998 151.09038217599996,-34.001107014 151.090422112,-34.001119982500001 151.09046208000001,-34.001132044500004 151.09050204799999,-34.001144014 151.09054704,-34.001157963 151.09059097599999,-34.001172985 151.09063596799999,-34.001186046 151.09068204799999,-34.001198996 151.09072704,-34.0012109655 151.09077708800001,-34.001223027500004 151.09082784,-34.0012340165 151.090878976,-34.001244987 151.09093008,-34.001253996500004 151.09098192,-34.001262007 151.09103196799998,-34.001268038 151.091083072,-34.001272977500001 151.091133856,-34.001276048500003 151.09118496,-34.001279008499992 151.09123609599999,-34.001281987 151.09128611200001,-34.001282967500003 151.09133507199999,-34.001280988 151.09138512,-34.0012800075 151.09143408,-34.001280988 151.09148195200001,-34.001286038499998 151.09151795199998,-34.001290978 151.091553952,-34.001296028500001 151.09158889599999,-34.001304039 151.091622016,-34.001314029 151.091651872,-34.001327978 151.091682112,-34.001348032 151.09170912,-34.001373969 151.091733952,-34.001403032500001 151.09175196800001,-34.001433002500001 151.09176204799999,-34.001462972500001 151.09176204799999,-34.001495014500001 151.09175196800001,-34.001528037 151.09173683200001,-34.001560985499999 151.091718848,-34.001595007 151.09170192,-34.001628029500004 151.09168896,-34.001652967499993 151.091676,-34.001677979500002 151.09166195200001,-34.001702991500004 151.09164793599996,-34.001728022 151.09163315200001,-34.001751961 151.09161299199999,-34.001785982499996 151.09159212799997,-34.001819005 151.091570176,-34.001852046 151.09154784,-34.001883995500002 151.091525152,-34.001916037500003 151.091494912,-34.001954018 151.09146288,-34.001990999500002 151.09143011200001,-34.0020270005 151.09139808,-34.002064981 151.09136998400001,-34.0021029615 151.09134588800001,-34.002138962499998 151.09132499200001,-34.002177035500004 151.09130412799999,-34.00221501599999 151.091283968,-34.002252996499998 151.09126092799997,-34.002289978 151.09123609599999,-34.002326978 151.09121088000001,-34.002363959500002 151.09118387199999,-34.0023999605 151.091156896,-34.002435961499998 151.09112809599998,-34.002471962499996 151.091111872,-34.002496974499991 151.09109603199997,-34.002522985500001 151.09107913599999,-34.002548016 151.09106291200001,-34.002574027 151.09104601600001,-34.002599039 151.09101792000001,-34.002636039 151.09098912,-34.002673020499998 151.090961056,-34.002709021500003 151.09093404800001,-34.002747002 151.09091315200001,-34.002784982500003 151.09090489600001,-34.002809014 151.09089804800001,-34.002834026 151.09089299199999,-34.002858964 151.09088508799999,-34.002882995500002 151.090872128,-34.002903956 151.090842976,-34.002928986500002 151.09080192,-34.002946987 151.09075584,-34.002962009 151.09071084799999,-34.002979029 151.09067411199999,-34.003001969 151.09065289599999,-34.003023022 151.09063417600001,-34.003046961 151.09061689599997,-34.0030709925 151.09059996799999,-34.003096023 151.09058089600001,-34.00311996199999 151.09055603199999,-34.0031469535 151.09053193599999,-34.003173963499997 151.09050601599998,-34.003200955 151.09047792000001,-34.003225985500002 151.09044912,-34.003250017 151.090421056,-34.003269997 151.09039008,-34.003287997500003 151.09035913599999,-34.003305998 151.09032816000001,-34.003323998500001 151.09029612800001,-34.003341 151.09026803200001,-34.003359000499998 151.09023888,-34.003376002 151.09020899199999,-34.003393022 151.09017984,-34.003410023500003 151.09015104,-34.003427043500004 151.09012512000001,-34.003442972 151.090100992,-34.003458993 151.09007507199999,-34.003475014 151.09004915200001,-34.003488963 151.09002108799999,-34.003501025 151.08997788799999,-34.003509035500002 151.08993107200001,-34.003509035500002 151.089882112,-34.003506963500001 151.08983388799999,-34.003504984 151.08978707200001,-34.003509035500002 151.08974998400001,-34.003518026499997 151.08971292800001,-34.003529996 151.08967692799999,-34.003542964499999 151.08964092799999,-34.003556007 151.08960384,-34.003569956 151.08956316800001,-34.003584996500003 151.089522112,-34.003601017500003 151.08948108800001,-34.003618019 151.089440032,-34.00363404 151.08939900799999,-34.003647989 151.08935507199999,-34.003657979 151.08930793600001,-34.003665009 151.08926291200001,-34.003673001 151.08922115199999,-34.00368399 151.089185888,-34.003700991500004 151.08916105599999,-34.003724042500004 151.08914016,-34.003751034 151.08912288,-34.003782003 151.08910883199999,-34.003812953500002 151.08909984,-34.003844015 151.089095872,-34.003884955499991 151.08910092799999,-34.003926007 151.08911209600001,-34.003969019499998 151.08912611199997,-34.004010959 151.089140896,-34.004052991 151.089154912,-34.004088992 151.08917292799998,-34.004123994 151.089192,-34.004159014500004 151.08921107200001,-34.004194016500001 151.08922691199999,-34.004230017499999 151.08923916800001,-34.004273048500004 151.089246016,-34.004319021 151.089252832,-34.004365012 151.08926688,-34.004403991499998 151.089306112,-34.004439992500004 151.08932304000001,-34.004445024500001 151.08934105599999,-34.004449982499999 151.08937308799997,-34.004465004499998 151.08938496,-34.004489036 151.08938496,-34.00452396399999 151.08937705599999,-34.004564997 151.08936912,-34.004608028 151.08936912,-34.004646989 151.08937705599999,-34.004685968499999 151.08938998400001,-34.004725022 151.089404032,-34.004763983 151.08941916800001,-34.004802962500001 151.089432128,-34.004843015 151.08944112,-34.00486802699999 151.08945011199998,-34.004892965 151.08945804800001,-34.004917977 151.08946489600001,-34.004943988 151.08946704,-34.004969018499999 151.089462016,-34.005009959 151.089446176,-34.005051991 151.08942313599999,-34.00509402299999 151.08939792000001,-34.005134963499998 151.089372,-34.005175016 151.089350048,-34.005206965500001 151.08932592,-34.005239007500002 151.08930108800001,-34.005268977500002 151.08927408,-34.005300039 151.08924816000001,-34.005330009 151.089221888,-34.005359979 151.08919596800001,-34.005390023 151.08916896,-34.005419012499999 151.08914016,-34.005447003 151.08910883199999,-34.005472015 151.08905987200001,-34.005504963500002 151.089005152,-34.005537005500003 151.08894793600001,-34.005563997 151.08888995199999,-34.005581997500002 151.08883417600001,-34.005587048 151.08879996799996,-34.005581017 151.088765056,-34.005567956 151.08873084800001,-34.005553026499996 151.08869593599997,-34.005539965499999 151.08866208,-34.005534027 151.08862105599999,-34.0055420375 151.08857712,-34.005560038 151.08853392,-34.005581017 151.08849792000001,-34.005594966 151.088472,-34.005593967 151.088456896,-34.005579037499999 151.08844787199999,-34.0055569855 151.088442112,-34.005531955 151.08843385599999,-34.005507035500003 151.088420896,-34.005486963 151.08840684800001,-34.005473994500001 151.088391008,-34.005462025 151.08837408,-34.005450962 151.08835609599998,-34.005439973 151.08833987200001,-34.005429002499994 151.08829811199999,-34.005396960500001 151.08825817600001,-34.005363031500004 151.088218912,-34.005330009 151.08817897599999,-34.005295987499991 151.08813900800001,-34.005261966 151.088104096,-34.005236047499999 151.088068096,-34.005210036499996 151.088031008,-34.005185006 151.08799788799996,-34.005158014500005 151.08796908799999,-34.005128044500005 151.08795612799997,-34.005113004 151.08794316800001,-34.005097982 151.087932,-34.005083034 151.087917952,-34.005051991 151.08792083200001,-34.005032991500002 151.087933088,-34.005013011500004 151.08794604799999,-34.004993031499993 151.08795792000001,-34.004958029500003 151.08794208,-34.004945967499992 151.08791401599998,-34.004939048499999 151.08787692799999,-34.004933998 151.08783984,-34.004926986500003 151.087807072,-34.004917977 151.08779017599997,-34.004909966500001 151.08777289599999,-34.0049009755 151.08775705599999,-34.004891966 151.08774083200001,-34.00488297499999 151.08772499200001,-34.004872985 151.08769692800001,-34.004850026500002 151.087671008,-34.004825995 151.08764688,-34.004799003500004 151.08762313599999,-34.0047719935 151.08760009599999,-34.004745002 151.087572,-34.004716012499998 151.087542848,-34.004685968499999 151.08751584000001,-34.004655998499999 151.08749209599998,-34.004625029499998 151.087475168,-34.004592007 151.087467968,-34.004570047499996 151.087464,-34.004547995499991 151.087461856,-34.00452396399999 151.08745897599999,-34.004501005499996 151.08745500800001,-34.004478953499998 151.087446016,-34.004448003 151.08743593599999,-34.004417034 151.08742512000001,-34.004385991 151.08741216000001,-34.004356021 151.08739811199996,-34.004327031500004 151.08737616,-34.004289957499999 151.08735097600001,-34.004252976 151.08732396799999,-34.004217955500003 151.087295168,-34.004183046 151.087266016,-34.004149024499995 151.087250176,-34.004131024 151.08723289599999,-34.004114004 151.08721596799998,-34.004096003499996 151.08719904,-34.004078003 151.087184992,-34.004060002500005 151.08716700799999,-34.004030032500005 151.08715296,-34.003998989499998 151.08714108800001,-34.00396704 151.087131008,-34.003934017500001 151.08712092799999,-34.0039019755 151.08711193599999,-34.003868046499996 151.08710617599999,-34.003833026 151.087100032,-34.003798024 151.08709212799997,-34.003764002499999 151.087079168,-34.003730961500004 151.08706009599999,-34.003700011 151.08703596800001,-34.003670041 151.087010048,-34.003640977499998 151.086981952,-34.003612987 151.08695388799998,-34.003584996500003 151.086927968,-34.003560965 151.08689987199998,-34.003539005500002 151.08687216000001,-34.003517046 151.08684515199997,-34.003493995 151.08682105599999,-34.003469963500002 151.08679187199999,-34.0034300035 151.08676992,-34.00338599199999 151.086750112,-34.003341 151.08672995200001,-34.003296008 151.08670512,-34.003253976 151.08667705600001,-34.003217975 151.08664896,-34.00318197399999 151.08661801599999,-34.0031469535 151.08658489600001,-34.003113024500003 151.08654995200001,-34.003081981500003 151.08652009599999,-34.003058042500001 151.08648803200001,-34.003034991499995 151.08645491199999,-34.003013032 151.08642108799998,-34.002991979 151.08638617599999,-34.002972998 151.086351968,-34.002955978 151.08631705599998,-34.002939957 151.08628105599999,-34.002926008 151.08624396799999,-34.002912965500002 151.08620688,-34.00290099599999 151.08615107200001,-34.002885955499998 151.086088096,-34.002872006499999 151.08603696,-34.002863015500004 151.08597900799998,-34.002855985499991 151.08592105599999,-34.002852026500001 151.08586307199997,-34.002851046 151.085804032,-34.0028499545 151.08574499199997,-34.002853025500002 151.08568992,-34.002862016500004 151.08564096,-34.002879036499998 151.08559705600001,-34.002909006499991 151.08555817600001,-34.002947967499999 151.08552505599999,-34.002993958499999 151.085495872,-34.00304300199999 151.08547104,-34.003089992 151.08545484800001,-34.003124013499999 151.08544115199999,-34.003159015499996 151.085430016,-34.003194036 151.08541993599999,-34.003230037 151.085414176,-34.003265039 151.08540588799997,-34.003287997500003 151.08539795199999,-34.00331103 151.08539184,-34.003334969 151.08538716800001,-34.003358001500004 151.08538211199999,-34.00338096 151.08537817600001,-34.003403012 151.08537385599999,-34.003424971500003 151.08537097600001,-34.003447023499994 151.085369888,-34.003468983 151.08537312000001,-34.003490036 151.08538211199999,-34.003512994499999 151.08539507200001,-34.003536027 151.085412,-34.0035589855 151.085430016,-34.003580038499997 151.08544908799999,-34.003600018500002 151.085466016,-34.003613967500002 151.08548688,-34.003626029499998 151.08550704000001,-34.003638998 151.08552288,-34.0036520405 151.085534048,-34.00368399 151.08553008,-34.003702971 151.08552288,-34.003722951 151.085511008,-34.003739971 151.08549804800001,-34.003753013500003 151.085467072,-34.003764983 151.085448,-34.003767961500003 151.085413088,-34.003767961500003 151.08539113599997,-34.003758952 151.085369888,-34.003742043 151.08534899200001,-34.003722951 151.08532992,-34.003707022500002 151.08531011199997,-34.003700991500004 151.08528889600001,-34.003706042 151.08526691200001,-34.003718011499998 151.08524604799999,-34.003734032499999 151.085228032,-34.00375203299999 151.08521689599999,-34.003770033500004 151.08521184,-34.003789014500001 151.085212928,-34.003809993499999 151.08521689599999,-34.003832045500005 151.08522409599999,-34.003854005 151.08524387200001,-34.003886047 151.08527088,-34.003908987 151.08529104,-34.003934017500001 151.08529212799999,-34.003956957500002 151.08528204800001,-34.003982968500004 151.085264032,-34.004010959 151.08524387200001,-34.004039042 151.08522300800001,-34.004063961500002 151.08520211199999,-34.004087012499994 151.08517692799998,-34.004107973 151.08514992,-34.004129044500004 151.08512291199997,-34.004149024499995 151.08509699199999,-34.004169985 151.085063168,-34.004197975499999 151.08502787200001,-34.004225966 151.08499296,-34.004253956500001 151.08496092799999,-34.004283038499999 151.08492995200001,-34.004313989 151.084913056,-34.004334968 151.084896832,-34.004356021 151.084880992,-34.004377980500003 151.084865888,-34.004400032500001 151.08485004799999,-34.004421992 151.08483097599998,-34.004445024500001 151.08481008000001,-34.004467983 151.08478992,-34.004491015500001 151.08477193600001,-34.004514954500003 151.08475609600001,-34.004539985 151.084747072,-34.004558966 151.084739872,-34.004579038500005 151.084733056,-34.004599018500002 151.08472512,-34.0046189985 151.08471395199999,-34.004636999 151.08469488,-34.004658958500002 151.08467184,-34.004678032 151.08464700799999,-34.004697031500001 151.08462,-34.004714033 151.08459516799999,-34.004733032499999 151.084567072,-34.004753012500004 151.08454009599998,-34.004773973 151.084512,-34.004793953 151.084483936,-34.004814025500004 151.084455136,-34.004834005500001 151.084433152,-34.004850026500002 151.084410112,-34.004864974500002 151.084387072,-34.004880995500002 151.084364032,-34.004897016500003 151.084343168,-34.004914018 151.08431616,-34.004936976499998 151.08429097600001,-34.0049619885 151.084266848,-34.004987019 151.08424201599999,-34.005013011500004 151.08421609599998,-34.005036969 151.08418908799996,-34.005057023 151.08416099199999,-34.005076022499999 151.08413184,-34.005095003500003 151.08410592,-34.0051149835 151.08408288000001,-34.0051380345 151.084064896,-34.005160974500001 151.08404508800001,-34.005187984500004 151.08402889599998,-34.0052139955 151.08402204800001,-34.005250977 151.08403788800001,-34.0052589875 151.08406416,-34.005263039 151.084095136,-34.005263039 151.08412608,-34.0052589875 151.084152,-34.005252956500001 151.08417504,-34.005241986 151.08419484800001,-34.005224966 151.08421392,-34.005205985 151.08423299200001,-34.005186005 151.084252096,-34.0051680045 151.08426899200001,-34.005150004 151.08428592,-34.005131004500001 151.08430284799999,-34.005113004 151.08432012799997,-34.0050989625 151.08433811200001,-34.005093024 151.084364032,-34.005114003 151.08438889599998,-34.005137035499999 151.08441299200001,-34.005160974500001 151.08443497600001,-34.005185006 151.084455136,-34.00521101699999 151.08447491199999,-34.005242966499992 151.084491136,-34.005276988 151.084505888,-34.005311009499998 151.08452208,-34.005346011500002 151.08454009599998,-34.00537896 151.08456995199998,-34.005418013499998 151.08460307199999,-34.005455013500004 151.08463907199999,-34.00549199499999 151.08467401600001,-34.005527996 151.084708928,-34.005564996 151.08474096,-34.0056019775 151.08477299200001,-34.005639958 151.08480505599999,-34.005678031 151.084837088,-34.005715012499998 151.08486985600001,-34.005751013500003 151.08490188799999,-34.005781982500004 151.08493500799997,-34.005810953500003 151.08496812800001,-34.0058400355 151.08499907199996,-34.005870986 151.08502608,-34.005903028 151.08503904,-34.005922027499999 151.08505091200001,-34.005941008500002 151.085063168,-34.0059609885 151.08507216000001,-34.005980968499998 151.08507900800001,-34.006001041 151.08508009600001,-34.006026959499998 151.085076128,-34.006052970499994 151.085068928,-34.006079962 151.085063168,-34.006106972 151.08506208,-34.006132983 151.08506604799999,-34.006155035 151.08507289599999,-34.006176994500002 151.08508009600001,-34.006199046500001 151.08508512,-34.006221006 151.08508691200001,-34.0062429655 151.08507792,-34.006283018 151.08505596800001,-34.006326030499999 151.08502608,-34.006366971 151.08499008000001,-34.006401991499999 151.08495084800001,-34.006428002500002 151.08501817600001,-34.006438973 151.085084032,-34.006449962 151.085151008,-34.006461025 151.08521795199999,-34.006471015 151.08528492799999,-34.006481005 151.085377088,-34.0064960455 151.08546889600001,-34.0065099945 151.08556105599999,-34.006524036 151.08565392,-34.006536005499996 151.08574608000001,-34.006544996499997 151.085808,-34.006546976 151.085871008,-34.006547975 151.08593292800001,-34.006546976 151.08599484800001,-34.006548955500001 151.08605603199999,-34.006554006 151.08611401600001,-34.006562997 151.08617305600001,-34.006573986 151.08622992,-34.0065870285 151.08628716800001,-34.006601976500001 151.08634188799999,-34.006619977 151.08639084800001,-34.006637977499992 151.08643801599999,-34.006658031500002 151.08648515199997,-34.006679991 151.08653088,-34.006703042 151.08657696,-34.006726981 151.08662016,-34.006750013500003 151.08666300799999,-34.006773952499998 151.08670512,-34.006798983 151.08674688,-34.006824994 151.08678793600001,-34.006851985499999 151.086831136,-34.006883047 151.08687216000001,-34.006915977 151.086912832,-34.006949018 151.08695497599999,-34.006980967499992 151.08699888000001,-34.007010031 151.087025888,-34.007024979 151.08705395199999,-34.007040001 151.08708204800001,-34.007054042500002 151.087110112,-34.007067991500001 151.087137856,-34.007083013500001 151.087184992,-34.007106952499996 151.08723289599999,-34.007131983 151.08728003199997,-34.007157994 151.08732288,-34.007185984499998 151.08735996799999,-34.007217027499998 151.08738409599999,-34.0072430385 151.08740387199998,-34.007271029 151.087422976,-34.007300999 151.08744096000001,-34.007329988500004 151.08745897599999,-34.007360032500003 151.08747408,-34.007383971499998 151.08748812799999,-34.007409002 151.08750217599999,-34.0074330335 151.08751584000001,-34.00745795299999 151.08752915199997,-34.007482983500005 151.08754499200001,-34.007510974 151.08756083200001,-34.0075389645 151.08757596799998,-34.007567047500004 151.087588928,-34.007596018500003 151.08759900800001,-34.007625008 151.087608,-34.00766001 151.08761305600001,-34.007695012 151.08761484799999,-34.007731013 151.08761411200001,-34.007768013 151.087611968,-34.007803015 151.087608,-34.007844954500001 151.08760115199999,-34.007886986500004 151.08759107199998,-34.007928038 151.08757705599999,-34.007967998 151.087556896,-34.008003999 151.08753996799999,-34.008027031499992 151.087527744,-34.008041720500003 151.087520896,-34.0080499715 151.0875,-34.008071043 151.08747696,-34.008092003500003 151.08745283199997,-34.008110004 151.08742188799999,-34.008130983 151.08738912000001,-34.0081489835 151.08735385599999,-34.008165985 151.087317856,-34.008182006 151.087281856,-34.008197046500001 151.08724115199999,-34.008212975 151.08719904,-34.008227997 151.08715692800001,-34.008242038500001 151.08711408,-34.008255007 151.087071968,-34.008269048500004 151.08703811199996,-34.008280019 151.087003936,-34.008290009 151.08696899199998,-34.008299999 151.086935168,-34.008310988 151.08690204800001,-34.008321958499998 151.08687107200001,-34.0083330215 151.08684192000001,-34.008344991 151.08681203200001,-34.008356979 151.08678288,-34.008369022499998 151.08675408,-34.008380992 151.08672707199997,-34.008393960499994 151.08670188799999,-34.008407003 151.08667596800001,-34.008419971500004 151.08665004799997,-34.0084320335 151.08662304000001,-34.008440044 151.08658092799996,-34.008444983499999 151.08653699199999,-34.008444003 151.086492,-34.008438952500001 151.08644700799999,-34.008431034499999 151.086403072,-34.008423024 151.08636601599997,-34.008415013499999 151.086328928,-34.008404043 151.08629184,-34.008393960499994 151.08625513599998,-34.008382971499998 151.08621804800001,-34.008372981500003 151.08618995200001,-34.008364971 151.08616188799999,-34.008356979 151.086134176,-34.008350041500002 151.08610608000001,-34.008344991 151.08607801599999,-34.008342031 151.08604092799999,-34.008347969500001 151.08600313599999,-34.008362991499993 151.08596496000001,-34.008379012499994 151.08592896,-34.008390982 151.08589692800001,-34.008390982 151.08587388800001,-34.008381991 151.08585408,-34.008368042 151.08583392,-34.008351022 151.08581305600001,-34.008335001 151.08579107200001,-34.008324030499992 151.08574787200001,-34.008314040500004 151.085697856,-34.008309989 151.085647072,-34.008312967500004 151.08559705600001,-34.008320978 151.08555385599999,-34.008334020500001 151.085518912,-34.008353001499998 151.085487968,-34.008377033 151.085459872,-34.008405023500003 151.08543216000001,-34.008434993500003 151.08540409599999,-34.008462984 151.08538608000001,-34.008480984500004 151.085368096,-34.008499984 151.08535116799999,-34.008517984499996 151.08533388800001,-34.008536965499999 151.085318048,-34.008555965 151.08527593599999,-34.008567028 151.085234176,-34.008577018 151.08519203199998,-34.008586027500002 151.08514883199999,-34.008594038 151.085106016,-34.008600957 151.08505993599999,-34.008606988 151.08501203199998,-34.008611039500003 151.084964896,-34.008614018 151.08491808,-34.008615997500002 151.08487091200001,-34.008616978 151.084807936,-34.008616978 151.08474492799999,-34.008615997500002 151.08468192000001,-34.008612038500004 151.08462,-34.008605008499991 151.08456096,-34.008591966 151.08452099199999,-34.008579996499996 151.08448211199999,-34.008566047500004 151.08444396799999,-34.008550026500004 151.08440617599999,-34.008533006500002 151.08436908799996,-34.008516005 151.084334176,-34.008499984 151.08429996800001,-34.008481983499998 151.08426505599999,-34.008464963500003 151.084230112,-34.00844903499999 151.08419411200001,-34.008434993500003 151.08414985600001,-34.008425003500001 151.08410412800001,-34.008417992 151.08405696,-34.008413034 151.08401088,-34.008407003 151.08396697599997,-34.008397013 151.08392016,-34.008382971499998 151.08387516799999,-34.008364971 151.08383088,-34.008344991 151.08378697599997,-34.008324030499992 151.08374592000001,-34.008300998 151.08371100799999,-34.0082790385 151.08367897599999,-34.008252028500003 151.083648,-34.0082260175 151.08361488,-34.008202985 151.083578176,-34.008185965 151.08353785599999,-34.008179046 151.083495008,-34.008177954499999 151.083451072,-34.0081800265 151.08340787200001,-34.0081800265 151.083366848,-34.008173015 151.083330112,-34.00815995399999 151.08329484800001,-34.008143045 151.08326099199999,-34.008122972500004 151.08322896000001,-34.008101013 151.08319907200001,-34.008077962 151.083173152,-34.008054023 151.083149056,-34.008028012 151.08312601599999,-34.008001020500004 151.08310512,-34.00797303 151.08308496000001,-34.007943966500001 151.08306912,-34.007915976 151.08305616000001,-34.00788600599999 151.08304211199999,-34.007857016500004 151.08302700799999,-34.007829026 151.08300611199999,-34.0078059935 151.08297984,-34.007788973499999 151.08294995200001,-34.007774044 151.08291612799999,-34.00776198199999 151.08288300800001,-34.007751992 151.08284915199997,-34.007744962 151.082790848,-34.007740022500002 151.08272892799999,-34.007742002 151.08266483200001,-34.007751992 151.08260617600001,-34.007768993500001 151.08255395200001,-34.007790953 151.08250393599999,-34.007807973 151.08245388799997,-34.007820035 151.08241212799999,-34.007825973500005 151.08236784,-34.007830025 151.082324992,-34.007833984 151.08228611199999,-34.007841994499998 151.08225408000001,-34.007856036 151.08222995200001,-34.007880955499999 151.08221484800001,-34.007912017 151.08220297599999,-34.007947019 151.08218784,-34.007982021 151.082168032,-34.008011010499999 151.08214393599999,-34.008035042 151.082116928,-34.008057001499999 151.08208812800001,-34.008077962 151.08205788800001,-34.008093983 151.08202512,-34.008107044 151.08199091200001,-34.008110004 151.081952032,-34.00810497199999 151.081913888,-34.008099033500002 151.08187788800001,-34.008096961499994 151.08185017599999,-34.008103973 151.08183216,-34.008127024 151.08182604800001,-34.008163025 151.08182496,-34.008206037499995 151.08182208,-34.008249956500002 151.08180985599998,-34.008288029500001 151.08179184,-34.008317999500001 151.08176988799997,-34.00834599 151.08174396800001,-34.008372001 151.08171696,-34.008398012 151.081689952,-34.008423024 151.08164713599999,-34.008459025 151.08159888,-34.008490974499999 151.08154992,-34.008522036 151.08149987199999,-34.0085529865 151.081452,-34.008585028500001 151.08140988799997,-34.008614998500001 151.08136704,-34.008643988 151.08132601599999,-34.008674032 151.08128604800001,-34.008705001 151.08124896000001,-34.008738023500001 151.08122195199999,-34.008767013 151.08119712000001,-34.008796983 151.08117299200001,-34.008828026 151.081149952,-34.008859975500002 151.08112908800001,-34.008892017500003 151.081111072,-34.008922986499996 151.08109488,-34.008954029500003 151.08107904,-34.008985979 151.08106211200001,-34.009017022 151.08104304,-34.009046992 151.081013888,-34.009083992 151.08098003200001,-34.0091180135 151.08094403199999,-34.009152035 151.08090912,-34.009184965 151.08087491200001,-34.009219985499996 151.08085692799997,-34.009244017 151.08083891199999,-34.009269029 151.08082201600001,-34.009293967 151.08080185599999,-34.009316999500001 151.08077916799999,-34.009335999 151.08073091200001,-34.009349041500002 151.080668992,-34.009347968500002 151.08060313600001,-34.009341031 151.08053904,-34.009338959 151.08048505599999,-34.009350022 151.08045011199997,-34.009370002 151.08041808,-34.009395032500002 151.08038784,-34.009423023 151.08036300800001,-34.009453973500001 151.08034211200001,-34.009485035 151.08032809599999,-34.009529046499999 151.08032700800001,-34.009577997500003 151.080332032,-34.009630019500001 151.08033312000001,-34.0096809685 151.08032412799997,-34.0097280325 151.08030396799998,-34.009770952499998 151.08027516799999,-34.009812004 151.08024313600001,-34.009850965 151.080210016,-34.009891017500003 151.08017904,-34.009930977499991 151.08015491200001,-34.009974008500002 151.08013187199998,-34.01002098 151.08010883200001,-34.010065972 151.08008185599996,-34.010105044 151.080045856,-34.01013401499999 151.07999689600001,-34.010147964 151.07993891199996,-34.010150036 151.07987484799997,-34.010145004 151.07981184,-34.010143024500003 151.07975315199999,-34.01014896299999 151.079686912,-34.010169035499999 151.07962393599999,-34.010197026 151.07956307200001,-34.010229956 151.07950297599999,-34.010264976499997 151.07944499199999,-34.010299978500001 151.07939785600001,-34.010328968 151.07935283200001,-34.010360011 151.07930892799996,-34.010390961500001 151.07926393599999,-34.010422023 151.07921891199999,-34.010452973500001 151.079162048,-34.010487994 151.07910588799999,-34.010522996 151.079048992,-34.010557017499998 151.07899104,-34.010591039 151.07893308800001,-34.010623987499997 151.078876928,-34.010652958500003 151.07882003200001,-34.0106810415 151.07876316799999,-34.010709032 151.07870592,-34.010737022500003 151.07864905599999,-34.010765013 151.07858208,-34.010796962500002 151.07851404799996,-34.010828005499995 151.07844707199999,-34.010859955 151.07838409600001,-34.010894975500001 151.078328992,-34.010936008500003 151.07829408000001,-34.010966977499997 151.07825987199999,-34.011 151.07822892799999,-34.011035002 151.078203008,-34.011072002 151.07818393599999,-34.011108983499994 151.07817708799999,-34.011143005 151.07817708799999,-34.011180005 151.07817888,-34.011216006 151.07817817599999,-34.011252007 151.07816809600001,-34.011285029500002 151.07811913599997,-34.011324989500004 151.078096096,-34.011333 151.07803596799999,-34.01135298 151.07793804799999,-34.011376012500001 151.07784588800001,-34.011403022499998 151.07777785600001,-34.011443963 151.07774291199999,-34.011492026 151.07771916799996,-34.011547026500004 151.077701152,-34.011606966499997 151.07768496,-34.011666999 151.07766588800001,-34.0117260325 151.07764896,-34.011765992500003 151.07763097599999,-34.011807025499998 151.07761404799999,-34.0118469855 151.0776,-34.01188803699999 151.07759100800001,-34.011928977499998 151.07760108799997,-34.012007991 151.07763708799999,-34.012087023 151.07768387199999,-34.012168016 151.07772598400001,-34.012250008 151.07774617600001,-34.012332 151.07774688,-34.012382042500001 151.077744,-34.012431992499998 151.077737888,-34.012482035 151.07772707199996,-34.012531985 151.07771305599999,-34.012580048 151.07769468800001,-34.012922483 151.07769251199997,-34.013022475500001 151.07770668800001,-34.013123504 151.07773968,-34.013195506 151.07778768,-34.013368499500004 151.077786688,-34.013382504 151.077803776,-34.013411549 151.077820672,-34.013440538499992 151.07783568,-34.013541511500001 151.0778808,-34.013813498499999 151.0779096,-34.014072517 151.077901664,-34.014425737499998 151.07784768,-34.014362042 151.07770297600001,-34.014191842 151.07762233599999,-34.014097085 151.07743187200001,-34.013873161 151.07730588800001,-34.013684701500004 151.07712867199999,-34.01321552299999 151.07707267200001,-34.012921521 151.07710428799999,-34.012666350499998 151.077110688,-34.012613514500003 151.07715683199999,-34.011852202500002 151.07699808000001,-34.011334887 151.07680864,-34.0110615125 151.07678764799999,-34.010864506 151.07670217599997,-34.010660784 151.07664563200001,-34.010563048500003 151.07660316799999,-34.010503645 151.07659596799999,-34.010493118500001 151.07655888,-34.010448385499998 151.076477152,-34.01036397 151.07638572799999,-34.010286936 151.07633171200001,-34.010247771499998 151.07543964800001,-34.009361917500001 151.07540966400001,-34.009331522 151.075384192,-34.009306732 151.07529888,-34.009221965 151.074354656,-34.008485517 151.073813664,-34.008265533500001 151.07369664000001,-34.00842554 151.07342688,-34.008795725 151.073133856,-34.008953400500005 151.07275692799999,-34.00882236499999 151.07242467200001,-34.008338553 151.07236489600001,-34.008299721500002 151.07141088,-34.008632018500002 151.07127049600001,-34.008733176500002 151.071067712,-34.009663578500003 151.071115744,-34.00979158 151.07041376000001,-34.010423595500001 151.069157792,-34.0102326015 151.06936608000001,-34.009217377 151.06937507200001,-34.009210347 151.07009292800001,-34.008653515500001 151.07021065599997,-34.008265792499998 151.07038380799997,-34.008067805499998 151.07071372799999,-34.007690572 151.071230528,-34.007334391500002 151.07154300799999,-34.00661106 151.0715016,-34.006150447 151.07148912,-34.00601062399999 151.07163264,-34.006028550499998</coordinates></LinearRing></outerBoundaryIs></Polygon>

	</Placemark>
</kml>