<?xml version="1.0" encoding="UTF-8"?>
<kml xmlns="http://www.opengis.net/kml/2.2">
	<Placemark>
		<Style>
			<LineStyle>
				<color>ff0000ff</color>
			</LineStyle>
			<PolyStyle>
				<fill>1</fill>
				<color>330000cc</color>
			</PolyStyle>
		</Style>
			<ExtendedData><SchemaData>
		<SimpleData name="STATE_2006">1</SimpleData>
		<SimpleData name="POA_2006">2147</SimpleData>
	</SchemaData></ExtendedData>
      <Polygon><outerBoundaryIs><LinearRing><coordinates>150.95832995200001,-33.765623437 150.958367968,-33.765894425 150.95848694399999,-33.766366434 150.958618976,-33.766960432 150.958641984,-33.767044422 150.958784,-33.767568434499999 150.95878950400001,-33.767584844 150.95883798400001,-33.767773433 150.95886099200001,-33.767886412500005 150.958948,-33.768307417 150.95896198400001,-33.768531415 150.95903097600001,-33.769080402500002 150.95913299200001,-33.769459412 150.95922198399998,-33.7696344035 150.95934697600001,-33.770065416500003 150.959516,-33.770577404 150.95966003199999,-33.771038405500001 150.95983100800001,-33.771482405500002 150.96004003199999,-33.771937413 150.96031702400001,-33.772443406500003 150.96046201600001,-33.772709399499995 150.96097500799999,-33.773546395 150.961389024,-33.774104392 150.961580032,-33.7743773965 150.96212403199999,-33.775086372 150.96263603200001,-33.7758103695 150.96333203200001,-33.776834381500002 150.963382016,-33.776909362 150.963617024,-33.7772283575 150.96390102399999,-33.7776013545 150.96439302399997,-33.778228356500001 150.96522502400001,-33.779204342500002 150.96542432000001,-33.779436221499999 150.96508700800001,-33.77960533 150.96507603200001,-33.77960333199999 150.96499401599999,-33.779586330500003 150.96082009599996,-33.778476386 150.96046809599997,-33.778579412500001 150.960163072,-33.778668416 150.95985811200001,-33.778758418500004 150.959454112,-33.778877410500002 150.95901712,-33.779005430499993 150.95842515199996,-33.779180422 150.95814515199999,-33.779261433500004 150.957867136,-33.77934344399999 150.95758515200001,-33.7794254545 150.95731113599999,-33.779506447500005 150.95703814399999,-33.779586441500001 150.957069152,-33.779674446 150.95717619199996,-33.779971445 150.95695219199999,-33.779987447499998 150.956913184,-33.779990444500001 150.95651017599999,-33.78002047 150.956316192,-33.779727467 150.95628118399998,-33.779674464500005 150.95605916799997,-33.779338467500004 150.95602716799999,-33.77929046 150.95571817599998,-33.778822465499999 150.955687168,-33.778773459 150.955528192,-33.7785334585 150.954650176,-33.777999493 150.954527168,-33.778146475499994 150.95443417600001,-33.778092492500001 150.95434419200001,-33.77803949 150.9531872,-33.777358505 150.95257222399999,-33.77699649699999 150.95192521600001,-33.776615526500002 150.95182921599999,-33.776558528 150.95160921600001,-33.776755516 150.95147225599999,-33.776881519500002 150.95142524799999,-33.7769255125 150.94841529600001,-33.779674557 150.94838729599999,-33.779699550499998 150.948159328,-33.77990255099999 150.94806534400001,-33.779986578 150.94784835199997,-33.780180569 150.94775334400001,-33.7802655765 150.94767033599999,-33.780339576499998 150.947630336,-33.780374578500002 150.94795132799996,-33.780717568500002 150.948286336,-33.781102553499998 150.948609344,-33.781497565500004 150.94892035199999,-33.781900551 150.949262336,-33.78238055199999 150.94958732800001,-33.782875556500002 150.949895328,-33.783381531499998 150.950188352,-33.783896534500002 150.95060035200001,-33.784663544499999 150.950760352,-33.784974548 150.95079443200001,-33.78504285 150.95063033599999,-33.785177548500002 150.95044038399999,-33.785318537 150.95041936000001,-33.7852665335 150.95017737599997,-33.784823532499999 150.94991936,-33.785114556 150.9461064,-33.783915589499998 150.9459104,-33.783695587499992 150.94471142399999,-33.783725613 150.94358947200001,-33.7838346335 150.943482464,-33.783653629500002 150.943425472,-33.783605640499999 150.94337648000001,-33.7835756335 150.94334048,-33.783557633 150.94328547200001,-33.7835376345 150.94322745599999,-33.783522631 150.94316848,-33.78351364 150.94310745600001,-33.783511623500004 150.94304745599999,-33.783515638 150.942987456,-33.783525628 150.94294947200001,-33.783536635499999 150.94289446400001,-33.783556634 150.94285945600001,-33.783573635499998 150.94281046399999,-33.783603624 150.94278048000001,-33.783626638 150.942727456,-33.783677624 150.94265648000001,-33.783774638 150.942063488,-33.784009643499999 150.94151548799999,-33.784225649500002 150.94225849599999,-33.785691645 150.94257548799999,-33.78631565 150.94328451199999,-33.78706564 150.94262252799999,-33.787507642 150.940940576,-33.788631665 150.93584169600001,-33.792029726499997 150.93261478400001,-33.7941827565 150.931965792,-33.794612789 150.93126182399999,-33.795077786499995 150.93048281599999,-33.795593807 150.930411808,-33.795625793500001 150.93033782399999,-33.795651804500004 150.93026083199999,-33.795670804 150.93018182399999,-33.795683791 150.930077856,-33.795691801499991 150.92997184000001,-33.795687805500002 150.929894848,-33.795676798 150.92986886400001,-33.795672802 150.92984284799999,-33.795666808 150.92979286400001,-33.7956548015 150.92971984,-33.795629808 150.92934486399997,-33.795450802 150.92918848,-33.795389141500003 150.92913184,-33.795366812 150.929074848,-33.795365813 150.92874486400001,-33.795441811 150.927993888,-33.795615822 150.92759289599999,-33.79570884 150.92664787199999,-33.795925845 150.92661888,-33.796050831 150.92652192,-33.796191838 150.92640192,-33.7963568395 150.92626592,-33.796546834499992 150.926139904,-33.7966778515 150.92609392,-33.796779860500003 150.92608492799999,-33.796823853500001 150.926060928,-33.796865848499998 150.926036928,-33.796888862499998 150.926024928,-33.7968988525 150.92597891200001,-33.796922847 150.92592592,-33.796934853499998 150.92587190399999,-33.796933854500004 150.92581990400001,-33.796920849 150.92577392000001,-33.796894856500003 150.92573990400001,-33.796859854499999 150.92571792,-33.796817859500003 150.92566390399998,-33.796720845499998 150.92557792,-33.796589847 150.92542092799997,-33.796445861500004 150.92517692800001,-33.796283857 150.92455795199999,-33.795921867499999 150.924303936,-33.795764876500002 150.92417296,-33.795683865 150.92334195199999,-33.795422867 150.92316393600001,-33.795366867499993 150.92300294399999,-33.795316899 150.92208294400001,-33.794944882499998 150.922019936,-33.79491889 150.921647968,-33.794715889500004 150.92135398400001,-33.7943679045 150.92075456000001,-33.793651029499998 150.92022598399998,-33.793018903 150.92015798400001,-33.79293791 150.919789984,-33.792652936 150.91965897599999,-33.792620931 150.919554976,-33.792609923499995 150.91943596799999,-33.792603929500004 150.91913996799997,-33.792604928499998 150.91913299199999,-33.791802935 150.919103968,-33.791301936499991 150.91910198400001,-33.79122292299999 150.91909996800001,-33.7911589315 150.91910099200001,-33.79100392 150.919067936,-33.789752931500004 150.91907696000001,-33.789581936 150.91909993600001,-33.789411921 150.91912774400001,-33.789284918500002 150.91913696,-33.789242923499998 150.91916150399999,-33.789159988 150.91917395199999,-33.789117937500002 150.919217952,-33.788994931 150.91926995200001,-33.788873922500002 150.91931011200001,-33.788794946 150.919329952,-33.788755929499999 150.91937296,-33.788677933500004 150.91960592000001,-33.788310930500003 150.919912928,-33.787824935499991 150.91998592,-33.787708922 150.92049289600001,-33.786941912 150.92072089600001,-33.786533913 150.92087587199998,-33.786193901499999 150.92093788799997,-33.785909908 150.92097388799999,-33.785749901500004 150.92100188800001,-33.785588914500003 150.92102288000001,-33.785427909 150.92103686399997,-33.785266903500002 150.921040608,-33.785103918499999 150.92104185599999,-33.785049917 150.92103686399997,-33.784887912499997 150.92101884799999,-33.784672905500003 150.92099584,-33.784508903 150.92096585600001,-33.784347916 150.920928,-33.784186041 150.92088185599999,-33.784024906 150.920822528,-33.78386214299999 150.92064985599998,-33.783417902499991 150.92054585599999,-33.783100923500001 150.920540864,-33.783078927 150.92045984000001,-33.782773936 150.92042784,-33.7826499305 150.920382848,-33.782473921499999 150.92033984,-33.782146934 150.92033984,-33.78185493 150.92036582399999,-33.781528923 150.92042582400001,-33.781038932 150.920451808,-33.780626937 150.920394816,-33.780150932 150.920327808,-33.77970893 150.920314816,-33.779550921499997 150.920304832,-33.779420922 150.92029708800001,-33.779323741500001 150.920370816,-33.779254921499991 150.92074777600001,-33.779002933 150.92080179199999,-33.778946933500002 150.92089379199999,-33.778790923 150.921001792,-33.77869291 150.92098480000001,-33.778648935500001 150.92109478399996,-33.778478902 150.921167776,-33.778408916499998 150.9212048,-33.778323909 150.921350784,-33.778111917499999 150.92138777599999,-33.778025911 150.92144278399996,-33.77795590699999 150.92147977600001,-33.777869919 150.92153475200001,-33.777799915 150.92179276799999,-33.777345906500003 150.92182976000001,-33.777260917500001 150.92192176,-33.777118911500004 150.92203075200001,-33.776977904499994 150.92217574399996,-33.776807889499999 150.92255571199999,-33.7764278995 150.92257472,-33.776356896499998 150.92266473599997,-33.776300897 150.92270272,-33.776201885 150.92284073600001,-33.776047891 150.922955712,-33.775919889500003 150.92304572800001,-33.7758488865 150.92362470399999,-33.775271871500003 150.92367968,-33.775186864 150.92412969599999,-33.774793868499998 150.92441769599998,-33.774569870500002 150.924443712,-33.774545117500004 150.92363168,-33.774489876499999 150.92205571199997,-33.7743238945 150.92194873599999,-33.77430389599999 150.92154172799999,-33.774224901 150.92054275199999,-33.774031909 150.91989276800001,-33.773859914499994 150.919750752,-33.773824931 150.91937475200001,-33.773731931500002 150.91873174400001,-33.773538921 150.918335232,-33.773404518500001 150.91829964799999,-33.773392438 150.917869792,-33.773235928 150.9174448,-33.773066949 150.917410784,-33.773051945499994 150.917027776,-33.772882948 150.916622784,-33.772678948500001 150.916306784,-33.7725019405 150.9159968,-33.772314942500003 150.9159688,-33.772296942 150.9160488,-33.771872940500003 150.91614179199999,-33.771377954500004 150.9161768,-33.771218947 150.916383744,-33.770177952 150.91640374400001,-33.76996794 150.916416768,-33.7698259525 150.91650374400001,-33.76937594 150.91742272,-33.769499927 150.91726976000001,-33.770271932 150.91726976000001,-33.770307933 150.91728275200001,-33.770340937 150.917294752,-33.770355922 150.91730076799999,-33.770363932500004 150.91731574399998,-33.770376919500002 150.917362752,-33.7703979355 150.91808572799999,-33.770533929 150.918127712,-33.77053293 150.91816672,-33.770520923500001 150.91818073600001,-33.770507936500003 150.91819472,-33.770494931 150.91822172799999,-33.770470936500004 150.91846771199999,-33.769640934 150.91849171199999,-33.7695589235 150.918613728,-33.76885091 150.91979670399999,-33.769010916500001 150.91975968,-33.768598903 150.91976569600001,-33.768548916 150.91978969600001,-33.768450903 150.91982768,-33.768355905500002 150.91987769599999,-33.76826490399999 150.91993968,-33.768179915 150.919997696,-33.768122916499998 150.92003670400001,-33.768084917499991 150.92005568,-33.768065918 150.92007568,-33.768045901 150.920098688,-33.768030916 150.92014470399999,-33.76799991 150.92021568,-33.767951884 150.92129164799999,-33.767445890499999 150.921345664,-33.767409889500001 150.921357664,-33.767398900499998 150.921379648,-33.7673778845 150.92140867200001,-33.767341883500002 150.92143065600001,-33.767302885500001 150.921445664,-33.767261889499999 150.92145366400001,-33.76720589 150.92145564800001,-33.766972882499999 150.92007065600001,-33.766992899500003 150.91959865600001,-33.766998912 150.91883968,-33.766903914499999 150.91918764799999,-33.765019911499998 150.91924467199999,-33.764625917 150.91925977599999,-33.76456446 150.91927465599997,-33.764503891 150.919441632,-33.763818891499994 150.919443616,-33.763753882499998 150.91944963200001,-33.763589898500001 150.91991660799999,-33.761050884500001 150.91998358399999,-33.760684899 150.92006960000001,-33.760175871499996 150.920998016,-33.760285003 150.92114457599999,-33.759517882 150.92117856,-33.759401868499999 150.92122556800001,-33.759290868500003 150.92127056000001,-33.759209875499998 150.921321568,-33.759131879500003 150.92137955199999,-33.759056880500005 150.921444576,-33.758986876500003 150.921467552,-33.75896388099999 150.92149155199999,-33.758941847500004 150.92151555199996,-33.758919851 150.92154057600001,-33.758899852500001 150.92156656,-33.758878855 150.92159257599997,-33.758857857500004 150.92161955200001,-33.758840856 150.92167657600001,-33.758803856 150.92176352000001,-33.758747856500001 150.921816544,-33.758720846500005 150.92184553600001,-33.758707859499999 150.92190352,-33.758681848500004 150.92201152000001,-33.758628846 150.92217152000001,-33.758543857 150.92231353599996,-33.758457850500001 150.92236054399996,-33.758428861 150.92240652800001,-33.758398854 150.92241766399997,-33.758391232 150.92249654400001,-33.758337859499996 150.92262752,-33.758239846500004 150.922793536,-33.758102854 150.92282352000001,-33.758074863499999 150.92283219199999,-33.758066742 150.922948512,-33.757957832500004 150.923818496,-33.757073828499998 150.92344451199997,-33.756789835 150.923188512,-33.756595844 150.92310550400001,-33.7565198275 150.922996512,-33.75641484 150.92294451199996,-33.756355843500003 150.922872512,-33.75626684 150.92367248,-33.755819843 150.92363145600001,-33.755757831 150.92362060799996,-33.75573663 150.92358745599998,-33.755671843 150.92356246400001,-33.755603837 150.923545472,-33.755533833 150.92353945599999,-33.755487842 150.92353945599999,-33.755410845 150.92356345600001,-33.755245843499999 150.92389145600001,-33.755319825 150.92452048000001,-33.755409809 150.92473145599999,-33.755446809 150.92483446399999,-33.755471192 150.924938432,-33.755495815499998 150.924989888,-33.755510449 150.925040448,-33.755524823500004 150.92509104,-33.755541233 150.92519142399999,-33.755573811499993 150.925238976,-33.755592089499999 150.92548236799999,-33.755685718 150.92569843199999,-33.755768801500004 150.92587244800001,-33.755850793500002 150.92616844799997,-33.756027801500004 150.926222432,-33.756008802 150.92637744000001,-33.755951803500004 150.92646444799999,-33.755928808 150.926494432,-33.755920797499996 150.92655443199999,-33.755912805500003 150.92661443200001,-33.755903796 150.92664544,-33.755898801 150.92673747200001,-33.755896026 150.92676742399999,-33.755894805 150.92688940799999,-33.755901798 150.927665408,-33.756005786499998 150.92782441599999,-33.755191786499999 150.9274424,-33.755138784 150.92761436799998,-33.754308781499994 150.92769536,-33.753902780499999 150.92769836799999,-33.753845782 150.927686368,-33.753788783499999 150.92766137599997,-33.753735781 150.92764438399999,-33.753710787499998 150.92763337599999,-33.753698781 150.92761238400001,-33.753676784500001 150.92734236800001,-33.753457781500003 150.92728236799996,-33.753432788 150.92627139199999,-33.753303806 150.926343968,-33.75292178099999 150.92642736,-33.752482794500004 150.92645936,-33.752315795 150.92646336000001,-33.752254800499998 150.92642137600001,-33.752163799 150.926156384,-33.752004791499999 150.926029376,-33.751928793499999 150.92359440000001,-33.750685815499999 150.92292944,-33.750345822500002 150.923621408,-33.749393812500003 150.92271936,-33.748977951 150.921541792,-33.748424819500002 150.92126496,-33.748291268 150.920636032,-33.747987868 150.92046505599998,-33.747921545499999 150.92033363199999,-33.747906597499998 150.91982784000001,-33.747868432 150.91868377599999,-33.747813635 150.91820352,-33.74779058399999 150.91634268799999,-33.74770023 150.916374464,-33.747517894 150.91656947199999,-33.746303887 150.916645472,-33.745919882500004 150.91667347200001,-33.745754881 150.91674944,-33.745316875 150.91680742400001,-33.745017878 150.91699942400001,-33.744032864 150.91708841600001,-33.7435208765 150.91713440000001,-33.743297877499998 150.9172664,-33.742632876500004 150.91748940799999,-33.741458848 150.91749094399998,-33.741450800500004 150.91751136,-33.741343852 150.91768636800001,-33.740434854500002 150.91769536000001,-33.740395856500001 150.91789552,-33.739458609499998 150.918035328,-33.7394718555 150.91854633599999,-33.739560859 150.92203030399997,-33.74016481 150.92228032,-33.7402188115 150.92260832,-33.740297806500003 150.922930304,-33.740373804500003 150.92320531199999,-33.740439794 150.92352828799997,-33.740516791 150.92374828800001,-33.740569793500001 150.92405126400001,-33.740641795500004 150.92417328,-33.740670785 150.92536326399997,-33.740955777499998 150.925462272,-33.740978773 150.92556224,-33.740993776499998 150.925745248,-33.741037788 150.92631225599999,-33.74117676 150.92714224,-33.741378761500002 150.9279872,-33.741583741500001 150.92983900799999,-33.742159998 150.92972320000001,-33.742275734 150.92941955200001,-33.742579966500003 150.92942950400001,-33.742589623500002 150.92944921599999,-33.742608752500004 150.92952022399999,-33.7426877475 150.92955222399996,-33.742728725 150.92956620800001,-33.742750721500002 150.929594208,-33.742794733 150.93068220800001,-33.744905731 150.930856224,-33.745242727 150.93092422399999,-33.745373725500002 150.93093920000001,-33.745432722 150.93094620799999,-33.745491718499999 150.930945216,-33.745551732499997 150.930933216,-33.7456307275 150.93090720000001,-33.7457067255 150.93088022399999,-33.74576172599999 150.930832224,-33.745830731 150.930774208,-33.745893723500004 150.93075859199999,-33.745907857500001 150.93019424,-33.746418735 150.93027625600001,-33.746484743 150.93031923199999,-33.746517747 150.93036323199999,-33.746548716 150.93040723199999,-33.74658072099999 150.93045024,-33.746612726 150.93049724799997,-33.746641734 150.93058924799999,-33.746699731500001 150.93063523199996,-33.746728721 150.93072825600001,-33.746786718500005 150.930777248,-33.7468127295 150.93097424000001,-33.74691472 150.93112723199999,-33.746984724 150.93123123199999,-33.747026719 150.93171420799999,-33.7472627235 150.9320512,-33.747417716500003 150.93215622399998,-33.747463726 150.93220822399999,-33.747487702 150.93230921599996,-33.747537707500001 150.93236022400001,-33.747562701 150.93241020799999,-33.747589711 150.93246022400001,-33.747615703500003 150.93255721599999,-33.747671703 150.93260620799998,-33.747700711 150.93265321600001,-33.747729700500003 150.9327472,-33.747790713500002 150.9328392,-33.747852707 150.93292822399999,-33.747916698499999 150.932972224,-33.747950701500002 150.93314220799996,-33.748087712500002 150.93322220799999,-33.748160713499992 150.933262208,-33.748197713499998 150.93330220799999,-33.748233714500003 150.93334022400001,-33.748270714500002 150.93337820799999,-33.748308713500002 150.93348521600001,-33.748424708500004 150.93363020800001,-33.748621715 150.933837216,-33.748480708 150.9339032,-33.748424708500004 150.933950176,-33.748372705 150.93398819199999,-33.748319702499998 150.93401916799999,-33.748263703 150.93404316799996,-33.748205687 150.93425408,-33.747448667 150.93451814400001,-33.74650069 150.934565152,-33.746353689 150.93459414399999,-33.746260689499991 150.93464214399998,-33.746176681 150.93468713600001,-33.746114687500004 150.93473814399999,-33.746055691 150.934757152,-33.746035692500001 150.93477616000001,-33.746017692 150.93479513599996,-33.745999691500003 150.93485715200001,-33.745948687 150.93492416000001,-33.745902696 150.934970144,-33.745879682 150.93499216000001,-33.745867694 150.93508416,-33.7458206855 150.93576710400001,-33.745555673 150.93585212799999,-33.745535674500005 150.935939104,-33.745518673 150.93611712,-33.745491663 150.936298112,-33.745476678 150.936480128,-33.745471664499995 150.93666112,-33.745477677 150.93684211199999,-33.745495659 150.93705811199999,-33.7455306425 150.937133088,-33.745546645 150.93720707200001,-33.745566643499998 150.93724409599997,-33.745576652 150.93731609599999,-33.7455986485 150.93738707200001,-33.745624659500002 150.93933209599999,-33.746417625 150.94004006399999,-33.74669864 150.940621056,-33.747009606500001 150.94067891200001,-33.747048697 150.94073504,-33.747086622 150.940789056,-33.74712861699999 150.94081504,-33.747150613500004 150.94084006400001,-33.74717261 150.940934048,-33.7472676075 150.941016064,-33.747369616500002 150.941061056,-33.747459619 150.941241056,-33.747415607500002 150.94140006399999,-33.747383621 150.94145305599997,-33.747377608500003 150.94150704,-33.747378607500004 150.94156105600001,-33.747385619 150.941578048,-33.747390614 150.94159504000001,-33.74739461 150.94166006399996,-33.747419622 150.94170505599999,-33.747445614500002 150.94171904000001,-33.747455623 150.94173206400001,-33.747465613 150.94175504,-33.747488608499992 150.941778048,-33.7475126215 150.94180505599996,-33.747550620499993 150.94181004800001,-33.747562608500004 150.941903008,-33.747554616499997 150.94211644799998,-33.74753709699999 150.942115008,-33.747531621 150.94211900799999,-33.747346621 150.94254502399997,-33.747581589500001 150.94279603199999,-33.747719599500002 150.94280700799999,-33.747726592500001 150.94309900799999,-33.747887598 150.94339500800001,-33.748051600499998 150.94361702399999,-33.748173589499999 150.94379100800001,-33.748269604500003 150.94396003199998,-33.748363603 150.94407203200001,-33.748424597499998 150.944131008,-33.748457583 150.94430198399999,-33.748551581500003 150.944472,-33.74864558 150.94463897599996,-33.748738579499999 150.94480899199999,-33.748832578 150.944972992,-33.7489225805 150.94513897600001,-33.749014581 150.94530697600001,-33.749107580500002 150.94547699200001,-33.749201579 150.945649984,-33.749297575500002 150.945808992,-33.749384581 150.945986976,-33.749483556 150.94614899199999,-33.749572559500002 150.94618598400001,-33.749593557 150.946356,-33.749686556500002 150.94654598400001,-33.749792561500001 150.94657497599999,-33.749808564 150.94670297599998,-33.7499055595 150.94685798399999,-33.750024551500005 150.947011968,-33.750140565 150.94716396800001,-33.750254562 150.94731696,-33.750369558 150.94746896000001,-33.750484554 150.94762396799999,-33.75060054899999 150.947774944,-33.750714546 150.94792896000001,-33.750829542 150.94807996799997,-33.75094353899999 150.94823296000001,-33.751058535 150.948385952,-33.751173531 150.94853996800001,-33.751289544500004 150.94869296,-33.751404540499998 150.94884496,-33.751518537500004 150.94898396799999,-33.751622544500002 150.94899596799999,-33.751631535500003 150.94914294399999,-33.7517425355 150.94945196799998,-33.751975524500004 150.94960396799999,-33.752089521500004 150.94986396799999,-33.75228453 150.95021091199999,-33.752120527500004 150.950410912,-33.751895530500001 150.95057193599996,-33.751783513 150.95069593599999,-33.751742517 150.95078492799999,-33.75170052199999 150.95131392,-33.751723499 150.95166688,-33.751729511500002 150.951717696,-33.751751674499999 150.95179388799997,-33.751911496 150.95228793599998,-33.752944499 150.952974912,-33.754231488500004 150.953751936,-33.755573478500004 150.95390291199999,-33.75581048199999 150.95440192000001,-33.756538457 150.95474592,-33.757175467499998 150.95486192000001,-33.757515460500002 150.95498793600001,-33.757686474499998 150.95509491199999,-33.757851457500003 150.955227936,-33.758017458 150.95540492800001,-33.758110457500003 150.95549091199999,-33.758133471500003 150.955563936,-33.758174467499998 150.95562192,-33.758232446500003 150.955656928,-33.758300452500002 150.955667936,-33.7583744525 150.95570793600001,-33.758587443 150.95592592,-33.759022452 150.95625792000001,-33.759610456 150.95690092800001,-33.760727449 150.957107936,-33.761107439 150.957547936,-33.762095431500001 150.957872928,-33.762967429 150.957975936,-33.763468427499994 150.95805494399997,-33.763888433 150.958155968,-33.764745427 150.95815894399999,-33.764875426499998 150.95832995200001,-33.765623437</coordinates></LinearRing></outerBoundaryIs></Polygon>

	</Placemark>
</kml>