<?xml version="1.0" encoding="UTF-8"?>
<kml xmlns="http://www.opengis.net/kml/2.2">
	<Placemark>
		<Style>
			<LineStyle>
				<color>ff0000ff</color>
			</LineStyle>
			<PolyStyle>
				<fill>1</fill>
				<color>330000cc</color>
			</PolyStyle>
		</Style>
			<ExtendedData><SchemaData>
		<SimpleData name="STATE_2006">1</SimpleData>
		<SimpleData name="POA_2006">2153</SimpleData>
	</SchemaData></ExtendedData>
      <Polygon><outerBoundaryIs><LinearRing><coordinates>151.00858771200001,-33.765096187 151.008197056,-33.765487776500002 151.008041056,-33.765586788500002 151.00785107199999,-33.76564079 151.007748064,-33.765638773500001 151.007273056,-33.765667781499999 151.006993088,-33.765684801500001 151.00683808,-33.765724798499996 151.00678608000001,-33.7657528075 151.00671808000001,-33.765751808499999 151.00645910399999,-33.765847805 151.006320096,-33.765917809 151.00616409599999,-33.765986795499998 151.00573008000001,-33.766252807 151.005451136,-33.766477822500001 151.00531011199999,-33.76664682 151.005263136,-33.766706815500001 151.00524313599999,-33.766733825500005 151.00522211200001,-33.766759818 151.00522112,-33.766817815499998 151.00518512,-33.7668888185 151.005171456,-33.766949813 151.0043328,-33.767052654499999 151.00398611200001,-33.767095149 151.00373808,-33.767132408 151.00273152,-33.767283608500001 151.00197913599999,-33.767370262500002 151.00175555199996,-33.767394571499992 151.00152876799999,-33.767423006 151.00126704,-33.767451459 151.00096716799999,-33.767489883499998 151.000619392,-33.767527142500001 151.000445536,-33.767549361 151.00034220800001,-33.767563865 151.00011622400001,-33.76759387199999 150.999896224,-33.767625877 150.99967523199999,-33.7676598985 150.99860825600001,-33.767869892 150.99871926399999,-33.768000890499998 150.998765728,-33.768055946499999 150.99888131200001,-33.7681896275 150.99930726400001,-33.768715897 150.99943724799999,-33.768866894 151.00009126399999,-33.76940287599999 151.000123264,-33.769433882 151.000335264,-33.769673882500001 151.00044025599999,-33.769850872 151.00064624,-33.770166870499999 151.000772256,-33.7704198765 151.00083424,-33.77062287699999 151.000931264,-33.7709378765 151.00098624,-33.771179875 151.00105424,-33.771466865500003 151.00105424,-33.771467883 151.00110425599999,-33.771950881 151.001101248,-33.772132865499998 151.001054272,-33.772780088 151.00103484799996,-33.773048467499997 151.00105929599999,-33.773417875500002 151.00109244800001,-33.773640393500003 151.001157248,-33.773973301 151.00119216,-33.774109017 151.00122348799999,-33.774247804 151.00125875200001,-33.774439852500002 151.00128428799999,-33.774588851499999 151.00129836799999,-33.774750097500004 151.00131097600001,-33.774884555500002 151.00132105599999,-33.775019198500004 151.001321408,-33.7750837265 151.00131673600001,-33.775148421 151.00131276799999,-33.775180389 151.00129872,-33.775249856499997 151.00127964800001,-33.775318436 151.001246528,-33.775422036 151.00120691199999,-33.775524452 151.00116803200001,-33.775608053500001 151.001113312,-33.7757108765 151.00105532800001,-33.775805874 151.00021235200001,-33.776867866499998 150.99991523200001,-33.776509762 150.99967296,-33.77619504 150.999388928,-33.775436429 150.99924889600001,-33.7750633765 150.99886547199998,-33.774831442 150.99855984000001,-33.774714448 150.99836688,-33.774640744 150.997956128,-33.774601505499994 150.99770988799997,-33.774664313 150.9968808,-33.775276681500003 150.99665363199998,-33.775390345499993 150.996448448,-33.775422572499998 150.9962112,-33.775441553500002 150.996060736,-33.775453615499991 150.9959088,-33.775463439 150.99574176,-33.775492854 150.99537420799999,-33.775712005 150.99524352,-33.775831163500001 150.99467507200001,-33.775435985 150.99458508799998,-33.775368478499999 150.99449939199999,-33.775296754 150.994359712,-33.775158411 150.99428448,-33.775069777499994 150.994216448,-33.774977333 150.99370812800001,-33.774164017499999 150.99276563199999,-33.774519236 150.9926472,-33.774564246499999 150.99172848000001,-33.774910104 150.991944832,-33.775359839 150.99201395200001,-33.775465141 150.99183216,-33.775516978 150.99165504000001,-33.775578897500004 150.99148332799999,-33.775650622 150.99130332799999,-33.775740717 150.99115571199999,-33.775840080500004 150.991036192,-33.775936206499992 150.991007776,-33.775961496 150.99059161599999,-33.776361262500004 150.990654592,-33.776390159500004 150.99231673599999,-33.777152637 150.9927696,-33.777416521 150.99292044800001,-33.777506523500001 150.99297299200001,-33.777542691 150.99304860800001,-33.777595083 150.99325091200001,-33.777769778500002 150.993353152,-33.777879576 150.99345187200001,-33.777994498 150.99331648,-33.778137965500001 150.993206464,-33.778307962 150.99320448,-33.778393968499998 150.99307651199999,-33.779350973500001 150.99306851200001,-33.779693963500002 150.993084512,-33.779765965500005 150.993082496,-33.779851972 150.99304150399999,-33.78010897399999 150.99301952,-33.7802799695 150.992778528,-33.7808059615 150.99271852800001,-33.781076968 150.99269353599996,-33.782192962 150.99265155200001,-33.782463987 150.99262956800001,-33.782649986 150.99253657599999,-33.782834986 150.99221056,-33.783215993500001 150.991835584,-33.783409984500004 150.99174656,-33.783437993500002 150.99124659200001,-33.78370100799999 150.99103260800001,-33.783813007 150.99021363200001,-33.784114002 150.989857632,-33.784266016499998 150.98964662399999,-33.784402028499997 150.98955264,-33.784462024 150.989282624,-33.784700026499998 150.98902768,-33.785054024 150.98898867199998,-33.785182025499999 150.98882566399999,-33.785394017 150.98848166400001,-33.785775024499998 150.98837369599997,-33.785860032 150.98793868800001,-33.786368042 150.987899712,-33.786510048 150.987877696,-33.786696047 150.98764774399999,-33.787350040500002 150.98697372800001,-33.787641064 150.98672374399999,-33.787751065 150.98647977600001,-33.787969050500003 150.986471776,-33.787976062 150.98634377600001,-33.788160063 150.986271776,-33.788231066 150.98608976,-33.788457062 150.98601776000001,-33.788527066 150.98585676799996,-33.788596052500004 150.98576876800001,-33.788595053500003 150.985558752,-33.788534077500003 150.98522777599999,-33.788357069500002 150.98503776000001,-33.78815307 150.98496976000001,-33.788067082 150.98486576,-33.787979077500005 150.98474675199998,-33.7877910805 150.98473276799999,-33.787771082 150.983858752,-33.7865321 150.98375676800001,-33.786358089 150.98372377600001,-33.786257097499998 150.983488768,-33.785724094 150.98341977600001,-33.785637088500003 150.98336976,-33.78553609699999 150.98330076799999,-33.785463096 150.98326777599999,-33.785363103500003 150.98316576,-33.785203097 150.98309977599999,-33.785016099 150.98303075199996,-33.784929093500004 150.98299776,-33.784829101 150.98286076799999,-33.784655108500004 150.98258476800001,-33.784378108 150.98235875200001,-33.784260115 150.98213075199999,-33.784199120499999 150.98202576,-33.784155109 150.98181475199996,-33.784123122499999 150.981461792,-33.7841171285 150.9811248,-33.784211127 150.98090979199998,-33.78435113499999 150.9808368,-33.784422138 150.9807608,-33.784678141 150.98075878399999,-33.784778133499998 150.98070179199999,-33.784949129 150.98064582399999,-33.785048141 150.98051984,-33.785147134500001 150.98041382400001,-33.785173127 150.98020182400001,-33.785213124 150.97988384000001,-33.785208147500001 150.97965584,-33.785175143499998 150.979428832,-33.785057150500002 150.97932483199997,-33.784970145 150.97915382400001,-33.784710146 150.97905283200001,-33.784522149 150.97901984000001,-33.784421157499999 150.97888281600001,-33.784233160499994 150.97879683199997,-33.784160159500004 150.97858883200001,-33.783999172500003 150.97843081600001,-33.783939177 150.97823683199999,-33.783936161499994 150.97800585599998,-33.784004167500001 150.97782585599998,-33.784158161500002 150.97749686399999,-33.784640179 150.97735385600001,-33.784766164 150.97726387200001,-33.784822182 150.97706886399999,-33.784876183500003 150.97692688000001,-33.784874185500001 150.97669990399999,-33.784785182 150.97661788799999,-33.784715196500002 150.97657888000001,-33.7846821925 150.97638988799997,-33.784479192 150.976356896,-33.784364196 150.97625488,-33.784205188500003 150.976176864,-33.783745186 150.976161856,-33.7836451935 150.976130848,-33.783473180500003 150.976061856,-33.7833861935 150.97601187199999,-33.783285183499999 150.97590787199999,-33.783197216 150.97563084800001,-33.782978213 150.97543884800001,-33.782889209499999 150.97522790399998,-33.7828432 150.97499888,-33.782853208500001 150.97469590399999,-33.782963209500004 150.97403888,-33.783153223 150.97382688,-33.783149227 150.973599936,-33.783031234 150.97357536000001,-33.782999580500004 150.97349808000001,-33.782900217 150.97346675200001,-33.782700232 150.973486912,-33.782600258 150.97357872000001,-33.782430243 150.97365072,-33.782373263 150.97381884799998,-33.781990239 150.97379075200001,-33.781674240500003 150.97367196799999,-33.781486225 150.97349881599999,-33.781340241500004 150.973306912,-33.781251238 150.973095968,-33.781219288500004 150.97276188800001,-33.781157276500004 150.97256892799999,-33.781111285500003 150.97235795200001,-33.781078263 150.97149504000001,-33.781007241499999 150.97128409600001,-33.781004281500003 150.97086108799996,-33.780968280499991 150.97064976,-33.780936238499997 150.96980304,-33.780937237499998 150.969168,-33.780927247500003 150.96853187199997,-33.780959271 150.968089088,-33.781038303 150.96776905600001,-33.781133337500002 150.96739500800001,-33.781313342499999 150.96716771199999,-33.781380109 150.96705155199999,-33.781258083 150.96695148800001,-33.781153465500005 150.96691043199999,-33.781110564 150.96678265599999,-33.780965764500003 150.96629376000001,-33.780447098499998 150.96542432000001,-33.779436221499999 150.96522502400001,-33.779204342500002 150.96439302399997,-33.778228356500001 150.96390102399999,-33.7776013545 150.963617024,-33.7772283575 150.963382016,-33.776909362 150.96333203200001,-33.776834381500002 150.96263603200001,-33.7758103695 150.96212403199999,-33.775086372 150.961580032,-33.7743773965 150.961389024,-33.774104392 150.96097500799999,-33.773546395 150.96046201600001,-33.772709399499995 150.96031702400001,-33.772443406500003 150.96004003199999,-33.771937413 150.95983100800001,-33.771482405500002 150.95966003199999,-33.771038405500001 150.959516,-33.770577404 150.95934697600001,-33.770065416500003 150.95922198399998,-33.7696344035 150.95913299200001,-33.769459412 150.95903097600001,-33.769080402500002 150.95896198400001,-33.768531415 150.958948,-33.768307417 150.95886099200001,-33.767886412500005 150.95883798400001,-33.767773433 150.95878950400001,-33.767584844 150.958784,-33.767568434499999 150.958641984,-33.767044422 150.958618976,-33.766960432 150.95848694399999,-33.766366434 150.958367968,-33.765894425 150.95832995200001,-33.765623437 150.95815894399999,-33.764875426499998 150.958155968,-33.764745427 150.95805494399997,-33.763888433 150.957975936,-33.763468427499994 150.957872928,-33.762967429 150.957547936,-33.762095431500001 150.957107936,-33.761107439 150.95690092800001,-33.760727449 150.95625792000001,-33.759610456 150.95592592,-33.759022452 150.95570793600001,-33.758587443 150.955667936,-33.7583744525 150.955656928,-33.758300452500002 150.95562192,-33.758232446500003 150.955563936,-33.758174467499998 150.95549091199999,-33.758133471500003 150.95540492800001,-33.758110457500003 150.955227936,-33.758017458 150.95509491199999,-33.757851457500003 150.95498793600001,-33.757686474499998 150.95486192000001,-33.757515460500002 150.95474592,-33.757175467499998 150.95440192000001,-33.756538457 150.95390291199999,-33.75581048199999 150.953751936,-33.755573478500004 150.952974912,-33.754231488500004 150.95228793599998,-33.752944499 150.95179388799997,-33.751911496 150.951717696,-33.751751674499999 150.95167689600001,-33.751666500500001 150.951577888,-33.751458505 150.95144588799997,-33.751182503500004 150.95090889599999,-33.750127504 150.95055689599999,-33.749364527 150.950485152,-33.749191774 150.95029888,-33.748701524 150.95018089600001,-33.748424523499992 150.94989612800001,-33.747578814500002 150.94979244800001,-33.747305310500003 150.94977408,-33.747256267 150.949481056,-33.74648145 150.94888848,-33.745125067 150.94867392,-33.744633207500002 150.94795788799999,-33.743006724499999 150.94763353600001,-33.742269629 150.947556128,-33.742123849 150.94728035200001,-33.741525596 150.946866016,-33.740951134 150.94675692800001,-33.740783635 150.94630499199999,-33.740087998 150.946152,-33.739791998 150.94592499199996,-33.739349996 150.944842016,-33.7367300075 150.94444064000001,-33.735765732 150.94422700799998,-33.735257000499999 150.943635008,-33.733836996 150.943328992,-33.733129001 150.94280899200001,-33.731925002499992 150.942352,-33.731025995 150.941846016,-33.730030991 150.94136499199999,-33.728927003500004 150.940504,-33.726950001 150.940444,-33.72680599699999 150.939931008,-33.725571991500004 150.94020601599999,-33.725507001 150.94271072,-33.7247675375 150.943985696,-33.724392524 150.94511865600001,-33.7240585065 150.94709363199996,-33.723476478 150.949079584,-33.722891471 150.94929756799996,-33.72282746099999 150.95082707200001,-33.722376838 150.95142432,-33.721625886 150.95441376,-33.717867296500003 150.95443283200001,-33.717843006 150.95570524799999,-33.717467511499997 150.95594700800001,-33.717396027500001 150.96073132800001,-33.715981314 150.96179328,-33.717174305 150.962535296,-33.718063304 150.96263827199999,-33.718186292 150.96333628799999,-33.719168272 150.96343929599996,-33.71934528 150.963650272,-33.719583282500004 150.96388028800001,-33.719843281499998 150.96389235199999,-33.719855066 150.96414128000001,-33.720098285499994 150.964391296,-33.720317288499999 150.96478528,-33.720614287499998 150.96532028799996,-33.720980254499999 150.96553129599999,-33.721097267 150.96597427200001,-33.721383258499998 150.966316288,-33.721552256 150.96662329599999,-33.721678259500003 150.966934272,-33.721778270500003 150.96721324800001,-33.721844241500001 150.968104256,-33.722020250500002 150.96826524799999,-33.722061246500004 150.96831824,-33.72207625 150.96837126400001,-33.722091235 150.96842326399999,-33.722108236499999 150.96847625599997,-33.722124239 150.968579264,-33.72216024 150.96868224,-33.722198220500005 150.968783264,-33.7222392165 150.96883225600001,-33.7222622305 150.968881248,-33.722285226 150.96893024,-33.7223072225 150.969028256,-33.722352233 150.969075264,-33.722377226500001 150.96912326399999,-33.72240222 150.96946624,-33.72261423 150.96979923200001,-33.722875228 150.97225523200001,-33.72497919599999 150.972467392,-33.725195646 150.97275622399999,-33.725552196500004 150.97293827199999,-33.725867843499998 150.97301891199996,-33.726053343 150.97305097599997,-33.726158904 150.97305779199999,-33.726246834500003 150.97305564800001,-33.726505594 150.97301244799999,-33.726790531 150.97298003200001,-33.726881421500003 150.97287312,-33.727181399 150.972760096,-33.727412612 150.97271868799999,-33.727497749 150.97264825600001,-33.727640199 150.97259324800001,-33.7278042015 150.97254524799999,-33.727970202 150.972505248,-33.728136202500004 150.972473248,-33.728304201 150.97244825600001,-33.728473198499998 150.97243225599999,-33.728643213499993 150.97237129600001,-33.729723206500005 150.97233427199998,-33.730366211 150.97223232,-33.73206921 150.97222332800001,-33.732317073 150.97221932799999,-33.7324252055 150.97221577600001,-33.7325273995 150.97221648,-33.73259202 150.97223916799999,-33.732820254499991 150.972293888,-33.73306155 150.97241808000001,-33.733367373500002 150.97262364799997,-33.733644836499998 150.97288931200001,-33.733940226 150.972909856,-33.733956413500003 150.97306249600001,-33.734114995499993 150.97323564800001,-33.734241184 150.973539488,-33.734419117 150.973647008,-33.734468993 150.97465260800001,-33.734754263 150.97546656,-33.734995928499991 150.975780832,-33.735091148 150.976058752,-33.735191843500004 150.97618368,-33.735240184 150.97645116800001,-33.735343858 150.97675859200001,-33.735496131499993 150.9770448,-33.735603598 150.97709225599999,-33.735620155499994 150.97722697599997,-33.735660300500001 150.977363776,-33.735694137 150.97750326400001,-33.73572114699999 150.97768992,-33.735749137500001 150.97777235199999,-33.735756778 150.97820220799997,-33.7357839545 150.97875264000001,-33.735769746500004 150.97893696,-33.735764973500004 150.97941180799998,-33.735760385499994 150.979567328,-33.735762901500003 150.97978908799999,-33.735791336 150.980128928,-33.735858842500001 150.9812856,-33.73618131599999 150.98137235199999,-33.736209121500004 150.98184108800001,-33.736359249 150.98208083199998,-33.736436005500003 150.98241132799998,-33.7365652465 150.98266044799999,-33.736693322 150.98292361599999,-33.736864854 150.98315616,-33.737060695 150.98335129599997,-33.737280752499998 150.98352300799999,-33.737549946 150.98367276799999,-33.737886442499999 150.98378364800001,-33.738136562500003 150.9841552,-33.738985083500005 150.98432976000001,-33.739437242 150.984416896,-33.739748005 150.98446403200001,-33.739984435 150.98447161600001,-33.740166234500002 150.984461536,-33.740342817 150.98445251199996,-33.74037855899999 150.984409696,-33.740543338500004 150.98433408,-33.740677075 150.98422681599999,-33.740846368500002 150.98439017600001,-33.740912080500003 150.98468819199999,-33.741033070500002 150.984878176,-33.741255070500003 150.984889184,-33.741291071500001 150.98491619199996,-33.741590068500003 150.98530819199999,-33.741562059499998 150.985574176,-33.741568053500004 150.98571417599996,-33.741615062 150.986226144,-33.741893061499994 150.986293152,-33.741929062499999 150.98648416,-33.742033051 150.986542144,-33.742065056 150.98725715200001,-33.742455036 150.98736416,-33.742518047 150.98784214399998,-33.742809033500002 150.98838214400001,-33.743116022500004 150.989400128,-33.743341019499994 150.99004512,-33.7436979955 150.99026313600001,-33.743823 150.99030713600001,-33.74378000599999 150.99039395200001,-33.743712592 150.99041808000001,-33.743697033499998 150.990468128,-33.743668007 150.99051913599999,-33.743639998 150.990628128,-33.743593008 150.99071408,-33.743564999 150.99074310399999,-33.743557007 150.99083110399997,-33.743537008499999 150.99110108799999,-33.743501007500001 150.992023104,-33.74336397799999 150.99269206400001,-33.743266964 150.99282905600001,-33.7432399725 150.99295004800001,-33.743205969500004 150.993069056,-33.743164973500001 150.993294048,-33.7430649625 150.993170048,-33.743466967499998 150.993133056,-33.7435449635 150.99308707200001,-33.743638962 150.992159104,-33.744781984500001 150.99208508800001,-33.744851988500002 150.99293708799999,-33.745334968 150.993677088,-33.7457559725 150.99459404800001,-33.746275952 150.99432806399997,-33.746508941 150.99411308800001,-33.7467169735 150.99393110400001,-33.746966964 150.99375209599998,-33.747322959500003 150.99369609600001,-33.747483965 150.994363104,-33.747801961500002 150.994701088,-33.748047956 150.99522310399999,-33.74842395 150.99536809599999,-33.748527957 150.99661606399999,-33.749093927499999 150.99685404799999,-33.749195936500001 150.99724105599998,-33.749362936 150.99766604800001,-33.749597904499993 150.99936201599996,-33.750557888 150.99947104,-33.7506199 151.00074998400001,-33.750678878 151.00115699200001,-33.750700874499998 151.00169398400001,-33.750728846500003 151.00177100799996,-33.75074385 151.00187100799999,-33.750774856 151.00191798399999,-33.750795853500001 151.001964,-33.750816851 151.00202899199999,-33.750856848 151.002049984,-33.750869853499999 151.002069984,-33.750883858 151.00219798399996,-33.750973860500004 151.00227500799997,-33.751025864 151.00234899200001,-33.7510988465 151.002952,-33.75177985 151.00306416000001,-33.751921227 151.003077856,-33.751925278500003 151.003093312,-33.7519384135 151.00312752,-33.751975765 151.003145152,-33.751991601 151.00316928000001,-33.752008806 151.003220416,-33.7520405705 151.00327440000001,-33.752068561 151.00431516800001,-33.752678043499998 151.00444368,-33.752753375499999 151.005063232,-33.753116160499999 151.00507619199999,-33.753120471 151.00508953600001,-33.753127593500004 151.005101408,-33.753136769500003 151.00511113600001,-33.753146944500003 151.005254976,-33.753187811 151.00577792,-33.752547822 151.006031936,-33.752237799 151.006134944,-33.752111888 151.00621692799999,-33.752153809 151.006334944,-33.752240796 151.00656892800001,-33.752487808 151.006851936,-33.752850796499999 151.00715292800001,-33.753184795500005 151.00762592000001,-33.753506788 151.00816691200001,-33.753815775 151.00840291200001,-33.753990785 151.008773056,-33.754311815500003 151.008788896,-33.754326782 151.008921888,-33.754514760499994 151.009034912,-33.754817772 151.00903289600001,-33.754931769 151.00906588800001,-33.754975762 151.00904390400001,-33.755175765499999 151.00904188800001,-33.755261772 151.009002944,-33.755489766 151.00879993599997,-33.756145757500001 151.008599936,-33.75665778199999 151.008543936,-33.756843781 151.00852294399999,-33.757043784499999 151.008520928,-33.757129772500001 151.008551936,-33.757287781 151.00869395199996,-33.757805781 151.00872396799997,-33.7580207695 151.00880595199999,-33.758164755 151.00885497600001,-33.758266764 151.00929395200001,-33.758573771500004 151.009666944,-33.7587227705 151.009836928,-33.758810756500004 151.00995593600001,-33.758855767 151.01002294399999,-33.75889976 151.010107936,-33.758929748500002 151.010242944,-33.759046742500004 151.01030992,-33.7591187445 151.01038492800001,-33.759378743500001 151.010388928,-33.759392748 151.01028294400001,-33.759519750500004 151.01021094399997,-33.759690746 151.01017593599997,-33.759732741 151.01015792000001,-33.7597897395 151.01008297600001,-33.76006074599999 151.01006195199997,-33.760232740500001 151.01002297599999,-33.760446767 151.01000096000001,-33.760646770500003 151.00994595200001,-33.760831770499998 151.00981996799999,-33.761073769 151.00960896000001,-33.76134275899999 151.00927299200001,-33.761824758 151.00923699200001,-33.761895761 151.009236,-33.761937756 151.0092,-33.762009758 151.00918099200001,-33.762094765499995 151.009196992,-33.762152763 151.009176,-33.762323758500003 151.00922198399999,-33.762539764499998 151.00933500799999,-33.762855763 151.009367008,-33.762970759 151.00941398399999,-33.763157757 151.00940499199999,-33.763558763 151.00936899199999,-33.763658755500003 151.00934899200001,-33.76378775599999 151.00929203199999,-33.764015768500002 151.009256032,-33.764072767 151.00916601599999,-33.764314765500004 151.00895203199997,-33.764654758500001 151.00891702399997,-33.76469777099999 151.008881024,-33.764796764499998 151.00877603199999,-33.764880754499998 151.008670016,-33.765008756 151.00858771200001,-33.765096187</coordinates></LinearRing></outerBoundaryIs></Polygon>

	</Placemark>
</kml>