<?xml version="1.0" encoding="UTF-8"?>
<kml xmlns="http://www.opengis.net/kml/2.2">
	<Placemark>
		<Style>
			<LineStyle>
				<color>ff0000ff</color>
			</LineStyle>
			<PolyStyle>
				<fill>1</fill>
				<color>330000cc</color>
			</PolyStyle>
		</Style>
			<ExtendedData><SchemaData>
		<SimpleData name="STATE_2006">1</SimpleData>
		<SimpleData name="POA_2006">2134</SimpleData>
	</SchemaData></ExtendedData>
      <Polygon><outerBoundaryIs><LinearRing><coordinates>151.11084681599999,-33.873998786500003 151.110664832,-33.874909782 151.11057852799999,-33.875373503 151.11052489599999,-33.875527145500001 151.11049968,-33.875632891500004 151.11047987200001,-33.875688428499991 151.11049644799999,-33.875692739 151.11051084799999,-33.875700749499998 151.110522016,-33.875711905 151.110529216,-33.875725225 151.11053136000001,-33.875739544 151.11052848,-33.875753844500004 151.110520928,-33.875766905499994 151.11050940800001,-33.875777691 151.11049465599999,-33.875785257499999 151.11047772799998,-33.875789124 151.110460448,-33.875788865 151.11046403200001,-33.875851136 151.11045072,-33.875928188499998 151.11043705599999,-33.876095576499992 151.110169856,-33.877365805 151.11015286400001,-33.8774448 151.109853888,-33.878860808500001 151.10981545600001,-33.87904264499999 151.10985779200001,-33.879081957499999 151.11008425599999,-33.879233694500002 151.11026496,-33.879365636500005 151.11050003199998,-33.879525569 151.11089315199999,-33.879846507 151.11107209599996,-33.879995543 151.111165696,-33.88007357599999 151.11110188800001,-33.880294799 151.110770944,-33.881822806500004 151.11056496,-33.882776796 151.10910297599997,-33.882565822 151.10782499199999,-33.882378842500003 151.107756,-33.88266883 151.10755603199996,-33.883420855 151.108544,-33.883555831 151.10850198399999,-33.883779829 151.108384032,-33.884279847 151.107924064,-33.886664848500004 151.10733004799999,-33.886659853499999 151.10711907199999,-33.886691877 151.106723104,-33.886755868500003 151.10635408,-33.886815882500002 151.105831104,-33.887005896 151.105619104,-33.887133897499993 151.10555110399997,-33.887173894500002 151.1053776,-33.887292202 151.105152608,-33.887432524499999 151.104997088,-33.887536291 151.10482752,-33.887649326 151.10453699199999,-33.887850661499996 151.10443043199999,-33.887923292499998 151.10429724799999,-33.888002768500002 151.10413811199999,-33.888087628 151.10372304000001,-33.888290665500001 151.103631616,-33.888327036500002 151.10351497600001,-33.8883630375 151.103428576,-33.888381574500002 151.10331299200001,-33.888389307499992 151.1031672,-33.888378688499998 151.102971712,-33.888346295 151.102881728,-33.888323873 151.10276688,-33.888280139 151.102657088,-33.888228117 151.10248825599999,-33.888120669 151.10219628799999,-33.8878937665 151.10182332799997,-33.887694965500003 151.101668512,-33.887629623500004 151.10148528,-33.88761351 151.10027856,-33.887493815 151.10014249599999,-33.887480032500001 151.09996032000001,-33.887461680500003 151.09961507200001,-33.8874196485 151.099417792,-33.887379966 151.099171936,-33.887320562499994 151.098526432,-33.88716458899999 151.09825321599999,-33.887100782499999 151.09815491200001,-33.887067205 151.09807139200001,-33.8870295945 151.09798608,-33.886991244 151.09740390399998,-33.886741438500003 151.09721603200001,-33.886664904 151.09620012799999,-33.8862183325 151.095513248,-33.885928345 151.09560825599999,-33.885514999500003 151.09563225599999,-33.885422999 151.09572521600001,-33.885046006 151.09571123200001,-33.884996999500004 151.09577123199998,-33.884700000500004 151.09594921600001,-33.8838189935 151.096086176,-33.883135992 151.09614518399999,-33.882845986 151.096209184,-33.882526990500004 151.09633017600001,-33.88192298399999 151.0963392,-33.881876993 151.09646515200001,-33.881254967499991 151.096661152,-33.880292967500004 151.09690313600001,-33.879065973499998 151.09695612799999,-33.878830968 151.097219104,-33.877421952500001 151.09747609600001,-33.876212940500004 151.09760905600001,-33.875587955 151.097690048,-33.875225928500001 151.09772307200001,-33.875083922500004 151.09773804799997,-33.875016934 151.09778051199999,-33.87479922599999 151.097837056,-33.874508924 151.09797504,-33.873795934 151.09799801599999,-33.873680938 151.09804704,-33.873422937 151.098198016,-33.872646936 151.098253984,-33.872377909 151.09838198400001,-33.8717709055 151.098476,-33.87134091 151.09862,-33.871393912500004 151.09904700800001,-33.87145191 151.09983497600001,-33.871558895499994 151.10049996800001,-33.871648898 151.10100092799999,-33.86896887699999 151.101098656,-33.86840274 151.10173152,-33.868441442 151.10300448000001,-33.86852802199999 151.10364528,-33.868582467499991 151.103885408,-33.868614065500005 151.10536716799999,-33.868862631500001 151.105352,-33.868950007 151.10755811199999,-33.869220569500001 151.1086032,-33.869414246 151.1101656,-33.869584612499999 151.11085536,-33.869643831 151.11160732799999,-33.869716406500004 151.111697408,-33.869725471500004 151.11134377599998,-33.871500768499999 151.11096179200001,-33.873422789 151.1108928,-33.873766778 151.11084681599999,-33.873998786500003</coordinates></LinearRing></outerBoundaryIs></Polygon>

	</Placemark>
</kml>