<?xml version="1.0" encoding="UTF-8"?>
<kml xmlns="http://www.opengis.net/kml/2.2">
	<Placemark>
		<Style>
			<LineStyle>
				<color>ff0000ff</color>
			</LineStyle>
			<PolyStyle>
				<fill>1</fill>
				<color>330000cc</color>
			</PolyStyle>
		</Style>
			<ExtendedData><SchemaData>
		<SimpleData name="STATE_2006">1</SimpleData>
		<SimpleData name="POA_2006">2355</SimpleData>
	</SchemaData></ExtendedData>
      <Polygon><outerBoundaryIs><LinearRing><coordinates>151.14935059199999,-30.886081972 151.148609472,-30.885759202499997 151.14721846399999,-30.885147204 151.14602950400001,-30.884934213499999 151.14567651199999,-30.88486223 151.14549849599999,-30.884830225 151.145281536,-30.884797221 151.14506454400001,-30.884769230500002 151.14477552,-30.884735227500002 151.14380355200001,-30.884629222500003 151.14185760000001,-30.884429256 151.14118758399997,-30.884352240500004 151.140859584,-30.884312243500005 151.140655616,-30.884281256 151.14039664000001,-30.884229252500003 151.14007763199999,-30.884151256500001 151.14001161600001,-30.884133256 151.13988864000001,-30.884096256 151.139645632,-30.884011248500002 151.13952361599999,-30.883973249500002 151.13939961599996,-30.883945240500001 151.13930361600001,-30.883931273 151.139206624,-30.883922263499997 151.13901164800001,-30.883913272500003 151.13883465599997,-30.883913272500003 151.13859564800001,-30.883928257499999 151.13851667200001,-30.883929275 151.13837667199996,-30.883924261500002 151.13823667200001,-30.883911274499997 151.13781865600001,-30.883856274 151.13724070399999,-30.88375926 151.13672268799999,-30.88368526 151.13662668800001,-30.883678267 151.13643068799999,-30.883673272 151.13634070399999,-30.883657269500002 151.13626368000001,-30.883623266499999 151.13620569599996,-30.883573279500002 151.136154688,-30.883509288 151.136110688,-30.883437286 151.13607568,-30.883361288 151.13605068800001,-30.88328529 151.13603769599996,-30.883219282 151.136032704,-30.883149278 151.13603369599997,-30.883078293500002 151.13604169600001,-30.883008289500001 151.13633369600001,-30.881665282 151.13672265599999,-30.8796792885 151.13673766400001,-30.879635277 151.136739648,-30.879586289 151.13673564800001,-30.879564292499996 151.13672467200001,-30.879542277500001 151.13668764799999,-30.879502280500002 151.13666467199999,-30.87948428 151.13664265599999,-30.879467278500002 151.13661465600001,-30.879448279 151.136584672,-30.879430278499999 151.13648966400001,-30.8793932785 151.13438371199999,-30.879069288 151.13392473600001,-30.878972292500002 151.13377472,-30.87893631 151.13347571199998,-30.8788562975 151.13332572799999,-30.8788212955 151.13317472,-30.878796302 151.13299072,-30.8787793005 151.13278476799999,-30.878770309500002 151.132523744,-30.878774305499999 151.13235776,-30.878784295499997 151.13219276800001,-30.878803295 151.13202774399997,-30.878827308 151.131699744,-30.878883307500001 151.131384768,-30.8789463 151.1310768,-30.879015305 151.130405792,-30.879174331 151.1303128,-30.879194329499999 151.13007177599997,-30.879234326499997 151.12992278399997,-30.879251328 151.12984777599999,-30.879257322 151.12975881599999,-30.879261318 151.12966982399999,-30.879263316 151.12958083199996,-30.879262317 151.12949180800001,-30.879258321 151.12940281600001,-30.879252327 151.12670585599997,-30.879261336499997 151.12654284800001,-30.879257340500001 151.12637984,-30.8792563415 151.12621584,-30.879257340500001 151.126052896,-30.879261336499997 151.12576787200001,-30.879274342 151.12503289599999,-30.879332339499999 151.12486588799999,-30.879349341 151.12477289599997,-30.879363345499996 151.12449488,-30.879418346 151.12440192,-30.879429335 151.12429590400001,-30.879433349499998 151.12418992,-30.879431333 151.12397692799999,-30.879417347 151.123735904,-30.879391336 151.123600928,-30.879371337499997 151.12319891199999,-30.879299354 151.12275392,-30.879212367 151.12260492799999,-30.879187355 151.122454944,-30.879168355500003 151.12219296000001,-30.879151354 151.12206096,-30.879148357 151.12179795200001,-30.879151354 151.12155993600001,-30.879162361500001 151.12144096,-30.879172351499999 151.12132294400001,-30.879185357 151.121205952,-30.879204356499997 151.12107494399999,-30.879235362500001 151.12094496,-30.879275359499999 151.120686976,-30.879363364 151.12055596799999,-30.879399365 151.120417984,-30.879429353500001 151.12027699199999,-30.879457362500002 151.12026598400001,-30.8794593605 151.12031196800001,-30.879407357 151.12034499200001,-30.879357351500001 151.120361984,-30.879331359 151.12037699199999,-30.879306365499996 151.12041097599999,-30.879205355500002 151.120541984,-30.879003354 151.120574976,-30.878953367 151.120641952,-30.878776359 151.12073993599998,-30.878650355499996 151.12084096000001,-30.8783463635 151.12090793599998,-30.878195366500002 151.12094195200001,-30.878043352 151.12097696000001,-30.877891356 151.12101094400001,-30.877789365499996 151.121046944,-30.877586365 151.121113952,-30.877384363500003 151.121147936,-30.877283353500001 151.121181952,-30.877156351 151.121214944,-30.877080353 151.121247936,-30.877029367 151.121249952,-30.876928357 151.121283936,-30.876826366500005 151.12131795199997,-30.876725356499996 151.12138496,-30.876548367 151.12138691199999,-30.876446358 151.12142192,-30.87626935 151.12148691199999,-30.876168358499999 151.12161590400001,-30.876068366 151.12168092799999,-30.876018360500002 151.12213190400001,-30.875720362500001 151.12219590399997,-30.875670357 151.122419904,-30.875571363500001 151.12248390400001,-30.8755473505 151.12257990399999,-30.875523356 151.122643904,-30.8754983625 151.12270787200001,-30.875474368 151.12277187199996,-30.875449356 151.122899872,-30.875426360500001 151.12291488,-30.875423363500001 151.12325088,-30.875354358499997 151.12347289600001,-30.875332362 151.12356889599999,-30.875333361 151.12430188799999,-30.875217366 151.124365888,-30.875193353 151.12442985600001,-30.875168359499998 151.12449385599999,-30.875143366 151.124557856,-30.875119353 151.12462185599998,-30.8750943595 151.12468585600001,-30.875070365 151.124781856,-30.875046333500002 151.12484585600001,-30.87502134 151.12490985599999,-30.874997345500002 151.12497385599997,-30.874972333499997 151.12503785600001,-30.874948339 151.12513385599999,-30.874924344500002 151.125197856,-30.874899332499997 151.12523484799999,-30.874871342 151.12526185600001,-30.874849345499996 151.12511184,-30.874384348 151.125105856,-30.87417034 151.12541881600001,-30.873420331500004 151.125422816,-30.873409342500004 151.126231808,-30.872610346 151.1267528,-30.872039343500003 151.127479776,-30.871429343 151.12896774399999,-30.870290335 151.12956771200001,-30.869743327 151.129908736,-30.869400318500002 151.13012272,-30.869115326 151.13029772799999,-30.868760329500002 151.13045369599999,-30.868239314 151.13045468799996,-30.867919319500004 151.130617696,-30.867426313 151.13081868800001,-30.866998315500002 151.131000704,-30.866534317 151.13118265599999,-30.866048322 151.13129865600001,-30.865590317500001 151.13145366399999,-30.865167315 151.13158966399996,-30.864663319499996 151.13169164799999,-30.864285327499996 151.13185164800001,-30.86412632 151.13214662399997,-30.863594315500002 151.13248761599999,-30.863137328500002 151.13279664000001,-30.862577315 151.13304460800001,-30.862062330500002 151.13324060799999,-30.861599331 151.13348259200001,-30.860935329 151.13371257599997,-30.860186319500002 151.133809568,-30.859562333 151.13400057600001,-30.858691334500001 151.13414355199998,-30.858045333 151.13431254400001,-30.857398332500001 151.13467552,-30.856700346 151.13495152,-30.856100335500003 151.13534550399999,-30.855580337500005 151.135799488,-30.855181348 151.13625948800001,-30.854834325 151.13713248,-30.854362316 151.137465472,-30.854189322500002 151.13781142400001,-30.854009317499997 151.13849744000001,-30.853566316499997 151.1391104,-30.853190322500001 151.13961740799999,-30.852911305500005 151.14011740800001,-30.852507302500001 151.14061737599999,-30.8521023005 151.14097836799999,-30.851726306499998 151.14133932799996,-30.8511713065 151.14158934400001,-30.850525305 151.14177833599999,-30.849884298500001 151.141796352,-30.849110295499997 151.141726336,-30.8484802965 151.14165731200001,-30.847849298500002 151.141647296,-30.847161302 151.14173129599999,-30.846423318500001 151.14185632,-30.845501315499998 151.14195929600001,-30.844848321 151.14205526399999,-30.844304328499998 151.14208428800001,-30.843903322500001 151.14217827199997,-30.843663322 151.14233926399996,-30.843400326 151.14261328000001,-30.843046328500002 151.14290124799999,-30.842600330500002 151.14300124799999,-30.842383325499998 151.143043232,-30.842016322500005 151.14299424000001,-30.841368323 151.142975232,-30.841110322 151.14293824,-30.840766314499998 151.14291923199997,-30.840614318500002 151.14220224,-30.839245318500002 151.14042627200001,-30.838813343499996 151.138959296,-30.837527353 151.137957312,-30.837387363499996 151.13799232,-30.8370143665 151.13762531199998,-30.836222381500001 151.13674332799999,-30.83610437 151.13671132799999,-30.83610437 151.136675328,-30.836283376 151.13594035200001,-30.836312384 151.134369376,-30.835821394 151.133825376,-30.834844390500002 151.133634368,-30.834276403500002 151.1327624,-30.833583412 151.1321664,-30.832862411500003 151.13243436799999,-30.831924406 151.1317264,-30.831461406499997 151.13177136,-30.831263419500001 151.13066041600001,-30.830536425 151.12959241600001,-30.829276427 151.12926140799999,-30.82798546 151.12760544,-30.827331448 151.12717142400001,-30.82665346 151.12674240000001,-30.825069471500001 151.12541443200001,-30.823871467 151.12428742399999,-30.82215648 151.123710432,-30.8212794875 151.12226848,-30.820442510500001 151.12076745600001,-30.819352509 151.11910348800001,-30.819018528500006 151.11764752,-30.819424529499997 151.11585257599998,-30.819926545499996 151.11310963199998,-30.820320558499997 151.11157267199999,-30.820806553499999 151.11079968000001,-30.820792586 151.10984768,-30.820775584500002 151.10740275200001,-30.822168597500003 151.10515580800001,-30.8251206055 151.104110848,-30.825759595499999 151.10317686400001,-30.826331615499999 151.101671872,-30.827115627 151.10096492799997,-30.8276626165 151.10086192,-30.828234618 151.10027193600001,-30.829240611 151.09945795199999,-30.829901616 151.099007968,-30.830793612 151.098307968,-30.831345615 151.097952,-30.832020624499997 151.09728201599998,-30.832494631500001 151.097064,-30.832392641 151.09642505599999,-30.832093644 151.094204064,-30.831567652 151.09366707199996,-30.831599657 151.09318108799999,-30.8319596485 151.091212128,-30.833421648 151.09033513599999,-30.8336296805 151.08915417599999,-30.833566669499998 151.0879192,-30.833566688 151.08498022399999,-30.8331917115 151.08305926399998,-30.832568705500002 151.08215129600001,-30.832375732 151.08152028800001,-30.832412732 151.08075532800001,-30.832591738 151.07837536,-30.833147755500001 151.0778584,-30.833099748 151.07682940800001,-30.832097751 151.07574339199999,-30.8314357655 151.0755704,-30.831330759500002 151.075427424,-30.831242773499998 151.074895424,-30.831434766499999 151.07243644799996,-30.831743790500003 151.071805504,-30.831988786 151.07103248000001,-30.832286784 151.070418528,-30.832879783 151.06976752,-30.832934802 151.06651961599999,-30.8342877995 151.065402624,-30.835571829 151.06442966399999,-30.836185825499996 151.06354864,-30.834868829 151.06165868799997,-30.834458832 151.06036870400001,-30.833833865 151.05970572799998,-30.833686864 151.05850576,-30.832494853500002 151.055234816,-30.831091887500005 151.05375382400001,-30.831169902 151.053354848,-30.830319919500003 151.05504777600001,-30.828282903 151.05554777599997,-30.826950903 151.05561875199999,-30.825059907 151.05526576,-30.824204911 151.05456179199996,-30.824292915500003 151.05141180800001,-30.823881938 151.04978083200001,-30.823551953500001 151.04776390399999,-30.823449963 151.04719792,-30.822742967 151.04596595199999,-30.8228729665 151.04595494399999,-30.822873965500001 151.045950944,-30.8228649745 151.04530092799999,-30.821586994499999 151.045036928,-30.820307997 151.04437993600001,-30.819256013 151.04449292800001,-30.818139001499997 151.04567491200001,-30.817159981499998 151.04542192,-30.816161999 151.046688864,-30.814357009499997 151.04638883199996,-30.812498999 151.04730384000001,-30.811644003 151.04991078399999,-30.811714987499997 151.05100473600001,-30.809914993 151.05197372800001,-30.808796982500002 151.05282368,-30.807723964 151.05220668800001,-30.806746979 151.05217168,-30.806721985499998 151.05103072,-30.805892982 151.050907712,-30.804361996 151.04929072,-30.802950002 151.048676736,-30.801435 151.04914672000001,-30.7996720055 151.05011468800001,-30.798743009500001 151.050578656,-30.797856989 151.049428672,-30.797026006 151.049801664,-30.795790002500002 151.05399955199999,-30.79413897 151.053805568,-30.793559975499999 151.05338755199998,-30.792312964499999 151.05493353599999,-30.7913119665 151.05530851199998,-30.790371963 151.05537152,-30.790213973 151.05536451200001,-30.790195972499998 151.05480352000001,-30.788818962 151.054140512,-30.788769974 151.05357356799999,-30.789326972 151.05356556800001,-30.789333965 151.05337254400001,-30.789378994 151.05243654399999,-30.789591984499999 151.051894592,-30.789182986500002 151.05250256,-30.787494991 151.051867552,-30.787302979499998 151.05121456000001,-30.786692979 151.04974659199999,-30.786960008 151.04807161599996,-30.786413 151.046626656,-30.786091026 151.046133664,-30.785790031 151.04588665599999,-30.785640033 151.04506569599999,-30.785334024499999 151.04451667199999,-30.7851290445 151.04311968,-30.783615041500003 151.04167372800001,-30.782639055499999 151.03968774399999,-30.783007057500001 151.03789478399997,-30.782167083500003 151.03673379200001,-30.781084093500002 151.03656076799999,-30.7804671 151.03669676800001,-30.780145107500001 151.03658179199999,-30.77995909 151.03656179199999,-30.779939091500005 151.036666784,-30.779769095 151.03685078399999,-30.779469099 151.03710278400001,-30.778524100500004 151.036476768,-30.777805098 151.03679574399999,-30.775841101 151.03332076799998,-30.773623136 151.03256777600001,-30.7728441565 151.03139680000001,-30.771630168 151.03160678399999,-30.769819166 151.03163379200001,-30.769592171 151.03206470399999,-30.765881182 151.03241372799999,-30.765252182 151.027955776,-30.763350234 151.02782876800001,-30.76240222 151.02775376,-30.761836231 151.029325728,-30.758853235499998 151.02978569599998,-30.757475226 151.02998665600001,-30.756981220500002 151.03109363199999,-30.754255227 151.02961062399999,-30.752850244499999 151.02838665600001,-30.752511250499996 151.02782566400001,-30.751969274499999 151.027805664,-30.750729256500001 151.02779264,-30.749975270500002 151.02720460800001,-30.748421270499996 151.024373664,-30.741866295 151.02160867200001,-30.739995316 151.021422688,-30.738287340500001 151.02269164799998,-30.735930329499997 151.02289062400001,-30.735560329499997 151.02414160000001,-30.733236322499998 151.025213568,-30.732220321 151.026136544,-30.731839295 151.026530528,-30.731215308499998 151.02637251199999,-30.730819297500005 151.027865472,-30.724949303 151.027876448,-30.724953299 151.02823244799998,-30.725054309 151.028676448,-30.725302301500001 151.02934547199999,-30.725578303 151.031399424,-30.726470280499999 151.032804384,-30.727057267 151.03423036800001,-30.727170265 151.03552332800001,-30.727264245 151.03560332800001,-30.727273254500005 151.035763328,-30.727299247 151.03584134399998,-30.7273172475 151.03629232,-30.727449245 151.036326336,-30.727467245499998 151.038657312,-30.728731221 151.03922025599999,-30.728898220499996 151.04122822400001,-30.729937217500002 151.041671232,-30.730181214 151.04184323199999,-30.730364216 151.04347920000001,-30.731502188 151.043956192,-30.731766183 151.04442019199999,-30.7320082 151.04457420799997,-30.732093170499997 151.04503321600001,-30.7323551675 151.045397184,-30.732550176 151.045539168,-30.732617164499999 151.04563116799997,-30.732655182 151.04572416,-30.7326871685 151.04579616000001,-30.732701173 151.04589718400001,-30.732709165 151.04599916800001,-30.732712180500002 151.04610118400001,-30.732708166 151.046306176,-30.732693181 151.04659318399999,-30.732682173499999 151.04696518399999,-30.732675180499996 151.047455136,-30.732672146500001 151.047927136,-30.732674163 151.048130144,-30.73267716 151.048232128,-30.732678159 151.04836515199997,-30.732686151 151.04858915200001,-30.73271416 151.04866313599996,-30.732727147 151.04879715199999,-30.732762149 151.048916096,-30.732803163499998 151.04912512000001,-30.732886154500001 151.04948512000001,-30.733055152 151.049872096,-30.733215158500002 151.050098112,-30.733318129500002 151.05010710400001,-30.733322144 151.050559104,-30.733550138 151.051188064,-30.733849135 151.05156707200001,-30.734025144 151.051796064,-30.734137143 151.051943072,-30.734215139 151.052193088,-30.734354129500002 151.052440064,-30.734498133500001 151.05271606399998,-30.7346651145 151.052988032,-30.734839125500002 151.05312204800001,-30.734929109499998 151.05337504,-30.735116126 151.053440032,-30.73515912 151.053528032,-30.735207109 151.05361603200001,-30.735249122499997 151.05383804799999,-30.735292116500002 151.055137024,-30.7353920905 151.055621024,-30.735502091499999 151.055767008,-30.7355261045 151.056377024,-30.735629094 151.05738499200001,-30.735872091499999 151.05840598399999,-30.736166075 151.05871094399998,-30.736218078500006 151.06021494399999,-30.7367420725 151.06205792,-30.73736506 151.06292188800001,-30.737665056 151.06371488,-30.73794004 151.064004896,-30.7381790415 151.064025888,-30.738196043 151.06444384,-30.738535037 151.06460886400001,-30.738664037499998 151.064848864,-30.738836050499998 151.06493484800001,-30.738905037 151.065186848,-30.739130052500002 151.06522486399996,-30.739157044 151.06529286400001,-30.739190048 151.06536784,-30.739213043500001 151.065602848,-30.7392610325 151.066020864,-30.739359027 151.06619286399999,-30.739395028 151.066882816,-30.739527025499996 151.06773081599999,-30.739712025500005 151.06822982400001,-30.739816014 151.06839577599999,-30.739854013 151.068559776,-30.739897007 151.0686768,-30.739933008 151.06902579199999,-30.740051001 151.06924278400001,-30.74011601 151.06944480000001,-30.7401720095 151.06964678400001,-30.740219998499999 151.0699048,-30.740265009 151.07007779200001,-30.740284008499998 151.07018576,-30.740287005499997 151.070294752,-30.740284008499998 151.07078176,-30.740252003500004 151.07104076799999,-30.740233984500005 151.071386752,-30.74021998 151.07187072,-30.740215984 151.072352736,-30.740224993499996 151.07263072000001,-30.740237980500002 151.07290771199999,-30.740257979 151.07373968,-30.740325966499999 151.07472768,-30.7403959705 151.07685465599999,-30.741149956499999 151.07880361599999,-30.741829942499997 151.08150457599999,-30.742805928500001 151.08168755200001,-30.742871936499998 151.08179955199998,-30.742936927 151.08202156799999,-30.743071921499997 151.082105568,-30.74312892 151.08223756800001,-30.743215907 151.08237056,-30.743312921 151.082501568,-30.743413912499996 151.08288656,-30.743726914 151.08310057599996,-30.743895911500005 151.08328656,-30.744042912499996 151.08341657599999,-30.744151914499998 151.08354256000001,-30.744266910500002 151.08367152,-30.744395911 151.08379452799997,-30.744529906499999 151.08391552000001,-30.7446689155 151.084232544,-30.745044909500002 151.084392544,-30.745238900500002 151.08441152,-30.745261896 151.08454854399997,-30.745435888500001 151.08467952000001,-30.745617891499997 151.08487254400001,-30.745894892 151.085124544,-30.746236901500001 151.08518352,-30.746324887500002 151.08532854399999,-30.746579891500005 151.085368544,-30.746639887 151.08547552,-30.746771903 151.08553353600001,-30.7468338965 151.085594528,-30.746891894 151.08566054400001,-30.7469438975 151.08574454399999,-30.746998898 151.085788544,-30.747023891499996 151.08587852799997,-30.747069901 151.086000544,-30.747123902499997 151.08614352000001,-30.747175887499999 151.086382528,-30.747242894499998 151.08670150399999,-30.747337873499998 151.086887488,-30.747400884499999 151.08710051200001,-30.747480878499996 151.087428512,-30.747614874 151.087776512,-30.747773881500002 151.08789449599999,-30.747823868499996 151.08802649599997,-30.747874873 151.08842646399998,-30.748016879 151.08867446400001,-30.748120886 151.088789472,-30.748174869 151.08887248,-30.748231886 151.08907446399999,-30.748420882 151.089757472,-30.7490558575 151.090489472,-30.74973786 151.09063248000001,-30.749850858 151.09074547200001,-30.749950850499996 151.09085747200001,-30.750067863 151.090963456,-30.75019185 151.09116848,-30.7504468355 151.09127648,-30.750569842 151.091367456,-30.750663840499996 151.09165145599999,-30.750937844 151.09174048,-30.751033840499996 151.091818464,-30.751123843 151.09196947199999,-30.751310841 151.09211248,-30.751502834 151.09219545600001,-30.751623842500006 151.092742464,-30.752491844 151.09282246399999,-30.752611835 151.09290848000001,-30.752728829 151.09300643200001,-30.752847821 151.09310944000001,-30.752962817 151.09321542399999,-30.753075815 151.09364742399998,-30.75351482 151.09375644799997,-30.753622823 151.09385043199998,-30.753706813 151.09387043199996,-30.753723814499999 151.093990432,-30.753816814 151.09414944,-30.753916825 151.09431744,-30.754001814 151.09449244800001,-30.754078829500003 151.09501843199999,-30.754291801500006 151.095543424,-30.754479798499997 151.09571542399999,-30.754549802499998 151.09588841599998,-30.754629796500002 151.096059392,-30.754713805 151.09615939199998,-30.754766807500001 151.096396416,-30.754892811 151.09674940799999,-30.755087801 151.09711539200001,-30.755301809 151.09729539200001,-30.755412790499999 151.09747340800001,-30.755528785500001 151.09765241599999,-30.75565379 151.097829408,-30.755783789499997 151.09834940799999,-30.7561867935 151.09879536,-30.756522790499996 151.09893638400001,-30.756641782499997 151.099065376,-30.756770783 151.09913638399999,-30.756857788499996 151.09926038399996,-30.757024769500003 151.09941638399997,-30.757208770499997 151.099470368,-30.757268766 151.09952736,-30.757324765500002 151.09958937600001,-30.757372773 151.09966838400001,-30.757415767 151.09975436799999,-30.757448771 151.099933376,-30.757502772500001 151.100021376,-30.757532761 151.10024438400001,-30.7576207655 151.10049136000001,-30.7577237735 151.10078736,-30.75785677 151.10088336,-30.757904759 151.10107436800001,-30.758007767 151.10126236799999,-30.758117768 151.10145136,-30.758234762 151.101832352,-30.758488748499996 151.102270336,-30.758763751 151.10263932800001,-30.759001753500002 151.10272934399998,-30.759059751 151.10341132799999,-30.759513741 151.103509344,-30.759562747500002 151.10360934399998,-30.759606740499997 151.103712352,-30.759645738500005 151.10392230400001,-30.759713726 151.104015296,-30.759738738 151.10410931199999,-30.759758736500004 151.10429929599999,-30.759795736500003 151.104734304,-30.759890734 151.10484531200001,-30.759922720500001 151.104950304,-30.759965733 151.105041312,-30.76001572 151.10512832000001,-30.760075734 151.10538230399996,-30.760268726 151.105919296,-30.760640724 151.10604729600001,-30.760742733 151.10629628800001,-30.760957721499999 151.10642528,-30.761054717 151.10656326399999,-30.761133712 151.10670528,-30.761193707500002 151.10685526399999,-30.761244712 151.10700928,-30.76128371 151.10716326400001,-30.761304707500003 151.107312288,-30.761304707500003 151.10739728,-30.761296715500002 151.107482272,-30.761282711 151.10756726400001,-30.7612637115 151.10764828800001,-30.7612367015 151.10772326399999,-30.761201718 151.10778227200001,-30.761166716 151.10783926399998,-30.761124702500002 151.10789225600001,-30.761078711500002 151.10794224,-30.761029705 151.107989248,-30.760978719 151.10801225599999,-30.760945715 151.108076256,-30.760842707 151.108101248,-30.760811719499998 151.10813923200001,-30.760776717499997 151.108180256,-30.760743713500002 151.10825024,-30.760697704 151.10841923199999,-30.760593715500001 151.108528256,-30.760534719 151.108640256,-30.760480717500002 151.10875523199999,-30.760431711 151.10887024,-30.760387718 151.10905824,-30.760327704 151.10925222399999,-30.760280714 151.109449216,-30.760245712 151.10964822400001,-30.760224714500001 151.109845216,-30.760215705 151.1100312,-30.760219701 151.11021820799999,-30.760235685 151.110405216,-30.760262695 151.110564224,-30.760296698 151.11058921599999,-30.760301693 151.110767168,-30.760352697499997 151.11090617599999,-30.760404701 151.11104217600001,-30.760465695500002 151.11117619199999,-30.760532684 151.11143718400001,-30.760678686 151.11155116800001,-30.760747691 151.11182617599999,-30.760932691 151.11183116799998,-30.7608056885 151.111848192,-30.7606156935 151.111869184,-30.760477683499996 151.11187619200001,-30.760437686499998 151.111949184,-30.760034701 151.111980192,-30.759876692500001 151.11201817599999,-30.75971269 151.11206214399999,-30.759550685500002 151.11210915199999,-30.759401686500006 151.11221216000001,-30.759132696499996 151.11245616,-30.758576697499997 151.112510144,-30.7584447 151.112589152,-30.758219684500002 151.11261715200001,-30.758127684 151.11263513599999,-30.758066689500001 151.11266313600001,-30.757962701 151.11270912,-30.75775169 151.11272710399999,-30.757645685 151.11274112000001,-30.7575396985 151.11274812799996,-30.757451694 151.112754112,-30.757274686 151.112754112,-30.757098695500005 151.11275110400001,-30.756956689500001 151.11274412799997,-30.756795684 151.11273110400001,-30.756637694 151.11271910400001,-30.756531689 151.11264812799999,-30.756047692 151.112619104,-30.755880692500003 151.11258412800001,-30.755733691500001 151.11254611199999,-30.755603692 151.11250012799999,-30.755477688500001 151.112474112,-30.755418692 151.11235411199996,-30.755191697 151.11229811199999,-30.755057683 151.11224611200001,-30.754921689500001 151.11216710400001,-30.754695712 151.11190512,-30.7538947175 151.11186412799998,-30.753741704 151.11177212800001,-30.753341715499996 151.11176211200001,-30.753277705499997 151.11175811199999,-30.753224703 151.111754112,-30.753062717 151.11174908800001,-30.753008715500005 151.11173507199999,-30.752920711 151.11171507200001,-30.752833705500006 151.11170208,-30.752791710500002 151.11166908800001,-30.7527097185 151.11151008,-30.752401712 151.11145008,-30.752278705499997 151.11143408000001,-30.752235711500003 151.11142009599996,-30.752199710500001 151.111392096,-30.752100717 151.111360096,-30.751943707500001 151.11131107200001,-30.751583716 151.11127408,-30.751377718499999 151.111268096,-30.751317704499996 151.111267072,-30.751258708 151.11127008,-30.751198712500003 151.11102409599999,-30.750116703 151.11068009600001,-30.748420734 151.11066508799999,-30.748242727 151.11064608000001,-30.748067735499998 151.110615072,-30.747873726 151.11058809599999,-30.7477387315 151.11023606399999,-30.746238733 151.11022304,-30.746182733499996 151.10978806400001,-30.74414975 151.10972505599997,-30.743836748500001 151.10945904,-30.742489745 151.109050048,-30.740696762 151.10889904000001,-30.739923758 151.10887305599999,-30.739858767499999 151.10883004799996,-30.739723773 151.108804064,-30.739605761500002 151.10879904,-30.739585763 151.10878905600001,-30.739511763 151.108780064,-30.739359767 151.10878204799999,-30.739160762500003 151.10878304,-30.739126759500003 151.10879504,-30.738962757 151.10880505599999,-30.738881764 151.10882006400001,-30.73880177 151.108837056,-30.738734763 151.10887801599998,-30.738603764500006 151.10895203199996,-30.738417765499999 151.109006016,-30.738304767500001 151.10906700800001,-30.738195765499999 151.10933302399999,-30.737766769 151.11004697600001,-30.736666759 151.110436,-30.736067766 151.11156595200001,-30.734295762 151.11202291199999,-30.733601771500002 151.11270892799999,-30.732557779500002 151.11271292800001,-30.732305791 151.112716928,-30.732064791500004 151.11277388799996,-30.731135777 151.113028864,-30.727010795 151.11304886400001,-30.726707802 151.11325184,-30.723687806500003 151.11327984,-30.723260826499999 151.1134368,-30.720512818 151.11345078399998,-30.720297829500002 151.11352979200001,-30.7191178255 151.11360579199999,-30.717982832 151.113735776,-30.715721836 151.11380572799999,-30.7147418355 151.113857728,-30.714026847500001 151.11396774400001,-30.712394851499997 151.11398073599997,-30.712190852 151.11410169600001,-30.710390857500002 151.11417766400001,-30.709472850499999 151.114182656,-30.709411856 151.11411267199998,-30.707905863499999 151.114473632,-30.70606787 151.114722624,-30.70491088 151.11526860799998,-30.702398876 151.11531756799997,-30.701620877 151.11531756799997,-30.701614883 151.115404576,-30.700251895500003 151.115404576,-30.700194897 151.11541056,-30.700157897 151.11542256000001,-30.700120897 151.115439584,-30.700084896 151.115460576,-30.700051892 151.11555657599999,-30.699922891499998 151.11604854399999,-30.699238891 151.11661350399999,-30.698466904500002 151.11713049599999,-30.697750899 151.11738649599999,-30.697394903500001 151.117397504,-30.6973799 151.11805548800001,-30.696098904500001 151.11888044799997,-30.6945309 151.11917644799999,-30.6939588985 151.11970441599999,-30.6929399 151.11977440000001,-30.692752902 151.11983942399996,-30.692564886499998 151.11998438399999,-30.692115891500002 151.12001737599996,-30.6919959005 151.12004438399998,-30.691874892 151.12006838400001,-30.691740896499997 151.120093376,-30.691526907 151.12017939200001,-30.6915419105 151.12031036799999,-30.691554897499998 151.12041337599999,-30.691555896499999 151.120588384,-30.6915499025 151.12104636800001,-30.691555896499999 151.121510336,-30.691550901500001 151.12209936,-30.691557894499997 151.12231235199999,-30.691555896499999 151.12252435199997,-30.691548903499996 151.122694336,-30.691534899 151.12294835200001,-30.691501895 151.123219328,-30.691484893499997 151.123367328,-30.691471888 151.12391331200001,-30.691405898500001 151.12401430400001,-30.691393892 151.12409132799999,-30.691384901 151.12429532799999,-30.69135889 151.12462531200001,-30.6913289015 151.12482227199999,-30.691318893 151.12503027199998,-30.691316895 151.12529328,-30.6913318985 151.12537427199996,-30.691340889500001 151.12544928,-30.691359889 151.125514272,-30.691391894 151.12556128,-30.691434888 151.12560227200001,-30.691487890499999 151.125638272,-30.691547904500002 151.12569929599999,-30.691672890500001 151.12572627200001,-30.6917478895 151.12574528,-30.691826903 151.12577628799997,-30.691988889 151.125798272,-30.692067902500003 151.12586028800001,-30.692230887499999 151.12594729599999,-30.692419902 151.12601427199999,-30.692562888499999 151.12608128,-30.692703895499996 151.126168288,-30.692910892 151.12620028800001,-30.692976881500002 151.12624028799999,-30.693036877 151.126283296,-30.693083885500005 151.12633129599996,-30.693126879499999 151.12648528,-30.6932488685 151.12664128,-30.693377869 151.126743296,-30.693466872499997 151.12697529600001,-30.693695884 151.12744528,-30.694145878 151.12757728,-30.694265869 151.127778272,-30.694438881 151.12784227200001,-30.694499875499996 151.12796329599999,-30.694630874 151.12808028800001,-30.694766886 151.12819728,-30.694891872 151.12860624000001,-30.695298872 151.12866624,-30.695354871500001 151.12872924800001,-30.695405876 151.128881248,-30.695510882 151.12893424000001,-30.695542868499999 151.12904124799999,-30.695599885500002 151.129209248,-30.695671869 151.12945024000001,-30.695759873500002 151.129556256,-30.695789880500001 151.12967526399999,-30.695819869 151.12979625599999,-30.695836870499999 151.12991324800001,-30.695841884 151.13003024,-30.695834872500001 151.13008825599999,-30.6958268805 151.13022524799999,-30.6957888815 151.13121523199999,-30.695524868 151.13161222399998,-30.695423858 151.13187817599999,-30.695359866499999 151.13221318399999,-30.695286865499998 151.13254819199997,-30.695217860500001 151.13329718400001,-30.695080849500002 151.13364816,-30.695005850500003 151.13417216,-30.694881845 151.13441814399999,-30.694819833 151.13515212799999,-30.694621846 151.13563411199999,-30.694509847 151.13583011200001,-30.694449833 151.13604313600001,-30.694392834499997 151.13609513599999,-30.694375833 151.13621011199999,-30.694327844 151.13638012800001,-30.694249848 151.13666608,-30.694133834499997 151.136868096,-30.694062831500002 151.13742809600001,-30.693878830500001 151.13752608,-30.693841830500002 151.137815104,-30.693718824 151.13804406400001,-30.693627822499998 151.13817606399996,-30.693579815 151.13824406399999,-30.693559816499999 151.13830406400001,-30.693545830499996 151.13842604800001,-30.693525813499999 151.138623072,-30.693498822 151.13892006399999,-30.69346382 151.139218048,-30.693419827 151.13936307200001,-30.693391818 151.13965001599999,-30.693326827500002 151.13980304,-30.693300798 151.14018102399999,-30.693252809 151.14027904,-30.6932477955 151.14039702400001,-30.693254807 151.140456032,-30.693262799 151.140514016,-30.693273806500002 151.14057104,-30.69328881 151.140628032,-30.6933098075 151.140849024,-30.693426801499999 151.14099504000001,-30.693484799 151.14109401600001,-30.693517803 151.14277798399999,-30.693769791499999 151.142956,-30.693795784 151.14520294399998,-30.694097759499996 151.14533792,-30.694117758 151.14548294400001,-30.6941287655 151.14569993599997,-30.6941207735 151.14587494400001,-30.694110765 151.146027936,-30.694112763 151.14619094400001,-30.694127766499996 151.14629193600001,-30.694145767 151.14639193599996,-30.694167763500001 151.14674192000001,-30.694249774 151.14650192,-30.694579758500005 151.14646192000001,-30.6947577655 151.14642294399997,-30.694906764500001 151.14623494399999,-30.695570766500001 151.14615392,-30.695915773 151.146128928,-30.695999763 151.14610192000001,-30.696073763 151.14600995200001,-30.696292766 151.145981952,-30.696366766 151.145938976,-30.696497764500002 151.14589996800001,-30.69663176 151.14582995200001,-30.696913774 151.145814976,-30.696986775 151.14579497599999,-30.697113759 151.14578297599999,-30.69722376 151.14577596800001,-30.697333761 151.14577097599999,-30.697535744 151.14576396800001,-30.6976577515 151.14574096000001,-30.697870742 151.14572796799999,-30.697940746 151.14569596800001,-30.698072743499999 151.14558195199996,-30.6984317545 151.14555296,-30.698512747500001 151.145519968,-30.6985917425 151.14548195200001,-30.698667740499999 151.14540995199997,-30.698783754 151.145356,-30.698856755 151.14531100799999,-30.698907741 151.145160992,-30.699050746 151.145116992,-30.699102749499996 151.14506700799998,-30.69917477 151.14502099199998,-30.699249769 151.14497900800001,-30.699328764 151.14494300800001,-30.699409757 151.14491100799998,-30.6994917675 151.144892,-30.699550764 151.14486300799999,-30.699672771499998 151.144813984,-30.699918747500003 151.14475100799996,-30.700226754 151.144712,-30.700369740499998 151.14468198399999,-30.700457745 151.14456102400001,-30.700778738500002 151.14426502399996,-30.701540753499998 151.14404102399999,-30.702169753499998 151.14394403199998,-30.702441740499996 151.14390304,-30.702540752500003 151.143833024,-30.702665738500002 151.14379104,-30.702728749499997 151.14374707199997,-30.702788763500006 151.14371606399996,-30.702824764499997 151.14358105599999,-30.702959759 151.143530048,-30.703016757500002 151.14343305599999,-30.703131772 151.14334204799999,-30.703251763 151.14325305599999,-30.703390772 151.14312905599999,-30.703606759500001 151.14287606400001,-30.704030761 151.14281705599998,-30.704138764 151.14277507200001,-30.704223771499997 151.14275705599999,-30.704260771499996 151.14259510400001,-30.704633768500003 151.14253808000001,-30.704756775 151.142337088,-30.705139762 151.14229209600001,-30.705237775 151.14222310400001,-30.705399761 151.14216310399999,-30.705565761500004 151.142124096,-30.705711763499998 151.142101088,-30.705837767 151.142045088,-30.706342761499997 151.14193712,-30.707504765 151.14185011199999,-30.70839776 151.141822112,-30.708516770500001 151.14180812800001,-30.708618761 151.14179612800001,-30.708912744499997 151.14177011199999,-30.7091597565 151.14176412800001,-30.709374745 151.141756128,-30.709584738500002 151.14174512,-30.709740749 151.14171414399999,-30.709972739 151.14170016,-30.710048755499997 151.14168115199999,-30.710123754499996 151.14165616,-30.710195756499999 151.14162915200001,-30.710251756 151.141599168,-30.7103067565 151.14156614399997,-30.710359740499996 151.14149014399999,-30.710458752500003 151.140181184,-30.712317762 151.1400232,-30.712969757499998 151.13971523199999,-30.714246757 151.13945523199996,-30.715282757 151.139426208,-30.715356757 151.13938921599998,-30.715426761 151.13936822400001,-30.715459765 151.13934521600001,-30.715489772 151.13926524799999,-30.715572763 151.13924224,-30.71560277 151.139213248,-30.715651758 151.13916825599998,-30.715756764 151.139136256,-30.715866765 151.13912326400001,-30.7159297575 151.13911625599999,-30.715994766499996 151.13910825599999,-30.716126764 151.13908825600001,-30.716293763500001 151.13906224,-30.7164447605 151.13902624,-30.716592760499999 151.13901024,-30.716639769 151.13898924799997,-30.716684761 151.138944256,-30.716758761 151.13891724800001,-30.716794762 151.138888256,-30.716825768 151.138856256,-30.716850761500002 151.13880425599999,-30.716871759 151.13874524799999,-30.716880768499998 151.138504256,-30.716877771500002 151.13846425599999,-30.7168757735 151.13836425599999,-30.716869761 151.13831926399999,-30.716872758 151.13826928,-30.716881767500006 151.13821929599999,-30.716895772 151.138170272,-30.716912773500002 151.13807328,-30.716952770500001 151.13796329600001,-30.717009769 151.137808288,-30.717112758499997 151.13774928000001,-30.717157769 151.13769328,-30.717205758 151.13733728,-30.717535761 151.13681932799997,-30.71820979 151.13605536,-30.7191597835 151.13547734400001,-30.719885779 151.13543936,-30.719943776500003 151.13539536,-30.719997778 151.13533833599999,-30.720050780499999 151.135301344,-30.720075792500001 151.13512633599998,-30.720175785 151.134943392,-30.720266786500002 151.13488636799997,-30.720302787499996 151.13483436800001,-30.720342784500001 151.13473337599999,-30.72042979 151.13464137599999,-30.720525786500001 151.13455638400001,-30.720623781 151.134481376,-30.720727788 151.134448384,-30.720782788499996 151.13441939200001,-30.72084678 151.13439638400001,-30.720913787 151.134335392,-30.721120783500002 151.13424838399999,-30.721378784500001 151.13419337600001,-30.721504788 151.134129376,-30.7216297925 151.13409337600001,-30.721690787 151.13402739200001,-30.721791778500002 151.13396742399999,-30.721871791 151.13390342400001,-30.721949787 151.13383340799996,-30.722028782 151.1335784,-30.722298789500005 151.133391424,-30.722756775500002 151.133185408,-30.723448768 151.133052448,-30.724049759 151.13305744,-30.724937759 151.13308345600001,-30.7257387535 151.13309145599999,-30.725873748 151.13308844799997,-30.7260097415 151.133076448,-30.726129751 151.13305744,-30.726236755 151.13304444799999,-30.72628874 151.13302944,-30.726339744500002 151.13300345600001,-30.726404753499999 151.13297145600001,-30.726466747 151.13293644800001,-30.7265277415 151.13282848,-30.726704749499998 151.13272246400001,-30.726871749 151.13269046400001,-30.726929746500002 151.13260947200001,-30.727096746 151.13257446399999,-30.727182752499999 151.13254448000001,-30.727269739500006 151.13252348799998,-30.727357744 151.132513472,-30.727436739 151.13250848000001,-30.727516751499998 151.13250848000001,-30.727597744500002 151.13251648,-30.72775875 151.13253347200001,-30.727901755 151.13254448000001,-30.727973738499998 151.13257648000001,-30.728113746500004 151.132885472,-30.728766722500001 151.13291347200001,-30.72882472 151.13310246399999,-30.729239730499998 151.13370348800001,-30.730565718 151.133706464,-30.730571712 151.13426246399999,-30.731809695 151.13477046400001,-30.732930684 151.135427488,-30.734378679 151.13582348799997,-30.7352636635 151.13643846399998,-30.736655659 151.13678848000001,-30.737635641 151.13699347199997,-30.73826564 151.13704448,-30.738444627499998 151.13709648,-30.738596642 151.13714448,-30.738705625499996 151.137185472,-30.738781623499996 151.137231488,-30.738855623500001 151.13727248000001,-30.738911623 151.13736448,-30.739018627 151.13751347199997,-30.739166627 151.137578464,-30.739221609 151.13791148799996,-30.739501625 151.13796048,-30.739537626 151.13807846399999,-30.739616621 151.13820246399999,-30.739688623 151.138265472,-30.739721627 151.140166432,-30.741104594500005 151.14037443199999,-30.741257589500002 151.142228448,-30.742629568 151.1446264,-30.74420155 151.145975392,-30.744924548499998 151.146695392,-30.745309533500002 151.14766537599999,-30.745827533500002 151.148922336,-30.74649851 151.15013536000001,-30.747158516 151.150678336,-30.74762849 151.15117536,-30.747989480499996 151.15160832000001,-30.748420493499999 151.15219030399996,-30.749131485499998 151.15246931199999,-30.749401493 151.15353132800001,-30.750425468 151.15510432,-30.751885469499996 151.15709027199998,-30.753545456 151.157395296,-30.753787454499999 151.15781929600001,-30.754124450500001 151.15825824000001,-30.754472454 151.15939424,-30.755429459 151.16004425599999,-30.755977429 151.16019126399996,-30.756141431500005 151.160423264,-30.756378435 151.160603264,-30.756549430500002 151.160715264,-30.756647425 151.16079024000001,-30.756713433 151.160887264,-30.75679043 151.16104825599999,-30.756905426 151.161299232,-30.757064433499998 151.16153523200001,-30.757194433 151.16159123200001,-30.757230434 151.16165923200001,-30.757282437499999 151.161726208,-30.757338437 151.16178921599999,-30.757398432499997 151.16191020799999,-30.757522438 151.16197523199997,-30.757602432 151.16215222400001,-30.757858435 151.16216022399999,-30.757868425 151.16221523199999,-30.757940427 151.16233321600001,-30.758083432 151.16239420799999,-30.758153436 151.162459232,-30.758218426500001 151.162527232,-30.758278440500003 151.16259222400001,-30.758323432500003 151.16287321600001,-30.758478407 151.163135232,-30.758641410500005 151.16321820799999,-30.758700407 151.16329820799999,-30.758764417 151.16338921600001,-30.758850423499997 151.16347721599996,-30.758942405500001 151.16355923200001,-30.759041417500001 151.16363321599999,-30.759144407 151.16369622400001,-30.759251411 151.163733216,-30.759328408 151.163766208,-30.759409419500003 151.16379523200001,-30.759491411499997 151.163843232,-30.759657412 151.16386422400001,-30.759765415 151.163878208,-30.759875416 151.163910208,-30.760207417 151.16394220800001,-30.760451413499997 151.16396422400001,-30.760593419500001 151.163979232,-30.760694411 151.164003232,-30.760814420500001 151.16403222400001,-30.760930415499999 151.16413321600001,-30.761272406500002 151.16416323199999,-30.761387421 151.164193216,-30.761523414499997 151.16426822400001,-30.761933411499996 151.16429721599999,-30.762069423500005 151.16435420799999,-30.762290406 151.164417216,-30.762509409 151.164488224,-30.762732408 151.16465020799998,-30.763185417500001 151.164813216,-30.763681421 151.16489523199999,-30.76390442 151.16501820799996,-30.764202418 151.16508921600001,-30.764394411 151.16518121600001,-30.764670394 151.165264224,-30.764870397500001 151.16531420800001,-30.7649793995 151.16536822399999,-30.765086403499996 151.16542620800001,-30.765191391 151.165489216,-30.7652934 151.165554208,-30.765384401500004 151.16577222399997,-30.765644400500001 151.16584121599999,-30.765733404 151.165950208,-30.765896389 151.166287232,-30.766428393499996 151.166344224,-30.76652439 151.16646121599999,-30.766737399 151.16657622400001,-30.766974402500004 151.16667923200001,-30.767216401 151.16676521599999,-30.76744939 151.166840224,-30.767686393499996 151.166872224,-30.767806403 151.16689923199999,-30.76793039 151.166962208,-30.768306402500002 151.166986208,-30.768431388500002 151.16712620800001,-30.768997396 151.16716022400001,-30.769155404499998 151.167256224,-30.769631391 151.16729321599996,-30.769788400500001 151.167378208,-30.770094390500002 151.16751123199998,-30.770528400500002 151.16758723199999,-30.770756394499998 151.16766723200001,-30.7709833895 151.168123264,-30.772179377499999 151.16826524799998,-30.772525383 151.16832425600001,-30.77264937 151.16850924799999,-30.773018371 151.16856524799999,-30.773143375499998 151.16860326400001,-30.77324137 151.16874524799999,-30.773636382 151.16890326399999,-30.774028378499999 151.16893824,-30.774128371 151.16897024,-30.774234376 151.16902825599999,-30.774449383 151.169071264,-30.7746663695 151.16908726400001,-30.774797386499998 151.16909424,-30.774929384 151.169103264,-30.775193379 151.16911225600001,-30.7753253765 151.169135264,-30.775544379500001 151.16916524800001,-30.775762383500002 151.16918624,-30.775869369 151.16921225600001,-30.775980369 151.16924326399999,-30.776089371 151.16927625599999,-30.776198373 151.16935324799999,-30.77641338 151.16941424000001,-30.776563378 151.16967424000001,-30.777151382 151.169755264,-30.777351385500005 151.169836256,-30.777568372 151.169912256,-30.777787375 151.17001824,-30.778129384500001 151.17015926400001,-30.778646385499997 151.170251264,-30.779008356499997 151.17032624000001,-30.779362354 151.17039225600001,-30.779626367499997 151.17042524799999,-30.77977335 151.17043424,-30.779822356500006 151.17043926400001,-30.779872362 151.17043926400001,-30.779933356500003 151.17041824,-30.780119355500002 151.17040224,-30.780359356 151.17040425600001,-30.780417353500003 151.17041324799999,-30.780473353 151.170431264,-30.780526355499997 151.170455264,-30.780578359 151.17051526399999,-30.780677352500003 151.17058624000001,-30.780782358499998 151.17067526400001,-30.780890361499999 151.17077324799999,-30.780988356 151.17084224000001,-30.781045354500002 151.170916256,-30.78109536 151.17099424,-30.78114235 151.17126624,-30.781300358499998 151.17150425599999,-30.781422366 151.17161824,-30.781489354499996 151.17162924799999,-30.781497365 151.17172224000001,-30.7815663515 151.17185526399999,-30.781679368 151.17191824,-30.781740362500003 151.17197126400001,-30.781805353 151.172008256,-30.781875357 151.17202726400001,-30.781945361 151.17203724800001,-30.782021359 151.17203824,-30.782099355 151.172031264,-30.782176333500004 151.17201526400001,-30.782247336499999 151.171995264,-30.782300339 151.17196924800001,-30.782351343500004 151.17183424000001,-30.782566332 151.17169926400001,-30.782760341500001 151.17165824,-30.782826368 151.17156924799997,-30.78298236 151.17152825599999,-30.783062354 151.17149324799999,-30.783144346 151.17146624,-30.783227337 151.17145024000001,-30.783306332 151.17144025600001,-30.7833883425 151.17143424,-30.783552345 151.17143424,-30.783810346 151.17143926399999,-30.783898332 151.17144924799999,-30.783985337500006 151.171467264,-30.784069346 151.171491264,-30.784144345 151.17152224,-30.784218345 151.17159526399999,-30.7843603325 151.17168624,-30.784515344 151.171919264,-30.784842331500002 151.17211225599996,-30.785140348 151.17228025599996,-30.785390338499997 151.17231824000001,-30.785455347499997 151.17239724800001,-30.785602348499999 151.17243324799998,-30.785678346500003 151.17246524800001,-30.785754344500003 151.172491264,-30.785832340500001 151.172513248,-30.785917348 151.17252825599999,-30.786004335 151.17259625599999,-30.7865633495 151.17260624,-30.786662343 151.17261724799999,-30.786853337 151.17262124800001,-30.787039336 151.17261926399999,-30.787132335500004 151.172613248,-30.787224336 151.172603264,-30.7873143385 151.17258928000001,-30.787404341 151.17255427200001,-30.787583347 151.172491296,-30.787864343500001 151.17243728,-30.788055319 151.172402272,-30.788147319499998 151.17236128,-30.788234325 151.17231328,-30.788320313 151.172019296,-30.788800332499999 151.17193827200001,-30.788960339 151.171908288,-30.7890113435 151.17187328,-30.789057334500001 151.17183728,-30.789095333500001 151.17179827199999,-30.789129336499997 151.17175628800001,-30.789162340499999 151.17166828800001,-30.78921834 151.17161027200001,-30.789249346 151.17154832,-30.789276337500002 151.17148531199999,-30.789299333 151.17142032000001,-30.7893163345 151.17135632,-30.789327342 151.17125030400001,-30.789335334 151.17119430400001,-30.789333336 151.17114432,-30.789326343 151.17109731199997,-30.789310340499998 151.171063328,-30.789290342 151.170938304,-30.789179342 151.17084131199999,-30.789118347499997 151.17079030400001,-30.789090338499999 151.17068531199999,-30.789041332 151.17055331199998,-30.788990346 151.17048531200001,-30.788969348499997 151.17041632,-30.788951348 151.17034732799999,-30.788939341500001 151.170253312,-30.788929333 151.17015731199999,-30.788926336 151.170061312,-30.788932348499998 151.16996630400001,-30.788945335499996 151.16987632,-30.788967332 151.16981932799999,-30.788985332500001 151.16976131199999,-30.789005349499998 151.169704352,-30.789029344 151.16965433600001,-30.789058333500002 151.16961136,-30.789094334500003 151.16958134399999,-30.789130335500001 151.169554336,-30.7891713315 151.16953136000001,-30.789215343 151.16951536,-30.789261334 151.16950534399999,-30.789306344500002 151.16950435199996,-30.789351336500001 151.169512352,-30.789396347 151.169524352,-30.789443337 151.16957635200001,-30.789608338500003 151.169589344,-30.789650333500003 151.16965235199999,-30.789821347500002 151.16969833600001,-30.789971345500003 151.16974035199999,-30.790123341499999 151.169780352,-30.790301348500005 151.16994633599998,-30.791321346 151.16996233599997,-30.791455341500001 151.16998534399997,-30.791722333500001 151.17000233600001,-30.791855348499997 151.17002736,-30.791986347 151.170052352,-30.792081344500001 151.17008336000001,-30.792175343 151.17018035199999,-30.792455322 151.17031536,-30.792904317 151.17043033600001,-30.793320326500002 151.170602336,-30.793992320500006 151.17065334399999,-30.794208326500002 151.17067433599999,-30.794316329500003 151.17068736,-30.794399320499998 151.17071635199997,-30.794651327500002 151.170740352,-30.794816329 151.17096835199999,-30.794875325500001 151.17118633600001,-30.794940316 151.171741344,-30.795118323 151.17187334400001,-30.795160318 151.17241830399999,-30.795330296 151.17308032,-30.795531298500006 151.17329532799999,-30.795597306499996 151.17357532799997,-30.7956743035 151.17399430399999,-30.7957773115 151.17413328000001,-30.795814311499999 151.174474272,-30.795912306 151.17466128000001,-30.795977296500002 151.17486428800001,-30.796059307 151.17506227199999,-30.796151289 151.17516128,-30.7962032925 151.17525728000001,-30.796259292 151.175746272,-30.796569278 151.175948288,-30.796707288 151.17604528000001,-30.796780289 151.17627824,-30.79696429 151.17639024,-30.797062284500001 151.17649324800001,-30.797166291499998 151.17658425600001,-30.7972782905 151.176633248,-30.797354288499999 151.17667824,-30.797433283500002 151.17675824,-30.797596287 151.17685024,-30.797797289499997 151.17692326400001,-30.797977276 151.176971264,-30.798117284 151.17702224000001,-30.798298288 151.17704124799999,-30.798397281499998 151.17705324799999,-30.798531277 151.17706425599999,-30.798597285 151.177083264,-30.798658261 151.17713724800001,-30.798763267 151.17717024000001,-30.798812273500001 151.177208256,-30.798856266499996 151.17725024,-30.798893266500002 151.177297248,-30.79891826 151.17735126400001,-30.7989362605 151.17752224,-30.798972261500001 151.17777824000001,-30.7990392685 151.17792025599999,-30.7990852595 151.17799926399999,-30.799115266499996 151.17802425599999,-30.799125275 151.178232256,-30.799212262 151.17832124799997,-30.799255274500002 151.17858224,-30.799394265 151.178671264,-30.79943626 151.178796256,-30.799488263500002 151.17892326399999,-30.79953727 151.179053216,-30.799581263 151.17918323200001,-30.799620261 151.17931523199996,-30.799652266 151.17945321600001,-30.799675261499999 151.179594208,-30.799686269 151.17987820799999,-30.799703252 151.18007820799997,-30.799731242500002 151.18025820799997,-30.799766244500002 151.18031721599999,-30.799783246 151.18038521599999,-30.799809257 151.18045222399999,-30.799841243500001 151.18064921600001,-30.799944251500001 151.180785216,-30.80001124 151.1809872,-30.800115247 151.18137318399999,-30.800327257 151.18180419199999,-30.800548239499999 151.1819112,-30.800607254500001 151.182036192,-30.800681254500002 151.18252819200001,-30.800996235500005 151.183104192,-30.801331233500001 151.18324614400001,-30.801419238 151.183441152,-30.801547221 151.183634144,-30.801679237 151.183825152,-30.801815230500001 151.18401216000001,-30.8019552385 151.18419616,-30.802099224 151.18440115199996,-30.802269220500001 151.184535168,-30.802386233 151.18477315199999,-30.802620202500002 151.18499616,-30.802824202 151.18516416,-30.802963211 151.18525216,-30.803026203499996 151.18537116799999,-30.803101202500002 151.18549414399999,-30.803169208499998 151.18562012800001,-30.803233218499997 151.18588412799997,-30.803355207499997 151.185938112,-30.8033812185 151.18625212800001,-30.803515214 151.18650713599999,-30.803615206499998 151.18677312,-30.803727205499996 151.18694611199999,-30.803809216 151.18714812799999,-30.803922214 151.187278112,-30.804004187499999 151.18735113599999,-30.804056191 151.18756512,-30.804224189500001 151.18771612800001,-30.804336188499999 151.18803510399999,-30.804559187499997 151.18842208000001,-30.804840184 151.18867708799996,-30.805010199 151.18883609599999,-30.805109192500002 151.18916009599999,-30.8052981885 151.18940409599998,-30.805430186 151.18983609599999,-30.805649170500001 151.19004905599999,-30.8057591715 151.190260064,-30.805874167500001 151.19059404800001,-30.806066179 151.190812064,-30.806200174500002 151.19102307200001,-30.806336168 151.19123107199997,-30.806478174 151.191420064,-30.806627173 151.191508064,-30.806703171 151.19154905600001,-30.806743168 151.19159107199999,-30.806789177499997 151.19170806399998,-30.806936178499999 151.19174905599999,-30.8069831685 151.19185606400001,-30.807100181 151.191913056,-30.807156180500002 151.191972064,-30.807208165499997 151.19203507200001,-30.807252177 151.19209907199996,-30.807288178 151.19216604799999,-30.807320183 151.19223705600001,-30.807347174500002 151.192308064,-30.807368172 151.19235606399999,-30.807378180499999 151.19238006399999,-30.807384174500005 151.19244307199997,-30.807391167500001 151.19263504,-30.807388152 151.19269801600001,-30.807389151 151.19281904,-30.8073981605 151.19293801599997,-30.807412146499999 151.19299702399999,-30.807423154 151.19307801599999,-30.807446149500002 151.19315702399996,-30.807476156499998 151.19323504,-30.807511158499999 151.19356601600001,-30.807666151500001 151.19374102399999,-30.807754156 151.19382704,-30.807801164500002 151.193917024,-30.807854148499999 151.19418102399996,-30.808025162500002 151.19427302400001,-30.808075149500002 151.19441702399999,-30.8081381605 151.19456601600001,-30.808191163 151.19471900799999,-30.808236155 151.194875008,-30.808274154 151.195028992,-30.808309156 151.195144992,-30.808330153500002 151.19549699199999,-30.8083741465 151.19561299199998,-30.808394163500001 151.19573299199999,-30.808422154 151.19596998399999,-30.808486164 151.19633299200001,-30.808603158 151.196588,-30.808695158500001 151.19671296,-30.808748161 151.19683497599999,-30.808806158500001 151.196997952,-30.808890148500002 151.197077952,-30.808936158 151.19715497600001,-30.808986163500002 151.197226976,-30.809040146500006 151.19730896,-30.809115164 151.19738496,-30.809198155 151.19745596800001,-30.809287158499998 151.19764697599999,-30.809543143 151.19815196799996,-30.810293133 151.19830995199999,-30.810539146 151.19841097599999,-30.810705128 151.198643968,-30.811123135499997 151.198790976,-30.811368131 151.19883097600001,-30.811426128499999 151.198889952,-30.811503144 151.19895196799999,-30.811577144 151.19901696,-30.8116481285 151.19908595199999,-30.811716134500003 151.19915696,-30.811781143499996 151.19926995200001,-30.811835145 151.20206592,-30.813170123500004 151.203492896,-30.813838103 151.20418588800001,-30.814162093500002 151.20451987199999,-30.814314108 151.20768582399998,-30.815752076 151.20800284800001,-30.815872085499997 151.208318848,-30.81599709 151.20849484799999,-30.816069073499996 151.20897580799999,-30.816269077 151.20931881600001,-30.81640409 151.20948979199997,-30.816467082500004 151.21000579199998,-30.816647069 151.210175808,-30.816712059500002 151.21021580799999,-30.816729061 151.210694816,-30.816934059499996 151.21100678400001,-30.817059064 151.211235776,-30.817143054 151.21149878400001,-30.817223066499999 151.21164777600001,-30.817262064499999 151.211798784,-30.817296067499999 151.21194976000001,-30.81732206 151.21210176,-30.817340060500001 151.21219977599998,-30.817344056500001 151.212494784,-30.817336064499997 151.21259276800001,-30.817339061499997 151.21275078399998,-30.817354065 151.21284976000001,-30.817368069500002 151.21286576,-30.817371066499998 151.21298473600001,-30.81739606 151.213090752,-30.817429064 151.21319475199999,-30.817471059 151.21329673599996,-30.817519066500001 151.213495744,-30.817625071499997 151.213654752,-30.81771907 151.213731744,-30.8177690385 151.21388172799999,-30.817876042499996 151.21397273599996,-30.817951041500002 151.21423075199999,-30.818198053499998 151.21431974399999,-30.818277048500001 151.21441075199999,-30.818350049500001 151.21478572800001,-30.818631046 151.21515673600001,-30.818935038 151.21528172800001,-30.81903405 151.21541072,-30.819129047499999 151.21557171200001,-30.819237050499996 151.21573670399999,-30.819341039 151.21590569599999,-30.819439033499997 151.21628272000001,-30.819644032 151.21646070399999,-30.819734034499998 151.21670969600001,-30.8198510285 151.21685472,-30.819909026 151.217668672,-30.820180032499998 151.21834368,-30.820428025 151.218514688,-30.820495032 151.21914368,-30.8207610065 151.21921667199999,-30.820791013499999 151.219314688,-30.820832009500002 151.21946668800001,-30.820886011 151.21962166399996,-30.820928006 151.21975065599997,-30.820952000499997 151.21988163200001,-30.820970001 151.220345632,-30.8210240025 151.220515648,-30.821050013499999 151.220685632,-30.821081001 151.220854656,-30.821119 151.22118864000001,-30.821211999500004 151.22147865599999,-30.821286998499996 151.2217696,-30.8213520075 151.2221576,-30.821417997 151.22268262399999,-30.821485984500001 151.2230696,-30.82154598 151.22334361599999,-30.821580982 151.223597568,-30.821607992 151.223608576,-30.821608991 151.22196464000001,-30.823845974 151.22131865599997,-30.824956973 151.22071468799999,-30.825993972 151.220461664,-30.826420970500003 151.21925270400001,-30.828458949 151.219167712,-30.828624949499996 151.21909475199999,-30.828796944 151.21904275199998,-30.828948958500003 151.21900172799999,-30.829105949500004 151.21896972799996,-30.829264957 151.218943744,-30.829425944 151.21892374399999,-30.829586949500001 151.21891273599999,-30.829741961 151.218909728,-30.829897953 151.21891475199999,-30.830209937 151.21891273599999,-30.830365929 151.21890473600001,-30.83053994 151.21888473600001,-30.830887925 151.21882275199999,-30.831820935500001 151.21879075199999,-30.832209935 151.218752768,-30.832588926 151.21870678400001,-30.832966918 151.21867977599999,-30.833154915 151.21864278399997,-30.83337192 151.21860076799996,-30.833588906500001 151.21830678399996,-30.834963919 151.21819379199999,-30.835445899500002 151.218089792,-30.835818896500001 151.2180568,-30.835943901 151.21802880000001,-30.8360699045 151.21801379199999,-30.836156891499996 151.218010816,-30.836175891 151.2179688,-30.836496903 151.21795081600001,-30.836602889499996 151.217910816,-30.836777899499996 151.21786380799998,-30.836951892 151.217810816,-30.837123905 151.21775081600001,-30.837293901499997 151.217686816,-30.8374619 151.217605792,-30.837650896 151.21751580799997,-30.837837894 151.21741984,-30.838021895 151.21731782399999,-30.8382019 151.21721084800001,-30.838378889499996 151.217110848,-30.838530904 151.21700384,-30.838678904 151.216674848,-30.839117890500003 151.21633782399999,-30.839556895499999 151.21623187200001,-30.839706893499997 151.21617987199997,-30.839794898 151.21613888,-30.839862904 151.21606688,-30.840007888500001 151.21600086399999,-30.840156887500001 151.21594288,-30.840308902 151.21588985599999,-30.840463895 151.215841856,-30.840618888 151.215793856,-30.840803888 151.21575488,-30.840992902500005 151.21572288,-30.841182897500001 151.21566387199996,-30.841563905 151.21561987199999,-30.8418789045 151.215582912,-30.842194903 151.215515904,-30.842828898 151.21547590399999,-30.8431448965 151.215435904,-30.843417901 151.21534988799999,-30.843963891499996 151.21525289600001,-30.844507902500002 151.21519388799996,-30.844795892 151.21512988800001,-30.8450839 151.21474393599999,-30.846688904500002 151.214614944,-30.847181892499997 151.214550944,-30.8473988975 151.21441392,-30.847829892 151.21434896,-30.848046897 151.21433996799999,-30.848082898 151.214291968,-30.848264901 151.21424995199999,-30.848441890500002 151.214210976,-30.848619897500001 151.21417497600001,-30.848798903499997 151.21414496,-30.848977891 151.21412096,-30.849157896 151.21410396799996,-30.849325894500005 151.21409196799996,-30.849493893 151.21408396799998,-30.849662890499999 151.21408297599999,-30.849831888 151.21408995199999,-30.849999905 151.21410595200001,-30.850180890500003 151.21413296,-30.850360895499996 151.214165952,-30.8505409005 151.21424396800001,-30.850898894 151.21426896,-30.850995889500002 151.21434995199999,-30.851286894499996 151.214370976,-30.851384889 151.214402976,-30.851583893500003 151.21442297600001,-30.851785895 151.21443196799999,-30.851988895499996 151.21443097599999,-30.852191896 151.21442,-30.8523928985 151.214392992,-30.85264189 151.21434899199997,-30.852891899 151.214291008,-30.8531398915 151.21421699199999,-30.853382889 151.21413100800001,-30.853618893500002 151.21403900799999,-30.853823892 151.213932,-30.854024894499997 151.21385900799999,-30.8541489 151.213816,-30.854220902 151.21369299200001,-30.854413894 151.21350201600001,-30.854702901 151.21281504000001,-30.855665918499998 151.212581024,-30.855970909499998 151.21245001599999,-30.856131915 151.21231804799999,-30.856290922500001 151.21204604799999,-30.856603924 151.21178505599997,-30.856884920499997 151.21138307199999,-30.857297914500002 151.21093008,-30.857772920499997 151.21077510399999,-30.857927913499999 151.210615104,-30.8580769125 151.21038009599997,-30.858277915 151.21013609600001,-30.858470907 151.20988608,-30.858655907 151.20962912,-30.858831916 151.20936912,-30.8589999145 151.20904812800001,-30.859191907500005 151.20888412799999,-30.859283908 151.20855312,-30.859458936500001 151.20842412799999,-30.859521929 151.20803014399999,-30.859701934 151.207903168,-30.859768941 151.20777315199999,-30.859844939 151.207645152,-30.859925932 151.207519168,-30.860010939499997 151.20727315199997,-30.86018693 151.20709814400001,-30.860322942 151.20684217600001,-30.860536931499997 151.20538921599999,-30.862630928 151.20467123200001,-30.863710939500002 151.20422825599999,-30.864277927500002 151.20411625599999,-30.864544956500001 151.20402924800001,-30.864779943499997 151.20397024,-30.864953954499999 151.20391926400001,-30.865122952 151.20387324800001,-30.865291949500001 151.20379424000001,-30.865634958 151.20375926400001,-30.865807951500003 151.20371228799999,-30.866081955 151.20365529599999,-30.866494949 151.20361228799999,-30.866855958 151.20355728,-30.867398951499997 151.20354329599999,-30.867580954499999 151.20352128,-30.867946958499999 151.20350128000001,-30.868126945 151.20346627199999,-30.868303953 151.20343027199999,-30.868433952500002 151.20339027200001,-30.868562953 151.20334329600001,-30.868690954499996 151.20328928000001,-30.86881496 151.20322828799999,-30.868933952 151.20318432,-30.869007952 151.20308832000001,-30.869151956 151.20298332799999,-30.869288948499999 151.202886304,-30.869401946499998 151.20278230400001,-30.869508950500002 151.20267232,-30.869610959500001 151.20255731200001,-30.869707955 151.20244032,-30.869798956499999 151.20232131200001,-30.869882946499999 151.20219830400001,-30.86996196 151.20207132799999,-30.87003596 151.20194131199997,-30.870103947499999 151.20181033599999,-30.8701659595 151.201685344,-30.870216945499998 151.20150835199999,-30.870279956499999 151.20135334399998,-30.870326946500001 151.20104035200001,-30.870412953 151.20081033599996,-30.870475945499997 151.20057936000001,-30.870533943 151.200346336,-30.8705859465 151.20011337599999,-30.870633954 151.19968739199999,-30.870709970500002 151.19930236799999,-30.870763972 151.198916384,-30.870804968 151.198759392,-30.870825965499996 151.198602368,-30.870853974500005 151.1984464,-30.8708869785 151.19829142399999,-30.870926975499998 151.198139424,-30.870971967499997 151.197981408,-30.87102497 151.19782342399998,-30.871085964499997 151.197669408,-30.871152971500003 151.19751740800001,-30.871224973500002 151.1973704,-30.871303968499998 151.19722540799998,-30.871391973 151.197084416,-30.871486970500001 151.19681344,-30.871691969 151.19659043199999,-30.871872973 151.19650243199999,-30.871950969 151.19641545600001,-30.872028965 151.19632745600001,-30.8721069795 151.19623443200001,-30.872178963 151.19607344,-30.872302968499998 151.19573545599999,-30.872530962500001 151.19555747199996,-30.872631972500002 151.19538048000001,-30.872731965 151.195215488,-30.872811996 151.19504547199998,-30.872884997 151.19487347200001,-30.872952984499996 151.194699488,-30.873015995500001 151.19452448000001,-30.873075991 151.19432848,-30.873138983500002 151.19413046399998,-30.873196981 151.19393152000001,-30.873249983500003 151.19373049599997,-30.873297991 151.193529504,-30.873337988 151.19336851200001,-30.873370992 151.19320649599999,-30.873397983500002 151.19306352000001,-30.87341998 151.19281049599999,-30.87348399 151.19254051199999,-30.873541987499998 151.19223052800001,-30.873597987 151.19197353600001,-30.873635986 151.19171555200001,-30.87366899 151.19119654400001,-30.8737239905 151.18988256,-30.873895004500003 151.189397568,-30.873924012500002 151.18921158399999,-30.873916002 151.18916556799999,-30.873913005 151.189040576,-30.873903015 151.18897756800001,-30.873896003500001 151.188746592,-30.873863998500003 151.18858761600001,-30.87383401 151.188512608,-30.873813012500001 151.18816860800001,-30.873703011499998 151.18733459200001,-30.873419998499998 151.18550662399997,-30.872727025500001 151.185394624,-30.872676021 151.18517062399997,-30.872572032499999 151.18506262400001,-30.872512018499997 151.184953632,-30.872456019 151.18484867199999,-30.872392027500002 151.184694656,-30.872286022499999 151.18454566400001,-30.872170027500005 151.18440265599997,-30.872046022 151.18426665600001,-30.871916022499999 151.18413667199999,-30.871780029 151.18405065599998,-30.871680018 151.18396867199999,-30.871575030499997 151.18352166400001,-30.870971042499999 151.18346467200001,-30.870905053 151.18338265599996,-30.8708200455 151.18329667200001,-30.870739052499999 151.18320566399998,-30.870661038 151.18291568000001,-30.8704420535 151.18269968000001,-30.870303044500002 151.18258768,-30.870241051 151.18247366400001,-30.870184052500001 151.18236067199999,-30.870135046 151.182244704,-30.870092052 151.18212668800001,-30.870052036500002 151.18188870399999,-30.869984049 151.181738688,-30.86994605 151.18158668800001,-30.869912047 151.181432704,-30.869883039 151.18127868799999,-30.8698630405 151.18112470400001,-30.869853050499998 151.18104268799999,-30.869853050499998 151.18095971199998,-30.869855048499996 151.18079571199996,-30.869867036500004 151.180713696,-30.869877045 151.17882176000001,-30.870170066500002 151.176246784,-30.870525081499999 151.17618579200001,-30.870533073499999 151.172816864,-30.870783082499997 151.172354848,-30.870849109 151.17117689599999,-30.871168104500001 151.17019993599999,-30.871470098500001 151.16926691200001,-30.871773091499996 151.16841196799999,-30.872100116 151.16753097599999,-30.872501122 151.16563100799999,-30.873420109500003 151.16429705599998,-30.874112139 151.16406905599999,-30.874238142500001 151.16345004799999,-30.874625144 151.16318108799999,-30.874799136499998 151.16303209599999,-30.874895133 151.16294208,-30.875376133 151.16272908799999,-30.876511145 151.162679072,-30.876780135 151.162311104,-30.878750144499996 151.16216112000001,-30.878729128499998 151.16174614400001,-30.880941136500002 151.16189814399999,-30.880957139 151.16038620800001,-30.8890361445 151.16033420799997,-30.889314144 151.15967427199999,-30.892845128 151.15924928000001,-30.892762137 151.15888726399999,-30.892727135 151.15850227199999,-30.892720142 151.15811632,-30.892696129 151.15781632,-30.892610141 151.15740329600001,-30.892609142 151.15687030399999,-30.892407159 151.15667132799999,-30.892309164499999 151.15658732799997,-30.892236163499998 151.156556352,-30.892308147 151.15616732800001,-30.892249150499996 151.15609833600001,-30.892239160499997 151.15576134399998,-30.892191153 151.15431936,-30.891985155499999 151.15414236800001,-30.891953150499997 151.15400336,-30.891928175499999 151.15254640000001,-30.891721179 151.14974745599997,-30.891321190500001 151.148354496,-30.891122186 151.14839449600001,-30.890921183499998 151.148599488,-30.889888199 151.14866246400001,-30.889568186 151.14903248,-30.887697188500002 151.149085472,-30.887429197500001 151.14933744,-30.886151199 151.14935059199999,-30.886081972</coordinates></LinearRing></outerBoundaryIs></Polygon>

	</Placemark>
</kml>