<?xml version="1.0" encoding="UTF-8"?>
<kml xmlns="http://www.opengis.net/kml/2.2">
	<Placemark>
		<Style>
			<LineStyle>
				<color>ff0000ff</color>
			</LineStyle>
			<PolyStyle>
				<fill>1</fill>
				<color>330000cc</color>
			</PolyStyle>
		</Style>
			<ExtendedData><SchemaData>
		<SimpleData name="STATE_2006">1</SimpleData>
		<SimpleData name="POA_2006">2209</SimpleData>
	</SchemaData></ExtendedData>
      <Polygon><outerBoundaryIs><LinearRing><coordinates>151.0900624,-33.946193704500004 151.09016531200001,-33.946427100500003 151.090405312,-33.946817099 151.091394304,-33.948076079499998 151.091431296,-33.948196070500003 151.09148377599999,-33.948359721500005 151.09162832000001,-33.949013086 151.09198489600001,-33.949220933500001 151.091250336,-33.950386100499998 151.09118035200001,-33.950397089500001 151.09127929600001,-33.950851745499996 151.0913736,-33.951287883 151.08979104,-33.951528457 151.08861168000001,-33.951707648 151.08851161600001,-33.951723206499999 151.08742476800001,-33.9518873755 151.08723865600001,-33.951915532500003 151.08656291200001,-33.952017689500003 151.085933504,-33.9521131865 151.08570323199999,-33.952147911 151.08538105599999,-33.952217045499999 151.08524460800001,-33.952246386500001 151.08477443199999,-33.952326214 151.08390361599999,-33.952461486 151.083652672,-33.952492251500004 151.083577088,-33.952516745499999 151.08343705600001,-33.952562015 151.083029888,-33.952757856 151.08220656,-33.953213511 151.08209065599999,-33.953273636 151.08180265599998,-33.953422949500002 151.08148297599999,-33.953611316500002 151.08129161599999,-33.953724277500001 151.080804736,-33.95401200799999 151.07921209599999,-33.954952862500001 151.07702867200001,-33.956235449 151.07680691199997,-33.9563655965 151.07584537599999,-33.956930068499993 151.075476,-33.957140302500001 151.075347392,-33.957168089500001 151.07551273599998,-33.9573442465 151.076609792,-33.958577401 151.0778128,-33.95992838199999 151.07909760000001,-33.961370309 151.07892444800001,-33.961478219500002 151.07891724800001,-33.961470745499994 151.07885891199999,-33.961429527500002 151.07877395200001,-33.961412156 151.07799779199999,-33.961263656500002 151.076724832,-33.961019401 151.076635552,-33.961003102500001 151.07551385599999,-33.960947417500002 151.075045856,-33.960924403500002 151.074851392,-33.960956038500001 151.07458889599999,-33.960998422 151.07400684800001,-33.961131899500003 151.073718496,-33.961147920500004 151.07270192,-33.961203457499998 151.072474336,-33.961127940499999 151.07208300799999,-33.960807187500002 151.07174390399999,-33.960529465500002 151.071343904,-33.959960479499998 151.071186912,-33.959738479500004 151.07112396799997,-33.959647977499998 151.07036294400001,-33.959054479 151.06980528,-33.958753206499999 151.06942944,-33.95845970399999 151.06917923200001,-33.958243439 151.068996352,-33.95811671399999 151.06902300799999,-33.957882633499999 151.06901398400001,-33.957789652500004 151.068815296,-33.957561603 151.06864787200001,-33.957409403500002 151.06861593599999,-33.957362506 151.0682328,-33.956923593500001 151.06761865600001,-33.956218614 151.06718496,-33.955720501500004 151.06698096,-33.955491527 151.06667193599998,-33.955142524500005 151.06818592,-33.954918508 151.069349536,-33.954746846500001 151.06935097600001,-33.954740001499999 151.069356,-33.954732176 151.06930883199999,-33.954682041 151.06896323199999,-33.954282182 151.06809888000001,-33.953301275 151.06681801600001,-33.951854334499998 151.06633289600001,-33.9519295 151.06517792,-33.952108524499998 151.064140928,-33.952268531 151.063732448,-33.951811137 151.06309091200001,-33.951091542500002 151.06239395199998,-33.950306421 151.06195990399999,-33.949818539 151.062675904,-33.949707520499999 151.063295872,-33.949610525 151.06351289599999,-33.949576522 151.06363987200001,-33.948983523 151.06366988799999,-33.948843515 151.06373785599999,-33.948526517499992 151.06383785599999,-33.948065497500004 151.06398486399999,-33.947355504500003 151.06408582399999,-33.946874504500002 151.06426582399999,-33.946008501 151.064349824,-33.945607476499994 151.06444777600001,-33.94514148 151.06451078399999,-33.944834491 151.06469276799999,-33.943921479 151.064812768,-33.943325483 151.06486576,-33.943057473499998 151.06509072,-33.941950470500004 151.06529168,-33.940956465500001 151.06549568,-33.939953451 151.065821696,-33.940007452499998 151.06976262399996,-33.940657413 151.07206659199997,-33.941048392 151.07208659200001,-33.9409613865 151.07391257599997,-33.94126236299999 151.07625792,-33.941676411499998 151.075976416,-33.940974336499998 151.07582089600001,-33.940582747 151.075482112,-33.939728916500002 151.075979456,-33.93952932 151.07624848,-33.939416322 151.076487456,-33.939319308 151.07736742399999,-33.938964274500002 151.07839241600001,-33.938550263 151.07874041599996,-33.938410255 151.07952838400001,-33.938083249 151.07972137600001,-33.938003236500002 151.08074332800001,-33.937579235 151.08154931199999,-33.9372462165 151.082762272,-33.93674518099999 151.084448256,-33.936050154500002 151.08539299199998,-33.937635993 151.08646899199999,-33.937202001500005 151.087027552,-33.936980223500001 151.087072,-33.937051004499999 151.08707222399997,-33.937051115500005 151.0871472,-33.937179117 151.08715420799999,-33.937192122500001 151.087204224,-33.937280108499998 151.08722422400001,-33.937315110500002 151.0872632,-33.937381118499999 151.087297216,-33.937439116 151.08732220799999,-33.937481111 151.08736921600001,-33.937562122499997 151.08738022399999,-33.937582121 151.08743820800001,-33.937682113500003 151.08745820799999,-33.9377171155 151.08749622400001,-33.937783123500004 151.0875312,-33.93784212 151.0875552,-33.937883116 151.08760422399996,-33.937968123499992 151.08761321599999,-33.9379841075 151.08767321600001,-33.938084118500001 151.08767622400001,-33.938089113499998 151.08773120000001,-33.93818511 151.08774822399999,-33.938215117 151.087789216,-33.938285121 151.087848224,-33.938386112499998 151.08790620799996,-33.938486105 151.08796521599999,-33.938587096500001 151.0880232,-33.938687089 151.088397216,-33.938539089 151.08842921599998,-33.9385930905 151.08893222399999,-33.939439095499999 151.08956217599999,-33.939190085500002 151.08970099199999,-33.939431991500001 151.08971100799999,-33.93944899299999 151.089776736,-33.939421687 151.08990601599999,-33.939370997 151.09011219199999,-33.939292076 151.090379168,-33.939183055500003 151.09052918399999,-33.93912306 151.090560192,-33.939177061500004 151.09062419200001,-33.939288061500001 151.090683168,-33.939391051 151.090739168,-33.939488065 151.090797184,-33.939590055499998 151.090853184,-33.939689067499998 151.090909184,-33.939787062 151.09096716799999,-33.939888053499999 151.09102617600001,-33.939991061500002 151.09108316800001,-33.940091054 151.09114019200001,-33.940191065 151.09119516800001,-33.940287061500001 151.09125116800001,-33.940385056 151.09131017600001,-33.940488064 151.09136316799999,-33.940582062499999 151.09141916799999,-33.940680057 151.091481184,-33.940789059 151.09153619200001,-33.940884056500003 151.09159116800001,-33.940979054 151.09164617600001,-33.941076068 151.091707168,-33.941183053499998 151.09173916799998,-33.94126906 151.093430144,-33.941601024 151.093719136,-33.941469026500002 151.09451900799999,-33.941105002 151.09443712000001,-33.940993003 151.09597404799999,-33.940268006499998 151.10073702400001,-33.939140635 151.10091395200001,-33.939953895 151.10098272,-33.940269357 151.10101187199999,-33.940402742 151.100766368,-33.940505602 151.09994124799999,-33.940841044 151.099118272,-33.941198612 151.098527168,-33.941464827 151.098406912,-33.941518828500001 151.09779673599999,-33.941772907500003 151.09725888,-33.942013019 151.096665952,-33.9422824715 151.09631929599999,-33.94245024799999 151.09614611200001,-33.942536902 151.09602732799999,-33.942596305500004 151.095789376,-33.942735629 151.09546931200001,-33.94292643799999 151.09515721599999,-33.943147476 151.09487353599999,-33.943323781 151.09462585599999,-33.943500622500004 151.09437312,-33.943670915 151.09427555199997,-33.943745969499993 151.09403148800001,-33.943939553500002 151.09376940799999,-33.944147105 151.09320348799997,-33.944574510500004 151.09259148800001,-33.945017585500004 151.09227936,-33.945214407 151.09200755200001,-33.945362906500002 151.09196003199997,-33.9453860315 151.09155107199999,-33.945584758500004 151.09112124800001,-33.94578528 151.09081740799999,-33.945907583499995 151.09034579199999,-33.946101001 151.0900624,-33.946193704500004</coordinates></LinearRing></outerBoundaryIs></Polygon>

	</Placemark>
</kml>