<?xml version="1.0" encoding="UTF-8"?>
<kml xmlns="http://www.opengis.net/kml/2.2">
	<Placemark>
		<Style>
			<LineStyle>
				<color>ff0000ff</color>
			</LineStyle>
			<PolyStyle>
				<fill>1</fill>
				<color>330000cc</color>
			</PolyStyle>
		</Style>
			<ExtendedData><SchemaData>
		<SimpleData name="STATE_2006">1</SimpleData>
		<SimpleData name="POA_2006">2034</SimpleData>
	</SchemaData></ExtendedData>
      <MultiGeometry><Polygon><outerBoundaryIs><LinearRing><coordinates>151.24810393599998,-33.926833621 151.248401632,-33.925397484499996 151.24788,-33.925288316 151.247036896,-33.925111104500004 151.24686371199999,-33.925075011 151.24727209599999,-33.923697334499998 151.24825609600001,-33.9240113165 151.24851072000001,-33.923665348 151.249705568,-33.923847425 151.249721088,-33.923732318 151.24900643199999,-33.923016183 151.24800025599998,-33.922001791 151.2477792,-33.921784712 151.24748579199999,-33.921495261 151.24730544,-33.92130978 151.24688064,-33.920872292 151.24673411200001,-33.920500682499998 151.24620096000001,-33.919146982 151.24668300799999,-33.919342342 151.24824684800001,-33.919578624 151.248354976,-33.919076312 151.24837497600001,-33.9189793165 151.248528,-33.918267788 151.24856393600001,-33.918103323 151.24867094399997,-33.917601325500002 151.248710176,-33.917419988500001 151.24883507199999,-33.916838663 151.248897728,-33.916547436 151.24933296,-33.914521612 151.24967353599996,-33.912916644499994 151.24958281599999,-33.912294841 151.2495792,-33.912271438499999 151.2495488,-33.912060298 151.24959577600001,-33.911896684 151.249654816,-33.911846641499999 151.24972233599999,-33.911789532 151.2502528,-33.912066292 151.25029878399999,-33.912026276500001 151.25033977599998,-33.911990275500003 151.25088976000001,-33.912199288499998 151.25090256,-33.912189095 151.250943232,-33.912167394499996 151.251002656,-33.912147599500003 151.251049792,-33.912139959 151.25123340799999,-33.912130598 151.251370912,-33.912124382 151.25142419199997,-33.912129155 151.251476032,-33.9121403105 151.25154121599999,-33.912164693500003 151.25158547199999,-33.91218972399999 151.25161248000001,-33.912209241500001 151.25163696000001,-33.912230849499998 151.25167776000001,-33.912279282500002 151.251706816,-33.912333802 151.25172012799999,-33.912377092 151.251724448,-33.912406618 151.25175475200001,-33.912909281499999 151.25186377599999,-33.913276025500004 151.251889312,-33.913328214 151.25193433599998,-33.913393112 151.25199078399999,-33.913451276 151.252023232,-33.913477712500004 151.25205779199999,-33.913501744 151.25215321600001,-33.913551324 151.25221548799999,-33.913573376 151.25228028799998,-33.913589138 151.25365331200001,-33.913789012 151.254378016,-33.9133538735 151.254436672,-33.913326863500004 151.25447737599998,-33.913300131 151.25451264,-33.913268829 151.254542176,-33.913233457 151.254565216,-33.913194921500001 151.25458140800001,-33.913154073500003 151.25459004800001,-33.913111597499999 151.25459113599999,-33.913068566500002 151.25458105599998,-33.913011771500003 151.254564832,-33.912970923499991 151.25455008,-33.912945005 151.25416345599999,-33.912382771499999 151.254144,-33.912349915500002 151.25412096,-33.912298263499999 151.25410512,-33.912244798499998 151.254098656,-33.912208538500003 151.25409539200001,-33.912171816 151.25409721599999,-33.912116723 151.25411267199999,-33.912033029 151.25422470399999,-33.911501246499995 151.25489856,-33.911602108499999 151.25540668799997,-33.911678254500004 151.25610419199998,-33.911782927499999 151.256514592,-33.911844125500004 151.25747724799999,-33.911986853 151.258568768,-33.9121488575 151.258582816,-33.912131671 151.25860188799999,-33.912119979 151.25862457599999,-33.912113948 151.25864796799999,-33.912114207 151.25866307199999,-33.912117907 151.25867712,-33.912124197 151.258688992,-33.9121328365 151.25869836800001,-33.912143455500001 151.25870483200001,-33.912155425 151.25870809599999,-33.912168393500004 151.25870771199999,-33.9121815285 151.25870521600001,-33.9121917035 151.259923456,-33.9123821425 151.259713568,-33.913339462 151.26069852800001,-33.913491569 151.26185952,-33.913670852500005 151.26263315200001,-33.913802702 151.26264144000001,-33.9138354655 151.26265657600001,-33.913867137499999 151.26266627199999,-33.913881623 151.262691136,-33.913907541499995 151.262719936,-33.913932202 151.26261337599999,-33.914008440499991 151.26250464,-33.914437196499996 151.26246144000001,-33.9145728385 151.26241001599999,-33.914807918 151.262348,-33.914796004 151.26226201599997,-33.9147889925 151.262191008,-33.914777004500003 151.26206,-33.9147810005 151.26192899200001,-33.9147740075 151.261896,-33.914757006 151.26185699199999,-33.914766996 151.261784,-33.914810008499998 151.26169900799999,-33.914808991 151.26160099200001,-33.914791009 151.261548,-33.914822995500003 151.26140201600001,-33.914886006499998 151.261302016,-33.914978007 151.261248,-33.915085991499993 151.2612,-33.915188999500003 151.26120499199999,-33.915260002499998 151.26126201599999,-33.915342993499998 151.261303008,-33.915409001500002 151.261316,-33.915463003 151.26136601600001,-33.9155510075 151.26143001599999,-33.915617996 151.26152700799997,-33.915717008 151.26159699199999,-33.915795004 151.26166099199997,-33.9158559985 151.26169900799999,-33.915915994 151.261756,-33.916009992500001 151.26184601599999,-33.916098996 151.261923008,-33.9161919955 151.261955008,-33.9162530085 151.26206300800001,-33.916386005 151.26212099200001,-33.916451994500001 151.26221100799998,-33.916535004 151.262256,-33.916568008 151.26237801600001,-33.916711993500002 151.26242099199999,-33.916794004 151.262504992,-33.916855997500001 151.26258300800001,-33.916927999500004 151.262652992,-33.9170000015 151.26273001600001,-33.917105007499998 151.26276899199999,-33.917153995500001 151.262844992,-33.9172590015 151.262888992,-33.917319996 151.262914016,-33.917402006499998 151.2629,-33.917478004499998 151.262924,-33.917555001499998 151.262884,-33.917609003 151.262856,-33.917668998499998 151.262888,-33.917735006500003 151.262800992,-33.917793004 151.26274700799996,-33.917869002 151.262719008,-33.917971991500004 151.26268499199998,-33.918058997 151.262618016,-33.918079994500005 151.26253401599999,-33.9180680065 151.26244201599997,-33.918060995 151.26235699200001,-33.918064991 151.26230099200001,-33.918048008 151.262248,-33.918085008 151.26222099200001,-33.918161006 151.26218,-33.91823200899999 151.26209299199999,-33.918307008 151.26200700800001,-33.918366004499994 151.261888,-33.918386003 151.26178899199999,-33.918423003 151.261704,-33.9184489955 151.26164598400001,-33.918388001 151.261606016,-33.918414992500004 151.26159801599999,-33.918501998 151.26149900799999,-33.918533004 151.261388,-33.918542994 151.261268992,-33.918585007499999 151.26120700800001,-33.918715007 151.261167008,-33.918779997499996 151.2611,-33.918811003500004 151.26102601599999,-33.918908998 151.26095900799999,-33.919005993499994 151.26086499199999,-33.919096995 151.26080201600001,-33.919303991500001 151.26076,-33.919411994500003 151.26075699200001,-33.919571002 151.26084601599999,-33.919691992 151.26085699199999,-33.919807006500001 151.26088099200001,-33.919922002500002 151.260872,-33.920031004500004 151.260832,-33.920101008499998 151.260616,-33.920071001499998 151.26049900800001,-33.9200419935 151.260356,-33.919996002499992 151.26021299199999,-33.919928995500001 151.26013001600001,-33.919834997 151.259968,-33.919756002 151.25984700800001,-33.919719002 151.25967699200001,-33.919701001500002 151.25928099199999,-33.919848002500004 151.25909472000001,-33.9199563385 151.258904,-33.920066006500001 151.25865500800001,-33.920259997500004 151.25849100799999,-33.920430993 151.25832201599999,-33.920668995499994 151.258128992,-33.920979999 151.25801452799999,-33.92119656 151.257924,-33.921369997500001 151.257800992,-33.9216349915 151.25768201599999,-33.922041991500002 151.257620992,-33.922460998 151.25762700799999,-33.922788004 151.25766499199997,-33.922860006 151.257755008,-33.922937003 151.2578,-33.922976001 151.25789801600001,-33.922982994 151.258006016,-33.9229930025 151.258070016,-33.923036995499999 151.25813398400001,-33.923136007499998 151.258163008,-33.923299991500002 151.258188,-33.923387996 151.258216992,-33.923563006 151.258272992,-33.923678002 151.25832300799999,-33.923759994 151.258436,-33.92385700799999 151.25849398399998,-33.923978997 151.25859401599999,-33.924074993499993 151.258567008,-33.924231004 151.25855299200001,-33.924330996500004 151.25859401599999,-33.924401999499999 151.25871900800001,-33.924470005499998 151.258724,-33.92453000099999 151.25875299200001,-33.924581005500002 151.258792992,-33.92467200699999 151.258826016,-33.924843002499998 151.258926016,-33.925006006 151.25897801599996,-33.925086999 151.25903699200001,-33.925178000500004 151.259108,-33.925215000499996 151.25916099200001,-33.925321005500003 151.25909900799999,-33.925385996 151.25910899199999,-33.925475998499998 151.259096,-33.925541007499994 151.25913401599996,-33.925737995499993 151.259216,-33.925869993 151.25929299200001,-33.9259209975 151.25938300799999,-33.925933004 151.25954,-33.925959995500001 151.259684,-33.925976997 151.25983500800001,-33.926019991 151.259872992,-33.926061005500003 151.25993801600001,-33.926147992499999 151.26004601599999,-33.926178998499999 151.26018300800001,-33.926256994500001 151.26033801599999,-33.9263699925 151.260492,-33.926492999 151.260568992,-33.926599004 151.26062201600001,-33.92664 151.260692992,-33.926712002 151.26074,-33.9267980085 151.260840992,-33.926840003500004 151.260907008,-33.9268809995 151.260930016,-33.926952002500002 151.26098899199999,-33.926992998499998 151.26108499200001,-33.927044003 151.26117900799997,-33.927131008499998 151.26122601599997,-33.927221991499991 151.261279008,-33.927287999499995 151.26134899199999,-33.927390008499998 151.26137699200001,-33.927515993500002 151.261368992,-33.927612008499999 151.261335008,-33.927680995 151.26130899199998,-33.927750999 151.26130601599999,-33.927892006 151.261256992,-33.9279110055 151.261176992,-33.928030996499999 151.261024,-33.928119001 151.260907008,-33.928217994500002 151.260772,-33.928306998 151.26060201600001,-33.92837000899999 151.26044499199998,-33.928393004500002 151.260316,-33.928496993 151.26015001600001,-33.928609991 151.26006998400001,-33.928718993 151.25994601599999,-33.928853007 151.25990099199998,-33.928973997 151.259876,-33.929048996 151.259860992,-33.929174000499998 151.25984499200001,-33.929379998 151.259828992,-33.929565997 151.25977900800001,-33.929651004500002 151.259836992,-33.9297630035 151.25983401600001,-33.929908006499993 151.25990201600001,-33.930136000499999 151.259863008,-33.930281003499999 151.259862016,-33.930336004 151.25982201599999,-33.9303580005 151.25983801599997,-33.930438993499997 151.25987801599999,-33.930584995499999 151.259952,-33.930777007 151.25998,-33.930913000499999 151.26001401600001,-33.931014991 151.259992,-33.931209999499998 151.26001401600001,-33.931301001 151.26004899200001,-33.931376999 151.26006,-33.93140800499999 151.260136,-33.931534008500002 151.260176992,-33.931710998 151.26016601599997,-33.931820999 151.260268,-33.931893001 151.26036300800001,-33.931939991 151.260452,-33.932037005 151.26056,-33.932062997500005 151.26063001599999,-33.9321799915 151.26073100799999,-33.9322869955 151.26086700799999,-33.932414997 151.26093801600001,-33.932505998499998 151.261008,-33.932578000500001 151.26108,-33.932589008 151.26119401599999,-33.932681008499998 151.261324992,-33.932767995500001 151.26143401600001,-33.932891002 151.261496,-33.933007996 151.261568,-33.933184005 151.261588,-33.933359995499998 151.261584,-33.933510992500004 151.261628992,-33.933637995 151.261668,-33.933710996 151.26171900799997,-33.933795004499999 151.261828,-33.933903007499993 151.261842016,-33.934088007500002 151.261798016,-33.934204002499996 151.26179001599999,-33.934316001500001 151.261852,-33.934413996 151.26187500799998,-33.934463002499996 151.261784992,-33.934588007 151.26170700799997,-33.934654995500004 151.26165401599999,-33.934718006499992 151.26168,-33.934799998500004 151.26173699200001,-33.934909000499999 151.261763008,-33.935044994 151.261772,-33.935190996 151.26170099199999,-33.935248993499997 151.261692,-33.935374997 151.26168,-33.935452993 151.261572992,-33.935519001 151.26149100800001,-33.935568007500002 151.26137801599998,-33.9356490005 151.26138201599997,-33.935726996500001 151.261392992,-33.935780998 151.261392,-33.935849004 151.26136099199999,-33.935907001499999 151.26137699200001,-33.935964999 151.26145699200001,-33.936049007500003 151.26138601599999,-33.936096996499998 151.26138499199999,-33.9361600075 151.26132,-33.936231991 151.26122,-33.936255005 151.26087216,-33.936230270499998 151.26059017599999,-33.936189293 151.26014627199999,-33.936124598500001 151.25782067200001,-33.935786363 151.257781792,-33.936021997499992 151.25775587199999,-33.936179303 151.257721696,-33.936571077499998 151.25761043200001,-33.937836662500004 151.25663881599999,-33.937681688 151.256408768,-33.937634790499999 151.25636953599999,-33.937624079 151.25633100799999,-33.937610759 151.25629392,-33.937595274499998 151.256259008,-33.937577829 151.25623308799999,-33.937560087500003 151.25618627200001,-33.937517611499999 151.256162176,-33.937498445500005 151.25613516799999,-33.937484496499998 151.25626009600001,-33.937693287500004 151.25623129600001,-33.937702833499998 151.25585075199999,-33.937719927499998 151.254908992,-33.937761959500001 151.25492771200001,-33.937734875499999 151.25495040000001,-33.937691752 151.25496588799999,-33.937646667500005 151.25497235200001,-33.937615717 151.25497561599997,-33.937584489 151.25497417599999,-33.937537499 151.25496444800001,-33.937483053500003 151.25495328,-33.937453527500004 151.25430060799999,-33.937468013 151.254052288,-33.937239316 151.25402195199999,-33.937232212 151.25394780799999,-33.93721548799999 151.25313529600001,-33.937254449 151.25280768,-33.937268139 151.251811936,-33.937059422 151.25119667199996,-33.936930181 151.24965084799999,-33.936996411 151.24956659200001,-33.936996244500001 151.24913244800001,-33.936935490499991 151.24898016,-33.93691416 151.248932352,-33.936906353 151.24895536,-33.936763366500003 151.24878137600001,-33.936728364499992 151.24880537600001,-33.936542365500003 151.24874736000001,-33.936535354 151.248752352,-33.936490362 151.24871536,-33.936486366 151.24859737599996,-33.936473360499996 151.24859737599996,-33.936504366500003 151.248560352,-33.936697358499998 151.24850137600001,-33.937007363 151.24818940799997,-33.936968365 151.24812048000001,-33.937303862500002 151.24798585600001,-33.9372938725 151.24788864000001,-33.937346338499999 151.24778838399999,-33.937332371 151.24771296,-33.937245624500001 151.24780835199999,-33.9367512675 151.24792752,-33.936135476499999 151.24793868799998,-33.936138362500003 151.24795417600001,-33.936138547500001 151.24796928000001,-33.936135125 151.247982592,-33.936128372500001 151.24799267200001,-33.936118734 151.24799952000001,-33.936107042 151.24800204799999,-33.936094258499999 151.24800060799998,-33.936085175 151.24873136,-33.936155364 151.248954368,-33.936171366499998 151.249323616,-33.936177601 151.24982976000001,-33.936185963 151.25095619199999,-33.936152848 151.25185513599999,-33.936113961 151.25202576000001,-33.93608832 151.25207075200001,-33.936080938499998 151.25215968000001,-33.936061495 151.25224643199999,-33.936036483 151.25229145599999,-33.936020647 151.25233609599999,-33.936002998 151.25237964799999,-33.93598383199999 151.252464608,-33.935942244 151.25255388799999,-33.935892386500001 151.25259673599999,-33.935865487499996 151.25267952,-33.935808322500002 151.25275225600001,-33.935751805 151.252787168,-33.935722112500002 151.25282028800001,-33.935691328499999 151.25285123200001,-33.935659286499998 151.25290307199998,-33.935599161500001 151.25292684799999,-33.935567767 151.25294844800001,-33.935535447500001 151.252967168,-33.93550224 151.252983008,-33.935467774499998 151.25299632,-33.935432217500001 151.25300748800001,-33.935395865 151.25301577600001,-33.935359142499998 151.25302115199997,-33.935322512500001 151.25311404799999,-33.934878808500002 151.25255315199999,-33.934797094 151.25144291199999,-33.934635441 151.25128528,-33.934663339 151.25115526399998,-33.934645338500005 151.25027430399996,-33.934524348499998 151.25024329600001,-33.934520334 151.24994099200001,-33.934478228 151.24831452800001,-33.934257985500004 151.24834115199997,-33.934192828500002 151.24853916800001,-33.933924819 151.249145408,-33.933104547500001 151.24912,-33.933002002 151.24950528,-33.932424339500002 151.250367232,-33.931721617 151.25085145599999,-33.931346048500004 151.25112201600001,-33.931122994 151.25108819199997,-33.931065329500001 151.251065216,-33.931022317 151.25089120000001,-33.930705319499999 151.250830208,-33.93057032499999 151.25061420799997,-33.930097317 151.25041417599999,-33.9296313205 151.250170016,-33.929075007 151.249934016,-33.928972998 151.24902300799999,-33.928578004500004 151.24903689600001,-33.92857177 151.24902947199999,-33.928470982 151.24843872,-33.928227725500001 151.247832128,-33.928144827 151.245996832,-33.927894004 151.24612924799999,-33.927242341499998 151.24626361599999,-33.926582243 151.2467136,-33.926643626 151.24810393599998,-33.926833621</coordinates></LinearRing></outerBoundaryIs></Polygon><Polygon><outerBoundaryIs><LinearRing><coordinates>151.26582300800001,-33.925387994 151.26589699199999,-33.925460995 151.26605001600001,-33.925426992 151.26605801599999,-33.925545003499998 151.26593699200001,-33.925623998500001 151.26590300800001,-33.925696000500004 151.265706016,-33.925810996500005 151.26559500799999,-33.925943993 151.26573299200001,-33.926046002 151.26589801599997,-33.925967007 151.266048,-33.926041007 151.26596601599999,-33.926310996 151.26583398400001,-33.926435001500003 151.26571699199999,-33.926333991500002 151.26558700800001,-33.926341003 151.265447008,-33.926311995 151.26532899200001,-33.926219994500002 151.26515900799998,-33.926091993 151.265076,-33.925882998500001 151.26513401599999,-33.925684993 151.26519100799996,-33.925550997500004 151.265344,-33.925508003499992 151.265476,-33.92537400799999 151.26562899199999,-33.925340005 151.26582300800001,-33.925387994</coordinates></LinearRing></outerBoundaryIs></Polygon></MultiGeometry>

	</Placemark>
</kml>