<?xml version="1.0" encoding="UTF-8"?>
<kml xmlns="http://www.opengis.net/kml/2.2">
	<Placemark>
		<Style>
			<LineStyle>
				<color>ff0000ff</color>
			</LineStyle>
			<PolyStyle>
				<fill>1</fill>
				<color>330000cc</color>
			</PolyStyle>
		</Style>
			<ExtendedData><SchemaData>
		<SimpleData name="STATE_2006">1</SimpleData>
		<SimpleData name="POA_2006">2061</SimpleData>
	</SchemaData></ExtendedData>
      <Polygon><outerBoundaryIs><LinearRing><coordinates>151.208888992,-33.844604007 151.20899843199999,-33.843980742 151.20907542399999,-33.843960743499999 151.20937350400001,-33.843881582 151.209315008,-33.843727791500001 151.20931142399999,-33.843687739 151.20939923200001,-33.843320828499998 151.210224,-33.843592612 151.21066339199999,-33.843705721 151.21099139200001,-33.8436797285 151.21114441599997,-33.843664336499998 151.21096524800001,-33.8431697945 151.21092025599998,-33.843046048 151.21086448,-33.8428904815 151.210634752,-33.842247662 151.21055699199999,-33.842041017 151.21061244800001,-33.841809989 151.21082556799999,-33.841837628 151.21092131200001,-33.841851114500002 151.21101276799999,-33.841859661500003 151.211061376,-33.841864268 151.21132848,-33.84188928 151.21150416,-33.841905652500003 151.21243763199999,-33.841993139 151.21263708800001,-33.842003573 151.21283113600001,-33.842036521499999 151.212881888,-33.842046863 151.21293193599996,-33.842059831500002 151.21298412799999,-33.842076759 151.21303561599998,-33.842096017499998 151.21308601600001,-33.842117422 151.21313497599999,-33.842140824499999 151.21318233599999,-33.842165707 151.21341612799998,-33.842296446500001 151.21394387199996,-33.842653922 151.214471296,-33.84303813 151.21470025599999,-33.843207775 151.21596672000001,-33.843807008500001 151.21644726400001,-33.844033689 151.21657628799997,-33.844074685 151.21661363199999,-33.844086543499991 151.21798595199999,-33.8447375955 151.21800681600001,-33.844756539500004 151.21820825599997,-33.844530673 151.21846624,-33.844451678 151.21848076800001,-33.844447645 151.218508,-33.844502997 151.21855001599999,-33.844599992500001 151.21857900800001,-33.844666000499998 151.21860700799999,-33.844732008500003 151.21863100799999,-33.844799996 151.218650016,-33.844867003 151.218660992,-33.844936008 151.218664,-33.8449649975 151.21866700800001,-33.8449960035 151.218668,-33.845025992 151.21866598400001,-33.845055 151.21865801600001,-33.845081991500003 151.21864601600001,-33.845106004500003 151.21863001599999,-33.845129 151.218612,-33.845151995499997 151.218591008,-33.845170995 151.218568,-33.845186997500001 151.218524992,-33.84519800499999 151.218472,-33.845196007 151.218412992,-33.8451859985 151.218352,-33.845173992 151.21829401599999,-33.845166 151.218222016,-33.84516000599999 151.21814998400001,-33.845153993499999 151.21807801599996,-33.845147000499999 151.218006016,-33.8451410065 151.21793299199999,-33.845136992 151.217826016,-33.845133995 151.21771900799999,-33.845134994 151.21761100800001,-33.845137991 151.217504,-33.845139008499999 151.217396,-33.845136992 151.217311008,-33.845134994 151.21722598400001,-33.845133995 151.217140992,-33.845129999 151.21705699200001,-33.845122007 151.21697699200001,-33.845107003500004 151.21693699199997,-33.845092999 151.21689801599999,-33.845075997500004 151.21686,-33.845057997 151.21682099200001,-33.845044991500004 151.216782016,-33.845038997499998 151.21675299199998,-33.845039996499999 151.21672201600001,-33.845042993500002 151.216691008,-33.845050005 151.21666201599999,-33.845057997 151.216635008,-33.845069004500004 151.216172,-33.844794002 151.216136992,-33.8446220075 151.21566201600001,-33.844419007 151.21524201599999,-33.844833 151.21524201599999,-33.844869001 151.21524499200001,-33.844906001 151.215250016,-33.844943001 151.21525699200001,-33.844979002 151.215268,-33.84501400399999 151.21527900800001,-33.845048007 151.21529401599997,-33.845079993500001 151.21531001599996,-33.845112997500003 151.215330016,-33.845144003500003 151.215351008,-33.845172993 151.215676992,-33.84554099499999 151.21570601600001,-33.84554099499999 151.21593676800001,-33.845761311499999 151.215984,-33.845805008500001 151.21661798400001,-33.84598399599999 151.216652,-33.845990008500003 151.21668499200001,-33.845998000500003 151.21671801599999,-33.846005992500004 151.216752,-33.846014003 151.216784,-33.846021995 151.216847008,-33.846038996499999 151.21690899199999,-33.846056997 151.216970016,-33.846075996499991 151.21703001599997,-33.846097993 151.21708700799999,-33.846124004 151.217139008,-33.846151994499998 151.21718899199999,-33.846183999499999 151.21723801600001,-33.846218002500002 151.21728499199997,-33.8462540035 151.21733001600001,-33.846290004499998 151.217375008,-33.8463300015 151.21741801600001,-33.846370997500003 151.21746,-33.8464139915 151.217500992,-33.846457004 151.21754300800001,-33.846498999 151.21759500799999,-33.846549004499998 151.217647008,-33.846598991500002 151.21769900800001,-33.846647998 151.217752,-33.846697004500001 151.21780700799999,-33.846744993500003 151.217850016,-33.846782992500003 151.21789401599997,-33.846820991500003 151.217939008,-33.846857991500002 151.21798499199997,-33.846891994499998 151.21803500799999,-33.846923999499992 151.218099008,-33.846954006499999 151.21816700799999,-33.846979 151.21823801599996,-33.8470009965 151.218310016,-33.847021994 151.21838099199999,-33.847042991500004 151.218444,-33.847063008500001 151.218508,-33.847081009 151.218572,-33.847098991 151.21863500800001,-33.847118009 151.21869801599999,-33.847139006500001 151.218760992,-33.847163001 151.21882300799999,-33.847188993499998 151.218884,-33.847216003499994 151.21894499199999,-33.847242995 151.21900700800001,-33.847270005 151.21904700799999,-33.847289004499999 151.21908601600001,-33.847309003 151.21912601599999,-33.847329001499993 151.219166016,-33.84734600299999 151.219208,-33.847357991 151.21924,-33.847361006500002 151.21927299199999,-33.847361006500002 151.21930499199999,-33.847360007500001 151.219336992,-33.847361006500002 151.219368,-33.847366001499999 151.219391008,-33.8473739935 151.219414016,-33.847384002 151.219436,-33.847394991 151.219456992,-33.847407996500003 151.21947500799999,-33.847422001 151.219556,-33.847399005500002 151.22025001599999,-33.847856991500002 151.22017401599999,-33.848031002499994 151.22003699199999,-33.848107000500001 151.22001299199999,-33.848107999500002 151.219990016,-33.848112994499999 151.219979008,-33.84813199399999 151.219979008,-33.848170992 151.21998099199999,-33.848219998499999 151.219979008,-33.848269005 151.219964992,-33.848306005 151.21995100800001,-33.848322007500002 151.21993500799999,-33.848336992500002 151.21991699200001,-33.848350997 151.219898016,-33.848363003499998 151.219878016,-33.848373992500001 151.21987299199998,-33.848409993499999 151.21986899199999,-33.848446993499998 151.219868,-33.848483993500004 151.21987001599999,-33.848520993500003 151.219875008,-33.848557993499995 151.21988099199999,-33.848600007 151.21989001599999,-33.848644 151.21990300799999,-33.848685995 151.219922016,-33.848725992 151.21994700799996,-33.848758996 151.219976992,-33.848780992500004 151.22001299199999,-33.848798993 151.220052,-33.8488149955 151.220092,-33.848830998 151.220128,-33.848849997500004 151.220159008,-33.848868997 151.220188992,-33.848888995499998 151.22021801599999,-33.848909993 151.220244992,-33.848932008 151.220268992,-33.848956002500003 151.22029100799998,-33.848981995 151.22031100800001,-33.849010004 151.220328,-33.849039992500003 151.22034201599999,-33.849069999500003 151.22035299199999,-33.849101005500003 151.220362016,-33.849135008499999 151.22036700800001,-33.849170991 151.220368,-33.849206992 151.22036601600001,-33.849242993 151.220359008,-33.84927699599999 151.22034099199999,-33.849316993 151.220315008,-33.849354992 151.22028300799997,-33.849391992 151.22022,-33.849466991 151.22019900800001,-33.849500994 151.22017699200001,-33.849533998 151.22015500800001,-33.849568001 151.22013401599997,-33.849601005 151.22011100799998,-33.849634009 151.220076992,-33.84968199799999 151.22004201600001,-33.8497300055 151.22000601600001,-33.849776995500001 151.21997001599996,-33.84982400399999 151.219934016,-33.849871993 151.219898016,-33.849919001499998 151.21986099200001,-33.8499659915 151.21982499200001,-33.850013 151.21979001599999,-33.850061007500003 151.219756,-33.850108996499998 151.21973299199999,-33.850140002499998 151.219708,-33.850172007499999 151.219684992,-33.850202995 151.21966700799999,-33.850235 151.21965699200001,-33.850268004 151.219656,-33.850294995500001 151.21965900800001,-33.850322005500004 151.21966601599999,-33.850349996 151.219674016,-33.850377006 151.219683008,-33.850403997500003 151.21969001599999,-33.850426993 151.21969900799999,-33.850450007 151.21970899199997,-33.850472003500002 151.219719008,-33.850494999 151.219728,-33.850516995500001 151.21973801600001,-33.850537993 151.21974899200001,-33.85055900899999 151.21975900799998,-33.850580006499996 151.219768,-33.850601004 151.219774016,-33.850622001499993 151.219776,-33.850642 151.219776,-33.850662997500002 151.219774016,-33.850683995 151.219772,-33.850704992499999 151.219772,-33.850726008499997 151.21977699199999,-33.850763008500003 151.219784992,-33.850800008500002 151.21979500800001,-33.850837008500001 151.21980499200001,-33.8508740085 151.219816,-33.850911008499999 151.21982499200001,-33.85093999799999 151.21983500799999,-33.85096900599999 151.21984499199999,-33.850996996500001 151.219854016,-33.8510260045 151.21986099200001,-33.851055993 151.21986899199999,-33.851098006499996 151.21987401600001,-33.851141999500001 151.219876992,-33.851184993499999 151.219876992,-33.851229005 151.219876,-33.851271999 151.21987299199998,-33.851325001500001 151.219868,-33.851378004 151.21986,-33.8514310065 151.21984499199999,-33.851480993500005 151.21982300799999,-33.851527003 151.21979401599998,-33.851566001 151.21975801599999,-33.851604 151.21971699199997,-33.851638003 151.219672992,-33.851667991500001 151.219627008,-33.851693003500003 151.21918899199997,-33.851998993500004 151.21915900799999,-33.85201399699999 151.21913100800001,-33.852031997499999 151.219104,-33.852053994 151.21908099199999,-33.852077008 151.21906201600001,-33.8521010025 151.21904998400001,-33.852128993 151.219044,-33.852162996 151.21904,-33.852196 151.21903401599999,-33.852222991499993 151.21902099199997,-33.852235997 151.21893401599996,-33.852699995500004 151.21893001599997,-33.852722991 151.21892,-33.85274500599999 151.21890601600001,-33.852766003499994 151.218888,-33.852788 151.21886499199999,-33.8528030035 151.21833900799999,-33.852666991500001 151.21832,-33.852655003500004 151.2183,-33.852641998 151.21828099199999,-33.852628992500001 151.21826300800001,-33.852616005500003 151.218244992,-33.852602001 151.218204,-33.852559007 151.218172,-33.852509001500003 151.218140992,-33.852457997 151.218108,-33.852409009 151.21806700799999,-33.852366995499999 151.21804300799997,-33.852348995 151.218016992,-33.852331993500002 151.21799001599999,-33.852315991 151.217962016,-33.852300007 151.21793500800001,-33.8522850035 151.217906016,-33.85227 151.217876,-33.852255995500002 151.21784700800001,-33.852243008499997 151.217818016,-33.852228005 151.217792,-33.852211003500003 151.217771008,-33.852193003 151.21775100799999,-33.852174003500004 151.217732,-33.852155004 151.217715008,-33.852134006500002 151.21769798400001,-33.852113009 151.217680992,-33.852088996 151.21766601600001,-33.8520630035 151.217652,-33.852036992500004 151.217646624,-33.852026780500005 151.217624,-33.851984008499997 151.21760499199999,-33.851943993 151.217588,-33.851902997 151.217570016,-33.851863 151.21754899199999,-33.851825001 151.217522016,-33.851789999 151.21747100799999,-33.851749003 151.217408,-33.851715 151.21733699200001,-33.851685992 151.21726201600001,-33.851661997500003 151.21719001599999,-33.851641999 151.21714300799999,-33.8516289935 151.217095008,-33.851619003499998 151.21704700800001,-33.851609994 151.21699900799996,-33.851603001 151.216950016,-33.851598006 151.216903008,-33.851596008 151.21685401600001,-33.851598006 151.21680601599999,-33.851601003 151.216758016,-33.851603001 151.21671001600001,-33.851603001 151.216658016,-33.851601003 151.216604,-33.851599005 151.21655100800001,-33.851595009 151.2165,-33.851587997500005 151.216452,-33.851574992 151.216398016,-33.851550997499999 151.216348,-33.851519991499998 151.21630099199999,-33.851482991499999 151.21625699200001,-33.851442994500005 151.21621500800001,-33.851402997500003 151.216192,-33.851380002 151.216171008,-33.851356007500002 151.21615001599997,-33.851331994500001 151.21613100799996,-33.851307001 151.216112,-33.851282007499996 151.21575001599999,-33.850699997500001 151.21574099200001,-33.850683995 151.21573100800001,-33.850666993499999 151.215722016,-33.850650991 151.21571299199999,-33.850635007 151.21570300799999,-33.850619004500004 151.21567100799999,-33.850563005 151.21563801599999,-33.850505007500004 151.21560300799999,-33.850450007 151.215564,-33.850398003500004 151.215516992,-33.850351994 151.215472,-33.850319008500001 151.21542300799999,-33.850289001500002 151.21537001600001,-33.850261991499998 151.215316,-33.850238996 151.21526,-33.850219996500002 151.21388300800001,-33.849713004 151.21382899199997,-33.849684995 151.21376899200001,-33.849661000499992 151.213704992,-33.849642001 151.21364,-33.849627996500004 151.213576,-33.849620004500004 151.213516992,-33.849620004500004 151.213456,-33.849625998500002 151.21339500799999,-33.849636007 151.213335008,-33.849649993 151.213276,-33.849663997500002 151.213212,-33.849680999 151.213148,-33.8496999985 151.21308499200001,-33.849721995 151.21302601599999,-33.849749005 151.212975008,-33.849785006 151.21292300799999,-33.849827001 151.21287699199999,-33.849882001499999 151.21283900799997,-33.849942996 151.21281100799999,-33.850006007 151.212795008,-33.850068000500002 151.21280099200001,-33.850838007500002 151.21279900799999,-33.850867996 151.212788,-33.850896005 151.21276601599999,-33.850908992 151.212726016,-33.850914005500002 151.21267500799996,-33.850915004500003 151.21262201600001,-33.8509120075 151.21257500799999,-33.850908992 151.212528,-33.850903997 151.212480992,-33.850896005 151.212434016,-33.850885996500004 151.212388992,-33.850872991 151.212344992,-33.850858006 151.21227001599999,-33.850824003 151.212198016,-33.850782008 151.212130016,-33.850732002500003 151.21207100800001,-33.850677002 151.21202201599999,-33.850620003499998 151.211760768,-33.850384961 151.21158601600001,-33.850227008 151.21070601599999,-33.849425995 151.210608,-33.849489006 151.210504,-33.849375009 151.21058300799999,-33.849304006 151.20991900800001,-33.848722995 151.209812992,-33.848753002 151.20974700799999,-33.848680001 151.20966,-33.848679002 151.209339008,-33.847869997 151.20939699199999,-33.847853994499999 151.20938899199999,-33.847806005500004 151.20944700800001,-33.847798994 151.20939100800001,-33.847725993 151.20934201599999,-33.8477330045 151.20929699199999,-33.8475880015 151.20934598400001,-33.847564007 151.20926700800001,-33.8471529925 151.20940300800001,-33.8471149935 151.20940099200001,-33.847059993 151.20940201599998,-33.846942999 151.20940547199999,-33.846852737500001 151.20939900799999,-33.846826005 151.20939299200001,-33.846708992499998 151.209384,-33.846591998500003 151.20937100799998,-33.846476003500001 151.209360992,-33.846411993499999 151.209350016,-33.846349001 151.209338016,-33.846284991 151.209327008,-33.846221998499992 151.20931900799999,-33.846158007 151.209315008,-33.846092998 151.20931299199998,-33.846027008500002 151.20931299199998,-33.845961000500004 151.20931299199998,-33.8458949925 151.20931100799999,-33.845830002 151.20931001599999,-33.845717004 151.20931100799999,-33.84560300699999 151.20930899199999,-33.845490009 151.2093,-33.845379009 151.20927900800001,-33.845269008 151.20924700800001,-33.845162004 151.209204992,-33.845054001 151.20915401600001,-33.844949994 151.20909500799999,-33.844849002499998 151.20902700799996,-33.844754005 151.20896201599999,-33.844678007 151.208888992,-33.844604007</coordinates></LinearRing></outerBoundaryIs></Polygon>

	</Placemark>
</kml>