<?xml version="1.0" encoding="UTF-8"?>
<kml xmlns="http://www.opengis.net/kml/2.2">
	<Placemark>
		<Style>
			<LineStyle>
				<color>ff0000ff</color>
			</LineStyle>
			<PolyStyle>
				<fill>1</fill>
				<color>330000cc</color>
			</PolyStyle>
		</Style>
			<ExtendedData><SchemaData>
		<SimpleData name="STATE_2006">1</SimpleData>
		<SimpleData name="POA_2006">2261</SimpleData>
	</SchemaData></ExtendedData>
      <MultiGeometry><Polygon><outerBoundaryIs><LinearRing><coordinates>151.446784576,-33.316104128500001 151.446804128,-33.316192984 151.44680361599998,-33.316250130500002 151.44683507199997,-33.316364978500005 151.446917888,-33.316508964 151.44708384,-33.316768981500005 151.44716700800001,-33.316913966 151.44748256,-33.317376133 151.44769756799997,-33.317751128 151.44792956800001,-33.318112137 151.44822956799996,-33.31850211699999 151.44855756799998,-33.319280116 151.44860700800001,-33.31935296899999 151.44862608,-33.319413982 151.44869542399999,-33.319515621 151.44874198400001,-33.319583997 151.44890688000001,-33.319734032 151.44900192,-33.319883974500002 151.44917689600001,-33.320009978 151.449372,-33.3201189615 151.44951708799999,-33.320261966499999 151.44965209599999,-33.320378979 151.44983603200001,-33.320529994499999 151.450052032,-33.320582016499998 151.45013017599999,-33.320616038 151.450119008,-33.320682009 151.45023491200001,-33.320799003 151.45040089599996,-33.320890985 151.45053696,-33.32098404 151.45070112,-33.321117961500001 151.450846912,-33.321210036 151.45101216,-33.321345030499998 151.451168032,-33.321412981 151.451316,-33.321390022500005 151.45151113599999,-33.321491014 151.45159788800001,-33.321557965499998 151.45163497600001,-33.321690999 151.45170192,-33.321798983500003 151.45183801599998,-33.321924006499998 151.45201296,-33.3220249795 151.452158048,-33.322150983 151.45236288000001,-33.322268976 151.45252704000001,-33.322377959500002 151.45285897599999,-33.322530954500003 151.453191968,-33.322642028499999 151.45341408,-33.322834983500002 151.45354188799999,-33.322869005 151.45365996800001,-33.322845954 151.45363187199999,-33.322770992 151.45362396799999,-33.322638957500004 151.45363513599997,-33.322564976 151.45369596800001,-33.322487035500004 151.45382412800001,-33.322455992500004 151.453883168,-33.322464983499998 151.45393104,-33.322506035 151.453958048,-33.322646968 151.45397603199999,-33.322754971 151.454032928,-33.322895016 151.45409017599999,-33.322995008499994 151.45426512,-33.323104972499998 151.45434217600001,-33.323195974 151.45451712,-33.323281018499998 151.45467408,-33.323316039 151.45483104,-33.323326029 151.45501897599999,-33.323286957 151.45521696,-33.323231975 151.455425056,-33.323119014 151.45559388800001,-33.3230390015 151.455800896,-33.32299203 151.45602697599998,-33.323003019 151.45619292800001,-33.323046031499999 151.45635888000001,-33.323121992499999 151.45655398400001,-33.323239985500003 151.456827968,-33.323300998500002 151.45700508799999,-33.323303977 151.45719193599999,-33.323330968500002 151.457367968,-33.323373981 151.45759296,-33.323393961 151.45776108800001,-33.323396033 151.45795584000001,-33.323480004499999 151.45810092799999,-33.32358998699999 151.458266176,-33.323714991500005 151.45842096000001,-33.323882046500003 151.45854697600001,-33.323941986500003 151.45893683200001,-33.324144025 151.45914204799999,-33.324254007500002 151.45940592,-33.324347969 151.45955209600001,-33.32439999099999 151.45973891200001,-33.324434993 151.45998300799999,-33.324487015 151.46019107199996,-33.324535984500002 151.46039484799999,-33.324567027500002 151.46044595199999,-33.324581975500003 151.46063209600001,-33.32464200799999 151.46115913599999,-33.324748013 151.46158284800001,-33.324867985499999 151.46166707200001,-33.324911997 151.46181792,-33.325071023 151.462008,-33.325120973 151.462144096,-33.325155993499997 151.462398976,-33.325257965499993 151.462554848,-33.325317998 151.46273987199999,-33.325386022499998 151.463081888,-33.325530026500005 151.46330617599997,-33.325649018500002 151.46364707199996,-33.325801014500001 151.46390089599998,-33.325936027499999 151.46408592,-33.3260049585 151.46428211200001,-33.326031968500004 151.46440992000001,-33.326033041500004 151.46461513599999,-33.326101972499991 151.46480016000001,-33.326227976 151.46503488,-33.3262719875 151.46523107199999,-33.326307988499998 151.46541683199996,-33.326376031500004 151.46564003200001,-33.326526954500004 151.46588304,-33.32669499 151.466123872,-33.326856994499998 151.466184,-33.326871036 151.46638704,-33.326960039500001 151.466454016,-33.327018 151.46657209599999,-33.327077033500004 151.466671072,-33.3271479625 151.46685289599998,-33.327221037500003 151.46700912,-33.327306008 151.46719417599999,-33.32739096 151.46744796799996,-33.327484015 151.46764416,-33.327536037 151.46786988799997,-33.327556017 151.46802611199999,-33.327631978 151.46813196799997,-33.32772396 151.46823888,-33.327782993500001 151.46829683199999,-33.327865984500001 151.46828604800001,-33.327948957 151.468185952,-33.328005030500002 151.468155008,-33.328112034500002 151.46821187200001,-33.328227955500004 151.46834796799999,-33.328329021 151.46848403199999,-33.328412992499999 151.46858089599996,-33.328496964 151.46857801600001,-33.328645019500001 151.46853587199999,-33.328809984 151.46842608,-33.328881986 151.46821907200001,-33.328920965500004 151.46800201600001,-33.328983958 151.467735968,-33.329031022 151.46751708799997,-33.329134973500004 151.467338176,-33.329289966499999 151.467099136,-33.329451952500001 151.46690003200001,-33.329581027 151.46670096,-33.329685959 151.46653392,-33.329683979500004 151.46642809599999,-33.329575976500003 151.46634204799997,-33.329418023500004 151.46618796800001,-33.329225975 151.465965856,-33.329000978 151.46584092800001,-33.328859046 151.465763872,-33.328774982 151.46574697599996,-33.328618028 151.465779008,-33.328461962 151.46584201600001,-33.328248028 151.46579593600001,-33.328073961500003 151.46573904,-33.327942038 151.46564185599999,-33.327842045499999 151.465575968,-33.327684 151.465420096,-33.327608039 151.46518499199999,-33.327564027500003 151.46494992000001,-33.327495004 151.464655072,-33.327483034499998 151.46434188800001,-33.327429033 151.46402796800001,-33.327384022499999 151.46377308800001,-33.327344969 151.463747872,-33.327383042 151.46358985599997,-33.327683001 151.46338633600001,-33.3280710015 151.46331833599999,-33.328070002499999 151.463266336,-33.328098011500003 151.463112352,-33.328125003 151.462874336,-33.328093016499999 151.46222838400001,-33.327998999500004 151.46205913599999,-33.327969029500004 151.46201916800001,-33.327953008500003 151.46178803199996,-33.327810003499998 151.46130204799999,-33.327523975 151.46103888,-33.327339030499999 151.46077500800001,-33.327261996499999 151.460344096,-33.327141025 151.459903072,-33.327086043 151.459638848,-33.32700801 151.45926803200001,-33.326872016499998 151.45897392000001,-33.326776982 151.45875001600001,-33.326650978499998 151.45845804800001,-33.326514985 151.45818409599997,-33.326396011500002 151.45795801599999,-33.326189995500002 151.45777801599999,-33.326141044499998 151.457202432,-33.325919044500004 151.457000032,-33.325845026 151.456812832,-33.325784993500001 151.45613497599999,-33.325577016499999 151.45596505599997,-33.325532006 151.45567488,-33.325491953499998 151.45535593599999,-33.325407001500004 151.45491100800001,-33.325286992 151.45465897599996,-33.32528199699999 151.45440409599999,-33.325279018499998 151.45409916799997,-33.325275966 151.453814048,-33.325272007 151.45354908799999,-33.325260037500001 151.45326396799999,-33.325264977 151.45291907199996,-33.325286048500004 151.45257385599999,-33.325314039 151.452181088,-33.325326008499999 151.451805952,-33.325395032 151.45147008000001,-33.325457044 151.45109497600001,-33.325542995 151.45074,-33.325587987 151.45041491200001,-33.32564604 151.45019712000001,-33.325709032500001 151.44996096,-33.325748012 151.44969385600001,-33.325802013500002 151.44950700800001,-33.325823973 151.44933888,-33.325904966 151.44914988799997,-33.325984978500003 151.44896304,-33.325982999 151.448658112,-33.326027991 151.44846012799999,-33.326083972 151.44825312,-33.326130962 151.44794604800001,-33.326225996499993 151.44777792,-33.326289988 151.447600096,-33.326328967500004 151.44740208,-33.32639196 151.447284,-33.326390961 151.44714611199998,-33.326405002500003 151.44696793599999,-33.326468994 151.44678,-33.326566026500004 151.44653196799999,-33.326677988500002 151.44625513599999,-33.326782014 151.445996992,-33.326910996 151.44574896,-33.327072982 151.44538771200001,-33.327282161500001 151.44493974400001,-33.327577162499999 151.444167744,-33.327869148 151.443807744,-33.327994152500004 151.44353388799999,-33.328105023 151.44325308799998,-33.328278997 151.44300611200001,-33.328504974499999 151.44272784,-33.3287569815 151.442510048,-33.329034000499995 151.44234697599998,-33.329271966 151.442276032,-33.329375991500001 151.44198192,-33.329678041 151.44179507199999,-33.329917986 151.44156108799999,-33.330247027 151.441481888,-33.330474003500001 151.44144224,-33.330561046 151.441408096,-33.330614048500003 151.44133788799999,-33.3307700035 151.441242112,-33.330903037 151.441225344,-33.330937521 151.44114492799997,-33.331103003500004 151.44098185600001,-33.331268967 151.44087203199999,-33.331446992499998 151.44072083200001,-33.331703032499995 151.44048793600001,-33.332013 151.44031008,-33.332280029 151.44028092799996,-33.332361022 151.44022585600001,-33.332514035500004 151.44018192,-33.332717961 151.44012396799999,-33.332993999500005 151.44012108799998,-33.333136024 151.44012108799998,-33.333173005500001 151.44011603199996,-33.333429952 151.44012217599999,-33.333586018 151.440125056,-33.33367700099999 151.440134048,-33.333901017500004 151.44014483199999,-33.334035031500001 151.44019596800001,-33.334181995500003 151.440192,-33.334405013 151.440148096,-33.334650989 151.44011603199996,-33.334909027 151.44009696000001,-33.335233017500002 151.44005196799998,-33.335546037500002 151.43997996799999,-33.335825036 151.43989609600001,-33.336014032 151.43985504,-33.336114024499999 151.43987987200001,-33.336181975 151.439810048,-33.336393023 151.43972508799999,-33.336660958499998 151.43963904,-33.337007001 151.43958,-33.337307977500004 151.43949395199996,-33.337620997500004 151.43940899200001,-33.337898997 151.43932512000001,-33.338111044 151.43925385599999,-33.338356021 151.43918291199998,-33.338601997 151.439113088,-33.338801963500003 151.439082848,-33.339003021499998 151.439037856,-33.339270957 151.43901193600001,-33.339403972 151.43899788799999,-33.339501985 151.43898384,-33.339609007500002 151.43897411200001,-33.339788994 151.43897808,-33.339923008 151.43897484799996,-33.340107952499999 151.43894784,-33.3402710485 151.43893884799999,-33.340430962500001 151.43891184,-33.340537985 151.43888988800001,-33.340763962499999 151.43892409599999,-33.340913017 151.438947136,-33.341011011500001 151.43895001600001,-33.341149983500003 151.43894784,-33.341267976499999 151.43897699199999,-33.341391982 151.43902992,-33.341520964 151.43905187199996,-33.34166001 151.43910409599999,-33.341798963500004 151.43915088,-33.341928038 151.43917897599999,-33.342066991499998 151.43921388800001,-33.342174994499999 151.43925312,-33.342335001 151.43933699199999,-33.342495026 151.439364,-33.342643988 151.43942304000001,-33.342809045 151.43946912000001,-33.342964019500002 151.439502976,-33.343134034500004 151.43952204799999,-33.343264977499999 151.43956416,-33.343332021500004 151.43961097600001,-33.343440024499998 151.43966387200001,-33.343575037500003 151.43971609600001,-33.343693012 151.439751008,-33.34380201399999 151.43979203200001,-33.343900027 151.43980896,-33.344002979500004 151.43987305600001,-33.344156973499999 151.43995116799999,-33.344281978 151.44004691200001,-33.344406002 151.44009299199999,-33.344534965499996 151.44018300799999,-33.344669978500001 151.44026617599997,-33.344799034499999 151.44034896,-33.344964998 151.44045011200001,-33.345115014500003 151.440545152,-33.345296018500001 151.44067584000001,-33.345477004 151.44073596800001,-33.345585007 151.44080112,-33.345674010499991 151.440927136,-33.345809005 151.44103513600001,-33.34595400799999 151.44108300799996,-33.346036980500003 151.44119209599998,-33.346069022500004 151.44127091199996,-33.346100972 151.44126912,-33.34624397699999 151.44133392000001,-33.346368001 151.44138108800001,-33.346456024 151.44146387199999,-33.346595976499998 151.44155388799999,-33.346740961 151.441625888,-33.346828984 151.44170905600001,-33.346937967500004 151.44181091199999,-33.347057033500001 151.44191891200001,-33.347181964 151.441984096,-33.347347021 151.442067968,-33.347420003499998 151.44217596799999,-33.347555016500003 151.44226595200001,-33.347658968 151.44235596799999,-33.3477269925 151.44240384,-33.347814035 151.44244595200001,-33.3478870175 151.44252912,-33.347989988499997 151.44260112000001,-33.348114993 151.442696896,-33.348207955500001 151.44281100800001,-33.3483530325 151.442913952,-33.348395971 151.443034912,-33.348500015 151.44312384,-33.348629977499996 151.44317510400001,-33.34870962 151.44320195200001,-33.3487490435 151.44329196800001,-33.348858027 151.44334595199999,-33.34890401799999 151.44342912,-33.349007969500001 151.44353712,-33.349128034499998 151.443633952,-33.34924700799999 151.44376608,-33.349382002500001 151.443784096,-33.349398023500001 151.44389209600001,-33.349517015499998 151.44400512000001,-33.349662 151.444119968,-33.349771982500002 151.44425315199999,-33.349880966 151.44435001599999,-33.34994900899999 151.44444,-33.350012001499998 151.44450588800001,-33.350104982499992 151.444541152,-33.350171046 151.44463692799999,-33.350284987500004 151.44478812799997,-33.350400002 151.44488496,-33.350457962500002 151.44495084799999,-33.3505410275 151.44504697599999,-33.350634989 151.44521004800001,-33.350765044 151.44534288,-33.350900038500001 151.44544512,-33.350967989 151.44556499199999,-33.351108034 151.44567913599997,-33.351243028500001 151.44584796800001,-33.3513939515 151.446017152,-33.351525005500001 151.446132,-33.351629031 151.446264128,-33.351738033 151.44635411199999,-33.351847016500002 151.446444832,-33.3518900475 151.446542048,-33.351951967 151.44662592,-33.352046002500003 151.44681996799997,-33.352187046499999 151.44699491200001,-33.352320968 151.44707305599999,-33.35241402299999 151.44716915199999,-33.352527964499998 151.44733801599997,-33.352653968 151.447494976,-33.352784004500002 151.44760908800001,-33.352909027500004 151.44769404799999,-33.352955999 151.44780816,-33.353081003500002 151.44792803199999,-33.353210966 151.448036032,-33.35334498 151.44814908800001,-33.353495995499998 151.44820992,-33.353552975500001 151.448275072,-33.353672041499998 151.448370848,-33.353795973 151.448436,-33.353936018 151.44845904,-33.353987041 151.44852492800001,-33.354106014500005 151.44857100799999,-33.354240028499994 151.44865993600001,-33.354421014 151.44873696,-33.354545038 151.448790976,-33.354628029 151.44885612799999,-33.354682012 151.44895708799999,-33.3546829 151.44909484799999,-33.354684158 151.44911785599999,-33.3546200185 151.44913187200001,-33.354516955 151.44924313600001,-33.354476995 151.449383872,-33.354478974500005 151.449512032,-33.354506965 151.44967584,-33.354585997 151.44982704,-33.354705951 151.44997212799998,-33.354830974 151.45009811199998,-33.35495004 151.450260832,-33.355096023500003 151.450412032,-33.355221028 151.45064099199999,-33.355413983 151.45085196799999,-33.355591028 151.451026912,-33.355742043500001 151.451219872,-33.355898997499999 151.45140096,-33.356076024 151.45154201599999,-33.356211 151.45157484800001,-33.356247038 151.45170697599997,-33.356387971 151.451864992,-33.356486964499993 151.45203996800001,-33.356612968 151.452268928,-33.356805035 151.45242912000001,-33.356943988499999 151.45254396799996,-33.35703299199999 151.45265808,-33.357152964500003 151.45275491199999,-33.357221007500002 151.45288812800001,-33.357299040500003 151.45301411200001,-33.3574239525 151.45312393599997,-33.357476973499992 151.453244896,-33.357565977 151.45338995200001,-33.357664989 151.453528928,-33.357753992500001 151.45366787200001,-33.357869007 151.45384896,-33.357994011500004 151.45408512,-33.358146026 151.45427305600001,-33.358266997500003 151.454442976,-33.35838201199999 151.45463017599999,-33.3584919945 151.454715136,-33.358570027500001 151.45478713599999,-33.358626989 151.45485408,-33.358659031 151.45499305600001,-33.358748034500003 151.455132,-33.358851986 151.45524,-33.35895603 151.45543513600001,-33.359056022499999 151.45565904,-33.359187964500002 151.455846976,-33.359277967 151.45586899200001,-33.359300000499999 151.45610112,-33.359425023500002 151.45625305600001,-33.359519965499999 151.45645897599999,-33.359640030500003 151.45667712,-33.359745961500003 151.45690787199996,-33.359882047500001 151.45709616,-33.3599869795 151.45728985599999,-33.360082014 151.45751484799996,-33.360182006500004 151.45771500800001,-33.360287031 151.45788995199999,-33.360413034499999 151.457919008,-33.360427002 151.45813296,-33.360549028 151.458351136,-33.360659991 151.45860601599998,-33.360802015499999 151.45883603199997,-33.360932977 151.45903692799999,-33.361002000500001 151.45921296,-33.361086952500003 151.45942608,-33.3611460045 151.45959097599999,-33.361203965 151.45967017599997,-33.361220966499999 151.45979113600001,-33.361275967 151.45996105599997,-33.361376033500001 151.459992704,-33.361397512 151.460075872,-33.361453974 151.46022816000001,-33.361533006 151.46040313599997,-33.361642988500002 151.460568,-33.361691033 151.46073216,-33.361769972499999 151.46084089600001,-33.361848986 151.46099785599998,-33.361938008 151.461144,-33.362027011500004 151.46129484799999,-33.362106025 151.46145900799999,-33.362195047 151.46163504,-33.362273968 151.46184707200001,-33.362395013499999 151.46199900799999,-33.362478985 151.46212716799999,-33.362532006 151.46228483199999,-33.362601029499999 151.46248499199999,-33.362695971500003 151.462556992,-33.362783994499999 151.462586176,-33.362861047 151.46264195200001,-33.362856995500003 151.46268409599998,-33.362856995500003 151.46279388799999,-33.362900008 151.46296992000001,-33.362979021500003 151.463193856,-33.363099993 151.463462048,-33.363212047499999 151.46369891200001,-33.3633179785 151.46386307200001,-33.363381951500003 151.46408195199999,-33.363460983499991 151.46432496,-33.363587967500003 151.46453808,-33.363647001 151.46475084799999,-33.363741961500004 151.46497008,-33.363800995 151.46510291199999,-33.363890017 151.46523107199999,-33.363911976499999 151.46535996799997,-33.363924038500002 151.46556697599996,-33.363978021500003 151.46581104000001,-33.364036981 151.46599392,-33.3640809925 151.46620704,-33.364170995 151.46638883200001,-33.364250008500001 151.46663184,-33.364344969 151.46687017599999,-33.36440498299999 151.467076096,-33.364500036 151.46725788800001,-33.364625040500002 151.46734896000001,-33.364688033 151.467459136,-33.364700002500001 151.467696,-33.364773984 151.46790912,-33.3648739765 151.468110016,-33.364949031 151.46840700800001,-33.365070002499998 151.46851251199999,-33.365110499 151.46860211200001,-33.365144964500004 151.46885088,-33.365270968 151.46915616000001,-33.365336032500004 151.46934515199999,-33.365379951499996 151.46958995200001,-33.365403002500003 151.469730016,-33.36539499199999 151.469834048,-33.365421983499999 151.470029888,-33.365459964 151.47013283199999,-33.365482016 151.47030995200001,-33.365504974499999 151.47071388800001,-33.365519996499998 151.47097091200001,-33.365522975 151.471253152,-33.365511005499997 151.47147996800001,-33.365487954500004 151.47167689599999,-33.365465014499996 151.471860832,-33.36541101299999 151.472009152,-33.365361951 151.47210204800001,-33.365316959 151.47223091199999,-33.3652560385 151.47236700799999,-33.365186016 151.47252217600001,-33.365106003499996 151.472670112,-33.365045971 151.472780992,-33.36496002 151.472849056,-33.364929957500003 151.473164032,-33.364774983 151.47332496000001,-33.364679042 151.47347292800001,-33.364614958 151.47361513600001,-33.364569966 151.473719168,-33.364582028 151.473816,-33.364634031500003 151.473868928,-33.364731952 151.47384912,-33.364825025499997 151.47389699199999,-33.364907017500002 151.47399888000001,-33.365016001 151.47408313599999,-33.3651249845 151.47407808,-33.365214987 151.47407628799999,-33.365271967 151.47412540799999,-33.365372977 151.474104,-33.3654540255 151.474100032,-33.365540975500004 151.474087072,-33.365652031 151.47408204800001,-33.365708012 151.47408204800001,-33.365753004 151.47408096000001,-33.365788024499999 151.47408313599999,-33.365813036500001 151.47409104,-33.3658569555 151.47410688,-33.365844986 151.474115168,-33.3658269855 151.47413388800001,-33.365786045 151.47415907199999,-33.365726993 151.474197952,-33.36561603 151.47427392,-33.365447014 151.47431497599999,-33.365318032 151.47436896,-33.365132014499999 151.474371488,-33.3650029585 151.474407136,-33.364860027500001 151.47439737599998,-33.364771949 151.47454499200001,-33.364622968499994 151.47457091199999,-33.364546027 151.47462096000001,-33.364464035 151.47468288,-33.364433972500002 151.47476784,-33.364450974 151.474829056,-33.364486975 151.47490105599999,-33.364581029 151.47496691200001,-33.364632958500003 151.47502092799999,-33.364684980499995 151.47516096000001,-33.364722961 151.47516816000001,-33.36470198199999 151.47523584000001,-33.364672012 151.475292,-33.36463701 151.475316,-33.364588003500003 151.47532512000001,-33.364562048 151.47531216,-33.364508046499999 151.475276896,-33.364430013499998 151.47520595200001,-33.364295999500001 151.47518291200001,-33.364172974500001 151.47519696000001,-33.364074961500002 151.475241952,-33.363988011499998 151.47537804800001,-33.363887038500003 151.47551987200001,-33.363807026 151.47567504,-33.363695970500004 151.47583705599999,-33.363568986499999 151.476072128,-33.363433973500001 151.47622115199999,-33.363316979499999 151.47633203199996,-33.363225996499992 151.47646416000001,-33.363073982 151.47659411199999,-33.362963019 151.47671184,-33.362861047 151.47681804800001,-33.362759963 151.476986176,-33.362611019500001 151.47710387199999,-33.362504996 151.477203968,-33.362403024 151.477302976,-33.362291968500003 151.47736595200001,-33.3621899965 151.477459936,-33.362098014499999 151.47751104,-33.361985978500002 151.47759888,-33.361838015499991 151.47768096,-33.361741982 151.47779292800001,-33.361624988 151.47788003199997,-33.361517965499999 151.47791100800001,-33.361493046 151.47828,-33.361075982 151.47837900799999,-33.360984999 151.47847296,-33.360883027 151.47859104,-33.360775024 151.47875196800001,-33.3606740325 151.47891900799999,-33.360573966 151.47906803199999,-33.360472974499999 151.47925417599998,-33.360330968500001 151.47945792,-33.360215047499992 151.47959507199997,-33.360099034 151.47977507199997,-33.3599570095 151.479911872,-33.359810045499998 151.48007388799999,-33.359658031 151.48029203199999,-33.359450035500004 151.48044899199999,-33.359256988 151.48062899199999,-33.359090044 151.48079712,-33.358922008500002 151.48098288,-33.358796005 151.48111283200001,-33.358709961499997 151.48124892800001,-33.358629967500001 151.48126700799997,-33.358594003500002 151.48130003200001,-33.358543017500004 151.48139904000001,-33.358472014500002 151.481559968,-33.358386951500002 151.48167084799999,-33.358295968499995 151.48182601600001,-33.3581949955 151.48195596799999,-33.358130005 151.48206108799999,-33.358049012 151.48217916799996,-33.35796801899999 151.48225404799999,-33.357887007500004 151.482377888,-33.357810954 151.482459968,-33.35768397 151.482571936,-33.357562018 151.48262809600001,-33.357481025 151.48268496,-33.357383992499997 151.48277891199999,-33.357266998500002 151.48286496,-33.357237028500002 151.48292796800001,-33.357156035499997 151.48299708799999,-33.357059003 151.483052896,-33.357033991 151.483096096,-33.35699799 151.483104,-33.356910966 151.48318608,-33.3567839635 151.48324297599999,-33.356681991499997 151.48335491199998,-33.356534047 151.48351116800001,-33.356386972 151.48358604800001,-33.356321001 151.48366704,-33.356198975 151.483743008,-33.356097003 151.48383587199999,-33.355996011500004 151.48392409600001,-33.355893965500002 151.48406016000001,-33.355782984 151.48416707199999,-33.355635021 151.484292,-33.355467004 151.48447993599999,-33.355227965499999 151.48463689600001,-33.35501097899999 151.48470601599999,-33.354898018 151.484775136,-33.354797045 151.48488096,-33.354747002499991 151.48493100799996,-33.3546339675 151.48500697599999,-33.354522005500002 151.485113888,-33.35437998099999 151.48520208,-33.354222028 151.485228,-33.354124015 151.48531692799997,-33.35395104 151.48537993599999,-33.353844036 151.485473888,-33.353705970500002 151.48557395199998,-33.353588976499999 151.48564416,-33.353457034500003 151.48570608,-33.353390971 151.48568304,-33.353298008499998 151.48570896000001,-33.353216016499999 151.48576585599997,-33.353114044500003 151.48582883200001,-33.352998031 151.48593612799999,-33.352814973500003 151.48598796799996,-33.352686990499997 151.48600201599996,-33.352578987500003 151.48605888,-33.352441014500002 151.48611612799999,-33.352334010500002 151.48619785599999,-33.352196037499994 151.48627993599999,-33.352068961 151.486283168,-33.351920017499999 151.48629216,-33.3517460435 151.486381088,-33.351561987 151.48647612799999,-33.35133699 151.48653408,-33.351183995 151.48655603199998,-33.351009022 151.48663993599999,-33.350759013 151.48669011199999,-33.350632195500005 151.48671587199999,-33.350567038500003 151.486718048,-33.350463993499993 151.48671193600001,-33.350407013500003 151.48674505599999,-33.350300009499996 151.486777088,-33.350193005500003 151.48677888,-33.350085002500002 151.486823168,-33.350029021499999 151.48694016,-33.350010022 151.48704384000001,-33.35001102099999 151.487172,-33.350012001499998 151.48723392,-33.349982031499998 151.48721699199999,-33.349935966499999 151.487138176,-33.349888976500004 151.48704601599999,-33.349861985 151.486986976,-33.349773962 151.48700099199999,-33.34968198 151.48705788800001,-33.349574976 151.48712592000001,-33.349482994 151.48712809599996,-33.349416024 151.48714105599998,-33.349334032 151.48722204800001,-33.34926302899999 151.487354176,-33.349085003500001 151.48741715200001,-33.348983031499991 151.48748700799999,-33.3488400265 151.487543872,-33.348713042500002 151.48760201600001,-33.348619081 151.48764505599999,-33.348549965 151.48765907200001,-33.348435024499999 151.48767888,-33.348327021499998 151.487748,-33.348204995499998 151.48781891199999,-33.348041992 151.48788300800001,-33.347842025499993 151.48795392,-33.347667959 151.48805507200001,-33.347490026 151.48813104,-33.347325968 151.48825705600001,-33.347142984500003 151.48833913600001,-33.346943998500002 151.48842192,-33.346774982500001 151.48851084799998,-33.3465759965 151.488612,-33.346382042500004 151.48867609599998,-33.346265048500001 151.48873296,-33.346148036 151.48882585600001,-33.346051022 151.48892016,-33.345934028 151.489008,-33.345797035499999 151.48905913600001,-33.345658988499999 151.48915308799999,-33.345551966 151.48922905599997,-33.345429033500004 151.489311136,-33.345255966 151.48940617599999,-33.345098013 151.489500128,-33.344945018 151.48955699199999,-33.344832963500004 151.48964016,-33.3446689795 151.489708928,-33.344541995499995 151.489784896,-33.344434973 151.48981008000001,-33.3443570325 151.48986083200001,-33.344254986500005 151.48992384,-33.344153014500002 151.48997497600001,-33.344025031500003 151.49002608000001,-33.343912977 151.49005308799997,-33.343784994 151.49008009600001,-33.343661969 151.49012508800001,-33.343518964 151.49012688,-33.343385042500003 151.49020787200001,-33.343335 151.49034288,-33.343316019 151.49043504,-33.3432970195 151.490484,-33.343261018500002 151.49047897599999,-33.343225017500004 151.49045411200001,-33.343235007499999 151.49026512,-33.343218006 151.49018700799999,-33.343149963 151.49012688,-33.343040961 151.49001312,-33.342937028 151.48998396799996,-33.342809045 151.48996201599996,-33.342689979 151.48994003199999,-33.342551007 151.48995516799999,-33.342391981 151.48991484800001,-33.342191996 151.48989792,-33.341981040500002 151.48992492799999,-33.341812024499994 151.48996416,-33.34169997 151.490009152,-33.341587027500005 151.490054176,-33.341460025 151.49005596800001,-33.341342032 151.49001996800001,-33.341274988 151.490009888,-33.341151963 151.49001312,-33.340982040500002 151.490040128,-33.340818963 151.49007289599996,-33.340676032 151.490143072,-33.34054797499999 151.49027411200001,-33.340359959499999 151.49034396799999,-33.340253048 151.490400128,-33.340161954 151.49042604799996,-33.340053951 151.49049193600001,-33.339846954499997 151.49050883199999,-33.339592986500001 151.490408032,-33.339326031500001 151.490226976,-33.339124973499999 151.49017907199996,-33.338870006500002 151.49025107200001,-33.338507036499998 151.49047897599999,-33.338287978 151.49075904,-33.338081962 151.49114496,-33.3378770375 151.491583072,-33.337661031499998 151.49190204799999,-33.337476993500005 151.49226204799999,-33.33724901799999 151.492662016,-33.336999989500001 151.49300688,-33.336804962500004 151.49335392,-33.336588956500002 151.493472,-33.336590048 151.49373696000001,-33.336504985 151.49401417600001,-33.336507963500004 151.49431584000001,-33.336556026499998 151.49474892800001,-33.336638999 151.49504915200001,-33.336797044500003 151.49526985599999,-33.336987021 151.49554416000001,-33.337134003500005 151.49570112,-33.337224986499997 151.49593296,-33.337362959499998 151.49613203199999,-33.337511015 151.496359936,-33.337671021499993 151.49657411199999,-33.337818984500004 151.49676096,-33.337893965 151.49697587200001,-33.337980989 151.49724803199999,-33.338069012 151.49746297600001,-33.338169004499996 151.497722176,-33.338232996 151.49790899199999,-33.338259007 151.49808108799999,-33.338321999500003 151.49819916800001,-33.338390042500002 151.49831507199997,-33.338474014 151.49846089600001,-33.338572027 151.49854297600001,-33.33864303 151.498631872,-33.338697031500004 151.498697056,-33.338768034499999 151.49876688000001,-33.338849046 151.49878070400001,-33.338859184 151.49886083199996,-33.338917977 151.49892598400001,-33.338973958 151.49897366399998,-33.339021725 151.49900700800001,-33.339066032499993 151.49900592,-33.339108952499998 151.499022688,-33.339122735 151.499146336,-33.339491643500004 151.49915315199999,-33.33951197499999 151.49925216,-33.339727981 151.499364832,-33.340087972500001 151.49934793599999,-33.340130004500004 151.49937468799999,-33.340502724 151.49938768000001,-33.340775728499999 151.499436672,-33.340904729 151.49943504000001,-33.341005979500004 151.49946707199999,-33.341148984500002 151.49974566399999,-33.341811728499998 151.49997792,-33.34218696399999 151.49997792,-33.342229976500001 151.50009267199999,-33.342474731499998 151.500157664,-33.342632721500003 151.50035916799999,-33.342878975 151.500710688,-33.343241704500002 151.50095968,-33.343659712 151.50107267199999,-33.3438717035 151.50114467200001,-33.343987717 151.50135888,-33.344336978500003 151.50159792,-33.344666001 151.501838048,-33.344909997500004 151.50202307199999,-33.345020979 151.50202092800001,-33.345153994 151.50204822399999,-33.345225570499998 151.50210300800001,-33.345359991500004 151.50223008,-33.345530006499999 151.50251593599998,-33.345629999 151.50278809599999,-33.345682021 151.50294684799999,-33.345659969 151.50301993599999,-33.345600029 151.50310812800001,-33.345480963 151.503256096,-33.345277019 151.50337308799999,-33.345181984499995 151.50347497600001,-33.345074962 151.503592,-33.345003996 151.50370700799999,-33.344981000499992 151.503894016,-33.345006993 151.504051008,-33.345070004 151.50419299199999,-33.345167998500003 151.504234016,-33.345264994 151.50428499200001,-33.345398009 151.50434,-33.345781995 151.504334016,-33.346191992 151.504228,-33.3464920065 151.50402201599999,-33.346731008 151.503832,-33.3469340085 151.503696,-33.347307005499999 151.503603008,-33.347692009 151.503367008,-33.348038995 151.503219008,-33.348254002 151.50317001600001,-33.348578991499998 151.50319299200001,-33.348929992 151.50329001599999,-33.34917200899999 151.503416,-33.349379005499998 151.50359801600001,-33.349635008500002 151.50370899200001,-33.349901001500001 151.503948,-33.350108997 151.50399900799999,-33.350124000500003 151.504244992,-33.350336991 151.504288992,-33.350476999 151.5043,-33.350682996499998 151.504412992,-33.350768004 151.504482016,-33.350961995 151.504594016,-33.351157003499992 151.50464601600001,-33.351471004 151.50464300799999,-33.351663996 151.50461100800001,-33.3518210055 151.504608,-33.352037992 151.504762016,-33.352245007 151.50490499200001,-33.352330995 151.504930016,-33.352561005499993 151.504955008,-33.352741991 151.50495299199997,-33.352849994 151.50495699199999,-33.353069996 151.50496899199996,-33.353288999 151.50496499199997,-33.353507003 151.50499100799999,-33.353775993 151.504972,-33.353982009 151.50493900800001,-33.354147991 151.50479900799999,-33.354235995499998 151.504568,-33.354336006499999 151.504336,-33.354473998 151.504030016,-33.354495994499999 151.503939008,-33.354470002 151.503772,-33.354378001500002 151.50357500800001,-33.354233997500003 151.503210016,-33.354126993500003 151.50305699199998,-33.354113007500004 151.50278201599997,-33.354108993 151.50258201599999,-33.354171005 151.502534016,-33.354272995500004 151.50226876799999,-33.354544705 151.502130784,-33.354685712 151.50191977599999,-33.355055730499998 151.50181177600001,-33.355383735499998 151.50184380799999,-33.355484727 151.5018768,-33.355570733500002 151.50192579200001,-33.355671725 151.50195881600001,-33.3557587305 151.50202380799999,-33.355916739 151.50217900800001,-33.3562210085 151.50223500799999,-33.356567994500004 151.502276,-33.356838002 151.502272,-33.357068993 151.50196,-33.357386009 151.50173801599999,-33.357489997500004 151.50114483199999,-33.357902732500001 151.50099584,-33.3579777315 151.50096201599999,-33.357990996 151.50087500800001,-33.358104993 151.500701824,-33.358260726 151.50054182400001,-33.358473735 151.50050982400001,-33.35851573 151.50051017600001,-33.358515785500003 151.50051001599999,-33.358516007499993 151.50042099199999,-33.358702006500003 151.500316,-33.358872003 151.500244,-33.359157994500002 151.500236992,-33.359228997500004 151.500232,-33.35928100099999 151.50022300800001,-33.359373001500003 151.50020499199999,-33.360447000500002 151.50025100799999,-33.360762999 151.5003,-33.360921007500004 151.50029900800001,-33.360979005 151.50046499199996,-33.361266994499999 151.500648,-33.361513007500001 151.500858016,-33.361743998500003 151.500964,-33.361837997 151.501059008,-33.361923004499999 151.50114499199998,-33.361981002 151.50116201599999,-33.361997004500004 151.50143401599999,-33.362192993500003 151.501722016,-33.362350003 151.501996,-33.362429997 151.502195008,-33.362445999500004 151.502608,-33.362476006500003 151.502883008,-33.362492009 151.503083008,-33.362430996 151.503163008,-33.362201004 151.50304499199999,-33.361981002 151.502988,-33.361748993500001 151.502960992,-33.361504997 151.50301001599999,-33.361313004 151.50321100799999,-33.361225998500004 151.503516,-33.361255006500002 151.50386601599999,-33.36134900499999 151.50404899200001,-33.361428 151.50418300800001,-33.361596997500001 151.50425699199999,-33.361752009 151.50433100800001,-33.361920007500004 151.504403008,-33.362150998499999 151.504446016,-33.362370001500004 151.50444300800001,-33.362511008499993 151.50432,-33.3625870065 151.504120992,-33.362583991 151.50396700799999,-33.362633996500001 151.50390300800001,-33.362799997 151.503792,-33.36301700199999 151.503590016,-33.363193991500005 151.50349699200001,-33.363282995 151.503311008,-33.363395993 151.503172,-33.363497003 151.503018016,-33.363545991 151.50288,-33.363532005 151.50265299200001,-33.363388001 151.50251699199998,-33.363321993 151.502319008,-33.363256003499998 151.50225900800001,-33.363216006500004 151.502230016,-33.363061994 151.502308992,-33.362947997 151.502555008,-33.362872998 151.50260300799997,-33.362759001 151.502528,-33.362681005 151.50229900799999,-33.362638991499999 151.502115008,-33.362636993500004 151.501856992,-33.362505995 151.501599008,-33.362400008500003 151.501432,-33.362334000499999 151.50123299200001,-33.362331003499996 151.50114499199998,-33.362340993499998 151.50109900800001,-33.362336997500002 151.50106099199999,-33.3623349995 151.500932992,-33.362358994 151.50068700799997,-33.362412995500002 151.50046899200001,-33.362501 151.50030099200001,-33.362597995500003 151.50014099200001,-33.362752008 151.49997100799999,-33.362971991500004 151.499968,-33.3631199915 151.499964,-33.363358993 151.500000992,-33.363499001 151.500067008,-33.363640008 151.500124,-33.363739001500001 151.500064,-33.3638450065 151.499984,-33.363909997 151.499876,-33.363925000500004 151.499787008,-33.363941003 151.49968,-33.363923002500002 151.499642016,-33.36386500499999 151.49955401599999,-33.363806008499999 151.499515008,-33.3638140005 151.49945500799998,-33.363854996500002 151.499424,-33.36397800299999 151.49944099199999,-33.364133995 151.499488,-33.364208994 151.49954499200001,-33.3643250075 151.49955401599999,-33.364406999499998 151.49954201599999,-33.364530006 151.49948,-33.364694008500003 151.499448992,-33.364809004499996 151.499447008,-33.364883004500001 151.49932899199999,-33.364923001500003 151.49922,-33.364979001 151.49914099200001,-33.365035999500002 151.49900201599999,-33.365124004 151.498872,-33.365230009 151.49878201600001,-33.365327004500003 151.49866300799999,-33.365424999 151.49857299199999,-33.3655219945 151.49847401599996,-33.36557899299999 151.49836499199998,-33.365642004 151.498246016,-33.365732006500004 151.49806700799999,-33.365828003 151.497928,-33.365924998499999 151.49772099200001,-33.365989008500001 151.497464,-33.366085005 151.497256,-33.366156008 151.49700899199999,-33.366211008500002 151.496724,-33.366249007500002 151.496408992,-33.366301991500002 151.49618099200001,-33.366398006499999 151.49587500800001,-33.366527007 151.49561699200001,-33.366655008500004 151.49544899200001,-33.366736001499994 151.49520099200001,-33.366872994 151.49470099199999,-33.367118008 151.494384,-33.367295996499998 151.494248,-33.3674130275 151.494084,-33.367555995499998 151.49380499200001,-33.367792 151.493584,-33.3680610085 151.49337299199999,-33.368313996 151.49317401600001,-33.368509004499998 151.49286499199999,-33.368736998500005 151.492615008,-33.368956001500003 151.49212,-33.369197001 151.49189100800001,-33.369350995 151.49163299200001,-33.3694720035 151.49143299199997,-33.369683995 151.49120300800001,-33.369902998 151.49101299200001,-33.370106997500002 151.49086201599999,-33.3702870025 151.490632,-33.370511999500003 151.490420992,-33.370789999 151.490172,-33.371016994 151.48994201599999,-33.371196 151.489632992,-33.371448007 151.489404,-33.371634006 151.489203008,-33.37185500699999 151.48904198400001,-33.372107994499999 151.48885001599999,-33.372401996500002 151.48862,-33.372646992 151.48849801599999,-33.372884994499998 151.48837699200001,-33.373047998 151.48834201599999,-33.373088994 151.488176,-33.373250998499991 151.48807299200001,-33.3733979995 151.48806,-33.373419996 151.48800598400001,-33.373506002500001 151.487934016,-33.3736190005 151.48784,-33.373779007 151.487784,-33.373848992499994 151.48762499199998,-33.374096004500004 151.48750099200001,-33.374325996499998 151.48736601599998,-33.374543001500001 151.48727100799999,-33.374874003500004 151.48718601599998,-33.375302001 151.48711801600001,-33.375580000500001 151.486972,-33.375846992500001 151.48686499199999,-33.3761350005 151.48664,-33.376559002 151.48660588800001,-33.37663226199999 151.48657401599999,-33.376696993499998 151.486476,-33.377157995 151.486484,-33.377404008 151.48646601600001,-33.377726000500004 151.486308,-33.378003001 151.48615699199999,-33.378580996499998 151.48608,-33.379070007 151.48615699199999,-33.379558 151.486288992,-33.379846008 151.48637299200001,-33.3799479985 151.48643900799999,-33.380062994500001 151.48654,-33.38015 151.4867,-33.380257004 151.48678,-33.3803209955 151.48690499200001,-33.380462002500003 151.487096,-33.380538999500004 151.48727500800001,-33.380552005 151.48736601599998,-33.380457007499999 151.487482016,-33.380393996500004 151.48763500800001,-33.380438008 151.487824,-33.380612000500001 151.48782,-33.380827007499995 151.48777900799999,-33.3809770055 151.48801900799998,-33.381150998 151.48822300800001,-33.381197007499999 151.488528992,-33.381264995 151.488642016,-33.381370001 151.488728,-33.381553003 151.488672,-33.381832001500001 151.488488,-33.382118992 151.48823900799999,-33.382448995 151.48806300800001,-33.382875993500001 151.48781699200001,-33.383202000499999 151.48763500800001,-33.383361008 151.487468,-33.383434009 151.487326016,-33.383485994 151.487208,-33.383634993 151.486964992,-33.383675008499999 151.486736,-33.383596994 151.4867,-33.383445997 151.486638016,-33.383327005 151.486396,-33.383249009 151.486231008,-33.383215006 151.486208,-33.383032004 151.486196992,-33.382903003500005 151.48604499199999,-33.3828369955 151.4857,-33.382844007 151.48541699200001,-33.382914991500002 151.48540300799999,-33.383006992 151.48545299200001,-33.383093997499998 151.485476992,-33.383158007500001 151.485488992,-33.383234005499993 151.48544899199999,-33.383308005499998 151.48544700799997,-33.383416008499999 151.48542,-33.38348 151.48531699200001,-33.383511006 151.48519001599999,-33.383477003 151.485218016,-33.383358991500003 151.48526899199999,-33.383328004 151.48527100800001,-33.383209992499999 151.48520899199997,-33.383164001499999 151.48516998399998,-33.38313800899999 151.48491299200001,-33.383177007 151.484564,-33.383387999500002 151.48419100800001,-33.383500997500001 151.483880992,-33.383658007 151.48362,-33.384009007499998 151.48340899199999,-33.384338992 151.48336601599999,-33.384628998 151.483496992,-33.385145 151.483556,-33.385295997 151.483692,-33.385334995 151.48402198400001,-33.385521993 151.48423699200001,-33.385663999 151.48444998400001,-33.385935005500002 151.48475100799996,-33.386238997499994 151.484876,-33.386411991 151.484835008,-33.386593994 151.48493401599998,-33.386798992499997 151.485007008,-33.386981994500005 151.485156,-33.3872739985 151.485242016,-33.3874570005 151.48529001599996,-33.387673006500002 151.485467008,-33.387771001 151.48561699199999,-33.387965991 151.48567801600001,-33.388138004 151.48576499199999,-33.388300008500003 151.485788,-33.388450006500001 151.48583923199999,-33.3885988205 151.485872992,-33.388697999 151.48594601600001,-33.388914005 151.486084992,-33.389011999499999 151.48633801599996,-33.3891649945 151.486424,-33.389360003 151.48649798400001,-33.389521008500004 151.48654601600001,-33.389704991 151.486748,-33.389879002 151.48684899200001,-33.389943992500001 151.486896992,-33.390138002 151.48694700799999,-33.390234997500002 151.48712,-33.390559006499998 151.487178016,-33.390914003 151.4872,-33.391139999 151.487158016,-33.391342999500004 151.487050272,-33.391647879499992 151.487031296,-33.391790884500004 151.48702729600001,-33.392020876499998 151.48712601599999,-33.392448004500004 151.487220992,-33.392845995 151.48716700799997,-33.393027998 151.48702499199999,-33.393091009 151.486839008,-33.393474995 151.48677100800001,-33.393742005500002 151.486715008,-33.393988 151.48660998400001,-33.3941589955 151.48644201600001,-33.394264001499998 151.48624998400001,-33.394271993499999 151.48599299200001,-33.394312009 151.485647008,-33.394351007 151.48541699200001,-33.394347991499998 151.48514899200001,-33.394313008 151.48485398400001,-33.394340998499999 151.484635008,-33.394434997 151.48452899200001,-33.394637997499999 151.484475008,-33.394819001500004 151.484523008,-33.394958991 151.484546016,-33.395131004 151.48448,-33.395248997 151.48457001599999,-33.395431 151.48463139200001,-33.3956049 151.484613376,-33.395661898500002 151.48460739199999,-33.395990902500003 151.48472339200001,-33.396250901500004 151.48472038400001,-33.396436900499999 151.48476601599998,-33.396726999 151.484908,-33.3967819995 151.48502099199999,-33.396869005 151.485006016,-33.397008994499998 151.48490201600001,-33.397093003 151.4848,-33.397102993 151.48478300799999,-33.397296003499996 151.484868992,-33.397510992 151.48487900800001,-33.397672996499999 151.48496601599999,-33.397823993499998 151.48498899200001,-33.398006995499991 151.484972992,-33.398146004499999 151.48501001599999,-33.398263997500003 151.484904992,-33.398370002499995 151.48505798400001,-33.398458007 151.48500300800001,-33.398629002499995 151.484956512,-33.398677491 151.48429142399996,-33.398585916 151.480468992,-33.398022998 151.480131008,-33.397969995499999 151.479944,-33.397941006 151.479472,-33.397870003 151.479213472,-33.397830949499998 151.47914899200001,-33.397820996500002 151.47848150399997,-33.397719949500001 151.478269504,-33.397687944499999 151.47816352000001,-33.397671960499999 151.47791552000001,-33.3976349605 151.47749152,-33.397570969 151.47718153599999,-33.397523979 151.47666755200001,-33.397446963500002 151.476462016,-33.398503998 151.47644054400001,-33.398610965 151.47616857599999,-33.400008973 151.47598857599999,-33.400928978 151.47500601600001,-33.40079400199999 151.47476700799999,-33.400760998 151.474659616,-33.400745994499999 151.474411008,-33.400710992500002 151.4742176,-33.4006849815 151.474032,-33.400659007500003 151.473834592,-33.4006319975 151.47370499199999,-33.400613997 151.47368761600001,-33.40070498 151.473580992,-33.400684001 151.472903008,-33.400589003499995 151.472183008,-33.400488992500001 151.471746016,-33.400421005 151.471540992,-33.400389 151.471156,-33.400343009 151.470854016,-33.400283994 151.470607008,-33.400127003 151.470438016,-33.400002997500003 151.470280992,-33.399945999 151.46967996800001,-33.400446572 151.46938729600001,-33.400431624 151.46922419200001,-33.400467995 151.46778601599996,-33.400229992499995 151.46776201599999,-33.400223998500003 151.46745900799999,-33.400198006 151.46685401600001,-33.400190994500001 151.466788,-33.400181004499998 151.46627001600001,-33.40010099199999 151.465908,-33.40005000599999 151.46472707199999,-33.39988506 151.46449382399999,-33.399851704500001 151.46451779200001,-33.399740075499999 151.46461776000001,-33.399260074499999 151.46227683199999,-33.398927093 151.46219782399999,-33.399328099 151.462076032,-33.399499945500004 151.461978848,-33.399912329 151.461940672,-33.400097828500002 151.46192182399997,-33.400189107500005 151.46185392000001,-33.400652495500005 151.461696,-33.400634994500003 151.46168486400001,-33.400688108 151.461585856,-33.401174103 151.461574848,-33.401228104499992 151.461473856,-33.401720093500003 151.461426848,-33.401952102 151.461382848,-33.4021660915 151.45934188800001,-33.402486123 151.45822892800001,-33.401982127499998 151.45733392,-33.401619139 151.45691891199999,-33.4014501415 151.456871936,-33.40143114199999 151.456848928,-33.401422132500002 151.45682592,-33.4014121425 151.45586496000001,-33.401023143 151.45539996799999,-33.400834128499994 151.45615500799997,-33.397170999 151.45615728000001,-33.396931442499998 151.45602012800001,-33.396949350500002 151.45494912000001,-33.396792026500002 151.454820256,-33.396771787500001 151.45366787200001,-33.396591061 151.45217027199999,-33.396381456 151.451805984,-33.396330155500003 151.4518848,-33.395963763 151.45206985600001,-33.395084828 151.45245696000001,-33.39324615 151.45247696000001,-33.393168154 151.45250096,-33.392859148500001 151.45248496,-33.392584164500001 151.45238796800001,-33.392309162 151.45231296,-33.392117150499999 151.45221996800001,-33.391853155500002 151.45212294399997,-33.391624162500001 151.45201094399999,-33.391339151499999 151.45192694399998,-33.391076155500002 151.45181596800001,-33.390871157 151.45160896,-33.3905861645 151.45148396799999,-33.390312161 151.45131894400001,-33.390129159 151.45113996799998,-33.389913153 151.450973952,-33.389697147 151.45082195200001,-33.389469153 151.45064195200001,-33.38909216 151.45059494399999,-33.389006153499999 151.45044694399999,-33.388738162500005 151.45029296000001,-33.388270149500002 151.45016796799999,-33.387927159500002 151.45007996800001,-33.387769151 151.45001388799997,-33.387489893500003 151.44954732799999,-33.387015054 151.449271552,-33.386766118 151.44918048,-33.386683682 151.448477056,-33.386191656 151.44837443200001,-33.386113974499999 151.44779628800001,-33.38567802199999 151.4472552,-33.385323691499998 151.44689052800001,-33.385031280500002 151.4467872,-33.384948308 151.446520448,-33.384689104499998 151.44633936,-33.384388405500005 151.446243232,-33.384074571500001 151.44600902400001,-33.3834191905 151.44591500799999,-33.382976189499999 151.44578243199999,-33.383159376500004 151.44558624000001,-33.383421632500003 151.44536953599999,-33.383640506 151.44518102399999,-33.383916193 151.445019008,-33.384180188 151.44485705599999,-33.384352201 151.44461568,-33.384645814500004 151.44446195200001,-33.3848698125 151.44420563200001,-33.385244215500002 151.444007648,-33.385881244499998 151.443672128,-33.386630309499992 151.44344028800001,-33.386940906 151.44327289599997,-33.387165274 151.44261696000001,-33.387825058 151.44211657599999,-33.388316196 151.44175872,-33.38869959 151.44173603199999,-33.388723529 151.44130729599999,-33.389002342499992 151.44070896,-33.389293329 151.44024780800001,-33.389486469 151.439412256,-33.389760158 151.43900688,-33.389669785500004 151.438536352,-33.389436519 151.438310016,-33.389367995 151.43804748799997,-33.389288186 151.437914656,-33.389130233 151.43781744,-33.388801192 151.43780665599999,-33.38855747299999 151.43780316799999,-33.388179240499994 151.43774518399999,-33.387802247499998 151.43767488,-33.387471097499997 151.43757817599999,-33.387299251 151.43741318400001,-33.38715225 151.43728918400001,-33.387061248500004 151.43711116799997,-33.38700425 151.43682419199999,-33.386926272499998 151.43652252800001,-33.3867335395 151.43637097600001,-33.386562803 151.43605955199999,-33.38584929499999 151.43591484800001,-33.385343227500002 151.43582700799999,-33.385165831 151.435761856,-33.385034259 151.43564700799999,-33.384833737500003 151.435530016,-33.384724384 151.43542272,-33.384640042500003 151.43533488,-33.384589112 151.43521644800001,-33.384554461499995 151.43482332799999,-33.384416766 151.434616672,-33.384347724 151.43444892799999,-33.3843373825 151.43434992,-33.384344394 151.4342304,-33.38438435399999 151.43407129600001,-33.38442387 151.43389273599996,-33.3844631085 151.433634592,-33.384501366500004 151.43359177599999,-33.38450712 151.43346611199996,-33.384524047500001 151.433288288,-33.384505233 151.433131328,-33.384445200499997 151.43299379199999,-33.384377065 151.432697152,-33.384189771 151.432478656,-33.384071426499993 151.43231161599999,-33.383941371500001 151.43194080000001,-33.383823027 151.43168771200001,-33.3837487865 151.43148576,-33.383675156500004 151.43130035199999,-33.383615938 151.431098752,-33.383513966 151.43094828799997,-33.3833983225 151.43082588799999,-33.383327763499999 151.43079708799999,-33.3833111135 151.43064553599999,-33.383252431500004 151.43035824,-33.383206089 151.42990140800001,-33.383170439499999 151.42957417599999,-33.383121655 151.42924729599997,-33.382985495 151.42892076800001,-33.382813223 151.428564736,-33.382700632 151.42829148800001,-33.382697228 151.42827852799999,-33.382697043 151.428048128,-33.382754189499998 151.427733856,-33.382726199 151.42761971199999,-33.382688662500001 151.42728707200001,-33.3828765855 151.42672297600001,-33.383181595 151.42659481600001,-33.3832859165 151.42638851199999,-33.383453489499999 151.42630249599998,-33.383489305499999 151.42588380800001,-33.383663187 151.42531248,-33.383571926499997 151.42488732800001,-33.383314443499991 151.42461731199998,-33.383202925500001 151.42441609599999,-33.38324838 151.42431312,-33.383391126 151.42421916800001,-33.383834182500003 151.42392864000001,-33.384070612500004 151.423438336,-33.384244494 151.42282019199996,-33.384380765 151.422433568,-33.384395250499999 151.422103808,-33.384407664 151.42185289599999,-33.384426922499998 151.42162032,-33.384404611500003 151.42128371199999,-33.384315238 151.42118435200001,-33.384288875499998 151.420909696,-33.384138489 151.42045932799999,-33.383998074 151.419704768,-33.383743551 151.41904848,-33.383686238 151.41874608000001,-33.383715745499998 151.41849264000001,-33.383740406 151.41803904,-33.3837958505 151.41754009600001,-33.383924092500003 151.41701628800001,-33.383831759 151.41662460799998,-33.383679837 151.416074528,-33.383403447 151.41601299199999,-33.383394992500001 151.416091008,-33.383284991499991 151.416158016,-33.383090001500001 151.41619801600001,-33.382953009 151.416224,-33.382780996 151.41619500799999,-33.382563991 151.41610601599999,-33.3822039995 151.416091008,-33.382011007500004 151.41609299199999,-33.381866004500004 151.41606899199996,-33.381525993 151.41607500800001,-33.381180006 151.416076992,-33.381085008500001 151.41612700799996,-33.380817998 151.416132,-33.380569006500004 151.416100992,-33.380376995 151.416052,-33.379945001499998 151.415987008,-33.379714991 151.415844,-33.379445002 151.41565801600001,-33.379021000500003 151.415648,-33.378989994500003 151.415572,-33.378732992499998 151.41556300799999,-33.378578998499997 151.41564099199999,-33.378281999499997 151.415660992,-33.378207000499998 151.41576780799997,-33.377969257 151.415863008,-33.377768994500002 151.41596099200001,-33.3775079965 151.416200992,-33.376981005499999 151.416394016,-33.376566994 151.416530016,-33.376439991499993 151.41667900799999,-33.376347991 151.41678899199999,-33.37630599599999 151.416924,-33.376254991499998 151.41707401599999,-33.376243003499994 151.41721001600001,-33.376252993500003 151.41759401600001,-33.376513991499998 151.41788201599996,-33.376638996 151.418252,-33.376784998 151.41852601599999,-33.376898995 151.41870300799999,-33.376978008499997 151.41905900799998,-33.377079 151.419196,-33.377100996499998 151.41931801600001,-33.3770890085 151.4194,-33.377030992500003 151.419454016,-33.3769509985 151.419452992,-33.376871004500003 151.41935699199996,-33.376802998499997 151.419152,-33.376711997 151.41896,-33.376610006500002 151.418836,-33.376519005 151.418712992,-33.376416996 151.41857545600001,-33.376254936 151.41849299200001,-33.376074838499996 151.418519008,-33.3758069955 151.418736,-33.375630006 151.418980992,-33.375595004 151.41907900800001,-33.375580999500002 151.419251008,-33.375591008 151.419548,-33.375586993500001 151.419736992,-33.37560399499999 151.41988899200001,-33.375614003500004 151.42012300799999,-33.375632004 151.42055500800001,-33.375606992 151.42073500800001,-33.375594005 151.420906016,-33.375574006499996 151.42148496,-33.375377425499998 151.421586848,-33.3753056085 151.42162140799999,-33.375281133 151.421481376,-33.373090178 151.42147884799999,-33.372697867 151.42148499199999,-33.372602 151.421444,-33.372525003 151.42135401600001,-33.372459994 151.421244992,-33.372422994 151.42105001600001,-33.372376004 151.42079952,-33.3722609155 151.420587488,-33.372106107500002 151.42041001600001,-33.371891637 151.420392,-33.371730002500001 151.420428,-33.371683993 151.42050601599999,-33.371604998 151.420584,-33.371533995 151.420694048,-33.3714989745 151.42076899200001,-33.371489003 151.420828,-33.371480992500004 151.42095216000001,-33.371470262500004 151.42110048000001,-33.371452169500003 151.42120560000001,-33.371445509499999 151.421315392,-33.37144686 151.42144464,-33.371412487 151.42155049600001,-33.371377836499995 151.42161779200001,-33.371342631 151.421661728,-33.371287205 151.42168188799999,-33.371228967 151.421850624,-33.371335823 151.421872992,-33.37134999399999 151.422111008,-33.371435001500004 151.422392,-33.371526003 151.42256310400001,-33.371589754 151.42356700799996,-33.366756999 151.42509100800001,-33.365033002499999 151.42528435199998,-33.364961333499998 151.42625433599997,-33.364600343 151.42758329599999,-33.361635348 151.42869827199999,-33.360966314 151.42877328,-33.360593317 151.429042272,-33.3592673295 151.43051024,-33.359468313500003 151.430733248,-33.359315318500002 151.4321992,-33.358542296 151.43291420799997,-33.35797530799999 151.43337817599999,-33.357608286500003 151.433725184,-33.357398293 151.43356316800001,-33.356818281 151.43351516800001,-33.356646286500002 151.43346716799999,-33.356502282500003 151.433451168,-33.356387286500002 151.433320192,-33.356113283 151.43325318399999,-33.355998287 151.433238176,-33.355940289499998 151.433206176,-33.355796285499999 151.43307228800001,-33.355694258 151.433004192,-33.355636297499998 151.43288617600001,-33.355563296500002 151.43227433600001,-33.355075359 151.43229299199999,-33.354985005 151.43235900799999,-33.354659997 151.43239900799998,-33.354389009 151.43248300799999,-33.354225006500002 151.432632,-33.354062003 151.43283699200001,-33.353929006500003 151.43299001599999,-33.353837006 151.43334300800001,-33.353573991499999 151.43408899199997,-33.353031997 151.434122016,-33.353008002499998 151.434055008,-33.352826998499999 151.433886016,-33.352183994 151.43387699199999,-33.351926992 151.433716992,-33.351741992 151.433568,-33.351557991 151.43345398400001,-33.351430008 151.433400992,-33.351457998499995 151.43334,-33.351472003 151.433303008,-33.351471004 151.433276992,-33.351471004 151.43321801600001,-33.351456000500001 151.433166016,-33.351425993500001 151.43312499199999,-33.351385996499999 151.4331,-33.351338007500004 151.433092,-33.351286004 151.43310201599999,-33.3512340005 151.433128,-33.351185993 151.43315100800001,-33.3511649955 151.43288201600001,-33.350902998500004 151.43242499199999,-33.350382001500002 151.432388,-33.350340006499998 151.43221299199999,-33.350127996499999 151.432052,-33.349910991500003 151.431816,-33.349557993 151.43158099199999,-33.349157005500004 151.431436,-33.348879006 151.43131356800001,-33.348605520500001 151.43121100799999,-33.348377008500002 151.43086300799996,-33.347600008500002 151.430622016,-33.347023992499999 151.430418016,-33.3465300055 151.430304,-33.346253005 151.430228,-33.346065008 151.43017699200001,-33.345929995 151.43010700799999,-33.345766991499993 151.42948099200001,-33.344104008 151.42902,-33.342933994 151.42896,-33.342786993 151.428896,-33.342584991500004 151.428864,-33.342484999 151.42876201600001,-33.342210995500004 151.428684,-33.341942005500002 151.42862601600001,-33.341709997 151.42861398400001,-33.341655995499998 151.42857699199999,-33.341464002500004 151.428527008,-33.341012991 151.42854201599999,-33.340704004 151.42857100800001,-33.340448001 151.428596992,-33.340245999499999 151.42859900799996,-33.340228998 151.428636,-33.340079 151.42871699199998,-33.339852005 151.42887500800001,-33.339421991 151.42901699199999,-33.339122994 151.429105472,-33.338961674 151.42917699200001,-33.338832007500002 151.429412,-33.338451999 151.429607008,-33.3381660075 151.43015801600001,-33.337356003499998 151.430484,-33.336911004499996 151.43066300799998,-33.336661994499998 151.43078201599999,-33.336502006499998 151.43086499200001,-33.33633900299999 151.4309,-33.336196997 151.43092,-33.336202991 151.43098,-33.336202991 151.43103801599997,-33.336190004 151.431088,-33.336163993 151.431128,-33.33612599399999 151.43115401599999,-33.336081002 151.431163008,-33.3360309965 151.431156,-33.335980991 151.431132,-33.335935999 151.431092992,-33.335897001 151.43104300799999,-33.335868992 151.43102099199999,-33.335863997 151.431119008,-33.335680995 151.431132,-33.335654003500004 151.431219008,-33.335506003500001 151.431316576,-33.335308442 151.43143705599999,-33.335093287 151.43154048,-33.334838375499992 151.43162617600001,-33.334608328 151.431682016,-33.334409009 151.43173801599997,-33.334116006 151.43175299200001,-33.33385600699999 151.43174601599998,-33.333643997 151.43173801599997,-33.333566001 151.43171500799997,-33.333353991 151.43165500800001,-33.332970005 151.431596,-33.332687991 151.431496,-33.332383 151.43140700800001,-33.332180998499993 151.43126700799999,-33.331942996 151.431106016,-33.331719997 151.430871008,-33.331433006499999 151.43067468800001,-33.331217759 151.43046700799999,-33.331025007500003 151.43013504000001,-33.330736278 151.43008601599999,-33.330699000500005 151.429923008,-33.330536996 151.42973900800001,-33.330369996500004 151.42954601599999,-33.330169993 151.42939801599999,-33.329977001 151.42925699200001,-33.329811999500002 151.42919500799999,-33.329722996 151.42889100799999,-33.329060992 151.4287584,-33.328722775 151.428656,-33.328434008500004 151.42867699199999,-33.328429994 151.428736,-33.328398007499999 151.42878300800001,-33.328353996 151.42881299199999,-33.328300993500001 151.428824,-33.328242996 151.428816,-33.328183999499998 151.428787008,-33.328129998 151.428742016,-33.328085006 151.428684,-33.328053001 151.428616992,-33.328035000500002 151.42854598400001,-33.328034001500001 151.42847900800001,-33.328050004 151.428404,-33.327823009 151.42837299199996,-33.327734005499998 151.42827699200001,-33.327465996 151.42819900800001,-33.327233007 151.428188,-33.327186997499993 151.428112992,-33.327000998500004 151.42799593599997,-33.326563584500001 151.42794700799999,-33.326345007 151.42792499199999,-33.326256003499999 151.42790201599999,-33.326089004 151.42789513599999,-33.325988752500002 151.42789500799998,-33.325887002499996 151.42789299200001,-33.325876994 151.427892,-33.325839994 151.427886016,-33.325534004 151.42788432,-33.325422208499994 151.42788611200001,-33.325341844500002 151.42785900800001,-33.324496006 151.42785299199997,-33.324413995500002 151.42784700799999,-33.324369003500003 151.42782700800001,-33.324312005 151.42780300800001,-33.324262998500004 151.427852,-33.324250992 151.42789398400001,-33.3242289955 151.427928,-33.324197009 151.42795001600001,-33.324158991499999 151.42795801599999,-33.324115997500002 151.427952,-33.324074002499991 151.427931008,-33.324035004500004 151.42789900799997,-33.324002999500003 151.427856,-33.323979005 151.427808,-33.323965999500004 151.42778099200001,-33.323965999500004 151.42780201599999,-33.323650001 151.427807008,-33.3235500085 151.427807008,-33.323376996500002 151.427844,-33.3233749985 151.427964,-33.323372001500005 151.42822,-33.323349006 151.428292992,-33.323292007499994 151.428461024,-33.323316279499998 151.42887299199998,-33.323413293500003 151.42938201600001,-33.323533007 151.429728,-33.323614277499999 151.42972499199999,-33.323629281 151.429620992,-33.324132277499992 151.429552,-33.324467294 151.42952304,-33.324576388499999 151.429742272,-33.324614998 151.43001696,-33.32463390499999 151.43009299199997,-33.324531285500001 151.43043398399996,-33.324182264500003 151.430536,-33.324077258500004 151.43064598399999,-33.3239652595 151.430709984,-33.323900269 151.430766976,-33.323878272500004 151.43091795199999,-33.323819257499999 151.43106294399999,-33.323762259 151.43111196800001,-33.323743259499999 151.43122195199999,-33.32371427 151.43138294400001,-33.323671257500003 151.431548,-33.323628004500002 151.431611968,-33.323610263 151.43168496000001,-33.323569267 151.43195900800001,-33.323414995500002 151.43209094400001,-33.323340274 151.43225795199999,-33.323247274499998 151.43239491200001,-33.323170259 151.432535008,-33.323092004 151.43266492800001,-33.323018244499998 151.432804928,-33.322939249500003 151.43293891199997,-33.322864250500004 151.43308092800001,-33.3227842565 151.43322492799999,-33.322703245 151.433376928,-33.322617257 151.43351993600001,-33.322536245500004 151.43367190399999,-33.322451256500003 151.43377590399999,-33.322393240499999 151.43382201599997,-33.322380993499998 151.43399488,-33.322333245 151.43415888000001,-33.322288253 151.43432889600001,-33.3222422435 151.43449590399999,-33.3221962525 151.43466889600001,-33.322149244 151.43483190399996,-33.322105251 151.43500585599998,-33.322057225 151.43516886399999,-33.322013232 151.43516787199999,-33.32200723799999 151.434690848,-33.320978249499994 151.435343872,-33.321087233 151.43538684800001,-33.320903232 151.43543699200001,-33.320694996 151.43550086400001,-33.320425229 151.43557286399999,-33.320120238 151.43566182399999,-33.319748221499999 151.43567184,-33.319702230499999 151.43568582399999,-33.319645232 151.435668832,-33.319557227499999 151.43564384000001,-33.319424231 151.43561881599999,-33.319287238500003 151.43559382399997,-33.319159237 151.43556784,-33.319021227 151.43554281599998,-33.318884234500004 151.435513824,-33.318733237499998 151.43548182399999,-33.318561224500002 151.43545699199998,-33.318429005 151.43542384,-33.318253236499999 151.435371008,-33.318245004 151.435208,-33.318220991 151.43505001599999,-33.3181979955 151.434884864,-33.318173242500002 151.434725856,-33.318150247 151.43479299200001,-33.317827995500004 151.434807968,-33.317733183 151.43562432,-33.317853562499998 151.43571721599997,-33.31786716 151.437570784,-33.318119204 151.43806275200001,-33.31574820699999 151.43864576,-33.315821208 151.44075171200001,-33.316138187 151.44093868799999,-33.315326185 151.44369964800001,-33.3157371625 151.44372,-33.3156439965 151.446562016,-33.316071994 151.44662,-33.316080004500002 151.446784576,-33.316104128500001</coordinates></LinearRing></outerBoundaryIs></Polygon><Polygon><outerBoundaryIs><LinearRing><coordinates>151.50185008,-33.336454332 151.501853888,-33.336403013 151.50192912,-33.336223026500001 151.501974112,-33.336089993 151.50203603200001,-33.335849974 151.50211417599999,-33.335501045500003 151.50213216,-33.335271997 151.50218112,-33.334921977 151.50218688000001,-33.334608957 151.50217788799998,-33.334282987 151.502185088,-33.333884996500004 151.50218796799999,-33.333678999 151.502176096,-33.333621038499992 151.50212208,-33.33336498 151.502056928,-33.332954039500002 151.50209113599999,-33.332640039 151.50203891199999,-33.332301988499999 151.50207888,-33.331687011499994 151.50207491199998,-33.331409992499999 151.502072032,-33.331192025500002 151.50208284799999,-33.330600987499999 151.50204611199999,-33.330225955499998 151.50200905599999,-33.329863984500001 151.501959008,-33.3294440345 151.50199104000001,-33.329215985 151.50200905599999,-33.328997999500004 151.50202812800001,-33.328769043500003 151.50213395200001,-33.328457004 151.50219408000001,-33.328277017499992 151.50227113599999,-33.327975967 151.50245004799999,-33.327651958 151.50261312000001,-33.327365041500002 151.50273299200001,-33.327052021500002 151.50280787199998,-33.326908017500003 151.502924896,-33.326789044 151.50308508800001,-33.326658008500004 151.50327408000001,-33.326551985 151.503534016,-33.326483035499997 151.503908032,-33.326486994500002 151.50433788800001,-33.326540996 151.50484188799999,-33.326547027 151.505273152,-33.326551985 151.50582396799999,-33.326576016499999 151.506142912,-33.326526954500004 151.50721609599998,-33.3265390165 151.507266848,-33.3265539645 151.50747203200001,-33.326528046 151.50813696,-33.3264780035 151.50853008000001,-33.326396992 151.508804032,-33.326357032 151.50885516799997,-33.326358031 151.50897504,-33.326315999 151.50914604799996,-33.326261017 151.509164032,-33.326233026499992 151.509351968,-33.32616300399999 151.50966012800001,-33.326066970500001 151.50976416,-33.326010009 151.50984912000001,-33.32596797699999 151.51002192000001,-33.325856015 151.51029804800001,-33.325630019 151.51043593599999,-33.325545955 151.51062707200001,-33.32533302 151.51069801599999,-33.325205037 151.510730048,-33.325092982500003 151.510730048,-33.324942966 151.510776128,-33.324811024 151.51088016,-33.324606987500005 151.51095504,-33.324390981500002 151.511076,-33.324091022499999 151.51119696000001,-33.323742001500001 151.51124028800001,-33.3236607865 151.51133088,-33.323490993500002 151.511508,-33.323178954 151.51173084799998,-33.322770992 151.51199904000001,-33.322230995499993 151.51210595200001,-33.321846954 151.51228416000001,-33.321535025500005 151.51243392000001,-33.321285997 151.51266,-33.321015989500005 151.512867008,-33.320874964 151.51300416000001,-33.320847954 151.51343292799999,-33.320638978 151.513638112,-33.320583996 151.51372489600001,-33.320512974499998 151.51386204799999,-33.320485983 151.51401612800001,-33.320402011500001 151.51406796799998,-33.32038797 151.51413708800001,-33.320346030499998 151.51429296000001,-33.320132004 151.51441104,-33.319940048 151.51470588800001,-33.319509035 151.51493017600001,-33.3190289785 151.515109088,-33.318645029500004 151.51543488,-33.318045981 151.51569408,-33.317227985 151.51586185599999,-33.316650988500001 151.516135072,-33.316043041500002 151.51631004800001,-33.315758992500001 151.51637088000001,-33.315486025 151.51643315199996,-33.315184974499999 151.516540096,-33.314801044 151.51666393599999,-33.314258975500003 151.51680108799999,-33.313825983 151.51696595199996,-33.313418002500001 151.51717513599999,-33.312974039499998 151.51723993599998,-33.312552036 151.51731696,-33.312275997500002 151.517433952,-33.312107962 151.51757004800001,-33.311760032500004 151.517736,-33.311303008499991 151.51791491200001,-33.310907016 151.51811113599996,-33.310341989 151.518368896,-33.309966957 151.518490912,-33.309753023 151.51866409599998,-33.3095830265 151.51878611199999,-33.30946997299999 151.519043872,-33.309287008 151.51919904,-33.309216985500001 151.51966704,-33.308706959 151.51980816,-33.308465034500003 151.519932,-33.308193954 151.520094016,-33.307679968500004 151.520146912,-33.307523014499999 151.52046300800001,-33.307011008499991 151.52056883200001,-33.306783033 151.520587936,-33.306683040499998 151.520588992,-33.306582955499998 151.52062499199999,-33.306497004499995 151.520792032,-33.305682967500005 151.52090905599999,-33.304809952500001 151.52094396800001,-33.304739042 151.520964128,-33.304553006 151.52113008000001,-33.303809972 151.52113187200001,-33.30373797 151.52125897600001,-33.30326699699999 151.521833888,-33.301526036 151.52192208,-33.301340999 151.521923168,-33.301297986500003 151.52195699200001,-33.301269996 151.521975008,-33.301213016 151.52225401600001,-33.300857964 151.52284188799999,-33.300305998 151.523331136,-33.299610028 151.523625952,-33.299298007 151.523712,-33.299226985499992 151.52379913600001,-33.299114043 151.524006112,-33.298944028 151.52429808,-33.298775992499998 151.524420128,-33.298662957499999 151.52452307199999,-33.298578005499998 151.52467897599996,-33.298435981 151.52501017599997,-33.297995977 151.525303936,-33.297726968500001 151.52551091199999,-33.297586017 151.52573593599996,-33.297389010499998 151.52582412800001,-33.297202974500003 151.52592995200001,-33.296975017500003 151.525949056,-33.296889954500003 151.52598396799999,-33.2968179525 151.52612291200001,-33.296648048500003 151.52622697599998,-33.296549036500004 151.52631408,-33.296435002500004 151.52645305600001,-33.296279047500001 151.52648688,-33.296280028 151.52664313599999,-33.296123962 151.527454912,-33.295431951 151.52812595200001,-33.295038030500002 151.528400992,-33.294912027 151.52870809599997,-33.294830035 151.52889708800001,-33.2947749605 151.52898204799999,-33.294761992 151.52920595200001,-33.294635008 151.52937913599996,-33.294437002500004 151.52944896,-33.294380041 151.52993603199999,-33.293755980500002 151.530126112,-33.293600007 151.53041987200001,-33.293303008 151.53073488,-33.292834014500002 151.530752896,-33.292776960499999 151.53080508799999,-33.292734022 151.53090985599999,-33.292564025499992 151.53101388799999,-33.2924360425 151.53106608,-33.292407959499997 151.53118704,-33.292279976499998 151.531203968,-33.292295017 151.53144588799998,-33.29208297 151.53168707200001,-33.291927995500004 151.53189408,-33.291744031500002 151.532136,-33.291575015500001 151.532343008,-33.291390959 151.53258598400001,-33.291122043 151.53314185599999,-33.290454951500003 151.53336899199999,-33.290142024 151.53340393600001,-33.290114033500004 151.53364512,-33.289902005 151.53405587200001,-33.289820993500001 151.53422796800001,-33.289722999 151.53450409600001,-33.289497003 151.53462505599998,-33.2893549785 151.53467689600001,-33.289311966 151.535260096,-33.28907598 151.53544908799998,-33.288963037500004 151.535485088,-33.288877974500004 151.53560604800001,-33.288793022500002 151.53558912,-33.288777982 151.53569209599999,-33.28869402899999 151.53591491200001,-33.288596016 151.536068992,-33.288540035 151.536428992,-33.288444001500004 151.53658416,-33.288302976 151.536705856,-33.288131962 151.53680988799999,-33.288032968499998 151.53719184,-33.287622028 151.53720912,-33.287579015499993 151.53726096,-33.287523034499998 151.53743987199999,-33.287066010499998 151.53757993599999,-33.286839034 151.53803100799999,-33.286313967 151.53811811199998,-33.286200025500001 151.53846515199999,-33.285845972499999 151.53855193599998,-33.2857330115 151.53874201599999,-33.285563015 151.539105952,-33.285194994500003 151.53979715200001,-33.28461503799999 151.54000416,-33.284459971 151.540470016,-33.284035988 151.54085088,-33.283725021500004 151.54102188799999,-33.283640976 151.54114284799999,-33.283528015 151.54129187199996,-33.283440991 151.54173900799998,-33.283188003500001 151.54205904,-33.282950038 151.54242300799999,-33.282701009500002 151.54262713599999,-33.282497972 151.54288992,-33.282248037 151.543050112,-33.282105032 151.543140128,-33.281912965 151.54316230399999,-33.281787424 151.54348099200001,-33.281834007 151.54383929599999,-33.281885289 151.548660224,-33.282587253 151.55068300799999,-33.282880996 151.550859264,-33.282907118 151.550901184,-33.282913241500005 151.552302016,-33.283118998500001 151.55255113600001,-33.283155221500003 151.552789408,-33.283187134 151.552508,-33.283702007500004 151.55238,-33.283937993500004 151.552148,-33.284308992500002 151.55196700799999,-33.284661991 151.55172198399998,-33.285110005500002 151.551576,-33.285415995500003 151.55144099200001,-33.285727998 151.55142899200001,-33.28576599699999 151.55136300800001,-33.285972993500003 151.551320992,-33.286148003500003 151.551131008,-33.286668001500004 151.55094700800001,-33.287240003 151.55076300799996,-33.287778001500001 151.55070499199999,-33.287939007 151.55064099200001,-33.288115996500004 151.550567008,-33.288382008 151.55042499199999,-33.288717006 151.55034700799999,-33.288871999 151.550160992,-33.289187997500001 151.549992,-33.289469993 151.549800992,-33.289747992500004 151.54978499200001,-33.289766992 151.549623008,-33.289991008500003 151.549103008,-33.290707994500004 151.548724,-33.29127799799999 151.548268,-33.291940002 151.54852,-33.292040993500002 151.548575008,-33.292065006500003 151.54918499199999,-33.292324006500003 151.549292,-33.2923739935 151.54933801600001,-33.292412991500001 151.54953001600001,-33.292587002499999 151.549592,-33.292706993499998 151.54963699199999,-33.292882003499997 151.54961801600001,-33.293048004 151.54955100799998,-33.293228009 151.549444,-33.293433007499999 151.54931398400001,-33.293619006500002 151.549232,-33.293777995500001 151.54923001599997,-33.293788004 151.54918899200001,-33.293951007499999 151.54916899200001,-33.294183996500003 151.54923500800001,-33.294660001499999 151.54923801599998,-33.2946989995 151.54929100800001,-33.294928991500001 151.54938899199999,-33.295327000499995 151.54948499199998,-33.295769002500002 151.54952700800001,-33.296014997 151.54955801599999,-33.296197 151.549655008,-33.2965450035 151.54977699200001,-33.296866996 151.54993801599997,-33.297235997 151.55010099200001,-33.297497994 151.55013699200001,-33.297574991 151.550186016,-33.297679997 151.55047100799999,-33.297616005500004 151.55053801599999,-33.297708006 151.55054201600001,-33.297712002 151.550596,-33.297761008500004 151.550690016,-33.297783005 151.550804992,-33.297772996500001 151.55085699200001,-33.297793994 151.55090099200001,-33.297843999500003 151.55098099200001,-33.297912005500002 151.551148,-33.298078006 151.55222499199999,-33.299074009 151.551368,-33.299456996 151.55034,-33.299767000500005 151.549564992,-33.300328993500003 151.548792,-33.300748999 151.548404992,-33.300922991499995 151.547956992,-33.3012410065 151.547763008,-33.301399995499999 151.547539008,-33.301532992 151.54729900799998,-33.301741006 151.547091008,-33.301813008 151.546736,-33.301908005500003 151.54643900799996,-33.301990996500002 151.54611299199999,-33.302085994 151.54584499199999,-33.302207002499998 151.545652,-33.302291991499999 151.54502601600001,-33.302631004 151.544803008,-33.302777006 151.544579008,-33.302923008 151.54426601599999,-33.303080998 151.54396700800001,-33.303287994499996 151.54372899200001,-33.30340900299999 151.54349100799996,-33.303555005 151.543148992,-33.303662009 151.542867008,-33.303769993499998 151.542644,-33.3038789955 151.542404992,-33.304037004 151.542152,-33.304170999500002 151.541855008,-33.304291009 151.54155699200001,-33.304461005500002 151.54128899200001,-33.304606008500002 151.54096099200001,-33.304800998499992 151.540751008,-33.304996007 151.540482016,-33.305179009 151.54012499199999,-33.305323993500004 151.53981299200001,-33.305468996500004 151.539368,-33.305624008 151.53902499200001,-33.305805992499998 151.53874499199998,-33.305891999 151.538552,-33.306003998 151.53796700800001,-33.306354998499998 151.53750300799999,-33.306593001 151.537331008,-33.3066919945 151.53646700799999,-33.307411996 151.536191008,-33.307594998 151.53601900799998,-33.307722000499993 151.535899008,-33.307778 151.53579500800001,-33.307863007500004 151.53562300799999,-33.307946997500004 151.535314016,-33.308129000500003 151.535087008,-33.308272005500001 151.534730016,-33.308428996499998 151.53447699200001,-33.308574998499999 151.53409001599999,-33.308756002500004 151.53374700800001,-33.308962999 151.533344992,-33.309155991 151.53300099200001,-33.309448994 151.532628,-33.309704997 151.53224,-33.309936006499996 151.531880992,-33.310217003 151.53164201600001,-33.310386999500004 151.53143299199999,-33.310557995 151.531283008,-33.31066799599999 151.531192,-33.310777997 151.53086300800001,-33.3110080075 151.530044992,-33.311463995499999 151.529234016,-33.31207 151.528940992,-33.312253002 151.528528,-33.312506008 151.528356,-33.312619006 151.5282,-33.3127460085 151.52799401600001,-33.312871993500003 151.527839008,-33.313013999500001 151.52778700799999,-33.313042008499998 151.52763100799999,-33.313225991 151.527596,-33.313283008 151.527384,-33.313421998500004 151.52714601599999,-33.313580007 151.52698099200001,-33.313714002499999 151.526771008,-33.313884998 151.52654700799999,-33.314044005499994 151.526263008,-33.314251002 151.52589001600001,-33.314507005 151.52560598400001,-33.314738995 151.525332,-33.314954002 151.525024,-33.315230003499998 151.524696,-33.315541007 151.52441900799997,-33.315767003 151.52424700799997,-33.315850993 151.523695008,-33.316288999 151.523572992,-33.316417000500003 151.52348601599999,-33.3165590065 151.52343401600001,-33.316615006 151.523347008,-33.316672004499999 151.52317398400001,-33.316842001 151.522916,-33.316968004499998 151.52233001600001,-33.317418997499999 151.52196601599999,-33.317772995 151.52165299200001,-33.318156000500004 151.521532,-33.318241008 151.521446016,-33.318283003 151.521204,-33.318479991 151.52087500799999,-33.318820002500004 151.520591008,-33.319094006 151.52016700799999,-33.319493994499993 151.519852,-33.319737991 151.519568,-33.319994993 151.519328,-33.320177995 151.51905900799997,-33.320421991499991 151.51884700799999,-33.320691999 151.51863801600001,-33.320862994500004 151.51848700799999,-33.321057004 151.51830700799999,-33.321227999499996 151.51814099200001,-33.321436994 151.51791500799999,-33.321682008 151.517704,-33.321927003500001 151.51751001599999,-33.322048992500001 151.51732899199999,-33.322305994499999 151.51705801599999,-33.322613002 151.516788,-33.322856998500001 151.51660700799999,-33.323054005 151.51644,-33.323349006 151.516244992,-33.323557001499999 151.516124,-33.323691996 151.51591401600001,-33.323925003500001 151.51554099200001,-33.324131001 151.51544713600001,-33.324282867500003 151.515388992,-33.324376995500003 151.515132,-33.324720004 151.51496700800001,-33.324916992 151.514770016,-33.325223999500004 151.51455900799996,-33.325494007 151.51417827200001,-33.325861602 151.51381328,-33.326287601499999 151.51333100799997,-33.3268820065 151.513144,-33.3270730005 151.51299401599999,-33.327195008 151.5128,-33.327366003500003 151.51265001600001,-33.327513004499991 151.51255801600001,-33.327684999 151.512408,-33.327844006500001 151.512272,-33.328016001 151.512076992,-33.328212008500003 151.51188201599999,-33.328346004 151.511459008,-33.328910994 151.511324,-33.329033001500001 151.511084,-33.329303009 151.510963008,-33.329475003500001 151.51073699200001,-33.329732005499991 151.51058499199999,-33.329965993499997 151.510344992,-33.330185995500003 151.51019500800001,-33.330308003 151.51004601599999,-33.330429992 151.50989401599998,-33.330638006 151.50980300800001,-33.330823006 151.50974201599999,-33.330921000499998 151.509680992,-33.331032000500002 151.50956201599996,-33.331092995 151.509428,-33.331141002500004 151.509322016,-33.331220996500001 151.50923612799997,-33.331285524500004 151.509143008,-33.331354992 151.50902201599999,-33.331527005 151.50892899199999,-33.331773998500005 151.50882099200001,-33.332031999500003 151.508656,-33.332228007 151.508476,-33.332400001499998 151.50826499199997,-33.332607997 151.50805500800001,-33.332877005500002 151.50793299200001,-33.333073993500001 151.50775100800001,-33.3333319945 151.50752700800001,-33.333527003 151.507374016,-33.333797991 151.507251008,-33.334105997500004 151.507026016,-33.334362999500001 151.506900992,-33.334745006 151.50678,-33.334892007 151.506596992,-33.335249001500003 151.50649001599999,-33.335495995 151.506296,-33.335628991500002 151.506159008,-33.335825998 151.50608201599997,-33.336060004499998 151.50600300799999,-33.336319004499998 151.50585100800001,-33.336601999 151.505728992,-33.336810993500002 151.50562099199999,-33.337119 151.50561654399999,-33.337335672 151.50558153599999,-33.337378666 151.50526256000001,-33.338105679 151.50513456,-33.338576670500004 151.504976992,-33.339017007499997 151.50490601600001,-33.339186005 151.504788,-33.339390004500004 151.50466899200001,-33.33959400399999 151.50457798399998,-33.339881993500001 151.504412992,-33.34026699699999 151.50435001599996,-33.340578999500003 151.504332,-33.340771991499999 151.504098016,-33.340999005 151.504108992,-33.34122799799999 151.50413401599999,-33.341458008499998 151.504043008,-33.341709997 151.50398099200001,-33.342010992 151.50384499200001,-33.342371002 151.50365100799999,-33.342779001 151.50356201599999,-33.342959006 151.503500992,-33.343139991500003 151.50342601599999,-33.343343991 151.50324899200001,-33.343571004499999 151.503128992,-33.343894995 151.502882016,-33.344001 151.502814016,-33.344011008500004 151.50265091200001,-33.344034022500004 151.502364,-33.34403097 151.502047936,-33.343979040500002 151.50191904,-33.343928998 151.50189312000001,-33.343820014500004 151.50189491199998,-33.343675011500004 151.50198313599998,-33.343556038 151.50215808,-33.343436972 151.502333056,-33.343331041 151.502364,-33.34316202499999 151.50236688000001,-33.342993009 151.502371936,-33.342740003 151.502430976,-33.342607987 151.50251987199999,-33.342463983 151.50249395200001,-33.342307029 151.50241116800001,-33.342112982499998 151.50240611199999,-33.34196304 151.50249504000001,-33.341831005499998 151.502640128,-33.341724001499998 151.50274307199999,-33.341616997500005 151.50281795199999,-33.341448962 151.50287916799999,-33.341256987500003 151.502911936,-33.340967018500002 151.502859008,-33.340737951500003 151.50286188799998,-33.340532046499995 151.50286512,-33.340400012 151.50275603200001,-33.340023981 151.50264588799999,-33.339756952 151.50257712000001,-33.339563997 151.502508,-33.339382012500003 151.50245507199998,-33.339140014 151.50244284799999,-33.3389590285 151.50241801600001,-33.3387530125 151.50242089599999,-33.338572027 151.50238201600001,-33.33833001 151.50229993599999,-33.338099962500003 151.50224988799999,-33.338013031 151.502213152,-33.337866955 151.50218003200001,-33.337751034 151.50213683199999,-33.337657979 151.50213216,-33.337567976500004 151.50212604800001,-33.337475994500004 151.50211091200001,-33.337355041500004 151.50207888,-33.337224006 151.502056928,-33.337140034500003 151.50202416,-33.337052992 151.50194208,-33.336920976 151.501875136,-33.336812973 151.50183516800001,-33.336644031 151.50185008,-33.336454332</coordinates></LinearRing></outerBoundaryIs></Polygon></MultiGeometry>

	</Placemark>
</kml>