<?xml version="1.0" encoding="UTF-8"?>
<kml xmlns="http://www.opengis.net/kml/2.2">
	<Placemark>
		<Style>
			<LineStyle>
				<color>ff0000ff</color>
			</LineStyle>
			<PolyStyle>
				<fill>1</fill>
				<color>330000cc</color>
			</PolyStyle>
		</Style>
			<ExtendedData><SchemaData>
		<SimpleData name="STATE_2006">1</SimpleData>
		<SimpleData name="POA_2006">2295</SimpleData>
	</SchemaData></ExtendedData>
      <Polygon><outerBoundaryIs><LinearRing><coordinates>151.788988096,-32.884881024 151.78896108800001,-32.884651975499999 151.78898016,-32.884347965 151.78892617599999,-32.883876992 151.78887289599999,-32.8833430265 151.788890176,-32.883203962 151.788951008,-32.883128001 151.78907305600001,-32.883066007499998 151.789213088,-32.883037018 151.789340896,-32.882997964499992 151.789467968,-32.882958004499997 151.78963392,-32.882876993 151.78982003199997,-32.882796999 151.789956832,-32.882715987499999 151.79013395199999,-32.8825950345 151.79037913600001,-32.882465978500001 151.79059513600001,-32.882328986 151.79088889600001,-32.882175991 151.791064928,-32.882070966500002 151.79120208,-32.8820310065 151.79134787199996,-32.882023976500001 151.79147388800001,-32.882032986 151.79166793600001,-32.882067988 151.791949088,-32.8821530325 151.792084096,-32.882228013 151.79217984,-32.882310985499998 151.792198912,-32.882401987 151.79215788799999,-32.882507992 151.79205888,-32.882630036500004 151.79200883199999,-32.882743978 151.79201712,-32.882884023 151.792092,-32.883048987500004 151.792158976,-32.883173011499998 151.792227008,-32.8831980235 151.792304032,-32.883190013 151.79241203199999,-32.88315897 151.79256793600001,-32.883102989 151.79265683200001,-32.8830300065 151.792715872,-32.882956025 151.79279616,-32.88284199099999 151.79291388799999,-32.882696007500002 151.79299417600001,-32.882556961500001 151.79320009599999,-32.882302975 151.79328793599998,-32.882203981499998 151.79368787199999,-32.881463001 151.79383008,-32.88115701099999 151.79395104,-32.880853981 151.794070912,-32.880600993500003 151.79413392000001,-32.880290045499997 151.79422608,-32.879948036 151.79426892800001,-32.879676955500003 151.79429196800001,-32.879374018 151.794295936,-32.87912796799999 151.79429987199998,-32.878816021 151.79429411199999,-32.878529012 151.794258848,-32.878252973500004 151.794214912,-32.877932035500002 151.79417100800001,-32.877554043499998 151.79410009599999,-32.877011975 151.79402915200001,-32.876535951500003 151.793967968,-32.876020985499999 151.79395136,-32.875712979 151.793979616,-32.875645731500001 151.79389091199999,-32.875216013500001 151.793640608,-32.873442733 151.793630624,-32.873417739499992 151.79350608,-32.873052956500004 151.79346899199999,-32.872832991500005 151.79337900799999,-32.872599984 151.793271008,-32.872407029 151.793060032,-32.872211003 151.79264963200001,-32.871480734 151.79263660800001,-32.871164735500003 151.79214060800001,-32.870128717 151.79179062399999,-32.869595713500004 151.79164163199999,-32.86932171 151.79159763199999,-32.86873470499999 151.79149660799999,-32.8686757085 151.79136262399996,-32.868574717 151.79136361600001,-32.868488710500003 151.79143363200001,-32.8683027115 151.79145161599999,-32.868245713 151.79128460799998,-32.8680437115 151.790683648,-32.867278718 151.79059865599999,-32.86724971 151.79024764799999,-32.866873716 151.79006464,-32.866571722 151.789849664,-32.865886722500001 151.789771648,-32.865637712499996 151.78970665599999,-32.863974710499996 151.78976166399997,-32.863688700499999 151.78990464,-32.863073686500002 151.79000963199996,-32.862759686 151.79018860799999,-32.86201569 151.79418256,-32.862891702 151.79431856,-32.862921690500002 151.79457654399999,-32.862979688 151.79523056,-32.86312569 151.79544256,-32.863158694 151.79565052800001,-32.863105691500003 151.79685801599999,-32.863285992500003 151.80249900800001,-32.864115995 151.803472384,-32.864263717500002 151.80493939199997,-32.864489713499999 151.8041504,-32.869131733499998 151.80400841599999,-32.869968729 151.80379542399999,-32.87121973599999 151.80421344000001,-32.871279731500003 151.80472140800001,-32.871423735500002 151.804992384,-32.871531738500003 151.80566140799999,-32.871893728 151.80799936,-32.873138741 151.81378499199997,-32.875898996499998 151.813144,-32.876312009 151.81262300799997,-32.8767090005 151.812003008,-32.877038004500001 151.81152300799999,-32.877319001 151.81092099200001,-32.877748996500003 151.8102,-32.878244001 151.80993900799999,-32.878452995499998 151.80955798400001,-32.87873399199999 151.809056992,-32.879063995 151.808536,-32.879410999500003 151.80819401599999,-32.879708997500003 151.80775299199999,-32.880022998 151.80743100800001,-32.880389002 151.806948992,-32.880769991 151.806368,-32.881183003499999 151.805788,-32.881479003499997 151.80524601600001,-32.881875995 151.804912992,-32.882168998 151.804572,-32.882418008 151.80425100799999,-32.882598993500004 151.80401001600001,-32.882797998 151.803668,-32.883096995 151.803326016,-32.883411994500001 151.803064,-32.883710991499996 151.80268201600001,-32.883993005500002 151.80236099199999,-32.884240998 151.80197900799999,-32.884539995 151.80141699199999,-32.8849200035 151.80105500799999,-32.885252004500003 151.800492,-32.885750006 151.800008,-32.886248007500001 151.799484,-32.886746009 151.79902201600001,-32.887127997 151.79855900800001,-32.887558991500001 151.79809401599996,-32.888107997500001 151.797471008,-32.888622001500003 151.79698601600001,-32.889163996 151.796583008,-32.889546002499998 151.79632099200001,-32.889844999499999 151.79603900800001,-32.890160998 151.795998016,-32.890228005 151.79567500799999,-32.890577007499999 151.79539299199999,-32.890876004500001 151.79515001600001,-32.891176000500003 151.79444,-32.891994995499999 151.79389801600001,-32.892716995 151.793404,-32.893290994499999 151.79304099199999,-32.893959991500004 151.79261100799999,-32.894628008 151.792046016,-32.895481006 151.79159299199998,-32.8962050035 151.79118499200001,-32.896947001500003 151.790887008,-32.897671998 151.79063500800001,-32.898118995 151.790391008,-32.898617995500004 151.790164992,-32.899017003499999 151.79007900799999,-32.899228995 151.78977900800001,-32.899839994499999 151.789544992,-32.900394994500004 151.78932,-32.900942002500003 151.78915699199999,-32.901307007500002 151.788944,-32.901754004499999 151.78884099199999,-32.902076996 151.788728,-32.902375993 151.78861500799999,-32.902716004499993 151.788522016,-32.903147998 151.78828099200001,-32.904197003500002 151.788128,-32.905513001 151.788048992,-32.906385997500003 151.78804979200001,-32.906648827 151.788051776,-32.907431821 151.78809379200001,-32.908119817499994 151.78815676799999,-32.908491815499993 151.78831478399999,-32.909338838 151.78852499199999,-32.910132007 151.78856537600001,-32.910351694500001 151.788628,-32.910712000499998 151.78879801599999,-32.911274992499997 151.78909900799999,-32.91193100249999 151.78938,-32.912456994499998 151.789727008,-32.912984004 151.79011801599998,-32.913547995 151.79055401599999,-32.914113003499999 151.79085900800001,-32.914526996500001 151.79109801600001,-32.914866009 151.791168,-32.915007996500002 151.79127801600001,-32.915165006 151.791335008,-32.915306993500003 151.79141299199998,-32.915382991499996 151.791530016,-32.915467 151.791169728,-32.915424838500002 151.79094972799999,-32.915436845 151.79077692800001,-32.915667965499999 151.790667136,-32.915750031500004 151.79051808,-32.915873963 151.79038595200001,-32.916069989 151.79027574400001,-32.916317852 151.79027376,-32.916518836 151.790371712,-32.916805845 151.790562016,-32.917232973 151.79060172800001,-32.917323845 151.79068512000001,-32.917471012500002 151.79057209599998,-32.917656956 151.79039209599998,-32.917823992500004 151.79019084800001,-32.917970975 151.78992409599999,-32.918081031500002 151.789635008,-32.91813396 151.78932396799999,-32.918167981499998 151.78903596800001,-32.918221983 151.78879116799999,-32.918274985499998 151.78870115199996,-32.918367966499993 151.78863203200001,-32.918517002500003 151.78854096,-32.918759001 151.78844988799997,-32.918888963500002 151.788359872,-32.919018038 151.78818096,-32.919091020499998 151.78795993599999,-32.919127021500003 151.787603168,-32.919254005500001 151.78733603200001,-32.919345007 151.78724604799999,-32.91945597 151.78715497600001,-32.919642006 151.78693104000001,-32.91978897 151.78657392,-32.919935046 151.78608505599999,-32.920061031 151.78566313599998,-32.920169034 151.78521888,-32.920239963 151.784664128,-32.920234024500004 151.783913152,-32.9201150325 151.783272,-32.919977966 151.78260995199997,-32.919747030499998 151.782341696,-32.9196425425 151.781861152,-32.919460021499994 151.78115808000001,-32.919022977499999 151.780629952,-32.918718967 151.78022,-32.918311005 151.78001904000001,-32.918058998 151.77993408,-32.9177590205 151.77991392000001,-32.917597016 151.77989305599999,-32.917276984499999 151.77989411199997,-32.917203003 151.77987900799997,-32.917111021 151.77983113600001,-32.917037039500002 151.77976092799997,-32.916977007 151.77969107199999,-32.916925984 151.779603968,-32.916930035500002 151.77953808000001,-32.916947037 151.779456,-32.917011028499992 151.77938905600001,-32.917087988499993 151.77935017600001,-32.917175012500003 151.77933792,-32.917229994499991 151.77930515200001,-32.917257004500001 151.77927312,-32.917257004500001 151.779228832,-32.917242963 151.77918707200001,-32.917182024 151.779176992,-32.917127042 151.77921587199998,-32.917044957500003 151.77923785600001,-32.916989975500002 151.77930409599998,-32.916922025 151.77938112,-32.916859014 151.77945312,-32.916786031500003 151.77946499199996,-32.91672204 151.77946608,-32.916671017 151.779439072,-32.916545994 151.77939984,-32.916333965500002 151.77926988799999,-32.916107969500004 151.77903011199996,-32.915788012 151.778769856,-32.915375018 151.778598848,-32.914925005500002 151.77851561599996,-32.914669132 151.77836483199999,-32.914212034 151.778275904,-32.913953829500002 151.778088,-32.913424988500005 151.778080096,-32.913392854 151.77771107199999,-32.9122610055 151.777623968,-32.911908025500004 151.77759696000001,-32.911775010500001 151.77761891199998,-32.911608954500004 151.77761100799998,-32.911425989500003 151.777630848,-32.911348382 151.77769488000001,-32.911109991 151.77773299200001,-32.910892005500003 151.77781008,-32.910595025 151.77790297600001,-32.910288036 151.778014912,-32.910014976 151.77808691199999,-32.909807961 151.77815689600001,-32.909592824500002 151.77818192000001,-32.909526816499998 151.77830112000001,-32.909345017 151.77833209600001,-32.909237994500003 151.77845305599999,-32.909096969 151.77851315199999,-32.908989965 151.77861289599997,-32.908890953 151.77869388799999,-32.908782968499999 151.778733856,-32.908742009500003 151.77887209599999,-32.908709967500002 151.779040928,-32.908687027500001 151.779169088,-32.908662996 151.77921913599999,-32.908614026500004 151.77922992000001,-32.908530961499991 151.77923100800001,-32.908489022 151.77919212800001,-32.908421978 151.77916297600001,-32.908380038499999 151.77917411199999,-32.908313975 151.77922416000001,-32.908264025 151.77930409599998,-32.908206952500002 151.779392992,-32.908166012 151.77946393600001,-32.908067018499999 151.77952403200001,-32.9079840275 151.77962412799999,-32.907851993 151.779712,-32.907746006499998 151.779774976,-32.907628975500003 151.77978611200001,-32.907546003 151.77974796800001,-32.907479033 151.77974905600001,-32.907386977 151.779799072,-32.907338007499995 151.779831008,-32.9072680035 151.77990096,-32.907151971499999 151.78007196799996,-32.906879004 151.78020192,-32.906721957500004 151.78032288,-32.906582005 151.78034700800001,-32.906526005499998 151.780353856,-32.906440979500005 151.78038515200001,-32.906383019 151.78051404799999,-32.906276015 151.78068505600001,-32.9060940305 151.78081500799999,-32.905962995 151.78105584,-32.905639985 151.78122684799996,-32.905409031 151.78135788799997,-32.905218962 151.78145795200001,-32.9050950305 151.78157785599998,-32.904971006499999 151.78182099200001,-32.904678003500003 151.78206096,-32.904359008 151.78224096,-32.904118989 151.78240188800001,-32.903895953 151.78253292799997,-32.903730988500001 151.78270211200001,-32.903615974 151.782773056,-32.903516962 151.78285296000001,-32.903400967 151.782894016,-32.903285046 151.78290515200001,-32.903209973 151.78297500799999,-32.903178023500004 151.783074016,-32.9031119785 151.783194976,-32.902955006 151.78336489599999,-32.902765011 151.78360608,-32.902468012 151.78376700800001,-32.902219982499993 151.783899136,-32.901996965 151.78397904,-32.901888962 151.784108992,-32.901749009500001 151.78426992000001,-32.901559014500002 151.784430112,-32.901386039500004 151.78454099199999,-32.901195952 151.78462201599999,-32.901047008500001 151.78468284799996,-32.900913993499998 151.784782912,-32.900789969500003 151.78492403199999,-32.900625005 151.78515299200001,-32.900300015500001 151.78524985600001,-32.900159970499999 151.78536288000001,-32.8999560265 151.785432,-32.899787991 151.78552201599999,-32.899715008500003 151.785676096,-32.899752989 151.78580713599999,-32.899867023 151.786006912,-32.899887003 151.786118176,-32.899851002 151.78620889600001,-32.899703039 151.78634496000001,-32.899442041 151.78650192000001,-32.899293985500002 151.78648211199996,-32.899182023500003 151.786371968,-32.899105988499997 151.78619484800001,-32.899086008499999 151.78604112,-32.899010047499999 151.786019872,-32.898896994 151.786081088,-32.898769011 151.78620384,-32.898609985 151.78631507199998,-32.898453031 151.78637699199999,-32.8982699735 151.78653792,-32.897997006 151.786628992,-32.897856961 151.786739872,-32.897682987 151.786851136,-32.897484001 151.78696201599999,-32.897302016499999 151.787063168,-32.897120032 151.78710492799999,-32.896970996 151.787204992,-32.89682196 151.78731696,-32.896607045499998 151.78744908799999,-32.896324976 151.787571136,-32.8960680295 151.78765788800001,-32.895819001 151.78783897599999,-32.895484021500003 151.78817593599999,-32.895189002 151.78848985600001,-32.8948929835 151.78873609600001,-32.894708039 151.78893913600001,-32.894430021 151.78911984000001,-32.894170022 151.789236128,-32.893778969 151.78932793600001,-32.893499970500002 151.78928688,-32.893293954500002 151.789356,-32.893107030499998 151.789446016,-32.892958975 151.789602976,-32.892848012 151.789759936,-32.892681956 151.78989817600001,-32.892346976500001 151.79007996799999,-32.891975015500002 151.79033017599997,-32.891546962500001 151.790487136,-32.891343037 151.79073408,-32.891158980500002 151.79100300799999,-32.890899962 151.79111712,-32.890658037500003 151.79136803200001,-32.890156021500005 151.791576128,-32.889710967 151.79161392,-32.889618004500001 151.79173488000001,-32.889339986499998 151.79183497599999,-32.889086018500002 151.79194585600001,-32.888816011 151.79209596800001,-32.888513961499996 151.792227008,-32.888195003 151.79236595200001,-32.887961015 151.79248512000001,-32.887798011500003 151.792594912,-32.887593993499998 151.792684928,-32.887365037500004 151.79276592,-32.8871850325 151.792804096,-32.887082968 151.79293513600001,-32.886866962 151.793035936,-32.886663036500003 151.79312483199996,-32.886515961500002 151.79319395199997,-32.886417967 151.79323500800001,-32.886320046499996 151.79323500800001,-32.886254963500001 151.79320691199999,-32.886171991 151.79321916800001,-32.886053017500004 151.79326992,-32.885881023 151.793321056,-32.8856679955 151.79337289599999,-32.885463959 151.79345388799999,-32.885243013500002 151.79351507199999,-32.885046987500004 151.793546048,-32.884907035 151.79356691199996,-32.8847599785 151.79358889599999,-32.884587984 151.79361984,-32.88446495899999 151.79370912,-32.884334996500002 151.79375088,-32.88413799 151.79382108799999,-32.883949974499998 151.79388300799999,-32.883712027500003 151.79395500800001,-32.883451011 151.79399712,-32.883204961 151.794019072,-32.883015965 151.79402016,-32.882941983500004 151.793943136,-32.882876012499999 151.793861056,-32.882846042499999 151.793755936,-32.882857013 151.79361913599999,-32.882945036 151.79345100800001,-32.883146001500002 151.79323788799999,-32.883321955 151.79308489600001,-32.883510951 151.79279507199999,-32.883761977499994 151.79253696000001,-32.883975985500001 151.79224787199999,-32.884175970499996 151.79195987200001,-32.884326986 151.79161715199999,-32.884417987500001 151.79143104,-32.884497981500004 151.79119705599999,-32.884552982 151.79079708800001,-32.8846230045 151.79052313599999,-32.884685997 151.79018291200001,-32.884707956500002 151.78993884799999,-32.884730008499993 151.78964688,-32.8847599785 151.78951008000001,-32.884792020499994 151.78943196799997,-32.884831980500003 151.789334048,-32.884904963 151.78925484800001,-32.884993985 151.789244032,-32.885100989 151.78925088,-32.885280994 151.78927609600001,-32.88551102299999 151.78927897599999,-32.885557014 151.78929193600001,-32.88577302 151.78925987199997,-32.885886961499999 151.789184992,-32.885899023500002 151.789110112,-32.885809021 151.78908313599999,-32.885643964 151.789070176,-32.885490969 151.78905900800001,-32.885147979 151.788988096,-32.884881024</coordinates></LinearRing></outerBoundaryIs></Polygon>

	</Placemark>
</kml>