<?xml version="1.0" encoding="UTF-8"?>
<kml xmlns="http://www.opengis.net/kml/2.2">
	<Placemark>
		<Style>
			<LineStyle>
				<color>ff0000ff</color>
			</LineStyle>
			<PolyStyle>
				<fill>1</fill>
				<color>330000cc</color>
			</PolyStyle>
		</Style>
			<ExtendedData><SchemaData>
		<SimpleData name="STATE_2006">1</SimpleData>
		<SimpleData name="POA_2006">2204</SimpleData>
	</SchemaData></ExtendedData>
      <Polygon><outerBoundaryIs><LinearRing><coordinates>151.17442524800001,-33.908063169500004 151.17462899200001,-33.90833299199999 151.174688,-33.908451003499998 151.174800992,-33.90862999099999 151.174871008,-33.908724008 151.17492819200001,-33.90880008 151.17504083200001,-33.908976459 151.17291145600001,-33.910368843 151.167406656,-33.913967796 151.16729833599999,-33.914038854499999 151.16652864,-33.914551674500004 151.166108896,-33.914831487 151.16608332800001,-33.914848507 151.16591088000001,-33.914963336500001 151.16528051200001,-33.915383453 151.16506140800001,-33.915521426 151.1646696,-33.915762444 151.162982656,-33.916851983 151.16235328,-33.917263645 151.16181193599996,-33.917610964 151.16085145599996,-33.91824285 151.15966489600001,-33.919024049499995 151.159429088,-33.919182539 151.15926889599996,-33.919304047 151.15908995199999,-33.919434805 151.15891968,-33.9195753865 151.15889411200001,-33.919596458 151.158824896,-33.919657693 151.158726016,-33.919727401 151.15851395199999,-33.919902263 151.15819753599999,-33.920217817500003 151.158027616,-33.920411031500002 151.15790700799997,-33.920556127 151.157628,-33.92093600599999 151.15733641599999,-33.921387628 151.15730976,-33.921428587 151.157209696,-33.921638192 151.15708585600001,-33.921907478 151.15701168000001,-33.922101968500002 151.15692384,-33.922332367500005 151.15685545599996,-33.922520364500002 151.15681763200001,-33.922644666 151.156761472,-33.9228720865 151.15671504,-33.923166292 151.15670528000001,-33.9232418275 151.15666787200001,-33.923508024 151.15662937600001,-33.923707195 151.15661315200001,-33.923802414500003 151.15658364800001,-33.923972781 151.156477088,-33.924402906 151.15639715200001,-33.924630789 151.156177568,-33.925135321 151.1560008,-33.925481197 151.15575456,-33.925892045 151.15574627199999,-33.925903478 151.15559184,-33.926115691500002 151.155441376,-33.926283005500004 151.155275776,-33.926485229 151.15520412799998,-33.926374987500004 151.15513500799997,-33.926345017500005 151.15505923200001,-33.926351252 151.15497584,-33.926193243500002 151.15511324799999,-33.925870159500001 151.15515356799997,-33.925594990500002 151.155140128,-33.925174818500004 151.155144608,-33.924955445500004 151.15527907200001,-33.924527836500005 151.15528355199996,-33.924438592500003 151.155240832,-33.924107701499999 151.1550768,-33.924003269 151.154927808,-33.9238052635 151.1546928,-33.92363227 151.15362681600001,-33.92305026 151.15334179199996,-33.922926291499998 151.1530568,-33.922864279500004 151.15267283200001,-33.922889291499999 151.15215184,-33.922951285 151.151234848,-33.923050297 151.15066486399999,-33.923112309 151.150280864,-33.923050297 151.14997088000001,-33.92288931 151.14967385599999,-33.922678299 151.14925187200001,-33.922319325 151.14883088,-33.921923314 151.14847088,-33.921601321499999 151.14814886400001,-33.921378322500004 151.147801856,-33.92124133 151.147454912,-33.921205347499999 151.147194912,-33.92119234199999 151.14681091199998,-33.921279347499997 151.14640188800001,-33.921403334499999 151.14605491200001,-33.921650346500002 151.14550992,-33.9221213565 151.14477792,-33.9224183555 151.14368796799999,-33.922653361 151.142700416,-33.922760513 151.142548,-33.9227773665 151.14168,-33.922802378500002 151.14104803199999,-33.922790390499991 151.14056502400001,-33.922641391500001 151.13997001600001,-33.922369386 151.13933801600001,-33.922046413 151.13895401600001,-33.921923406499999 151.13812406400001,-33.921724420499999 151.13751606400001,-33.921477427 151.13725088000001,-33.921345170500004 151.13711907199999,-33.92127944 151.13689606400001,-33.921006435500004 151.13674806399999,-33.9206354365 151.13676006399999,-33.920313425499998 151.136810048,-33.919966439500001 151.136921024,-33.9196444285 151.13720704,-33.919359436 151.13760304,-33.919173437 151.13786304000001,-33.919074425 151.138160992,-33.918950438 151.13842099199999,-33.918839419500003 151.138656,-33.918690420499999 151.13888,-33.918467421500004 151.13982096000001,-33.91719242 151.13994496000001,-33.916882415499998 151.139981952,-33.916560404500004 151.13995792,-33.916275412 151.13977193599999,-33.916015413 151.13948694399997,-33.915792414 151.13908995200001,-33.915569433500004 151.13842096,-33.91532244 151.137751968,-33.915049435500002 151.13732995199999,-33.914826455 151.13698297599998,-33.914554449500002 151.13672297599999,-33.914257450500003 151.136614912,-33.91410625 151.13681216000001,-33.913984131500001 151.13682297599996,-33.913977453 151.13811494399999,-33.913220433 151.13839593599999,-33.913055431499998 151.14009788800001,-33.912059428500001 151.140237888,-33.911990423499994 151.14086387200001,-33.911369415499998 151.140936,-33.91128699799999 151.141124,-33.91125399399999 151.14128601599998,-33.911206005 151.141311008,-33.911180993 151.14133008,-33.911111155500002 151.14150323199999,-33.911148507 151.14187801599999,-33.911202416 151.142253856,-33.911241562 151.14286547199998,-33.911263355 151.14311603199999,-33.911262726 151.14320928000001,-33.9112557885 151.14401856000001,-33.911202064500003 151.14454524799996,-33.911164972 151.14497113600001,-33.911139238499999 151.145065792,-33.911136278499995 151.14528684800001,-33.911127176500003 151.14568752,-33.911129156 151.14620448,-33.911146712499999 151.146026272,-33.911061668 151.14546540800001,-33.910646121 151.14390083200001,-33.9094937745 151.143219808,-33.9089923875 151.14336076800001,-33.908848402 151.14429078399999,-33.907903385 151.14463772799996,-33.907564391 151.144701728,-33.907503396499997 151.14574870399997,-33.906701403 151.145805696,-33.906658390499999 151.14582672,-33.906642388 151.14663068799999,-33.906022379 151.14680867199999,-33.905885368 151.14697766399999,-33.905754369500002 151.14735366399998,-33.905344372499997 151.14780265600001,-33.904856379500004 151.14797264000001,-33.904672378500003 151.14876460799999,-33.9037773485 151.148840608,-33.903697354500004 151.14890560000001,-33.90285936 151.14896457599997,-33.902093367499994 151.14897558399997,-33.901948383 151.14904556799999,-33.901044380500004 151.149572576,-33.901073351500003 151.15063155199999,-33.901135363500003 151.15108153599996,-33.901162355 151.15118755200001,-33.901168349 151.15121952000001,-33.900328356500005 151.15173152,-33.900356347 151.153475488,-33.900456321 151.153461472,-33.900676323 151.15342147199999,-33.90130132699999 151.153406496,-33.901538312 151.15420748799997,-33.90238132 151.15499148800001,-33.903207308 151.15510947199999,-33.903329297 151.155851488,-33.904110293 151.15727344000001,-33.902355290500005 151.15733145600001,-33.90231028 151.15740643199999,-33.902228288 151.157627424,-33.901951287500005 151.157669408,-33.901909274 151.15771340800001,-33.901867279 151.15857539199999,-33.900773281500001 151.15889139199996,-33.900384282 151.15842137600001,-33.900181281500004 151.15789040000001,-33.899953287499997 151.15763939199999,-33.899843286500001 151.15830636800001,-33.897993286499997 151.158388352,-33.898002277499991 151.15906736,-33.89816628 151.15914832,-33.898186278499992 151.15949932800001,-33.898270287 151.15982931199997,-33.898350281 151.15998032,-33.898387262499995 151.160381312,-33.898484258 151.16094432,-33.898625265 151.16361529599999,-33.899677230500004 151.16408697599999,-33.899870259499998 151.16412025599999,-33.899801236 151.164837216,-33.898379233500002 151.16535718399999,-33.897349227500001 151.166366208,-33.897739207500003 151.16666918399997,-33.897855202499997 151.16613123199997,-33.898876217500003 151.16651622399999,-33.8990232 151.16759619199999,-33.899437193 151.16812816,-33.898411183 151.16886816,-33.898701189 151.16749721599999,-33.901191196500001 151.16778723199999,-33.901301197500004 151.167965216,-33.901370184 151.168829184,-33.901701167500001 151.169113184,-33.901810169500003 151.1695552,-33.901967179 151.17017616000001,-33.9008461715 151.17055715199999,-33.901643151500004 151.17098918399998,-33.902552149 151.17147817599997,-33.902408145 151.1726072,-33.90475413 151.17333120000001,-33.905029114 151.17351020800001,-33.905391122 151.173873184,-33.906132121 151.174368192,-33.9071430905 151.17454419200001,-33.907510093500001 151.17470620799998,-33.907853102 151.17453827200001,-33.907963325 151.17442524800001,-33.908063169500004</coordinates></LinearRing></outerBoundaryIs></Polygon>

	</Placemark>
</kml>