<?xml version="1.0" encoding="UTF-8"?>
<kml xmlns="http://www.opengis.net/kml/2.2">
	<Placemark>
		<Style>
			<LineStyle>
				<color>ff0000ff</color>
			</LineStyle>
			<PolyStyle>
				<fill>1</fill>
				<color>330000cc</color>
			</PolyStyle>
		</Style>
			<ExtendedData><SchemaData>
		<SimpleData name="STATE_2006">1</SimpleData>
		<SimpleData name="POA_2006">2148</SimpleData>
	</SchemaData></ExtendedData>
      <Polygon><outerBoundaryIs><LinearRing><coordinates>150.93203580799999,-33.827284529 150.93203148799998,-33.827307302500003 150.932015296,-33.8273353855 150.93199043199999,-33.827358510499998 150.93195840000001,-33.827374809 150.9319224,-33.827382986 150.93188857600001,-33.827382357 150.93184752,-33.827735707 150.93178416000001,-33.8279352295 150.93165456,-33.82804647 150.93159948799999,-33.828093996499994 150.93103824,-33.828425905 150.92959571200001,-33.829280734500003 150.929525536,-33.829319066499998 150.929506624,-33.829329001 150.92916531199998,-33.829109794499999 150.928886304,-33.828990821 150.92846630400001,-33.828826818499998 150.92662732799997,-33.827606836 150.92614432,-33.827743828500004 150.92587734400001,-33.8278388445 150.925108352,-33.828226863499999 150.92484035199999,-33.8283798585 150.92426537599999,-33.828785878 150.924128352,-33.82891086399999 150.923992352,-33.82901487099999 150.92385638399998,-33.829145869500003 150.9234184,-33.8295158695 150.92334838399998,-33.82957486599999 150.92325638400001,-33.829656876500003 150.92284140800001,-33.830035867500001 150.92255744,-33.8302708915 150.92229043199998,-33.830490893499999 150.92190544,-33.830792887500003 150.92154547199999,-33.831073884 150.92050249600001,-33.831857914 150.92012649599999,-33.832051905 150.91994848,-33.832105906500004 150.919877504,-33.832161906 150.91934448,-33.83244392 150.918562528,-33.832646920500004 150.91751056000001,-33.832760954500003 150.91647555199998,-33.832663940499998 150.916457568,-33.832663940499998 150.916387552,-33.832647938 150.91596556799999,-33.8325979695 150.91577456,-33.832579969 150.9156256,-33.832563966500004 150.915399584,-33.832530962500002 150.915084576,-33.832497958499999 150.91485657600001,-33.832464973 150.91472659199997,-33.832434966 150.91462857600001,-33.83240396 150.91440057599999,-33.832306983 150.91427859199999,-33.832255978500001 150.91405257599999,-33.832136986500004 150.91374057600001,-33.831883980500002 150.91361859200001,-33.831785986 150.91344659200001,-33.831597989 150.91298659200001,-33.83093099 150.91276057600001,-33.8307840075 150.91265558399999,-33.83072601 150.91220361599997,-33.830445994 150.91199660799998,-33.830256998 150.91173862400001,-33.829979997500004 150.91131062400001,-33.829415007500003 150.91098460800001,-33.829037015499999 150.910763616,-33.828690029499995 150.91061062399999,-33.828416026 150.910580576,-33.8282150235 150.91054659199997,-33.828128018 150.9104856,-33.827769025500004 150.910491584,-33.827512023499992 150.910478592,-33.827326024500003 150.91038057599999,-33.826981018 150.9103496,-33.826808024500004 150.910299584,-33.826693028500003 150.910266592,-33.826592018500001 150.9100616,-33.826317016 150.90988857599999,-33.826142024500001 150.90969859200001,-33.8259960225 150.90890028800001,-33.825381859499998 150.90623497600001,-33.826050005499994 150.90378515200001,-33.826663983499998 150.895908,-33.828552981500003 150.89152284799997,-33.830766987499999 150.88990211199999,-33.833040027 150.88978403199999,-33.833042006500001 150.889694048,-33.833040027 150.88965984000001,-33.8330629855 150.88958713599999,-33.83307998699999 150.88952483200001,-33.833084038500004 150.88952412799998,-33.833144977499998 150.889566976,-33.83319698099999 150.88950396800001,-33.833251981499998 150.88942512,-33.833278973 150.88938515199999,-33.833329015499999 150.88937113599999,-33.833409028 150.889380128,-33.833502009 150.889395968,-33.833573012 150.88937689599999,-33.833637984 150.88933692800001,-33.833673985 150.88925593600001,-33.833726007 150.88919113599999,-33.833786039499998 150.889125952,-33.8338410215 150.88906908800001,-33.833898001499996 150.88902192,-33.833960013499997 150.88900211199999,-33.833985025499992 150.88895891199996,-33.8340020455 150.888863168,-33.833988004 150.88875408000001,-33.833978014 150.88865795199999,-33.833969004499998 150.888584896,-33.833950023500002 150.88853017599999,-33.8339169825 150.88848300800001,-33.833874969 150.888472928,-33.833811958 150.88846787199998,-33.833734017499999 150.88846787199998,-33.833666973500002 150.88847113599999,-33.833609013 150.88848588799999,-33.833448988 150.888495968,-33.833298953 150.88853088,-33.833171969 150.88857299200001,-33.833043986 150.88863312,-33.83292303299999 150.88870009600001,-33.83280603899999 150.88872707199999,-33.832727007 150.88889484800001,-33.832671026 150.88887504,-33.832457018 150.88872707199999,-33.832475999 150.888608992,-33.8323239845 150.88873392,-33.832193041499998 150.888652928,-33.832106017500003 150.88864896000001,-33.832026005 150.88875408000001,-33.831900001500003 150.888787936,-33.831819989 150.888781088,-33.831728007 150.888719872,-33.831369995 150.88867091200001,-33.831182978499996 150.88848588799999,-33.830821988 150.88841712000001,-33.830748987 150.888284992,-33.830375046500002 150.888189952,-33.829914951500001 150.88808700800001,-33.829812998 150.88796496000001,-33.8297390165 150.88777091200001,-33.829736038 150.88743395200001,-33.829802009 150.88709593600001,-33.829910992500004 150.88686246399999,-33.829893954 150.886846112,-33.82989277 150.88641008,-33.830317289500002 150.885923072,-33.830632307500004 150.88560108799996,-33.830929306500003 150.88530009600001,-33.831313311 150.884899104,-33.831449323 150.88463308799999,-33.831292313500001 150.884326112,-33.831382316 150.884079136,-33.83159033 150.883854144,-33.831786337499999 150.883686144,-33.832037327 150.883604128,-33.8322603445 150.88345212799999,-33.83236733 150.88332614399999,-33.832267337499999 150.883324128,-33.83203632799999 150.88333212800001,-33.831867330500003 150.88346614400001,-33.831245342 150.88365308799999,-33.830429344 150.88381411200001,-33.830121337500003 150.88398108800001,-33.829951341 150.88421974399998,-33.829666774 150.884324096,-33.829542324500004 150.88437001599999,-33.829478999 150.88453993599998,-33.829037996 150.884656928,-33.828581971 150.88471417599999,-33.828397026499999 150.88473612799999,-33.828225032 150.884687872,-33.828038015499999 150.88458601599999,-33.827865022 150.88444992000001,-33.827676026 150.88427712000001,-33.827501978 150.88403196799999,-33.827411975499999 150.88380409600001,-33.827364985500004 150.88357404800001,-33.8273749755 150.883112896,-33.827453008500001 150.88279609599999,-33.827447976500004 150.882707168,-33.827474968 150.88256496,-33.827516001 150.88211712,-33.827779977500001 150.88188601600001,-33.8278329985 150.88144608,-33.827796997499995 150.88134096,-33.827767027500002 150.88112892800001,-33.827762976 150.88091507199999,-33.827831019 150.88080816,-33.827901023 150.88070016,-33.8279849945 150.880533856,-33.828269043500001 150.88044707200001,-33.828312962499993 150.88040998400001,-33.8282669715 150.88041289599997,-33.828152031 150.88039811199999,-33.828066006 150.880256992,-33.828064026500002 150.88020192,-33.828147998 150.88005612800001,-33.828317994500004 150.87967596799999,-33.828683036500003 150.87960288,-33.828782048500003 150.879456,-33.829052037499999 150.879400928,-33.829122966500002 150.87925801599999,-33.8292060315 150.87916908799997,-33.829203959499999 150.879063968,-33.829188031 150.87881916800001,-33.829098028499999 150.878607136,-33.829094976 150.87818592,-33.829001995 150.878045888,-33.828957003 150.87794185600001,-33.82886898 150.87789001600001,-33.828811019500002 150.87778883199999,-33.828623004 150.87783203199999,-33.828294962 150.877872,-33.828109018500001 150.87792707200001,-33.828010025 150.87821616,-33.827770986499999 150.87828889599999,-33.827687015 150.87829104,-33.827571982 150.87803292800001,-33.827295962 150.87789395199999,-33.8272080315 150.877806112,-33.827205959499999 150.877716832,-33.827232951 150.87721609600001,-33.82749702 150.87709187199999,-33.827537979 150.87693312,-33.827535000499999 150.8769,-33.827552002 150.876934912,-33.827462998500003 150.87704508799999,-33.827293982500002 150.87717001600001,-33.827210011 150.877242016,-33.82715403 150.87745584000001,-33.827070965 150.877580032,-33.827045046500004 150.877670048,-33.826975024 150.87772512,-33.826904002500001 150.877603072,-33.826859010500002 150.877392128,-33.826813019500001 150.87705804800001,-33.826750027 150.87695184,-33.826748047500004 150.87672396799999,-33.826700965 150.87639097600001,-33.826624023500003 150.876267136,-33.826608002500002 150.87616201599997,-33.826577033500001 150.87573900800001,-33.826570022 150.87561696,-33.826496040500004 150.87561913600001,-33.826410996 150.87572713599999,-33.826298035 150.875907136,-33.826158008500002 150.875928,-33.826058016 150.875931968,-33.825886021499997 150.87583116799999,-33.825683964499994 150.875744032,-33.825639953 150.87561984000001,-33.825652015 150.875388,-33.825747956 150.87494592,-33.825797998500001 150.874611136,-33.825749047500004 150.874260128,-33.825657953499999 150.87396384,-33.82550901 150.87389507200001,-33.825437008 150.87377808,-33.825162967499999 150.87376297599997,-33.825061976 150.87368195199997,-33.824789008499998 150.87365222400001,-33.824662339 150.87359520000001,-33.824687462 150.87100825600001,-33.823871501 150.87088188800001,-33.823861899500002 150.870877248,-33.823832503 150.86913318399999,-33.819010515 150.87010108800001,-33.813976498500004 150.87058208,-33.811474503 150.87059606399998,-33.811255481499998 150.87057507200001,-33.811022492500001 150.87052406399999,-33.810789503500004 150.87044505599999,-33.810569501499998 150.870341056,-33.810376509500003 150.87024905600001,-33.810254502 150.87014208,-33.810140505 150.87002406400001,-33.8100345 150.86989808000001,-33.809939502500001 150.869769056,-33.809856493 150.869589056,-33.809772503 150.869395072,-33.809712507499995 150.86919107200001,-33.809669495 150.86851305600001,-33.809552519500002 150.86824307200001,-33.8095195155 150.86770009599999,-33.809467512 150.86742908799999,-33.809441519499998 150.86664809600001,-33.809350536499998 150.86612912000001,-33.809285546 150.86591113599999,-33.80929154 150.86568214399998,-33.809245549 150.865459136,-33.809228566 150.86524214400001,-33.809192565 150.86503612800001,-33.809129554 150.86486412799999,-33.809053556 150.864692128,-33.808964552500001 150.86452912,-33.808860564 150.86438112,-33.8087425525 150.86425612799999,-33.808609574500004 150.86413612800001,-33.808389572499998 150.86406412799997,-33.808126576500001 150.864028128,-33.807837569499995 150.863996128,-33.807258575 150.86399312,-33.806927573 150.864018144,-33.806595572 150.86405910400001,-33.806261573 150.86415308799999,-33.805595554500002 150.864197088,-33.80521155 150.86424809600001,-33.804778557500001 150.86430409600001,-33.804370558500004 150.86437408,-33.803966555500004 150.86452406399999,-33.803303552500005 150.864579072,-33.80302855 150.864647072,-33.802761558 150.86474208,-33.802519559499999 150.864880032,-33.802321554 150.865062048,-33.802174553 150.86528204800001,-33.802057559 150.86552604799996,-33.801966539 150.86577804800001,-33.801899532 150.86602403200001,-33.801853541 150.866268,-33.801836539500002 150.86651699199999,-33.801851543 150.866768992,-33.801884547 150.86702201599999,-33.801924525499999 150.86727299200001,-33.801956512 150.86753299200001,-33.801988517 150.868052,-33.802061518 150.86809500800001,-33.802067512 150.868310976,-33.802101515 150.86959897599996,-33.802309510500002 150.86960396800001,-33.802286496500002 150.869630976,-33.802239506500001 150.869673984,-33.802199509499999 150.86972796800001,-33.802171500500002 150.86978896,-33.802158495 150.86985296,-33.802159494 150.86986198400001,-33.802161510499992 150.86993692799999,-33.8018414975 150.87001395199999,-33.801132485 150.87004294400001,-33.801012475500002 150.87005894399999,-33.800874484 150.87058790399999,-33.798205489 150.870977888,-33.796225489500003 150.871033856,-33.7958944875 150.87118883199997,-33.79482946099999 150.871358848,-33.794101467499999 150.87152982399999,-33.793184459500004 150.87155782400001,-33.79264746 150.87148681599996,-33.792336456500003 150.87119680000001,-33.792296459500001 150.86925084800001,-33.792025508500004 150.86769788800001,-33.791786525500001 150.867068864,-33.791688512500002 150.86623491200001,-33.791557532500001 150.86529990400001,-33.791349537 150.86445792000001,-33.791148553 150.863953952,-33.791018553500002 150.862964928,-33.790780569500001 150.86297692799999,-33.790756575 150.86314092800001,-33.7905585695 150.86333795199999,-33.79041858 150.86341193600001,-33.790305582 150.863412928,-33.790234579 150.86338092799997,-33.790133569 150.86324294399998,-33.789973581 150.862863936,-33.789623579500002 150.86274195199999,-33.789564583 150.862637952,-33.789462574 150.86258694399999,-33.789375568499992 150.86258995199998,-33.789289580500004 150.862648928,-33.789047582 150.862614944,-33.788989584500001 150.862526944,-33.788945573 150.86242195200001,-33.788914567 150.862298944,-33.78889858299999 150.86221193599999,-33.788853572500003 150.862106944,-33.788823584 150.86189894399999,-33.788691586500001 150.861611936,-33.788156603499999 150.86160892800001,-33.788142599 150.86156492800001,-33.787898602499993 150.86149993599997,-33.787682596499998 150.86144995199999,-33.787552597 150.861366944,-33.787365599 150.86124694399999,-33.787191588 150.86111292799998,-33.786931589 150.86104694400001,-33.786744591 150.861015936,-33.786572596500001 150.86101990399999,-33.786386597499998 150.861059904,-33.78621460299999 150.86113190399999,-33.786144599 150.861274912,-33.786061589500001 150.86138192000001,-33.786034598 150.86159289599999,-33.786066603 150.86171590399999,-33.786082587 150.86184089599999,-33.786027586499991 150.86184291199999,-33.785942597500004 150.86181190400001,-33.785769585499999 150.86172790399996,-33.785596592 150.86169590399999,-33.785467591500002 150.86162790399999,-33.7853515965 150.86149289599999,-33.785134591500004 150.86130089599999,-33.785045588 150.860982912,-33.7850545975 150.860755904,-33.784964595 150.86066889599996,-33.784891594 150.86063689599999,-33.784776598 150.860746912,-33.784592597 150.86083689599997,-33.78452259299999 150.86096192,-33.78443860299999 150.86108691199999,-33.784397588499992 150.86131792,-33.784344586 150.86140688,-33.784302591 150.86153488,-33.784133593499995 150.861589888,-33.784048586 150.86171788799999,-33.783878589499999 150.86186086399999,-33.783795598499999 150.861948864,-33.78376857 150.862161888,-33.783743576500001 150.862285888,-33.783702580499998 150.862411872,-33.783633575499991 150.86259283199999,-33.783450573499998 150.86264784,-33.783350581 150.86270684799999,-33.783094578 150.86267584000001,-33.782921584500002 150.86260985600001,-33.782734568 150.86254185600001,-33.782647581 150.86247385600001,-33.782546571 150.862442848,-33.782374576500004 150.86246284800001,-33.78227458399999 150.86253584,-33.782189576500002 150.86275084799996,-33.782021578 150.863004832,-33.781753568500001 150.86309782399999,-33.781583572 150.86311980799996,-33.78139757299999 150.86308681599999,-33.781297580500002 150.862915808,-33.7810515675 150.86291782399999,-33.780979584 150.86303081599999,-33.780709576500001 150.862983808,-33.780451575500003 150.863003808,-33.780351583 150.863093824,-33.780281579 150.86323680000001,-33.7802125555 150.863342816,-33.780213554500001 150.863430816,-33.780229557 150.86353580799999,-33.780231555 150.8636248,-33.780218549499999 150.86373280000001,-33.780134559499999 150.86376979199997,-33.780049552 150.86377676800001,-33.779777565 150.863745792,-33.779591566 150.863712768,-33.779504560500001 150.86369779200001,-33.779404549500001 150.86363177600001,-33.779216552500003 150.86354777599996,-33.779043559 150.86341177599999,-33.778855562 150.86318876799999,-33.778593565 150.86301577599997,-33.778447581500004 150.862981792,-33.7783755795 150.86309078400001,-33.778263580500003 150.86330278400001,-33.778266559 150.86361779200001,-33.778357560499998 150.86374076800001,-33.778374562 150.86386476800001,-33.778362555500003 150.86393577600001,-33.778348551 150.86404377599999,-33.778250556499998 150.86413673600001,-33.778066555500004 150.86424976000001,-33.777753554 150.86423574400001,-33.77760955 150.86422073599999,-33.777523562 150.86412576000001,-33.777092549 150.86416176,-33.777036549500004 150.86437273600001,-33.777068536 150.86458275199999,-33.777157539499996 150.86470576,-33.777159537500005 150.86490272,-33.777048537500001 150.864992704,-33.7769645475 150.86510272000001,-33.776794532499991 150.865160704,-33.776609532500004 150.86521571199998,-33.77650954 150.86524272,-33.776380539500003 150.86537872,-33.777042543500002 150.86544572799997,-33.777201532500001 150.86551472,-33.77725953 150.86563872,-33.777247542 150.86570972800001,-33.777234518 150.86579772799996,-33.777235517 150.865883712,-33.777308518 150.86595072,-33.7774815115 150.86601872,-33.77756851699999 150.866140704,-33.777627513500001 150.86621171199999,-33.777629511500002 150.86656272,-33.777692522500004 150.866648704,-33.777765523500001 150.86668272,-33.777837525500004 150.86655372800001,-33.778064520500003 150.86655171199999,-33.778150527 150.86656672000001,-33.778236515 150.86674070399999,-33.778325518500004 150.866895712,-33.778499529499996 150.86706272000001,-33.778874524500004 150.86709270399999,-33.77911852099999 150.867088704,-33.779261526 150.86710470400001,-33.779333528 150.86710070399997,-33.77949051899999 150.867132704,-33.779620518500003 150.86718371200001,-33.779721528499998 150.86725171200001,-33.779793512 150.867460704,-33.779926508500004 150.867547712,-33.779970501500003 150.867740704,-33.780031496 150.868125728,-33.780123496500003 150.86823171200001,-33.780125494499998 150.86831971199999,-33.780141497 150.86842572800001,-33.780142496 150.868529728,-33.78020251 150.868563712,-33.780259508499995 150.86857872,-33.7803605 150.868291712,-33.780570493500001 150.86821872,-33.780669505499993 150.86821670399999,-33.780726504 150.868268704,-33.780798506 150.86845872000001,-33.78094550699999 150.86850972799999,-33.781017509 150.86864371199999,-33.781291494 150.86878272000001,-33.7814085065 150.86878070399999,-33.781480508500003 150.86866972799999,-33.781678495500003 150.86866771199999,-33.781778506500004 150.86878672,-33.781952499 150.868943712,-33.782026480500001 150.86915171199999,-33.782173481500003 150.86943171199999,-33.782264483 150.869675712,-33.782411484 150.86978070399999,-33.782427486499998 150.86995872,-33.782387489499996 150.87019171200001,-33.782234476 150.870260704,-33.782264483 150.870329728,-33.782351488499998 150.87034572799999,-33.782423472 150.87034371199999,-33.782508461 150.87039072,-33.782738471500004 150.87045872,-33.7828254585 150.87054672,-33.782827456500002 150.87063670399999,-33.782785461499998 150.87069369599999,-33.78261446599999 150.870766688,-33.782530457500002 150.870836672,-33.782531456500003 150.87099168,-33.782691463 150.87107868800001,-33.782750459500001 150.87137468799997,-33.782898459500004 150.87151267199999,-33.783043462500004 150.87161667199999,-33.783117462500002 150.871737696,-33.783219471500004 150.87189468799997,-33.783293453 150.87198169600001,-33.783309455500003 150.87208768,-33.783311453499998 150.87217568,-33.783327437499999 150.87257769600001,-33.783274453499999 150.87275968,-33.783251439499999 150.87283164799999,-33.783223449 150.87302665600001,-33.783169447500001 150.87320393600001,-33.783145138500004 150.87339865600001,-33.783118424500003 150.87368064,-33.783123419500001 150.87382166399999,-33.783140421 150.874033664,-33.783129432 150.87421065599997,-33.78310442 150.874370656,-33.783035433500004 150.87465660800001,-33.782882401500004 150.874853632,-33.782785406 150.87495862399999,-33.782787404 150.87508361600001,-33.78274640799999 150.87533062399996,-33.782750404 150.87554060799999,-33.782811417 150.87560963199999,-33.7828704135 150.87571161599999,-33.78304340699999 150.87586262400001,-33.783346418500003 150.875932608,-33.783390411500001 150.876125632,-33.783451387500001 150.87623161600001,-33.783424396 150.87632060799999,-33.783382382500001 150.87650160000001,-33.783214384 150.876663584,-33.783088399 150.876788576,-33.783033398500002 150.8769656,-33.7830073875 150.877159584,-33.782996398500003 150.87733558400001,-33.783028385 150.87780758400001,-33.783179363500004 150.87807155199999,-33.783226372 150.87836854400001,-33.783317373500005 150.87863056,-33.78345037 150.87890956800001,-33.783570379499999 150.87919056000001,-33.783617351 150.879488544,-33.783694348 150.87955856,-33.783738359499999 150.87992355200001,-33.783945356 150.88023548800001,-33.78400022699999 150.88023555199999,-33.784000356500002 150.88023577600001,-33.784000282500003 150.88023580800001,-33.784000282500003 150.88023584000001,-33.784000264 150.88052352,-33.783904341499998 150.88075552000001,-33.783848342 150.88096553599999,-33.783616333499999 150.881028512,-33.7835713415 150.88093651200001,-33.783468333500004 150.88093632,-33.783468204 150.88093648,-33.783468074499993 150.88074752,-33.783256342 150.88048652800001,-33.782964338 150.88036752,-33.782830342499999 150.88018851199999,-33.782624345 150.88008153600001,-33.782454348500004 150.88004553600001,-33.78220136099999 150.88004553600001,-33.782061353 150.88013452800001,-33.78157036299999 150.880270016,-33.780823 150.881345504,-33.780960344 150.881929472,-33.781034325500002 150.88212044799999,-33.781059319 150.88242844800001,-33.779552309 150.882580416,-33.778806315 150.88273142400001,-33.7780652975 150.8828464,-33.777496293 150.8828584,-33.777466304500003 150.88288140799997,-33.777441292500001 150.88288838400001,-33.777436297500003 150.88289638399999,-33.777432301499999 150.88328240000001,-33.777241307499999 150.88391481599999,-33.7769306 150.88396636799996,-33.776905273499999 150.884582368,-33.776603279500002 150.88461136,-33.77658428 150.88463536,-33.776561284499998 150.88464035199999,-33.776552275 150.88465536000001,-33.776524284499999 150.88468137599997,-33.776398281 150.88476633600001,-33.775984288 150.884907328,-33.775296273 150.88507929599999,-33.774468268500001 150.883993344,-33.774323284 150.883219328,-33.774220294500005 150.88302137599999,-33.774191305 150.88210633599999,-33.771984292 150.88192048,-33.771541087500005 150.882967296,-33.7716803 150.883117312,-33.771627297499997 150.88386131199999,-33.771381284499995 150.88413027199999,-33.771305286500002 150.884308256,-33.771259277 150.88434528,-33.771261275 150.88442425599999,-33.771267287500002 150.88458627200001,-33.770344267 150.88472124800001,-33.769596256500002 150.884768224,-33.769504256 150.88571222399997,-33.769628261500003 150.88578620800001,-33.769210254 150.88579619199999,-33.76891325499999 150.88581020799998,-33.76883426 150.88608099199999,-33.767317001 150.88490019199998,-33.76715927 150.88454934399999,-33.767112354 150.88458121599999,-33.767023258 150.88494601599999,-33.765002003500001 150.88501014400001,-33.76464327 150.88500236799996,-33.764624326 150.88519513599999,-33.764657256 150.88524012799999,-33.764408264499991 150.885419136,-33.763412243 150.88561209599996,-33.762335247 150.885506112,-33.7623202435 150.88552211199999,-33.762228243 150.88551712,-33.762227244 150.885596096,-33.761780247 150.885628064,-33.761579244499998 150.88567408,-33.761323241500001 150.88570608000001,-33.761136243500005 150.88572508799999,-33.761025243500001 150.885732064,-33.760986245499993 150.88576006400001,-33.760831234 150.88578508800001,-33.760680237 150.88581206399999,-33.76052924 150.88584006399998,-33.760375246 150.88586608,-33.760222251 150.88589308799999,-33.760069237499998 150.88592003199997,-33.759917241499998 150.88594704,-33.759763247500004 150.88597504000001,-33.75960424 150.88600304,-33.759441236500003 150.886032032,-33.759279250500001 150.88604204800001,-33.759220235500003 150.88605337599998,-33.759157150500002 150.88606105599999,-33.75911424899999 150.88607196800001,-33.759051127 150.88609305599999,-33.758952244500001 150.88609404799999,-33.758944234 150.886114048,-33.758837248500001 150.886124032,-33.7587902215 150.88613462399999,-33.7587303185 150.88615305599998,-33.758626219 150.88615648000001,-33.758606239 150.88617488,-33.758499198 150.886181056,-33.758463215500001 150.88619360000001,-33.7583932115 150.88621001600001,-33.758301229499999 150.88621283200001,-33.758285208499998 150.88623356799999,-33.758167197 150.88623900799999,-33.758136228 150.886252544,-33.758060193 150.886268,-33.757973224499999 150.886271712,-33.757952208500001 150.886290656,-33.75784526 150.88629702399999,-33.757809222 150.886309216,-33.7577382375 150.886325024,-33.7576462185 150.886329792,-33.757619208500003 150.88634976,-33.757506210500004 150.88635401600001,-33.757482216 150.88637171199997,-33.757382205 150.886383008,-33.757318232 150.88638950399999,-33.757281195 150.886393728,-33.7572572005 150.886412,-33.757153230500002 150.88641612799998,-33.757129217500001 150.88644,-33.756990227 150.88646902400001,-33.756827223500004 150.8864984,-33.756675190500005 150.88652297600001,-33.756548225 150.88652787199999,-33.756524230499991 150.88653299200001,-33.756499218499997 150.88655782399999,-33.756372197499999 150.88656796800001,-33.756320231 150.88658153599999,-33.756240255500003 150.88659699199999,-33.756149217 150.88660432,-33.756106241499999 150.88662716799999,-33.755972246 150.88663398400001,-33.755932230500001 150.88664988799999,-33.755838232 150.88665699200001,-33.755796218500002 150.88667286399999,-33.75570222 150.88667996800001,-33.755660225 150.88669728,-33.755559196500002 150.886717984,-33.755438225 150.886719712,-33.755428198 150.886723488,-33.755406201500001 150.88674185599999,-33.755299216 150.88674272,-33.755294202500004 150.88676038400001,-33.7551911945 150.886766048,-33.755158227500004 150.88677872,-33.755084209 150.88678096000001,-33.755071222 150.88678812800001,-33.755026248500002 150.886795296,-33.754981238 150.886806944,-33.754908218499999 150.88681305599999,-33.754874215500003 150.88684038400001,-33.754722182500004 150.88685296,-33.754652215499995 150.88686713600001,-33.754570242 150.88687993600001,-33.754496223499999 150.88689328000001,-33.754418246 150.886906944,-33.754338233499993 150.88691936000001,-33.754267193499999 150.88693494399999,-33.754178227 150.88694579200001,-33.75411321799999 150.88696096000001,-33.754022216500005 150.88696832,-33.7539791855 150.886987936,-33.753864226499999 150.88699196799999,-33.753841231 150.88701494399999,-33.753710232499998 150.887018496,-33.753689253499999 150.887041952,-33.753551225 150.88706496,-33.753417211 150.88707891199999,-33.753336199499998 150.887087968,-33.753283197 150.887110912,-33.753149201500001 150.88713337600001,-33.753015169 150.88713990400001,-33.752976208 150.88715641600001,-33.752881173500001 150.88717990399999,-33.752746197500002 150.88718992,-33.752691197 150.887255904,-33.752303215 150.88727670399999,-33.752187941500004 150.88681491200001,-33.751893218 150.885883904,-33.751275225499995 150.885063008,-33.75071399099999 150.88430390400001,-33.750232251 150.88412492800001,-33.750107246500001 150.88299696000001,-33.7493442695 150.88228496,-33.748932256 150.88162595200001,-33.7485362635 150.88145795200001,-33.748425282 150.88075740799999,-33.747990217500003 150.879799072,-33.747352559500001 150.87983299199999,-33.747305995 150.879852,-33.747275007500001 150.88017894399999,-33.746732273 150.88073792,-33.745805275 150.88089891199999,-33.7455392635 150.881436896,-33.7446472675 150.88209984,-33.74353625 150.882749824,-33.742445249500001 150.88279081600001,-33.742391248 150.882793824,-33.742386234499996 150.88289500799996,-33.74223000199999 150.882983008,-33.7421429965 150.88325382400001,-33.741875227500003 150.883404,-33.741728004500004 150.884471776,-33.740750205499999 150.88508675200001,-33.7401862145 150.88576099199997,-33.739568 150.886763296,-33.740307278499998 150.88705091199998,-33.740524709 150.88773673599999,-33.741043171500003 150.88775472,-33.741056177 150.88837072000001,-33.741522173500002 150.88961571199999,-33.742463157499998 150.89007769599999,-33.742812141500004 150.890849696,-33.743394151499999 150.89161270400001,-33.742692132 150.89248566399999,-33.741886105500001 150.89263267199996,-33.741748114 150.89310864000001,-33.741306112 150.89314963199999,-33.741268113 150.893886624,-33.740576102 150.89450259200001,-33.740005099500003 150.89464659199999,-33.739870086499998 150.895074016,-33.739475000500001 150.89626099200001,-33.738370994500002 150.89690956800001,-33.737767062 150.897058528,-33.737629052 150.89706252799999,-33.737624057 150.89636352,-33.7371190625 150.89600854400001,-33.736855067500002 150.89326153600001,-33.734814092 150.89713049599999,-33.735324063 150.898073504,-33.7354490305 150.89823750400001,-33.735471045499992 150.898408512,-33.735494041 150.89857049599999,-33.735516037499998 150.89873350400001,-33.73553803399999 150.89889849599999,-33.735560030500004 150.899062496,-33.735582045500003 150.89922348799999,-33.735604042 150.89938051199999,-33.73562602 150.899547488,-33.735648016500001 150.89970950399999,-33.735670013 150.899871488,-33.735692028 150.90004051199998,-33.735715023499999 150.90020348799999,-33.735736021 150.90035846399999,-33.735757018500003 150.90053248000001,-33.735781013 150.90069648,-33.735803028 150.900849472,-33.735824025500001 150.90085945600001,-33.735825024500002 150.90101446400001,-33.735847021 150.90118246399999,-33.735870016500002 150.90134048,-33.735890995499993 150.90150848,-33.7359140095 150.90166448,-33.735935007 150.901829472,-33.735958002499999 150.90199145599999,-33.735979 150.90215046399996,-33.736000996500003 150.90231648,-33.736023011500002 150.90367248000001,-33.736205976500003 150.904117472,-33.736265990500002 150.91817299199997,-33.738157874500004 150.91789552,-33.739458609499998 150.91769536000001,-33.740395856500001 150.91768636800001,-33.740434854500002 150.91751136,-33.741343852 150.91749094399998,-33.741450800500004 150.91748940799999,-33.741458848 150.9172664,-33.742632876500004 150.91713440000001,-33.743297877499998 150.91708841600001,-33.7435208765 150.91699942400001,-33.744032864 150.91680742400001,-33.745017878 150.91674944,-33.745316875 150.91667347200001,-33.745754881 150.916645472,-33.745919882500004 150.91656947199999,-33.746303887 150.916374464,-33.747517894 150.91634268799999,-33.74770023 150.91820352,-33.74779058399999 150.91868377599999,-33.747813635 150.91982784000001,-33.747868432 150.92033363199999,-33.747906597499998 150.92046505599998,-33.747921545499999 150.920636032,-33.747987868 150.92126496,-33.748291268 150.921541792,-33.748424819500002 150.92271936,-33.748977951 150.923621408,-33.749393812500003 150.92292944,-33.750345822500002 150.92359440000001,-33.750685815499999 150.926029376,-33.751928793499999 150.926156384,-33.752004791499999 150.92642137600001,-33.752163799 150.92646336000001,-33.752254800499998 150.92645936,-33.752315795 150.92642736,-33.752482794500004 150.926343968,-33.75292178099999 150.92627139199999,-33.753303806 150.92728236799996,-33.753432788 150.92734236800001,-33.753457781500003 150.92761238400001,-33.753676784500001 150.92763337599999,-33.753698781 150.92764438399999,-33.753710787499998 150.92766137599997,-33.753735781 150.927686368,-33.753788783499999 150.92769836799999,-33.753845782 150.92769536,-33.753902780499999 150.92761436799998,-33.754308781499994 150.9274424,-33.755138784 150.92782441599999,-33.755191786499999 150.927665408,-33.756005786499998 150.92688940799999,-33.755901798 150.92676742399999,-33.755894805 150.92673747200001,-33.755896026 150.92664544,-33.755898801 150.92661443200001,-33.755903796 150.92655443199999,-33.755912805500003 150.926494432,-33.755920797499996 150.92646444799999,-33.755928808 150.92637744000001,-33.755951803500004 150.926222432,-33.756008802 150.92616844799997,-33.756027801500004 150.92587244800001,-33.755850793500002 150.92569843199999,-33.755768801500004 150.92548236799999,-33.755685718 150.925238976,-33.755592089499999 150.92519142399999,-33.755573811499993 150.92509104,-33.755541233 150.925040448,-33.755524823500004 150.924989888,-33.755510449 150.924938432,-33.755495815499998 150.92483446399999,-33.755471192 150.92473145599999,-33.755446809 150.92452048000001,-33.755409809 150.92389145600001,-33.755319825 150.92356345600001,-33.755245843499999 150.92353945599999,-33.755410845 150.92353945599999,-33.755487842 150.923545472,-33.755533833 150.92356246400001,-33.755603837 150.92358745599998,-33.755671843 150.92362060799996,-33.75573663 150.92363145600001,-33.755757831 150.92367248,-33.755819843 150.922872512,-33.75626684 150.92294451199996,-33.756355843500003 150.922996512,-33.75641484 150.92310550400001,-33.7565198275 150.923188512,-33.756595844 150.92344451199997,-33.756789835 150.923818496,-33.757073828499998 150.922948512,-33.757957832500004 150.92283219199999,-33.758066742 150.92282352000001,-33.758074863499999 150.922793536,-33.758102854 150.92262752,-33.758239846500004 150.92249654400001,-33.758337859499996 150.92241766399997,-33.758391232 150.92240652800001,-33.758398854 150.92236054399996,-33.758428861 150.92231353599996,-33.758457850500001 150.92217152000001,-33.758543857 150.92201152000001,-33.758628846 150.92190352,-33.758681848500004 150.92184553600001,-33.758707859499999 150.921816544,-33.758720846500005 150.92176352000001,-33.758747856500001 150.92167657600001,-33.758803856 150.92161955200001,-33.758840856 150.92159257599997,-33.758857857500004 150.92156656,-33.758878855 150.92154057600001,-33.758899852500001 150.92151555199996,-33.758919851 150.92149155199999,-33.758941847500004 150.921467552,-33.75896388099999 150.921444576,-33.758986876500003 150.92137955199999,-33.759056880500005 150.921321568,-33.759131879500003 150.92127056000001,-33.759209875499998 150.92122556800001,-33.759290868500003 150.92117856,-33.759401868499999 150.92114457599999,-33.759517882 150.920998016,-33.760285003 150.92006960000001,-33.760175871499996 150.91998358399999,-33.760684899 150.91991660799999,-33.761050884500001 150.91944963200001,-33.763589898500001 150.919443616,-33.763753882499998 150.919441632,-33.763818891499994 150.91927465599997,-33.764503891 150.91925977599999,-33.76456446 150.91924467199999,-33.764625917 150.91918764799999,-33.765019911499998 150.91883968,-33.766903914499999 150.91959865600001,-33.766998912 150.92007065600001,-33.766992899500003 150.92145564800001,-33.766972882499999 150.92145366400001,-33.76720589 150.921445664,-33.767261889499999 150.92143065600001,-33.767302885500001 150.92140867200001,-33.767341883500002 150.921379648,-33.7673778845 150.921357664,-33.767398900499998 150.921345664,-33.767409889500001 150.92129164799999,-33.767445890499999 150.92021568,-33.767951884 150.92014470399999,-33.76799991 150.920098688,-33.768030916 150.92007568,-33.768045901 150.92005568,-33.768065918 150.92003670400001,-33.768084917499991 150.919997696,-33.768122916499998 150.91993968,-33.768179915 150.91987769599999,-33.76826490399999 150.91982768,-33.768355905500002 150.91978969600001,-33.768450903 150.91976569600001,-33.768548916 150.91975968,-33.768598903 150.91979670399999,-33.769010916500001 150.918613728,-33.76885091 150.91849171199999,-33.7695589235 150.91846771199999,-33.769640934 150.91822172799999,-33.770470936500004 150.91819472,-33.770494931 150.91818073600001,-33.770507936500003 150.91816672,-33.770520923500001 150.918127712,-33.77053293 150.91808572799999,-33.770533929 150.917362752,-33.7703979355 150.91731574399998,-33.770376919500002 150.91730076799999,-33.770363932500004 150.917294752,-33.770355922 150.91728275200001,-33.770340937 150.91726976000001,-33.770307933 150.91726976000001,-33.770271932 150.91742272,-33.769499927 150.91650374400001,-33.76937594 150.916416768,-33.7698259525 150.91640374400001,-33.76996794 150.916383744,-33.770177952 150.9161768,-33.771218947 150.91614179199999,-33.771377954500004 150.9160488,-33.771872940500003 150.9159688,-33.772296942 150.9159968,-33.772314942500003 150.916306784,-33.7725019405 150.916622784,-33.772678948500001 150.917027776,-33.772882948 150.917410784,-33.773051945499994 150.9174448,-33.773066949 150.917869792,-33.773235928 150.91829964799999,-33.773392438 150.918335232,-33.773404518500001 150.91873174400001,-33.773538921 150.91937475200001,-33.773731931500002 150.919750752,-33.773824931 150.91989276800001,-33.773859914499994 150.92054275199999,-33.774031909 150.92154172799999,-33.774224901 150.92194873599999,-33.77430389599999 150.92205571199997,-33.7743238945 150.92363168,-33.774489876499999 150.924443712,-33.774545117500004 150.92441769599998,-33.774569870500002 150.92412969599999,-33.774793868499998 150.92367968,-33.775186864 150.92362470399999,-33.775271871500003 150.92304572800001,-33.7758488865 150.922955712,-33.775919889500003 150.92284073600001,-33.776047891 150.92270272,-33.776201885 150.92266473599997,-33.776300897 150.92257472,-33.776356896499998 150.92255571199999,-33.7764278995 150.92217574399996,-33.776807889499999 150.92203075200001,-33.776977904499994 150.92192176,-33.777118911500004 150.92182976000001,-33.777260917500001 150.92179276799999,-33.777345906500003 150.92153475200001,-33.777799915 150.92147977600001,-33.777869919 150.92144278399996,-33.77795590699999 150.92138777599999,-33.778025911 150.921350784,-33.778111917499999 150.9212048,-33.778323909 150.921167776,-33.778408916499998 150.92109478399996,-33.778478902 150.92098480000001,-33.778648935500001 150.921001792,-33.77869291 150.92089379199999,-33.778790923 150.92080179199999,-33.778946933500002 150.92074777600001,-33.779002933 150.920370816,-33.779254921499991 150.92029708800001,-33.779323741500001 150.920304832,-33.779420922 150.920314816,-33.779550921499997 150.920327808,-33.77970893 150.920394816,-33.780150932 150.920451808,-33.780626937 150.92042582400001,-33.781038932 150.92036582399999,-33.781528923 150.92033984,-33.78185493 150.92033984,-33.782146934 150.920382848,-33.782473921499999 150.92042784,-33.7826499305 150.92045984000001,-33.782773936 150.920540864,-33.783078927 150.92054585599999,-33.783100923500001 150.92064985599998,-33.783417902499991 150.920822528,-33.78386214299999 150.92088185599999,-33.784024906 150.920928,-33.784186041 150.92096585600001,-33.784347916 150.92099584,-33.784508903 150.92101884799999,-33.784672905500003 150.92103686399997,-33.784887912499997 150.92104185599999,-33.785049917 150.921040608,-33.785103918499999 150.92103686399997,-33.785266903500002 150.92102288000001,-33.785427909 150.92100188800001,-33.785588914500003 150.92097388799999,-33.785749901500004 150.92093788799997,-33.785909908 150.92087587199998,-33.786193901499999 150.92072089600001,-33.786533913 150.92049289600001,-33.786941912 150.91998592,-33.787708922 150.919912928,-33.787824935499991 150.91960592000001,-33.788310930500003 150.91937296,-33.788677933500004 150.919329952,-33.788755929499999 150.91931011200001,-33.788794946 150.91926995200001,-33.788873922500002 150.919217952,-33.788994931 150.91917395199999,-33.789117937500002 150.91916150399999,-33.789159988 150.91913696,-33.789242923499998 150.91912774400001,-33.789284918500002 150.91909993600001,-33.789411921 150.91907696000001,-33.789581936 150.919067936,-33.789752931500004 150.91910099200001,-33.79100392 150.91909996800001,-33.7911589315 150.91910198400001,-33.79122292299999 150.919103968,-33.791301936499991 150.91913299199999,-33.791802935 150.91913996799997,-33.792604928499998 150.91943596799999,-33.792603929500004 150.919554976,-33.792609923499995 150.91965897599999,-33.792620931 150.919789984,-33.792652936 150.92015798400001,-33.79293791 150.92022598399998,-33.793018903 150.92075456000001,-33.793651029499998 150.92135398400001,-33.7943679045 150.921647968,-33.794715889500004 150.922019936,-33.79491889 150.92208294400001,-33.794944882499998 150.92300294399999,-33.795316899 150.92316393600001,-33.795366867499993 150.92334195199999,-33.795422867 150.92417296,-33.795683865 150.924303936,-33.795764876500002 150.92455795199999,-33.795921867499999 150.92517692800001,-33.796283857 150.92542092799997,-33.796445861500004 150.92557792,-33.796589847 150.92566390399998,-33.796720845499998 150.92571792,-33.796817859500003 150.92573990400001,-33.796859854499999 150.92577392000001,-33.796894856500003 150.92584592,-33.796987856 150.92585292800001,-33.797010851499998 150.92591990400001,-33.797223860500004 150.926016928,-33.797488854500003 150.92617990399998,-33.797810828499998 150.92652896000001,-33.7987288355 150.92656294400001,-33.798818838 150.92706595199996,-33.800141828500003 150.92719696,-33.800486835 150.92741696,-33.801082831 150.92800896,-33.802533823 150.92802393599999,-33.802584809 150.92813894400001,-33.802790825 150.928289952,-33.803110819499999 150.92841894399996,-33.803319814 150.92875993600001,-33.803764813 150.92922793599999,-33.804189795 150.930347936,-33.805026790500001 150.93027696,-33.805094796500001 150.930246208,-33.805653607499998 150.93082496,-33.805860789 150.93163795199999,-33.806278778 150.93269891200001,-33.806817757 150.932712928,-33.8068247685 150.932848288,-33.80689249699999 150.932965696,-33.806951734 150.93350892800001,-33.807222907 150.93372668800001,-33.807339623499999 150.93435673600001,-33.80767686 150.93533052800001,-33.808032263500003 150.9354792,-33.8080865425 150.93677952,-33.808401542 150.937208992,-33.808455987500004 150.93717011199999,-33.809129184 150.93713772800001,-33.80969106599999 150.93712585599997,-33.809893012 150.9371208,-33.809983477 150.93711577600001,-33.810069687 150.93710243199999,-33.810291446500003 150.93709344000001,-33.810449492 150.937013888,-33.810674396499998 150.93658403200001,-33.811890845499995 150.93597852799996,-33.813581135 150.93562572799999,-33.8145611355 150.935582176,-33.814680923 150.93474803199999,-33.815527464499993 150.93446976000001,-33.815809885500002 150.93443123199998,-33.815853804500001 150.9343992,-33.815900961 150.934285792,-33.816116523 150.933873952,-33.817498565500003 150.93384659200001,-33.817618982 150.93370944,-33.818232867500001 150.93351577600001,-33.819186968 150.93343584,-33.819581702500003 150.93328752,-33.820311065 150.93306576000001,-33.8214306665 150.9326784,-33.823386449499999 150.93234972799996,-33.825088986 150.93193571199998,-33.827168608 150.93196345600001,-33.827175897 150.93199440000001,-33.827193268500004 150.93201817600001,-33.827217115 150.93203292800001,-33.827245734500003 150.9320376,-33.827276611 150.93203580799999,-33.827284529</coordinates></LinearRing></outerBoundaryIs></Polygon>

	</Placemark>
</kml>