<?xml version="1.0" encoding="UTF-8"?>
<kml xmlns="http://www.opengis.net/kml/2.2">
	<Placemark>
		<Style>
			<LineStyle>
				<color>ff0000ff</color>
			</LineStyle>
			<PolyStyle>
				<fill>1</fill>
				<color>330000cc</color>
			</PolyStyle>
		</Style>
			<ExtendedData><SchemaData>
		<SimpleData name="STATE_2006">1</SimpleData>
		<SimpleData name="POA_2006">2766</SimpleData>
	</SchemaData></ExtendedData>
      <Polygon><outerBoundaryIs><LinearRing><coordinates>150.85187504000001,-33.7828146915 150.85199904000001,-33.783105678 150.852285024,-33.783780687499998 150.85269504,-33.784747682500004 150.85318208000001,-33.785897679500003 150.854084288,-33.788024458 150.85412208,-33.788114664 150.854356064,-33.788726662500004 150.85438806400001,-33.788892663 150.849438144,-33.787702724500001 150.848179168,-33.78739975 150.844611552,-33.786544476499998 150.84318259200001,-33.786201912 150.837604736,-33.784880438499997 150.83744332800001,-33.784841847500005 150.834374368,-33.784108896 150.833035392,-33.783795894500003 150.832879392,-33.783758894500004 150.83266739199999,-33.783709906499993 150.8316744,-33.783476917500003 150.831389376,-33.783410909499999 150.83052243200001,-33.783191925 150.829095424,-33.782838945 150.82772646399999,-33.7825059635 150.827181344,-33.782383179 150.82704608,-33.7823529315 150.82712544,-33.78199997 150.82732246399999,-33.781055175 150.82736441599999,-33.780853969 150.82745641599996,-33.780412966 150.82754560000001,-33.779984173 150.827586432,-33.779787943500004 150.827610432,-33.779675944499999 150.82771737600001,-33.779162939500004 150.82776953600001,-33.778912172 150.827847392,-33.778537954 150.82797840000001,-33.777910952 150.8280064,-33.77777494 150.828034368,-33.777639945499999 150.82806236799999,-33.777503952 150.82809136,-33.777368939 150.82811936,-33.777232945500003 150.82814736,-33.777097951 150.82817635200001,-33.776961939 150.828204352,-33.776826944500002 150.82823936,-33.776659945 150.82836934400001,-33.776033942 150.82845532799999,-33.77562194699999 150.82849932799999,-33.775410954500003 150.82861132799999,-33.774874935500002 150.828722336,-33.774339934 150.828844288,-33.77375492699999 150.82886028799999,-33.773674933 150.82888630400001,-33.773549928499996 150.82891328,-33.773423925 150.82893830399999,-33.773300918499999 150.82896428800001,-33.773177930499998 150.82931225599998,-33.771498926 150.82938825599999,-33.77113492 150.83448016,-33.7719828675 150.83507616,-33.7720738505 150.836290144,-33.7722648445 150.83651113600001,-33.772294833 150.83628713600001,-33.772020848 150.83619113599997,-33.7718838555 150.83567814399998,-33.77115786 150.835570144,-33.770999851500001 150.83544512,-33.770799848 150.83532812799999,-33.770616846 150.83522112,-33.770424853 150.83514614399999,-33.770274855 150.83510313599999,-33.770197858 150.83419312000001,-33.768819867 150.83404214399999,-33.768610872499998 150.83287212799996,-33.76703787299999 150.831935136,-33.76583689 150.83120614399996,-33.764889893499998 150.83052412800001,-33.764014917499999 150.83000313599999,-33.763216901499995 150.829831136,-33.76299891599999 150.82983414399999,-33.762996918 150.82987312,-33.762976901 150.82991612799998,-33.762966911 150.82993312,-33.762966911 150.83021308799999,-33.761426915500003 150.83047705600001,-33.759816916 150.830627072,-33.759109901500004 150.83075504000001,-33.758599912 150.830805024,-33.758406901499995 150.83082604800001,-33.758250909499999 150.830816032,-33.75823191 150.83081104,-33.758197907 150.83081504,-33.758178907500003 150.83080956800001,-33.758170638 150.83146403200001,-33.758260899499994 150.83156502400001,-33.758272887499999 150.83173004799997,-33.758248893 150.831819008,-33.758249892 150.831840992,-33.758238884500003 150.83186601599999,-33.758232890500004 150.831884,-33.758232890500004 150.83189299200001,-33.758232890500004 150.831918016,-33.758239883500003 150.83194,-33.75825189 150.83203401599999,-33.75829488399999 150.83226,-33.758361891 150.833244992,-33.758495868 150.83456697599999,-33.758693855 150.83494697599997,-33.758750853500004 150.83644892800001,-33.758971836 150.83793590400001,-33.759225822499992 150.83870992000001,-33.759345795 150.83951289599997,-33.759453798 150.84127388799999,-33.759756772499998 150.842809856,-33.759985765499998 150.84303084800001,-33.76000976 150.843485856,-33.76006074599999 150.8438488,-33.760119742500002 150.84476480000001,-33.760216738 150.84649100799996,-33.760476996 150.84707078400001,-33.760562706500004 150.84957772800001,-33.760932688 150.84990688,-33.760981306 150.85011216000001,-33.761011646 150.85025270400001,-33.761011664500003 150.85031571199997,-33.761018676 150.8504008,-33.761025077 150.85052371200001,-33.76103466 150.85132870399997,-33.76119265 150.851358688,-33.761054658500001 150.852754688,-33.761262635500003 150.85379366399997,-33.761416629500005 150.85428464,-33.761489630500002 150.85509465600001,-33.761610620500001 150.85538361600001,-33.761653614499998 150.85542662399999,-33.761659608500004 150.855487616,-33.761668618 150.855635616,-33.76170362 150.85644060800001,-33.761818597500003 150.85654563200001,-33.7618346 150.85677561599999,-33.761809588 150.85688163200001,-33.761783595499999 150.85711260799999,-33.761743598500004 150.85728857599997,-33.761761599 150.857515584,-33.761836598 150.85772358400001,-33.761969576 150.857895584,-33.762143568500001 150.858134592,-33.7624775675 150.858167584,-33.76256357399999 150.85821859199996,-33.762664584 150.85828259199999,-33.762923584 150.85827862400001,-33.763094579499999 150.85814860799999,-33.763364568500002 150.85804060800001,-33.763448577 150.85789260799999,-33.763703599499998 150.857852608,-33.763903603 150.85787062399999,-33.763903603 150.857919616,-33.764040595499999 150.85800361599999,-33.764235585500003 150.85827763200001,-33.764554581 150.85852262399999,-33.764644583500001 150.85878563200001,-33.764706577 150.858923616,-33.764823571 150.85900860800001,-33.764939584499999 150.85907462399999,-33.765126582500002 150.85906361599999,-33.765570582500004 150.85918460799999,-33.765672573 150.85929062400001,-33.7656885755 150.85946761599999,-33.765648578499999 150.86021462400001,-33.765403564499998 150.86061961600001,-33.765425561 150.86081059199998,-33.765571563 150.860860608,-33.7656725545 150.860858624,-33.765758561 150.86087260799997,-33.765901566 150.86078035200001,-33.766167725500004 150.86073961599996,-33.766286551 150.86069561599999,-33.766628560500003 150.860711616,-33.766714548499991 150.860724608,-33.766886561500002 150.86077363199999,-33.767059555 150.86094662400001,-33.767191552500002 150.86129763199997,-33.76728255399999 150.86140060799997,-33.767370558499998 150.86157260799996,-33.767559554500004 150.861656608,-33.767733565500002 150.861668608,-33.767805549 150.86171763199999,-33.768106562500002 150.861783616,-33.768293560499991 150.86186860800001,-33.768437564500005 150.862306144,-33.76885061399999 150.862201664,-33.768923559500003 150.86211766400001,-33.768982556 150.86203865600001,-33.769040553499998 150.861615648,-33.769352556 150.86147264,-33.769499557 150.857790784,-33.77172962099999 150.857712768,-33.771773614 150.856541824,-33.772451639 150.855474816,-33.773081638 150.853764864,-33.774073645 150.85323888,-33.774378673 150.848221024,-33.777267725500003 150.84860902399998,-33.777763729 150.84984604799999,-33.7793527125 150.85035702399998,-33.780013699 150.85091104,-33.780698698500004 150.85092976000001,-33.78072876099999 150.85094902399999,-33.780759711500004 150.85096758399999,-33.780790791500003 150.85098604800001,-33.780821705 150.85100403199999,-33.780852711 150.85103504,-33.780905713500005 150.85106502400001,-33.780960714 150.85109334399999,-33.781014826499998 150.85112204799998,-33.781069697500001 150.85115004799999,-33.781125697 150.85118704000001,-33.781203711499998 150.85122236800001,-33.781281818499991 150.85125804800001,-33.781360702500002 150.85129369599997,-33.781439586499999 150.85132902399999,-33.781517712 150.851362048,-33.781588696500002 150.85139548800001,-33.781659625499998 150.851429024,-33.781730702499999 150.85146326399999,-33.781801668500002 150.851497024,-33.781871709499995 150.85158102400001,-33.782122680500002 150.85187504000001,-33.7828146915</coordinates></LinearRing></outerBoundaryIs></Polygon>

	</Placemark>
</kml>