<?xml version="1.0" encoding="UTF-8"?>
<kml xmlns="http://www.opengis.net/kml/2.2">
	<Placemark>
		<Style>
			<LineStyle>
				<color>ff0000ff</color>
			</LineStyle>
			<PolyStyle>
				<fill>1</fill>
				<color>330000cc</color>
			</PolyStyle>
		</Style>
			<ExtendedData><SchemaData>
		<SimpleData name="STATE_2006">1</SimpleData>
		<SimpleData name="POA_2006">2152</SimpleData>
	</SchemaData></ExtendedData>
      <Polygon><outerBoundaryIs><LinearRing><coordinates>151.00791321599999,-33.778186787 151.00794620799999,-33.778215776499998 151.008214208,-33.778506763 151.00833020799999,-33.77869476 151.008630208,-33.779085757499999 151.00874723199999,-33.779201771 151.00883020800001,-33.779303761499996 151.00891523199999,-33.77936275799999 151.009015232,-33.779492757500002 151.009149216,-33.779623756 151.00933123199999,-33.77988475399999 151.00951222399999,-33.780216736500002 151.00951123199999,-33.780259749 151.00956022400001,-33.780388749499998 151.00955820799999,-33.780460751500001 151.00959020799999,-33.780575747500002 151.00964822399999,-33.781048737 151.00962620799999,-33.781249739499998 151.00956822399999,-33.78156374 151.00943724800001,-33.782062759 151.00940025599999,-33.782176756 151.00929424,-33.782332766499998 151.00903126399999,-33.782571768 151.00868524800001,-33.782709759499994 151.00861728000001,-33.782722765 151.00825427199999,-33.7828607565 151.00820128000001,-33.78290277 151.00813228800001,-33.782930760500001 151.007576288,-33.783294785 151.007540288,-33.783365788 151.00699532799999,-33.784001781 151.00687030399999,-33.784228776 151.006777312,-33.784513787 151.00670336,-33.784755785499996 151.00659235199998,-33.785155792499999 151.006361344,-33.785524793500002 151.00625033599999,-33.785851799500001 151.00626435199996,-33.786023794 151.00627936,-33.786095796 151.00627836800001,-33.78616779799999 151.006293376,-33.786267809 151.00628537599999,-33.786611798 151.00623139199996,-33.786724796 151.006193376,-33.786867801 151.00610537599999,-33.786966794500003 151.00600038399998,-33.787079792500002 151.00587939199997,-33.787120807 151.00579436800001,-33.787119808 151.005674368,-33.787102806500002 151.005539392,-33.787029805499998 151.00500236799999,-33.786519816 151.00476838399999,-33.786244813499998 151.004583392,-33.786098811500004 151.00453337600001,-33.786040814 151.004347392,-33.785908816500005 151.0041104,-33.78577582 151.00390640000001,-33.78570182 151.00382140799999,-33.78568583599999 151.00377040000001,-33.785655829 151.00371942399997,-33.785641843 151.003583424,-33.785595833500004 151.00312342399999,-33.785502834 151.00298540799997,-33.785500836 151.002421408,-33.785463854500001 151.00211440000001,-33.785372853 151.00180944,-33.785239856499999 151.00165744,-33.785136848500002 151.00115744,-33.784907855500002 151.00111744,-33.784889855 151.00101344000001,-33.784815873500001 151.00083843199999,-33.784770881500002 151.00075043199999,-33.784725871 151.00032944,-33.784647875 151.000240448,-33.784660880499999 151.00004444800001,-33.784757876 150.99977648000001,-33.784896866499999 150.99947148800001,-33.785106897 150.99936246399997,-33.7852338995 150.999307488,-33.785332893 150.99925347199999,-33.785389891500003 150.99917747200001,-33.785616886500001 150.999193472,-33.785688888500005 150.99919148800001,-33.785760890500001 150.99929347200001,-33.785947888500004 150.99943148799997,-33.786064901 150.99953648,-33.786123897499998 150.99960547200001,-33.786196898499995 150.99971046399997,-33.7862558765 150.999969472,-33.786488865500004 151.00026448,-33.786679878 151.00112547200001,-33.787448849 151.00115747199999,-33.787473861 151.001310464,-33.78759485099999 151.00134448,-33.787637863500002 151.00135948799996,-33.787709847 151.00139248,-33.787767863 151.001423488,-33.7879398575 151.001466464,-33.788312854499999 151.00144646399997,-33.788441855 151.00144448,-33.788512858 151.001313504,-33.788997854 151.00129952,-33.789627853 151.00134851199999,-33.789743848 151.001344512,-33.789886853 151.001290496,-33.790057848499998 151.001165504,-33.790255854 151.00115750399999,-33.79025985 151.00099251200001,-33.7903268755 151.000885536,-33.790381876 151.000796544,-33.790394881499999 151.00069052800001,-33.790393882499998 151.000515552,-33.790332869499998 151.000322528,-33.790301882 151.00018054399999,-33.790327874500001 151.000038528,-33.790368870500004 150.99996652799999,-33.790438874499998 150.999837536,-33.790651865 150.99983555199998,-33.790751876 150.99981254399998,-33.790965865499999 150.99987558399999,-33.791310872 150.999961568,-33.79141288099999 151.00007756799997,-33.791743883 151.00047456,-33.792121875 151.000524576,-33.792265879 151.00051958399999,-33.79242486799999 151.00040956799998,-33.792650882499998 151.00017257600001,-33.792960868500003 151.00001158399999,-33.793087871 150.99986659199999,-33.793256868500002 150.999812128,-33.7933410435 150.99975648,-33.793426883499997 150.99970067199999,-33.793540917500003 150.99969852800001,-33.793626868499999 150.99966144000001,-33.793697871500001 150.99959696,-33.793947769500001 150.999545536,-33.794153915 150.99954371199999,-33.794239866 150.99952464,-33.794310869 150.99948252799999,-33.7945968975 150.99946272,-33.794667900500002 150.99947856,-33.794739902499998 150.99945948800001,-33.7948109055 150.99945264,-33.795111863499997 150.999433568,-33.795182885 150.99943964799999,-33.795337896500001 150.99944473599996,-33.795468895 150.9994008,-33.795840874500001 150.999381728,-33.795911877500004 150.99937955199999,-33.795997921 150.99935977600001,-33.796068924 150.999358688,-33.796154875 150.99933852800001,-33.796225896499998 150.999336736,-33.796311847499993 150.99925859199999,-33.796625848 150.99920460800001,-33.796695870500002 150.99916681600001,-33.796781914 150.99911280000001,-33.796851936499998 150.9990048,-33.796935908 150.998826592,-33.797019861 150.99875459199998,-33.7970759345 150.99866281599998,-33.797245857 150.99844572800001,-33.797456905 150.99833952,-33.797483915 150.99816169600001,-33.797509926 150.99780889600001,-33.7975179365 150.997611616,-33.797657889 150.99737689599999,-33.797883866500001 150.99718176,-33.7979519095 150.99707484800001,-33.797978901 150.996877568,-33.798118946 150.99680483199998,-33.798232887499999 150.99669289599998,-33.798602887500003 150.99640572800001,-33.7987529225 150.99611872,-33.798732924 150.99545875199999,-33.798818930499998 150.994712768,-33.798989944500001 150.99405180799999,-33.799116947 150.993906176,-33.799282836499998 150.99343379199999,-33.799415962499992 150.99294380800001,-33.799585959 150.99245382399997,-33.7996079925 150.99210384,-33.79956498 150.99190483199999,-33.79945697699999 150.991676832,-33.799395982500002 150.991237824,-33.799316987499999 150.99102681599999,-33.799270996499999 150.99069283200001,-33.799223007500004 150.99046486399999,-33.79917599899999 150.99014988799999,-33.799057025499998 150.99002684800001,-33.799010997499998 150.989604864,-33.798976014 150.989391872,-33.799030015500001 150.988962848,-33.799238029500003 150.988748896,-33.799335025 150.98851888,-33.799388027500001 150.987949888,-33.799551049500003 150.987737888,-33.799576043 150.98750688000001,-33.799615041 150.98708291200001,-33.799637037499998 150.98664192000001,-33.799630063 150.98589993599998,-33.799661050499999 150.985475968,-33.799683084 150.985265056,-33.799679106500001 150.98473584000001,-33.799656055500002 150.98429596799997,-33.799592082499998 150.98406595199998,-33.79960309 150.98379913599999,-33.799699086499999 150.98353417600001,-33.799737067 150.98332,-33.799834099500004 150.983193984,-33.799904103499998 150.983106112,-33.799931095 150.982730976,-33.8001111 150.982624,-33.800152114500001 150.98255699200001,-33.800188115499999 150.98198102399999,-33.800500118 150.981732,-33.800581074 150.98171401600001,-33.800596114500003 150.98162617599999,-33.800565145500002 150.981503008,-33.800549106 150.981416032,-33.800505113 150.981293024,-33.800474107 150.98118803200001,-33.80041512899999 150.98096003200001,-33.800354134500004 150.98090288,-33.800346679 150.98083702399998,-33.800338132 150.98041504,-33.80030313 150.98020406399999,-33.800271125 150.97965606400001,-33.800305146500001 150.97933904,-33.800271143499998 150.97909404800001,-33.800167155 150.97904406399999,-33.800066145 150.979029056,-33.799908155 150.97910406400001,-33.799738158499999 150.97911705600001,-33.799680142500002 150.97924908799999,-33.799597114500003 150.980032096,-33.799295157499998 150.98030208,-33.799056119 150.98053788799999,-33.798802132499993 150.98062787200001,-33.798731129499991 150.98102496000001,-33.798323167500001 150.98120604799999,-33.798140091500002 150.98129603199999,-33.798070087500001 150.98136912000001,-33.797971075500001 150.98190985599999,-33.797493091 150.982054912,-33.797323076 150.98214384,-33.797267095 150.98238179200001,-33.796913134499995 150.98271408,-33.796275125 150.98291603199999,-33.795963085499999 150.983548928,-33.795300064 150.98365801599999,-33.795159112499995 150.98375385599999,-33.795014202 150.98395104,-33.794720107499998 150.984078848,-33.794522102 150.984117728,-33.794351106500002 150.98417280000001,-33.794251114 150.984191872,-33.7941800925 150.98428476799998,-33.794010096 150.984358912,-33.793839082 150.98441472,-33.793740088500002 150.98457673600001,-33.793571072500001 150.98477401599999,-33.793474058500003 150.98486185600001,-33.79346109 150.985302848,-33.793468101500004 150.985728,-33.793403037 150.98671801599997,-33.793348055 150.98682384,-33.793321045 150.98701968,-33.793223032 150.98719968,-33.793083005500002 150.98725475200001,-33.793027024499999 150.987326752,-33.792928012499992 150.98747472,-33.792673045500003 150.98766768,-33.7919460325 150.987671648,-33.791788079499995 150.987806656,-33.791261033 150.98781059199999,-33.791089057 150.98783075200001,-33.791004086500003 150.98785488,-33.790747047499998 150.98787971199999,-33.790403077 150.987881888,-33.790317033500003 150.98790563200001,-33.790059994499998 150.98790678399999,-33.790016297500003 150.98790780799996,-33.789974043500003 150.98801977599999,-33.789704036 150.98820172800001,-33.78947804 150.988273728,-33.789408036 150.988383744,-33.789223036 150.988385728,-33.789138047 150.98840473600001,-33.789052040500003 150.98832073599999,-33.788893033 150.987947744,-33.788229049499996 150.98778073599999,-33.787840031500004 150.98771372799999,-33.787653033499993 150.98771673600001,-33.787567045499998 150.987631744,-33.787394033499993 150.98764774399999,-33.787350040500002 150.987877696,-33.786696047 150.987899712,-33.786510048 150.98793868800001,-33.786368042 150.98837369599997,-33.785860032 150.98848166400001,-33.785775024499998 150.98882566399999,-33.785394017 150.98898867199998,-33.785182025499999 150.98902768,-33.785054024 150.989282624,-33.784700026499998 150.98955264,-33.784462024 150.98964662399999,-33.784402028499997 150.989857632,-33.784266016499998 150.99021363200001,-33.784114002 150.99103260800001,-33.783813007 150.99124659200001,-33.78370100799999 150.99174656,-33.783437993500002 150.991835584,-33.783409984500004 150.99221056,-33.783215993500001 150.99253657599999,-33.782834986 150.99262956800001,-33.782649986 150.99265155200001,-33.782463987 150.99269353599996,-33.782192962 150.99271852800001,-33.781076968 150.992778528,-33.7808059615 150.99301952,-33.7802799695 150.99304150399999,-33.78010897399999 150.993082496,-33.779851972 150.993084512,-33.779765965500005 150.99306851200001,-33.779693963500002 150.99307651199999,-33.779350973500001 150.99320448,-33.778393968499998 150.993206464,-33.778307962 150.99331648,-33.778137965500001 150.99345187200001,-33.777994498 150.993353152,-33.777879576 150.99325091200001,-33.777769778500002 150.99304860800001,-33.777595083 150.99297299200001,-33.777542691 150.99292044800001,-33.777506523500001 150.9927696,-33.777416521 150.99231673599999,-33.777152637 150.990654592,-33.776390159500004 150.99059161599999,-33.776361262500004 150.991007776,-33.775961496 150.991036192,-33.775936206499992 150.99115571199999,-33.775840080500004 150.99130332799999,-33.775740717 150.99148332799999,-33.775650622 150.99165504000001,-33.775578897500004 150.99183216,-33.775516978 150.99201395200001,-33.775465141 150.991944832,-33.775359839 150.99172848000001,-33.774910104 150.9926472,-33.774564246499999 150.99276563199999,-33.774519236 150.99370812800001,-33.774164017499999 150.994216448,-33.774977333 150.99428448,-33.775069777499994 150.994359712,-33.775158411 150.99449939199999,-33.775296754 150.99458508799998,-33.775368478499999 150.99467507200001,-33.775435985 150.99524352,-33.775831163500001 150.99537420799999,-33.775712005 150.99574176,-33.775492854 150.9959088,-33.775463439 150.996060736,-33.775453615499991 150.9962112,-33.775441553500002 150.996448448,-33.775422572499998 150.99665363199998,-33.775390345499993 150.9968808,-33.775276681500003 150.99770988799997,-33.774664313 150.997956128,-33.774601505499994 150.99836688,-33.774640744 150.99855984000001,-33.774714448 150.99886547199998,-33.774831442 150.99924889600001,-33.7750633765 150.999388928,-33.775436429 150.99967296,-33.77619504 150.99991523200001,-33.776509762 151.00021235200001,-33.776867866499998 151.00105532800001,-33.775805874 151.001113312,-33.7757108765 151.00116803200001,-33.775608053500001 151.00120691199999,-33.775524452 151.001246528,-33.775422036 151.00127964800001,-33.775318436 151.00129872,-33.775249856499997 151.00131276799999,-33.775180389 151.00131673600001,-33.775148421 151.001321408,-33.7750837265 151.00132105599999,-33.775019198500004 151.00131097600001,-33.774884555500002 151.00129836799999,-33.774750097500004 151.00128428799999,-33.774588851499999 151.00125875200001,-33.774439852500002 151.00122348799999,-33.774247804 151.00119216,-33.774109017 151.001157248,-33.773973301 151.00109244800001,-33.773640393500003 151.00105929599999,-33.773417875500002 151.00103484799996,-33.773048467499997 151.001054272,-33.772780088 151.001101248,-33.772132865499998 151.00110425599999,-33.771950881 151.00105424,-33.771467883 151.00105424,-33.771466865500003 151.00098624,-33.771179875 151.000931264,-33.7709378765 151.00083424,-33.77062287699999 151.000772256,-33.7704198765 151.00064624,-33.770166870499999 151.00044025599999,-33.769850872 151.000335264,-33.769673882500001 151.000123264,-33.769433882 151.00009126399999,-33.76940287599999 150.99943724799999,-33.768866894 150.99930726400001,-33.768715897 150.99888131200001,-33.7681896275 150.998765728,-33.768055946499999 150.99871926399999,-33.768000890499998 150.99860825600001,-33.767869892 150.99967523199999,-33.7676598985 150.999896224,-33.767625877 151.00011622400001,-33.76759387199999 151.00034220800001,-33.767563865 151.000445536,-33.767549361 151.000619392,-33.767527142500001 151.00096716799999,-33.767489883499998 151.00126704,-33.767451459 151.00152876799999,-33.767423006 151.00175555199996,-33.767394571499992 151.00197913599999,-33.767370262500002 151.00273152,-33.767283608500001 151.00373808,-33.767132408 151.00398611200001,-33.767095149 151.0043328,-33.767052654499999 151.005171456,-33.766949813 151.00516611200001,-33.766974825 151.005214112,-33.767103825500001 151.005496128,-33.767508827500002 151.00572713599999,-33.767927797 151.00580512,-33.768258799 151.00578313599999,-33.7684588025 151.00578211199999,-33.768515801 151.00572713599999,-33.768672792 151.00565612799997,-33.7687868075 151.00558115199999,-33.7690718 151.00557616,-33.769314797500002 151.00559216,-33.769357791499999 151.00560614400001,-33.769501795499998 151.00563916799999,-33.769559793 151.00571814400001,-33.769832797499994 151.00589916800001,-33.770178803 151.00603315199999,-33.770309801499998 151.00626716799999,-33.770485792 151.006286144,-33.770499796500005 151.00638816,-33.770544807 151.00674416000001,-33.770692807 151.00689616,-33.770795778 151.00694614400001,-33.77086778 151.007062144,-33.770985773 151.00704614399999,-33.770998778500001 151.00702614400001,-33.771098789500002 151.00702316799999,-33.771241776 151.00698716799999,-33.771326783500001 151.006986144,-33.771369777499999 151.00691616,-33.771425777 151.00677516799999,-33.771610795500003 151.00672416,-33.771609796500002 151.00637414400001,-33.771919801 151.006321152,-33.771989805 151.00617916799999,-33.7722168 151.006074176,-33.772315793499999 151.00576118399999,-33.772525805500003 151.005498176,-33.77280780099999 151.00535619199997,-33.773006824 151.00528118400001,-33.773277812 151.005232224,-33.77393582 151.005263232,-33.774121819 151.005343232,-33.774337825 151.005343232,-33.774366814499999 151.00539321599999,-33.774438798 151.005488224,-33.774755795499992 151.00557020799997,-33.774942793500003 151.00560022400001,-33.775129791499999 151.00559523199999,-33.775329795 151.005465216,-33.775786800500001 151.00528822399997,-33.776041823 151.00518326400001,-33.776139817500002 151.00486624000001,-33.776507819500004 151.00481424,-33.776563819 151.00474124799999,-33.776734814500003 151.00473824,-33.776863815 151.004769248,-33.7770218235 151.00481926399999,-33.777079821 151.00502124799996,-33.777225823 151.00515824,-33.7772428245 151.005467264,-33.777218793 151.00570924799999,-33.7771508055 151.00636422400001,-33.776931802500002 151.00655420800001,-33.776905791499999 151.00682723200001,-33.776938777 151.00713721599999,-33.776885774500002 151.00734220800001,-33.776889789 151.007460224,-33.776976776 151.00757622399999,-33.777136782500001 151.00762121599999,-33.777466785500003 151.00764723200001,-33.777810774499997 151.00777820799999,-33.778069774500004 151.00791321599999,-33.778186787</coordinates></LinearRing></outerBoundaryIs></Polygon>

	</Placemark>
</kml>