<?xml version="1.0" encoding="UTF-8"?>
<kml xmlns="http://www.opengis.net/kml/2.2">
	<Placemark>
		<Style>
			<LineStyle>
				<color>ff0000ff</color>
			</LineStyle>
			<PolyStyle>
				<fill>1</fill>
				<color>330000cc</color>
			</PolyStyle>
		</Style>
			<ExtendedData><SchemaData>
		<SimpleData name="STATE_2006">1</SimpleData>
		<SimpleData name="POA_2006">2064</SimpleData>
	</SchemaData></ExtendedData>
      <Polygon><outerBoundaryIs><LinearRing><coordinates>151.19329126400001,-33.8053259725 151.19321027199999,-33.805730974500001 151.19302931199999,-33.806633127 151.192937312,-33.807091964 151.192739168,-33.808086098499999 151.193450528,-33.808184722 151.19344729599999,-33.808455969 151.19344547200001,-33.808722036 151.19344044799999,-33.809313425500001 151.19346348799999,-33.809340787 151.194348,-33.809857917500004 151.19448083200001,-33.809876991 151.19406835199999,-33.811781954499999 151.19388732799999,-33.812326946 151.19385833599998,-33.812413951499998 151.19379001599998,-33.812613548 151.19336236800001,-33.812757959 151.192736384,-33.812968951500004 151.192339936,-33.8131506585 151.19241372799999,-33.813236073 151.19250227200001,-33.813347942500002 151.19258579199999,-33.813462698 151.192663552,-33.813579951 151.1927352,-33.813699128 151.19279747199997,-33.813815678 151.19285401600001,-33.81393492899999 151.19290512000001,-33.8140559745 151.19295337599999,-33.814178019 151.19304121600001,-33.814416336 151.19308044799999,-33.814533145 151.19311715200001,-33.814650509 151.193151008,-33.814768502 151.19318233599998,-33.814886846500002 151.193211488,-33.815008447 151.19323705599999,-33.815128142 151.19326115199999,-33.815253331499996 151.19328169600001,-33.815376264 151.19329968,-33.815499474 151.19330508799999,-33.817380831500003 151.19330544,-33.817535991 151.19331155200001,-33.817566331 151.19320608000001,-33.817575248 151.19310313599999,-33.8175838875 151.19281081599999,-33.817789163500002 151.19244793600001,-33.818018674500003 151.19136828800001,-33.81653366099999 151.19071596800001,-33.816864052500001 151.18840512,-33.818034788 151.18920198399996,-33.819143456 151.18912252800001,-33.819214977 151.18809056000001,-33.819730960500003 151.18914256,-33.821167966499999 151.18915955200001,-33.821264962 151.18867980799999,-33.8215066275 151.186786912,-33.822459544 151.186704128,-33.8225050725 151.186545728,-33.8222792615 151.18635996799998,-33.822050934499998 151.186245472,-33.82188597 151.18612236800001,-33.821732346 151.18590528,-33.821511474499999 151.18531596799997,-33.820927836500005 151.18440966399999,-33.821447002 151.18304070400001,-33.822230033 151.18231571199999,-33.821267126500004 151.18313472,-33.820784017499996 151.18315308800001,-33.820768348 151.18316713600001,-33.820749089499998 151.18317468800001,-33.820729202 151.18317577600001,-33.820718842 151.18317468800001,-33.820697696499998 151.18316819200001,-33.820669891 151.18315596799999,-33.820644786500004 151.18286544,-33.820362088 151.18221852799999,-33.8197311825 151.18173968,-33.8192640205 151.18169507199997,-33.819192629 151.18163315199996,-33.819083738 151.181613728,-33.819044758499999 151.181560096,-33.818926229 151.181538496,-33.818888341 151.181485568,-33.818813101499998 151.181456416,-33.818776823 151.181424736,-33.818742006 151.181357408,-33.818678643499993 151.18132176,-33.818648137 151.181283968,-33.8186197765 151.18124435199999,-33.818595745 151.181201888,-33.818577929500002 151.181177408,-33.81857036299999 151.181125568,-33.818558578500003 151.18109964799996,-33.81855597 151.181074432,-33.818556599 151.18105392000001,-33.818560114 151.18103305599999,-33.818565775 151.181012896,-33.818573249 151.180975072,-33.818591527 151.180956,-33.818603219 151.18092073599999,-33.818631209499998 151.18089193599999,-33.818663066499994 151.18065756799996,-33.818894816 151.18064028800001,-33.818915425 151.18062012799999,-33.818935053499999 151.18059779199999,-33.8189531465 151.18057331200001,-33.8189692415 151.180548128,-33.81898283899999 151.1805096,-33.818997694499998 151.1804664,-33.819008572500003 151.18042140799997,-33.819014881 151.180376768,-33.819015954 151.18033536,-33.819011273500003 151.18029721600001,-33.819000395499998 151.18025904000001,-33.818983745499999 151.18022268799999,-33.818962581500003 151.18019100800001,-33.818938106 151.17988428800001,-33.818763336499998 151.17961104,-33.818599889 151.179513472,-33.818595023500002 151.17941123200001,-33.818592248500003 151.17925753599999,-33.818591249500003 151.17902963200001,-33.818594672 151.178868736,-33.818588548500003 151.17876179199999,-33.818580538 151.17832403200001,-33.818519876499998 151.17833881600001,-33.818471813500004 151.17839772799999,-33.818367066500002 151.17850672,-33.818238066 151.17854473599999,-33.818191057500002 151.17897372799999,-33.817613062 151.179020288,-33.817510979 151.179004736,-33.817469058 151.17880169599999,-33.8169310595 151.17887987200001,-33.816572548 151.17860592,-33.8163291065 151.17851987200001,-33.8162065255 151.17821712,-33.815532515 151.177783328,-33.814565557 151.17771132799999,-33.814492463500002 151.17726995199999,-33.814154968 151.17721056,-33.814111585500001 151.176289696,-33.81344109 151.17598441600001,-33.813218979 151.17594156799998,-33.813181979 151.17570361599999,-33.81284169 151.17566220800001,-33.812791296 151.17562476800001,-33.812737923500002 151.17559129599999,-33.812682479 151.175562496,-33.812625591499994 151.17553836799999,-33.812568001 151.17552396799999,-33.81252434099999 151.17550595200001,-33.8124491015 151.17549120000001,-33.812362614 151.175480032,-33.812280992 151.17547212799997,-33.812198093500001 151.17546924800001,-33.812115028500003 151.175474272,-33.812033036500004 151.17548220800001,-33.811987674500003 151.17548832,-33.811953209 151.17551315200001,-33.811877784499998 151.17553619200001,-33.811827575500004 151.17554736,-33.811803636500002 151.17558803200001,-33.811730820500003 151.17563267199998,-33.811659447499999 151.17567875200001,-33.811589517500003 151.17573744000001,-33.811507803 151.17580224,-33.811428512 151.175870656,-33.811351108 151.17616115199999,-33.811040511500003 151.17621337599999,-33.810989766 151.1762688,-33.810941425500005 151.17632892799998,-33.810894361500004 151.17635923199998,-33.810872587 151.17639193599999,-33.810849092 151.17645708800001,-33.810806061 151.17652403199997,-33.810765398 151.1765928,-33.810727325 151.176747968,-33.810609424500001 151.17683904,-33.810538051500004 151.177016896,-33.810393326 151.17715475200001,-33.810285508 151.17746976000001,-33.810048541500002 151.17755507199999,-33.809986807 151.177729312,-33.809865299 151.17781427200001,-33.8097987915 151.17787116799997,-33.809746325500001 151.17632665599999,-33.809182094 151.17638566400001,-33.809138101 151.17694704,-33.808566488 151.17809904000001,-33.807393717499998 151.17820460799999,-33.807286084499999 151.17822659199999,-33.807263070499992 151.17793740799999,-33.806383469499998 151.177674752,-33.805583511 151.17820272,-33.805536576500003 151.17926976000001,-33.805462595 151.179387136,-33.805432976499993 151.179468544,-33.805399084500003 151.18075449599999,-33.804741058 151.18126307200001,-33.804480966500002 151.18132032,-33.804451718 151.18145568,-33.804382491 151.18161984,-33.804298797 151.181874464,-33.804169056500001 151.18203846399999,-33.804002057 151.18220048000001,-33.803836056500003 151.18230851199999,-33.803725685499998 151.18357248000001,-33.802881752499999 151.18372742400001,-33.802830045 151.18540272000001,-33.802281187 151.18559536000001,-33.802207020499999 151.18592652800001,-33.802071748499998 151.18632537600001,-33.80189102199999 151.18708332799997,-33.80155003 151.18714368,-33.801517433 151.18720848000001,-33.801490885500002 151.1872416,-33.8014802665 151.18727616000001,-33.801471368 151.187311808,-33.8014642455 151.18738416,-33.801454884500004 151.18745472000001,-33.801450759 151.18752384000001,-33.801451554499998 151.18759260799999,-33.801457234 151.187940352,-33.801476751500005 151.18884531200001,-33.801504002 151.18889731199999,-33.801505001 151.18925833599999,-33.8014867415 151.18939872000001,-33.801479286 151.18954019200001,-33.801478823499998 151.1896104,-33.801481358 151.18974252800001,-33.801489276 151.18980841599998,-33.801495566 151.18987392,-33.8015043905 151.18995635199997,-33.801520596499998 151.19002979199999,-33.801539577499994 151.19038403199997,-33.801648931 151.19107091199999,-33.801871671 151.19152163199999,-33.802046181500003 151.19212659199999,-33.8022797255 151.19313696,-33.80267061199999 151.19380441599998,-33.802760078 151.19368624000001,-33.803349969 151.19360604799999,-33.803752769500001 151.19349155200001,-33.804323365 151.19340732800001,-33.804744480499998 151.19329126400001,-33.8053259725</coordinates></LinearRing></outerBoundaryIs></Polygon>

	</Placemark>
</kml>