<?xml version="1.0" encoding="UTF-8"?>
<kml xmlns="http://www.opengis.net/kml/2.2">
	<Placemark>
		<Style>
			<LineStyle>
				<color>ff0000ff</color>
			</LineStyle>
			<PolyStyle>
				<fill>1</fill>
				<color>330000cc</color>
			</PolyStyle>
		</Style>
			<ExtendedData><SchemaData>
		<SimpleData name="STATE_2006">1</SimpleData>
		<SimpleData name="POA_2006">2305</SimpleData>
	</SchemaData></ExtendedData>
      <Polygon><outerBoundaryIs><LinearRing><coordinates>151.72291475200001,-32.92296579 151.72282972799999,-32.923071795 151.722725728,-32.923164794500003 151.72253974399999,-32.923330795 151.722209728,-32.923552795 151.72179900799998,-32.923739996500004 151.72105500800001,-32.92408300499999 151.721023008,-32.924099007499997 151.72093801599999,-32.924144998500005 151.72083974399999,-32.924200794499995 151.720878752,-32.924206788500001 151.72239574400001,-32.924439796 151.722839712,-32.924508782499998 151.72363872,-32.924631789 151.72351472,-32.925125794499998 151.72320950400001,-32.926342965 151.72265558399999,-32.928551957499998 151.72234969600001,-32.929771792 151.72195372799999,-32.930724967499991 151.72171369599999,-32.931302796499999 151.72146771199999,-32.931521781 151.72111670399997,-32.931834782500005 151.72029670399999,-32.9324627835 151.72003171200001,-32.932660585500003 151.719928,-32.932738008 151.71988169599996,-32.932763778500004 151.720395712,-32.933152796500003 151.72059472000001,-32.933286792 151.72062672,-32.933313783500004 151.72021369599997,-32.93363178 151.72015248,-32.933676069 151.72005817600001,-32.933743020500003 151.719585696,-32.934095778500001 151.718335744,-32.934867783500003 151.71764572800001,-32.93517479099999 151.71692576000001,-32.935426761 151.716264768,-32.935613777500002 151.71570476799999,-32.935729772500004 151.71495776,-32.935831763 151.71477337600001,-32.935842067499998 151.71387008,-32.935892554 151.713634816,-32.935905763 151.71278684800001,-32.936007772 151.712123392,-32.936130815499993 151.71198700799999,-32.936155994 151.71185376,-32.9361805805 151.711780672,-32.936200745499995 151.711124832,-32.936382748500002 151.71028585600001,-32.9366787485 151.70948985599998,-32.937022756 151.70938787200001,-32.937066749 151.707803904,-32.937855755500003 151.70720089599999,-32.9377457545 151.70670489599996,-32.937854756500002 151.70657100799997,-32.937917009 151.70674099199999,-32.937172994500003 151.70676700800001,-32.937051005500003 151.706850016,-32.93666999799999 151.70674201599999,-32.936670997 151.706648,-32.936676991 151.706612,-32.936673994 151.70622300799997,-32.936608004500002 151.706130016,-32.936629002 151.704499008,-32.93702900899999 151.70474899199999,-32.935913995500002 151.70480700799999,-32.935635996 151.70494899199997,-32.934989994499993 151.70485100799999,-32.934980004499998 151.704752,-32.934973992 151.704652,-32.934971994 151.704552,-32.934973992 151.704454016,-32.934980004499998 151.70432499200001,-32.934994009 151.70419699199999,-32.935016005500003 151.704070016,-32.935043996 151.703944992,-32.935077 151.703823008,-32.935114 151.70368201599999,-32.935163006499998 151.703544,-32.935219006 151.70341001599999,-32.935280999500002 151.70327900800001,-32.9353480065 151.703152,-32.935418991 151.703024992,-32.9355000025 151.70290598400001,-32.935589006 151.702672,-32.935775005 151.70258,-32.935843991500001 151.70255299199999,-32.935865007499999 151.70227801600001,-32.9360570005 151.701571008,-32.936538999500002 151.70075699200001,-32.937085008499999 151.700568,-32.937210993500003 151.70049299199999,-32.937258002 151.700376,-32.937332002 151.70018,-32.937446998 151.699929376,-32.937569135 151.699681728,-32.937689792 151.69916700799999,-32.937911995500002 151.698912,-32.938025992500002 151.698398016,-32.938269008500001 151.69803299200001,-32.938442002 151.697564992,-32.93865900699999 151.69706601600001,-32.938886002 151.696076,-32.939327005 151.696043008,-32.939342008499999 151.695831008,-32.939435008 151.69558499199997,-32.939540994499993 151.695084,-32.939745993 151.694830016,-32.939852997 151.69457500799999,-32.939954007 151.694316,-32.940037997 151.694052,-32.940095994499998 151.69389100800001,-32.940116992 151.693728,-32.940130996500002 151.693564,-32.940137009 151.693434016,-32.94013800799999 151.69323699200001,-32.940134992499999 151.69307401599997,-32.940122005500001 151.69291177599999,-32.940099546500001 151.69275001599999,-32.940072999 151.692587008,-32.940049004500004 151.692424,-32.940032003 151.692159008,-32.940020995499999 151.691892,-32.940019996499998 151.691624,-32.940029006 151.69135699200001,-32.9400450085 151.691091008,-32.940065007 151.69090099199997,-32.9400830075 151.69077100799998,-32.940096993499992 151.690712,-32.940104005 151.69052300800001,-32.9401279995 151.69033500800001,-32.940154991 151.69014768,-32.940187551 151.69006899199999,-32.940181002 151.68999100799999,-32.940178005 151.689912,-32.94017600699999 151.68983299199999,-32.940177006 151.68975500799996,-32.940180003 151.689588,-32.940189993 151.689504992,-32.940199002500002 151.68942300800001,-32.940211009 151.68934201600001,-32.940226993 151.68925900799999,-32.940249008 151.689178016,-32.940275999499995 151.689096992,-32.940307005500003 151.689019008,-32.940341008499999 151.688942016,-32.940375992 151.688875008,-32.940411993 151.688748992,-32.9404940035 151.688684,-32.940532002499999 151.688615008,-32.940560992 151.688516,-32.94059 151.68846499200001,-32.940602006499994 151.688414016,-32.9406089995 151.688364,-32.9406089995 151.68834368,-32.940607205 151.68828300800001,-32.940592997 151.68826300800001,-32.940590999 151.68824,-32.940590999 151.68820499200001,-32.940594995 151.68831798400001,-32.940346003500004 151.688432992,-32.9400979925 151.68861750400001,-32.939714265500001 151.68855222400001,-32.939697763499993 151.68807622400001,-32.939587762500004 151.68707824,-32.939357770500003 151.68592246399999,-32.939090094 151.68601001600001,-32.938700003 151.686236,-32.937707996 151.68626899200001,-32.937562993 151.686428,-32.936816 151.686588992,-32.936107006 151.68682099200001,-32.935083993 151.687024,-32.933879994500003 151.68682627199999,-32.933853761500004 151.685946016,-32.933727998500004 151.685766304,-32.933706760500002 151.685684,-32.933705003 151.68559731199997,-32.933720765 151.68551232,-32.933757765 151.68544732800001,-32.933802775499998 151.68539132800001,-32.933871762 151.68536230399999,-32.933930777 151.68511232,-32.93452977 151.68508131199997,-32.934588766499999 151.68503132800001,-32.934651777500001 151.68499232,-32.934685762 151.68493632,-32.934722762 151.68490732800001,-32.934738764500004 151.68482531199999,-32.934768771500003 151.68477632,-32.934774765499995 151.68456832000001,-32.93478877 151.684359328,-32.934775764500003 151.68426531200001,-32.934754767 151.68420432,-32.9347347685 151.684165312,-32.93471477 151.684086304,-32.934651777500001 151.684042304,-32.934612761 151.68398832,-32.934555762500004 151.68388198400001,-32.934437991499998 151.68383500799999,-32.934374 151.683812,-32.934336001 151.68374835200001,-32.9342617605 151.68367100799998,-32.934197991 151.683582016,-32.934145007 151.68348499199999,-32.934106009 151.68339833600001,-32.934082773 151.68332118399999,-32.934067492 151.68323033600001,-32.934522777 151.68338835200001,-32.934547770500004 151.68336534400001,-32.934661767499996 151.68333033600001,-32.934839774499999 151.68329334399996,-32.935019761 151.68325833599997,-32.935198767 151.68320934400001,-32.935442763499999 151.683166336,-32.935653774500004 151.68313536,-32.93564976 151.68256435200001,-32.935570783500005 151.68199833599999,-32.935492787499996 151.68070838400001,-32.9353137815 151.68057337600001,-32.935295781 151.67932140799999,-32.935122787499999 151.67870742399998,-32.93503778 151.67850643200001,-32.9350097895 151.67830745599997,-32.934981780500003 151.67808844799998,-32.934951792 151.67787145599999,-32.934921785 151.67764745599999,-32.934890779 151.677631488,-32.934888596 151.677552448,-32.934942782500002 151.67750476800001,-32.934936714500004 151.67753680000001,-32.934792063 151.677461792,-32.934781814 151.67743443200001,-32.934624786 151.67729644799999,-32.934464779499997 151.677058432,-32.933226796500001 151.67715644800001,-32.933067789 151.67713843199999,-32.933058779500001 151.67730844799999,-32.932786792500004 151.67733744,-32.932779781 151.67737545599999,-32.932760781500001 151.67740444799998,-32.93273379 151.67742444800001,-32.932701785 151.67743344,-32.932664785 151.67742944,-32.932628784 151.67742044799996,-32.932608785500001 151.67756643199999,-32.932370783 151.67774745599999,-32.932450795500003 151.67779644800001,-32.932211794 151.67786444800001,-32.932098796 151.67776044799996,-32.932007794500002 151.67767744,-32.931884788 151.67725648000001,-32.931382790500002 151.677069472,-32.931454792499999 151.676721472,-32.931533787500001 151.676470464,-32.931542797 151.676181472,-32.931523797499999 151.67589046399999,-32.931461804 151.675762464,-32.931422806 151.675516512,-32.931331804500005 151.675422016,-32.931313008499998 151.67530051200001,-32.931306811 151.67519152,-32.9313178 151.674888512,-32.931399810500004 151.67483449599999,-32.931284814500003 151.67455152,-32.930659810500003 151.67449900799997,-32.930514992500001 151.67446752000001,-32.930384808 151.674448,-32.9302549935 151.67444352000001,-32.930184804499994 151.67444249599998,-32.930121812 151.674452,-32.929977993 151.67449152,-32.929535806 151.67449750399996,-32.929487798499999 151.67451552,-32.929358798 151.67451552,-32.929331806500002 151.67451552,-32.929295805500004 151.67448752000001,-32.9291348 151.674446496,-32.928957810500002 151.674430016,-32.928910006500004 151.67440051200001,-32.928843813500002 151.67437049599999,-32.928783799500003 151.67432352,-32.9287038055 151.67421900799999,-32.928564001 151.67475849600001,-32.928219808500003 151.67484899199999,-32.9270299995 151.674941504,-32.927043800500002 151.67512499199998,-32.927062004500002 151.67525350400001,-32.927087812 151.675360512,-32.927125811 151.675393504,-32.9271418135 151.675450496,-32.927179812499993 151.67557299200001,-32.927266004 151.67561152,-32.927308813 151.675652,-32.927347996 151.675714016,-32.927418999 151.675732,-32.927447008 151.67576851199999,-32.927521803499999 151.67579552000001,-32.927609808 151.675810496,-32.927722806 151.67582099199998,-32.927878002500002 151.67590051199997,-32.927951799 151.67617046399999,-32.928168804 151.676147488,-32.928249797 151.67630147200001,-32.928321780499999 151.67645648000001,-32.928393782500002 151.67661148799999,-32.928466783499999 151.67676646399997,-32.928539784500003 151.67681548799999,-32.928501785500004 151.67689648000001,-32.928098781500005 151.677057472,-32.928122794499998 151.67721648,-32.92814579 151.67753846400001,-32.928193779 151.677859488,-32.928240787500002 151.67817945600001,-32.928286778500002 151.67859545600001,-32.928348790500003 151.67854944000001,-32.928576784499995 151.67852944000001,-32.928672781 151.67849744,-32.928830789500005 151.67874044800001,-32.928952778499998 151.67893443200001,-32.929050791500003 151.67896243199999,-32.929064796 151.679195456,-32.928995791 151.67925744,-32.928976791499998 151.67927043200001,-32.929005781 151.67930243199999,-32.929058783500004 151.67934345599997,-32.929106791 151.67939244799999,-32.929148786 151.67941443199999,-32.929163789500002 151.67944844799999,-32.929183788 151.679510432,-32.929211778500004 151.6796624,-32.929270793500002 151.67968140799999,-32.929277786500002 151.6796904,-32.929279784500004 151.679700416,-32.929281782499999 151.67972140800001,-32.9292827815 151.67974240000001,-32.929281782499999 151.6797624,-32.929277786500002 151.679781408,-32.929271792500003 151.679803424,-32.929264781 151.6798264,-32.929260785 151.6798504,-32.929259786 151.6798744,-32.929262783 151.67989641599996,-32.929269794500001 151.67987542399999,-32.928931781 151.679949408,-32.928867789500003 151.68028441600001,-32.928870786499999 151.680309408,-32.929210779500004 151.68056540799998,-32.929539783500005 151.68069801600001,-32.930040005 151.68077100799999,-32.930053991 151.68082140800001,-32.930067792 151.68086201599999,-32.930084997 151.680891008,-32.930103996500002 151.68107340799997,-32.93028579599999 151.6810864,-32.9303047955 151.68128137599999,-32.930695793 151.68130339199999,-32.93078278 151.68145939199999,-32.931348787499999 151.68243036800001,-32.932471793 151.68256201599999,-32.932615001500004 151.68273299200001,-32.932800186500003 151.68296700799999,-32.932914664500004 151.68365497600001,-32.933220025499999 151.684348,-32.933048993 151.68456601599999,-32.9329919945 151.68491900800001,-32.932834004500002 151.68622,-32.932249996499998 151.68637699199999,-32.932193997 151.686443008,-32.932191 151.68654899200001,-32.932208001500001 151.68662601599999,-32.932238008500001 151.686768,-32.932301001 151.686880992,-32.932346992 151.68719100800001,-32.932460008500001 151.68730601600001,-32.9325420005 151.68733827200001,-32.932563775 151.68827129600001,-32.927354748500001 151.68832828800001,-32.927019750499994 151.68836528,-32.926800747500003 151.68828227200001,-32.926643756499999 151.68863728,-32.924819749 151.68917129599998,-32.922076754 151.68938227199999,-32.920991747500004 151.68940329599999,-32.920882745500002 151.689514272,-32.920311743 151.68951827199999,-32.920292743499999 151.68952128000001,-32.920273744 151.68967529599999,-32.919487753 151.68985427199999,-32.918564751 151.68986729599999,-32.918499742 151.68988528,-32.9184027465 151.68990227200001,-32.918314742 151.69005628799999,-32.917528751 151.69007228800001,-32.917447758 151.69008329600001,-32.917451754 151.70132108799999,-32.920958706500002 151.70182406399999,-32.921161707 151.701969056,-32.921192713 151.70202707199999,-32.92107472 151.702261056,-32.920626705499998 151.70236707199999,-32.92045670899999 151.702487072,-32.920287711500002 151.70278006399997,-32.919899711 151.70294105599999,-32.919664705500004 151.703072064,-32.919414715 151.703172064,-32.919154716 151.703285056,-32.918794706 151.70332604800001,-32.91864271 151.70335606399999,-32.918502720500001 151.703374048,-32.918374719 151.703386048,-32.918232713 151.70342806400001,-32.91745171699999 151.70345804799999,-32.917201708 151.70417107199998,-32.917284717500003 151.70425606399999,-32.917291710500002 151.704434048,-32.9172967055 151.704435072,-32.917256708499998 151.70444006400001,-32.917186704500004 151.70445107200001,-32.917117718 151.70459507199999,-32.916507717500004 151.70461606399999,-32.916444706499995 151.70464505599998,-32.916389706 151.704692064,-32.916333706499998 151.704746048,-32.916287715500005 151.70480806399999,-32.916249716499998 151.70486505599999,-32.916226721 151.70487606399999,-32.9162217075 151.704950048,-32.916203707 151.70502806399998,-32.916195715 151.70562902399999,-32.916172719499997 151.705716,-32.916178991 151.70575100799999,-32.916185003500004 151.705805024,-32.916201727500003 151.70590403200001,-32.916253731 151.70591500800001,-32.916262000499998 151.705984032,-32.916344732500001 151.70602864,-32.916397809 151.70604704,-32.9164197315 151.70607504,-32.916405727 151.70615801599999,-32.916364731 151.70617001599999,-32.916358737 151.70620601600001,-32.916339737500003 151.70627504000001,-32.916301738500003 151.70631504,-32.916273729499999 151.70637500799998,-32.916225000499999 151.70671302400001,-32.916368727 151.706808,-32.916407003499998 151.707212992,-32.916517726 151.70742099200001,-32.916570728499998 151.707539008,-32.916591726 151.70765798400001,-32.916606008 151.70808099199996,-32.916628726 151.708257984,-32.916642730500001 151.70827798400001,-32.916644728500003 151.70841299199998,-32.916658733 151.70863798400001,-32.916694734 151.70911596799999,-32.91677273 151.71003296,-32.916921729 151.710689952,-32.917028751499998 151.71085500800001,-32.917055003 151.71102294399998,-32.917073743499998 151.71106592000001,-32.917072744500004 151.711126944,-32.917063753500003 151.71120294400001,-32.91704875 151.711552928,-32.916957748500003 151.71181692799999,-32.917578756499999 151.712026944,-32.918075759 151.71203494400001,-32.918082752 151.71260899200001,-32.918661006500002 151.71262201600001,-32.918668998500003 151.71351900799999,-32.918419008 151.71350889600001,-32.918393755499999 151.71465491199999,-32.91775175 151.71472700800001,-32.91765599399999 151.717276,-32.917631999500003 151.719,-32.917615997 151.71921500799996,-32.917602991500004 151.71931980799999,-32.9175947775 151.71988681600001,-32.917548768 151.719936,-32.917543995 151.72099878399999,-32.917353796500002 151.72176377599999,-32.917131796500001 151.721856992,-32.917101993 151.722072768,-32.917028788499998 151.72237801599999,-32.916912997 151.72276377599999,-32.916741779500001 151.722976,-32.916645006 151.72343875199999,-32.916418788 151.724221728,-32.916032785500001 151.72461475200001,-32.915838794499997 151.72498675200001,-32.915668779500002 151.725619712,-32.91524278 151.725584704,-32.915382788 151.72545971199997,-32.915959784500004 151.72544016000001,-32.916028715499998 151.725416,-32.916114000500002 151.72538771200001,-32.916200784 151.72514870399999,-32.916830783 151.725079712,-32.917001778499994 151.72491270399996,-32.917280795499991 151.72482371199999,-32.917428795500001 151.72464172799999,-32.917757781 151.72455673600001,-32.917925779500003 151.72447574399999,-32.918151794 151.72445475200001,-32.918213787500001 151.724300736,-32.918681782 151.72396969600001,-32.919865782 151.723916704,-32.920149794 151.72389769599999,-32.9202177815 151.723873696,-32.92030678499999 151.72350969600001,-32.921577790500002 151.723332992,-32.922224994499999 151.72328070399999,-32.922376787 151.72319795199999,-32.922531188 151.72316604799997,-32.922590665500003 151.72308969599999,-32.922744789 151.72291475200001,-32.92296579</coordinates></LinearRing></outerBoundaryIs></Polygon>

	</Placemark>
</kml>