<?xml version="1.0" encoding="UTF-8"?>
<kml xmlns="http://www.opengis.net/kml/2.2">
	<Placemark>
		<Style>
			<LineStyle>
				<color>ff0000ff</color>
			</LineStyle>
			<PolyStyle>
				<fill>1</fill>
				<color>330000cc</color>
			</PolyStyle>
		</Style>
			<ExtendedData><SchemaData>
		<SimpleData name="STATE_2006">1</SimpleData>
		<SimpleData name="POA_2006">2060</SimpleData>
	</SchemaData></ExtendedData>
      <Polygon><outerBoundaryIs><LinearRing><coordinates>151.21613500799998,-33.840473993 151.215204,-33.841088008 151.21543299199999,-33.8413360005 151.215556,-33.841524996499992 151.216568,-33.842175993 151.216744992,-33.8421209925 151.21817900799999,-33.843689996 151.21801100799999,-33.843768991 151.21783001599999,-33.843530008 151.21773100799999,-33.843601991499995 151.21791100799999,-33.843840993 151.217936,-33.843863008 151.217960992,-33.843884005500001 151.217986016,-33.843906002 151.21801100799999,-33.843926999499999 151.218036,-33.843948996 151.218084992,-33.843986995 151.21813500799999,-33.84402399499999 151.218184,-33.844060995 151.218232992,-33.844098994 151.218276992,-33.844140008499998 151.21834700799999,-33.844222000500004 151.218408,-33.844311004 151.21846099199999,-33.844406001499998 151.21848076800001,-33.844447645 151.21846624,-33.844451678 151.21820825599997,-33.844530673 151.21800681600001,-33.844756539500004 151.21798595199999,-33.8447375955 151.21661363199999,-33.844086543499991 151.21657628799997,-33.844074685 151.21644726400001,-33.844033689 151.21596672000001,-33.843807008500001 151.21470025599999,-33.843207775 151.214471296,-33.84303813 151.21394387199996,-33.842653922 151.21341612799998,-33.842296446500001 151.21318233599999,-33.842165707 151.21313497599999,-33.842140824499999 151.21308601600001,-33.842117422 151.21303561599998,-33.842096017499998 151.21298412799999,-33.842076759 151.21293193599996,-33.842059831500002 151.212881888,-33.842046863 151.21283113600001,-33.842036521499999 151.21263708800001,-33.842003573 151.21243763199999,-33.841993139 151.21150416,-33.841905652500003 151.21132848,-33.84188928 151.211061376,-33.841864268 151.21101276799999,-33.841859661500003 151.21092131200001,-33.841851114500002 151.21082556799999,-33.841837628 151.21061244800001,-33.841809989 151.21055699199999,-33.842041017 151.210634752,-33.842247662 151.21086448,-33.8428904815 151.21092025599998,-33.843046048 151.21096524800001,-33.8431697945 151.21114441599997,-33.843664336499998 151.21099139200001,-33.8436797285 151.21066339199999,-33.843705721 151.210224,-33.843592612 151.20939923200001,-33.843320828499998 151.20931142399999,-33.843687739 151.209315008,-33.843727791500001 151.20937350400001,-33.843881582 151.20907542399999,-33.843960743499999 151.20899843199999,-33.843980742 151.208888992,-33.844604007 151.208810016,-33.844534003 151.20872700800001,-33.844468994 151.20864,-33.8444079995 151.20858300800001,-33.844370999500001 151.208524,-33.844335997500004 151.208463008,-33.844302993500001 151.20840099200001,-33.844273005 151.208336992,-33.844244996 151.208247008,-33.844211992 151.208152,-33.844183002500003 151.208055008,-33.844159008 151.207956,-33.844141007499999 151.20785801599996,-33.844129001 151.20779779200001,-33.844124635 151.20774601599999,-33.844121009 151.20763100799999,-33.8441189925 151.207515008,-33.844124006 151.207404,-33.844141007499999 151.20730300799997,-33.844168998 151.20724899199996,-33.844191993500004 151.20719699200001,-33.8442180045 151.20714601599997,-33.844246994 151.207098016,-33.844278999 151.20705100800001,-33.84431200299999 151.20701401599999,-33.844337995499998 151.20697401599998,-33.844365005500002 151.20693699200001,-33.844392996 151.206907008,-33.844423003 151.206888,-33.844455008 151.20688201600001,-33.844478003500001 151.20688,-33.844502997 151.20688099199998,-33.844526991500004 151.20688300800001,-33.844552003499999 151.20688499199997,-33.844576997 151.20689100800001,-33.844621008499992 151.20690201599999,-33.844665001500005 151.20691500800001,-33.844708994499996 151.206928992,-33.844753006 151.20693900799998,-33.844796999 151.20694601599999,-33.844829004 151.206952992,-33.844859991499995 151.20695900800001,-33.844891996500003 151.206963008,-33.844924001500004 151.206964992,-33.844955007499998 151.206964,-33.844998001500002 151.20696,-33.845042993500002 151.206952992,-33.845086006 151.20693900799998,-33.84512700199999 151.206916992,-33.845162004 151.206886016,-33.845187996500002 151.206848,-33.845207995 151.206804992,-33.845225995500002 151.206762016,-33.845244995 151.20672499199998,-33.845269008 151.20669100800001,-33.845298996499999 151.20666,-33.845332000500001 151.206632,-33.845367002499998 151.206604,-33.845402004500002 151.20657500799999,-33.845437006499999 151.206524992,-33.845491008 151.20647100799999,-33.845543992 151.20642,-33.8455979935 151.20637299200001,-33.84565399299999 151.206336,-33.845713008 151.20632,-33.845745993500003 151.20630598400001,-33.845779996499999 151.20629401599996,-33.845813999500002 151.20628300800001,-33.845848002499999 151.20627401599998,-33.845883004499996 151.20627500800001,-33.845939004 151.20627401599998,-33.845995003500001 151.20627299200001,-33.846051003 151.20627100799996,-33.846107002499998 151.206268,-33.846163002 151.206266016,-33.846203998 151.20626300800001,-33.846244994 151.20626,-33.846287007500003 151.20625500799997,-33.846328003499998 151.20624899200001,-33.846368999500001 151.20623699199999,-33.846423001 151.20622,-33.846476003500001 151.20620201599999,-33.846529006 151.20618499199998,-33.8465820085 151.20617100800001,-33.846635991499994 151.20616201600001,-33.846671992499999 151.206152992,-33.846708992499998 151.20614601599999,-33.846744993500003 151.20614,-33.846781993499995 151.20613801600001,-33.8468179945 151.20613900800001,-33.846851997500004 151.206143008,-33.8468860005 151.20614899200001,-33.846921002500004 151.206156,-33.8469550055 151.206163008,-33.846989008500003 151.206172,-33.847017998 151.20618300800001,-33.847048005 151.20619398400001,-33.8470769945 151.20620201599999,-33.847106002499999 151.206204,-33.847134992 151.20619699199997,-33.847169994 151.20618300800001,-33.84720399699999 151.206164992,-33.847237001 151.20614499199999,-33.847271004 151.206128,-33.847305007 151.206112,-33.847338991500003 151.206096992,-33.847371995499998 151.20608198400001,-33.847405998500001 151.20606601599999,-33.847440001500004 151.206051008,-33.8474740045 151.206028,-33.847519995500001 151.20600300800001,-33.847565006 151.20597900800001,-33.847610997 151.20595801600001,-33.8476570065 151.205944,-33.847703996500002 151.20593699200001,-33.847743993500004 151.20593401599996,-33.847786007 151.20593299199999,-33.847828002 151.20593500800001,-33.847868998 151.20594,-33.847910993 151.20594598400001,-33.847949991 151.20595500799999,-33.847990006499998 151.20596601599999,-33.848029004499999 151.20597900800001,-33.8480680025 151.20599401600001,-33.8481060015 151.20601299199998,-33.848146997500002 151.20603500799999,-33.848185995499996 151.20605798400001,-33.848224993500004 151.20608300799998,-33.848263991499998 151.206107008,-33.848303008 151.206136,-33.848347001 151.20616700799999,-33.848389995 151.206198016,-33.8484340065 151.20622601599999,-33.848477999499998 151.206248,-33.848524009 151.20626300800001,-33.848564006 151.20627500800001,-33.848606001 151.206284,-33.848647996 151.206288,-33.848689991 151.206287008,-33.848731005499999 151.20628201599996,-33.848772001500002 151.206272,-33.848813996499999 151.20625699199999,-33.848854992499994 151.20623699199999,-33.848892991500001 151.206210016,-33.848924996500003 151.20617001599999,-33.848954004500001 151.20612,-33.848977 151.206062016,-33.848994001500003 151.20600300800001,-33.849008006 151.20594598400001,-33.849017996 151.20587500799999,-33.849025007500003 151.20580201600001,-33.849024008500002 151.205728,-33.849017996 151.20565398399998,-33.849010004 151.20558099199999,-33.849000994499995 151.205496,-33.848989006499998 151.205412,-33.848973004 151.205328,-33.848955003500002 151.205244,-33.848937003 151.20516,-33.8489219995 151.205104,-33.848911991 151.205048992,-33.848902001 151.2050104,-33.848894971 151.204994016,-33.8488919925 151.204938016,-33.848884999500001 151.204883008,-33.848881003500004 151.20480601599999,-33.848882002499998 151.204728,-33.848887996499997 151.20465001599999,-33.848899004 151.20457500800001,-33.8489150065 151.20450201599999,-33.848936004 151.20440300800001,-33.848975002 151.204304992,-33.849025007500003 151.20421299200001,-33.849084004 151.20413401600001,-33.849149993499999 151.20407299199999,-33.849221995500002 151.204039008,-33.849279993 151.204012,-33.849343004 151.203992992,-33.849407994499998 151.203982016,-33.849473003500002 151.203979008,-33.849536995 151.203994016,-33.850195003 151.20400601599999,-33.850235 151.204012992,-33.850276995 151.204015008,-33.850319008500001 151.204012,-33.850362002499999 151.204004,-33.850401999500001 151.203996,-33.850434004499995 151.203984,-33.850465991 151.203970016,-33.850497996 151.203952,-33.850525006 151.203928,-33.850547002499994 151.203892,-33.850564004 151.203844992,-33.850572995 151.20379401599999,-33.850576991 151.20374201600001,-33.850573994 151.20369398400001,-33.850568 151.20364499199999,-33.850552996499999 151.20359699199997,-33.850528003 151.20355100800001,-33.85049699699999 151.203507008,-33.850462994 151.203464,-33.850431007499999 151.203384992,-33.850367996500005 151.20331299200001,-33.850298991500004 151.20324601600001,-33.850224991499999 151.203182016,-33.8501489935 151.20312099200001,-33.8500729955 151.203044992,-33.849975001 151.202972,-33.849873991 151.20290499199996,-33.849771001500002 151.202846016,-33.849664996500003 151.202796,-33.849556993499995 151.202755008,-33.849450008 151.202719008,-33.849340007 151.202692,-33.849228008 151.202676,-33.849117008 151.202676,-33.849007007 151.20269001599999,-33.848914007499999 151.20271500800001,-33.848820009 151.20274998400001,-33.848728008500004 151.202788992,-33.848636008 151.202832,-33.848547004499999 151.20288,-33.848467991 151.20294,-33.848391993 151.203,-33.848315995 151.203048,-33.848239997 151.20307299199999,-33.84816100199999 151.203076,-33.848126999 151.203076,-33.848092996 151.20307401599999,-33.848057994 151.20306899199997,-33.848023991 151.20306201599999,-33.847990006499998 151.202810048,-33.847621505 151.202524,-33.84720399699999 151.2025,-33.847179003500003 151.20247801599996,-33.8471529925 151.20245699200001,-33.847126001 151.20244,-33.847096993 151.202424992,-33.847068003499999 151.202416,-33.847042991500004 151.20241100800001,-33.847016 151.20240700799999,-33.846989008500003 151.20240099200001,-33.8469629975 151.20239001600001,-33.846938004 151.20234499200001,-33.846732006499998 151.202224,-33.846339991500002 151.20221699199996,-33.846313 151.20220700799999,-33.846287007500003 151.202196,-33.8462609965 151.20218300799999,-33.846236003 151.202168,-33.846212008500004 151.20212499199999,-33.846160005 151.2020968,-33.846134900500005 151.20206899199999,-33.846111997500003 151.20200499200001,-33.846068004500005 151.20193699199999,-33.846029006499997 151.201868,-33.845993005499999 151.201788,-33.845958003500002 151.201704,-33.845929994500004 151.201615008,-33.845906 151.201526016,-33.845883004499996 151.20143801599997,-33.845860009 151.20136700800001,-33.845843007500001 151.20129401599999,-33.845828004 151.201220992,-33.845813000500002 151.201152,-33.845794001 151.201088992,-33.84576699099999 151.201048,-33.845741997499999 151.201008,-33.845714007 151.20097100800001,-33.845684 151.200936,-33.845650996 151.20090499200001,-33.845617992 151.20087900799999,-33.845581991 151.20085900800001,-33.845542993 151.20084,-33.845502996 151.200819008,-33.845464997 151.200792,-33.845430994 151.20075299199999,-33.845398008499998 151.20070700799997,-33.8453690005 151.20065801600001,-33.845343008 151.20060899200001,-33.845317996 151.20056099199999,-33.845291004499998 151.20050499199999,-33.845257001500002 151.200448,-33.8452239975 151.200392,-33.845190993500005 151.20033699199999,-33.845157009 151.20028300800001,-33.845121008 151.20022899200001,-33.845081991500003 151.20017299200001,-33.845042993500002 151.20012,-33.845001997499992 151.200072,-33.844959003500001 151.200030016,-33.844911995 151.199996,-33.844863007 151.19996499199996,-33.844810004500005 151.19994,-33.844756003 151.199924,-33.844701002500003 151.19991900799999,-33.844647001 151.19992499200001,-33.844606005 151.19994,-33.844566008 151.19995900800001,-33.844524993500002 151.19997801599999,-33.844483997499999 151.19999401600001,-33.844443001500004 151.200006016,-33.844371998500002 151.20000899199999,-33.844298997500005 151.200012,-33.844225996500001 151.20002201599999,-33.844155992499999 151.200048,-33.844093 151.20008,-33.844054002 151.20012,-33.844018001 151.200163008,-33.843983998 151.20020499200001,-33.843948996 151.20023900800001,-33.843909998 151.20026099200001,-33.843873997 151.20028,-33.843834999 151.20029699199998,-33.843796001 151.200311008,-33.84375600399999 151.20032499199999,-33.843716007 151.200334016,-33.843677009 151.20034099200001,-33.8436379925 151.200346016,-33.843598994499999 151.20035299200001,-33.843559996499998 151.200364,-33.843521997499998 151.20037500800001,-33.843492009 151.200388992,-33.843462002 151.200404,-33.843432994 151.20042,-33.843404004500002 151.20043699199999,-33.843375995499997 151.20041500799999,-33.843361991 151.20039401599996,-33.843345008 151.20037500800001,-33.843327007500001 151.20035900799996,-33.843307009 151.200344992,-33.843286992 151.200334016,-33.843260000500003 151.20032899200001,-33.843230992500004 151.200328,-33.843201004 151.20032700799999,-33.843169998 151.20032499199999,-33.843139991 151.200323008,-33.843118993499999 151.200320992,-33.843096997 151.20031900800001,-33.843075999500002 151.20031699200001,-33.84305400299999 151.200316,-33.843033005499997 151.200168,-33.842786992499995 151.199916,-33.842528991500004 151.199872992,-33.842391999 151.19988700799999,-33.842256005499991 151.19987801600001,-33.842157992499999 151.19986601599999,-33.842121991500001 151.19985401599999,-33.842086009 151.19984099199999,-33.842051007 151.199826016,-33.842016005 151.19981100800001,-33.841981003 151.19977699199998,-33.841916993 151.19973299200001,-33.841844991 151.19969001599998,-33.8417780025 151.199656,-33.841727997 151.19964300800001,-33.841708997499993 151.19958700800001,-33.841682006 151.199532992,-33.841651 151.19948099199999,-33.841617996 151.199432,-33.841582994 151.19938499200001,-33.84154599399999 151.19934998400001,-33.841514007500002 151.19931500799999,-33.841480004499999 151.19928300800001,-33.841445002499995 151.199252,-33.841409001500004 151.19922499200001,-33.841372001499998 151.19920499200001,-33.841334002499998 151.19919100800001,-33.841293006500003 151.19917801599996,-33.841251992 151.19916,-33.841214992 151.19913299199999,-33.841188000500004 151.199094016,-33.841171998 151.19904601600001,-33.84116500499999 151.198992992,-33.841163007 151.198965472,-33.841163525 151.198939008,-33.841164006 151.19888700800001,-33.841162008 151.19883001599996,-33.841155995500003 151.198772,-33.841150001500004 151.198714016,-33.841146005500001 151.198656992,-33.841144007499999 151.1986,-33.841146005500001 151.198543008,-33.841151999499999 151.19848601599998,-33.841161009 151.198428992,-33.841173996 151.198375008,-33.841189998499999 151.19832499200001,-33.841210996 151.1983,-33.8412220035 151.198276,-33.841233991500005 151.19825299199999,-33.841246997 151.19823100799999,-33.841261001500001 151.19821401600001,-33.841277004 151.19819699199999,-33.841309009 151.198192,-33.841346009 151.198192,-33.841388004 151.198195008,-33.841430998 151.198196,-33.841470995 151.198195008,-33.841505997 151.198194016,-33.84154 151.198192992,-33.841574003 151.198192,-33.84160800599999 151.198192,-33.841643008 151.198194016,-33.841710995500002 151.19819900799999,-33.841780000500002 151.19820300800001,-33.841849005500002 151.198204,-33.841916993 151.19819900799999,-33.841984999 151.198192992,-33.842026994 151.19818499199999,-33.8420680085 151.198176,-33.842109004500003 151.19816499199999,-33.842150000499998 151.19815401599996,-33.8421899975 151.198136992,-33.842230993499996 151.198118016,-33.842272008 151.19809699199999,-33.842312005 151.19807900800001,-33.842353001 151.19806700800001,-33.842393997 151.19806099199997,-33.8424410055 151.19806,-33.842488994500002 151.198064,-33.842538001 151.198068992,-33.842586008499993 151.198076,-33.842633997500002 151.198084,-33.842680007 151.198096,-33.842725998 151.19810899199999,-33.842772007500002 151.19811900799996,-33.842816999500002 151.198124992,-33.842863009 151.198128,-33.842910998 151.198127008,-33.842959005499999 151.19812300800001,-33.843007993500002 151.198116,-33.843056001 151.19810700799997,-33.843102991 151.19809001600001,-33.843166002 151.198068992,-33.843228994500002 151.19804201599999,-33.843291006500003 151.198012,-33.84335100199999 151.19797699200001,-33.843408999499999 151.197916,-33.843498003 151.19784300800001,-33.843583991 151.19776,-33.843665002500003 151.19767001599999,-33.843736005499998 151.197572,-33.843792005 151.197498016,-33.843821993500001 151.19742,-33.843847005500002 151.197338016,-33.843867004 151.19725500800001,-33.843881008499999 151.19717299199999,-33.843888001499998 151.19711100800001,-33.843889000499999 151.197048,-33.843884005500001 151.19698499200001,-33.843875995 151.19692201599997,-33.843868003 151.19685900799999,-33.843860991499994 151.196730016,-33.843849003500004 151.19660099199999,-33.843834 151.196472,-33.843821993500001 151.196344,-33.843815000500001 151.196216,-33.843816998500003 151.196132992,-33.843823991500003 151.19605001599999,-33.843834 151.195967008,-33.843847005500002 151.195884992,-33.843862009 151.195804,-33.843879991 151.195364,-33.843964998499999 151.19534,-33.843980002 151.19531699199999,-33.843995005499998 151.19529401599999,-33.844011008 151.195272,-33.844027991 151.19525001599999,-33.844044992499995 151.19521500799999,-33.844075998500003 151.19518,-33.844109002499998 151.195148,-33.844144004500002 151.19511900800001,-33.8441800055 151.195092,-33.844217005499999 151.19507100800001,-33.844253006499997 151.195052992,-33.844290006500003 151.19503699200001,-33.844328005500003 151.19502201599997,-33.844366004499996 151.195007008,-33.844405002500004 151.194988,-33.844451992499998 151.19497100799998,-33.8445 151.19495500799999,-33.844549006500003 151.19494099199997,-33.844596995499998 151.19492899199997,-33.844646002 151.19492,-33.844691993 151.19491299199998,-33.844739001500002 151.194908,-33.844785991500004 151.194906016,-33.844833 151.194906016,-33.844880008499992 151.19490899199999,-33.844937007 151.19491299199998,-33.844994005499998 151.19492201599999,-33.845051004 151.19493801600001,-33.845105005500002 151.194964,-33.845152994500005 151.19497900799999,-33.845172993 151.19499500799998,-33.845192991499999 151.19501299199999,-33.84521099199999 151.195032,-33.845228992500004 151.195052992,-33.845245994 151.19552198400001,-33.84565399299999 151.195536,-33.845669995500003 151.195551008,-33.845684 151.195576,-33.845698004500001 151.195606016,-33.845706995500002 151.195639008,-33.845714007 151.195672,-33.845719002 151.195704992,-33.845723997 151.195774016,-33.845734005499999 151.19584499199999,-33.845739000500004 151.195916,-33.845740998499998 151.195987008,-33.845741997499999 151.19605801599997,-33.845744994500002 151.196122016,-33.845749009 151.19618499200001,-33.845752006 151.19624899199999,-33.845756002 151.196312,-33.845759998 151.196376,-33.845763994 151.19645699200001,-33.8457429965 151.19654601600001,-33.845729991 151.19663801600001,-33.845726994 151.196728,-33.845733006499991 151.196812,-33.845747991499998 151.196854016,-33.845758999 151.19689801600001,-33.845771005499998 151.19694,-33.845786009 151.19697500800001,-33.845803991 151.197,-33.845827005 151.19821500800001,-33.84679000399999 151.19824,-33.846804008500001 151.198264,-33.846820991500003 151.19828700799997,-33.846839991 151.19830601599998,-33.84686100699999 151.19832201599996,-33.846883003500004 151.19833401599999,-33.846908996 151.19834,-33.846937005 151.198344,-33.846966993500004 151.19834499199999,-33.846997000500004 151.19834601599999,-33.847027007500003 151.198348,-33.847071000500002 151.198348,-33.847115992500001 151.198344,-33.847161003 151.19833401599999,-33.847202998 151.19831398400001,-33.847238 151.198288,-33.847264991499998 151.198256,-33.847289004499999 151.198219008,-33.847310002 151.19817900800001,-33.847328002499999 151.19814,-33.847342007 151.1981,-33.847349999 151.198059008,-33.847352996 151.198016,-33.847352996 151.19797299199999,-33.847352996 151.19793100799998,-33.847353995 151.19787100799999,-33.847357991 151.197811008,-33.847362005500003 151.19775100799998,-33.847366001499999 151.19769100799999,-33.847368998500002 151.197631008,-33.847371995499998 151.19756201600001,-33.847372994499999 151.19749299200001,-33.847372994499999 151.19742300799996,-33.847372994499999 151.19735500799999,-33.847372994499999 151.19728601599999,-33.847374992500001 151.197236992,-33.847378008 151.197188,-33.847382004 151.197138016,-33.847386 151.197088992,-33.847389996 151.19704,-33.847393992 151.196979008,-33.847398006500001 151.19691699200001,-33.847402002500004 151.196855008,-33.8474049995 151.19679299200001,-33.847405998500001 151.196732,-33.847404000499999 151.19668,-33.847398006500001 151.196628992,-33.847387998 151.19657801599996,-33.847377009 151.196527008,-33.847369997500003 151.19647801599999,-33.847369997500003 151.19644099199999,-33.847377009 151.196404,-33.847387998 151.196368,-33.847401003500003 151.196332,-33.847415008 151.19629500799999,-33.847427995 151.19621699199999,-33.847456004 151.19613900799999,-33.847486991499999 151.19606099200001,-33.847516998499998 151.19598201599999,-33.847544008500002 151.19590201599999,-33.847566005 151.195828992,-33.847582007500002 151.19575500799999,-33.847593995499999 151.19568,-33.847603005 151.195604,-33.847609998 151.19552899199999,-33.847613994 151.194472,-33.847825005 151.19440601599999,-33.847833996 151.19434099200001,-33.847842006500002 151.19427500800001,-33.847849998500003 151.194210016,-33.847858009 151.194144,-33.847866001 151.194039008,-33.847880005500002 151.19393299199999,-33.847896008 151.193827008,-33.847909994 151.19372201600001,-33.847919003500003 151.193616,-33.847919003500003 151.193524,-33.847912991 151.19343100799998,-33.84790200199999 151.19333798399998,-33.847886998500002 151.19324899200001,-33.847865002 151.19316499199999,-33.847835994 151.193092,-33.847806005500004 151.193018016,-33.8477710035 151.192948992,-33.847731006499998 151.192891008,-33.847684997 151.19285100799999,-33.847634991500001 151.19283299200001,-33.847586003499998 151.192826016,-33.847532002 151.192826016,-33.847475003500001 151.192832,-33.847418005 151.19283900799999,-33.847362005500003 151.19286099199996,-33.847269006 151.19289900799998,-33.847178004500002 151.192947008,-33.84708700299999 151.192996,-33.846996001500003 151.193039008,-33.846904001 151.193084992,-33.846793001 151.19313100799999,-33.846683 151.193174016,-33.846572 151.19321299200001,-33.846460001 151.193240992,-33.846347003 151.19326201600001,-33.8462160045 151.19327100800001,-33.846083008 151.193272992,-33.845948994 151.19326899199999,-33.845814998500003 151.193264,-33.845681003 151.19325801599999,-33.845550004499998 151.193248,-33.845420005 151.19323500799999,-33.845289006500003 151.193216992,-33.845159007 151.193196,-33.845029007500003 151.19355299200001,-33.843292005499997 151.193568,-33.843217006499991 151.19357299200001,-33.843196009 151.193602016,-33.843123008 151.19364099200001,-33.843052005 151.19368700800001,-33.842982001 151.193736,-33.842912996 151.19378601599999,-33.842845008499992 151.19386,-33.842755006 151.19394300799999,-33.842668999499999 151.194028992,-33.842584991 151.194108992,-33.842498004 151.194178016,-33.842406003499995 151.194219008,-33.842335999500001 151.194255008,-33.842263997499998 151.194288,-33.842190996500001 151.19431900800001,-33.842116996500003 151.19435001599999,-33.842042996499998 151.194378016,-33.84198000399999 151.194404,-33.841915994 151.19443001600001,-33.841853001499999 151.194456,-33.841788991500003 151.19448,-33.841725 151.19431801599998,-33.841619994 151.194472,-33.841450996500001 151.19436099199999,-33.8409009915 151.194292,-33.840911999 151.19394300799999,-33.839250995 151.19399100800001,-33.839230996499992 151.19403699200001,-33.839205004 151.19408099200001,-33.839174997 151.19411900799997,-33.839140994 151.194152,-33.839104993 151.194164992,-33.839085993499999 151.194176,-33.839065995 151.194186016,-33.839044997500004 151.194196992,-33.839024 151.194208992,-33.839004001500001 151.19423900800001,-33.838967001499995 151.19427401600001,-33.838931999499998 151.194311008,-33.838896997500001 151.19434201600001,-33.838861995500004 151.19436300800001,-33.838822997500003 151.19437001599999,-33.838801001 151.19437500800001,-33.838778005500004 151.19437516799999,-33.838776081500001 151.194378016,-33.838754991500004 151.194379008,-33.838731996 151.194379008,-33.838709000500003 151.194372,-33.838655998 151.194356,-33.838600997500002 151.19433100800001,-33.838547995 151.19429900799997,-33.838498008 151.19426099200001,-33.838455994500002 151.19421699200001,-33.838427005 151.194163008,-33.838406007499998 151.19410601600001,-33.838387008 151.194051008,-33.83836599199999 151.19400300800001,-33.838338001499999 151.19397001599998,-33.8383089935 151.193938016,-33.838276008 151.19391001599999,-33.838241006 151.19388499199999,-33.838205005 151.19386499199999,-33.838168005 151.19330300799999,-33.837729999 151.193107008,-33.837875002 151.19257100799996,-33.837444007500004 151.192554016,-33.837427006 151.19258208,-33.837312731499999 151.192488704,-33.837167895 151.19280364799999,-33.836396889 151.19280966400001,-33.836317894 151.19279267199997,-33.836206894 151.19278867199998,-33.836183898500003 151.19278867199998,-33.836181900500002 151.19278764800001,-33.836172891 151.19278764800001,-33.836161902 151.19278764800001,-33.836150894500001 151.192789664,-33.836139887 151.192791648,-33.836129897 151.19279465599999,-33.8361188895 151.192799648,-33.836108899499997 151.19280467199999,-33.836097892 151.19281065600001,-33.836088901 151.19281667199999,-33.836078892499998 151.192824672,-33.836069901500004 151.19283267200001,-33.836060892 151.19284166400001,-33.8360529 151.192859648,-33.836038895500003 151.19288867200001,-33.8360159 151.19289065599997,-33.836013902 151.19289865599998,-33.836007889500003 151.19290966400001,-33.835999897500002 151.19291865599996,-33.835990888 151.19292764799999,-33.835981897 151.19293465600001,-33.835971888499998 151.19294265600001,-33.835961898500003 151.19309065600001,-33.835713887499999 151.193096672,-33.835704896500005 151.193104672,-33.835696886 151.19311267199998,-33.835689893 151.19312067199999,-33.8356829 151.19313065599999,-33.835675888499999 151.193139648,-33.835669894500001 151.193149664,-33.835663900500002 151.193161664,-33.835658887 151.193171648,-33.835654891 151.193183648,-33.835650895 151.193194656,-33.835648897 151.193207648,-33.8356459 151.19321964799997,-33.835644901 151.19323164799997,-33.835643902 151.19324364799999,-33.835643902 151.19325564799999,-33.835644901 151.19326764799999,-33.8356459 151.19327964799999,-33.835647898 151.19329164800001,-33.835650895 151.19330265599999,-33.835653892 151.19377363199999,-33.835807886 151.19434662399999,-33.835458883500003 151.194817632,-33.83515387399999 151.1949256,-33.835084869 151.19509059199999,-33.834955868500003 151.195130592,-33.834981879499992 151.19516860799996,-33.834945878500001 151.19558352000001,-33.834554640500002 151.19560368,-33.834535641 151.19569872,-33.834488225500003 151.19577072000001,-33.834465803500002 151.19584451200001,-33.834449782500002 151.19591939200001,-33.834440255 151.19599465600001,-33.834437276500005 151.19607024000001,-33.834440884 151.19613180799999,-33.834453834 151.19619193599999,-33.834473185 151.19624915200001,-33.834498752 151.19630387199999,-33.834530257499992 151.19635500800001,-33.834567239 151.19641584,-33.834646252500001 151.196468576,-33.8347308715 151.19651305599999,-33.834820134 151.196532128,-33.8349025885 151.19654291199998,-33.834986634 151.19654435199996,-33.835071327 151.19653715199996,-33.8351557425 151.19652057600001,-33.835238863 151.19647660800001,-33.835338855499998 151.19642521599999,-33.83543529599999 151.196366176,-33.835527537 151.196300608,-33.835614857 151.19622860800001,-33.835696867499998 151.19620560000001,-33.835717883500003 151.196187584,-33.835742877 151.19617609599996,-33.835771885 151.196170688,-33.835802391499996 151.19617248,-33.835833268 151.19618060799999,-33.835862849500003 151.196269696,-33.835980417 151.19664588799998,-33.835702861500003 151.196711776,-33.835661643500003 151.19677657599999,-33.835627178 151.196839936,-33.835597115500001 151.19687232000001,-33.835585238500002 151.196905792,-33.835576765500001 151.19694035200001,-33.835571918500001 151.196976,-33.835569754 151.197012352,-33.835570290500002 151.197048,-33.835573435500002 151.19725356800001,-33.8355794665 151.197416992,-33.835584239500001 151.19844048,-33.83535815099999 151.198742176,-33.836230259499999 151.19974691199999,-33.8354548135 151.200856512,-33.834589846 151.20148969600001,-33.834086017 151.20199907200001,-33.833680737500003 151.20455004799999,-33.833185733 151.20470051199999,-33.833509649500002 151.20475641600001,-33.8337317975 151.20484640000001,-33.834098800500001 151.2049104,-33.834356542500004 151.205347072,-33.834433502499998 151.20581795199999,-33.834516475 151.207671328,-33.834842778 151.208091712,-33.832826722 151.20830448000001,-33.8318681445 151.20852528,-33.830874787 151.20885328,-33.829382780499991 151.20895523199999,-33.828919781 151.209504256,-33.829002790499999 151.21010988800001,-33.829095142500002 151.21079315200001,-33.829199723 151.21082627199999,-33.829204773500003 151.21088460799999,-33.829213672 151.21231916799999,-33.829431768500001 151.21322460799999,-33.82954604299999 151.21346940800001,-33.829576734499994 151.21366739199999,-33.829601672500004 151.213835168,-33.829622725500002 151.21381068799997,-33.829724438499994 151.21377612799998,-33.829853587 151.21374876799996,-33.829947363500004 151.213716,-33.830029984500001 151.213676416,-33.830119432 151.213573088,-33.830333828500002 151.21349100800001,-33.830495999500002 151.21316304000001,-33.83110548199999 151.21305648000001,-33.831302137 151.21292220800001,-33.83151573799999 151.212732832,-33.831818194500002 151.21222124799999,-33.832606738500004 151.21208924800001,-33.832833752 151.211929312,-33.833112473 151.21184329600001,-33.833282765500002 151.21172988799998,-33.833518474 151.211621536,-33.833757605 151.211518912,-33.833997994 151.21142243200001,-33.834239918500003 151.211331712,-33.8344830825 151.21127664,-33.834640221499996 151.21122336,-33.834798008 151.21117296,-33.834956312500005 151.21112508799999,-33.835115246 151.21108009599996,-33.835274642 151.21103676800001,-33.8354537405 151.21101817600001,-33.835517010499998 151.21098,-33.835683066500003 151.21096236799997,-33.835760544500005 151.21093680000001,-33.835882681500003 151.21085353599997,-33.836382181499999 151.21059228799999,-33.837915868499998 151.21054969599996,-33.838143973500003 151.21149552,-33.838277858 151.21148867199997,-33.838355151 151.21133388800001,-33.839092894 151.21128384,-33.83921529 151.211278432,-33.839248146 151.211254688,-33.839466742 151.211405888,-33.839450092 151.21176131199999,-33.838773732 151.21180585600001,-33.838773121500004 151.21187532799996,-33.838794267 151.21205388800001,-33.838860608 151.21215180799996,-33.838906765499999 151.212351232,-33.838979766500003 151.212410272,-33.83865918 151.21246067199999,-33.83838378899999 151.21335276799999,-33.838496454 151.21339811199999,-33.838502318499998 151.21383913599999,-33.838560186500004 151.21415088000001,-33.838612467499999 151.21419804799996,-33.838611931 151.214245568,-33.838614891 151.21429344000001,-33.838621014499999 151.21433987200001,-33.838630375500003 151.21438451200001,-33.838642807500001 151.21440755200001,-33.838650892 151.21445292799999,-33.838669984 151.21449648000001,-33.838691481 151.21454291200001,-33.838717584500003 151.21458793599999,-33.838746574 151.21463075200001,-33.838778153500002 151.21467072,-33.838811823500002 151.21470745600001,-33.838847195500001 151.21476793599999,-33.838892557500003 151.21484064,-33.838952941499997 151.214884192,-33.838999746499994 151.21492380800001,-33.839054099500004 151.21494649600001,-33.839069584 151.21498896,-33.839103420500003 151.21502748799998,-33.839140402 151.21505449599996,-33.839174423500005 151.21507644799999,-33.839211516 151.21511568,-33.839289364 151.21513657599999,-33.83932743699999 151.21523088000001,-33.839487277 151.21526544,-33.8395386515 151.21530432,-33.839587436 151.21533961599999,-33.839625324 151.21537705599999,-33.839662046500003 151.215416288,-33.839697418500002 151.21545769599999,-33.839731162500001 151.21550051200001,-33.839763112 151.21589616,-33.839975695499994 151.21637820800001,-33.840234362499999 151.216237248,-33.840377682 151.21625324799999,-33.840404692 151.21613500799998,-33.840473993</coordinates></LinearRing></outerBoundaryIs></Polygon>

	</Placemark>
</kml>