<?xml version="1.0" encoding="UTF-8"?>
<kml xmlns="http://www.opengis.net/kml/2.2">
	<Placemark>
		<Style>
			<LineStyle>
				<color>ff0000ff</color>
			</LineStyle>
			<PolyStyle>
				<fill>1</fill>
				<color>330000cc</color>
			</PolyStyle>
		</Style>
			<ExtendedData><SchemaData>
		<SimpleData name="STATE_2006">1</SimpleData>
		<SimpleData name="POA_2006">2799</SimpleData>
	</SchemaData></ExtendedData>
      <Polygon><outerBoundaryIs><LinearRing><coordinates>149.14927299199999,-33.6063149975 149.14882796800001,-33.606251098500003 149.148840992,-33.606220092500003 149.14898598400001,-33.605860101 149.14927696000001,-33.605192103 149.149481952,-33.604743089499998 149.14969494399998,-33.604328097500002 149.149974912,-33.603934103 149.150244,-33.603609002500001 149.15060390400001,-33.603237078500001 149.15074,-33.603118993 149.150879296,-33.603005884 149.151020768,-33.60290039699999 149.15131488,-33.602703927 149.15159929599997,-33.602463630500004 149.151979872,-33.602232084500002 149.152629856,-33.601854074 149.1531336,-33.601644450500004 149.15417184,-33.601288233 149.15425571199998,-33.601259521 149.1541776,-33.6012021895 149.15409481599997,-33.601149057500002 149.15400982400001,-33.601100069499999 149.15392163199999,-33.601056483500003 149.15383180800001,-33.601018059 149.15371686399999,-33.600979061 149.153597856,-33.600948055 149.15347584,-33.600926058500001 149.15335248,-33.600909963499994 149.15323008,-33.6008993445 149.15310185600001,-33.600894072 149.15297184,-33.60089607 149.15284284800001,-33.600905079500002 149.15271385599999,-33.600920083 149.152586848,-33.6009410805 149.152470112,-33.600965667 149.15235385599999,-33.600996081 149.15223900800001,-33.6010315455 149.152124864,-33.60107108 149.15201286399997,-33.601114074 149.151889888,-33.601167076499998 149.15176889599999,-33.60122707199999 149.15164889600001,-33.601291082 149.151529888,-33.601358070499998 149.15141289600001,-33.601424078500003 149.15127689600001,-33.601503073499991 149.15114387200001,-33.601586083 149.15090288,-33.601738079 149.15093088,-33.601701079 149.150987872,-33.60162608 149.151043872,-33.601551081 149.15145689600001,-33.600973085500002 149.15148288,-33.60093007299999 149.151505888,-33.60088608 149.151529888,-33.600829081500002 149.15154988800001,-33.600770085 149.15156723199996,-33.600709978499999 149.15157984,-33.600649076499998 149.15158684799999,-33.600588082 149.15158784,-33.600518078 149.15158163199999,-33.600448351499999 149.15156985600001,-33.60037807 149.15153737599996,-33.60023883899999 149.15151484800001,-33.600168076500005 149.15148784,-33.600098072500003 149.15145785599998,-33.600029086 149.15142784,-33.599959082 149.15139884800001,-33.599890077 149.15137686400001,-33.599832079500004 149.15135484800001,-33.599773083 149.15133385600001,-33.599714086500001 149.15131184000001,-33.599656070500004 149.15128784000001,-33.599598073 149.15127184,-33.599560074 149.15125484799998,-33.599523074 149.15123785599999,-33.599485075 149.15122086400001,-33.599447076 149.15120486399999,-33.599409077 149.15118486399999,-33.5993550755 149.15116486400001,-33.599301074 149.151145856,-33.599246073499991 149.15112985600001,-33.599191073 149.15111484799999,-33.599135073500001 149.15110585599999,-33.599091080499996 149.15109785600001,-33.59904607 149.15109084799997,-33.599001078 149.15108486400001,-33.598957085 149.15107984,-33.598912074499999 149.15107584,-33.598862087500002 149.15107184,-33.59881108299999 149.151068864,-33.598761077499994 149.151066848,-33.598710073 149.15106486400001,-33.598660086 149.15106284800001,-33.598610080500002 149.15106086399999,-33.598561074 149.15105984,-33.598512086 149.15105884799999,-33.5984630795 149.151056864,-33.598413074 149.15105584,-33.598356075499993 149.151053856,-33.598299077 149.15105184,-33.5982420785 149.15105286400001,-33.598184081 149.15105584,-33.5981270825 149.15106086399999,-33.598082072 149.151066848,-33.59803708 149.15107484800001,-33.59799208799999 149.15108384000001,-33.597948058 149.15109584000001,-33.597904065 149.15111584,-33.597852061499999 149.15113980800001,-33.597802056 149.151165824,-33.597752069 149.15119283199999,-33.597702063500002 149.15121782400001,-33.597652058 149.151244832,-33.597592062499992 149.15127081599999,-33.597531068 149.15129580799999,-33.597470055 149.15132083200001,-33.597409060499999 149.151346816,-33.597348066 149.151370816,-33.597293065500004 149.151393824,-33.597237066 149.15141782399999,-33.597182065499993 149.15144281600001,-33.597127065 149.15146883200001,-33.597073063499998 149.15148982400001,-33.597032067500002 149.15151081600001,-33.596992052 149.15153283199999,-33.596952055 149.15155580800001,-33.596912058 149.15157683199996,-33.596872061 149.15159980799999,-33.596834062 149.15162182399999,-33.596795064 149.15164483199999,-33.596757065 149.15166681599999,-33.596717068 149.151685824,-33.596677052499992 149.151695808,-33.596654057 149.15170582399998,-33.596630062500004 149.15171481600001,-33.596606068 149.15172380800001,-33.59658105599999 149.15173382399999,-33.5965570615 149.15175478399996,-33.596496067 149.151774784,-33.596434055 149.15179379200001,-33.596372061499999 149.15181379200001,-33.596309069 149.15183478399999,-33.596248056 149.15186678399999,-33.596164066 149.1519008,-33.596080057500004 149.1519368,-33.595997066500004 149.15197078400001,-33.595913058 149.15200377599999,-33.595829068 149.15202880000001,-33.595757066 149.15205280000001,-33.595683066 149.152075776,-33.595609066 149.152099776,-33.595536065 149.1521248,-33.595463064 149.15215379200001,-33.595388065 149.15217491199999,-33.5953386885 149.15227376000001,-33.595090067 149.152311744,-33.594973054500002 149.15232876799999,-33.594914058 149.15234736,-33.594855746 149.15236876799997,-33.594798063 149.15242976,-33.5946660655 149.15246374399999,-33.594601056500004 149.15249776,-33.594537065 149.15253174399999,-33.594471057 149.15256374399999,-33.594405067499999 149.152596768,-33.5943380605 149.152628768,-33.594272052500003 149.152660768,-33.594205064 149.15269376,-33.594139056 149.152727744,-33.594074065500003 149.15276176,-33.594008057499998 149.152795744,-33.593943067 149.15282976,-33.593878058 149.152863712,-33.5938120685 149.152884736,-33.593771054 149.15290473600001,-33.593730058 149.15292473599999,-33.593689062 149.15314620800001,-33.593236385499999 149.15314873599996,-33.593231612499999 149.15319372799999,-33.593150046 149.15321971199998,-33.59310905 149.15324672,-33.593067036499995 149.15327571200001,-33.593027039500001 149.15330473599997,-33.592987042499999 149.153357728,-33.59292405 149.15338473599999,-33.592893044 149.15341273600001,-33.592862038 149.15354905599997,-33.592716091500002 149.15365868799998,-33.592612047499998 149.15369270400001,-33.592582040499998 149.153764704,-33.592524043 149.15380169599999,-33.592499049499999 149.153840704,-33.592478033499994 149.15392368,-33.592442051 149.154113696,-33.592357043500002 149.15457270399997,-33.592132046499998 149.15464870400001,-33.592097044500001 149.154775648,-33.592042044 149.154818656,-33.592024043500004 149.15486067200001,-33.592004045 149.154908672,-33.591979033 149.15500467199996,-33.591924051 149.155166528,-33.591819877500001 149.155316672,-33.5917230485 149.15546764800001,-33.591625035500002 149.15551824,-33.591592716 149.15572668799999,-33.591475796 149.155764672,-33.591452042 149.15580364799999,-33.591428047500003 149.15584166400001,-33.591403035500001 149.155879648,-33.5913790225 149.15591766399999,-33.591355028 149.15595363200001,-33.5913330315 149.155990624,-33.591311016500001 149.15602761599996,-33.59128902 149.15606464000001,-33.591267023500002 149.156101632,-33.591246026 149.15613264000001,-33.591228025500001 149.15616464,-33.591211024 149.15619561599996,-33.591194022499998 149.156226624,-33.591177021 149.156258624,-33.591160019500002 149.15628761599999,-33.591144017 149.15652371199997,-33.591019678500004 149.15656476800001,-33.590999421 149.156636416,-33.5909707275 149.15689363199999,-33.590889031499998 149.15822147200001,-33.590863797499999 149.15824758400001,-33.590863020500002 149.15943056,-33.590866017499991 149.160559552,-33.590881002499998 149.16091571199999,-33.590912138 149.16119552000001,-33.590937002 149.16291731199999,-33.589814755 149.16300336,-33.589758866499999 149.16302851200001,-33.589725011500001 149.163043488,-33.58970098 149.16306707199999,-33.589662666500004 149.163087488,-33.58962198499999 149.16310550399999,-33.58957999 149.163122496,-33.58953799499999 149.16313849599999,-33.5894949825 149.163154496,-33.589445994499997 149.163168512,-33.58939499 149.16318048,-33.589343985500001 149.16319248,-33.589292981 149.16320646400001,-33.589242994 149.163221472,-33.589196984499999 149.16323747199999,-33.589150993499999 149.163254464,-33.589104984 149.16327145599999,-33.589059992 149.16328745600001,-33.589013982499999 149.16330848000001,-33.58894899199999 149.16332848,-33.588882984 149.16334848,-33.588817993500001 149.16336848,-33.588752984500005 149.16338848000001,-33.588686995 149.16340646399999,-33.588628979 149.16342448,-33.588570981499998 149.16344246399998,-33.588511985 149.16346048,-33.588453987500003 149.16347648000001,-33.588394991 149.16349046400001,-33.5883369935 149.163503456,-33.588277978500003 149.163515456,-33.588219981 149.16352848,-33.5881609845 149.16354345600001,-33.588102987 149.16356345599999,-33.588036979 149.16358444799997,-33.587971988500001 149.16360742399999,-33.587906979499998 149.16362944,-33.587841989 149.16365142399999,-33.58777698 149.16366342399996,-33.587736983 149.16367644799999,-33.587696986 149.16368944000001,-33.587656989 149.16370144,-33.58761599299999 149.16371142400001,-33.587575977500002 149.16372444800001,-33.587524991500004 149.16374444799996,-33.5874209845 149.16376585599997,-33.587318346499998 149.163794432,-33.587214987 149.163812992,-33.5871464445 149.16382544000001,-33.587083988499998 149.16383542399998,-33.587020977500003 149.16384444799999,-33.586957985 149.163851424,-33.5868949925 149.16385942400001,-33.586830982500004 149.16386544,-33.586770987 149.16387142400001,-33.586709992499998 149.163876448,-33.586648979499998 149.16388044799999,-33.58658798499999 149.163885408,-33.586527989499999 149.16388841599999,-33.586491988499994 149.16389241600001,-33.586456986500004 149.16389539199997,-33.586342989500004 149.163896416,-33.586228992500004 149.16389539199997,-33.586114995499997 149.16389340800001,-33.58600098 149.16388940799999,-33.585886983 149.16388140800001,-33.585747992500004 149.163873408,-33.585662985 149.16386940800001,-33.585609982500003 149.16385539199999,-33.585470973500001 149.16383139199999,-33.585193973 149.1638184,-33.5848439715 149.16381436799998,-33.5846689615 149.16381136000001,-33.58449397 149.16380736,-33.584317961 149.16379638399999,-33.583935973 149.16379036800001,-33.583744960499999 149.16378636799999,-33.583552967500005 149.16378336,-33.583361973500004 149.163782368,-33.583139973500003 149.16378332799999,-33.582917973500003 149.16378534399999,-33.582695973500002 149.16378835200001,-33.582473973500001 149.163792352,-33.5822519735 149.16379635199999,-33.582017967 149.16380134400001,-33.581784959499998 149.16380633599999,-33.5815509715 149.163813344,-33.581316965 149.16381984,-33.5811518155 149.16382131200001,-33.581083976 149.163825312,-33.580716973 149.16382931199999,-33.580533971 149.16384032,-33.580351949499999 149.16386630400001,-33.580172943500003 149.16389030400001,-33.580082941 149.16395430399996,-33.579903953500001 149.16397830400001,-33.57981495 149.16398726400001,-33.579726945499999 149.163984,-33.579678512500003 149.163967808,-33.579581757500002 149.16395628800001,-33.579533953500004 149.16394528000001,-33.57948594599999 149.163916288,-33.579386952500002 149.16388028799997,-33.57928895799999 149.16383926399999,-33.579191944 149.16375126400001,-33.578999951 149.16372409599998,-33.578943655499991 149.16371526399999,-33.578923953 149.16355827199999,-33.578622958 149.16347728,-33.578451944 149.16343728000001,-33.578365956 149.16339827199999,-33.578279949500001 149.16335827200001,-33.578193943 149.16331926399999,-33.578101942499998 149.16328028800001,-33.578009942 149.16324128,-33.577917941500004 149.16320128000001,-33.577825941 149.163158272,-33.577736956 149.16311728,-33.577657942500004 149.16307427199999,-33.577580945500003 149.16302928,-33.577504947499996 149.16298428799999,-33.577428949500003 149.16293827199999,-33.577353950499997 149.16290528,-33.577297951 149.16280355200001,-33.577131784 149.162730272,-33.577034955 149.16269228799999,-33.576991942500001 149.16261564800001,-33.576906787 149.16260844799999,-33.576897685 149.162580736,-33.576862054 149.16250528,-33.576739954 149.162471264,-33.576676943 149.162439264,-33.576611952500002 149.16240828799999,-33.5765479425 149.16238163200001,-33.576485394 149.16231024000001,-33.576294955 149.16228425599999,-33.576232943 149.16225324800001,-33.576165954499999 149.162088256,-33.575836950499998 149.16189625600001,-33.5754349455 149.16186124800001,-33.575362943500004 149.16182723200001,-33.575288943499999 149.161795232,-33.575214943499994 149.16171523200001,-33.574998956 149.16168924799999,-33.574926954 149.161663232,-33.574854952 149.16164185599999,-33.574794938 149.16160323199998,-33.574686953499999 149.161572256,-33.574602945 149.161537248,-33.574521952 149.16149824,-33.574442957 149.16146323199999,-33.574385958500002 149.16142624,-33.5743299405 149.16138624000001,-33.574275957499999 149.16134624,-33.574221956 149.16130524799999,-33.574168953499999 149.16126025599999,-33.574108958 149.161213248,-33.574049943 149.16116624,-33.573991945499998 149.16111625600001,-33.573936945 149.161064256,-33.573882943500003 149.161021248,-33.573842946500001 149.160975232,-33.573805946500002 149.160929248,-33.573769945500004 149.160883232,-33.573732945499998 149.16083824,-33.573694946499998 149.16078825599999,-33.573648955499998 149.16073923199997,-33.57360194699999 149.160691232,-33.573553958 149.16064425599998,-33.573504951499999 149.16059824,-33.573454946 149.16055523199998,-33.573403941500004 149.160513248,-33.573350957500004 149.16047324799999,-33.573297955 149.160433248,-33.573244952499998 149.16039225599999,-33.57319195 149.16034124800001,-33.573131954499999 149.16028924799997,-33.573072958 149.16023824,-33.57301294399999 149.16018924799999,-33.572952948500003 149.16014425599997,-33.572888957 149.16010124799999,-33.572813958 149.160063232,-33.572736942499994 149.160029248,-33.572656948499997 149.159996256,-33.5725759555 149.15996524799999,-33.57249494399999 149.15993123199999,-33.5724009455 149.15990124800001,-33.572306947 149.159872256,-33.572211949500002 149.15982022399999,-33.5720199565 149.15979721599999,-33.571928955 149.15977520000001,-33.5718369545 149.1597552,-33.571744954 149.159736224,-33.5716539525 149.1597152,-33.571561952 149.159692224,-33.571459943 149.15966822399997,-33.571358951500002 149.15964563200001,-33.571257035 149.15960422399999,-33.57105294299999 149.1595832,-33.570911954499998 149.159568224,-33.5707689495 149.15953920000001,-33.570484956 149.15951920000001,-33.57034295 149.15943865599996,-33.569949862 149.159422208,-33.569850942500004 149.15940192,-33.569675192499993 149.15936716799999,-33.569278941 149.159358016,-33.569141486 149.15935516799999,-33.569026952500003 149.15935619199999,-33.568854958 149.15937673600001,-33.568438319500004 149.15936918400001,-33.568336958 149.159350176,-33.568253948500001 149.15916716800001,-33.567781958 149.15901116800001,-33.567486957 149.15898918400001,-33.567435952499999 149.15897459199999,-33.567380452500004 149.15896380800001,-33.567298645500003 149.15895049599999,-33.567070411 149.15895014399999,-33.56699593 149.15895984,-33.566476135499997 149.158958144,-33.5663779375 149.15895113600001,-33.566279924500002 149.15894115200001,-33.566222926 149.15889513600001,-33.565993933 149.15888214399996,-33.565877938 149.15887315200001,-33.565701929 149.15887315200001,-33.56562693 149.15888614400001,-33.565323937 149.15887814399997,-33.565103935 149.15887814399997,-33.565029935 149.15888416000001,-33.564957933 149.158911136,-33.564834926499998 149.15906012799999,-33.564343936500002 149.15916812799998,-33.564017929500004 149.15930211200001,-33.563641917 149.15939811199999,-33.563393906 149.15946912000001,-33.563233918 149.15963500800001,-33.562887006 149.159697088,-33.562758912 149.159764096,-33.562597906500002 149.15982409599999,-33.562433904 149.15992409599997,-33.562115907499994 149.15992809599996,-33.562100904 149.16002899200001,-33.561766997500001 149.16013801599999,-33.561415997 149.16020604799999,-33.5612159195 149.160261056,-33.561030901 149.16031206400001,-33.560844902 149.16038006400001,-33.560571897500004 149.160437632,-33.560296192 149.16046032,-33.560157682499998 149.16048732799999,-33.559912705500004 149.16048905599996,-33.559892892 149.16053100799999,-33.559173889500002 149.160536288,-33.559014697 149.16053500800001,-33.558855893 149.16052300800001,-33.558697903 149.16048902399999,-33.558468891499999 149.16046502399999,-33.558354894499999 149.160405024,-33.558131895500004 149.160370016,-33.558035899 149.16028300799999,-33.557847902 149.16024502400001,-33.557752886 149.16021900800001,-33.557656889500002 149.16020803199999,-33.557562891 149.160204032,-33.557467893500004 149.160214016,-33.557276899499996 149.16023568,-33.557102093 149.16026700800001,-33.556943881 149.16030499199999,-33.556786871500002 149.16039408,-33.556475516499994 149.16043369599998,-33.556300747 149.16046697600001,-33.556105868 149.16047939200001,-33.556008243500003 149.16048985599997,-33.555813124 149.16048480000001,-33.55561772699999 149.160476512,-33.5555204355 149.160452,-33.555348866500005 149.16042,-33.555199867500001 149.16038112000001,-33.555052071 149.16034998399999,-33.554945881 149.16030083199999,-33.554799546 149.16023785600001,-33.554633397499998 149.16019500799999,-33.5545316105 149.160161152,-33.554458628 149.160016,-33.554170879 149.15989196800001,-33.5539028695 149.15956396799999,-33.553025877 149.159440096,-33.552704791 149.15942425599999,-33.552666995500005 149.15937097599999,-33.552537754500001 149.15929248,-33.552370977 149.15920496000001,-33.552203848 149.15910636800001,-33.55204419299999 149.15906496,-33.551987583 149.158886752,-33.551769875 149.15882016,-33.551681223 149.15863894399999,-33.551438854499999 149.15855772800001,-33.551330037500001 149.15852281599999,-33.55127252099999 149.15847961599999,-33.5511878465 149.15842633599999,-33.551055368 149.15838745599999,-33.550917839 149.15837376,-33.55084728 149.15836547200001,-33.550776443499998 149.15836368000001,-33.550706421 149.15837017600001,-33.550636953500003 149.158383488,-33.550567837500004 149.15842272,-33.550430308500005 149.15847024000001,-33.550290263500003 149.158729792,-33.549698078500001 149.1587784,-33.549569910500004 149.15882844800001,-33.5494375245 149.158891904,-33.549258925499998 149.15891123200001,-33.54920451699999 149.15892780799996,-33.5491480735 149.158939328,-33.549090834499999 149.158947232,-33.549019739 149.15894905600001,-33.548946923 149.158945792,-33.548873663 149.158937536,-33.548801124500002 149.158924576,-33.548730306499998 149.158907648,-33.548668387 149.158885312,-33.548607263 149.15871891200001,-33.548213860499999 149.158655936,-33.548072853499995 149.158612928,-33.5479868655 149.15842921599997,-33.5476497585 149.15832083199996,-33.5474304225 149.15813292799996,-33.547049840499994 149.15788668799999,-33.546573354499998 149.15776889599999,-33.546357829500003 149.15757888,-33.546029843 149.15731465600001,-33.545606396499998 149.15717689600001,-33.545402841 149.157168832,-33.545392388499998 149.157102592,-33.545305882500003 149.15699488000001,-33.545182839 149.15687904000001,-33.5450669365 149.15633388800001,-33.544574836500004 149.15615257600001,-33.544417771500001 149.1559848,-33.544278633 149.155909568,-33.544216436 149.15575593599999,-33.544095834499991 149.15559168,-33.543981097500001 149.15541673600001,-33.543872817 149.155281376,-33.543796227 149.15513091199998,-33.543710831 149.15491235199997,-33.5435975185 149.15469097600001,-33.543491125 149.154574336,-33.543438936499996 149.15445731200001,-33.543388616500003 149.1542208,-33.543292768 149.15362716800001,-33.543066513 149.15271312,-33.542713255500004 149.15252793600001,-33.542636832 149.15240064,-33.542582035 149.152020128,-33.542410595500002 149.151890944,-33.542357852 149.15176992,-33.542314025499998 149.15164681600001,-33.542272807499998 149.15118204800001,-33.542122495 149.15092105599999,-33.542038172 149.15053331199999,-33.541897146499998 149.15045699199999,-33.541866991500001 149.15038249599999,-33.541833599 149.150243872,-33.541751422 149.15017980799999,-33.5417028225 149.15011753600001,-33.541650985499999 149.14999584,-33.54154407399999 149.14993248,-33.541486372500003 149.14974960000001,-33.541305923499998 149.14968694399997,-33.541246853 149.14961712,-33.541184156500002 149.14933091200001,-33.540938828 149.14912969599999,-33.540774659 149.149102688,-33.540750183500002 149.14900188799999,-33.540659108 149.14758601599999,-33.538886456500002 149.14691929599999,-33.538051533 149.145450496,-33.536159371499998 149.14535696,-33.536029834499999 149.14525536,-33.535910250500002 149.14520137599999,-33.535853733 149.14514627200001,-33.535800804499999 149.14508867200001,-33.535750225500003 149.14502892799999,-33.535701533499996 149.14490688000001,-33.535608201 149.144708896,-33.535476277500003 149.14440035199999,-33.535294552 149.14407529600001,-33.535095751 149.14396496000001,-33.535032832500001 149.143741216,-33.534926272500002 149.143397408,-33.534799473500001 149.14336428799999,-33.534785783499999 149.143284736,-33.534753205 149.14308025599999,-33.534657005 149.14287827199999,-33.53455466299999 149.142031968,-33.534096862 149.141892,-33.534012002499999 149.14176336,-33.53392755 149.14164201599996,-33.533834994499998 149.14151795199999,-33.533721848500001 149.14146060799999,-33.533661057499998 149.14140553600001,-33.5335977875 149.14131372799997,-33.533477093500004 149.14124028800001,-33.533361357499992 149.14117513599996,-33.533240941 149.14112976000001,-33.533142114 149.141089792,-33.533040604499995 149.14107216,-33.532989304 149.1405336,-33.530832629499997 149.14048499199998,-33.530638231499992 149.140008,-33.5286192525 149.139925568,-33.52826988 149.13917689600001,-33.527034838500001 149.13887977599998,-33.526583457 149.1385176,-33.5260342845 149.13843888,-33.525889836499999 149.13837590399999,-33.5257458325 149.13834288000001,-33.525648837 149.138292608,-33.525467019 149.13826390400001,-33.525348841 149.138236896,-33.525214845499995 149.138216288,-33.525078741 149.13820009599999,-33.524942044500001 149.1381576,-33.524465947 149.13813884800001,-33.524059835 149.13813708800001,-33.523654944 149.13814787199999,-33.523306811 149.13815363200001,-33.523218177499999 149.13816947199999,-33.522958622499999 149.13820585600001,-33.522501820500004 149.138235872,-33.522220824 149.138256864,-33.522080816 149.13828483200001,-33.521930818 149.13839184,-33.52148482 149.138465408,-33.521142422 149.138495296,-33.520983211 149.13857449599999,-33.520558321499998 149.1386688,-33.519999603 149.13874944,-33.519452854 149.13882684800001,-33.518744378 149.13884339200001,-33.518594250500001 149.138907488,-33.518168639500004 149.138937728,-33.517924384 149.13896473599999,-33.517573568499998 149.1389712,-33.517397522499998 149.13896940800001,-33.517222290500001 149.138960416,-33.517103483499994 149.13895609599996,-33.517048779 149.138928768,-33.516874805 149.13889075200001,-33.516701793 149.13884275199999,-33.516529798500002 149.13868272,-33.516030798 149.13862672,-33.51587081 149.138565728,-33.515712801500001 149.1385,-33.515557993500003 149.138426528,-33.515407348 149.13836425599999,-33.515295201 149.13829763199999,-33.515185496 149.13815184000001,-33.514966622500005 149.138083456,-33.514864373 149.13791772799999,-33.514652807 149.13771984,-33.514386666 149.13745974400001,-33.5140108015 149.137370656,-33.513886888500004 149.13723024000001,-33.513704996500003 149.13708572799999,-33.513525805500002 149.13645049600001,-33.512761533500004 149.13619872000001,-33.512458799499996 149.135991136,-33.512192991500001 149.13571392,-33.511824712 149.135669632,-33.511760276499992 149.13563072,-33.511692807 149.13557532799999,-33.51157218699999 149.13547379199997,-33.511289137 149.13535574400001,-33.510903800500003 149.13529776,-33.5107483265 149.135189696,-33.510455804499998 149.13510771200001,-33.51022379599999 149.134818688,-33.509339810500002 149.134626688,-33.508799795500003 149.13455689599999,-33.508578776 149.134546688,-33.508546808 149.13448848,-33.508399955 149.1344496,-33.508316076 149.13436464,-33.508152443500002 149.13426851200001,-33.507997469 149.13405072,-33.507707481499999 149.1338304,-33.507401935499999 149.13371952,-33.507238321500004 149.133495616,-33.506890207 149.13328931199999,-33.5065943735 149.13322848000001,-33.5065071645 149.13305366399999,-33.506230774500004 149.13294067199999,-33.506044775500001 149.132780672,-33.5057767845 149.13267337600001,-33.505598611 149.132587328,-33.505466317500002 149.13246096,-33.505266869 149.132361664,-33.50508778899999 149.13227366399997,-33.504903788 149.132234528,-33.504809678500003 149.13219766399999,-33.504706781499998 149.132153888,-33.504555322 149.132136672,-33.504496788 149.13208966399998,-33.50428278 149.13205568000001,-33.504057783 149.132034656,-33.503830788 149.13202211199999,-33.503585496500001 149.13202211199999,-33.503322149 149.13203904,-33.502949633 149.13205462400001,-33.502730778 149.13206819199999,-33.50262222 149.13208691199998,-33.50251521599999 149.13210816,-33.502429431499998 149.13214416,-33.502314694500001 149.13216108799998,-33.502260323 149.13221616000001,-33.502091492 149.132282592,-33.501853785500003 149.13233161599999,-33.501696776 149.13241260799998,-33.501474776 149.13247459199999,-33.501329791499998 149.132516608,-33.501242786 149.1326096,-33.501073788500001 149.13276156800001,-33.500811699 149.132932192,-33.500531424 149.13298499199999,-33.500436001 149.13303123200001,-33.500346738499999 149.13312,-33.500159999499999 149.13320358399997,-33.499983768500002 149.133407584,-33.499587757500002 149.13378054399999,-33.498791758 149.13382454399999,-33.498671767 149.13404454400001,-33.4979617555 149.13421993599999,-33.49698434499999 149.13467344,-33.493742738 149.1350144,-33.491014728 149.13509436800001,-33.490254729500002 149.135111392,-33.490175734499999 149.135122368,-33.490094723 149.13512838400001,-33.490011732 149.13513036800001,-33.489929721499998 149.13512739199999,-33.4898487285 149.13511836800001,-33.489775727500003 149.13510438399996,-33.4897037255 149.13505036799998,-33.489487719499998 149.13500329600001,-33.489229404 149.13498236800001,-33.489144729499998 149.134953376,-33.489064735500001 149.134931392,-33.489017727 149.13488038400001,-33.488927724500002 149.13482236799999,-33.4888417365 149.133164032,-33.486045572500004 149.13311616,-33.485891856 149.1330744,-33.485793935499998 149.13304668800001,-33.485743800500003 149.13298297599999,-33.485647582 149.13290899200001,-33.485559004 149.13283334400001,-33.4853077 149.13277635200001,-33.485078707 149.131905472,-33.481125534500002 149.131607296,-33.479773702500005 149.13159129600001,-33.479659705499998 149.131571296,-33.479427715500002 149.13154928,-33.479032703500003 149.13154224,-33.478786690500002 149.13155424000001,-33.478644684500004 149.13157139200001,-33.478502308499998 149.131592256,-33.478359692 149.13161824,-33.478218685 149.13164899199998,-33.478078991499991 149.13168524799997,-33.477939686500001 149.13172908799999,-33.477802287 149.131990016,-33.477058994 149.13202825600001,-33.476903686500002 149.13205379199999,-33.476761532499999 149.13207321600001,-33.476618694 149.13209321599996,-33.476424684500003 149.13210348800001,-33.476229454 149.13221619199999,-33.473131684500004 149.132245184,-33.472808693 149.13226918399999,-33.472593686 149.132304992,-33.472317999 149.13235017599999,-33.4720146915 149.132414176,-33.471659695 149.132490176,-33.471290694 149.13387408,-33.465171671 149.13391510400001,-33.464990667 149.13445305600001,-33.4626136575 149.13465299200001,-33.461730005 149.13615296,-33.455135643 149.13652067199999,-33.453519483 149.13673020799999,-33.453126265499996 149.13695196799998,-33.452890113 149.13750851200001,-33.452427687 149.13935388799999,-33.450889042 149.13943417600001,-33.450855927 149.13943705599999,-33.450854761500004 149.13955548800001,-33.450760985 149.13961273599998,-33.450722468 149.139725056,-33.450664766500005 149.13983990399998,-33.450613632500001 149.14133088,-33.450002614500001 149.14174032,-33.449865215 149.141824864,-33.449846622500004 149.14204182399999,-33.4497736215 149.14214281599996,-33.449744151 149.14253184,-33.449663620500004 149.14303683200001,-33.449616612 149.144272,-33.449503003499991 149.14391456000001,-33.444999271 149.14388016000001,-33.444565834500004 149.143858784,-33.444483602 149.14382976,-33.444400851499999 149.143794848,-33.444320487500001 149.14375417599996,-33.4442434535 149.14370844800001,-33.444171266499993 149.143651936,-33.444097285 149.143587776,-33.444026596500002 149.14351776000001,-33.443961606 149.143443488,-33.443902628 149.14336608,-33.443851401499998 149.14322678400001,-33.443785597 149.14300355200001,-33.4437147975 149.14288876800001,-33.443684605500003 149.14277177599999,-33.443661591500003 149.14241577600001,-33.443606591 149.14226476799999,-33.443587591499998 149.14180780800001,-33.443541600499991 149.14165779199999,-33.443516607 149.141451808,-33.443471596500004 149.14124579200001,-33.443417595 149.141043008,-33.443354436 149.140842816,-33.443283599499999 149.140646272,-33.443204401 149.140459072,-33.443123130499998 149.14036656,-33.4430796555 149.14023875199999,-33.443011446 149.14018835199997,-33.442982105 149.140040032,-33.442874823499999 149.13990252799999,-33.44275044799999 149.139770752,-33.442616878 149.13950364799999,-33.442353900500002 149.13935532799999,-33.442234372 149.139264,-33.442147995500001 149.139199072,-33.442067335499999 149.13911305600001,-33.441936836499998 149.13905939200001,-33.441842967500001 149.138989216,-33.441696632500005 149.13878220800001,-33.440958630499999 149.13876579199999,-33.440919595499999 149.13874620799999,-33.4408344215 149.138720992,-33.440630662499998 149.13871740799999,-33.440513391 149.1387192,-33.440455079 149.13853740799999,-33.439127315500002 149.13853881599999,-33.439057589 149.13855001600001,-33.438917063 149.1385824,-33.438716282500003 149.13861078400001,-33.438592591500004 149.13862876799999,-33.438532596 149.138668096,-33.438438986 149.1387048,-33.438369333499999 149.13874678399998,-33.438302604 149.140092608,-33.435968126 149.14081152,-33.434721004 149.140848256,-33.434646301 149.14089900799999,-33.434576556 149.141076704,-33.434376571 149.14135072,-33.434040574 149.14153868799997,-33.433820572 149.14260073599999,-33.432633815500004 149.14262339199999,-33.432590692 149.14271264000001,-33.43246955399999 149.14273664,-33.432427559 149.14275363199999,-33.432386563 149.14278064000001,-33.432301555500004 149.142859552,-33.431885731 149.14297865599997,-33.431219564499997 149.14304243199999,-33.430970425 149.14307664,-33.430855558499999 149.14310064,-33.430801557 149.143150816,-33.430714015 149.14321065600001,-33.430632559500005 149.14324364800001,-33.430594560499998 149.143329088,-33.430465819 149.14339961600001,-33.430359555 149.14411961600001,-33.4292475385 149.14414262400001,-33.429183547 149.1442256,-33.428996549 149.144248576,-33.428932539 149.14429459199999,-33.428761543500002 149.14431657599999,-33.428646547500001 149.144248576,-33.427032533500004 149.14424457599998,-33.426937536 149.14920950399997,-33.427614525 149.149176512,-33.427781524499999 149.14903001600001,-33.428527000500004 149.15425545599996,-33.42925751 149.154362464,-33.429272513500003 149.15460041599999,-33.428062502499998 149.15460041599999,-33.427880499499999 149.157591392,-33.4283425 149.15713942400001,-33.430556506 149.15782540800001,-33.430654500500005 149.158032416,-33.430684507500004 149.16397836799999,-33.431537487 149.16390336000001,-33.431946485 149.17010825599999,-33.43281247 149.17058627199998,-33.432733475 149.17057526400001,-33.4327604665 149.17056227200001,-33.432782463 149.17122124799999,-33.432676476499999 149.171455264,-33.432633464 149.17167827200001,-33.432552471 149.17182700800001,-33.432527995500003 149.17309523200001,-33.432714475499999 149.173301216,-33.43273847 149.17950713600001,-33.433626451500004 149.17967414399996,-33.432851449499999 149.18309910400001,-33.433436438 149.182303136,-33.437170441 149.18229814399999,-33.437191457 149.18208515200001,-33.438189458 149.18113369599999,-33.43803938599999 149.179173472,-33.437733932500002 149.17904784000001,-33.437740851500003 149.17898592,-33.437750305 149.178925088,-33.437765068 149.178865696,-33.437785140500004 149.17880844799998,-33.437810337500004 149.178701152,-33.43787514299999 149.17865257599999,-33.43791428899999 149.17857587200001,-33.437988899499999 149.17853305599999,-33.438048839499999 149.17849993600001,-33.43810202699999 149.17847148800001,-33.4381579155 149.17844809600001,-33.438216061 149.17843331200001,-33.438270599 149.17842035199999,-33.438318569499998 149.17759625599999,-33.442044469500004 149.177448,-33.4428030065 149.17742524799999,-33.442885461 149.177409248,-33.442973465500003 149.177401248,-33.443062469 149.17733171200001,-33.443396098 149.17732633599999,-33.443422386500004 149.17732272,-33.443476018 149.177328128,-33.443529390500004 149.17734288,-33.443580968500001 149.177366656,-33.443629198 149.177378336,-33.443645219 149.177312992,-33.443970837500004 149.17728630399998,-33.444089459499999 149.17679132800001,-33.446448487 149.1767664,-33.446568200500003 149.17630787199997,-33.446574453499998 149.174354368,-33.4465844805 149.174344,-33.446642996 149.17405635200001,-33.448135502 149.17427536,-33.44816750699999 149.17448336000001,-33.448197514 149.17469836800001,-33.448228483 149.17490934400001,-33.44825849 149.17511936,-33.44828949599999 149.17533635199999,-33.448320483499998 149.17554035199998,-33.448349491500004 149.17575436799999,-33.448380479 149.17597033600001,-33.448411485 149.17618233599998,-33.448442491 149.17640332799999,-33.448474496 149.176612992,-33.448505002499999 149.17726332800001,-33.448598483 149.17793532799999,-33.448695478499992 149.17887299200001,-33.448830991 149.17898128,-33.448846494 149.17929830400001,-33.448892485 149.179032,-33.450094004500002 149.18140499200001,-33.450439991499991 149.18405100799998,-33.450825994 149.185492192,-33.451034137500002 149.186053792,-33.451429686 149.186518208,-33.451761150499998 149.188567328,-33.453224648500004 149.18864224000001,-33.453150463500002 149.188711232,-33.45319947 149.18898419199999,-33.453115461499998 149.190637248,-33.451335521 149.190385152,-33.450971459500003 149.19023817600001,-33.450743465499997 149.19002915199999,-33.45039746 149.18965616,-33.449508461 149.18890515199999,-33.448052455500004 149.188933152,-33.447726448499999 149.188964,-33.447366993500005 149.18899414399999,-33.44700444899999 149.18902512,-33.446645456500001 149.18918912000001,-33.446532458500002 149.189612,-33.446239992 149.19002112000001,-33.445957441499999 149.19019113600001,-33.445840447500004 149.19030214399999,-33.445953445500002 149.190894112,-33.445986449499998 149.19005308800001,-33.444010446 149.190002112,-33.443892453 149.18944716799999,-33.4440090955 149.18883299199999,-33.444116543499995 149.18885814399997,-33.443928454 149.18898611200001,-33.443334456 149.189030656,-33.443147698499999 149.18903209599998,-33.443126442 149.18726508799998,-33.440936449 149.18730508799999,-33.440757443 149.18765510399999,-33.439182445500002 149.18801408,-33.437602434499993 149.18515308799999,-33.43714443 149.18527011199998,-33.436781423 149.18557411200001,-33.435914439 149.185847072,-33.435422431500001 149.18590608,-33.435306436499999 149.186443072,-33.434612427499999 149.18657408000001,-33.434383434499999 149.18684608000001,-33.4338964405 149.18688604799999,-33.43381443 149.18861302399998,-33.434090431500003 149.188806048,-33.434120438500003 149.20141686400001,-33.436088413 149.20731481600001,-33.437008418 149.20682784,-33.439272411 149.209051808,-33.438584414499999 149.21051779199996,-33.438174417500001 149.21295574399997,-33.437634402500002 149.215981696,-33.436966367499991 149.21795555200001,-33.42691333799999 149.217975008,-33.426786002500002 149.21798656000001,-33.426655337 149.21799155199997,-33.426525337500003 149.21798956800001,-33.42639533799999 149.21798054399997,-33.426266337500003 149.21796054399999,-33.426114341500003 149.21792854399999,-33.425962345500004 149.217888,-33.425811996 149.21783955199996,-33.425662331 149.217787552,-33.425517346500001 149.217745568,-33.425417335499993 149.21764201600001,-33.425201995500004 149.21760355200001,-33.425124332499998 149.21756054400001,-33.425025339 149.21750156799999,-33.424875341 149.21744656000001,-33.424723345 149.217395552,-33.4245703315 149.21735056,-33.424415338500005 149.21731254400001,-33.424259346499994 149.21727955200001,-33.424095344 149.21725356799999,-33.4239303425 149.21723356800001,-33.423763343 149.21722054400001,-33.423596343500002 149.21721356800001,-33.423429344 149.21721356800001,-33.4232593475 149.21722054400001,-33.423089332499998 149.217227552,-33.422991338 149.224754464,-33.424021307 149.22497545600001,-33.42405630899999 149.225123424,-33.424071294 149.22533344000001,-33.424080303499998 149.22564841600001,-33.424076307500002 149.22598144,-33.424059306 149.22621744,-33.424060305 149.22637043200001,-33.424067298 149.226587424,-33.42408528 149.22672643199999,-33.424103280499999 149.22679500800001,-33.424119005500003 149.22686643200001,-33.424140280499998 149.22699401599999,-33.4241989995 149.22724041599997,-33.424309278 149.22733542399999,-33.424361281499998 149.22761500799999,-33.424528003500001 149.22798038399998,-33.424766283499999 149.22807340799997,-33.424824281 149.228175392,-33.424886274500004 149.228592,-33.425121002499999 149.2288944,-33.425295291 149.228995392,-33.425352289499997 149.22909801599999,-33.425405995 149.22919539200001,-33.425451283 149.2295904,-33.4256212795 149.2308904,-33.426190284 149.23126435200001,-33.426349291500003 149.231439008,-33.426419998500002 149.231964,-33.426625996 149.23213836799999,-33.426696259 149.23264137599998,-33.426911266 149.23287235199999,-33.427005264500004 149.23329337600001,-33.427168268 149.23360700799998,-33.427281007 149.233655008,-33.427298008500003 149.23381036799998,-33.427360261 149.23407232,-33.427474258 149.234230016,-33.427531996500001 149.234372,-33.427601001500001 149.234453984,-33.42765973899999 149.23448700799997,-33.427682993499999 149.23732832,-33.430052251500001 149.237426336,-33.4301342435 149.23752534400001,-33.430214237500003 149.23762534400001,-33.430293251 149.23772633600001,-33.430370248 149.23782832000001,-33.430446246 149.23793833600001,-33.430524242 149.23838828799998,-33.4308282525 149.23848931200001,-33.430901253500004 149.23858828799996,-33.430976252500002 149.23868828799999,-33.431051251500001 149.23878931199999,-33.431123253500004 149.23889529600001,-33.431187245 149.23900630399999,-33.431242245500002 149.23912230400001,-33.431291252 149.23935830400001,-33.431380255500002 149.23947529599997,-33.431425247500002 149.239978304,-33.43162625 149.24028131200001,-33.431745242 149.24021030399999,-33.431997249 149.23988531200001,-33.433525238 149.23994230400001,-33.43358725 149.23975833599999,-33.434467239500002 149.23869136,-33.439576273500002 149.23859539200001,-33.440363263500004 149.23838240000001,-33.441368276 149.24537830399998,-33.442220238 149.24546531199999,-33.442237239500002 149.24563731200001,-33.442266247499994 149.24617731199999,-33.44233823099999 149.24635731199999,-33.442371235 149.24653731199999,-33.442405219500003 149.24662726399998,-33.442417226 149.24676928,-33.442428233500003 149.24684025600001,-33.442431230499999 149.246982272,-33.442433228500001 149.24714627200001,-33.442436225500003 149.24730128,-33.442447233 149.24761625599999,-33.442483234 149.247758272,-33.442503232500002 149.24788928,-33.442530224 149.24812928,-33.442596232 149.248207264,-33.442612234500004 149.24852528,-33.442669233 149.24882528000001,-33.442716223 149.24892422399998,-33.442733224500003 149.24921622400001,-33.442785228 149.24927424000001,-33.442803228500004 149.24932323199999,-33.442832236500003 149.24934022400001,-33.442795236500004 149.251179232,-33.443066206 149.2518072,-33.443158206499994 149.25195619199999,-33.442414210499997 149.255577152,-33.442911194499999 149.25648115199996,-33.443050185 149.25931011200001,-33.443487173500003 149.260843072,-33.443724158500004 149.260935072,-33.443738163 149.26504102399997,-33.444366127 149.265019008,-33.4444591265 149.26482704,-33.4452981385 149.265228,-33.44535214 149.27252192,-33.446331104500004 149.281966848,-33.447598058499999 149.282177824,-33.447626067500003 149.282416832,-33.447658054 149.28783177599999,-33.448389026 149.290812768,-33.448791012500003 149.29092576,-33.448807015 149.29272572799999,-33.449049013500002 149.29699369599999,-33.449625973 149.29926966400001,-33.449932962 149.30058265599999,-33.450124955 149.30283763199998,-33.450454958 149.30312963200001,-33.450497952 149.303177632,-33.450541945 149.30320761600001,-33.450546958499999 149.30464563199999,-33.45074193 149.304651616,-33.450720932499998 149.305011584,-33.450772936 149.3051296,-33.450790936499999 149.31181552,-33.451769901 149.31351148799999,-33.4520188925 149.31371849600001,-33.452046901500005 149.31661648,-33.452449868500004 149.31929443199999,-33.452821866500003 149.32379939200001,-33.453447832500004 149.32383539199998,-33.453452846 149.324230368,-33.451471847500002 149.32436236800001,-33.450810842500005 149.32456438400001,-33.450832839 149.32943430399996,-33.451548807500004 149.33477923199999,-33.452333781 149.340311168,-33.453146745 149.34149216,-33.45331972 149.34096019200001,-33.456246753 149.345149152,-33.456842712 149.344329184,-33.461083707499995 149.34627014399999,-33.461362706 149.346491136,-33.461390715 149.34724115200001,-33.461473706 149.348438112,-33.461116693 149.34968512,-33.461280695499994 149.35067907199999,-33.460195689 149.35296604799998,-33.459157672499998 149.35490201600001,-33.458390662500001 149.35596998400001,-33.457968659 149.356164992,-33.457783659 149.360687904,-33.453527623 149.361385888,-33.453223612500004 149.36344486399997,-33.452935604499991 149.363478848,-33.453115591 149.36369587199999,-33.454973601500001 149.362264,-33.4579370055 149.36243392,-33.457965625 149.362716928,-33.459620616500004 149.363031936,-33.460595622 149.36152995200001,-33.462799619500004 149.36175395199999,-33.465023615500002 149.361501984,-33.466187635499999 149.361368992,-33.466804 149.36172099199999,-33.468106640500004 149.362288992,-33.470928612 149.362400992,-33.471450626500001 149.36392,-33.471674624500004 149.36505699200001,-33.471916993 149.365577952,-33.472388595 149.36857491200001,-33.472789582499999 149.36854092799999,-33.472968588500002 149.36946492800001,-33.473093574499998 149.36946393599999,-33.473097589 149.36927052799999,-33.474189218500001 149.36929056,-33.474204814 149.36932476799998,-33.474276353500002 149.369307488,-33.474304973 149.36930784,-33.474376623499992 149.36932476799998,-33.474405243 149.36930819200001,-33.474791708 149.36911235199997,-33.475514669500001 149.36906992,-33.475822583499998 149.36913036799999,-33.476273373 149.36912192,-33.47653858899999 149.36904540800001,-33.476760089500004 149.36886595199999,-33.477053573500001 149.36868694399999,-33.477447586499999 149.368627968,-33.477783583499999 149.36862896,-33.478556587500002 149.36866294399999,-33.478585577 149.36854396800001,-33.479057586 149.36850995200001,-33.479601578500002 149.36837398399996,-33.48017457899999 149.36823699199999,-33.48043258 149.36803344,-33.481419925 149.368219936,-33.481539287 149.36801203199997,-33.482724600499999 149.36775900800001,-33.484016603500002 149.367528032,-33.485194591 149.36356009599996,-33.48465761 149.36064812800001,-33.484263634 149.35921014399997,-33.484068644 149.35894313599999,-33.484032643 149.35872019199999,-33.485551641 149.35832819199999,-33.487255639 149.35810720000001,-33.488686651 149.35766224,-33.491044661 149.35766124799997,-33.491049656 149.35751225599998,-33.491836646 149.35731424,-33.493299663 149.35637232,-33.4984396475 149.355640384,-33.5024276555 149.355526368,-33.503050661499991 149.355525376,-33.503055656500003 149.35549737599999,-33.503208651500003 149.35568537599997,-33.503279654499998 149.35580537600001,-33.50333065899999 149.35592636800001,-33.503378648 149.35604838399999,-33.5034186635 149.35617238399999,-33.503445655 149.35629436799999,-33.503455663499992 149.35641836799999,-33.503452648 149.35679433600001,-33.50342364 149.356968352,-33.503417627499999 149.35716134399999,-33.502376632500003 149.35784032000001,-33.498705640499999 149.36218224000001,-33.499269613 149.36147027199999,-33.502652615500004 149.361466272,-33.502900626500001 149.36146326400001,-33.503149618 149.361431264,-33.503310623499999 149.36139328,-33.503505613500003 149.36092230400001,-33.505892613 149.36085430399999,-33.506238618499999 149.36080035200001,-33.506510624 149.360446016,-33.508306992500003 149.36022736000001,-33.509421636 149.359861376,-33.511279628 149.35981139200001,-33.511530636 149.35956339200001,-33.512791633 149.35920643200001,-33.5146036525 149.35904944000001,-33.515396655 149.35812748800001,-33.520075675 149.35539552,-33.519716682500004 149.355161536,-33.519685695 149.353797568,-33.51950569 149.35376256000001,-33.519684696 149.353639552,-33.5203066845 149.35360457599998,-33.520485690500003 149.35458656,-33.520602684499998 149.354139584,-33.52326170799999 149.3541096,-33.523440714 149.35358464000001,-33.526558704 149.35379862400001,-33.526586713 149.35693760000001,-33.526993713 149.35872355199996,-33.527225703 149.35814064,-33.53054970899999 149.35833961599999,-33.530577718 149.36402953599998,-33.531398692499991 149.36373555199998,-33.532939687 149.36674752,-33.533352681 149.36805651200001,-33.533532649 149.37169942400001,-33.534027635 149.37181043199999,-33.53404262 149.37199843199997,-33.53304861499999 149.37200243199996,-33.533027617500004 149.3740224,-33.5332856 149.37781932799999,-33.5337705775 149.37783235200001,-33.533700573499999 149.378096352,-33.533734558 149.378614336,-33.533800566 149.384927232,-33.534605501 149.38998016,-33.535249467500002 149.390091136,-33.535263472 149.40606992,-33.537298342499994 149.406717888,-33.53366333299999 149.41102384000001,-33.534249302 149.409714912,-33.541879312500001 149.40992892799997,-33.541908320499999 149.42205772799997,-33.543540242500001 149.4214568,-33.546858273 149.42142480000001,-33.547038259499999 149.42017888000001,-33.553921295500004 149.420125888,-33.554211301500004 149.42005689600001,-33.554594307 149.41996688,-33.555092308500001 149.41964192,-33.556859299 149.41953628799999,-33.557454980500005 149.41946592,-33.5578513245 149.418888,-33.56104633 149.41758009599999,-33.568270358 149.41754707199996,-33.568450363 149.417083104,-33.571014370500002 149.416465184,-33.574426399499998 149.41575024,-33.5783704145 149.41571824,-33.578550419500004 149.41496032000001,-33.58272944 149.413611296,-33.582557445500001 149.412948384,-33.586081473500002 149.412468448,-33.588629478499996 149.412263424,-33.589718481 149.41160051199998,-33.593240511 149.41156649600001,-33.593419498499998 149.41075257599999,-33.597744521 149.40840259199999,-33.597432537 149.40817558399999,-33.5974025485 149.40779158399999,-33.597351544 149.40598876799999,-33.605885575500004 149.405970752,-33.605971582 149.407555712,-33.606719574 149.409318848,-33.607216687499999 149.411220128,-33.607752743499994 149.41187388799997,-33.607938502 149.41288115200001,-33.608224882 149.412997088,-33.608257830500001 149.41305577599996,-33.608266581 149.41281769599999,-33.609588554 149.41276768,-33.6098615585 149.41267068799999,-33.610393563 149.41265369600001,-33.610483565500004 149.41157577600001,-33.616367583 149.41751168,-33.617216548 149.41763968000001,-33.617236546500003 149.417709696,-33.617345548499998 149.41783968,-33.617570545500001 149.41814668800001,-33.618119551500001 149.41832268799999,-33.618443542 149.418409696,-33.6186055465 149.41850268799999,-33.618792544500003 149.41854969600001,-33.618885544 149.41859968,-33.618976545500004 149.41865568,-33.619062552 149.41870812799999,-33.619129559 149.41880246400001,-33.619230791 149.418824704,-33.619254545 149.41912105599999,-33.619573170500004 149.418900992,-33.619548991 149.41535075199999,-33.619088581500002 149.41531776,-33.619267587499998 149.41447782399999,-33.623439596499999 149.41277395199998,-33.631911634499993 149.41235398399999,-33.633999637 149.41209398399999,-33.633962637 149.41174704,-33.635803646 149.41109110400001,-33.639281664499997 149.40961110399999,-33.639080680499994 149.40939712,-33.639050673500002 149.40936211199997,-33.639229679499998 149.408103232,-33.645388699500003 149.408340224,-33.64541968699999 149.40814928,-33.646440702 149.40775030399999,-33.648572716 149.40758531200001,-33.649450707500002 149.407849312,-33.649214703 149.407635328,-33.650359705 149.407634336,-33.650360704 149.40731401599999,-33.6520760055 149.406288448,-33.657549748500003 149.40592649600001,-33.659477744500002 149.404051616,-33.669487798500001 149.40383465599999,-33.67064181 149.40380064,-33.6708217965 149.40325868799999,-33.67380383 149.40252457599999,-33.673746461500002 149.40252288,-33.673765942 149.40250470399999,-33.673904821500003 149.40248172799997,-33.674042813 149.40245270400001,-33.674178825 149.402418496,-33.674314226500002 149.402383488,-33.674502593500002 149.401969216,-33.676732343 149.40196662400001,-33.676746218 149.40155232000001,-33.678975967499994 149.40131616,-33.680247121 149.40125209600001,-33.680326597 149.40119088,-33.680409384500003 149.40108937599996,-33.680569687 149.40108108800001,-33.680583543499992 149.40103180799997,-33.6806728615 149.40096982399999,-33.680812851 149.40073782399998,-33.681433859 149.4005848,-33.681803859 149.40055280000001,-33.681897857500005 149.40052185600001,-33.682014851499993 149.40049785599996,-33.682132863 149.40047683200001,-33.682252854 149.400414848,-33.682694856 149.400402848,-33.68279586599999 149.40039584,-33.682896857499991 149.40039584,-33.68299685 149.400402848,-33.683098859 149.40041584,-33.683200849500004 149.40043385600001,-33.683301859499991 149.400456832,-33.683401852 149.400485632,-33.683499624500001 149.40013536000001,-33.683986526 149.39929286399999,-33.685010871 149.39856361599999,-33.68589543 149.39755596800001,-33.687118539 149.39713321599999,-33.687804315500003 149.39657596800001,-33.688707911 149.396330976,-33.689084922500001 149.39609097600001,-33.6894649125 149.39588412799998,-33.689804572499995 149.39579500799999,-33.689950907499998 149.39565001599999,-33.690194922499998 149.395508992,-33.690441916 149.39537299200001,-33.690689927 149.39517001600001,-33.691076928500003 149.39497603199999,-33.691469924 149.39479104,-33.691865935 149.39461504,-33.692266941 149.39444803200001,-33.692670925500003 149.39428342400001,-33.693216953 149.394032,-33.6932560065 149.392439008,-33.693393998 149.39161699199997,-33.693589006499998 149.39137401599999,-33.693647004 149.388688992,-33.694084991499999 149.38787500800001,-33.6944899935 149.38670300800001,-33.695364007500004 149.385291008,-33.695521997500002 149.385088,-33.695813002500003 149.384028992,-33.694886004499999 149.381819264,-33.695273043 149.37940432,-33.695736061 149.37445238399999,-33.696258112500004 149.372313408,-33.696256114500002 149.372043424,-33.696466126499999 149.371842464,-33.696621138 149.37128345599999,-33.697056128500002 149.37080044800001,-33.697837143 149.37022848000001,-33.698929161 149.369242528,-33.699958168 149.368468544,-33.701497164500005 149.36621158400001,-33.702039196 149.36599756800001,-33.702632195 149.36555062399998,-33.703131214 149.36481961599998,-33.70340320099999 149.36456060800001,-33.703441218500004 149.36448761599996,-33.703526207499998 149.3642936,-33.7037422135 149.363822656,-33.704250223499997 149.363786656,-33.704422236500001 149.363507648,-33.7057552355 149.36247468799999,-33.706838244 149.362032704,-33.707076246500002 149.36175769600001,-33.707224246500004 149.360929696,-33.707669264 149.35982172799999,-33.707344256 149.35930473600001,-33.708086272500005 149.35846876799999,-33.709428281 149.35787481599999,-33.71045728799999 149.35603084799999,-33.71084530699999 149.35561382399999,-33.712236322 149.35547088000001,-33.712400324500003 149.35473888000001,-33.713050322 149.35449091199999,-33.714646335499999 149.35349392000001,-33.715461334499999 149.35336992000001,-33.715705331 149.35337094400001,-33.715719335500005 149.35336793600001,-33.7157833455 149.35335894400001,-33.71584434 149.353345088,-33.715892347500002 149.35332636800001,-33.715938967500001 149.35325593600001,-33.716073333 149.35303094400001,-33.716430346 149.35293993599998,-33.716566358 149.35271193599999,-33.716856364 149.35232995199999,-33.717367352499998 149.35209696000001,-33.7176593565 149.351911968,-33.717912362500002 149.35186332799998,-33.717973671500005 149.35180931199997,-33.718035961 149.35158252799999,-33.718277071500005 149.35146499199999,-33.718421353 149.35129452800001,-33.718643186500003 149.351165984,-33.71880138 149.35112598399999,-33.7188563805 149.351088992,-33.71891238 149.350968,-33.719136378 149.35085398399997,-33.719346371500002 149.35078198400001,-33.71947137599999 149.35070499199998,-33.719593383499998 149.35030704,-33.720142371 149.35005001600001,-33.720532369499999 149.349944032,-33.720677372499999 149.349786016,-33.72087138199999 149.349472064,-33.721231392 149.34927507200001,-33.721481401 149.34876406399999,-33.722312402500002 149.34849910399998,-33.723061393500004 149.34782608,-33.723476404 149.34695612799999,-33.724011405500001 149.34714713599999,-33.725664417499999 149.34710912,-33.725702416499999 149.346681152,-33.72612442 149.346230144,-33.726569437500004 149.343465216,-33.726932444500001 149.34333321599999,-33.728353448 149.34331123199999,-33.728584457499998 149.34256326400001,-33.729189444500001 149.34227827199999,-33.730684466500001 149.341091296,-33.731387466500003 149.34007430400001,-33.731990492500003 149.33960131200001,-33.731970494 149.33883334399999,-33.731938489 149.33740534399999,-33.731343492 149.337289344,-33.731931514499998 149.33632144,-33.7368515155 149.335549472,-33.74077253499999 149.33481452800001,-33.744930539500004 149.334189568,-33.74484457 149.33412857600001,-33.744979564499999 149.33289817599999,-33.744819243500004 149.33022912000001,-33.7444722945 149.32775446400001,-33.744132024 149.32714032000001,-33.744047497499999 149.32538668799998,-33.743794621 149.325414688,-33.743649618 149.31737286399999,-33.742554677 149.31715884799999,-33.742525669 149.31754281600001,-33.740564669 149.318041792,-33.73802066 149.31824576,-33.736976631 149.31831776000001,-33.736611626 149.318740736,-33.734453638 149.31878972800001,-33.734203629 149.31882473600001,-33.7340246415 149.32068256,-33.724540579500001 149.320699424,-33.7244571815 149.316685632,-33.723912597 149.31666198400001,-33.724009296499993 149.31637664,-33.723971593500004 149.314773664,-33.72499962 149.314222688,-33.725842609499999 149.31188876799999,-33.727527626499999 149.31148476800001,-33.727726631 149.3100728,-33.72833665 149.30989984000001,-33.728824661499999 149.30952582399999,-33.72906666 149.30927683199999,-33.729228664499992 149.30790684799999,-33.730115665500001 149.307339904,-33.730101679500002 149.30644588800001,-33.730288696 149.30591100800001,-33.730667002499992 149.305798912,-33.731176696 149.30472496,-33.732509713500001 149.30311801599998,-33.733183724 149.302831008,-33.733303733499994 149.30198006399999,-33.733986753499998 149.30025808,-33.73492376 149.29819913599999,-33.737134787500004 149.29692019199999,-33.737032778500001 149.296699168,-33.737037792 149.29564019200001,-33.737071795 149.29488220799999,-33.736946809 149.28994832000001,-33.739790851 149.28757737599997,-33.74023585 149.28665833599999,-33.738155858 149.28643734400001,-33.737655858499998 149.28491936,-33.737766858500002 149.28473539199999,-33.738835881 149.28448540799999,-33.73883688 149.284012416,-33.738781879500003 149.28390041599997,-33.738744879500004 149.28320339199999,-33.738746877499999 149.28306841599999,-33.738765877 149.28302342399999,-33.738803876 149.28252844799999,-33.738767893500004 149.28187542399999,-33.738525895 149.28151542399996,-33.738526894 149.28122243199999,-33.738471893499998 149.28068144,-33.738153897 149.280568448,-33.738116897 149.280162464,-33.737836899500003 149.27996048,-33.737761900500004 149.279555456,-33.7377069 149.279419456,-33.737631901 149.279103456,-33.737369885500001 149.278586464,-33.737465900499998 149.27791449599999,-33.738050907500003 149.27775750399999,-33.738144906 149.27733148799999,-33.738502918 149.27692854399999,-33.738767912 149.27665852799998,-33.738918927500002 149.27616454400001,-33.739089923 149.275828448,-33.739259938 149.27551356800001,-33.739354935500003 149.27526656000001,-33.739373935 149.275221472,-33.739355971499997 149.27486156800001,-33.739375933 149.274277568,-33.739621946 149.273985568,-33.739565946500001 149.2739176,-33.739565946500001 149.273872608,-33.739603945499994 149.2734896,-33.739285949 149.27326358400001,-33.73917395 149.27301660800001,-33.73909995 149.2723416,-33.739082948499998 149.271802592,-33.739197944499999 149.27123961599997,-33.739217943 149.270947616,-33.7392749415 149.270431616,-33.739501973499998 149.27013961599999,-33.739578970499998 149.26986966399997,-33.73956097 149.269441664,-33.739411971 149.268969664,-33.73941297 149.26865472,-33.7394889865 149.268542752,-33.739489301 149.26829472,-33.739489985500001 149.26797964799999,-33.739378967 149.267550688,-33.739022971499999 149.26730368,-33.73904297 149.26723568,-33.7390239705 149.267122688,-33.738817973 149.267077696,-33.738817973 149.266897696,-33.738930971 149.26658368,-33.738969969 149.266290688,-33.738970968 149.266110688,-33.738933968 149.266088704,-33.738934967 149.26303776,-33.738548983 149.26293676799997,-33.739062987 149.262927744,-33.739108978 149.262916768,-33.739168992 149.26280576,-33.739169991 149.26233376,-33.739264988500004 149.26219174400001,-33.739354991 149.26197478399999,-33.739491983500002 149.26159379200001,-33.739661998500004 149.26134579199999,-33.739662997499998 149.26098579200001,-33.739569998 149.26035577599998,-33.739496997 149.26017577600001,-33.739515996500003 149.25992883200001,-33.739592013 149.25959180800001,-33.739630012 149.25941180800001,-33.739631011 149.25887180800001,-33.739539010500003 149.25866883200001,-33.739539010500003 149.25819686400001,-33.739597008 149.25781584,-33.739786004 149.25781584,-33.7399550015 149.25786185599998,-33.740123999 149.257840864,-33.740425012500005 149.25777084800001,-33.740660018 149.25774284799999,-33.740656022 149.25769385599997,-33.740649029 149.25324390399999,-33.740074030500004 149.25118294399999,-33.739798047500003 149.250874944,-33.739757033 149.25086896,-33.739788039 149.25074096,-33.739780047 149.25061395200001,-33.739769039500004 149.25048595199999,-33.739757033 149.250358976,-33.739742048 149.25023196800001,-33.739726045499999 149.250056992,-33.739698036500002 149.24988297600001,-33.739665051 149.24970998399999,-33.739628051 149.249535968,-33.739593049 149.24936099199999,-33.73956204299999 149.249175968,-33.7395360505 149.24898899199997,-33.739514035500001 149.24880198400001,-33.739493038 149.248615968,-33.739473039499998 149.24842998399998,-33.73944904499999 149.248187968,-33.739414043 149.24794700800001,-33.739376044 149.247706016,-33.739337046 149.24746502400001,-33.739299047 149.247224,-33.739263046 149.24700300800001,-33.739234038 149.246782016,-33.7392080455 149.24656201600001,-33.739182034499997 149.246341024,-33.739156042 149.24612102399999,-33.73912803299999 149.245961024,-33.739103039500002 149.24580304,-33.739076048 149.245644032,-33.739050055500002 149.24548505600001,-33.739028059 149.24532505600001,-33.739015053500005 149.245238048,-33.739013055500003 149.245150048,-33.739015053500005 149.24506204799999,-33.739017051499999 149.24497504,-33.739019068 149.24488704000001,-33.739016052499998 149.24477404800001,-33.739006062500003 149.24466003200001,-33.738993057 149.24454704,-33.738976055499997 149.24443404799999,-33.738955058 149.24432304000001,-33.738930064499996 149.244304032,-33.7390030655 149.24427504,-33.739065059 149.244237056,-33.739108053 149.24418604799999,-33.739134064 149.24412204800001,-33.739150066500002 149.24405305600001,-33.739157059500002 149.243992064,-33.739151065500003 149.24394908799997,-33.739132066 149.24393206400001,-33.739111068500002 149.24391907200001,-33.7390860565 149.24390707200001,-33.739058066 149.24389603200001,-33.739031056 149.24388003199999,-33.739006062500003 149.24386204800001,-33.738985065 149.24384304,-33.738966065500001 149.243822048,-33.738947066 149.243800064,-33.738930064499996 149.24377708799997,-33.738915061 149.24372307199997,-33.738891066500003 149.24366108800001,-33.73887906 149.24359507200001,-33.738874065 149.24352707200001,-33.738874065 149.24346208,-33.738875064 149.243383072,-33.738882057 149.243303072,-33.738898059500002 149.243224064,-33.738918058 149.24314508800001,-33.738937057500003 149.24306508799998,-33.73895106199999 149.24299308799999,-33.738957056 149.242920064,-33.738961052 149.24284707199999,-33.7389640675 149.242775072,-33.7389650665 149.24270208,-33.738969062500004 149.24263708800001,-33.738972059499993 149.242573088,-33.738977054499998 149.24250908799999,-33.7389800515 149.24244406400001,-33.738984066 149.242380064,-33.738986064 149.24229507199999,-33.738988062 149.24221008000001,-33.738987063 149.24212508799999,-33.738985065 149.24204006400001,-33.738984066 149.241955072,-33.738982068 149.24187907199999,-33.7389800515 149.24180211199999,-33.738978053499999 149.24172512000001,-33.738976055499997 149.24164809600001,-33.738973058500001 149.241572096,-33.738971060499999 149.24148710399999,-33.738967064500002 149.241402112,-33.738963068499999 149.24131712,-33.738959054 149.241232096,-33.738956057 149.24114710399999,-33.738954059 149.24106211200001,-33.738955058 149.24097712,-33.738958055 149.24089209600001,-33.738961052 149.240807104,-33.7389650665 149.24072211199999,-33.738967064500002 149.24061011200001,-33.738968063500003 149.24049811200001,-33.738967064500002 149.24038512000001,-33.738966065500001 149.24027312000001,-33.738966065500001 149.24016112000001,-33.738968063500003 149.24004710400001,-33.738970061499998 149.23993209599999,-33.738972059499993 149.23981811199999,-33.738976055499997 149.23970512,-33.738984066 149.239592096,-33.738998052 149.23949209599999,-33.739015053500005 149.23939212799999,-33.739037068500004 149.23929315199999,-33.739063061 149.239196128,-33.739092069 149.23909913599996,-33.739125054500001 149.23903315199999,-33.739151065500003 149.23896713600001,-33.739181054 149.23890214400001,-33.73921206 149.238837152,-33.739241068 149.238771136,-33.739268059499999 149.238679136,-33.7393000645 149.23858713600001,-33.739327056 149.23849315199999,-33.739353067 149.23839913599997,-33.73937708 149.23830515200001,-33.739401074500002 149.238230144,-33.739420074 149.23815414399999,-33.7394370755 149.23807913600001,-33.739455076 149.238004128,-33.739473076499991 149.23792915199996,-33.739493075 149.23784412799998,-33.739517088 149.237758144,-33.739540083500003 149.23767315200001,-33.739566076 149.237590144,-33.739595084 149.23751113599999,-33.739632084 149.237497152,-33.73964007599999 149.237474144,-33.739615082500002 149.23726614399999,-33.738944069 149.23640313600001,-33.73802806 149.23623411199998,-33.735659061 149.23617312,-33.735467068 149.23664112,-33.735530060500004 149.237822016,-33.729409039499998 149.23854595200001,-33.725658016499999 149.23170505599998,-33.724750036499998 149.23166905599999,-33.7247450415 149.22873305600001,-33.72087005 149.22839664,-33.720425902 149.228397728,-33.720421869 149.228410688,-33.720350755 149.22841203199999,-33.720326039 149.22840672000001,-33.720277143499999 149.22839123200001,-33.720225214 149.22835020799999,-33.720148254 149.228274048,-33.7200400475 149.22821305599999,-33.719977036499998 149.22818496,-33.719941627499999 149.228082368,-33.719793831 149.22796944000001,-33.719672896499993 149.227945312,-33.719640133 149.22790752,-33.71957209 149.22789168,-33.719536274 149.22786995199999,-33.719462015 149.227860032,-33.719389051 149.22816700800001,-33.717899042500001 149.22815302399999,-33.7177840465 149.22809801599996,-33.717664037 149.22799500799999,-33.717577993500001 149.22651852800001,-33.717331536499998 149.22630204799998,-33.717295054499999 149.226036032,-33.717221054499994 149.22596003199999,-33.717164056 149.22590505599999,-33.717090056 149.22665996800001,-33.71322104 149.226672608,-33.713139418 149.22693936,-33.711437436499999 149.22697993599999,-33.711231050500004 149.2268976,-33.711122603500002 149.22680195199999,-33.711077038 149.22668483199999,-33.711025589500004 149.22459155199996,-33.710732734499999 149.22215315199998,-33.710390632500001 149.21949024,-33.710017506 149.217247456,-33.709703302 149.21507388800001,-33.709399125 149.21541228800001,-33.707686691 149.21542883199999,-33.707641606500005 149.21544054399999,-33.707593543500003 149.2154472,-33.707543686 149.21544937600001,-33.707494087500002 149.21544611199997,-33.707446209499999 149.21543856,-33.707414889 149.21540256,-33.707322537 149.215397408,-33.707291309 149.21513606400001,-33.706776084 149.214415712,-33.705429802 149.214159072,-33.7049520765 149.21395907199999,-33.704500084500005 149.21370406399998,-33.70375607 149.212876032,-33.701010078 149.21235100800001,-33.699225087 149.21228201599999,-33.698910087500003 149.20640211200001,-33.698075108499992 149.20252166399999,-33.697525603 149.19920169599999,-33.697031616 149.19719222399999,-33.696732156499998 149.19424428799999,-33.69629317 149.19244428799999,-33.696025179 149.19145980799999,-33.695875643500003 149.18499344,-33.694890204 149.18273676800001,-33.694546048500001 149.182022464,-33.694437231500004 149.181669376,-33.694383322500002 149.17584384,-33.693560553499999 149.173332832,-33.693206130500002 149.16931561600001,-33.691105807 149.16916464,-33.691086271 149.164550752,-33.690497601 149.16169878400001,-33.6901323 149.16065376,-33.689728001 149.15947782399999,-33.689272309 149.158196992,-33.688791901 149.15555136,-33.687800911499998 149.15438486400001,-33.686835322500002 149.15142899200001,-33.685180386500001 149.15058089600001,-33.684705343499999 149.15023811200001,-33.684591605500003 149.14997785599999,-33.684563337500002 149.14894393599999,-33.684702346500004 149.14651356799999,-33.684997588 149.14488611199999,-33.684788630500002 149.13978012800001,-33.684131436500003 149.13923363199999,-33.684200645 149.13882144,-33.684252926 149.13814515199999,-33.684159316 149.136807616,-33.683975185500003 149.13404940800001,-33.684643535 149.13288,-33.684583558 149.13251459200001,-33.684564965500002 149.131637152,-33.683873398499998 149.13022476800001,-33.682708083500003 149.12840195199999,-33.682488655 149.12234528,-33.681760421 149.120798304,-33.68157542099999 149.12036633599999,-33.681346409500001 149.11864633599998,-33.681102413 149.11568185600001,-33.680683369500002 149.114983392,-33.680792427 149.109098464,-33.679803435499998 149.10420652799999,-33.67895645 149.10346652800001,-33.678579457 149.10211004799999,-33.678324249500001 149.10102153599999,-33.678119454499999 149.09830160000001,-33.677664447 149.09688544,-33.67722966 149.09586899199999,-33.676916991500001 149.09434864,-33.676459468 149.09302764799997,-33.676061459 149.09059369599998,-33.675328896 149.088538016,-33.674709997 149.088484,-33.674695992499998 149.08843072,-33.674675476 149.088379008,-33.674651000499999 149.08833001599999,-33.674622991500001 149.08828499200001,-33.674590006 149.08821500799999,-33.674522 149.088155008,-33.674442006 149.08812700799999,-33.674400991500001 149.08722672,-33.672633464500002 149.08685184000001,-33.671865067 149.08634169600001,-33.670819465500003 149.085825696,-33.669777471499998 149.08559571200001,-33.669312474 149.08481968,-33.667750463499999 149.08454966400001,-33.667215462 149.08323267199998,-33.665625461 149.08209168,-33.664272463499998 149.081887712,-33.664030465 149.08128371199999,-33.663455466500004 149.081142688,-33.662275462499991 149.08107568,-33.661899468500003 149.080862688,-33.660156472499999 149.080799872,-33.659657287 149.08051827200001,-33.657413015 149.08032700800001,-33.655893998499998 149.08010761599996,-33.654219452500001 149.079865824,-33.653684284500002 149.07910556799999,-33.652001450500002 149.07898188799996,-33.651801632 149.078159296,-33.651147065 149.07745558400001,-33.65058744 149.077216448,-33.650397093500004 149.076662048,-33.649957885 149.07830656,-33.64896943 149.07858953600001,-33.648795437499992 149.081002496,-33.6473174355 149.083383424,-33.645895414500004 149.085175392,-33.644789410500003 149.08691936,-33.643774389499995 149.08714934400001,-33.643649385 149.087613312,-33.643406387500001 149.088323328,-33.643055387 149.08905328,-33.642720389 149.08960128000001,-33.642496391 149.08990528000001,-33.642382394 149.090211264,-33.642274372500005 149.09082627199999,-33.642070373 149.09116326399999,-33.641964368 149.09184121600001,-33.64176738 149.09252323199999,-33.641587375 149.09289622399999,-33.641496373500004 149.09327024000001,-33.64141036699999 149.093645184,-33.641329374 149.09402118399998,-33.641254375 149.094398208,-33.641185351499992 149.09470819200001,-33.641133348 149.095018208,-33.641085359 149.09532915200001,-33.6410413475 149.09564016,-33.641001350499991 149.09595216,-33.6409653495 149.10010009600001,-33.64058833799999 149.10204406400001,-33.640409332 149.102216064,-33.640382340500004 149.102387072,-33.640350335500003 149.10255705599999,-33.640313335500004 149.10272608,-33.6402713405 149.102893024,-33.6402253125 149.103105024,-33.640158324 149.10331504000001,-33.640082326 149.103522048,-33.639998317500002 149.103726048,-33.63990831499999 149.10392604800001,-33.639811319499998 149.104321024,-33.639595313500003 149.104512992,-33.639477320499992 149.10470099200001,-33.63935231599999 149.104883008,-33.639221317500002 149.105032,-33.639105322499994 149.10505091199997,-33.639091114500005 149.105372,-33.638812319499998 149.10567596800001,-33.638516319499992 149.10582198399996,-33.63836230699999 149.10597388799999,-33.6381668545 149.10609996799997,-33.638039297 149.10623296,-33.637873296500004 149.106358976,-33.637702301 149.10753289600001,-33.635824292 149.108809888,-33.633790291 149.10895987200001,-33.633534288 149.10912486399999,-33.633286277 149.10921286399997,-33.633166286 149.109347872,-33.632996289499999 149.109492832,-33.632831269499995 149.10964483199999,-33.632672262 149.10979984,-33.632517269 149.11015484800001,-33.632177257500004 149.11056780799998,-33.631816267 149.11078182399999,-33.6316472695 149.111002816,-33.631487263 149.11119481599999,-33.631360260499996 149.11139081600001,-33.631239270500004 149.11159081599999,-33.631123257 149.11179481600001,-33.631015254 149.11200076799997,-33.630913245 149.114407744,-33.629783246500004 149.11784768000001,-33.628131215 149.119290656,-33.627442201 149.120359616,-33.62706321 149.12064563199999,-33.626967213500002 149.120935616,-33.626881188500001 149.121227616,-33.6268041915 149.12152057599999,-33.626735186499999 149.12176857599999,-33.626686198500003 149.1220176,-33.626643186 149.12226960000001,-33.626607185 149.12277257599996,-33.626551185499999 149.12296691200001,-33.626535331 149.12331312000001,-33.62651487 149.12375056,-33.626504195500004 149.124545568,-33.62660019199999 149.126434528,-33.626695189499998 149.12752252799999,-33.62677919799999 149.12768153600001,-33.626780197 149.12784153600001,-33.626775183500001 149.128000512,-33.6267661925 149.12815952,-33.626752188 149.128316512,-33.626732189500004 149.12849948799999,-33.626703181499998 149.12868249600001,-33.626668198 149.12886448,-33.626626184500005 149.12904348799998,-33.626577196500001 149.12921948799999,-33.626519199 149.1294456,-33.626436929500002 149.12967049599999,-33.62634319 149.129889504,-33.626237185 149.13009750399999,-33.626115196 149.13028646399999,-33.625974189 149.13042547200001,-33.625846187500002 149.130555456,-33.625706198 149.130676448,-33.625556181500002 149.130789472,-33.625400189499999 149.13089446399999,-33.625241182 149.13095347199999,-33.625144186500002 149.13106444799999,-33.624944183 149.13111446400001,-33.624841193500004 149.13118544,-33.624672196 149.13134544,-33.624200168500003 149.131384416,-33.624061178 149.13140441599998,-33.623925166 149.13142441599999,-33.623718169500002 149.13145641599999,-33.623441169 149.13145942400001,-33.623297165 149.13147142400001,-33.62317817299999 149.13149142399999,-33.62306018 149.13151843200001,-33.622945165499999 149.13156441599997,-33.622766178 149.13165040000001,-33.622518167 149.1317384,-33.622327173 149.1318704,-33.622110168 149.1320304,-33.621904170500002 149.132297408,-33.621640175499998 149.13243638399999,-33.621519167 149.13258940799997,-33.621408167 149.13274236800001,-33.621306176499992 149.13291635199997,-33.621213177 149.133365376,-33.621009177499992 149.13359836800001,-33.620912163500002 149.133870368,-33.620791173500002 149.134276352,-33.620629169 149.13447433600001,-33.620527178499998 149.13483532800001,-33.620262166 149.13491961599999,-33.620198618499998 149.13533411200001,-33.6198774585 149.13559532799997,-33.619689165499992 149.13585072000001,-33.619490364500002 149.13587952,-33.619473363 149.13601091199999,-33.619354833500005 149.136469312,-33.619128171500002 149.13662291200001,-33.619016968 149.136821312,-33.618841144 149.13761926399999,-33.6180741525 149.13791526399999,-33.617765147 149.13820297599997,-33.618502261 149.13931030399999,-33.620975156 149.139407296,-33.621174160500004 149.1394608,-33.62127111899999 149.13951731199998,-33.621365154499998 149.139619552,-33.621509787500003 149.13970428799999,-33.62161015 149.13979331199999,-33.6216951575 149.13995129599999,-33.621861158 149.14002924799999,-33.621927573 149.14017001600001,-33.622037093 149.14031616,-33.622152847500004 149.140436032,-33.622259851500004 149.14051273600001,-33.622335997500002 149.14059875199999,-33.622437155500002 149.140962304,-33.622976153 149.14110230399999,-33.623217152500004 149.141141632,-33.623273429500003 149.141174304,-33.623311151 149.141300288,-33.6234411505 149.141513312,-33.623597161 149.14172531200001,-33.623779145500002 149.141772,-33.623825858 149.14187129600001,-33.623925147500003 149.14201299199999,-33.624075996499997 149.14232172800001,-33.624424536500001 149.142415008,-33.624519996499998 149.14251107199996,-33.624612903500001 149.14260896,-33.624704034499999 149.14280880000001,-33.624881634499999 149.14288403199998,-33.624945996 149.14296073599999,-33.625009358500002 149.14327929599997,-33.625265176500001 149.14354284800001,-33.625471414499998 149.14357632,-33.625496167500003 149.143683904,-33.625575699 149.14408972799998,-33.623579179 149.144179264,-33.6234411505 149.14427523199998,-33.62331215 149.144361248,-33.623125152 149.14463123199997,-33.622541144 149.145145216,-33.621825157 149.14536819200001,-33.621430145 149.14536732799999,-33.621374164 149.14543420800001,-33.621261147499993 149.14547920000001,-33.621242148 149.14547920000001,-33.621148149499994 149.14561321599996,-33.620903154 149.1456792,-33.620659157499993 149.1456992,-33.620076148500004 149.145743168,-33.619869152 149.14587616,-33.619437158499998 149.14605417600001,-33.619042128 149.14607616000001,-33.618816132 149.14614217600001,-33.618609135500002 149.14643318399999,-33.61836414 149.14652316799999,-33.618326141 149.14681414399999,-33.618100126500003 149.14710515199999,-33.617836131499999 149.147148128,-33.617253141 149.147304128,-33.616952127499999 149.14739110400001,-33.616501134499998 149.14734611200001,-33.616407136 149.14707609600001,-33.616220138 149.14707510400001,-33.61607014 149.14716409600001,-33.615807125499998 149.14709609599998,-33.61567512799999 149.14696112,-33.615582128500002 149.14693811199999,-33.61552513 149.14700310399999,-33.615018137500002 149.147415104,-33.615040134 149.147450112,-33.614873134500002 149.14749110400001,-33.614678126 149.14754611199999,-33.614410135 149.14790608,-33.612663124500003 149.14796108799999,-33.61239511499999 149.14824704,-33.611008114500002 149.14875500799999,-33.608548114 149.148796,-33.608347111500002 149.148875968,-33.607959092500003 149.14891299199999,-33.607781104 149.149112992,-33.606808096500004 149.14918396799999,-33.606587095499997 149.14927299199999,-33.6063149975</coordinates></LinearRing></outerBoundaryIs><innerBoundaryIs><LinearRing><coordinates>149.36480812799999,-33.585819828 149.36491014399999,-33.585834813 149.36644313599999,-33.586060809 149.36720912000001,-33.586172808 149.36848512,-33.586360786500002 149.37157404800001,-33.586816774500001 149.37211302399999,-33.584021739 149.37213020799999,-33.583933716 149.370775552,-33.583788898 149.37056748800001,-33.583810043500002 149.37036704,-33.583866764500002 149.37019308800001,-33.5839220055 149.37006780799999,-33.583952253 149.36989968,-33.583988975499999 149.36971404799999,-33.584020758500003 149.36956992,-33.584035059 149.36934528,-33.584035059 149.369024704,-33.583987847 149.36901804799999,-33.583096776 149.36906204799999,-33.582796761499999 149.36906204799999,-33.582514766 149.36870003199996,-33.581349765500001 149.3687,-33.580955771 149.368856,-33.580503760500001 149.3689,-33.580259764 149.369191008,-33.579526757 149.369189984,-33.579169762500001 149.369031968,-33.578962766 149.368986976,-33.578831767499999 149.36885315200001,-33.578812805 149.368516,-33.578681769500001 149.36797702399997,-33.578720767499995 149.36755100799999,-33.578927764 149.36728201599999,-33.578984781 149.36712502399996,-33.57905978 149.36702704000001,-33.579164786 149.36625705599999,-33.579052787 149.36616604799997,-33.5790387825 149.36614944,-33.5791238085 149.36602604800001,-33.579106788499999 149.36452208,-33.578896795 149.36423606400001,-33.578856798 149.363420064,-33.578742801 149.36315107199999,-33.578704802 149.36416908800001,-33.58006581 149.36437308799998,-33.58032481 149.364343104,-33.5804647995 149.36377414399999,-33.583177824499998 149.363375168,-33.585079828 149.363342176,-33.5852458285 149.36326918399999,-33.585592814499996 149.36335616,-33.58560582 149.36384700799999,-33.585678007 149.36405616,-33.585708828 149.364265184,-33.585739815499998 149.36469718399999,-33.5858028265 149.36480812799999,-33.585819828</coordinates></LinearRing></innerBoundaryIs></Polygon>

	</Placemark>
</kml>