<?xml version="1.0" encoding="UTF-8"?>
<kml xmlns="http://www.opengis.net/kml/2.2">
	<Placemark>
		<Style>
			<LineStyle>
				<color>ff0000ff</color>
			</LineStyle>
			<PolyStyle>
				<fill>1</fill>
				<color>330000cc</color>
			</PolyStyle>
		</Style>
			<ExtendedData><SchemaData>
		<SimpleData name="STATE_2006">1</SimpleData>
		<SimpleData name="POA_2006">2292</SimpleData>
	</SchemaData></ExtendedData>
      <Polygon><outerBoundaryIs><LinearRing><coordinates>151.73807846400001,-32.920347078 151.73635824,-32.92157052 151.736039648,-32.921797922 151.73629052800001,-32.922145833 151.737206496,-32.923650826500001 151.73737948799999,-32.923907828499999 151.73732,-32.924180000500002 151.73735648,-32.924168826500001 151.73744947199998,-32.924148828 151.73760748800001,-32.924138819500001 151.738534496,-32.924241827499998 151.73868649600001,-32.924250818499999 151.739806464,-32.924250818499999 151.74034246400001,-32.924249819499998 151.740436448,-32.924238830500002 151.74130841600001,-32.924253815500002 151.74178742399999,-32.924229821 151.74178601599999,-32.924383001 151.741804,-32.924638005 151.74186,-32.924878005499998 151.741888,-32.925027004499995 151.74189699199999,-32.925105999499998 151.7419,-32.925176003499999 151.74182099199999,-32.925567001 151.741636992,-32.926459996 151.741444,-32.927412006 151.73922099200001,-32.927086998 151.73686499199999,-32.9267399935 151.73685849599997,-32.926808832 151.73681248,-32.9270198245 151.73678848,-32.927146827 151.73659449600001,-32.92818982 151.735777472,-32.932513825 151.735755488,-32.932632817 151.73487948799999,-32.93177182699999 151.73401494399999,-32.930918015 151.733514528,-32.930423824500004 151.73294851200001,-32.929870822499993 151.73283552000001,-32.929760821500004 151.73236755199997,-32.929298821 151.73175856,-32.928699828 151.73133353599999,-32.928278823500001 151.73101158399999,-32.927959828 151.730871584,-32.927822817 151.730565568,-32.927520823 151.730475584,-32.927429821499999 151.72940259200001,-32.928215831 151.72904662400001,-32.92786081599999 151.72876880000001,-32.927616986 151.72636064,-32.929398813499994 151.72529363199999,-32.930117816 151.72488089599997,-32.930357409499997 151.72336268800001,-32.931238805 151.72274310399999,-32.931708705 151.72062672,-32.933313783500004 151.72059472000001,-32.933286792 151.720395712,-32.933152796500003 151.71988169599996,-32.932763778500004 151.719928,-32.932738008 151.72003171200001,-32.932660585500003 151.72029670399999,-32.9324627835 151.72111670399997,-32.931834782500005 151.72146771199999,-32.931521781 151.72171369599999,-32.931302796499999 151.72195372799999,-32.930724967499991 151.72234969600001,-32.929771792 151.72265558399999,-32.928551957499998 151.72320950400001,-32.926342965 151.72351472,-32.925125794499998 151.72363872,-32.924631789 151.722839712,-32.924508782499998 151.72239574400001,-32.924439796 151.720878752,-32.924206788500001 151.72083974399999,-32.924200794499995 151.72093801599999,-32.924144998500005 151.721023008,-32.924099007499997 151.72105500800001,-32.92408300499999 151.72179900799998,-32.923739996500004 151.722209728,-32.923552795 151.72253974399999,-32.923330795 151.722725728,-32.923164794500003 151.72282972799999,-32.923071795 151.72291475200001,-32.92296579 151.72308969599999,-32.922744789 151.72316604799997,-32.922590665500003 151.72319795199999,-32.922531188 151.72328070399999,-32.922376787 151.723332992,-32.922224994499999 151.72350969600001,-32.921577790500002 151.723873696,-32.92030678499999 151.72389769599999,-32.9202177815 151.723916704,-32.920149794 151.72396969600001,-32.919865782 151.724300736,-32.918681782 151.72445475200001,-32.918213787500001 151.72447574399999,-32.918151794 151.72455673600001,-32.917925779500003 151.72464172799999,-32.917757781 151.72482371199999,-32.917428795500001 151.72491270399996,-32.917280795499991 151.725079712,-32.917001778499994 151.72514870399999,-32.916830783 151.72538771200001,-32.916200784 151.725416,-32.916114000500002 151.72544016000001,-32.916028715499998 151.72545971199997,-32.915959784500004 151.725584704,-32.915382788 151.725619712,-32.91524278 151.72569171200001,-32.915294783500002 151.72630470399997,-32.9155747995 151.72693699199999,-32.915779002500003 151.72701971199999,-32.915805809 151.72789366399996,-32.9159628 151.728093664,-32.915995804 151.732120608,-32.916637828 151.732187616,-32.916648817 151.732187616,-32.916594815499991 151.732187616,-32.916471827500004 151.73221862400001,-32.9162468305 151.732631008,-32.914426005 151.73272060799999,-32.914030808 151.73287260800001,-32.913350803500002 151.733114624,-32.912259803 151.733114624,-32.912191797 151.73311062400001,-32.912156813500005 151.73308460800001,-32.912061797500002 151.73307660799998,-32.912038802 151.733044608,-32.911961805 151.732998624,-32.911900810500001 151.732968,-32.911875003 151.7329216,-32.911821797 151.73282262399999,-32.911726799499995 151.732780736,-32.9116873205 151.73341571200001,-32.911382126 151.7336536,-32.9112678145 151.73372262399999,-32.911211815 151.734474624,-32.910831806499999 151.7349696,-32.91055081 151.73705958400001,-32.9090808 151.737162592,-32.9090108145 151.737197568,-32.908924808 151.73739158399999,-32.908439812 151.737443584,-32.908353805499999 151.73746057599999,-32.908259807 151.737478592,-32.908253813 151.73755289600001,-32.908192171 151.73777628799999,-32.908403256 151.73817913599999,-32.908787094 151.739952832,-32.910477291 151.740633952,-32.911108566499998 151.741012,-32.911458993499991 151.74127763199999,-32.911704988 151.74168985599999,-32.912080464 151.742283136,-32.912664028 151.74235331200001,-32.912732977499999 151.74241417600001,-32.912792991499998 151.74251315199999,-32.912890209 151.74264636800001,-32.912998748500002 151.74277417600001,-32.913112949 151.742835136,-32.9131722045 151.74289619199996,-32.9132322 151.743011392,-32.913355687500001 151.74306144,-32.913414628499993 151.74487475199999,-32.915074855500002 151.7465112,-32.916566085 151.747058528,-32.917074483500002 151.746978592,-32.917016245500001 151.746827392,-32.916919953 151.74668771200001,-32.916841291 151.746543712,-32.916766773 151.74639577600001,-32.916697657 151.74624419200001,-32.916635108499996 151.74609011199996,-32.9165802005 151.74593568,-32.916534024500002 151.745777632,-32.916494434500002 151.74561673599999,-32.916461486 151.74545472,-32.916435308499999 151.74529235200001,-32.916415865 151.7451336,-32.916403618 151.74497305599999,-32.916398123500002 151.74486576,-32.916398586 151.74481212800001,-32.916398845 151.74465216,-32.916409445500001 151.74449244799996,-32.916417567 151.74433996799999,-32.916436585 151.74418572799999,-32.916455825 151.74403308800001,-32.916483001499998 151.74388332799998,-32.916516394 151.7437368,-32.916556613 151.743640672,-32.916587212 151.74354598399998,-32.916620789499994 151.743452416,-32.916657142 151.74336025599999,-32.916696121500003 151.74327024,-32.916737617 151.74292032,-32.916880714500003 151.74240624000001,-32.917178435 151.74186624000001,-32.917622583 151.741046528,-32.918191014 151.74065952000001,-32.918499816 151.74044387199999,-32.918653884 151.73846528000001,-32.920066636500003 151.73807846400001,-32.920347078</coordinates></LinearRing></outerBoundaryIs></Polygon>

	</Placemark>
</kml>