<?xml version="1.0" encoding="UTF-8"?>
<kml xmlns="http://www.opengis.net/kml/2.2">
	<Placemark>
		<Style>
			<LineStyle>
				<color>ff0000ff</color>
			</LineStyle>
			<PolyStyle>
				<fill>1</fill>
				<color>330000cc</color>
			</PolyStyle>
		</Style>
			<ExtendedData><SchemaData>
		<SimpleData name="STATE_2006">1</SimpleData>
		<SimpleData name="POA_2006">2768</SimpleData>
	</SchemaData></ExtendedData>
      <Polygon><outerBoundaryIs><LinearRing><coordinates>150.946866016,-33.740951134 150.94728035200001,-33.741525596 150.947556128,-33.742123849 150.94763353600001,-33.742269629 150.94795788799999,-33.743006724499999 150.94867392,-33.744633207500002 150.94888848,-33.745125067 150.949481056,-33.74648145 150.94977408,-33.747256267 150.94979244800001,-33.747305310500003 150.94989612800001,-33.747578814500002 150.95018089600001,-33.748424523499992 150.95029888,-33.748701524 150.950485152,-33.749191774 150.95055689599999,-33.749364527 150.95090889599999,-33.750127504 150.95144588799997,-33.751182503500004 150.951577888,-33.751458505 150.95167689600001,-33.751666500500001 150.951717696,-33.751751674499999 150.95166688,-33.751729511500002 150.95131392,-33.751723499 150.95078492799999,-33.75170052199999 150.95069593599999,-33.751742517 150.95057193599996,-33.751783513 150.950410912,-33.751895530500001 150.95021091199999,-33.752120527500004 150.94986396799999,-33.75228453 150.94960396799999,-33.752089521500004 150.94945196799998,-33.751975524500004 150.94914294399999,-33.7517425355 150.94899596799999,-33.751631535500003 150.94898396799999,-33.751622544500002 150.94884496,-33.751518537500004 150.94869296,-33.751404540499998 150.94853996800001,-33.751289544500004 150.948385952,-33.751173531 150.94823296000001,-33.751058535 150.94807996799997,-33.75094353899999 150.94792896000001,-33.750829542 150.947774944,-33.750714546 150.94762396799999,-33.75060054899999 150.94746896000001,-33.750484554 150.94731696,-33.750369558 150.94716396800001,-33.750254562 150.947011968,-33.750140565 150.94685798399999,-33.750024551500005 150.94670297599998,-33.7499055595 150.94657497599999,-33.749808564 150.94654598400001,-33.749792561500001 150.946356,-33.749686556500002 150.94618598400001,-33.749593557 150.94614899199999,-33.749572559500002 150.945986976,-33.749483556 150.945808992,-33.749384581 150.945649984,-33.749297575500002 150.94547699200001,-33.749201579 150.94530697600001,-33.749107580500002 150.94513897600001,-33.749014581 150.944972992,-33.7489225805 150.94480899199999,-33.748832578 150.94463897599996,-33.748738579499999 150.944472,-33.74864558 150.94430198399999,-33.748551581500003 150.944131008,-33.748457583 150.94407203200001,-33.748424597499998 150.94396003199998,-33.748363603 150.94379100800001,-33.748269604500003 150.94361702399999,-33.748173589499999 150.94339500800001,-33.748051600499998 150.94309900799999,-33.747887598 150.94280700799999,-33.747726592500001 150.94279603199999,-33.747719599500002 150.94254502399997,-33.747581589500001 150.94211900799999,-33.747346621 150.942115008,-33.747531621 150.94211644799998,-33.74753709699999 150.941903008,-33.747554616499997 150.94181004800001,-33.747562608500004 150.94180505599996,-33.747550620499993 150.941778048,-33.7475126215 150.94175504,-33.747488608499992 150.94173206400001,-33.747465613 150.94171904000001,-33.747455623 150.94170505599999,-33.747445614500002 150.94166006399996,-33.747419622 150.94159504000001,-33.74739461 150.941578048,-33.747390614 150.94156105600001,-33.747385619 150.94150704,-33.747378607500004 150.94145305599997,-33.747377608500003 150.94140006399999,-33.747383621 150.941241056,-33.747415607500002 150.941061056,-33.747459619 150.941016064,-33.747369616500002 150.940934048,-33.7472676075 150.94084006400001,-33.74717261 150.94081504,-33.747150613500004 150.940789056,-33.74712861699999 150.94073504,-33.747086622 150.94067891200001,-33.747048697 150.940621056,-33.747009606500001 150.94004006399999,-33.74669864 150.93933209599999,-33.746417625 150.93738707200001,-33.745624659500002 150.93731609599999,-33.7455986485 150.93724409599997,-33.745576652 150.93720707200001,-33.745566643499998 150.937133088,-33.745546645 150.93705811199999,-33.7455306425 150.93684211199999,-33.745495659 150.93666112,-33.745477677 150.936480128,-33.745471664499995 150.936298112,-33.745476678 150.93611712,-33.745491663 150.935939104,-33.745518673 150.93585212799999,-33.745535674500005 150.93576710400001,-33.745555673 150.93508416,-33.7458206855 150.93499216000001,-33.745867694 150.934970144,-33.745879682 150.93492416000001,-33.745902696 150.93485715200001,-33.745948687 150.93479513599996,-33.745999691500003 150.93477616000001,-33.746017692 150.934757152,-33.746035692500001 150.93473814399999,-33.746055691 150.93468713600001,-33.746114687500004 150.93464214399998,-33.746176681 150.93459414399999,-33.746260689499991 150.934565152,-33.746353689 150.93451814400001,-33.74650069 150.93425408,-33.747448667 150.93404316799996,-33.748205687 150.93401916799999,-33.748263703 150.93398819199999,-33.748319702499998 150.933950176,-33.748372705 150.9339032,-33.748424708500004 150.933837216,-33.748480708 150.93363020800001,-33.748621715 150.93348521600001,-33.748424708500004 150.93337820799999,-33.748308713500002 150.93334022400001,-33.748270714500002 150.93330220799999,-33.748233714500003 150.933262208,-33.748197713499998 150.93322220799999,-33.748160713499992 150.93314220799996,-33.748087712500002 150.932972224,-33.747950701500002 150.93292822399999,-33.747916698499999 150.9328392,-33.747852707 150.9327472,-33.747790713500002 150.93265321600001,-33.747729700500003 150.93260620799998,-33.747700711 150.93255721599999,-33.747671703 150.93246022400001,-33.747615703500003 150.93241020799999,-33.747589711 150.93236022400001,-33.747562701 150.93230921599996,-33.747537707500001 150.93220822399999,-33.747487702 150.93215622399998,-33.747463726 150.9320512,-33.747417716500003 150.93171420799999,-33.7472627235 150.93123123199999,-33.747026719 150.93112723199999,-33.746984724 150.93097424000001,-33.74691472 150.930777248,-33.7468127295 150.93072825600001,-33.746786718500005 150.93063523199996,-33.746728721 150.93058924799999,-33.746699731500001 150.93049724799997,-33.746641734 150.93045024,-33.746612726 150.93040723199999,-33.74658072099999 150.93036323199999,-33.746548716 150.93031923199999,-33.746517747 150.93027625600001,-33.746484743 150.93019424,-33.746418735 150.93075859199999,-33.745907857500001 150.930774208,-33.745893723500004 150.930832224,-33.745830731 150.93088022399999,-33.74576172599999 150.93090720000001,-33.7457067255 150.930933216,-33.7456307275 150.930945216,-33.745551732499997 150.93094620799999,-33.745491718499999 150.93093920000001,-33.745432722 150.93092422399999,-33.745373725500002 150.930856224,-33.745242727 150.93068220800001,-33.744905731 150.929594208,-33.742794733 150.92956620800001,-33.742750721500002 150.92955222399996,-33.742728725 150.92952022399999,-33.7426877475 150.92944921599999,-33.742608752500004 150.92942950400001,-33.742589623500002 150.92941955200001,-33.742579966500003 150.92972320000001,-33.742275734 150.92983900799999,-33.742159998 150.9279872,-33.741583741500001 150.92714224,-33.741378761500002 150.92631225599999,-33.74117676 150.925745248,-33.741037788 150.92556224,-33.740993776499998 150.925462272,-33.740978773 150.92536326399997,-33.740955777499998 150.92417328,-33.740670785 150.92405126400001,-33.740641795500004 150.92374828800001,-33.740569793500001 150.92352828799997,-33.740516791 150.92320531199999,-33.740439794 150.922930304,-33.740373804500003 150.92260832,-33.740297806500003 150.92228032,-33.7402188115 150.92203030399997,-33.74016481 150.91854633599999,-33.739560859 150.918035328,-33.7394718555 150.91789552,-33.739458609499998 150.91817299199997,-33.738157874500004 150.918273344,-33.737688862500001 150.91829932799999,-33.737620856500001 150.91833334399999,-33.737527838499993 150.91967801600001,-33.7347469925 150.92028224000001,-33.733496818 150.92051724800001,-33.733041385 150.92102988799999,-33.731909277500002 150.92134812800001,-33.731233657499999 150.92083331199998,-33.731027734 150.91890841599999,-33.730265885500003 150.91813548799999,-33.729959784500004 150.91753523200001,-33.729733844 150.91680425600001,-33.7297588375 150.916348992,-33.729758005 150.91403401599999,-33.729750087 150.91399174399999,-33.729556558500001 150.91377363199999,-33.728678345 150.91363481600001,-33.727940306 150.91346096000001,-33.727115705499997 150.91336732799999,-33.726671520499998 150.913231008,-33.726648007 150.913116992,-33.726632004500004 150.912958016,-33.726610008 150.91279801600001,-33.726586994 150.91263801599999,-33.726564997499999 150.912475008,-33.726542002 150.91231500800001,-33.726520005499999 150.91214300799999,-33.726495992499999 150.911984,-33.726473996 150.91183699199999,-33.726452998500001 150.91169500800001,-33.72643399899999 150.911542016,-33.726412002499998 150.91139001600001,-33.726391005 150.911247008,-33.726371006499996 150.911084,-33.726347992500003 150.91094,-33.726327994 150.910776,-33.726305997499999 150.91063401599996,-33.726285999 150.910480992,-33.726265001500003 150.91033900799999,-33.726245003 150.91018601600001,-33.726224005500001 150.910022016,-33.726200991500001 150.90994825600001,-33.726189891499999 150.909399232,-33.726114911 150.910239168,-33.721903867 150.910747136,-33.719357878499999 150.910782144,-33.719178872500002 150.912073152,-33.719358859 150.91601212800001,-33.719906810499992 150.916923008,-33.720032999 150.918748096,-33.720287799499992 150.91875107199999,-33.720272796 150.91927904,-33.717763807499999 150.91928006399999,-33.717754798 150.92099504000001,-33.717678781499998 150.92171302400001,-33.717735761500002 150.92212403199997,-33.717768765500004 150.92264700800001,-33.717810760500001 150.92480598399999,-33.717982718 150.92563996800001,-33.71812872 150.92571900799999,-33.717978000500004 150.92596700799999,-33.717109 150.92605699200001,-33.716884003 150.92618099200001,-33.716724995500002 150.92630601600001,-33.716578993500001 150.92647500800001,-33.716431992499999 150.926656,-33.7163189945 150.92719366399999,-33.715976134 150.927539008,-33.715736762500001 150.92702099199997,-33.715130351 150.926589312,-33.714627650499999 150.925303872,-33.713175437499991 150.925169568,-33.713031822 150.92449267200001,-33.7123325775 150.92420489599999,-33.711981466 150.92399382399998,-33.711550564 150.92407059199996,-33.711119662 150.92422406399999,-33.710752603499998 150.92448099200001,-33.710418993 150.923264768,-33.71044937 150.92230550400001,-33.710433423 150.92119699200001,-33.710288993500001 150.921356,-33.709494992 150.921438016,-33.709306995 150.92156323200001,-33.709124751499999 150.9217104,-33.708955476500002 150.92180515199999,-33.708853708 150.9222752,-33.708516564 150.92260857599999,-33.708263188 150.92287238399999,-33.708035749 150.92340476800001,-33.705264671 150.92359664,-33.705264671 150.923980352,-33.705208819500001 150.92470940800001,-33.704897594 150.925016384,-33.704761933500002 150.92571664,-33.704323021 150.92626345599999,-33.703836230499995 150.92638816,-33.70368462299999 150.92689657599999,-33.703740474500002 150.929985504,-33.704163421499999 150.93035001600001,-33.704211299500002 150.93048281599999,-33.704225267 150.93066675200001,-33.704269611500003 150.930622016,-33.704343001 150.930584,-33.704499992 150.930591488,-33.704657279 150.93063395199999,-33.704900091499994 150.93065484799999,-33.705009093500003 150.930890656,-33.70621842 150.93113328,-33.707210482500003 150.93114012800001,-33.7072283165 150.931233728,-33.707479491 150.93160700799999,-33.708206004499999 150.931939328,-33.708813563 150.932313728,-33.7091466555 150.932388608,-33.709192554 150.93250812799997,-33.709265277500002 150.93264601599998,-33.709349619 150.932664,-33.709360497 150.93273203199999,-33.7094586025 150.93362774400001,-33.711213623500001 150.933616736,-33.711267625 150.933900768,-33.7118809 150.93631872,-33.717096364500001 150.93673955200001,-33.718151974500003 150.936820928,-33.718356714 150.93702864,-33.718877193 150.93777059199996,-33.720615360499998 150.93822899200001,-33.721635006500001 150.938552,-33.72240599399999 150.938864,-33.723152006500001 150.93888899199999,-33.723208006 150.93974300799999,-33.725119999500002 150.93976700799999,-33.725177997 150.939931008,-33.725571991500004 150.940444,-33.72680599699999 150.940504,-33.726950001 150.94136499199999,-33.728927003500004 150.941846016,-33.730030991 150.942352,-33.731025995 150.94280899200001,-33.731925002499992 150.943328992,-33.733129001 150.943635008,-33.733836996 150.94422700799998,-33.735257000499999 150.94444064000001,-33.735765732 150.944842016,-33.7367300075 150.94592499199996,-33.739349996 150.946152,-33.739791998 150.94630499199999,-33.740087998 150.94675692800001,-33.740783635 150.946866016,-33.740951134</coordinates></LinearRing></outerBoundaryIs></Polygon>

	</Placemark>
</kml>