<?xml version="1.0" encoding="UTF-8"?>
<kml xmlns="http://www.opengis.net/kml/2.2">
	<Placemark>
		<Style>
			<LineStyle>
				<color>ff0000ff</color>
			</LineStyle>
			<PolyStyle>
				<fill>1</fill>
				<color>330000cc</color>
			</PolyStyle>
		</Style>
			<ExtendedData><SchemaData>
		<SimpleData name="STATE_2006">1</SimpleData>
		<SimpleData name="POA_2006">2569</SimpleData>
	</SchemaData></ExtendedData>
      <Polygon><outerBoundaryIs><LinearRing><coordinates>150.74901984,-34.314530184500001 150.74813584,-34.314102205499999 150.74791184,-34.314016199 150.74677584,-34.313456074500003 150.74672867199996,-34.313434559 150.74524297599999,-34.312753074500002 150.74439984,-34.312337194500003 150.744363488,-34.312323338 150.744175936,-34.312251151 150.74412409600001,-34.312208046 150.74227369600001,-34.311341062 150.741881632,-34.311156561499999 150.74148707200001,-34.310975761 150.741289088,-34.3108868315 150.74086320000001,-34.310703422499998 150.74075881600001,-34.3106545455 150.74063568,-34.310592089499998 150.74051436799999,-34.310526655 150.74039449599996,-34.310459333499999 150.73980697600001,-34.310122023 150.73969392000001,-34.310051908 150.73958483199999,-34.309977926500004 150.739489792,-34.309906553499999 150.73939763199999,-34.309832128 150.739308,-34.309755445500002 150.73897356800001,-34.309457632499999 150.738895808,-34.309385723 150.738822016,-34.30931139 150.738755392,-34.309233449499999 150.73869456,-34.309146240499999 150.738641632,-34.309054702499999 150.7386,-34.308973006500004 150.738499456,-34.308771486 150.73838531199999,-34.308555665 150.73834896,-34.308483034 150.73831548800001,-34.308409681500002 150.73824313599999,-34.308237779500004 150.73821072,-34.308150663 150.73818371199999,-34.308062917500003 150.7381632,-34.307974358 150.73815312,-34.307876789 150.738153856,-34.307777962 150.73816393600001,-34.307578976 150.73816176,-34.307479982499999 150.73814988800001,-34.307359917500001 150.73813369599998,-34.307239852500004 150.73811315200001,-34.307120065 150.73808832,-34.307001091499998 150.73805881600001,-34.306883098500002 150.738051232,-34.306791301499999 150.738044032,-34.306699597 150.73802352000001,-34.306516354500005 150.738011648,-34.306424909 150.737997952,-34.306335535500004 150.73793424,-34.305978596500005 150.737893216,-34.305720836 150.737870176,-34.3055647885 150.73778304000001,-34.304915605 150.73775929600001,-34.304727145500003 150.73774092799997,-34.304550840499999 150.737711776,-34.304269048500004 150.73768224,-34.30391679 150.73766531199999,-34.303800776500005 150.73763795199997,-34.303686835 150.73761708800001,-34.30362375 150.73756595200001,-34.303499374499999 150.73742953600001,-34.30318086 150.737156992,-34.302560407 150.73708067199999,-34.302398402500003 150.73707276799999,-34.302382196499998 150.7369608,-34.302159271499995 150.73687836799999,-34.301989885499999 150.73665155200001,-34.301503705500004 150.736536352,-34.301249367499999 150.736423328,-34.300994400500002 150.73623792000001,-34.300564479 150.736109408,-34.3002732335 150.736048576,-34.300135075500002 150.73578899200001,-34.29956240799999 150.73554851200001,-34.299038691500002 150.735314176,-34.298521468499999 150.735200416,-34.298263171500004 150.73501897599999,-34.297820725500003 150.73497036800001,-34.297711113 150.73490339200001,-34.297575027 150.73486812799999,-34.297509056 150.734757952,-34.297306462500003 150.73468668800001,-34.297171745500002 150.73462188799999,-34.297035123 150.73456969599999,-34.296907676499998 150.73452288,-34.2967786205 150.73443216000001,-34.296519694499992 150.73438211199996,-34.296391526500003 150.73432128,-34.296251315 150.73405849599999,-34.295695741499998 150.73392492799996,-34.295395856500001 150.73386227200001,-34.295255904 150.73371289599999,-34.294908233500003 150.733499776,-34.294445363499996 150.73345945599999,-34.294352752500004 150.73338240000001,-34.294166198500001 150.73333993599999,-34.294074383 150.73329168000001,-34.293985028 150.733244896,-34.293911139 150.73319340800001,-34.293839044500004 150.73303248,-34.293625203 150.73286003199999,-34.293370051 150.73283699199999,-34.293337287499995 150.73280064,-34.293285894500002 150.73273798400001,-34.293203828500005 150.73267932799999,-34.293134065 150.73261776000001,-34.293065763 150.73242912000001,-34.292863262 150.73235712,-34.292779642 150.73221564799999,-34.292610089500002 150.732141472,-34.292528097500004 150.73206121600001,-34.292450693500001 150.731976608,-34.292380948500004 150.73188659199997,-34.292315162500003 150.73179372800001,-34.29225198499999 150.73140492799999,-34.291996555499999 150.731100352,-34.291803952 150.73097545600001,-34.2917230515 150.73074361599998,-34.291572665 150.73062300800001,-34.291498221 150.73049881599999,-34.291427588 150.73039043200001,-34.291371607 150.73027955200001,-34.2913184935 150.72994332799996,-34.291163704 150.72961392,-34.291005307 150.7292856,-34.290844838 150.729122528,-34.290762938500002 150.72890473599998,-34.290650514 150.728688,-34.290536498500003 150.72867360000001,-34.290528839499991 150.72849072,-34.290430734 150.72822396800001,-34.290284769 150.72813395200001,-34.290237427500003 150.72777180799997,-34.290058236500002 150.72748163200001,-34.289907831500003 150.72721955200001,-34.289768249 150.726940192,-34.289616697 150.72674832000001,-34.289520034500001 150.726459232,-34.289377196 150.72636816,-34.289335071499998 150.72620041600001,-34.289257593500004 150.726115072,-34.289216542 150.726031936,-34.289172808 150.72594732799996,-34.289123135499999 150.72586524799999,-34.289070651 150.72562259200001,-34.288907758500002 150.72522156799997,-34.288642894 150.724907648,-34.288430495500002 150.724698112,-34.288292966500002 150.72456636800001,-34.288209365 150.72441875199999,-34.288122063499998 150.724337056,-34.288076609 150.72418656,-34.28799606 150.72389820800001,-34.287841807 150.72380208000001,-34.287791394500005 150.72370489599999,-34.287743165 150.72360553600001,-34.287698247 150.72351481600001,-34.287662523500003 150.72323616,-34.287567655499998 150.72314435199999,-34.287533819 150.72305148800001,-34.2874958385 150.72268428799998,-34.287335554500004 150.72252947199999,-34.287272451 150.72202512000001,-34.287071319 150.72220521599999,-34.287024551 150.72055126399999,-34.286309581499999 150.71978592,-34.285996894500002 150.71963824,-34.2859365845 150.719389248,-34.285806585 150.71895001600001,-34.285620419499999 150.71870928000001,-34.2855486025 150.718175296,-34.285333614 150.71773609600001,-34.285117589500004 150.71728928,-34.284859625500005 150.71687628800001,-34.2845876385 150.71659228799999,-34.284372631499998 150.716008096,-34.283820425 150.71557830399999,-34.283340646 150.71557830399999,-34.283311656499997 150.7153032,-34.282975419 150.71509692800001,-34.282667431 150.71487430400001,-34.282209667 150.71489132799999,-34.2821946635 150.71483123199999,-34.282116538 150.71472832000001,-34.281872671 150.714574304,-34.281386657500001 150.71454288000001,-34.281237510499992 150.714472288,-34.280899663500001 150.71447376,-34.280328235500001 150.714510848,-34.280063001 150.71455081600001,-34.279798044 150.71463072,-34.2793105135 150.71467283199999,-34.279073991 150.71468723199999,-34.278998751499998 150.71474051199999,-34.27871868 150.71479091199998,-34.278482694 150.71481324800001,-34.278392525 150.714884896,-34.278122961500003 150.71490540799999,-34.278032607500002 150.71492556800001,-34.277925955 150.71498819199999,-34.2774971065 150.71508937600001,-34.276905458 150.715168928,-34.276465805500003 150.71518764800001,-34.276319100500004 150.71519449600001,-34.276172580500003 150.71519376000001,-34.276161147499998 150.71518729600001,-34.276045041499998 150.71517036799997,-34.275917613499999 150.71512681600001,-34.275662646500002 150.715109536,-34.275535015 150.715102336,-34.275444217 150.71509369599997,-34.275262047499993 150.71508540799999,-34.275171508500001 150.71507065599999,-34.275082042500003 150.71504435200001,-34.274986823 150.71501052799999,-34.274892787500001 150.71493276800001,-34.2747061225 150.71489603200001,-34.2746124385 150.714771488,-34.274271150499992 150.71466924800001,-34.273985122 150.71455331199999,-34.273651326500001 150.71446476799997,-34.273389514500003 150.71441923200001,-34.273278699500004 150.71427900800001,-34.272963996 150.71425420799997,-34.272911696500003 150.71415984000001,-34.272720277 150.71410153599999,-34.272590758500002 150.7140648,-34.27250075599999 150.71403059199997,-34.272409865500002 150.71393232,-34.272135991500001 150.71388985600001,-34.2720290615 150.71380057599998,-34.271816126499999 150.71376096,-34.271708845 150.71372928,-34.271600139 150.71371164799996,-34.271514539500004 150.71369904,-34.271428052 150.71366844799999,-34.271167405500002 150.713602912,-34.270734598 150.71359788800001,-34.270700761500002 150.71359248,-34.270558644499992 150.71359139200001,-34.270415991 150.71359536,-34.270273356 150.713604,-34.270130961500001 150.713617312,-34.26998912199999 150.71362921599999,-34.269892200500003 150.71364323199998,-34.269795353 150.71365945599999,-34.269698709 150.713677792,-34.269602398 150.71369904,-34.269506549500001 150.71371632,-34.269438247499998 150.71379408000001,-34.269166612 150.71411952,-34.268546159 150.714263168,-34.268252046 150.714301312,-34.268179322500004 150.71436937600001,-34.268053596500003 150.714441728,-34.267929665 150.714481312,-34.267869355 150.71452092800001,-34.267814558 150.71460624,-34.267707905500004 150.71469443199996,-34.2676027885 150.71476067200001,-34.267526642500002 150.71487337600001,-34.267405412 150.714966976,-34.267302089499999 150.71503068800001,-34.267224593 150.71507497600001,-34.26716358 150.715199872,-34.266975934499996 150.715244896,-34.266915365500004 150.71528556800001,-34.266866766 150.71541552,-34.2667251855 150.71545728000001,-34.266677215 150.71550499200001,-34.266618995500004 150.715641248,-34.266440877500003 150.71571180800001,-34.266372834500004 150.71578019200001,-34.266303367 150.71585328,-34.266224705 150.71589216000001,-34.266180601 150.716211488,-34.265805661500004 150.71647715200001,-34.265484631 150.716667968,-34.265292934 150.71679900800001,-34.265167837 150.71686739200001,-34.265105103499991 150.717006368,-34.264981357 150.71716873599999,-34.264841497 150.71730444799999,-34.264724318 150.71738364800001,-34.264657533 150.717464992,-34.264592542500004 150.71754924800001,-34.264530364 150.717629152,-34.264477269 150.717711616,-34.264426949 150.71787971200001,-34.264328492 150.71796144000001,-34.264277376500004 150.718048576,-34.2642199525 150.71813459200001,-34.264161455500002 150.718304512,-34.264042019500003 150.71847587199997,-34.263917366500003 150.718649056,-34.263787681499998 150.71873363200001,-34.263720989 150.71881609600001,-34.263652687 150.718961888,-34.263524963 150.71903244800001,-34.263459269500004 150.71910048000001,-34.263391948 150.719164928,-34.2633225545 150.71923081599999,-34.263242634500003 150.719292,-34.263159662 150.719464096,-34.262904602499994 150.71958252799999,-34.262738916499998 150.71962032,-34.262682935500003 150.71965488000001,-34.262625863 150.71969305600001,-34.262552344 150.71972617599999,-34.262476919500003 150.719788448,-34.262324183499999 150.71982227199999,-34.262248944 150.71987411200001,-34.262146898 150.72004297599997,-34.261844941 150.72009769599998,-34.261743690499998 150.72021001600001,-34.261520580500004 150.72032412799999,-34.261288017 150.72044688,-34.261038082 150.720620768,-34.260685657 150.720679072,-34.260560005 150.72073523200001,-34.260433835 150.72084323199999,-34.260179941 150.72089472,-34.260052328 150.72094476800001,-34.259924345 150.720994816,-34.259778639 150.72145091199999,-34.258444474500003 150.72151500800001,-34.258308037 150.72155388799999,-34.258215962499996 150.72158195200001,-34.258140094 150.721654336,-34.257908973500001 150.72168060800001,-34.257832476 150.72170905599998,-34.257757588 150.721767008,-34.257616914 150.72180083200001,-34.257534293 150.72193657599999,-34.257223252500005 150.72201107199999,-34.25706702 150.72205500799998,-34.256983492499998 150.72219612800001,-34.256736277 150.72224185600001,-34.256653378500005 150.72233868799998,-34.256462754499999 150.722480512,-34.256175486499998 150.72275987200001,-34.255634121 150.72281244800001,-34.255536034 150.72344928000001,-34.254341285500004 150.72394284800001,-34.253503476 150.72396048,-34.253443443500004 150.72399936,-34.253316533499998 150.724030688,-34.253223663499995 150.724099456,-34.253039422 150.72414768,-34.2529262945 150.72420096,-34.252814517499999 150.72431113600001,-34.252591944 150.72436297599998,-34.252479723 150.724413376,-34.252361915 150.72450876799999,-34.252124856 150.724713248,-34.251596181499998 150.72478451200001,-34.251401691 150.724818368,-34.251304769499995 150.724826272,-34.251281274499995 150.725169376,-34.250225220499999 150.72543936,-34.249443299500001 150.725556,-34.249133961 150.72609283200001,-34.247709701499993 150.72618182400001,-34.247451700500001 150.726520448,-34.246487425 150.7270568,-34.2451787165 150.727174816,-34.244831730500003 150.72727881599999,-34.244464746 150.7273808,-34.24414373399999 150.72745081599999,-34.243853746500001 150.72757180799999,-34.243403734 150.72768380799999,-34.242860740499992 150.72798176000001,-34.241621758500003 150.72801977599997,-34.241459754 150.72815776,-34.240869752 150.72832176,-34.24010178 150.72838278399999,-34.239730781 150.72839577600001,-34.239649769499991 150.728399776,-34.239505784 150.72838278399999,-34.239357784 150.72835977599996,-34.2391867885 150.72830976,-34.239041804 150.728242784,-34.238901796 150.72816076799998,-34.238747802 150.728030784,-34.238552793499998 150.72786976,-34.238329813 150.72771776,-34.238161814500003 150.72790976,-34.238047817500004 150.72819577599998,-34.237846815 150.72855478399998,-34.237575808500004 150.72917475200001,-34.237108794500003 150.72920675200001,-34.236713819499997 150.729289728,-34.236277811500003 150.72952374400001,-34.235218816 150.72955075199999,-34.235023826 150.72955075199999,-34.234771837499999 150.729538752,-34.234589834499999 150.729526752,-34.234460834 150.729489728,-34.234296831500004 150.72945372800001,-34.234135826 150.729379744,-34.233870850500004 150.729178752,-34.233335849 150.72868774400001,-34.231996874499998 150.728445728,-34.231327896 150.72840172799999,-34.231207886500002 150.72797676799999,-34.229974917 150.72753977599999,-34.228833948 150.72740976,-34.228494935500002 150.72727776,-34.228153943499997 150.72688678399999,-34.2270899715 150.72667478400001,-34.226514954499997 150.72628873599999,-34.225390968500001 150.72568473600001,-34.223799987 150.725302752,-34.222754977500003 150.72507075199999,-34.222090994 150.72499574400001,-34.221864998 150.72472672000001,-34.221052996 150.724492704,-34.220404996500001 150.72440969600001,-34.220174005499992 150.72416371200001,-34.219493002 150.723795712,-34.218496018499998 150.723219712,-34.216971026499998 150.72293900799997,-34.216286008499999 150.722713664,-34.215722036 150.72263766399999,-34.215569041 150.722376672,-34.215005031499999 150.722080672,-34.214399045500002 150.721721664,-34.213619048499993 150.72149267200001,-34.213195047 150.720777664,-34.211829081 150.72066067200001,-34.211604065499998 150.72033267200001,-34.211015081 150.720121664,-34.210574078 150.719988672,-34.210193070500004 150.71988064000001,-34.209761077 150.71982665600001,-34.209395073 150.71976064,-34.208704079500002 150.71973564800001,-34.208239082 150.71971763199997,-34.207936089 150.719682656,-34.207694090499999 150.71965564800001,-34.207492089 150.71962963199999,-34.2073290855 150.71953862399999,-34.206876094500004 150.719478624,-34.206490092 150.71926361600001,-34.204922087500002 150.719254624,-34.204878094500003 150.71923961600001,-34.2048360995 150.719219616,-34.2047981005 150.71917961599999,-34.204757086 150.71912262399999,-34.204715091 150.719063616,-34.204680089 150.719016608,-34.204654096500001 150.7189976,-34.204644088 150.71875561600001,-34.204559099 150.71869660799999,-34.204537084 150.71827961599996,-34.204432115 150.71789961600001,-34.204332104 150.7177016,-34.204287112 150.7176776,-34.204281118 150.71730163199996,-34.2042041025 150.716891648,-34.204133136499998 150.71640464000001,-34.204066129499999 150.71590364799999,-34.203999141 150.71542265599999,-34.203932152500002 150.71496368000001,-34.203859151499998 150.71476867199999,-34.203807148 150.71470768,-34.203790146500005 150.71440899199999,-34.203715998500002 150.714159008,-34.203641998499997 150.71341068800001,-34.203330162500002 150.712984672,-34.203139187 150.712888,-34.203096008 150.71246300799999,-34.202896004499998 150.71202499200001,-34.202700996 150.71143801599999,-34.202436002 150.711012,-34.202278992499998 150.710600992,-34.202064004 150.710151008,-34.201791998499999 150.709642016,-34.201432007 150.70923100799999,-34.201027005 150.708932992,-34.2006720085 150.70879001599999,-34.200422998500002 150.708492,-34.199904998500003 150.70740899200001,-34.197927996 150.707336672,-34.1978012155 150.70717766399997,-34.197525214 150.70711900800001,-34.197423001499999 150.706818016,-34.196899007500001 150.70666201599997,-34.196649997500003 150.70663001599999,-34.196586006 150.706604992,-34.196518 150.706588,-34.196446997 150.70657900800001,-34.196375994 150.70657801600001,-34.196307007500003 150.706596,-34.196223998 150.70663100799999,-34.196130998500003 150.706671008,-34.196042994 150.706718016,-34.1959529915 150.707024,-34.195655992500001 150.70724300800001,-34.195447997 150.70745267199999,-34.195247901 150.708064992,-34.194659009 150.70836499200001,-34.194388002499998 150.708788,-34.193995007 150.709056,-34.193748994 150.709170016,-34.193650999500001 150.70935299199996,-34.193554004 150.709576992,-34.193458007499991 150.70985299200001,-34.193313004499998 150.710108,-34.193191996 150.71030201599999,-34.193070007 150.710484992,-34.19300699599999 150.71068854399999,-34.192918196 150.71087254400001,-34.192822199499993 150.710899552,-34.192797206 150.710923552,-34.192773211500004 150.710944544,-34.192747200499994 150.710956,-34.192723002500003 150.710956544,-34.192699211499999 150.71095155199998,-34.192673200500003 150.71094054400001,-34.192647208 150.71092656,-34.192624194 150.71090854399998,-34.192605194499997 150.710599008,-34.192516006 150.71030899199999,-34.192460006499999 150.71016899200001,-34.192408003 150.71013801599997,-34.1923609945 150.71012601599998,-34.192336001 150.71012099199999,-34.192315003499999 150.71012601599998,-34.192295005 150.71013500800001,-34.192274007500004 150.710148992,-34.192254009 150.71016601599999,-34.192237007500005 150.710184,-34.192224002 150.71031654399999,-34.192176198 150.71057001599999,-34.192114001 150.71076201599999,-34.192083994 150.71097299199999,-34.192079998 150.711196,-34.192051008500002 150.71122201599999,-34.192006997 150.711230016,-34.191981004500001 150.711231008,-34.191958009 150.711228992,-34.191933996 150.71124,-34.191775007 150.71124601599999,-34.191705003 150.711266016,-34.191626008 150.711281504,-34.191562201499998 150.71129052800001,-34.191527199500001 150.71129270399999,-34.191518375 150.711212512,-34.1914951945 150.71105955199999,-34.191449203499999 150.710009536,-34.191649207 150.708984544,-34.191835206 150.70873555200001,-34.191914201 150.70773158399999,-34.192127228499992 150.70677657600001,-34.192369227 150.70603561600001,-34.19244023 150.70549462400001,-34.192383213 150.70483961599999,-34.192397217500002 150.704248608,-34.192611225500002 150.70390662399998,-34.192917215500003 150.703642656,-34.19310922699999 150.70330764799996,-34.193152221 150.70295865599999,-34.193088248 150.70265264,-34.192939249 150.70233964799999,-34.192753231499999 150.70203564799999,-34.192514248500004 150.701615648,-34.192148244500004 150.70146364799999,-34.1920452365 150.70117465600001,-34.191925245500002 150.70108963199999,-34.191866249 150.70058563200001,-34.191427244 150.70018364799998,-34.191047254 150.699814656,-34.190710258 150.69976464000001,-34.190652260500002 150.699714656,-34.190565255 150.699647648,-34.19049225399999 150.69922665600001,-34.1901692625 150.69905865600001,-34.190023260499999 150.69892563199997,-34.189877258499997 150.69860464,-34.189642253 150.69835264,-34.189422251 150.698168608,-34.189233255 150.69791561599999,-34.189042279500001 150.69761065599999,-34.188864272499998 150.69732364800001,-34.188687283 150.697035648,-34.188538284 150.69652864,-34.188184268 150.69632563199997,-34.188066275 150.69593465599999,-34.187901273500003 150.69546064,-34.187605292 150.69537564800001,-34.187575303500005 150.69506864,-34.187483303 150.69460665599999,-34.187388287 150.69445264000001,-34.187342296 150.69383664,-34.187230297 150.693733632,-34.187228299 150.69333964800001,-34.187163308500004 150.692858656,-34.187125309499997 150.69246464,-34.187060319 150.692361664,-34.187058321 150.692172672,-34.187026316 150.69194966399999,-34.187021321 150.69146668799999,-34.187054306500002 150.69134668800001,-34.1870523085 150.69117366399999,-34.187063316 150.69108668800001,-34.1870903075 150.69103568,-34.187089308499999 150.69027366399999,-34.187260341 150.690100672,-34.187286333499998 150.68989366400001,-34.187296323499993 150.68932672,-34.187285334500004 150.68901769600001,-34.1872503325 150.68881072,-34.187246336500003 150.68870870399999,-34.187229335 150.68829571200001,-34.187207338500002 150.68738870399997,-34.187046351500001 150.68728672,-34.187015345499994 150.68689171199998,-34.186951354 150.68651769600001,-34.186800357 150.68554774399999,-34.186423364 150.68544473599999,-34.186392376500002 150.684866752,-34.186152376 150.683844736,-34.185789387500002 150.68352060800001,-34.185667417 150.68331772799996,-34.185563391500004 150.68313075200001,-34.18544538 150.68306473600001,-34.185387382500004 150.68258972800001,-34.185105387 150.682301728,-34.18497141 150.682199744,-34.184912413500001 150.681624736,-34.184557398500004 150.68145577600001,-34.184439405500001 150.68101577600001,-34.184187417 150.680930784,-34.184128420499995 150.68052377599997,-34.183948434 150.680388768,-34.183846425 150.68083078399999,-34.183425420500001 150.68095475199999,-34.183298418 150.68121875200001,-34.1830894235 150.68127075199999,-34.183061433 150.68139372799999,-34.182978423500003 150.68158572799996,-34.182881428 150.68174374399999,-34.182756423500003 150.68190275200001,-34.1826014305 150.68201075199997,-34.182432433 150.68204873600001,-34.182332422 150.68206873599999,-34.182218425 150.68207267199998,-34.182104391 150.68211193599998,-34.181933395500003 150.68211472,-34.181818418 150.682208704,-34.181534424500001 150.682244704,-34.181492429500004 150.682281856,-34.181378451 150.68231769599998,-34.181336437500001 150.68237171199999,-34.181222440500001 150.68249769599998,-34.181024435 150.682535712,-34.180911437 150.68257164799999,-34.180868424499998 150.68264470400001,-34.180712451 150.68277769599999,-34.18024244 150.68279072000001,-34.180196449 150.68279772799997,-34.180171474 150.682889536,-34.179944405 150.682909696,-34.179859434500003 150.68296368,-34.17976044099999 150.68305763199999,-34.179489453 150.6830616,-34.179332406500002 150.683030656,-34.179203424500002 150.68285280000001,-34.178799421500003 150.68285459200001,-34.178727419499999 150.68283984000001,-34.178669459 150.68284668800001,-34.178426461499996 150.68288483200001,-34.178269507499998 150.6828888,-34.178155473499999 150.68290681599998,-34.178112442500002 150.68291184,-34.177941447 150.68292985599999,-34.177898434500001 150.682932736,-34.177784493 150.68297267200001,-34.177613497499998 150.68295756800001,-34.177541495500002 150.68295251200001,-34.177529526 150.6829752,-34.177520331499998 150.68315628799999,-34.177464091499999 150.68331289599999,-34.177427276499998 150.68352960000001,-34.1773816555 150.68377584000001,-34.177346542500004 150.68413548800001,-34.17732351 150.684561376,-34.1772917455 150.685160768,-34.177258353 150.68562841599999,-34.177214970500003 150.68582784,-34.177196526 150.68615616,-34.177103008499998 150.68670876799999,-34.176949736 150.68713248,-34.176815278 150.68739241599999,-34.176728513 150.687902528,-34.176559238 150.68823049599996,-34.176465720499998 150.68857644799996,-34.176358346500002 150.6889224,-34.176243776 150.68923379200001,-34.1761428955 150.68958803199999,-34.176035614 150.68983932800001,-34.1759406535 150.689921056,-34.175910776 150.69017161599999,-34.175819164 150.690572992,-34.175675437500004 150.69105792,-34.17549201 150.69137580799998,-34.175374294500003 150.692103008,-34.175112926499999 150.69240755199996,-34.175006736500002 150.69257100799999,-34.174949849 150.69336480000001,-34.1746596025 150.69380796799999,-34.174504628 150.69407833599999,-34.174413719 150.69429289599998,-34.174347026499994 150.694598528,-34.174287086500001 150.694763392,-34.174264942 150.69494953599997,-34.174249476 150.69509785599999,-34.174237229 150.69546432000001,-34.174212383499999 150.69581747199999,-34.174193754 150.696247328,-34.174172886 150.69647088,-34.174167835499993 150.69722544000001,-34.174131039 150.69752713599999,-34.1741180705 150.69801347199999,-34.174104029 150.69834864000001,-34.174096388500004 150.69856681600001,-34.174077296500002 150.6987288,-34.174066492499996 150.69889728000001,-34.174037151500002 150.699043456,-34.17399351 150.69920688,-34.173931683 150.69934835199996,-34.173864805500003 150.69946752000001,-34.1737928035 150.69958128,-34.173711459 150.69967884799996,-34.173615962 150.699800512,-34.173503722500001 150.69989628799999,-34.173427687500002 150.69995497599996,-34.173384397500001 150.70003020799999,-34.173329045500004 150.70019184,-34.173238673 150.70036284799997,-34.173148504 150.70052377600001,-34.173081534 150.70086432,-34.1729633745 150.701780512,-34.172677087 150.70234860799999,-34.172513288 150.70243033599999,-34.172487813499998 150.702957376,-34.172323293 150.70319712,-34.172257673499999 150.70339763199999,-34.17221673299999 150.70356720000001,-34.172194403499994 150.7040136,-34.17214536 150.70444992,-34.172103420500001 150.704568,-34.172091987499996 150.70539888,-34.172024666 150.705777248,-34.17199839599999 150.70626793599999,-34.1719643745 150.70741379200001,-34.171890115499991 150.70814019199997,-34.171822979 150.708175232,-34.171821203 150.70847824,-34.17178120599999 150.7091032,-34.171636203 150.70964220799999,-34.171497175500001 150.7101672,-34.17135319 150.710630176,-34.17124219 150.71073315199999,-34.171210185 150.71125216,-34.171066162500004 150.71158416,-34.170969167 150.711743168,-34.170898164 150.71190316799999,-34.17082216599999 150.712294144,-34.170603144499999 150.71240012800001,-34.170540152 150.71251712,-34.170461138500002 150.71273312,-34.170303148500004 150.71297414399999,-34.170092156 150.713183104,-34.169880146 150.71335910400001,-34.169707134 150.713543104,-34.169501136500003 150.71388108799999,-34.169015123 150.71416505600001,-34.1686291205 150.71426064,-34.168502525 150.71444425600001,-34.168262302499997 150.71489747199999,-34.167660664 150.71495904,-34.167577673 150.71511420799999,-34.16737014 150.715311136,-34.167110751500005 150.715462688,-34.166882165499999 150.71564736,-34.166617282499999 150.71579244799997,-34.166399130500004 150.71583961599998,-34.166289518 150.71586156799998,-34.166184752500001 150.7158576,-34.166100503500004 150.715836352,-34.165942291500002 150.71577552,-34.165846535500002 150.71570819199999,-34.165761121 150.71560921599999,-34.165675077499998 150.71551164799999,-34.165630085499998 150.7154904,-34.165620262 150.71531328,-34.165529186500002 150.715087936,-34.165423792 150.71497811200001,-34.165362779 150.71491331199999,-34.165315252500001 150.714884512,-34.165255682500003 150.71486652799996,-34.165175318500005 150.71487372799996,-34.165099616500001 150.71492124799997,-34.165024654500002 150.71500908799999,-34.164958868500001 150.71513795199999,-34.164885423500003 150.7152816,-34.164829165 150.71547024,-34.164786337500004 150.7156128,-34.164767874500001 150.71577552,-34.164749874 150.71597353600001,-34.164749337499998 150.716362336,-34.164756534 150.71644979199999,-34.164758162 150.71650633600001,-34.164760770500003 150.71660675199999,-34.164765358499999 150.717172672,-34.164843299 150.71740777599999,-34.164895506 150.71782608000001,-34.165008818499999 150.71798556799999,-34.1650450785 150.71813856,-34.165075677499999 150.71833907199999,-34.165079451499999 150.71848057599999,-34.165043191500004 150.718670272,-34.164946714 150.71879987200001,-34.164849145 150.71888953600001,-34.164756367500004 150.71891904,-34.164645848500001 150.71895107200001,-34.164451987 150.71899248,-34.16415831799999 150.71911776,-34.163383686 150.71913648,-34.163266581 150.719180416,-34.163010004500002 150.71921424,-34.162875176500002 150.7193136,-34.1625456915 150.719398208,-34.162316458 150.719555872,-34.161842525 150.719622496,-34.1616178795 150.71964876800001,-34.161522937500003 150.71966243200001,-34.161473154 150.71976649599998,-34.161199021 150.719824096,-34.161084635500004 150.71990003199997,-34.160955561 150.71996627199999,-34.160850277500003 150.720103808,-34.160693841499999 150.72042995199999,-34.160312871 150.72070572800001,-34.159965385500001 150.7207752,-34.159856124500003 150.72094224,-34.159557146 150.72102,-34.159418285 150.72113449599999,-34.159171587499998 150.72127523199998,-34.158897713500004 150.72146928000001,-34.158479669 150.7216104,-34.1581001415 150.721707232,-34.157847690499992 150.72173568,-34.157768936 150.721804448,-34.157580291500004 150.72199273599998,-34.156933198499999 150.72214355200001,-34.156345231499998 150.722155456,-34.156233362 150.72216588799998,-34.155844658500001 150.72216012800001,-34.155395904 150.72213888,-34.154849617499998 150.722127008,-34.154610116499995 150.722118368,-34.154090451500004 150.72211657599999,-34.153988220500004 150.72210252799999,-34.15300785 150.72210396799997,-34.1528514325 150.72210720000001,-34.152493864500002 150.722163008,-34.151749831499998 150.72217452800001,-34.15165316899999 150.722298016,-34.151066904 150.722336896,-34.150948374500004 150.72241356800001,-34.150763522499993 150.72251507199999,-34.150490647499993 150.72259609599999,-34.150287425 150.72260329599999,-34.150269591 150.72264828799999,-34.150124884 150.72267241599999,-34.149996808499999 150.722676,-34.149859927 150.72261875199999,-34.149696128 150.72252083199999,-34.149505855500003 150.722352352,-34.149254403500002 150.72220403200001,-34.149020397 150.722014336,-34.148794142 150.72186384,-34.148637188 150.72178428800001,-34.148563928 150.72176124800001,-34.148527557 150.72170291200001,-34.148488596 150.72154128,-34.148365737500001 150.721248608,-34.148137595500003 150.721017472,-34.147919258500004 150.720927488,-34.147824668 150.72082704,-34.147718737 150.720575392,-34.147491298 150.72035363200001,-34.147298787 150.720103456,-34.147020066 150.719943968,-34.146820173500004 150.71975353600001,-34.146619652 150.71957497599999,-34.146359375499998 150.71941657599999,-34.146116637 150.71937120000001,-34.146051036 150.71906953600001,-34.145613455499998 150.71892265599999,-34.145377913499999 150.71873363200001,-34.145117452 150.71861376000001,-34.144978221 150.71836499199998,-34.144648107 150.71807628799999,-34.144274518 150.71795353600001,-34.144129626 150.717936256,-34.144109183499999 150.717696128,-34.143839194500003 150.717426496,-34.143517257499994 150.71711507200001,-34.143220351 150.71636700799999,-34.142409995500003 150.71630329599998,-34.142340602 150.715605952,-34.141582176 150.71487516799999,-34.140780626500003 150.71465555200001,-34.140548248 150.714226432,-34.140094017500004 150.71413356799997,-34.139996004499999 150.71399065599999,-34.139829967 150.71359392,-34.1393693355 150.7133448,-34.139064955 150.713250496,-34.138959653 150.713204768,-34.138908186 150.71301612799999,-34.138639177500004 150.71271011199997,-34.138191866 150.71235408000001,-34.137637106500001 150.711969952,-34.136972901 150.71176297599999,-34.136615425500004 150.71077507199999,-34.134957529499999 150.71065344,-34.134750181500003 150.710605216,-34.134670539 150.71054473599997,-34.134573599 150.71037948799997,-34.134308827 150.71021065599999,-34.134074469 150.71009184,-34.133900939 150.7099824,-34.133753346 150.70981248000001,-34.133534102500001 150.70964185599999,-34.13335959199999 150.70909968000001,-34.132835616500003 150.70899817599999,-34.132731036 150.70882896000001,-34.1325565255 150.70854780799996,-34.132285704 150.70833721599999,-34.132067737 150.70813561599999,-34.131892671500005 150.707973952,-34.131778286 150.707861632,-34.131733386500002 150.70786147199999,-34.131733109 150.70765750399997,-34.131669136 150.70744348799997,-34.131588124499999 150.70721948799999,-34.13149013 150.70685350400001,-34.131312123 150.70652848,-34.131100131499998 150.70604249600001,-34.130808146 150.70564649600001,-34.130595155500004 150.70510851200001,-34.130268149500004 150.704592512,-34.129933151499998 150.70425952,-34.129670174 150.703966528,-34.129468172500005 150.70381152,-34.129323169500005 150.703694528,-34.129214167500002 150.70301052799999,-34.128602169 150.70285952,-34.128439184 150.70282352000001,-34.12840118499999 150.702584992,-34.1281639965 150.70234153600001,-34.127921184 150.70215299200001,-34.127710006500003 150.70189155200001,-34.127416189500003 150.70148156799996,-34.126971190500001 150.701173568,-34.126572182499999 150.70087456,-34.126172194 150.70067555200001,-34.125929196500003 150.70047401599999,-34.125654009 150.70023056,-34.125318197 150.70012656,-34.125180205500001 150.70006300799997,-34.125068003 150.70002156800001,-34.125002198499999 150.69987001600001,-34.124717002499999 150.69979513599998,-34.124526175 150.699788544,-34.1245082115 150.699716,-34.1242000015 150.699655552,-34.123858195499992 150.699585568,-34.12353620299999 150.699568,-34.1233529975 150.699490016,-34.123079993 150.699252992,-34.122703999 150.69908099200001,-34.1224230025 150.69888601599996,-34.122289007 150.698628,-34.122104007 150.69845449599998,-34.122481925 150.69809856000001,-34.123042216 150.6979296,-34.1232732255 150.6977096,-34.123542234 150.69738358399997,-34.123972248 150.69721859199998,-34.12417423099999 150.69674361599999,-34.124678245 150.69655161599999,-34.124884261 150.69635161599999,-34.12506726299999 150.696187616,-34.125221257 150.695885664,-34.125446254 150.69566364799999,-34.125589259 150.69550464,-34.125681259499999 150.69536665599998,-34.125760254500001 150.695165664,-34.125868276 150.69489168000001,-34.126019273 150.69462867199999,-34.126159281 150.69458569599999,-34.126180278500001 150.69454268800001,-34.12620327399999 150.694500672,-34.126226269500002 150.694458688,-34.126250282500003 150.69441868799998,-34.126275276 150.69437168,-34.126305283 150.69431868800001,-34.126340285 150.69427068799996,-34.126374269499998 150.69423468799999,-34.126399281499992 150.69422067199997,-34.126409271500002 150.69411068799999,-34.126496277 150.69395769600001,-34.126618303 150.69383670400001,-34.126745287 150.69372672,-34.126858303500001 150.69363872,-34.126945290500004 150.69354572799998,-34.127046300499991 150.69347372799999,-34.127120300500003 150.693401728,-34.127190304500004 150.693287712,-34.127272296500003 150.69318972799996,-34.127346296500001 150.69306470399999,-34.127406292 150.69295670400001,-34.127462291500002 150.69281075200001,-34.127508301 150.69268675199999,-34.127537309 150.69258675200001,-34.127550314499999 150.69257673600001,-34.127551313499993 150.69255174399999,-34.127552312500001 150.69251776,-34.127554310500003 150.69248176,-34.127556308500004 150.69244976,-34.127558306499999 150.69241574399999,-34.1275593055 150.69238576000001,-34.127560323 150.69238275199999,-34.127560323 150.69234976000001,-34.127561322 150.69231673600001,-34.127561322 150.69228374400001,-34.127561322 150.69208073600001,-34.127555309499996 150.69206675199996,-34.127554310500003 150.69203075199999,-34.127552312500001 150.69198176,-34.127549315499998 150.69192976,-34.127546318500002 150.69188374399999,-34.127543321499999 150.691848736,-34.127540306 150.691814752,-34.127537309 150.691779744,-34.127534312 150.69174576,-34.12753031599999 150.69171075199998,-34.127527319 150.69169673600001,-34.127525321 150.69166176,-34.127522305499994 150.69161376,-34.127517310500004 150.69156374400001,-34.1275133145 150.69151875200001,-34.127510317500004 150.69147776,-34.127508319500002 150.69143673600001,-34.1275063215 150.691395744,-34.127505322499999 150.691354752,-34.127504305 150.69131376000001,-34.127504323499998 150.691004768,-34.127505341 150.69079478399996,-34.12750833799999 150.69072678399999,-34.127510336 150.69063779199996,-34.12751633 150.69054876799999,-34.127524340500003 150.69045878399996,-34.127534330499998 150.69036979200001,-34.127546337 150.69028179199998,-34.127560341500001 150.69026476799999,-34.127564337500004 150.69022179199999,-34.127576325500002 150.69016278399999,-34.12759232799999 150.69010076800001,-34.127610328499998 150.690046784,-34.12762733 150.69000678399999,-34.127641334499998 150.68996678400001,-34.127655339 150.68992777599999,-34.127669343500003 150.689888768,-34.127685346 150.68984982399999,-34.127701348500004 150.68984182400001,-34.127705344500001 150.68982182400001,-34.127715353 150.68979382399999,-34.127729357500002 150.68976480000001,-34.127744342500002 150.68973980800001,-34.127757348 150.68971680000001,-34.127769354500003 150.68969481600001,-34.127781342500001 150.68967280000001,-34.127794348 150.68965081600001,-34.127807353500003 150.6896288,-34.127820359 150.6891288,-34.128153359 150.68912080000001,-34.128161351 150.68909881600001,-34.128181349500004 150.6890688,-34.1282083595 150.6890368,-34.12823635 150.68900880000001,-34.1282613435 150.68899382399999,-34.128275348 150.68897782400001,-34.128289352499991 150.68896182399999,-34.128303357 150.688945824,-34.128317343 150.68892982400001,-34.1283303485 150.688720832,-34.12854034199999 150.68862483199999,-34.128653377 150.68861584000001,-34.128663367 150.68859283200001,-34.128689378 150.688562848,-34.128725360499999 150.68853184,-34.128763378 150.68850585600001,-34.128798361499996 150.68847984000001,-34.128835361500002 150.68845683200001,-34.128874378 150.68843385599996,-34.128914375 150.68841385600001,-34.128953373 150.688394848,-34.128994369 150.68839184000001,-34.129000363 150.688384832,-34.1290163655 150.688374848,-34.129037363 150.68836483199996,-34.129060377 150.68835683200001,-34.129080375500003 150.68834883199997,-34.129101373 150.68834185599999,-34.1291233695 150.68833584000001,-34.129144367 150.688329856,-34.129166363499991 150.68832483200001,-34.129188378500004 150.68832185599999,-34.129201365500002 150.68831385600001,-34.129234369500004 150.68830284800001,-34.129279361500004 150.68829184000001,-34.129328368 150.68828384,-34.129370363 150.68827884800001,-34.129402368 150.68827385599997,-34.129435372 150.68826883200001,-34.129467377 150.68826483199999,-34.129499363500003 150.68826185599997,-34.129532367499998 150.688260832,-34.129544374 150.688258848,-34.129576360500003 150.68825584000001,-34.129618374 150.68825385599999,-34.129663366 150.68825283199999,-34.129703363 150.68825385599999,-34.129745376500004 150.68825584000001,-34.1297863725 150.688258848,-34.129828367500004 150.68826185599997,-34.1298703625 150.68826684800001,-34.129911377 150.68829184000001,-34.130040377500002 150.68835283199996,-34.130187378500004 150.68843584000001,-34.130334361 150.68853683200001,-34.130491370500003 150.68867283200001,-34.130669377499999 150.68875184000001,-34.130777362 150.68889385599999,-34.130920367 150.68899683199999,-34.131005374499999 150.68911084800001,-34.131080355 150.68930185599996,-34.131156353 150.689474848,-34.131232351 150.68970684799999,-34.131310347 150.68993184,-34.131397352500002 150.69015785599998,-34.131488354 150.69034883200001,-34.13156535099999 150.69044684799999,-34.131611342 150.690621824,-34.131693334 150.69076582400001,-34.131764337 150.6909088,-34.131871341 150.69101980799999,-34.131968336500002 150.6911008,-34.132074341500001 150.69115980800001,-34.132179329 150.69125980800001,-34.132345329499998 150.691297824,-34.132484338499999 150.691386816,-34.13265933 150.69146582400001,-34.13280733 150.69158582399999,-34.13299133099999 150.691726816,-34.133158330499995 150.691827808,-34.133255326 150.69197081600001,-34.133370340500001 150.69212380799999,-34.133477326 150.692245824,-34.13357434 150.692346816,-34.133689336 150.69244281599998,-34.133806311500003 150.69245081599999,-34.133819317 150.692469824,-34.133854319 150.69249481599999,-34.133901309 150.69251980799999,-34.133951314500003 150.692537824,-34.133996306500002 150.692549824,-34.13403832 150.692558816,-34.134081314 150.6925648,-34.134124308 150.6925688,-34.134167320499998 150.692569824,-34.134209315500001 150.692569824,-34.134222321 150.692570816,-34.134254307499994 150.692570816,-34.134298319 150.6925688,-34.13434431 150.6925648,-34.13438430699999 150.692558816,-34.13441831 150.69255180799999,-34.134452313 150.69254281600001,-34.134486316 150.69253180800001,-34.134520319 150.69251881599999,-34.134553323 150.692514816,-34.134567309 150.69250982400001,-34.134583311500002 150.6924968,-34.134624326 150.6924808,-34.1346803255 150.69246281599996,-34.134739340499998 150.69244681599997,-34.134791325500004 150.692437856,-34.134824329499999 150.69242883199999,-34.1348563345 150.69241884799999,-34.134889338500003 150.69240985599998,-34.13492232399999 150.692400832,-34.134955328 150.69229184,-34.135335336499992 150.692276832,-34.135396331 150.69226384000001,-34.135457325499992 150.69225184000001,-34.135519337499993 150.69224185599998,-34.135580332 150.692233856,-34.135642325500001 150.69222684799996,-34.135723337 150.69222284799997,-34.135815337499999 150.692220832,-34.135902324500002 150.69221984000001,-34.135967333499998 150.69221984000001,-34.135992327 150.69222284799997,-34.136046328499994 150.69222784,-34.13610033 150.692234848,-34.136153332500001 150.69224284800001,-34.136207334 150.69225283200001,-34.136260336500001 150.69226784,-34.136325327 150.69228784000001,-34.136400326 150.69230784000001,-34.136469331 150.69232384,-34.136521334500003 150.69232985599999,-34.136541333 150.69244083199999,-34.136890335499999 150.69245984,-34.136939323500002 150.69247584,-34.136989329 150.69249084800001,-34.137040333499996 150.69250384,-34.137091338 150.692514848,-34.137142324 150.692525856,-34.137215325 150.69253385600001,-34.137298334500002 150.692538848,-34.137377329499998 150.69254185599999,-34.137436326 150.69254284799999,-34.13745934 150.692585888,-34.13794733299999 150.69261686399997,-34.1384163265 150.69269187200001,-34.139127337 150.69273286399999,-34.139567341 150.692743904,-34.139897325500002 150.69277190400001,-34.1403763275 150.69278489600001,-34.140472324 150.69279491200001,-34.140568339 150.69280390399999,-34.140664335499999 150.692811904,-34.140760332 150.69281792,-34.1408563285 150.692820896,-34.140979335 150.69282192,-34.141121341 150.69282192,-34.1412533385 150.692820896,-34.141351333 150.692819904,-34.141390331 150.692790944,-34.142184332500001 150.69279395199999,-34.142332332500004 150.692765952,-34.142617325 150.692765952,-34.14264933 150.692764928,-34.142681335 150.69276393600001,-34.14271334 150.69276294400001,-34.142745326499991 150.69276195200001,-34.142776332499999 150.69275894399999,-34.142821324499998 150.692755936,-34.142872347500003 150.692752928,-34.14291935599999 150.69275094400001,-34.142954358 150.69274995199999,-34.142968344 150.69274694399999,-34.14299435499999 150.69274195199998,-34.143019348499998 150.69273795199999,-34.143044342 150.692731936,-34.143069354 150.69272694399996,-34.143094347500003 150.69271894399998,-34.143122356500001 150.692709952,-34.143154343 150.69270092799999,-34.14318435 150.69269292800001,-34.1432053475 150.69268995199999,-34.143214357 150.69265696,-34.14329535 150.69262096,-34.14337534399999 150.69258297600001,-34.143455356499999 150.692542976,-34.1435333525 150.69250096,-34.143611348500002 150.69244598399999,-34.143704348 150.69237897599999,-34.14380935399999 150.69231398400001,-34.143907348500001 150.69226598399999,-34.143979350500004 150.69224598400001,-34.144007359500002 150.692059968,-34.144306356499996 150.69201801599999,-34.144362356 150.69197500799999,-34.1444173565 150.69193100800001,-34.144472357 150.69188601600001,-34.144527357500003 150.69184099199998,-34.144581359 150.691784,-34.144645350499992 150.69171801600001,-34.144717371 150.691655008,-34.144785377 150.691608,-34.144834365 150.69159001599996,-34.144854363500002 150.691350016,-34.1450733665 150.691268992,-34.145140373499999 150.69118704,-34.145205364 150.69110304,-34.145268375 150.69101702399999,-34.145330368499998 150.69093004800001,-34.145390364 150.69081904000001,-34.14545936899999 150.69069004799999,-34.145535367 150.69056704,-34.145604390499997 150.69047504,-34.145656394 150.69043904,-34.145675393499992 150.69025203199999,-34.145766395 150.69019004800001,-34.145794385500004 150.690127072,-34.145822394500001 150.69006406400001,-34.145849386 150.69000105599997,-34.145876396 150.68993705599999,-34.145902388499998 150.68984608,-34.145936391500001 150.68974208,-34.1459733915 150.68964406399999,-34.146007394500003 150.68957107200001,-34.146032388 150.68954307199996,-34.146041379 150.68947008000001,-34.146063394 150.68939808,-34.146083392500003 150.689325056,-34.146103391 150.68925206399999,-34.146122409 150.68917808,-34.1461414085 150.68910406399999,-34.14615841 150.68901907200001,-34.146177409499998 150.68893907200001,-34.146194411 150.68888006399999,-34.146206399 150.68885705599999,-34.146211412500001 150.68862211199999,-34.146236406 150.68854310399999,-34.146247413499999 150.68846409599999,-34.146256404500001 150.68838409599999,-34.146264415 150.688304096,-34.146271408 150.68822409599997,-34.146276403 150.688135104,-34.1462794 150.688034112,-34.146280399 150.68793910400001,-34.14628139799999 150.68786809599999,-34.146281416500003 150.687841088,-34.146280417499995 150.68702512,-34.146277420499999 150.68596812800001,-34.1462484495 150.685780128,-34.146251446500003 150.68554112,-34.146257440500001 150.68514617599999,-34.1462864485 150.684806176,-34.146327463 150.684434176,-34.146403461 150.68411216,-34.146480458 150.68375820799997,-34.146583484499999 150.68347420800001,-34.146677483 150.68318220800001,-34.146796475 150.68292819199999,-34.146906476 150.68268121599999,-34.1470264855 150.68231222399999,-34.147207508 150.68182224,-34.147463492499995 150.68170624000001,-34.147528501499998 150.681260256,-34.147750501499999 150.68080726400001,-34.147974518 150.680313248,-34.148185510499999 150.67987430400001,-34.148408509500001 150.67949129600001,-34.148633525 150.67906630399997,-34.148834509 150.67847232,-34.149112508500004 150.67806332800001,-34.149290515499999 150.67765433599999,-34.149445508500001 150.677358336,-34.149532514 150.676852352,-34.149662513500004 150.676501344,-34.149725524499999 150.67640435199999,-34.149739510499998 150.67584636800001,-34.149798525500003 150.67508137600001,-34.149854506499999 150.67506937600001,-34.1498555055 150.67413139199999,-34.149884495 150.67348937599999,-34.149904493500003 150.67252243199999,-34.149949504 150.67248243200001,-34.149952501 150.67238243200001,-34.149961492 150.67224643200001,-34.149973498500003 150.672101408,-34.14998750299999 150.67197542400001,-34.150002506500002 150.67187443199998,-34.150017491500002 150.67177443200001,-34.150033494 150.671674432,-34.150050495500004 150.671574432,-34.150069495 150.67147542399999,-34.150089493499998 150.671417408,-34.150105496 150.67126742400001,-34.150147491 150.671067424,-34.150206506 150.67085744,-34.150272495499998 150.670674464,-34.1503365055 150.67054745600001,-34.150387491499998 150.67042144000001,-34.150440494 150.67029744000001,-34.150497492499994 150.67017545600001,-34.150556507499999 150.670054464,-34.150618501 150.67002144,-34.150637500500004 150.66993744000001,-34.150687506 150.66982646400001,-34.1507554935 150.669707456,-34.150828494500004 150.66960745599999,-34.150896500500004 150.66951046400001,-34.150966504499998 150.66941648,-34.151038506500001 150.669325472,-34.1511135055 150.66923648,-34.1511905025 150.66836848,-34.151992514499995 150.66782652800001,-34.152464523499994 150.666896544,-34.15326352 150.66659808,-34.153562258 150.66632656,-34.153787514 150.66614656,-34.153940509 150.66587558399999,-34.154145526 150.665760576,-34.154206520500004 150.66556883199999,-34.154297096500002 150.665186592,-34.154425523500002 150.664894592,-34.154504518499998 150.66460358399999,-34.154540519500003 150.664351616,-34.154535524499998 150.6640496,-34.154519522 150.66377462400001,-34.154419511 150.66336262399997,-34.154275525500005 150.6630016,-34.154111523 150.6623416,-34.1538055145 150.66161961599997,-34.153456512 150.6612456,-34.153292509499991 150.66109760000001,-34.153241505 150.66102460799999,-34.153215494 150.6610176,-34.153213496 150.660986624,-34.153202507 150.660955616,-34.153192498499997 150.66090460800001,-34.153175497 150.66079360000001,-34.153141494 150.66067561599999,-34.153106492 150.660570624,-34.1530804995 150.6604696,-34.153060501 150.660367616,-34.153043499500001 150.66026460800001,-34.153030494 150.6601616,-34.15302150299999 150.6600576,-34.153014491500002 150.65984764800001,-34.153014491500002 150.65982864,-34.153016508 150.65978064,-34.153022502 150.659715648,-34.153030494 150.65964665600001,-34.153039503500004 150.65958764800001,-34.1530504925 150.659546656,-34.153059502 150.65950563199999,-34.153068493 150.65946464000001,-34.153079500499999 150.65942464,-34.153090508 150.65938464000001,-34.153102496 150.65914963200001,-34.153179493 150.65912764800001,-34.153188502499994 150.65908464,-34.153207502 150.65907865599999,-34.153210499 150.65902265599999,-34.153235492500002 150.65902163199999,-34.153236491500003 150.65895763200001,-34.153265499500002 150.65890064,-34.15329349 150.65889664,-34.153295506500001 150.65885363199999,-34.153317503 150.65880764799999,-34.153343495500003 150.65876265599999,-34.153369506499999 150.65871763199996,-34.153395499 150.65867264,-34.153422490499999 150.65866464000001,-34.153430501 150.65864265600001,-34.153448501500002 150.65861264,-34.153472496 150.65858163199999,-34.153498507 150.65855465600001,-34.153521502499999 150.65853264,-34.153538504 150.658511648,-34.153556504500003 150.658490656,-34.153573506 150.65846963199999,-34.1535915065 150.65844864,-34.153608508 150.65843868799999,-34.153618498 150.65841366399999,-34.153644490499993 150.658378688,-34.153679492500004 150.658342688,-34.153717491500004 150.658310688,-34.153750495499999 150.65829068799999,-34.153772510499998 150.65826966399999,-34.153794525500004 150.65824966400001,-34.153816522 150.658229664,-34.153838518500002 150.658209664,-34.15386051499999 150.65820668799998,-34.15386551 150.658198688,-34.153880513499999 150.65818768,-34.153900512 150.65817667199997,-34.153922508500003 150.658161664,-34.153891521 150.65815068800001,-34.1538435135 150.65811068799999,-34.153630504500001 150.65806668799999,-34.153421491499998 150.65807264,-34.153213496 150.658085632,-34.153089490500001 150.658119648,-34.153030494 150.658127648,-34.153015490500003 150.658149632,-34.152993494 150.65816963200001,-34.1529744945 150.65819164800001,-34.152965503499999 150.65824963200001,-34.152942508 150.65843065600001,-34.152929502500001 150.65860064,-34.152916497 150.658851648,-34.152904490499999 150.65908464,-34.152873503 150.65926464,-34.152877499 150.659323648,-34.152872504 150.65936864,-34.152869507 150.659378656,-34.152869507 150.65941964800001,-34.152845494 150.65946764799997,-34.152818502500004 150.65958464,-34.152715494500001 150.6597136,-34.15258249799999 150.65993462399999,-34.152387508 150.6601016,-34.152243504 150.66021760000001,-34.152162492500004 150.66028361599999,-34.152069493 150.66037360000001,-34.151986502 150.66042662399997,-34.151893502500002 150.660504608,-34.151811492 150.66054460799998,-34.151738491 150.66059561599999,-34.151697495 150.66071158400001,-34.151616502 150.660827584,-34.151524501499999 150.66098156800001,-34.151422492500004 150.66113558399999,-34.151330492 150.66129958400001,-34.151251497 150.66140758399999,-34.151218493 150.661515584,-34.151202490500005 150.66171059199996,-34.151188504499999 150.66195859199999,-34.1511745 150.66223958399999,-34.151144493 150.66247654399999,-34.151140497 150.662617536,-34.151116502500003 150.66280153599999,-34.151056507 150.662976544,-34.150979491500003 150.66314054399999,-34.150884494 150.663283552,-34.150788497500002 150.663393536,-34.150700493 150.663437536,-34.150648508 150.66353856000001,-34.150524502499998 150.66362854400001,-34.1503745045 150.663696512,-34.15025949 150.663808512,-34.150109492 150.66393052800001,-34.1499774945 150.66404150400001,-34.149854506499999 150.66416352,-34.1497315 150.66427350399999,-34.149643495500001 150.664394528,-34.149547499 150.66448252800001,-34.149486504500004 150.66458150400001,-34.1493985 150.66468150399999,-34.149311494500004 150.66481347199999,-34.149206507 150.664934496,-34.149092473 150.665045472,-34.148995477500002 150.66514547200001,-34.148890471500003 150.66522249600001,-34.148829477 150.66531049599999,-34.148741472499999 150.66535548799999,-34.148688488499992 150.66543248,-34.14860947499999 150.665543488,-34.148522488 150.665587488,-34.148460476 150.665611488,-34.148397483499998 150.66561347199996,-34.14830848 150.66564748799999,-34.1482464865 150.66566144000001,-34.148148473500001 150.66570844799998,-34.148006486 150.66574345599997,-34.147899482 150.66578044799999,-34.147729485500001 150.66580444799999,-34.147622481500001 150.66580745600001,-34.147524487 150.66575744,-34.1474074745 150.66570646400001,-34.147289481500003 150.66563644799999,-34.147189489 150.665596448,-34.147081486 150.66556345599997,-34.146980476 150.66554544,-34.146861484 150.66552745600001,-34.146730485500001 150.66550246400001,-34.146617487500002 150.66544844800001,-34.146497478 150.66538745599996,-34.146389475 150.66533244799999,-34.1462874845 150.66527744000001,-34.146221476500003 150.66521545599997,-34.14612548 150.66517545599999,-34.146029483500001 150.665134464,-34.145957481499998 150.665123424,-34.145850477499998 150.66509843200001,-34.145725473 150.665066432,-34.145588480500003 150.66505443200001,-34.145499458499998 150.66502940800001,-34.145374454 150.66501843200001,-34.145243455500001 150.66500643200001,-34.145165459499999 150.66497241600001,-34.145060453500001 150.66486243200001,-34.144873455500004 150.66477740799999,-34.144717463500001 150.664718432,-34.144612457500003 150.664605408,-34.144499459500004 150.664414432,-34.144310463499998 150.66428441599999,-34.144182462 150.664190432,-34.144069464 150.66406041600001,-34.143941462500003 150.663907424,-34.143795460500002 150.66388342399998,-34.14376647099999 150.663782432,-34.143587465 150.663751424,-34.143529467500002 150.66374540800001,-34.143410457 150.663783424,-34.143315459499995 150.6638864,-34.143147461 150.663997376,-34.142994466 150.66407139200001,-34.142891458 150.66414537599999,-34.142782456 150.6643464,-34.14259346 150.664536384,-34.142486456 150.664707392,-34.142393456500002 150.66478979199999,-34.142304323499999 150.66490896,-34.142283270500002 150.66514336,-34.142208456499993 150.66528134399999,-34.142154455 150.66541136000001,-34.142133457500002 150.66544736,-34.142066469 150.66548435199999,-34.141965459 150.66548636799999,-34.141891440499997 150.66546736000001,-34.14182844799999 150.66546236799999,-34.141749434499999 150.66543836799997,-34.141646445 150.665413344,-34.141578439 150.66539334399999,-34.141538442 150.665381344,-34.141486438500003 150.66538336,-34.1414074435 150.66538534399999,-34.141339437500001 150.66540035200001,-34.141288451500003 150.66541635199999,-34.141209438 150.66545334400001,-34.141114440500004 150.66549635199999,-34.141029451500003 150.66555436799999,-34.140906445 150.66561136000001,-34.140805435 150.66572531200001,-34.1406374365 150.66574732800001,-34.140586450500003 150.66577632,-34.140530451 150.66583232,-34.140463444 150.66588931199999,-34.140385448 150.66590531200001,-34.14031144799999 150.665942336,-34.140199449 150.66595833599999,-34.140102435 150.665976,-34.139963999499997 150.66597833599999,-34.139878437 150.66602233599997,-34.139666445499998 150.66605932799999,-34.139574445 150.66617401600001,-34.139279999 150.66629328,-34.138930441500001 150.666426016,-34.138528991500003 150.66655929599997,-34.138100439 150.66674924799997,-34.137566436499995 150.66689699199998,-34.137058001 150.66705299200001,-34.136541999 150.66718524800001,-34.136205447 150.667289248,-34.135876443 150.66730025599998,-34.13579844699999 150.667264,-34.135734992 150.667246272,-34.135710442499999 150.667190272,-34.135686448 150.667000992,-34.135683007 150.666866016,-34.1357430025 150.666732,-34.135819000499993 150.666606016,-34.1358959975 150.66651001599999,-34.135965002499994 150.666392,-34.136103993 150.666244,-34.136314005 150.66617401600001,-34.136446002500001 150.66609500800001,-34.136571007 150.665998016,-34.136678991499998 150.66594899200001,-34.136717009 150.66584428799996,-34.13673044 150.66576928000001,-34.136721449 150.66567529599999,-34.1366644505 150.66561129600001,-34.13658443799999 150.66560528,-34.136474437 150.66558928000001,-34.136371447500004 150.665602272,-34.13625443499999 150.665557248,-34.136158438500004 150.665502016,-34.136095002 150.66541926399998,-34.13599044 150.665308256,-34.1359174205 150.66521529600001,-34.13585342899999 150.66504630399996,-34.13577843 150.664771008,-34.135658994 150.664608,-34.135573006 150.66448499200001,-34.1354909955 150.664376992,-34.135400993 150.66426928000001,-34.135294433 150.66422528000001,-34.135239432500001 150.66419728,-34.13515942 150.664175296,-34.135046422 150.66416,-34.134888006499999 150.66411529600001,-34.134690426500001 150.66410230400001,-34.134577428500002 150.66409001599999,-34.134321999 150.664098016,-34.134213996 150.664104256,-34.134155425 150.66415324799996,-34.13403543399999 150.66423827200001,-34.133844421500001 150.66435526399999,-34.133633429 150.664584,-34.133153002500002 150.66477324799999,-34.13278143 150.66496499199999,-34.132355005 150.665222016,-34.131768 150.66543424,-34.131310439499998 150.665577216,-34.1309694475 150.66570921600001,-34.130676444500004 150.665880192,-34.130340447499997 150.66601120000001,-34.13006045 150.666132992,-34.129754996499997 150.66630601599999,-34.129398002 150.66635820799999,-34.129272442500003 150.66645020799996,-34.129104444 150.66657100800001,-34.128940996499999 150.666675008,-34.128808999 150.66677820799998,-34.12869145 150.666926176,-34.128561450500001 150.66708115200001,-34.128437445 150.66721315199999,-34.128313439499998 150.66733516799997,-34.128212448 150.66751116799998,-34.12807643599999 150.667749152,-34.127891436 150.667939168,-34.127742437 150.66804515199999,-34.127657448 150.66815616,-34.127559435 150.66830112,-34.127422442499999 150.66833612799999,-34.127397449 150.66837014399999,-34.127371438 150.66840412799999,-34.127344446499997 150.668436128,-34.127316437499999 150.668467136,-34.127287448 150.66851113600001,-34.127239440499999 150.66855113599999,-34.127187437 150.66858912000001,-34.1271344345 150.66862512,-34.1270814505 150.66866313599999,-34.127027449 150.668694144,-34.126985435499996 150.66869712,-34.126981439499993 150.66873113599999,-34.126935448499999 150.66876412799996,-34.12688844 150.66879814399999,-34.126842449 150.66883113599999,-34.126795440500004 150.668862144,-34.126752446499999 150.66889212800001,-34.126709452500002 150.66892214399999,-34.126665441 150.668952128,-34.126622447 150.66898214399998,-34.126579434500002 150.66910214399999,-34.126413452500003 150.66920713600001,-34.126238442500004 150.669348128,-34.126024434499996 150.669492,-34.125822007499998 150.669594112,-34.125631439 150.66967708799996,-34.1255024385 150.669772096,-34.125368443 150.66986300799999,-34.125226992 150.670021088,-34.124986436500002 150.67010611200001,-34.1248394355 150.670187008,-34.124675007500002 150.67027209599999,-34.124514446 150.67033001600001,-34.124375992 150.67041699200001,-34.124193008499994 150.67047299199999,-34.124082008500004 150.67054899199996,-34.123903002500001 150.670635008,-34.1237120085 150.67068700799999,-34.123591 150.670706016,-34.123497001499999 150.67071900799999,-34.123354995500002 150.67074201599999,-34.1232390005 150.67073100799999,-34.123197005500003 150.67050601599999,-34.122801993499991 150.67042208000001,-34.122547452 150.67042006400001,-34.122351444499998 150.670435072,-34.122199448499998 150.67044,-34.122149998 150.67053008,-34.121923447 150.67065808,-34.121692437500002 150.67069904,-34.121579439500003 150.67071004799999,-34.121472435500003 150.67065500800001,-34.121270008499998 150.67059798400001,-34.121097995500001 150.670571008,-34.121002998 150.670588,-34.120914993500001 150.670636032,-34.12084645099999 150.67072204799999,-34.12074644 150.67081504000001,-34.120659434499998 150.67101203199999,-34.120205444500002 150.67116304000001,-34.119917436500003 150.67126201599999,-34.119786993 150.67140099199997,-34.119631001 150.671492,-34.119526994 150.67155100799999,-34.119383008499995 150.67159699199999,-34.119152998 150.67160099200001,-34.119006996 150.67156499199999,-34.118880992500003 150.67146300799996,-34.118805993500004 150.671164992,-34.118669001 150.670872,-34.118643008499994 150.67061804799999,-34.118611447500001 150.67016,-34.118490994 150.66984601600001,-34.118353002500001 150.669548,-34.118207999500001 150.669285024,-34.117951441500004 150.669038016,-34.117689999500001 150.66896304,-34.117516451 150.66896601600001,-34.117416995 150.66904099199999,-34.1171389955 150.66906899200001,-34.116989996500003 150.669287008,-34.116252438499998 150.66937299200001,-34.115964005 150.669806016,-34.114455996 150.66994099199999,-34.114063000500003 150.67002096,-34.113830418500001 150.670511968,-34.112791421499999 150.671118944,-34.111485432500004 150.671289952,-34.110989429 150.67138294399999,-34.110712428500001 150.671644896,-34.109939424499998 150.671663008,-34.109886995499998 150.67199190400001,-34.108690434 150.67232387199999,-34.10733741799999 150.67249184,-34.106528431500003 150.672678848,-34.105468418500003 150.67278780800001,-34.104717429499999 150.67287680000001,-34.104007418 150.672891808,-34.10345042 150.67290377599997,-34.102632424 150.67288777600001,-34.102177416499998 150.67286899199999,-34.101983999 150.672640992,-34.0997099975 150.67253001599997,-34.0980030025 150.67252374399999,-34.097914424500004 150.67251872,-34.09782642 150.672496,-34.097473995 150.67248272,-34.0972314045 150.672404704,-34.095745410499994 150.672414688,-34.095377408499999 150.67249699199999,-34.094012996499998 150.67251299200001,-34.093745005500004 150.67254166399999,-34.093269407500003 150.67263465600001,-34.092043412500004 150.67267500799997,-34.091493000500002 150.67271363200001,-34.090948397499993 150.672828608,-34.090361411 150.672948,-34.089955003 150.67319657600001,-34.089288411 150.673232576,-34.089181407 150.673390592,-34.08888241 150.67373004800001,-34.088279661500003 150.67410457599999,-34.087619914500003 150.67424355200001,-34.087641411500002 150.67607952,-34.087908385 150.677714528,-34.088147386500005 150.682414464,-34.088832367500004 150.6856544,-34.089304339499996 150.68761001600001,-34.089589017500003 150.68871833599997,-34.089750282 150.68887699199999,-34.089648994500003 150.69039801599999,-34.0899429965 150.69185625599999,-34.09015724499999 150.69249299200001,-34.0902710015 150.69293923199999,-34.090349219499998 150.693388,-34.090402 150.69386524800001,-34.0904572225 150.69414499199999,-34.090490004499998 150.69508300800001,-34.090647994500003 150.69502153600001,-34.091385182499998 150.695011072,-34.091509225 150.69487932800001,-34.092352714 150.69472128000001,-34.093326239500001 150.69466259199999,-34.093924733 150.69463308799999,-34.094497770499999 150.69463308799999,-34.094500286500001 150.694635968,-34.094911856 150.69471516799996,-34.095642384 150.69495888,-34.096732108 150.69499235199999,-34.096882143 150.69514284799999,-34.097602144500001 150.69531491199999,-34.098532287499999 150.695430496,-34.100004684 150.69551312,-34.100442653 150.69574201599997,-34.100428001 150.69662201599996,-34.100690997 150.69660601599998,-34.100615998 150.69772499199999,-34.100949997 150.698504,-34.101001001500002 150.700076,-34.101103991 150.701515008,-34.101199580500001 150.703224992,-34.101311006 150.70426899200001,-34.101378993499999 150.704464992,-34.099538003 150.704464992,-34.099535006 150.70467401600001,-34.097568992500001 150.704704,-34.097292991 150.704710912,-34.097223523499999 150.70471900799998,-34.0971490055 150.70485299200001,-34.09588599199999 150.70502499199998,-34.094275992500002 150.705173024,-34.092884071 150.70856896000001,-34.093310033500003 150.70910790400001,-34.09337702199999 150.709360928,-34.093409027 150.70937392,-34.093402015499997 150.709888928,-34.093258011499998 150.710403904,-34.093171006 150.71079888,-34.093012997500004 150.71088489600001,-34.092955999 150.71102089600001,-34.092783005500003 150.711225888,-34.092481992 150.71153385599999,-34.092137984499992 150.71177385600001,-34.092008984 150.71191184,-34.091964972500001 150.712202848,-34.0917649875 150.712631808,-34.091548981500004 150.712888832,-34.091418963500004 150.71312883199997,-34.091132953500001 150.71343683200001,-34.090845963 150.71362582399996,-34.090658965 150.714430784,-34.089941942 150.71482476799997,-34.089739940500003 150.714823744,-34.089496943 150.71485776,-34.089281936 150.71524572800001,-34.0874639225 150.71528873599999,-34.087228917 150.71544771200001,-34.086260923 150.71571769600001,-34.085029933 150.71578569600001,-34.084886928 150.71561369599996,-34.084700929 150.71545769599999,-34.08440093299999 150.71545670399999,-34.084113924 150.71549068799999,-34.083970919 150.71548867199999,-34.083670923 150.715350656,-34.083455934499995 150.715022656,-34.083156919 150.714987648,-34.082941930499999 150.71493564799997,-34.082870927500004 150.71462566399998,-34.082655920500002 150.714092704,-34.082542941 150.71400668799998,-34.0824859425 150.71390268799999,-34.0822569495 150.71367868799996,-34.082056946 150.713368704,-34.081885950500002 150.712749696,-34.081844954499999 150.71230368,-34.081902970500003 150.71201171199999,-34.081974954 150.71177072,-34.082004961 150.71149571199999,-34.081947962500003 150.71140972800001,-34.081890964 150.71130572800001,-34.081747977500001 150.71123673599999,-34.081518984499994 150.71128572800001,-34.080845954499999 150.71126768,-34.080688963500002 150.71121568,-34.080616961499999 150.71121568,-34.080531954 150.71118070399999,-34.080459970500002 150.71104268799999,-34.080316984 150.71087072,-34.080216973 150.71076771200001,-34.080188982500005 150.71013171199996,-34.080118978500003 150.70968371199999,-34.079933997 150.709373728,-34.079662990499997 150.709184736,-34.07959200599999 150.70870275199997,-34.0795360065 150.70853075199997,-34.07945 150.70828976000001,-34.079249996500003 150.708203744,-34.079150004 150.70801376,-34.078993013 150.70749776,-34.078808013 150.70720476799997,-34.078537025 150.70696275199998,-34.078122014500003 150.70692675199999,-34.078010015499999 150.70690275199999,-34.077938013500003 150.70712774399996,-34.077908025 150.707347744,-34.077879017 150.70807673600001,-34.077975994 150.70901472,-34.077991996500003 150.709451712,-34.078072989500001 150.709937696,-34.078234975499996 150.71118368,-34.078477954499995 150.712300672,-34.078525962 150.71500361599999,-34.078735918500001 150.7155376,-34.078849915500001 150.7162816,-34.078865899500002 150.71710755199999,-34.078768885500004 150.71772256,-34.07860688099999 150.718207552,-34.078444895 150.718790528,-34.078137869 150.71927552,-34.078024871 150.72000451199997,-34.077911854500002 150.720894496,-34.077943859500003 150.72150950400001,-34.078105827 150.72191350400001,-34.07825083 150.72225347200001,-34.078379830499991 150.722885472,-34.078412834499993 150.72515043199999,-34.078558799500001 150.72644540799999,-34.078590786 150.72783737599997,-34.07842876299999 150.72851737599999,-34.07831576499999 150.72885737600001,-34.07802476 150.72909932799999,-34.077700732499999 150.72947235199999,-34.077441732499999 150.730232352,-34.077280745499998 150.731042304,-34.077183713 150.73202931200001,-34.077167710499999 150.73261228800001,-34.077150709 150.73316227199999,-34.077199697 150.734068256,-34.077183676 150.73508825600001,-34.077134669499998 150.7357672,-34.077134669499998 150.73618822399999,-34.077215662500002 150.7367392,-34.077312639500001 150.73726921599999,-34.07743165 150.73836419200001,-34.077650634500003 150.73904716800001,-34.0778076255 150.73951916799999,-34.078017637500004 150.740088192,-34.078446615499999 150.74038918400001,-34.078718602500004 150.74045619200001,-34.078779615500004 150.74105216000001,-34.079356612 150.74156016000001,-34.079829601500002 150.74180515200001,-34.080161584 150.74187516800001,-34.080546587500002 150.741876096,-34.08075025399999 150.74188419199999,-34.08108059 150.741857184,-34.081430591500002 150.741700192,-34.081719598500001 150.74098220799999,-34.083294614499998 150.74092025600001,-34.083976617 150.74101724799999,-34.084642617 150.741069248,-34.085114607500003 150.74104323200001,-34.085832611 150.74087728000001,-34.086724607 150.74054432,-34.088186625 150.74040432000001,-34.088973633499997 150.74031635200001,-34.089805634 150.74029932799999,-34.090470635 150.74029932799999,-34.091056622499998 150.74027132800001,-34.091586629 150.74024937600001,-34.091829626500001 150.74012736,-34.092655633 150.740006368,-34.093312623500005 150.739860416,-34.094358632 150.73962544,-34.095355652500004 150.73966544,-34.095943656500005 150.73964144000001,-34.096435645500001 150.73931043199997,-34.097008646 150.73876246399999,-34.097830656500001 150.73860048,-34.098104641500001 150.73844748799999,-34.098516673500001 150.73831849600001,-34.099112669500002 150.73822451199999,-34.099709664500004 150.738140544,-34.100235675 150.73804454399999,-34.101169666 150.737996544,-34.101636661500002 150.737972576,-34.102222667500001 150.73785257599999,-34.103084675 150.7376616,-34.104029673500001 150.73757760000001,-34.104700687 150.73740960000001,-34.105561677 150.73740963200001,-34.10648368 150.73743363200001,-34.106866685500002 150.737313632,-34.107632678 150.73700265599999,-34.108948694 150.73682268799999,-34.109786688500002 150.736750688,-34.110923698500002 150.736906688,-34.1118817025 150.73699072,-34.112838707500003 150.73766172800001,-34.114574710500001 150.73830873599999,-34.115920678 150.73853571199999,-34.116393686 150.73891872,-34.11699168 150.73911072000001,-34.117278689 150.73944707199996,-34.117652574 150.73930332800001,-34.117741799499996 150.7392,-34.117823976499999 150.73901459199999,-34.118040149 150.73893827200001,-34.118163174 150.73887347199999,-34.118397088 150.738853312,-34.118683838 150.73889328000001,-34.119043385499999 150.73898220800001,-34.119403821 150.739024672,-34.1196608785 150.73901315199998,-34.120401026499998 150.73900668799999,-34.120798462 150.738979328,-34.122284456 150.738957376,-34.122656343 150.738926048,-34.123177802500003 150.73887097599999,-34.124129553499998 150.738870816,-34.124129701500003 150.73885184,-34.124424702500001 150.73879571200001,-34.12484037899999 150.738738848,-34.125233041500003 150.738714848,-34.125416709500001 150.73860384,-34.125406701 150.73820784,-34.125372698 150.73818985599999,-34.125507729500001 150.738174848,-34.125623724500002 150.73811084799999,-34.125620727499999 150.73809388799998,-34.12574773 150.738076896,-34.125874714 150.73806089600001,-34.125993724499999 150.73804489599999,-34.12611773 150.738027872,-34.1262467305 150.738017888,-34.126317715 150.73799289600001,-34.126509726500004 150.73794489599999,-34.126872715 150.73791792,-34.126983844500003 150.737896896,-34.127050722 150.73783488000001,-34.127383722 150.737805888,-34.127543728500001 150.73777392,-34.127712726 150.73773990399999,-34.127894729 150.73771792,-34.128015719 150.73769392,-34.128142721499991 150.73766790400001,-34.1282827295 150.73764192,-34.128425716 150.73761792,-34.128553717500004 150.737590912,-34.128695723500002 150.73754291200001,-34.128953724500001 150.73751792,-34.12908772 150.73749392,-34.129221715500002 150.73796691199999,-34.129285725500004 150.73806140799999,-34.129304854499999 150.73796736,-34.129819173 150.73790291200001,-34.130170432500002 150.73777584000001,-34.13080178199999 150.73774595200001,-34.130950115 150.73769116799997,-34.13128034 150.73778694399996,-34.131302743500001 150.73830995200001,-34.1314697245 150.73857696,-34.131505725499999 150.73887094400001,-34.131546721500001 150.73916592,-34.131586718500003 150.739672928,-34.131656704 150.74038992000001,-34.131754698500004 150.74060092799999,-34.131783706500002 150.74078249600001,-34.131828735500001 150.74101689599999,-34.131425676 150.741304896,-34.130865681 150.74162137600001,-34.130311828 150.74218441599999,-34.129347201 150.74273916800001,-34.128345241 150.74301673599999,-34.127855102 150.74332201600001,-34.127349756 150.74395577599998,-34.126181629 150.74413920000001,-34.125840082 150.74421408000001,-34.125663333 150.74424467200001,-34.125590424500004 150.744408768,-34.12518163 150.74450976,-34.1248726245 150.744612768,-34.124540623499996 150.74473174400001,-34.124002625 150.74480448,-34.123651384 150.74484624,-34.123395233 150.74489232,-34.123112183 150.7449384,-34.122752284 150.74492873599999,-34.122128612 150.74488268799996,-34.121548618499993 150.74480124799999,-34.121150905499995 150.74478569600001,-34.121074611499999 150.744745696,-34.120924613500001 150.74467968,-34.120682615 150.74466368,-34.120624617499999 150.74440489599999,-34.1198550915 150.7443752,-34.11978592 150.74403769599996,-34.119001631 150.74390768000001,-34.118731623499997 150.743558624,-34.118008902499994 150.74373366399999,-34.117889633 150.744415648,-34.11754261 150.74509862400001,-34.117219618500002 150.74584163200001,-34.116921583500002 150.74622361600001,-34.1167595975 150.74677558400001,-34.116651576 150.74740560000001,-34.116651576 150.74836060800001,-34.116789549 150.74894256,-34.116877553500004 150.74971056000001,-34.117025535 150.75022256,-34.117114538500005 150.751166528,-34.117075522 150.75166953600001,-34.117054524499999 150.752605536,-34.117204504 150.753712544,-34.117738488 150.754689536,-34.118857479 150.75578352,-34.120301459499998 150.75657753600001,-34.121342436 150.75658454399999,-34.121373442 150.75670752,-34.121941447499999 150.75639756799998,-34.123148461500001 150.75633955199999,-34.12342746 150.756300576,-34.123617455 150.75605660799999,-34.124228454499999 150.75590259200001,-34.1247784595 150.75572358400001,-34.124995464500003 150.75467363199999,-34.126275479500002 150.75404566399999,-34.127593493500001 150.75371270400001,-34.128387495 150.75317468799997,-34.1289115075 150.75275273599999,-34.1293465165 150.752432736,-34.129500510500002 150.752060736,-34.129705527500001 150.75167673600001,-34.129884533500004 150.75133075199997,-34.130191541 150.75116675199996,-34.130323538500001 150.75114476799999,-34.130333528500003 150.751118752,-34.130345535 150.75094476800001,-34.130421533 150.750578752,-34.130560560500001 150.75011974399999,-34.130769555 150.74989878400001,-34.131600556500004 150.74992777599999,-34.131954554 150.75012480000001,-34.132285556 150.75042179199997,-34.132576561 150.75100278400001,-34.133041558500004 150.75116678399999,-34.13314854399999 150.75128579199998,-34.133251533500001 150.751377792,-34.133299541 150.75140579200001,-34.133322536500003 150.75142678399999,-34.133343534 150.75183379200001,-34.133637536 150.752399776,-34.134044517500001 150.752943776,-34.134429521 150.75350979199999,-34.134769514 150.75400777599998,-34.1349954915 150.754573792,-34.135266498 150.754935776,-34.135606491 150.75520777599999,-34.13612648899999 150.75538883199999,-34.137167484 150.75561580799999,-34.138276485 150.75579683199999,-34.139136476 150.75588684799999,-34.1398824885 150.75613584,-34.1405844895 150.75624886400001,-34.1413314825 150.75597788799999,-34.142123486 150.755637888,-34.1427794775 150.755071904,-34.143797495500003 150.75443795199999,-34.144680500500002 150.75396294399999,-34.145336510500002 150.75387193599997,-34.145426513 150.75337398400001,-34.145924514499995 150.75271699199999,-34.146082541499993 150.75226499199999,-34.146173543 150.751811008,-34.146558546499996 150.75154,-34.146942551 150.75135900800001,-34.147349551 150.75116704000001,-34.147605554 150.75108304,-34.147769556500002 150.75091705599999,-34.148029555500003 150.75087404799999,-34.148094564499999 150.75065308800001,-34.148951577 150.75022406400001,-34.149838578 150.74972112,-34.150592601 150.74960310399996,-34.151198587 150.749780128,-34.152099592500001 150.75023814400001,-34.15280956699999 150.75093414400001,-34.153282575 150.75116713599999,-34.153448557 150.75138412800001,-34.153694551500003 150.75149814400001,-34.153826549 150.75177612799996,-34.154330563 150.75210313599999,-34.155011548 150.75230515199999,-34.155615536 150.75222918399999,-34.156523553 150.75225516799998,-34.157354554500003 150.75235619200001,-34.158010546 150.7529112,-34.158816535500002 150.753566208,-34.159321511500004 150.75424720000001,-34.159900524500003 150.75477721600001,-34.1607575 150.75465120000001,-34.161765491 150.75409622399999,-34.162345521500001 150.75349123199999,-34.162774536500002 150.75329827199997,-34.162884537499998 150.75296128,-34.1630765305 150.75228028800001,-34.163631549 150.75206329599999,-34.163863557500001 150.75142332799996,-34.16461456499999 150.75116732800001,-34.164792572 150.75106633600001,-34.164920573499998 150.75098534399999,-34.165018568 150.750867328,-34.165109569500004 150.75071737599998,-34.165331569500005 150.75051836799997,-34.165603575 150.75034236799996,-34.165908584500002 150.750036384,-34.1662415845 150.74981238399999,-34.166521600499998 150.7493624,-34.166971613 150.74863241599999,-34.167448617 150.74781747200001,-34.168065629 150.74719948800001,-34.168543650499998 150.74700348799999,-34.169273642 150.74722752,-34.171181639499999 150.747677568,-34.173147653 150.7478176,-34.174803643499992 150.74804262399999,-34.176880657 150.74767763200001,-34.177779646 150.74750864000001,-34.178649645500002 150.74731168,-34.179912659 150.74715168,-34.180545673499999 150.74705670399999,-34.181041658499993 150.746255744,-34.182041676 150.745511744,-34.182527708 150.745263776,-34.182690711500001 150.74472979199999,-34.183042711 150.744062816,-34.183099728 150.74328080000001,-34.183051739 150.74224185599999,-34.182918761 150.74152684800001,-34.182756775 150.74092588799999,-34.18260378 150.74036288,-34.182327797 150.73979088,-34.182032796 150.739075872,-34.181765804 150.73821088,-34.181546819499999 150.73801590400001,-34.181529818 150.73749491199999,-34.181449824 150.73694691200001,-34.181308835499998 150.73601990399999,-34.181114844500001 150.735409952,-34.180946846 150.73474793599999,-34.180558845500002 150.734058944,-34.180187865 150.73337894400001,-34.179843876 150.73275993600001,-34.1794818865 150.73202694400001,-34.179216892500001 150.731381984,-34.179234911500004 150.73096697599996,-34.179436913 150.73041001599998,-34.179781919500002 150.730042016,-34.18004893 150.72955500800001,-34.18039192 150.72892204799999,-34.1809849375 150.72785408,-34.1822889655 150.727432096,-34.182802969500003 150.72681212799998,-34.183514979 150.72637712,-34.184133989 150.72587616,-34.184910989 150.725217184,-34.1859259915 150.72471619199999,-34.186610991 150.72429424000001,-34.187059024 150.72381923200001,-34.18750702 150.72349027199999,-34.1877180125 150.723060256,-34.188230037 150.722824288,-34.188511033499999 150.72227328,-34.189308032 150.72177932799997,-34.190308049500004 150.721498368,-34.190858054499998 150.72116134399997,-34.191453051499998 150.720655392,-34.192800073500003 150.720273408,-34.1933840815 150.719655424,-34.193676085500002 150.719082464,-34.1939571005 150.71900646399999,-34.193983093 150.719350464,-34.194297093499998 150.71994144000001,-34.194724092 150.72014441600001,-34.194842066500001 150.72058643199998,-34.195037075 150.72102940799996,-34.195188072 150.721355424,-34.1952370785 150.72156041599999,-34.19528405 150.72212643200001,-34.195367059500001 150.72226441599997,-34.195370056500003 150.72238441600001,-34.19538605899999 150.7227624,-34.195394051 150.7228824,-34.195410035 150.72312137599999,-34.195472028499999 150.723241376,-34.195517039 150.72334240000001,-34.195577034499998 150.72352739199999,-34.195723036499999 150.7235944,-34.195811041 150.72365737600001,-34.195998039 150.72365539200001,-34.196084045500001 150.72360038400001,-34.1961970435 150.7234784,-34.19626603 150.723356416,-34.196321030500002 150.72316342399998,-34.196461038499997 150.72307843199999,-34.1966930285 150.72277740800001,-34.197009064 150.72261142400001,-34.197239056 150.72260844799999,-34.197540051 150.72289644799997,-34.197801049 150.72308246399999,-34.197920041 150.72320646399999,-34.198007028 150.723224448,-34.197993042 150.72341043200001,-34.198097030500001 150.72354540800001,-34.198200038499998 150.72363043199999,-34.198244031500003 150.72374643200001,-34.198418042500002 150.72379443200001,-34.198548042 150.72380944,-34.1986060395 150.72380646399998,-34.198749044499998 150.72376646399999,-34.1989340445 150.72362044799999,-34.199217039 150.72329945600001,-34.199626037 150.723176448,-34.199724031500004 150.72257948800001,-34.200156062 150.722438496,-34.200268061 150.72231548799999,-34.20038006 150.722189472,-34.200578047 150.72204649599999,-34.200776052500004 150.72179152000001,-34.201257052500004 150.72178950399999,-34.201329054499993 150.72175152,-34.201457056 150.721737504,-34.20197205899999 150.72175350399999,-34.2020300565 150.72176451199999,-34.20223006 150.721841504,-34.20256106199999 150.72190752,-34.202691061499991 150.72193750400001,-34.202821061 150.72197052800001,-34.202878059500001 150.72200150399999,-34.203022063500001 150.72208352000001,-34.203152063 150.72218051199999,-34.203398057500003 150.72227952,-34.203557046500002 150.722346528,-34.203630047499999 150.72246352,-34.203732056500002 150.722852512,-34.203997032 150.723294528,-34.204178036 150.723584512,-34.204269037499998 150.72377251200001,-34.204344036500004 150.72436950400001,-34.204528019 150.72455750399999,-34.204589013499998 150.72476051199999,-34.204693020500002 150.72492947200001,-34.204825018 150.72506249599999,-34.204985024500004 150.725094496,-34.205071012499992 150.725105504,-34.205315009 150.72504752,-34.205543021499999 150.72499350399997,-34.2056130255 150.72497452799999,-34.205685009 150.72481152,-34.205968022 150.72416553599999,-34.20694300899999 150.72409254399997,-34.207099019499999 150.72394755199997,-34.20733902 150.72369056,-34.207907044 150.72359257599999,-34.208349027499999 150.72357059199996,-34.208520041500002 150.723565568,-34.208706040500005 150.72358057599999,-34.208806033 150.723610592,-34.208936032499999 150.723678592,-34.20920000899999 150.72387356799999,-34.209482023 150.72397257599999,-34.209558021 150.72425859199998,-34.209807012500001 150.724477568,-34.209983021500001 150.724646592,-34.210101014500005 150.72479756800001,-34.210247016499999 150.72518358400001,-34.210583994 150.72577459199999,-34.211009993499992 150.72602758400001,-34.211201006 150.72639753600001,-34.21152298 150.72653155199998,-34.211654977500004 150.72676656,-34.211873980500002 150.72739056,-34.212329968500001 150.72747555199999,-34.212373961499992 150.72784656,-34.212667963500003 150.728133536,-34.212858957500003 150.72821753599999,-34.2129319585 150.72852256,-34.21310994699999 150.72872755200001,-34.213170941500003 150.72881254399999,-34.213215952 150.72889654400001,-34.213288953 150.72906553600001,-34.213406946 150.729776512,-34.213820920499998 150.73006451200001,-34.214012932 150.73053552,-34.2143799165 150.73102352000001,-34.214803899499998 150.73119052800001,-34.214978909500005 150.73145651199999,-34.215327912 150.731858528,-34.215750914499999 150.73212451199998,-34.216084895 150.732274528,-34.216244883 150.73240752000001,-34.216419893 150.73255552000001,-34.216694895499998 150.73266652800001,-34.2170398835 150.73275852800001,-34.217134881 150.732794528,-34.217268895 150.73253750399999,-34.217880893500002 150.73213353599999,-34.218455892 150.731692544,-34.218724882 150.73092156799999,-34.219238904500003 150.73046857599999,-34.219410899 150.7299176,-34.219606925 150.729354624,-34.219826927 150.72858963199999,-34.22002595 150.728350656,-34.219962939 150.72829964799999,-34.219975944499993 150.72814364800001,-34.219986952 150.72790064,-34.2200829485 150.72739267200001,-34.220387958 150.72689968,-34.220778955500002 150.726652672,-34.221002953500005 150.72661568000001,-34.2210739565 150.72657766399999,-34.221216961499998 150.72654268799999,-34.221258956500002 150.72667267200001,-34.221343964 150.72694566399997,-34.221623961500001 150.72699568,-34.221667954499992 150.72719968000001,-34.221757957 150.72786166399999,-34.222113952500003 150.72799766399999,-34.22217394799999 150.72816867199998,-34.222219939 150.72825468799999,-34.222221937 150.72839168,-34.222253942 150.728803648,-34.222289924500004 150.72911164800001,-34.222338931 150.72928265600001,-34.2223999255 150.72969264,-34.222507928500001 150.73000064,-34.222584907 150.730154656,-34.222630898 150.73059763200001,-34.222782912500001 150.73080163199998,-34.222872915 150.731176608,-34.22300889 150.73138060799999,-34.223098892499998 150.73185561599999,-34.223350881 150.73216060799999,-34.223528888 150.73273945599999,-34.22378285599999 150.73302761599996,-34.223945878 150.73345257599999,-34.224139850500002 150.733605568,-34.224199846 150.73396358400001,-34.224321853499994 150.73431958399999,-34.224557858 150.734506592,-34.224632857 150.73498156799999,-34.224870841 150.73552659200001,-34.22509583799999 150.736328544,-34.225368805499997 150.73649856,-34.225443823 150.73687353599999,-34.225565793499996 150.73704454400001,-34.225626788 150.737128544,-34.225685803 150.73741753600001,-34.225833803 150.737825536,-34.226013789500001 150.73809852799999,-34.226104772500001 150.738285504,-34.226193776 150.73854150400001,-34.226284777499998 150.73883152,-34.226376778 150.739208512,-34.226440751 150.73946451200001,-34.226531752500001 150.73977152,-34.226623753 150.74004547199999,-34.226671760500004 150.74047449599999,-34.226799743500003 150.74092448,-34.226936736 150.74142147200001,-34.227135722 150.741686496,-34.227287718 150.74176848,-34.227334726500004 150.74210448,-34.227483725500001 150.74224547200001,-34.227613725 150.742339488,-34.227691721 150.74262745600001,-34.228084698 150.74252848,-34.229482706 150.74224848,-34.230162692 150.74228649599999,-34.230965684499992 150.74228448,-34.231036687499994 150.74224649600001,-34.231193678499999 150.74224448000001,-34.23125067699999 150.74226048,-34.231308693 150.74224249599999,-34.231336683500004 150.74230848,-34.2314236705 150.742442496,-34.231555668 150.74259449600001,-34.231658657499999 150.74283248,-34.231777668 150.743105472,-34.231883673 150.74331049599999,-34.231929645500003 150.74356745599999,-34.231963648499999 150.74398144,-34.231956655499999 150.744396448,-34.231893644499998 150.744691456,-34.231813632 150.744882464,-34.231745626 150.74524742400001,-34.231623637 150.74575142399999,-34.231446629 150.746343424,-34.231215638 150.74643043200001,-34.23115962 150.74651740799999,-34.23113261 150.74662240000001,-34.231077609499998 150.7471104,-34.230871612 150.74737238399999,-34.230733602 150.74766838400001,-34.230610614 150.747963392,-34.230516615500001 150.748067392,-34.230475619499991 150.74824134400001,-34.230435604 150.74832835199999,-34.230394589500001 150.748501344,-34.230369596 150.748986368,-34.230249586500001 150.74931436799997,-34.230212586500002 150.749538368,-34.2302176 150.74972835200001,-34.230206574 150.74988432000001,-34.230166577 150.75043532800001,-34.230127579 150.75088233599999,-34.230114573500003 150.75116832,-34.230158548 150.75129132800001,-34.230177547499999 150.75172828800001,-34.230228552 150.75188230399999,-34.230274561500003 150.75231030399999,-34.230368541499999 150.75253328,-34.230400528 150.753857248,-34.230467516499999 150.754634272,-34.23038151 150.75515424,-34.230276504 150.75579824,-34.230016505 150.75606022400001,-34.229877496 150.75629424,-34.229480504500003 150.7564912,-34.229211496 150.75661820799999,-34.228970496500004 150.75665520000001,-34.228842495 150.75666419199996,-34.228527495500003 150.75658918400001,-34.228124491499997 150.756118208,-34.2277005085 150.75600118400001,-34.227541501 150.755882208,-34.2272205075 150.75580918399999,-34.227021521499999 150.7557952,-34.226863513 150.75583318400001,-34.226764519500001 150.7560112,-34.226523501499997 150.7565152,-34.226375501500002 150.75708115200001,-34.226428485500001 150.757527168,-34.226522484 150.758245088,-34.226721451499998 150.75849916799996,-34.226855465499995 150.758551168,-34.22684246 150.758975136,-34.227079463500004 150.76021014400001,-34.227918438499991 150.76126812800001,-34.228940434 150.76166908799999,-34.229406412 150.76186611200001,-34.229753416499996 150.76205811200001,-34.230315409500001 150.76207609599999,-34.230932384500001 150.76210611199997,-34.231104397500005 150.76222211199999,-34.23127839 150.76236508799997,-34.231533394 150.76259708800001,-34.231715397 150.76306905600001,-34.231715378499992 150.76350006399997,-34.231691365499998 150.76370905600001,-34.231692364499999 150.76424806399999,-34.231516374 150.76471804799999,-34.231324344 150.76539404799999,-34.231150351499998 150.76558403199999,-34.231124359 150.76563603199997,-34.231097349 150.76572304000001,-34.231084343500001 150.76584403199999,-34.231057352 150.76598204800001,-34.2310603305 150.76613702399996,-34.231034338 150.766379008,-34.231024329500002 150.76648300799999,-34.231011342500004 150.76665500799999,-34.230986330499995 150.76748499199999,-34.230886319499994 150.76845497599999,-34.230646319 150.769047968,-34.230553301 150.769643968,-34.23025630199999 150.769777984,-34.230111299 150.769898944,-34.230085288 150.770161952,-34.22991827 150.77037094400001,-34.229821274500004 150.770869952,-34.229666281500002 150.771666944,-34.229385266500003 150.77249392,-34.229149262 150.773276896,-34.228943246 150.77399987199999,-34.228854242499999 150.77453187200001,-34.229046217 150.77485686399999,-34.229474214500001 150.774929888,-34.230167224500001 150.77481187199996,-34.230743222 150.77475888000001,-34.23100422 150.774693888,-34.2313182205 150.77466486399999,-34.232218227 150.77472384000001,-34.233310208 150.77481184000001,-34.234402207500004 150.77479785599999,-34.234889201500003 150.77486483199999,-34.235074201499998 150.77491283200001,-34.235219204499998 150.77499984,-34.235822212 150.77504784000001,-34.235980202 150.77513584,-34.2365552005 150.77529683200001,-34.236988193 150.77540784000001,-34.2373481845 150.77552083199998,-34.237608183499994 150.77554784,-34.237909178499997 150.77587881599999,-34.239076177 150.7762368,-34.2398411705 150.77686080000001,-34.241013145499998 150.7769088,-34.241143145 150.777154784,-34.241620149 150.77735379200001,-34.241911154 150.777843776,-34.242937127 150.77808278399999,-34.243657128499997 150.77822876799999,-34.243989129500001 150.778417792,-34.244368139 150.77858873599999,-34.244712128 150.77911776,-34.245567105500001 150.77990976000001,-34.246871096500001 150.78059072,-34.247843068 150.78074070400001,-34.248032082500004 150.78095472000001,-34.248408076499999 150.780971712,-34.248427076 150.78108972800001,-34.248625081500002 150.78209072000001,-34.249817055 150.782274688,-34.25000705 150.78257468800001,-34.250413032499999 150.78282368000001,-34.250747031499998 150.782860672,-34.250789045 150.78325868799999,-34.251242036 150.78349369599999,-34.251476042499995 150.78367868799998,-34.251637011 150.783762688,-34.251696026 150.78383168,-34.251726014500001 150.78428665600001,-34.252063010500002 150.78452464,-34.252211010499998 150.784863648,-34.252388999 150.78521964800001,-34.25261 150.78583065599997,-34.252950973499999 150.78613766399999,-34.25307098299999 150.78620665599999,-34.253086985499998 150.78625664,-34.253144983 150.78671763200001,-34.253282974500003 150.786888608,-34.253356974500001 150.78750262400001,-34.253568966 150.788421632,-34.2539729505 150.78852460799999,-34.254016943499998 150.788711584,-34.254092941499998 150.788779584,-34.254136953 150.78883059200001,-34.254151938 150.789744576,-34.254769930499997 150.79006457599996,-34.255033925500001 150.79024659199999,-34.25526693299999 150.7903816,-34.255440925500004 150.79095356799999,-34.255937909499998 150.79113756800001,-34.256141909 150.79140656000001,-34.2563899015 150.79164355200001,-34.256566891 150.79176156799997,-34.256639892 150.79189856,-34.256685883 150.79210355199999,-34.2567328915 150.79241555199999,-34.256666883500003 150.79251955199999,-34.256643888 150.79269056000001,-34.256599876500005 150.792943552,-34.256390863500002 150.79310956800001,-34.256098878 150.79313155200001,-34.255897875500004 150.79309456,-34.255741865 150.792952544,-34.255417893 150.79284755200001,-34.255218888499996 150.792649568,-34.2547808825 150.792593568,-34.254483883499994 150.79261155200001,-34.254036886500003 150.79266854400001,-34.253777886500004 150.792772544,-34.253518886500004 150.79298454400001,-34.253249896500002 150.79323856,-34.252981887 150.79347955200001,-34.252760886 150.79369452799997,-34.252537887 150.793886528,-34.25236587399999 150.794045536,-34.252079864 150.79412153600001,-34.251544862499998 150.79418553599999,-34.2511888855 150.79416051199999,-34.250850890500004 150.79411552,-34.250640897 150.794045536,-34.25050088899999 150.793841536,-34.250265883499999 150.79365056,-34.250016892 150.79345254399999,-34.249762887 150.79341456,-34.2494888835 150.79343356800001,-34.249214917 150.79347856000001,-34.248953900499998 150.79359356800001,-34.248845897500004 150.793708544,-34.248770898499991 150.79425452800001,-34.248658881 150.79475152000001,-34.2485138965 150.79500851200001,-34.248465870499999 150.79529753599996,-34.248457878499998 150.79548252800001,-34.248473862499999 150.79570652800001,-34.248650870499993 150.79599552,-34.249123878500001 150.79618848000001,-34.249717858 150.79657350400001,-34.250783846499999 150.79685449600001,-34.25158584 150.797071488,-34.252275834500004 150.79722150399999,-34.252639840500002 150.79735750399999,-34.252887833 150.79751449599999,-34.253310835500002 150.79762048000001,-34.253632809500004 150.79768249599999,-34.253935821 150.79772748799996,-34.254130811 150.79772950399999,-34.254140819500002 150.79780649599999,-34.254362819500003 150.79781750399999,-34.254490821 150.797850496,-34.254625815499999 150.79783948799999,-34.25471382 150.797838496,-34.254875824500004 150.79797648,-34.255507821500004 150.798185504,-34.256041805499997 150.79831145599996,-34.256502788500001 150.79833446399996,-34.256932802500003 150.79854044800001,-34.257623796 150.79865145599996,-34.257969801500003 150.79864844799999,-34.258083798500003 150.79869747199999,-34.258170804 150.79869446399996,-34.258270778 150.79886745600001,-34.25890777 150.798951456,-34.25900578299999 150.798949472,-34.259048777 150.799016448,-34.259150786 150.79904745600001,-34.259265782 150.799196448,-34.259482787 150.79929446400001,-34.259685787500004 150.79947545600001,-34.260032773500001 150.79962246400001,-34.260335785 150.79966547199999,-34.260410784 150.799704448,-34.260480751 150.79998844799999,-34.260815767499999 150.80007244800001,-34.260888768500003 150.80013945600001,-34.260960752 150.800325472,-34.261107753 150.800358464,-34.261151764499999 150.80081347199999,-34.261546739499998 150.80088044799996,-34.261618741500001 150.80087347200001,-34.2618767425 150.80090444800001,-34.261991738499994 150.800989472,-34.262050735 150.80114246400001,-34.262110749 150.80134547200001,-34.26225775 150.80144547200001,-34.262388748500001 150.80198147199999,-34.262956717 150.80226547199999,-34.263291715 150.80253347199996,-34.26358272 150.80263446399999,-34.26368472899999 150.802633472,-34.263695718 150.802632448,-34.263742726499999 150.802699456,-34.263829732 150.80282947200001,-34.264132725 150.80294345600001,-34.264349711499996 150.80307641600001,-34.264552712 150.80330944,-34.264871707499999 150.80335744000001,-34.265001707 150.80342342399999,-34.265102698500002 150.80359043199996,-34.2655047035 150.80419043200001,-34.267055688 150.80471043200001,-34.269133682 150.805189472,-34.271339659 150.805513472,-34.273099656500001 150.80584444799999,-34.274845649499994 150.80631644799999,-34.276923625 150.806269472,-34.277631638500004 150.80631648,-34.27895363 150.80641849599996,-34.279907638 150.80664748800001,-34.280747630500002 150.807214496,-34.281597613 150.80806444800001,-34.282966594500003 150.80896246399999,-34.283910575500002 150.80948147199999,-34.284854575 150.809812448,-34.286034579 150.810096448,-34.2872625535 150.81061545599997,-34.288489547499999 150.81137145599999,-34.28981153899999 150.81250544,-34.291133512 150.81378144000001,-34.292172509 150.81496140799996,-34.293258477500004 150.81562339199999,-34.294957462 150.81583638399999,-34.295910471 150.81556140800001,-34.296350456500001 150.81500944000001,-34.297067479500001 150.81451344000001,-34.297839484500003 150.81456841599999,-34.298775473500001 150.81434745600001,-34.300539485500003 150.814733472,-34.301696475500002 150.815230464,-34.303350468 150.81605744000001,-34.304562458500001 150.81676041599999,-34.30637544 150.81431648,-34.3060634745 150.801928672,-34.30448166899999 150.79283286399999,-34.303347822500001 150.79282387200001,-34.303363806500002 150.79267488,-34.303742816 150.79258787200001,-34.303817815 150.79258486399999,-34.3039178075 150.79225888,-34.304527808 150.79216592,-34.304755820499999 150.79216089600001,-34.304941819500002 150.79212390399999,-34.305055816500001 150.79213590399999,-34.305241815500004 150.79208489600001,-34.305856811 150.79204691199999,-34.305998817 150.79204489599996,-34.306084823500001 150.79194691199999,-34.306512839499995 150.79179990399999,-34.306867836 150.79178790399999,-34.306925833500003 150.79177990400001,-34.306967828499999 150.791745408,-34.307085914 150.79148291199999,-34.307052836 150.79145491200001,-34.307049839 150.787148,-34.306506901 150.78692899200001,-34.306478910500005 150.778914208,-34.305468033499992 150.778758208,-34.305449034 150.778205184,-34.305379048499994 150.75117075200001,-34.3019652435 150.751148736,-34.301962246500004 150.75086073599999,-34.301926245499999 150.74905379200001,-34.314295197500002 150.74901984,-34.314530184500001</coordinates></LinearRing></outerBoundaryIs></Polygon>

	</Placemark>
</kml>