<?xml version="1.0" encoding="UTF-8"?>
<kml xmlns="http://www.opengis.net/kml/2.2">
	<Placemark>
		<Style>
			<LineStyle>
				<color>ff0000ff</color>
			</LineStyle>
			<PolyStyle>
				<fill>1</fill>
				<color>330000cc</color>
			</PolyStyle>
		</Style>
			<ExtendedData><SchemaData>
		<SimpleData name="STATE_2006">1</SimpleData>
		<SimpleData name="POA_2006">2382</SimpleData>
	</SchemaData></ExtendedData>
      <Polygon><outerBoundaryIs><LinearRing><coordinates>150.11039955199999,-30.749673239500002 150.11066252800001,-30.750134241 150.11092153600001,-30.750397237 150.11129955199999,-30.750558242499999 150.11207555199999,-30.750633241499997 150.109847712,-30.7618472385 150.10981171199998,-30.762025245500006 150.10939376,-30.764129232 150.10922876800001,-30.7649622315 150.10789286400001,-30.771680266 150.10767689599999,-30.772792264 150.10754492800001,-30.773765253 150.10721296,-30.776199261 150.10714694399999,-30.776677264 150.10712995200001,-30.776705254500001 150.105205152,-30.787158309500001 150.10517216,-30.787337315499997 150.10511017600001,-30.787674311500002 150.10501516799999,-30.788188315500005 150.10445523199999,-30.791227329 150.10185148799999,-30.805361421499999 150.10164451200001,-30.805333431 150.09646960000001,-30.804625454500002 150.08934768,-30.8036525025 150.08914070399999,-30.803624493499999 150.079625824,-30.802322574499996 150.07941881599999,-30.802294565499999 150.07734585599999,-30.8020105905 150.077138848,-30.801981582500002 150.077105856,-30.802160588500001 150.07684387200001,-30.803574599 150.06976297599999,-30.802610619500001 150.06955497600001,-30.802582629 150.06502604799999,-30.801966671500001 150.06481804800001,-30.801937663500002 150.062964064,-30.801685656500002 150.06275708799998,-30.8016576845 150.05441920000001,-30.800522728 150.0542112,-30.80049372 150.053197216,-30.800355728500001 150.05283020799999,-30.800305741499997 150.052126208,-30.798244712 150.05094617599997,-30.795042713499999 150.049618912,-30.791288878499998 150.048422112,-30.787747682500001 150.04814211199999,-30.786958676 150.04796310399999,-30.7864196785 150.04687308800001,-30.7834346665 150.04565459200001,-30.780036901 150.04488492799999,-30.777879967499999 150.043863488,-30.774946737 150.04356201600001,-30.77490267 150.043208,-30.774852664499999 150.04286300800001,-30.774804657 150.03491014400001,-30.773687701 150.03513411200001,-30.77253171 150.03529811199996,-30.771630704500001 150.03544908800001,-30.770726702 150.036128,-30.766750682 150.03662598400001,-30.763742693 150.036865952,-30.762333659 150.03696640000001,-30.761703882 150.030238048,-30.7607757 150.03227580800001,-30.749711664 150.03230982400001,-30.749532658 150.032089824,-30.749501670500003 150.032292832,-30.748428670500005 150.03279376,-30.74578367 150.03293676800001,-30.745025669500002 150.03330771200001,-30.743066649 150.033299712,-30.742963641 150.03328272,-30.742738644 150.033267712,-30.742513647 150.033255712,-30.74228865 150.03261273599998,-30.742200664 150.03230172799999,-30.74215767 150.02892678399999,-30.741694689 150.02887478400001,-30.741859690499997 150.02862579200001,-30.7422366835 150.02842480000001,-30.742389678499997 150.0279888,-30.74248068 150.02758982399999,-30.742468692 150.02699081599997,-30.742334678 150.02582182399996,-30.742034700499996 150.02498784,-30.741777698500002 150.02439785600001,-30.7415236935 150.023894848,-30.741182701499998 150.02369584,-30.74104471 150.02349785599998,-30.740846704500001 150.02339286399999,-30.740722699 150.022972864,-30.740485695500002 150.02268185599999,-30.740412713 150.022328896,-30.740419724500001 150.021959872,-30.740485714 150.021227872,-30.740814718 150.02056291199997,-30.741026728 150.020204928,-30.741086742 150.019888928,-30.741068741500001 150.019663904,-30.741009745 150.01922992,-30.740770743499997 150.01880096,-30.74034874 150.01830496,-30.739893732499997 150.01781593600001,-30.739639764499998 150.017301952,-30.739539753499997 150.01658294399999,-30.739184757 150.016231936,-30.738936764499996 150.01557299199999,-30.738372773499997 150.015218976,-30.738092776 150.014439968,-30.737710769500001 150.01381699199999,-30.737420800500001 150.01336598399999,-30.7372747985 150.01315500800001,-30.737258796 150.01292,-30.737240795499996 150.01260300800001,-30.737163798499999 150.01226,-30.737001794 150.01201500799999,-30.736820808499999 150.011811008,-30.736527805499996 150.01161001599999,-30.736315814 150.01146700800001,-30.7362268105 150.011284,-30.736180819499999 150.010976,-30.736178821500001 150.010706048,-30.736229807499999 150.010390048,-30.736416805499999 150.00992304,-30.7369098305 150.00943808,-30.737639840499998 150.00914406399997,-30.7381948405 150.00910608000001,-30.738227826 150.00900611200001,-30.7386138285 150.00889011199999,-30.738899838499997 150.008840096,-30.739372828 150.00883811200001,-30.740789835499996 150.00880515200001,-30.7410188285 150.00865612799998,-30.741261826 150.00865612799998,-30.741576825500001 150.00858915200001,-30.741690841 150.00845715200001,-30.741805837 150.00830812799998,-30.74187684 150.008258144,-30.741862854 150.00763318399999,-30.741967841499999 150.007209184,-30.742019845 150.00655916799997,-30.742115841499999 150.005297216,-30.742137875 150.00495619200001,-30.7422048635 150.004713216,-30.742262861 150.00452419199999,-30.742264877500002 150.003723232,-30.742228895 150.00361824000001,-30.742259882499997 150.00320822399999,-30.742464881 150.00288528,-30.742683884 150.00279728000001,-30.742816880499998 150.00283027200001,-30.743002879499997 150.00321027199999,-30.743303893 150.003376256,-30.74357588 150.003375264,-30.743718885 150.00330928,-30.743804891500005 150.00314425600001,-30.743876893499998 150.00304425599998,-30.743961882499999 150.00299526399999,-30.7440618935 150.00296128,-30.744233888 150.00296128,-30.744720882 150.002994272,-30.744863887 150.00299827200001,-30.745096894499998 150.00308528,-30.745377891 150.003398272,-30.746022893499998 150.00393328000001,-30.74679488 150.00417331200001,-30.7473638845 150.00431529599999,-30.747690872 150.00454230400001,-30.74813687 150.004714304,-30.748498878 150.00493529600001,-30.748766869 150.00509030399999,-30.74898787 150.00516028800001,-30.749140865 150.00517430400001,-30.749402862 150.00514028800001,-30.749518875499998 150.005041312,-30.749672869499996 150.00457628800001,-30.7501388845 150.004255328,-30.750633889 150.003963328,-30.750999893 150.00374032,-30.751220894 150.00345536,-30.751469885499997 150.00336236800001,-30.7515569095 150.00316937599999,-30.751704909499999 150.00287936,-30.751865915 150.00267635199998,-30.751911906 150.00259436799999,-30.751911906 150.002130368,-30.751767902 150.0018824,-30.751739911500003 150.001139392,-30.7517669215 150.00051139199999,-30.751870928500001 149.99973542399999,-30.752497930499999 149.999259424,-30.752659935 149.99883644799999,-30.752936935499996 149.998123456,-30.75323695 149.99719750400001,-30.753492953 149.99460656,-30.754465979 149.99341958400001,-30.755180005 149.99250662399999,-30.756163021 149.992288608,-30.756398008 149.991973632,-30.756811020500002 149.99097465599999,-30.757869035500001 149.99029068799999,-30.7587190365 149.98923670400001,-30.759570055 149.98894870399999,-30.759960053500002 149.98842172799999,-30.760398078 149.987283744,-30.760746081500002 149.986411936,-30.761070127500002 149.98554380799999,-30.762012092 149.98509580800001,-30.762380112500001 149.984649856,-30.762940107499997 149.98449184,-30.763138113 149.98444185599999,-30.7632681125 149.98436185599999,-30.763482102 149.98447584,-30.764649100499998 149.984481888,-30.765450132 149.98470086399999,-30.766365123499998 149.985235872,-30.7669581225 149.98550188799996,-30.767140107 149.986192864,-30.767343107500004 149.98685788799997,-30.76772911 149.987657856,-30.76832111 149.988725856,-30.769370097 149.989209856,-30.770215084500002 149.99011683200001,-30.770989087500002 149.99025184000001,-30.771378087 149.99033788799997,-30.772270083 149.99026486400001,-30.773163096499999 149.99008387200001,-30.773714100500005 149.989807904,-30.774075109499996 149.98924291200001,-30.774816108500001 149.98834294400001,-30.77493412 149.98726595199997,-30.774791133500003 149.986670976,-30.77471212 149.985557984,-30.774763143 149.98463209599998,-30.775041179500001 149.984027008,-30.7757301565 149.983789024,-30.775892161 149.983048032,-30.776009173500004 149.98158905599999,-30.775901189 149.981159072,-30.775193175499997 149.98110102399997,-30.774483182500003 149.98056304,-30.773479187499998 149.980346048,-30.772770175 149.97967804800001,-30.771971178499999 149.97821504,-30.771337202 149.97770704000001,-30.770743204 149.97722905599997,-30.770608209500001 149.97550406400001,-30.770455214499997 149.97518809600001,-30.770754211500002 149.97501011200001,-30.771830227 149.97451312000001,-30.772634237 149.97369516800001,-30.773324231499998 149.97290416,-30.7738072665 149.97288115199999,-30.773827265 149.972513152,-30.773780256500004 149.969872224,-30.77344228 149.96966422399998,-30.77341527 149.96174432000001,-30.772401359 149.957911392,-30.77190937 149.95754019200001,-30.771862269 149.957539392,-30.771871389499999 149.95726441599999,-30.773390387499997 149.95561756800001,-30.782512423 149.955598592,-30.7827524235 149.95555958400001,-30.783221417 149.95551257599999,-30.78357843 149.95541961599997,-30.783935424500001 149.95519862399999,-30.784426433 149.955127616,-30.784620424 149.9550736,-30.784879442499999 149.95504265599996,-30.785702433499999 149.95506563199999,-30.786106436499999 149.955118656,-30.786435440499996 149.955375648,-30.7870334345 149.955601632,-30.787424450500001 149.955871648,-30.787816447 149.956062656,-30.788009420499996 149.95631564799999,-30.788308417500001 149.95663065599999,-30.788682432 149.957898656,-30.790348431 149.95808563199998,-30.790620418 149.958246656,-30.790896419500001 149.95843264000001,-30.791228420500001 149.95875664,-30.791764421 149.95947065600001,-30.792764401500005 149.95997363199999,-30.793431400500001 149.960294656,-30.793895399 149.96035363199999,-30.793965403 149.96096265599999,-30.794687402499996 149.96111664,-30.794899412500005 149.96143763200001,-30.795360414 149.961667648,-30.795700407 149.96191964799999,-30.796109405 149.96204265599999,-30.796295404 149.96248665599998,-30.796642408500002 149.962659648,-30.796865389 149.962770656,-30.797087389 149.962942656,-30.797710395 149.96302163199999,-30.798126386 149.96309468800001,-30.798674411500002 149.96313766399999,-30.799302412500001 149.96311766400001,-30.799726414 149.96305667199999,-30.800146401 149.96292272,-30.8006394075 149.962659712,-30.801671411500003 149.96259171200001,-30.8019803985 149.96255369599999,-30.8021524115 149.96240572799996,-30.804137424500002 149.962356736,-30.804452424 149.96235174399999,-30.804490423 149.96236377599999,-30.804822424 149.96246876800001,-30.805622419500001 149.962506784,-30.805912425500001 149.96263478399999,-30.806595427 149.96272678400001,-30.807355425500003 149.96275881599999,-30.807686427500002 149.962823808,-30.808086416 149.96293881599999,-30.80871142 149.962970816,-30.809135421499999 149.96303980799996,-30.809739428 149.963169824,-30.810284419499997 149.96324284799999,-30.810633422 149.96328883199996,-30.811404428 149.96333984,-30.812033428 149.96332284799999,-30.812251432 149.96294985599999,-30.814262437500002 149.96285689600001,-30.814762437 149.962564896,-30.816006451 149.96249193599999,-30.816416448 149.96237292800001,-30.816990466 149.96220492800001,-30.817750464499998 149.96205097599997,-30.818316453499996 149.961666976,-30.819431467 149.961477984,-30.820115486 149.96141798400001,-30.820281486499997 149.96137299200001,-30.820406472499997 149.961136,-30.820829475 149.960714016,-30.821730480500001 149.96032403199999,-30.8224954925 149.96019206400001,-30.822830490499999 149.96008707199999,-30.823177495 149.959981056,-30.823649504 149.95981705599999,-30.824143491 149.95969808000001,-30.824361495 149.95445830400001,-30.83544059 149.954363328,-30.835620595 149.95406233599999,-30.836192596499998 149.95393136000001,-30.836466581500002 149.953834336,-30.83673559 149.95369635200001,-30.837211595 149.95342339199999,-30.8385166035 149.95296441599999,-30.840550604500002 149.95275344000001,-30.841536636 149.95256044800001,-30.8423786265 149.95247248000001,-30.842811619 149.95237846399999,-30.843275636 149.95225548799999,-30.843837629 149.95216748799999,-30.844189628499997 149.95210249600001,-30.844374647 149.95207152,-30.844461652499998 149.95203251199999,-30.8446546445 149.95188752000001,-30.84501064 149.95185651200001,-30.845201652499998 149.95178752,-30.845426649500002 149.94807670399999,-30.853603705 149.94724873600001,-30.8554287115 149.944532896,-30.861414775 149.94384092799999,-30.863152776 149.94361692800001,-30.863754784499999 149.94358592,-30.863837775499999 149.943521952,-30.8642388 149.943363968,-30.864940801 149.94315296,-30.865565786499999 149.942892992,-30.866528785499998 149.94282,-30.866932788499998 149.94271500799999,-30.86873282 149.94267603200001,-30.869161816499997 149.94264406400001,-30.869780808 149.942646048,-30.870335808 149.94283107199999,-30.872380798 149.94298412799998,-30.874082798 149.94305910400001,-30.874707802 149.94313113600001,-30.875263801 149.94321414399997,-30.875978789 149.943565216,-30.879639772499999 149.9436472,-30.8803457695 149.94388624,-30.882178768 149.94397523200001,-30.88295377 149.94431731199998,-30.886387758499996 149.94441833600001,-30.887162760499997 149.94449635199999,-30.88848675 149.94450633599999,-30.888773759 149.943214528,-30.897101756 149.94318454399999,-30.897222764499997 149.94243059199999,-30.900349764 149.94223161599999,-30.902636752500001 149.94125369599999,-30.904803768499999 149.9392528,-30.9092358135 149.93297596799999,-30.915147877 149.93295897600001,-30.915173869500002 149.93270300799998,-30.9154268755 149.93255801599997,-30.915586863499996 149.93244201600001,-30.915777876 149.93230201599999,-30.916110876 149.93220700800001,-30.916451886500006 149.93211705600001,-30.916800889 149.93193504,-30.917691886 149.931795072,-30.91831689 149.931390112,-30.920313891 149.93129510399999,-30.920673882500001 149.93120710400001,-30.9210239025 149.93081113599999,-30.9226789125 149.93075718399999,-30.923288913 149.93070518399998,-30.923557903 149.93068816,-30.923648904500002 149.93009721600001,-30.924848907 149.92974723200001,-30.925478906 149.92945123199999,-30.925970932 149.92921024,-30.926380929 149.92908425600001,-30.926643925 149.92853331199998,-30.929606922 149.92842832,-30.930095932500006 149.92819632000001,-30.931234922 149.92817532800001,-30.931341926 149.92792636799999,-30.932752921 149.927864384,-30.933077929 149.92772339199999,-30.933703932 149.9276344,-30.934125917 149.92749744,-30.934742929 149.92727443199999,-30.936057946 149.927169472,-30.936551933 149.926799488,-30.9378209405 149.92661548800001,-30.938251935 149.92581251199999,-30.939515947499999 149.925653536,-30.9397349505 149.92516156799999,-30.940227938499998 149.92481555200001,-30.940703943500001 149.91885676799998,-30.948012979 149.91877676799999,-30.948106977500004 149.9183048,-30.948069977500001 149.91671782399999,-30.948097006 149.91616883200001,-30.948142997 149.91480883200001,-30.948211003 149.91425587200001,-30.948303003499998 149.91359088,-30.948390009 149.91303792,-30.948459014 149.91238592,-30.948523024 149.91184889599998,-30.948524023 149.91164592000001,-30.948525022 149.91027494400001,-30.948461030500003 149.90939993599997,-30.948389028500003 149.907938976,-30.948293032 149.907294976,-30.948245043 149.90505203199996,-30.947937055 149.90448704,-30.947847052500002 149.90354403200001,-30.947783061 149.903177024,-30.947755052 149.90281808,-30.947727061500004 149.90204208,-30.947624072 149.90128307200001,-30.947523080500002 149.89905308799999,-30.947282081 149.89793612799997,-30.947204103500003 149.89746614399996,-30.947203104500002 149.89695014399996,-30.947240104499997 149.896393152,-30.947240123 149.89634316799996,-30.947242121 149.895785152,-30.947260121500001 149.895281152,-30.947249132500001 149.89478915199999,-30.947133137499996 149.89414220800001,-30.946916151 149.89255020799999,-30.946539158 149.891996224,-30.946447157499996 149.89046224000001,-30.946121187500001 149.889835264,-30.946069202499999 149.88944825600001,-30.946066205499999 149.889146272,-30.946084206 149.88875724799999,-30.946144201499997 149.88846124799997,-30.946226193499999 149.88808630400001,-30.946381223499998 149.88801929600001,-30.946306224499999 149.88744630399998,-30.945976221499997 149.887267296,-30.945821228500002 149.887223296,-30.945722216500002 149.88721228799997,-30.945563227500003 149.887290272,-30.944877210499996 149.88727526400001,-30.944778217 149.887234272,-30.944724215499999 149.88708124799999,-30.944615213500001 149.87544044800001,-30.943082359 149.873441472,-30.942824395 149.87073350399999,-30.942475429499996 149.87029152,-30.942448419499996 149.86980352,-30.942371422499999 149.86931750400001,-30.942256426500002 149.868916544,-30.942146425499999 149.86834656,-30.941961444 149.86793353600001,-30.941779441 149.86767056,-30.941619434500002 149.86764553599997,-30.94159544 149.867397536,-30.941353441500006 149.86724755200001,-30.941417433 149.86694656,-30.941517444 149.86642259199999,-30.941629443 149.865810592,-30.941659468500003 149.86559059199996,-30.9416374535 149.86526457599999,-30.941593460500002 149.86446156799997,-30.941507454 149.853670752,-30.939956543500003 149.84673184,-30.9389596155 149.83527100800001,-30.937330690500001 149.83818668800001,-30.921027676499996 149.83626969599999,-30.920777704500001 149.83585270399999,-30.920723703 149.82716582399999,-30.919591780499996 149.82437616,-30.935525775 149.824293152,-30.9356987685 149.82369020799999,-30.939172772500001 149.81468934399999,-30.937938841 149.81419536000001,-30.937870853499998 149.805065472,-30.936618921500003 149.757799232,-30.930400165 149.75772825600001,-30.930513163 149.75720028800001,-30.931109159 149.75428233599999,-30.931918164 149.752716384,-30.932059171 149.75109740799996,-30.932384179 149.7506464,-30.932385178 149.75022041599999,-30.932271181 149.74904841599999,-30.931427174 149.74881539200001,-30.931140183500002 149.74827241599999,-30.930468208 149.747819392,-30.930057193500001 149.74686742399999,-30.9294882075 149.74619542400001,-30.929374192 149.74457545600001,-30.929469226499997 149.74341449599999,-30.929988225499997 149.742018656,-30.938923226 149.71201312,-30.934611375499998 149.71081510400001,-30.934446374 149.71096710399999,-30.933433369500001 149.710682112,-30.933396369499999 149.709334144,-30.93321938 149.71108790400001,-30.9219763935 149.71062390399999,-30.921900377 149.70980195199999,-30.921608391500005 149.709627936,-30.921404392 149.71044486400001,-30.916711386 149.69677104,-30.914452462 149.68911731200001,-30.923046470500001 149.67756838400001,-30.92165355 149.63155494399999,-30.916094799500001 149.631830944,-30.915020800500002 149.634260864,-30.913465783 149.63669881600001,-30.911577765500002 149.63706777600001,-30.909933781500001 149.63518774400001,-30.906600784500004 149.634727744,-30.904646796 149.63384371199999,-30.902721797 149.63478067200001,-30.90165579 149.63402668799998,-30.899579794 149.63522764800001,-30.898406783 149.63553161600001,-30.896832784500003 149.635455584,-30.894037767500002 149.63553856,-30.891973778 149.63624748800001,-30.889294756 149.63667350399999,-30.888589758 149.63809244800001,-30.88851376 149.63864841599997,-30.8883927515 149.63984441599999,-30.8884117325 149.64111840000001,-30.886881745500002 149.64279036799999,-30.887536719499998 149.64694131199997,-30.8872187045 149.64928028799997,-30.888781695499997 149.65008627199998,-30.889251706500001 149.65041427200001,-30.889797697 149.65173625599999,-30.890181701500001 149.65536121599999,-30.889412675 149.65583318399999,-30.889050667 149.65575513600001,-30.886221665500003 149.65710713600001,-30.886054666 149.65856208,-30.884259648 149.65857606399996,-30.883966645 149.65865904,-30.882275652500002 149.656205056,-30.879488646 149.656666976,-30.876128639 149.657014944,-30.8735996335 149.65876985599999,-30.870000625 149.661421824,-30.869805598 149.66271481599998,-30.870097602 149.66408278399999,-30.870125611 149.666688736,-30.868085597499999 149.667620704,-30.863822587 149.67030262399999,-30.861620587499999 149.6722496,-30.861343587 149.674707552,-30.8621585675 149.676822528,-30.862416568500002 149.67961148799998,-30.861692552500003 149.681212512,-30.862840551499996 149.68357142400001,-30.862625526 149.6877424,-30.864151517 149.689743392,-30.865362508500002 149.693025312,-30.8633915 149.73147868800001,-30.868293278500001 149.74130358400001,-30.869570222500002 149.74479651199999,-30.870024175499999 149.749204448,-30.870597157500001 149.758282272,-30.871776144 149.75831328000001,-30.871596139 149.76108499200001,-30.855542116499997 149.76111299199999,-30.8553621115 149.78787456000001,-30.859029977 149.78829555199999,-30.859053971499996 149.788337536,-30.859059984 149.79006336,-30.84894189 149.79011936000001,-30.848677876499998 149.791052,-30.844236008 149.791518016,-30.842015009 149.791917184,-30.840113838 149.791998208,-30.839728816 149.79235216000001,-30.838040820499998 149.792460992,-30.837507003 149.79262915199999,-30.836678813500001 149.792702144,-30.836258826499996 149.79287100799999,-30.835277993499997 149.792930144,-30.834932839 149.793074112,-30.833955835499996 149.793153088,-30.833618821 149.79331910400001,-30.833124852499999 149.79335708799999,-30.832903851499999 149.79334809599999,-30.8326188405 149.793322112,-30.832144852 149.793355072,-30.831469842500002 149.79351606399999,-30.830554851 149.79363907199999,-30.829727864 149.793748032,-30.82916687 149.794196032,-30.8292678615 149.79453004799998,-30.829331853 149.79486502399999,-30.829369852 149.79536204799999,-30.829369852 149.79618300800001,-30.829333851 149.79648601599999,-30.829301846 149.79686201599998,-30.829307821500002 149.79716201599999,-30.829353831 149.79895996799996,-30.829749805 149.79902896,-30.829765807499999 149.799294976,-30.829780811 149.79967894399999,-30.829782809 149.80014492800001,-30.829826820500003 149.80070294399999,-30.829926813 149.80100995199999,-30.829998815 149.801420928,-30.830112793499996 149.801758912,-30.830168793 149.802014912,-30.830168793 149.802499904,-30.830138786 149.80313990400001,-30.830077791500003 149.803524,-30.830050004500006 149.80374486400001,-30.830053778500002 149.80412288,-30.8301017675 149.804424864,-30.830186775 149.80473286399999,-30.830299773 149.80498288000001,-30.830409774 149.80531987200001,-30.830500775499999 149.80588985599999,-30.830589760499997 149.80637385599999,-30.830650755 149.80790880000001,-30.830854736 149.80870880000001,-30.830951731499997 149.80993001600001,-30.831134992500004 149.81046,-30.831214006 149.81159776000001,-30.831465717 149.812007744,-30.831545711 149.81273174399996,-30.831632698 149.81297776,-30.8316477015 149.81331772799999,-30.831634696 149.81359571199999,-30.831552704 149.81369872,-30.831476706 149.81381472000001,-30.831313702500001 149.81404870399999,-30.830935692 149.81416672,-30.830889701 149.814381728,-30.830846707 149.81467968000001,-30.830829705500001 149.81514067200001,-30.830833683 149.816293696,-30.830903687 149.81637766399999,-30.830580677 149.81665264,-30.829276686 149.81672665599999,-30.828873682 149.81675961600001,-30.828192678500006 149.81675961600001,-30.828187683500001 149.81684060800001,-30.826928703 149.81705257600001,-30.825667706 149.81719459199999,-30.825032693500003 149.817552576,-30.824272695 149.81729958400001,-30.824249699499997 149.81736358399999,-30.823895702 149.819461408,-30.812349741 149.819461408,-30.812166739 149.81493648,-30.811564786 149.80268368,-30.809936897 149.802784672,-30.809519925499998 149.80287267200001,-30.809101918 149.802966656,-30.808693919 149.803169664,-30.8079249295 149.80327264,-30.807430924 149.80329564799999,-30.807139900500005 149.80334060800001,-30.805698898500001 149.803356608,-30.805531899 149.80343961599999,-30.804674905 149.80351859199999,-30.804333913 149.80392560000001,-30.8031629 149.804076544,-30.80272889 149.804131552,-30.802441881 149.80419456000001,-30.8018278845 149.80459152,-30.800162884500001 149.80470153600001,-30.799528889499999 149.80473648,-30.799141869499998 149.80597638399999,-30.792135845500006 149.80609936,-30.791436841500001 149.8079192,-30.781144792 149.82297593600001,-30.783112655499998 149.822999936,-30.78293167 149.82335388800001,-30.780846646 149.82422787199999,-30.780962641 149.82461084799999,-30.778792628 149.826727648,-30.766784574 149.82395868799998,-30.766433592 149.82398569599999,-30.766253587 149.8249936,-30.759500569 149.82502259199998,-30.759324578499996 149.82523056,-30.759350571 149.83162448,-30.760247506499997 149.83186048,-30.760279493 149.83190745600001,-30.760059491 149.83225344,-30.7589195025 149.83241801599999,-30.758160003499999 149.83246499199998,-30.757856992 149.83254739200001,-30.757337493499996 149.83258041600001,-30.756643484499996 149.832644,-30.7556070035 149.832662368,-30.755298479 149.832698368,-30.754886484 149.83277238400001,-30.754193474 149.83284636799999,-30.753690477500001 149.832977344,-30.753051487499999 149.83319900800001,-30.752274006500002 149.83326134399999,-30.752001464499997 149.83336432,-30.751511455 149.833529312,-30.751018467 149.833629312,-30.7506774565 149.83378329600001,-30.750115463499998 149.83390928,-30.749748460500005 149.834011264,-30.749583459 149.83410928000001,-30.749497434 149.83437526399999,-30.749381439 149.83486428800001,-30.749268441 149.83516601599996,-30.749233994 149.83618224,-30.749003428499996 149.83638822399999,-30.748937420500006 149.83648121600001,-30.748907432 149.83685801600001,-30.748751995 149.83732220799999,-30.748534416500004 149.83759420800001,-30.748430428 149.840056992,-30.747675998 149.84252,-30.746921993500003 149.84498300800001,-30.746167008500006 149.84617801600001,-30.745801004500002 149.84741299199999,-30.745341002 149.849812,-30.744446009 149.85460899200001,-30.742656004500002 149.85706470400001,-30.741740273 149.85865801599999,-30.741145997499999 149.86105699199999,-30.740251004499996 149.862052,-30.739880005500005 149.863211552,-30.739478222500001 149.86368249599997,-30.739321213 149.86565747200001,-30.738793204500002 149.866396,-30.738660004500002 149.871511008,-30.737733006499997 149.874068,-30.737270007 149.87662499199999,-30.7368060085 149.87839017600001,-30.736486088 149.87918518399999,-30.736356088500003 149.87948300799999,-30.734494008 149.879840992,-30.7322580055 149.88019900800001,-30.730023002 149.880556,-30.727786999500001 149.88091401599996,-30.725551052500002 149.88104300799998,-30.724755053 149.88107299200001,-30.724258032 149.881492,-30.722031002 149.88191100799997,-30.7198029915 149.882330016,-30.717574999499998 149.88274899199996,-30.715347007499997 149.88316982399999,-30.713106990499998 149.88322201599999,-30.712822997 149.8836288,-30.7105929885 149.883662816,-30.710406989500001 149.883791008,-30.709708004 149.88398278400001,-30.708657000500001 149.88402976,-30.708324000499999 149.88409478400001,-30.707968005 149.884178784,-30.707682994 149.88427574400001,-30.7074589775 149.88465772800001,-30.707018973500002 149.88499372800001,-30.706661979 149.88567872,-30.706066982 149.886301696,-30.705441959500003 149.88689366400001,-30.704817954499998 149.88741366400001,-30.704191951499997 149.887741632,-30.703648939500003 149.88793865599999,-30.703307947500001 149.88805164799999,-30.703041936 149.88820464,-30.702492948500002 149.88956,-30.695172998 149.88997350400001,-30.692944932 149.891675392,-30.683760903 149.89175798400001,-30.683316995499997 149.89300524800001,-30.676583883500001 149.89381699199998,-30.672173002500003 149.894228,-30.669943993 149.894941088,-30.666068853499997 149.89501708799997,-30.6655568475 149.89508310400001,-30.665198854 149.89527411199998,-30.664770856499999 149.89542211200001,-30.664480850500002 149.89556710400001,-30.664315849 149.89565305599999,-30.664254854499998 149.89584105599999,-30.664154843499997 149.89594208,-30.664133846 149.89611408,-30.664123856 149.89653408000001,-30.664168829500003 149.89715808,-30.66421384 149.89773504,-30.664270838500002 149.89903104000001,-30.664540809 149.899665024,-30.66464082 149.90006201599999,-30.664689789500002 149.900944,-30.664792797500002 149.90124899200001,-30.664824802499997 149.90153900799999,-30.664815793 149.90165401600001,-30.664780791 149.90176096,-30.664710787 149.90190096000001,-30.664572777 149.90198496,-30.664448771499998 149.90209097600001,-30.664189771499998 149.902219968,-30.663246771 149.90233094399997,-30.662538776 149.90247094399999,-30.661832779 149.902645952,-30.660608782 149.90271891199998,-30.660249771 149.902800896,-30.660022776 149.902823904,-30.659957767 149.90310089600001,-30.659454770499998 149.90355088000001,-30.658946760499997 149.90383987199999,-30.658658752499999 149.904375872,-30.658209757499996 149.90496185599997,-30.657678752 149.905950816,-30.656823737499998 149.90641580799999,-30.656478731 149.906862816,-30.656121736499998 149.907546784,-30.655431723500001 149.907706784,-30.655249720500002 149.90778179200001,-30.655164713 149.90789276800001,-30.65497272 149.90810499200001,-30.654292993 149.90821475199999,-30.654066719500001 149.90831376,-30.653943713 149.90840176,-30.653832713 149.90857776,-30.653716718 149.90875673599999,-30.653631729 149.90893574399999,-30.653593711500001 149.90927174399999,-30.653574693499998 149.91095971199999,-30.653790681 149.91287667200001,-30.653988668 149.91351267199997,-30.654034659 149.91408265600001,-30.654118667500001 149.91420864,-30.654148656 149.914420992,-30.653087995500002 149.91486601599999,-30.6508639995 149.91531059199997,-30.648640651 149.9153816,-30.648415654 149.91547056,-30.6482616415 149.91560355199999,-30.648105649499996 149.915692,-30.648031002 149.91606755199999,-30.647713653 149.91774099199998,-30.646638007499998 149.919836,-30.645292003 149.921931008,-30.643945998499998 149.92249238400001,-30.643584582500001 149.922710016,-30.6434190075 149.92284140800001,-30.643301588 149.92293539199997,-30.643179599 149.92308739200001,-30.642723574 149.92329737599999,-30.641761574 149.92373734399999,-30.639476565 149.92396329600001,-30.6378275675 149.92399731200001,-30.637655573 149.92404828799999,-30.637402567 149.92422028799999,-30.63695557 149.92424131199999,-30.636901568500001 149.924373312,-30.636678569500003 149.92596022399999,-30.635027555500002 149.92695500799999,-30.633990001500003 149.92862201599999,-30.632253998500001 149.93028899199999,-30.630516996500003 149.931956,-30.628780993499998 149.93302803200001,-30.6276645 149.933596032,-30.627025491499996 149.93375104,-30.626852498 149.936578016,-30.623538001 149.93812700800001,-30.621722004 149.939676,-30.619905008 149.941224,-30.618088992500002 149.94277299199999,-30.616272995500005 149.944322016,-30.614455999499999 149.944423712,-30.61433636 149.944681696,-30.614056362500001 149.94483769600001,-30.61385536 149.94503168,-30.613519363 149.94513968000001,-30.613255368 149.945360704,-30.612574364500006 149.945388,-30.612431008 149.94580963199999,-30.610204348 149.94659100800001,-30.606079995 149.94686556799999,-30.604628337 149.94694156799997,-30.60428531 149.94705152,-30.603926317500004 149.94708054399999,-30.603866322 149.94716252800001,-30.603697306 149.947501536,-30.603334317499996 149.94777654399999,-30.602992308 149.948076,-30.602635998 149.948437504,-30.6020913025 149.94884448,-30.601465299499999 149.94903446399999,-30.601129302500002 149.94918345599999,-30.600733291499999 149.94931747199999,-30.600378295 149.94948742400001,-30.599564276499997 149.94950044800001,-30.599372283499996 149.94955744000001,-30.599262282500003 149.94972742399997,-30.599200270500003 149.95075241599997,-30.598874282 149.95101641599999,-30.598776269 149.95124940799997,-30.59870127 149.95174041600001,-30.598529257 149.95203241600001,-30.598423252 149.95234336,-30.598335266 149.95257836799999,-30.598256252499997 149.95267238400001,-30.5984762545 149.9531144,-30.599438254499997 149.953364416,-30.599919254499998 149.95341139199999,-30.599955255499999 149.9534584,-30.5999902575 149.953792384,-30.600056265499997 149.95410236800001,-30.600109249500001 149.954376384,-30.600144251500002 149.95459238399999,-30.600179253500002 149.95497836800001,-30.600259247499999 149.95521337599999,-30.600303240500001 149.95548636800001,-30.600321241 149.95577836799998,-30.600365234 149.95779900799999,-30.600601997 149.96296899199996,-30.601209000500003 149.963997248,-30.601343181 149.96456524800001,-30.60136416 149.9652712,-30.60139117 149.96615321599998,-30.601380144 149.96694822399999,-30.601335152 149.96743718399998,-30.601279152499998 149.96790518399999,-30.60121912 149.968587168,-30.601165137 149.97050601599997,-30.601041002 149.973108,-30.600873003499999 149.97571001599997,-30.600704006 149.978312,-30.600536007500001 149.979275008,-30.600473015 149.980049984,-30.600429003499997 149.98066899200001,-30.600420993 149.981312,-30.600464005500001 149.982102016,-30.596003008 149.982496,-30.5937720005 149.98289084800001,-30.591537996 149.982973856,-30.5910700015 149.98337900800001,-30.588840992 149.98378300799999,-30.586611002 149.98418700799999,-30.584381992500003 149.984592,-30.582152002500003 149.984996,-30.579921994 149.9854,-30.577693003 149.985804,-30.575462994499997 149.986208992,-30.573234003499998 149.986612992,-30.571003995 149.98698860799999,-30.568927018500002 149.986995616,-30.568808008 149.98703459199999,-30.568661025499999 149.987333568,-30.567891018500003 149.98749958400001,-30.567541017 149.988590528,-30.564910021 149.988794528,-30.564483022499999 149.98965651200001,-30.562408025500002 149.99005747199999,-30.561497011499998 149.99037747200001,-30.560727023 149.990572,-30.560294992500001 149.99085744,-30.559658000499997 149.99090944,-30.5595430045 149.991356448,-30.558644996 149.99151040000001,-30.558241992 149.99160041600001,-30.557960995500004 149.99166640000001,-30.557753 149.992020416,-30.556843003499999 149.99227036799999,-30.556353993 149.99242838399999,-30.555948991 149.99252339200001,-30.555726991 149.99267036800001,-30.55550599 149.99291238399999,-30.555212006499996 149.99344736,-30.554806005500001 149.99375833600001,-30.554550002500001 149.99521932799999,-30.553634974 149.99567132799999,-30.553355975499997 149.996047328,-30.553090981500002 149.99652329599999,-30.552772985 149.99810825599999,-30.551596958499999 149.99833824000001,-30.551445961500001 149.99810825599999,-30.551137955 149.99766924799999,-30.550661987 149.99743724800001,-30.550264977 149.99733526399999,-30.549860974 149.99730326400001,-30.549248975499999 149.99731824,-30.548527975 149.99723321600001,-30.547884989 149.99722022399996,-30.547148985 149.99723523199998,-30.546407986 149.99730323200001,-30.545805977499999 149.997418176,-30.545173980499996 149.99739817599996,-30.544914999 149.99722617599997,-30.544689003 149.99697417600001,-30.544561001500004 149.99637123199997,-30.544572989500001 149.99612121600001,-30.5444889995 149.99591721600001,-30.544265001500001 149.99579523200001,-30.543937995499999 149.99576822399999,-30.543379998500001 149.99578320000001,-30.542778008500001 149.99584918400001,-30.542001008500002 149.99588419199998,-30.541614025499999 149.99581017599999,-30.5414010165 149.99555219199996,-30.541313012 149.99512419199999,-30.541388011 149.99450822399999,-30.541617022500002 149.993838208,-30.541761026499998 149.99339222399999,-30.541814029 149.99264124800001,-30.541806037 149.99219926399999,-30.541745042500001 149.99158326400001,-30.541553031 149.99097424000001,-30.541285058499998 149.990543264,-30.540961049500002 149.990213248,-30.540626051500002 149.98992528,-30.5404300625 149.989606272,-30.540388049 149.989023296,-30.540439072 149.988278272,-30.540495071500001 149.98767232,-30.540575065499997 149.98717532799998,-30.540535068499999 149.98665331199999,-30.540311089 149.98610131199996,-30.5400030825 149.98542630399999,-30.539493093 149.98476633600001,-30.538823115500001 149.98413136,-30.5382001095 149.98353635199999,-30.537625111 149.98278736,-30.537105113 149.98182736000001,-30.536504122 149.98118236799999,-30.536017128 149.980528384,-30.535482126499996 149.98036739200001,-30.535283122 149.980359392,-30.535061122 149.98053036799999,-30.534843136500005 149.98085833600001,-30.534631126500003 149.981266336,-30.534488121500001 149.98179936,-30.534362136499997 149.98223536,-30.5341901235 149.98272332799999,-30.533925129499998 149.983066304,-30.533594109 149.98326732800001,-30.533198116499996 149.98341232000001,-30.532711104 149.98350528,-30.532227107 149.98362428799999,-30.531634108 149.98375628799997,-30.531242111500003 149.98392729599999,-30.531010103 149.98419628799999,-30.530824104 149.98448928,-30.530595111 149.984655264,-30.530392110499999 149.98480224,-30.529998116 149.98487824,-30.529534117499999 149.98490624,-30.529105102500001 149.984824256,-30.528660103500002 149.98463824000001,-30.528108100500003 149.98445424,-30.527640106 149.98413824,-30.526993105499997 149.98390326399999,-30.52663711 149.98333024,-30.525909116499999 149.982739264,-30.525227132499996 149.98237024,-30.5247511275 149.98204425599999,-30.524192131500001 149.98166425599999,-30.523433132 149.98134025600001,-30.522683123500006 149.98107824,-30.522184123 149.98080224,-30.521785152 149.98045824,-30.521455149 149.979927264,-30.521039139500001 149.97928528,-30.520658150500001 149.97859228799999,-30.520093142 149.97813929599999,-30.51981616 149.97797427199998,-30.519654174 149.97786928,-30.519511169 149.97787129599999,-30.519350163499997 149.97801129600001,-30.519149161 149.97826329599999,-30.518971172500002 149.97876524799997,-30.518869145 149.97933625600001,-30.518781140499996 149.979779264,-30.518475150500002 149.98000124800001,-30.5182281385 149.98011222400001,-30.517772150500001 149.980138208,-30.517050151 149.98011923199999,-30.516442148500001 149.98001222400001,-30.516039144499999 149.97967222400001,-30.5157051455 149.97925420799999,-30.515461149 149.97885622399997,-30.515371146500001 149.97829625599999,-30.515369167 149.97752124799999,-30.5154991665 149.97673228799999,-30.515702167 149.976324288,-30.515780163 149.97578428799997,-30.515776185499998 149.97522128,-30.515574184 149.97460432,-30.515281181 149.97414032,-30.514943186 149.97356230399998,-30.514447201 149.97286630400001,-30.514103193500002 149.972387328,-30.513953195499997 149.97167433600001,-30.513773209 149.97098134399999,-30.513604211500002 149.97049936,-30.513530211500001 149.97010633599999,-30.513561217499998 149.969773344,-30.513625227499997 149.96927638400001,-30.513660229500001 149.968943392,-30.513619215 149.96839939200001,-30.513364248 149.96812937600001,-30.513120233 149.967930368,-30.512739244 149.96776636800001,-30.512160231 149.96769737599999,-30.5116232315 149.967646368,-30.510841236499999 149.96756636799998,-30.509823237 149.96749734400001,-30.509140235500006 149.96740336,-30.508652242500002 149.967240352,-30.508318243499996 149.96703136,-30.508100239499999 149.96665139199999,-30.507855244 149.966218368,-30.507642253500002 149.96587539199999,-30.507353265 149.96569436799999,-30.507029256 149.965556384,-30.506593266499998 149.96541139199999,-30.506198254500003 149.96513836799997,-30.505691262 149.96476438400001,-30.505031256 149.96429036800001,-30.504298249 149.963786368,-30.503571273 149.963551392,-30.503159278 149.96342438400001,-30.502831273 149.963338368,-30.50241728 149.96326636800001,-30.502011279 149.963281376,-30.501752279 149.96347734399998,-30.501454281 149.96372435200001,-30.501247284499996 149.96401936000001,-30.50109527 149.96453235199999,-30.500935263499997 149.96527030399997,-30.500862262499997 149.96592732799999,-30.500775257 149.966429312,-30.500654248500002 149.96694428799998,-30.500380263500002 149.96721427200001,-30.500142242499997 149.96735628799999,-30.49984023 149.967407296,-30.499525230500002 149.96738227200001,-30.499191231499996 149.96724928,-30.498788246 149.96690128,-30.498429253499999 149.96640329600001,-30.497922261 149.965799296,-30.497417266500001 149.965047328,-30.497001257 149.964606304,-30.496710270499996 149.96383632000001,-30.496541273 149.96363430400001,-30.496459281 149.96357331199999,-30.496430273 149.96307132800001,-30.496191271500003 149.96283830399997,-30.496133274 149.96244934399999,-30.49606327 149.96166336,-30.495978299500003 149.96143136000001,-30.495915288500001 149.96127833599999,-30.495840289500002 149.96067433600001,-30.495436286499999 149.96037536,-30.495190292 149.96022233599999,-30.4951083 149.95952838400001,-30.494887317499998 149.95937836799999,-30.494771304 149.959004384,-30.494453307499999 149.95870137599999,-30.494275319 149.958472384,-30.494152312500002 149.958339392,-30.49401532 149.958261376,-30.493875312 149.958215392,-30.493737320500003 149.958193376,-30.493531304499999 149.958215392,-30.493191311500002 149.958271392,-30.4928503195 149.95842838399997,-30.492243316 149.95880633600001,-30.491375314499997 149.95894134400001,-30.491174312 149.95931334400001,-30.490782315499999 149.95946835199999,-30.490513307 149.95976230400001,-30.489910318 149.95979030399999,-30.489707317499999 149.95977632,-30.489570306499999 149.959721312,-30.489431316 149.95958931199999,-30.489220305 149.959418304,-30.489008313499998 149.95919430399996,-30.488813305 149.95904230400001,-30.48872432 149.95888832,-30.488672316500001 149.958572352,-30.488626307 149.958257344,-30.488625308 149.95793952,-30.488668283500001 149.956986336,-30.488803333500005 149.95674739200001,-30.488853339 149.95625939199999,-30.489034324499997 149.95601539200001,-30.489152336 149.95544339200001,-30.489490331 149.955119424,-30.4896213295 149.95487942400001,-30.489681343500003 149.954240416,-30.489769348 149.95392342400001,-30.489792343499996 149.9534464,-30.489865344499997 149.95321145599999,-30.489846345 149.95297945600001,-30.489787348499998 149.95228544,-30.489557375 149.95181744000001,-30.489490368 149.95142345599996,-30.48948837 149.951180448,-30.489531364 149.95101948799999,-30.489588362500001 149.950775488,-30.48972036 149.94979248000001,-30.490314395 149.94946950400001,-30.490435385 149.94858649599999,-30.490706391500002 149.94818051199999,-30.490840387 149.94768953599998,-30.490949389 149.947447552,-30.490968388499997 149.94721254399997,-30.490957399499997 149.946975552,-30.490912407500005 149.94666652800001,-30.490812396499997 149.94643753599999,-30.490702414 149.94583452800001,-30.4902784125 149.94561555199999,-30.490073414 149.945431552,-30.489860405 149.94533155199997,-30.489650411500001 149.94495654399998,-30.488742413 149.94479753600001,-30.4884594185 149.94471955200001,-30.488250424 149.944611552,-30.487973423500002 149.944518528,-30.487831417499997 149.944373536,-30.487695424 149.94407852800001,-30.487515419 149.94384358400001,-30.487363423 149.94369856,-30.487230426500002 149.94353158399997,-30.487017417500002 149.94343456,-30.486808423 149.94340358400001,-30.486670431499999 149.943408576,-30.486466432 149.943449536,-30.486260416 149.943517536,-30.486058433 149.943688544,-30.485658426 149.94371753600001,-30.485519417 149.943710528,-30.4853834235 149.943652544,-30.485175428 149.943539552,-30.484965416 149.943360544,-30.484752425500002 149.94298652799998,-30.484448415 149.94252454399998,-30.484157447 149.94214358399998,-30.483906439 149.94169356800001,-30.483558435500004 149.94154358399999,-30.483438444500003 149.94131856000001,-30.483257440500001 149.94128256,-30.483215445500004 149.941143584,-30.48304445 149.941019584,-30.482833439 149.94096156800001,-30.482694448499998 149.94092256,-30.482556438499998 149.94091257599996,-30.482347444 149.940909568,-30.482143444499997 149.940863584,-30.482004435500002 149.94080156800001,-30.481865445 149.94076358399997,-30.481658448499999 149.94076556799999,-30.481314441 149.940758528,-30.479456449 149.940680544,-30.478835441 149.94058355199999,-30.478558440500002 149.940320544,-30.477993469 149.939523552,-30.476850465 149.93907753600001,-30.476007457 149.93863955200001,-30.475161452 149.93818553599999,-30.474451459 149.93783155200001,-30.473888485500002 149.93770464,-30.473606434500006 149.93762755200001,-30.473258486499997 149.93761052799999,-30.472910483 149.93762153599999,-30.472426486 149.93760652799998,-30.471870487 149.937608544,-30.471522483499996 149.937677536,-30.470134484 149.93766454399997,-30.469793473500005 149.93757753599999,-30.468814472 149.93761852799997,-30.468471482 149.93769552000001,-30.46806648 149.93782451199999,-30.467107477 149.93786352000001,-30.466984470500002 149.93788249599999,-30.466935482500002 149.93803251200001,-30.466562485499999 149.93836851200001,-30.465961476 149.93855049599998,-30.465478478 149.938643488,-30.465002454499999 149.93868147200001,-30.464520455500001 149.93870547200001,-30.4627894845 149.93878348800001,-30.462309483499997 149.93891648,-30.461838455 149.93916448,-30.461087466 149.93936243199997,-30.460332462499998 149.93951145599999,-30.459784455499999 149.93975145600001,-30.459165464 149.94004643199997,-30.45849347 149.94042441600001,-30.457751453499998 149.940519424,-30.457552467500001 149.9406584,-30.457350466 149.941172416,-30.456761463 149.94168339199999,-30.456097461 149.942589376,-30.454975436 149.94291033600001,-30.454509439499997 149.94361635199999,-30.453793434 149.94410035199999,-30.453421436 149.94435232,-30.4532394515 149.94597328,-30.451891430500002 149.94610729600001,-30.451693425 149.94617129599996,-30.451492422500003 149.94620128,-30.451081426499996 149.94618329599996,-30.450875429 149.94607228800001,-30.450325424 149.94596028799998,-30.450047424499996 149.94587929599999,-30.449906417499999 149.94531628799999,-30.449150415 149.94598128000001,-30.449035419 149.94637628800001,-30.449010425500003 149.94669312,-30.448984414499996 149.947008256,-30.448982416499998 149.94716224000001,-30.449030424 149.947391264,-30.449137428 149.94762425600001,-30.449195425499997 149.947855264,-30.449264412 149.94800726400001,-30.4493504 149.948113248,-30.449492406 149.948171296,-30.449630434500001 149.948236256,-30.449770405499997 149.948373248,-30.449981435 149.948676256,-30.450337412 149.94875225600001,-30.450385401 149.94898422399999,-30.450453407 149.94917420799996,-30.450473405500006 149.94921820799999,-30.450475403499997 149.94937721599996,-30.450459401 149.94953820800001,-30.4503984065 149.94978422400001,-30.450243413500004 149.94998921600001,-30.450151413 149.95065024,-30.449842389 149.95092118400001,-30.449687396 149.95117619199999,-30.449573380500002 149.95133920000001,-30.449489390500002 149.95143817600001,-30.449416389500001 149.95199120000001,-30.449790385499998 149.952645184,-30.450232387499998 149.952878016,-30.450404992500001 149.953174144,-30.450600371 149.95346416000001,-30.450817376 149.953751168,-30.451079373 149.95469299199999,-30.451951000499999 149.95482201600001,-30.452080001 149.95504416,-30.452302371 149.95540816,-30.452727353 149.95595113600001,-30.453430353 149.95619712000001,-30.453846344 149.95625500799997,-30.453954994500002 149.95657113600001,-30.454547346 149.956855136,-30.455173349 149.95711699200001,-30.455738006 149.95757913599996,-30.456654329500001 149.95787113599999,-30.457168333499997 149.95811011200001,-30.457369336 149.958284128,-30.457470327500001 149.95853811200001,-30.4575453265 149.958858112,-30.4576063395 149.95888201599999,-30.4576090035 149.96145500799997,-30.457963001 149.964028,-30.458315999499998 149.96660099199997,-30.4586692755 149.96907401600001,-30.4592099935 149.9716,-30.459761996499996 149.97412499199999,-30.460314998499999 149.97884880000001,-30.461347187499996 149.979178816,-30.461415175 149.97948300799999,-30.461478001 149.98040979199999,-30.461629183 149.980878784,-30.461701166499996 149.98174076800001,-30.461804156 149.98213776,-30.461855160500001 149.98378374399996,-30.462109147 149.98447174399996,-30.462253151 149.984949696,-30.462370145 149.98637769599998,-30.46269112 149.98708368000001,-30.462810130499999 149.98732966399999,-30.462846131500001 149.987436672,-30.4628521255 149.989946016,-30.463181999 149.99252201600001,-30.463520993 149.99360358399997,-30.463663091500003 149.99509900800001,-30.463853993 149.997676,-30.464183996 150.000253472,-30.464513037 150.00113644800001,-30.464626035 150.001244,-30.464653008 150.00174646400001,-30.464715038499996 150.002458464,-30.464797012 150.00316140800001,-30.464881020499998 150.003460416,-30.464927011499999 150.00411699200001,-30.465018993499999 150.005032992,-30.465141001 150.00701238400001,-30.465404996 150.00760700800001,-30.4654890045 150.00922131199999,-30.465717979 150.01017900799999,-30.465848996 150.01109331200001,-30.465973963500002 150.01275100799998,-30.466208007 150.01285228799998,-30.466221956 150.015324,-30.4665600065 150.01589321599999,-30.466637947 150.018164192,-30.466961919 150.01936217599999,-30.467132914500002 150.019985152,-30.467220900500003 150.02071315200001,-30.467315898 150.02216512000001,-30.467496883499997 150.02423708800001,-30.467775863500005 150.02676208,-30.468093841499996 150.027740064,-30.468212852 150.02823904,-30.468303853499997 150.02854704000001,-30.468341852499996 150.02895804799999,-30.468391839500001 150.03011104000001,-30.468533827 150.03078499200001,-30.468621998 150.032016,-30.468789811500002 150.03312697600001,-30.468949818 150.03515193600001,-30.469231795 150.03852592000001,-30.469685766499996 150.040476864,-30.469970759 150.041083872,-30.470054730499999 150.04294784000001,-30.470302723 150.04590982399998,-30.470721711 150.04674179200001,-30.470832711 150.047947776,-30.4709816915 150.049636736,-30.471199677 150.05014473599999,-30.471268663500002 150.05221299199997,-30.471536007 150.054284,-30.471803998 150.054788992,-30.471872004 150.05528268800001,-30.471937642 150.05645164800001,-30.472104623 150.05714966400001,-30.472199620499996 150.057378656,-30.472226630499996 150.058331616,-30.472345622499997 150.058872608,-30.472421602 150.05926,-30.472482004499998 150.059604992,-30.472521002500006 150.05995001599999,-30.472585993 150.06012057599997,-30.472617609500002 150.0603696,-30.472670612 150.06049059200001,-30.472699601499997 150.06072259199996,-30.472766608500002 150.060818592,-30.472796615499998 150.06119158399997,-30.472928613 150.06141257600001,-30.472995601500003 150.0615536,-30.473046606 150.061752576,-30.473134610500004 150.06180259199999,-30.47315361 150.06219657599999,-30.473332597500001 150.06233257599999,-30.473405598500001 150.06249100799997,-30.473501003 150.062676544,-30.473606582499997 150.06314099199997,-30.4738599955 150.06364656,-30.474115591500002 150.06382099199999,-30.474207 150.06406099200001,-30.474335001500002 150.06444256,-30.4745326 150.06457699200001,-30.4745999955 150.06499356800001,-30.474810581 150.06563651199997,-30.475121566 150.066109536,-30.4753635645 150.06647801599999,-30.475536003 150.06662752,-30.475612574500001 150.06677699199997,-30.475697008500003 150.067108512,-30.475879566500002 150.06809449599999,-30.4764455555 150.06833049599999,-30.476566545500003 150.06857049600001,-30.476679562 150.068807488,-30.476797555 150.07033248,-30.477590557500001 150.07102201599997,-30.477925000500001 150.071207456,-30.4780195355 150.071288,-30.4780650085 150.07170444799999,-30.478297535 150.07176646400001,-30.478333536 150.07191244800001,-30.478410533 150.07221046399999,-30.478556535 150.07252947200001,-30.4787215365 150.07315945600001,-30.479057533500001 150.073715424,-30.479336513500002 150.07422944000001,-30.479606521 150.07470544,-30.479869517 150.07570441600001,-30.480432509 150.07623139200001,-30.48071752 150.07657939200001,-30.480893492 150.07728038400001,-30.481234502499998 150.07774038400001,-30.481464494500003 150.07831238399999,-30.481757497500002 150.078892352,-30.482060490499997 150.079726368,-30.482510484500001 150.08067936,-30.483004471499999 150.08130537599999,-30.483340487 150.081434368,-30.483403479499998 150.08182332800001,-30.483607479 150.08195232,-30.483684457499997 150.082279328,-30.483910453500002 150.082403008,-30.484012999 150.08254332800001,-30.484154468500005 150.08270432,-30.484357469 150.082772992,-30.484457998 150.08282700800001,-30.484561006 150.08288832,-30.484704455 150.082899328,-30.484777456 150.082899328,-30.484784467500003 150.08292332799999,-30.484932467500002 150.08293932800001,-30.484997458 150.08295932799999,-30.48505947 150.08301232,-30.485272460499999 150.08303932800001,-30.485424456500002 150.08307132799999,-30.485572456500002 150.08315232,-30.485886457 150.08321632,-30.486172467 150.08323932799999,-30.486302466499996 150.08338700799999,-30.486996993499996 150.08341536,-30.487133468 150.08349536,-30.487476458 150.083664352,-30.488159459499997 150.083868,-30.489044999 150.083944352,-30.4893594435 150.084016,-30.489694996500003 150.084048352,-30.489865437 150.08406736000001,-30.489995436500003 150.08410035200001,-30.4900644415 150.08412835199999,-30.490133446500003 150.08416937600001,-30.490198437 150.084206016,-30.4902450015 150.08429737599999,-30.490332451 150.08440137599996,-30.490412445 150.08445536,-30.490445449 150.08458736,-30.490511438499997 150.08470835200001,-30.490562443 150.08504636799998,-30.490496435 150.085309344,-30.490455439 150.08619334399998,-30.49030644 150.08638134399999,-30.490271438 150.08694931199997,-30.4901564235 150.08742,-30.490050992 150.08760428799999,-30.490016434 150.087792288,-30.489985428 150.088289312,-30.489891429499998 150.08902700799996,-30.489738009 150.089524,-30.489639996 150.089796992,-30.489591008 150.090359264,-30.489487408 150.09061324800001,-30.4894423975 150.09129024000001,-30.489302408 150.09229100799999,-30.489106992500002 150.092904,-30.489001006 150.0931512,-30.4889584005 150.093589216,-30.488878406499996 150.094566176,-30.488708391500001 150.09468716800001,-30.488684397 150.09484899199998,-30.488670004 150.09516617599999,-30.488651393 150.095416,-30.488659995499997 150.09606601600001,-30.488672002 150.096171008,-30.488674 150.09677814400001,-30.4886803825 150.09826112,-30.488719362 150.09877500799999,-30.488729000500001 150.098886112,-30.488731368499998 150.10008608000001,-30.488746372 150.100652064,-30.48875836 150.10111408,-30.4887793575 150.101352064,-30.488802353 150.101631072,-30.488822351500001 150.101768064,-30.488834358 150.10203401599998,-30.488875002500002 150.102296032,-30.488920346 150.102700032,-30.488995345 150.10356505599998,-30.489167358 150.10432601599999,-30.48930633 150.10528700799998,-30.489500339500001 150.10584,-30.489605327 150.10640598399999,-30.48970334 150.10683798400001,-30.489792325 150.10692899200001,-30.489815339 150.10702499199999,-30.489833321 150.10711699199999,-30.489856316499999 150.107652992,-30.489960305 150.10833494400001,-30.490088306499999 150.108742944,-30.490170317 150.11060992,-30.490522298 150.111692,-30.490730996500002 150.11377987200001,-30.491124269500002 150.114336896,-30.491236268499996 150.114468,-30.491265998 150.11518486399999,-30.491426282 150.11542985599999,-30.491467278 150.115550848,-30.491494269500002 150.11579584,-30.491571285 150.11590784000001,-30.491601273499999 150.116024864,-30.49162327 150.116406848,-30.491716251 150.116972,-30.491880993500001 150.11719299199999,-30.4919450035 150.117620832,-30.492078259 150.117778816,-30.492108266 150.11786582400001,-30.492115259 150.11795382400001,-30.492127265499999 150.11822380800001,-30.492176253499998 150.11865177600001,-30.49227225 150.119071776,-30.492376238499997 150.119341792,-30.492436234 150.119608992,-30.492487997 150.1197288,-30.492507237 150.11997478399999,-30.492537244 150.1203488,-30.492609246 150.120814752,-30.492659233 150.12091875199999,-30.492674236500001 150.12158876800001,-30.492743241499998 150.12184275199999,-30.492777244500001 150.122030752,-30.492786217 150.12230576,-30.492784219 150.12256,-30.492793006500001 150.12266771200001,-30.492803218499997 150.12268873599999,-30.492805216500003 150.12275772800001,-30.492815225 150.12284972800001,-30.492489218 150.12284672000001,-30.491920213500002 150.12291372799999,-30.491766219499997 150.123031712,-30.491690221500001 150.12326572800001,-30.491633223 150.123717728,-30.491593226 150.12418569600001,-30.491455216 150.12446569599999,-30.491320221500001 150.12475776,-30.491077224 150.12494169600001,-30.490790215 150.12504768,-30.490629228 150.12517068799997,-30.490512215500001 150.12514768,-30.490457215 150.12518076800001,-30.490414202500002 150.12521564799999,-30.490229221 150.12521766399999,-30.489885213500003 150.125302656,-30.48962823 150.12540265600001,-30.4894712205 150.12583465599999,-30.489087216 150.126259648,-30.488792215 150.12651561600001,-30.488562223 150.12669763199997,-30.488448226 150.12684662399997,-30.488377204500001 150.12714457600001,-30.488307219 150.12828259199998,-30.488314212 150.128464608,-30.488358205 150.1290416,-30.488419199500001 150.12932460799999,-30.488105199 150.12935859199999,-30.487905195500005 150.129163584,-30.487575211 150.1290016,-30.487145197 150.128970592,-30.486959198 150.128972608,-30.486658203 150.12902358400001,-30.48642921 150.12956156800001,-30.485087201500001 150.12969769599997,-30.484687231500001 150.12969756800001,-30.484601206500006 150.130252544,-30.483273202500001 150.130352544,-30.4831301975 150.13043654399999,-30.482888199 150.13057052799999,-30.482631197 150.13090352,-30.482275201500002 150.13145049600001,-30.481920205 150.13166550400001,-30.481864205500003 150.13191350400001,-30.481894194 150.13204550399999,-30.481881207 150.13214550399996,-30.481795200500002 150.13219651200001,-30.481595197 150.13242950399999,-30.4812672105 150.13261251200001,-30.4811112 150.13284451199999,-30.480969194 150.13319145599996,-30.480871181 150.133389472,-30.48087218 150.13355347199999,-30.480959185499998 150.13401545599999,-30.481105187499999 150.134541472,-30.481237185 150.13475545599997,-30.481410178499999 150.135100448,-30.481555181500003 150.13544761599999,-30.481599156 150.13615542400001,-30.481761160499996 150.13636844800001,-30.481920168 150.13646742399999,-30.481949157500001 150.13668144,-30.481950175 150.13699539199999,-30.481866166500001 150.13752640000001,-30.481597158 150.13797340799999,-30.481328168 150.13863737599996,-30.480788171500002 150.13872137600001,-30.480659171 150.13880537599997,-30.48037416 150.138825376,-30.480001163 150.138893376,-30.479701167 150.13905936,-30.479531170499996 150.13929136,-30.479432158500003 150.13940832,-30.479332147500003 150.13952537599999,-30.47903217 150.13960838400001,-30.478975171499997 150.139790336,-30.478991174 150.14008835199999,-30.478835163499998 150.140319328,-30.478836144 150.140796352,-30.478968141499998 150.14109334400001,-30.478998148500001 150.14137334399999,-30.479086153 150.14155532800001,-30.479087152 150.141785312,-30.479131145 150.142066304,-30.479075145500001 150.14218230399999,-30.479004142499999 150.14226531200001,-30.478919153499998 150.14233331200001,-30.478762144 150.14236832,-30.478476152499997 150.14235331200001,-30.478232156 150.142257312,-30.477845154499999 150.142143296,-30.477702149499997 150.14186432,-30.477485144500001 150.14181529599998,-30.477385152 150.14181635200001,-30.477284105 150.14190025600001,-30.477127132499998 150.14234726399999,-30.476801144 150.14264528000001,-30.47673114 150.14330528,-30.4767061465 150.14360326400001,-30.476579144 150.144068256,-30.476238133500001 150.14435024,-30.475939136500003 150.14450124800001,-30.475682134500001 150.14458723199999,-30.475282127500002 150.14458825599999,-30.475082124 150.14449123200001,-30.474824123 150.14447625599999,-30.474623120499999 150.14474620799999,-30.473837129499998 150.14473721600001,-30.473690128499996 150.1447312,-30.473594132 150.1447672,-30.4732791325 150.1449512,-30.472879125500004 150.14495222400001,-30.472794136499996 150.14449820799999,-30.471732144 150.14446521599999,-30.471703154500002 150.1442712,-30.471158144500002 150.144222208,-30.471100147 150.14420620800001,-30.4710001545 150.143929216,-30.470526147499996 150.14360220799998,-30.470095153 150.1435552,-30.4697801535 150.14360620799997,-30.46958015 150.14389017600001,-30.469138148 150.14399116800001,-30.4688951505 150.144043168,-30.468595154500001 150.14404716799999,-30.4680791525 150.14408118399999,-30.467894152500001 150.144231168,-30.467737143 150.144413184,-30.467623146 150.14449715200001,-30.467466155 150.14449715200001,-30.467395152 150.14443216000001,-30.467266151499999 150.14410614400001,-30.466734147 150.14409113599999,-30.466591142 150.14430828799999,-30.466277104499998 150.14472816,-30.465220144 150.144912,-30.464949156 150.14609212799996,-30.463840136499996 150.146424096,-30.463441128500001 150.14643408,-30.463314126 150.14636108799999,-30.463026136499998 150.146381088,-30.462639135 150.14634908799999,-30.462510134499997 150.14631609599999,-30.462481126499998 150.14633609599997,-30.461952137499999 150.146224096,-30.461551131500002 150.14622707199999,-30.461193138 150.14598307200001,-30.460733154 150.14596809599999,-30.460561141 150.14606806399999,-30.460290134500003 150.146054048,-30.460075146 150.14582505600001,-30.459773152 150.14541609599999,-30.459356143500003 150.14453008,-30.458607152500001 150.14377708800001,-30.457887151 150.14372809599996,-30.457772155 150.14373008000001,-30.457586156 150.143780096,-30.457457155499998 150.14396409599999,-30.457172144499999 150.14403107199999,-30.456972141 150.144033248,-30.456829173 150.143856064,-30.456212142499997 150.143858048,-30.455898142 150.14397606399996,-30.455583142499997 150.144276064,-30.45511315 150.14441017600001,-30.454827121499996 150.144445056,-30.454670149 150.14443004799998,-30.454355149500003 150.144398048,-30.454326141500005 150.14434905600001,-30.4541691505 150.14411904,-30.453797152500002 150.14384304000001,-30.453435163 150.14361404799999,-30.453205171 150.14271104,-30.452656165 150.14223606399997,-30.452224171499996 150.14179305600001,-30.451907174 150.14149804799996,-30.451619166 150.14126304000001,-30.451228187 150.14109104,-30.450944193499996 150.14096604799997,-30.450598188 150.14091504000001,-30.450170190500003 150.14078704,-30.449654188500002 150.140772064,-30.449439181500004 150.14077504,-30.4491101775 150.14080905599999,-30.448967191 150.141010048,-30.448539193499997 150.141010048,-30.448467191500004 150.14091206399999,-30.448366181500003 150.14091305599999,-30.448281192500001 150.14102905600001,-30.448181181500004 150.14132700799999,-30.448068183500006 150.14157500799999,-30.448041192 150.14164102399999,-30.447998179500001 150.14183900800001,-30.447957165 150.14212003199998,-30.447930173499998 150.14269302400001,-30.447684160499996 150.142732032,-30.447718163499999 150.142896,-30.447762175 150.14309398399999,-30.447763174 150.14332585599999,-30.447664199 150.14347596799996,-30.447522174499998 150.14362598400001,-30.447208174 150.143641984,-30.447087165500001 150.14366099200001,-30.446936168500002 150.143712,-30.446794162499998 150.144225952,-30.446396172 150.14450995199999,-30.445996165 150.14454294399999,-30.445896172499999 150.14454496,-30.445682164499999 150.14451196799996,-30.445653175 150.14448195200001,-30.445280159500005 150.14450896,-30.445169159499997 150.14476694399997,-30.444667162 150.14520092800001,-30.443939168500002 150.14551792,-30.443469157500001 150.146316896,-30.4425571445 150.14664988799998,-30.442115142500001 150.146967872,-30.441587152499999 150.147251872,-30.441031153499999 150.14754585599999,-30.440392145 150.147553856,-30.440374144500002 150.14757286400001,-30.440102139 150.14742684800001,-30.43975815 150.147329856,-30.4394421515 150.147282848,-30.439113147500002 150.14715372800001,-30.4387251285 150.14715584000001,-30.438425151 150.14720681599999,-30.438282146 150.14745683199999,-30.437912146 150.147540832,-30.437726147 150.14755782399999,-30.437583142 150.14762569600001,-30.437411129 150.14774182400001,-30.437241151 150.14789184,-30.437112150499999 150.14830480000001,-30.4369721425 150.1485368,-30.436830155 150.148835808,-30.436574152 150.148835808,-30.436545144 150.14943379199997,-30.435976139499999 150.14965075200001,-30.435705151499999 150.14965177600001,-30.435576151 150.149602816,-30.435504112 150.14947177600001,-30.435404156500002 150.14886278399999,-30.435114150499999 150.14864979199999,-30.434927152500002 150.14861779200001,-30.434855150499999 150.14861878400001,-30.434655147 150.14871980800001,-30.434369155500004 150.14888675200001,-30.434126139499998 150.149635776,-30.433186154499996 150.14996774400001,-30.432902142500001 150.15010172800001,-30.432702139 150.150205728,-30.431987151 150.15022572800001,-30.431500138499999 150.150161728,-30.431242156 150.150163744,-30.431027149 150.15098070400001,-30.429772146 150.15119868799999,-30.429359152 150.151265696,-30.429144145 150.15128371200001,-30.428930155500005 150.15123670400001,-30.428643146499997 150.15105868800001,-30.428184143 150.15104467200001,-30.427812145 150.15133465599999,-30.426511151 150.15150265599999,-30.426197150500002 150.15175811199998,-30.425874029499997 150.15196188799999,-30.425102006 150.15219696,-30.424501977 150.15238416,-30.424246011 150.152590624,-30.423956153 150.153387616,-30.423287156 150.15348761600001,-30.423102156 150.15351888000001,-30.422852017500006 150.153449056,-30.422463036500002 150.15346812799999,-30.422133995499998 150.15365100799997,-30.421877049 150.15414995199998,-30.4214769865 150.15472256000001,-30.421076128500001 150.15521955200001,-30.420779129500001 150.15536953599999,-30.420593130500002 150.15540953600001,-30.42032612 150.15535555199997,-30.420264126500001 150.15525955199999,-30.419848135500001 150.15526054399999,-30.419779130499997 150.15526153600001,-30.419591133499999 150.155312544,-30.419348136 150.15528252799996,-30.418990124 150.155299552,-30.4189321265 150.15539852800001,-30.418861123499997 150.15553155199999,-30.418805124 150.155828512,-30.4187491245 150.155894496,-30.418692126 150.15597849599999,-30.418507126 150.15604752,-30.418149132499998 150.156049696,-30.417834151499996 150.15596950400001,-30.417519133500001 150.15597049600001,-30.417390133 150.156054496,-30.417176125 150.15652051199999,-30.416549123 150.15678646399996,-30.416321129 150.15701747200001,-30.416208131 150.15726547200001,-30.416167135 150.15786048000001,-30.415998137500001 150.15830144,-30.415762133 150.15845744000001,-30.415615132 150.15864044799997,-30.41535813 150.15864044799997,-30.415315136 150.159224448,-30.414402124 150.15942441600001,-30.414074137500002 150.1595264,-30.413774123 150.15952656,-30.413702158 150.15967142400001,-30.4134121335 150.1600584,-30.413076136500003 150.1602584,-30.41286211 150.16045836800001,-30.412506114500001 150.16049337600001,-30.412305112 150.16057737599999,-30.412091104 150.160655392,-30.412016105 150.16095836799997,-30.411792107 150.161091392,-30.411607107 150.161225376,-30.411350105 150.16136537599999,-30.411231113 150.161441376,-30.411165105 150.16175536,-30.411067110499999 150.16220233600001,-30.410855119 150.16235148800001,-30.410726137 150.162485344,-30.410498106 150.16253536,-30.410312107 150.16253724800001,-30.410155079 150.16227734399996,-30.409524118 150.16228035199998,-30.409223104500001 150.16236336,-30.409109107499997 150.16279536,-30.408711117 150.163194304,-30.408198112 150.16367632000001,-30.4076711025 150.16410928,-30.4070721095 150.16435827199999,-30.406859119 150.16449129599999,-30.406702109499999 150.16465945600001,-30.406287154500003 150.16467728000001,-30.406087114 150.16461804799999,-30.405978001 150.164453888,-30.4058480385 150.16422492800001,-30.405717983500001 150.16406112000001,-30.405573998 150.16397904,-30.405429994 150.163914976,-30.405185997500002 150.16391785600001,-30.404771005499999 150.16396896000001,-30.404628981 150.16428505600001,-30.404143985 150.16433616,-30.403971990499997 150.16430483199997,-30.403643042 150.164376256,-30.403577108 150.16436726399999,-30.403395105 150.16443424,-30.403252118499999 150.16466624,-30.403053114 150.16496425599999,-30.402897103500003 150.16510115200001,-30.402858142500001 150.16508224,-30.402468107 150.16503526400001,-30.402139103 150.16498624,-30.40209511 150.16499824,-30.402009103499996 150.164891264,-30.401666113499996 150.164766208,-30.400591115499999 150.16470220799999,-30.400391112 150.16467123199999,-30.400161101500004 150.16467222399999,-30.399975102500004 150.164891232,-30.399390114 150.165028224,-30.398660104 150.165128224,-30.39843211 150.16524521599999,-30.3983041085 150.165712192,-30.3975191165 150.16601120000001,-30.397277118 150.16627718399999,-30.396921104 150.16660614400001,-30.396121108500001 150.166747168,-30.395779117500002 150.166781152,-30.395592119500002 150.166771168,-30.395433112 150.16675116799999,-30.395134115 150.16680323200001,-30.394905122 150.16691520000001,-30.3946711155 150.16720412800001,-30.394063094499998 150.167243872,-30.394010961500001 150.16741308799999,-30.393511017499996 150.16746384000001,-30.39326802 150.16753116799998,-30.393097024500001 150.16758409600001,-30.393052014 150.16756211200001,-30.393014033500002 150.16741811200001,-30.392838006 150.16740409600001,-30.392495016 150.16747212800001,-30.392195038500002 150.16758912,-30.391980031500001 150.167574016,-30.391679961499996 150.16764096,-30.391550998 150.16794012799997,-30.391266967499998 150.16812300800001,-30.391038992 150.16822416,-30.390795994499996 150.168224896,-30.390595029 150.16804704,-30.390164996499998 150.16803193600001,-30.389993002 150.168132,-30.389822006499998 150.16829795199999,-30.389694023500002 150.16897584,-30.389310981 150.16925808,-30.389084004500003 150.169500064,-30.388951100499998 150.16962313600001,-30.388827964500006 150.16962384000001,-30.388670992 150.16941289600001,-30.388239997499998 150.169349152,-30.3878960085 150.16936896000001,-30.387410013500002 150.169608,-30.386294001 150.16960908799999,-30.386094034500005 150.16964403200001,-30.386049098 150.16931302399996,-30.385119103 150.16926601599999,-30.384799108500005 150.16938304000001,-30.384542106499996 150.169466016,-30.384428109499996 150.169534016,-30.3842141015 150.169536032,-30.383870112499999 150.169488032,-30.383684113499999 150.16926003200001,-30.383296113 150.16922803200001,-30.383196102 150.169229024,-30.383038112 150.169330016,-30.382753119500006 150.169392,-30.382671109 150.169496,-30.382582105500003 150.16996,-30.3823271015 150.170456992,-30.3819431155 150.17054,-30.381829118499997 150.170624,-30.381572116499996 150.17064195200001,-30.381357109499998 150.17069296,-30.381186114 150.17115097600001,-30.380714105 150.17137497599998,-30.3804021025 150.17163996799999,-30.380131114500003 150.17180688,-30.379874131 150.17192592000001,-30.379584106500005 150.172763936,-30.379837094 150.17287894399999,-30.379837094 150.17337388799999,-30.379726094 150.17402390399999,-30.379381087499997 150.174019904,-30.379328085 150.17410390399999,-30.379114095499997 150.17435289599999,-30.378886083 150.17463491199996,-30.378673092500001 150.17508086399999,-30.378489091500001 150.17524688,-30.378304091500002 150.17541286400001,-30.37817609 150.17566086400001,-30.378049087500006 150.17600883200001,-30.377764095 150.17620883199999,-30.377508073499996 150.17649084799996,-30.377252070500003 150.176970848,-30.376911078500001 150.17702083200001,-30.376882070500002 150.17709782399999,-30.376889082 150.177799808,-30.376271071 150.178543808,-30.375931078 150.17884278400001,-30.375718069 150.17909177600001,-30.3754760705 150.17963878399999,-30.375050071 150.17995372799999,-30.374751074 150.18048675199998,-30.374316046499999 150.180783744,-30.373954057 150.18101574400001,-30.373740049 150.18121472000001,-30.373428046499999 150.18120672000001,-30.373366053 150.18115872000001,-30.373338062499997 150.18123872,-30.372894062500002 150.18141971200001,-30.372522046 150.18155171199999,-30.372292054 150.18214467199999,-30.3715340535 150.18239168,-30.371319046500002 150.18272067199999,-30.371118062500003 150.18283568,-30.371089054500001 150.18324768,-30.371089054500001 150.183445664,-30.371017052499997 150.18360064000001,-30.370871050499996 150.183807648,-30.370445051 150.183807648,-30.370373049 150.18383363199999,-30.370360062 150.18384764800001,-30.370146054 150.18379065599999,-30.369886055 150.18379065599999,-30.369643057499999 150.183839648,-30.369414046 150.184531456,-30.368354033 150.18486060800001,-30.367996058 150.18495862399999,-30.367839048500002 150.18525561600001,-30.367595052 150.18606259200001,-30.367094053500001 150.18652358400001,-30.366664058 150.18677059199999,-30.366506049499996 150.18733056,-30.366249029 150.18744553600001,-30.366148037500004 150.18754454399999,-30.365991028 150.18756054399998,-30.365733045500001 150.18751155199999,-30.365576036 150.18751056,-30.365318035 150.18757654399997,-30.365246033 150.18772553599996,-30.3652170435 150.18805456000001,-30.3652170435 150.188169504,-30.365117032499999 150.18838352,-30.364802033 150.18858150400001,-30.364616034 150.188630528,-30.364501038 150.188630528,-30.364401045499999 150.18853152,-30.364215028 150.18833350400001,-30.364029029 150.188350528,-30.363914033 150.18843251199999,-30.363814040499999 150.18848150400001,-30.36368504 150.18848150400001,-30.363313042 150.18855155200001,-30.363130077 150.18869555200001,-30.362926059 150.18894147200001,-30.362726037 150.18928748799996,-30.362225038499997 150.189587488,-30.362015045 150.189779488,-30.361929038499998 150.18994848,-30.361829027499997 150.189958496,-30.361823033500002 150.189949472,-30.362430037 150.19015747200001,-30.362875036 150.19011948799999,-30.363356036 150.19042649599999,-30.3640430335 150.19074448000001,-30.364599014 150.19120147199999,-30.365117014 150.19190649599997,-30.365730011499998 150.19205446399999,-30.36596202 150.192199456,-30.366188016 150.192614464,-30.366521996500001 150.19325145600001,-30.366962999499997 150.19406544,-30.367641006 150.19422144000001,-30.367770987 150.194755456,-30.368215986 150.19558243200001,-30.368991987 150.19687542400001,-30.369908958 150.1977944,-30.370721959 150.1985504,-30.371473947 150.19938137599999,-30.3717919435 150.1997504,-30.372709950499999 150.200164384,-30.373071921499999 150.200423392,-30.373427917 150.20095936,-30.373951929499999 150.20225936,-30.374150915499996 150.20290835200001,-30.374751906500006 150.203418336,-30.375045908499999 150.20619728,-30.374220882500001 150.20673827199997,-30.374175890500002 150.207390272,-30.373848884500003 150.20817424,-30.373765875 150.20994819200001,-30.373427861500002 150.21157916799996,-30.373116858 150.212101152,-30.373125849 150.21308416,-30.372879854499999 150.213486144,-30.372651860499996 150.214071136,-30.372764858500002 150.21569910400001,-30.372936834499999 150.21621510400001,-30.372905828500002 150.21651708799999,-30.3731668265 150.21673110399996,-30.373094824500001 150.21771808,-30.372765820499996 150.21927203199999,-30.372408807500001 150.22047001600001,-30.371472818500003 150.22099299199999,-30.371406792 150.221148992,-30.371345797500002 150.22157996799999,-30.3711768 150.22331094399999,-30.370874787499996 150.22402294400001,-30.370920797 150.22434892800001,-30.371419779 150.22479692799999,-30.372326778499996 150.225153952,-30.37260278 150.22589993599999,-30.373427769 150.226393952,-30.373973759499997 150.22674793600001,-30.374310755500002 150.22742889599996,-30.374623757 150.22841792,-30.376094747500002 150.228798912,-30.376522745 150.22932089599999,-30.376541744500003 150.22949190400001,-30.376784742 150.230284864,-30.376529738 150.23052688000001,-30.376685748500005 150.230453888,-30.3769617315 150.23087088,-30.377239749499999 150.23151488,-30.377364717 150.23227388800001,-30.377883716 150.234157856,-30.377922695499997 150.235259808,-30.378147711 150.2358568,-30.378520708 150.23740876799999,-30.3800486785 150.238544768,-30.382078665 150.2380728,-30.383003665 150.23767081599999,-30.384603674500003 150.23645584,-30.385147685500002 150.233033952,-30.387721701499999 150.230831008,-30.389160724 150.228937024,-30.390273721 150.22739107199999,-30.391035736 150.22617708799999,-30.392386735500001 150.22526112,-30.394323741 150.22508512,-30.394910746 150.22499916800001,-30.395966744499997 150.22480816000001,-30.396250738 150.22520316800001,-30.3967127385 150.22512915199999,-30.3974417495 150.22575116799999,-30.399297743499996 150.22720016,-30.400328748499998 150.22965414399999,-30.402076721 150.23132310400001,-30.402497725500005 150.23411702399997,-30.402227699499999 150.235760992,-30.402196693500002 150.23737798400001,-30.402348671 150.239200928,-30.401569673 150.23961494400001,-30.401739669499996 150.24018892799998,-30.402232639 150.24090790400001,-30.402969642 150.24190790399999,-30.403809653 150.24470886399999,-30.405354625 150.24554585600001,-30.406037608 150.246109856,-30.406909605500001 150.24639584,-30.407757608500003 150.24669385599998,-30.408313607500002 150.24708284799999,-30.408775608 150.24890684799999,-30.411639593 150.251131808,-30.413289571 150.2514688,-30.41353958 150.25276979200001,-30.413991572 150.25575971200001,-30.413847549500002 150.259862656,-30.414716513 150.26257961600001,-30.415454496500004 150.26330659199996,-30.4157544925 150.2643976,-30.416317484500002 150.267489536,-30.417915459 150.268265536,-30.418556465499996 150.27017049599999,-30.420651442500002 150.27112150399998,-30.421068451 150.27154950400001,-30.421179432500001 150.27187747199997,-30.421264421500002 150.27300444799999,-30.421497429 150.27460441599999,-30.421448404 150.274791424,-30.421665409 150.27533344,-30.421969401 150.27543139199997,-30.422045399 150.2761984,-30.422596384499997 150.27763238399999,-30.424305396 150.2776504,-30.424798384 150.27803040000001,-30.425383372500001 150.27818640000001,-30.426490375500002 150.27852038399996,-30.427164367499998 150.27910838400001,-30.427759364500002 150.279664384,-30.428141371 150.280630368,-30.428751353 150.281712352,-30.429356358499998 150.28251932800001,-30.430257327 150.28283334400001,-30.430515328 150.28323334399997,-30.430843333 150.283241344,-30.430848328 150.284852288,-30.430735311500001 150.285595296,-30.430265319 150.28627126399999,-30.430012313 150.28996220799999,-30.4288783 150.29189814399996,-30.427951283499997 150.29346009599996,-30.428206269 150.29444912,-30.429685251499997 150.29537910399998,-30.4303022635 150.29788704000001,-30.42978924 150.29858403200001,-30.4301002435 150.29929203199998,-30.432162235 150.300528,-30.432724228 150.303817952,-30.431540228 150.305260928,-30.431850195500001 150.306452928,-30.431809199499998 150.30851984,-30.430128197 150.309456832,-30.429098191 150.30987881600001,-30.428352178499999 150.31060579199996,-30.427866183500001 150.31202576000001,-30.4284221825 150.31389574399998,-30.4292141675 150.31470572799998,-30.4291841605 150.316565696,-30.42811314 150.31812064,-30.426635156499998 150.31887264,-30.426358156 150.31904464,-30.425899152500001 150.31919859199999,-30.425522141 150.31994156799999,-30.423550133499997 150.320827552,-30.422813130499996 150.32172252800001,-30.422217134499999 150.32150553599996,-30.420836128 150.322614496,-30.419724111500006 150.32296547199999,-30.419373111 150.322625472,-30.4177961155 150.32288448,-30.414714126500002 150.32202848,-30.413648156500003 150.32196547199999,-30.413040154 150.321195456,-30.412365144500001 150.32022150399999,-30.411142165 150.32083648,-30.410372158 150.321139456,-30.408696169 150.32221644800001,-30.407071166 150.32292940799999,-30.406408163 150.32402140799999,-30.4059671415 150.32495737599999,-30.406091147 150.32554236799999,-30.405665147500002 150.32689635200001,-30.404392144 150.327225312,-30.403901135499996 150.32862428799996,-30.402452123 150.32945728000001,-30.402983128500001 150.33069523200001,-30.403547119500001 150.33154025600001,-30.404901116 150.33192025599999,-30.405602099500001 150.33205024,-30.406253096 150.3325712,-30.406792093500002 150.33257123199996,-30.407405091 150.331636256,-30.408904090500002 150.3339632,-30.41000608 150.33489020799999,-30.410234055499998 150.33494819200001,-30.410309054499997 150.33582819200001,-30.411447063500002 150.336403168,-30.413347032 150.33698217599999,-30.413832046499998 150.33760713599997,-30.414169024 150.33813414400001,-30.414579021 150.338779136,-30.4150800195 150.33980512,-30.414330991500002 150.34061312,-30.4140930075 150.34122908800001,-30.4131320065 150.34141808000001,-30.412060005499999 150.341928064,-30.4120689965 150.34213104,-30.412245005500001 150.34460300800001,-30.412212982 150.345328032,-30.4134709635 150.34648,-30.413799967500001 150.34694297600001,-30.414230962 150.347641952,-30.415173944 150.34839196799999,-30.414920938 150.34930992,-30.414958937 150.34976393599996,-30.415782927 150.35013891200001,-30.416864918 150.35101593600001,-30.41725993 150.35148793600001,-30.418183912499998 150.35142793599999,-30.419522905499999 150.35165193599997,-30.420352908 150.35220492799999,-30.421327913499997 150.35241891199999,-30.422242905 150.35251891199999,-30.422476911500002 150.35255894400001,-30.423280903 150.35325596800001,-30.4246669045 150.35388992,-30.424719888500004 150.35455193600001,-30.424462886500002 150.35511891199999,-30.424997888 150.355196928,-30.426063895 150.35551491199999,-30.426974890500002 150.35568592000001,-30.4280508875 150.35628192,-30.428726896 150.35702592000001,-30.429164865 150.35752192000001,-30.4295528655 150.35790992,-30.429956868500003 150.358086912,-30.430141868500002 150.35865491199999,-30.4307348675 150.36075488,-30.431022857 150.36249686399998,-30.432462841499998 150.36279084799997,-30.433257842 150.36264988799999,-30.435172832499997 150.362423904,-30.4360948355 150.36319296,-30.441633828 150.363301952,-30.443389829500003 150.36365296,-30.443965827 150.36408198399999,-30.445718831500002 150.364036,-30.445845834 150.36386998399999,-30.446311830500001 150.36300601599999,-30.448729836 150.36277206400001,-30.449621832 150.36249606399997,-30.450682825499996 150.36107910399997,-30.453864844 150.36052412800001,-30.453856852 150.358503136,-30.454511844500001 150.357073216,-30.456029862 150.355171232,-30.45649288 150.353247264,-30.457421894499998 150.35161331200001,-30.457538907 150.35162230399999,-30.458061902 150.351069344,-30.459204906 150.34997136000001,-30.459863913 150.351134368,-30.460849907500002 150.35149536,-30.4623118885 150.35139936,-30.463208898 150.35166739199997,-30.465194891500001 150.35131340800001,-30.466207896 150.34988544000001,-30.467343907 150.34746249599999,-30.468124921499999 150.347324512,-30.468406935500003 150.346324544,-30.46947692 150.346435552,-30.473029919 150.34645456000001,-30.473210923 150.346649568,-30.473194920499999 150.35086150399997,-30.472986888 150.35220547200001,-30.472574893 150.35393641600001,-30.471466872500002 150.35496339199997,-30.471242874499996 150.35637638399999,-30.470351859 150.358148352,-30.470266833 150.35935929600001,-30.470058837500002 150.36091225600001,-30.4688028355 150.363210208,-30.468484820500002 150.36622819199997,-30.469757787 150.36758214400001,-30.470080778500002 150.36608825599998,-30.478460779 150.36419740799997,-30.4890707695 150.364096416,-30.4890977795 150.36402940799996,-30.489114781 150.363812416,-30.489124771 150.36358441600001,-30.489264779 150.36356140800001,-30.489278783500001 150.3632984,-30.489389783500002 150.363048416,-30.48948578 150.36281843200001,-30.489563776 150.36262243199999,-30.489620774499997 150.36243443199999,-30.489637776 150.36226342399999,-30.489636777 150.362134432,-30.489621773500001 150.362055424,-30.489635778 150.36197142399999,-30.489664786 150.36185942399999,-30.489721784500002 150.36175843199999,-30.489832784500003 150.36169043199996,-30.489936773 150.36161142399999,-30.490001782 150.36150643199997,-30.4900697695 150.36144544000001,-30.490091784500002 150.36136048,-30.490122772 150.36109747200001,-30.490182804500002 150.36096147199999,-30.490202803 150.36091545599996,-30.490209796 150.36079347200001,-30.490228795500002 150.36051846399999,-30.490245797 150.36030547199999,-30.4902337905 150.360110464,-30.490214791 150.359827456,-30.490176792 150.35971049599999,-30.490176792 150.35963948799997,-30.490208797 150.35950150399998,-30.490301796500002 150.35935449600001,-30.490473791 150.359131488,-30.490811804500002 150.35887049600001,-30.491106805499996 150.35858153599997,-30.4913357985 150.358201536,-30.491561794500001 150.35811452799999,-30.491607804 150.35708457600001,-30.492151815 150.35703856000001,-30.492187816 150.35658355199999,-30.492441821 150.35611456000001,-30.49273882 150.3557376,-30.492985813499999 150.35542860800001,-30.493164819500006 150.355388608,-30.493185817 150.35516960000001,-30.493300813 150.35506460799999,-30.493368819 150.3548976,-30.4934328105 150.35468060799997,-30.4934708095 150.35443862400001,-30.493476840499998 150.35421363200001,-30.493504831 150.354193632,-30.493508827 150.35404464000001,-30.493368837500004 150.35382963199999,-30.493097831 150.35375664,-30.492798834 150.35367961599999,-30.492567843 150.35343161599999,-30.492195826500001 150.353249632,-30.492067825 150.353022624,-30.491953828 150.352507616,-30.492211829 150.352045664,-30.492527846 150.35156764800001,-30.492756857500002 150.35131964799999,-30.492828859500001 150.350874656,-30.492886857 150.35041168,-30.4928728525 150.35026368000001,-30.492844843499999 150.34973568000001,-30.492638846 150.34909273599999,-30.493504868 150.34894572799999,-30.493637864499998 150.34868972800001,-30.495049877 150.34859475199997,-30.4955718545 150.34838774399998,-30.496714858500003 150.34954371200001,-30.496866854499999 150.361409536,-30.4984267745 150.36251750400001,-30.498572758 150.36256950399999,-30.498578752 150.35946371200001,-30.515741757 150.3588488,-30.519137765 150.35905577599999,-30.519166736 150.35889577599997,-30.520048742 150.356476832,-30.519737757 150.35575888,-30.523734756 150.35555987199999,-30.523668766499998 150.35474496,-30.528234751500001 150.36853673600001,-30.530076685500006 150.36612688,-30.543414686 150.36632288000001,-30.543440678499998 150.37075180799999,-30.5440256485 150.39375939199999,-30.547065476 150.39344944000001,-30.547207500499997 150.39237942400001,-30.547700507 150.39098848,-30.548231512499999 150.388653568,-30.551034521499997 150.38846960000001,-30.553495521 150.388743584,-30.554345522 150.38980556800001,-30.555037514499997 150.38998659200001,-30.556617525499998 150.3905176,-30.557688509 150.39027660799999,-30.557832494499998 150.38897264,-30.558606516 150.38826265599999,-30.559907528499998 150.38943664,-30.560789516 150.38956864,-30.5609235115 150.39018064000001,-30.561510498 150.39061264,-30.56242351 150.39168963200001,-30.562965486 150.39128064,-30.564190500500001 150.39134764799999,-30.565786477 150.39089267200001,-30.567040499499999 150.39071670399997,-30.569139509499998 150.39070169600001,-30.569320476499996 150.38044889599999,-30.567948572 150.38048089599999,-30.567769566 150.37274201599996,-30.5667416135 150.37375392000001,-30.561228613499999 150.36333312,-30.559826683500003 150.360449152,-30.5594397005 150.35972816,-30.5609107095 150.36001216,-30.562415703 150.358876224,-30.5666177005 150.359688224,-30.567889705 150.35998528,-30.570018685 150.36209824,-30.571689660499999 150.36207424,-30.571958669 150.36201324800001,-30.572618675 150.36229024,-30.573979664500001 150.3643792,-30.573604651 150.36663417599999,-30.575503639 150.368914144,-30.575780621 150.37023612799999,-30.576224621 150.36916816,-30.577543615499998 150.36872716799999,-30.579334619 150.36862816,-30.579455609 150.368240192,-30.579704619 150.368006208,-30.581757619499999 150.36640528000001,-30.582695606499996 150.36578227199999,-30.583485612 150.36570425599999,-30.583537615500003 150.36502028800001,-30.583432628 150.363888288,-30.584068639499996 150.364248288,-30.584440637500002 150.36496428800001,-30.584516617 150.36595728,-30.584538613500001 150.367284256,-30.585537613500001 150.3702672,-30.586715582500002 150.37083619200001,-30.587324584 150.37188521600001,-30.588834554 150.371989216,-30.588983553 150.37110422399999,-30.592244548 150.37096528000001,-30.592229563 150.37142528000001,-30.5933995585 150.37169328,-30.594561562 150.372440256,-30.595547538 150.37245728,-30.595570533500002 150.37406723199999,-30.596413523 150.375200224,-30.598657517499998 150.37658620799999,-30.598882496 150.3771272,-30.599394502 150.37826924800001,-30.6027045035 150.37921219199998,-30.602979506 150.38058118399996,-30.602814486 150.38438912000001,-30.602061462 150.38460912,-30.602017469 150.38394016000001,-30.605711475 150.38457814399999,-30.605331466499997 150.38525609600001,-30.604817462500002 150.38627811200001,-30.604317463 150.38679008,-30.60377545 150.389500032,-30.604593427499999 150.38967305599996,-30.604752435 150.39017004799996,-30.604731419 150.390829056,-30.605231418500001 150.39099504,-30.605356423 150.39104502399999,-30.6053304305 150.39129705600001,-30.606362434499996 150.39101305599999,-30.607189421499996 150.39047808000001,-30.608042419499998 150.39054108799999,-30.608035426500006 150.38920409599999,-30.610055441500002 150.387805184,-30.611469470499998 150.38765817599997,-30.612065466500002 150.387749184,-30.612581468499997 150.38802416,-30.612957462499999 150.3888352,-30.616303465 150.38781222399999,-30.618190483499998 150.38576531199999,-30.618954496499999 150.38529129599999,-30.619370506 150.38493734399998,-30.6198024995 150.384086336,-30.620198492 150.38323337599999,-30.620375518500001 150.38263836799999,-30.620528513500005 150.3814624,-30.620880531500003 150.37947942400001,-30.621369542 150.379112448,-30.621847545 150.378237472,-30.622592558499999 150.37742048000001,-30.623021555 150.37707948799999,-30.623426557 150.37678953599996,-30.623770564500003 150.37529856,-30.625541569499998 150.374388576,-30.626072575 150.373219616,-30.626475579 150.37146966399999,-30.626681595 150.36963468799999,-30.627890588500001 150.36901772799999,-30.628128591 150.36760176000001,-30.629115584499999 150.36710976000001,-30.629372605 150.36639379199997,-30.629610607500002 150.365571776,-30.629630606 150.363906848,-30.631362613 150.36250486399996,-30.632171618 150.360282912,-30.632478625499999 150.35885193600001,-30.632485637 150.355446016,-30.632931653500002 150.354117024,-30.633105646 150.35283008,-30.633375653499996 150.351993056,-30.63391565 150.34937312,-30.635604663 150.34914515200001,-30.636102664500001 150.349081152,-30.6370316605 150.349214176,-30.637216660500002 150.350161152,-30.638542666499998 150.35136816,-30.641207665500001 150.35227417600001,-30.642743646500005 150.35254416000001,-30.64320265 150.35253417600001,-30.64324964 150.35268617599999,-30.643557646499996 150.35409420799999,-30.646414657 150.3541912,-30.646612644 150.354776192,-30.6478806525 150.3550072,-30.648156654 150.35521020799996,-30.648747655 150.355373184,-30.649427641 150.3554912,-30.649929657 150.35464524799997,-30.654432649500002 150.35415833600001,-30.657241652499998 150.3534224,-30.661488642 150.35335139200001,-30.661357643499997 150.353285376,-30.661300645 150.35323539199996,-30.661300645 150.35316937599998,-30.661357643499997 150.35313638400001,-30.661457654499998 150.35312038399999,-30.661829652499996 150.3530544,-30.661901654499999 150.35287238399997,-30.661901654499999 150.35259139199999,-30.6617576505 150.352376384,-30.661729641500003 150.35232640000001,-30.661743646 150.3521944,-30.661872646500001 150.352095392,-30.662101658 150.35202940799999,-30.662172642499996 150.35176441600001,-30.662007659500002 150.351566432,-30.662072668499999 150.351136416,-30.662401672499996 150.35097142399999,-30.662444666499997 150.35037644799999,-30.662444666499997 150.35002944,-30.662473674499996 150.34936844800001,-30.662587671500003 150.34907046399999,-30.662544677499998 150.34869046399999,-30.6622726905 150.34855846400001,-30.662215692 150.34844249599999,-30.662215692 150.34834348800001,-30.662258686 150.34824448000001,-30.662344692500003 150.348178496,-30.662472694 150.34814547199997,-30.662673678 150.34812848000001,-30.663303677 150.34806249600001,-30.663417692500001 150.347798496,-30.663589687 150.347368512,-30.663689679499999 150.347302528,-30.663746678 150.347269504,-30.663832684500004 150.347269504,-30.664047691500002 150.34717052799999,-30.66410469 150.347021504,-30.66410469 150.346740608,-30.664032651 150.34616150399998,-30.66404771 150.34538454400001,-30.663817699500001 150.345120544,-30.663817699500001 150.34459254399999,-30.664004697499998 150.34452553599999,-30.664060697 150.34434457599997,-30.664359712500001 150.33944364800001,-30.6636647415 150.33739980799999,-30.674349768 150.33683881599998,-30.674422769 150.33637584,-30.674379775 150.33581382400001,-30.674378776 150.335548832,-30.674393779500001 150.33528483200001,-30.674450778 150.334805856,-30.674879774500003 150.33455686400001,-30.675194774 150.33432585599999,-30.675394777499999 150.33425987199999,-30.675480784 150.33394588799999,-30.675752789499999 150.33371388800001,-30.675867804 150.33353190400001,-30.675867804 150.33313590399999,-30.675738803499996 150.33285491199996,-30.675695791 150.332556896,-30.675709795499998 150.332006944,-30.675813802500002 150.33196192,-30.675794803 150.33110192000001,-30.675694810500001 150.329597952,-30.675207816500006 150.32920195200001,-30.675020818499998 150.328787968,-30.674892835499996 150.32863897600001,-30.674892835499996 150.32844096,-30.674977843 150.32824297600001,-30.675120829499999 150.328028,-30.6752208405 150.327152,-30.675435829 150.32682099199999,-30.675478841499999 150.326656,-30.675478841499999 150.32647401599999,-30.675420844 150.32630704,-30.675189853 150.325796032,-30.6753208515 150.32553203200001,-30.675463856500002 150.32526704,-30.675692849499999 150.32493606400001,-30.676064847499998 150.32478707199999,-30.6761358505 150.32462220799999,-30.676149892 150.324424064,-30.6762358615 150.32420505600001,-30.676384860499997 150.30483139200001,-30.673644973499997 150.30444441599997,-30.675682008500001 150.30423744000001,-30.675652001500001 150.295508576,-30.674373059499999 150.29424368,-30.6810680615 150.29234268799999,-30.680785067 150.2911088,-30.687361095499998 150.2912648,-30.687335084500006 150.29137379199997,-30.687278086 150.29151580800001,-30.687221087499999 150.2917248,-30.687190081500002 150.2919168,-30.687191080499996 150.292138784,-30.687199072499997 150.29235878399999,-30.687266079500002 150.29312777600001,-30.687366072 150.29118592,-30.697603084 150.290412992,-30.701673084 150.29287993599999,-30.700421078 150.29554684799996,-30.699067063 150.29579286399999,-30.698914049500001 150.295866848,-30.6988680585 150.29658982399999,-30.698596053 150.29674883199999,-30.698529064499997 150.29692083200001,-30.698410054 150.29743683199999,-30.698114054 150.29762083200001,-30.697981057499998 150.29861580799999,-30.697247033 150.30075574400001,-30.695786014 150.30236041599997,-30.694727203499998 150.30222771199999,-30.695314023499996 150.30125177599999,-30.700467013500003 150.301009792,-30.7017490265 150.300975808,-30.701928014 150.29701814399999,-30.722820082499997 150.29572928,-30.729619091500002 150.29558428799999,-30.730385084 150.28465545599997,-30.728840167499996 150.28443446399999,-30.728830159 150.28442048,-30.728859167 150.28436947200001,-30.728949169500002 150.28433145599999,-30.729075173 150.28428448,-30.7291651755 150.28417350399999,-30.729551159500005 150.28411750399999,-30.729749165 150.28387100800001,-30.731038004499997 150.283444992,-30.733264997500001 150.28332256,-30.733908187 150.28282864,-30.7365962 150.276805728,-30.735780239 150.27584883200001,-30.740835253 150.26863593599998,-30.739811296500001 150.26698710400001,-30.748427338500001 150.26616716800001,-30.752713326 150.26610118400001,-30.753071338 150.265856192,-30.7543923305 150.26525424,-30.757829334500002 150.26515728,-30.758358342 150.26431734400001,-30.7629013315 150.26390432,-30.762831327500002 150.25113548799999,-30.7606684185 150.24476256,-30.759587463500004 150.22580979200001,-30.757031577500001 150.21642390400001,-30.755764605 150.21639193600001,-30.755943611 150.18882928,-30.752180785 150.18885830400001,-30.752019779499999 150.18886499199999,-30.751984000499998 150.18904928000001,-30.750998783 150.17148051199999,-30.748427875 150.168877568,-30.748046886 150.161618688,-30.746983931500001 150.16133670400001,-30.748427949 150.16033577600001,-30.753560940499998 150.15002192,-30.752109005 150.148834752,-30.751941136 150.148796992,-30.751892999 150.148759936,-30.75183502 150.14869792,-30.751712013500001 150.14856694399998,-30.751429019 150.14852992,-30.751357017 150.14848601599996,-30.751240004500001 150.14847292799999,-30.751205021 150.14844892799999,-30.751129023 150.14840793600001,-30.750970015500002 150.148391936,-30.750894017500002 150.148368928,-30.750743020499996 150.14836092799996,-30.7506670225 150.14835392000001,-30.750519022500001 150.14835894399999,-30.750364011 150.148368928,-30.750256026500001 150.14838192,-30.750144009 150.148444,-30.749728998499997 150.14761392,-30.749608027 150.147596,-30.749605992 150.14668393599999,-30.749480025500002 150.14618297600001,-30.749415035 150.145677952,-30.749354040500005 150.14517696,-30.749286034499999 150.144955968,-30.749252031499999 150.14473897600001,-30.749214032499999 150.144517952,-30.749184044 150.144251008,-30.749157034 150.14420899199999,-30.749149042 150.144088,-30.749134038499996 150.144047008,-30.749134038499996 150.143992,-30.749140994500003 150.143504,-30.748989035499999 150.13946006399996,-30.748428078500002 150.13124819199996,-30.7472871095 150.131028192,-30.748428134 150.13043126399998,-30.751547123 150.127407296,-30.751114149 150.12707628800001,-30.751067140500002 150.11067052800001,-30.748715235500001 150.11057452799997,-30.749059243 150.11056953600001,-30.749078242499998 150.11039955199999,-30.749673239500002</coordinates></LinearRing></outerBoundaryIs></Polygon>

	</Placemark>
</kml>