<?xml version="1.0" encoding="UTF-8"?>
<kml xmlns="http://www.opengis.net/kml/2.2">
	<Placemark>
		<Style>
			<LineStyle>
				<color>ff0000ff</color>
			</LineStyle>
			<PolyStyle>
				<fill>1</fill>
				<color>330000cc</color>
			</PolyStyle>
		</Style>
			<ExtendedData><SchemaData>
		<SimpleData name="STATE_2006">1</SimpleData>
		<SimpleData name="POA_2006">2029</SimpleData>
	</SchemaData></ExtendedData>
      <Polygon><outerBoundaryIs><LinearRing><coordinates>151.25563350399997,-33.8712342205 151.25571100799999,-33.8712690005 151.25584,-33.871325 151.25597001599999,-33.871380000500004 151.2561,-33.871434002 151.25625100799999,-33.871493997500004 151.256404,-33.871551995 151.25655798400001,-33.871608993500004 151.25671299199999,-33.87166299499999 151.25686899199999,-33.871714998500003 151.25705398400001,-33.871772996 151.25724099199999,-33.871825998499993 151.257428992,-33.871877003 151.25761699200001,-33.871925991 151.25780700799999,-33.871972999500002 151.257983008,-33.8720159935 151.25815900800001,-33.872056009 151.25833699200001,-33.872096006 151.25851401599999,-33.872133006 151.25854496,-33.872139240500005 151.25869299199999,-33.872169007 151.258792992,-33.872190004499998 151.258894016,-33.872210003 151.258996,-33.872227004500004 151.259098016,-33.872243007 151.25920099199999,-33.872255994 151.25934,-33.872269998500002 151.25948,-33.872279008 151.25962,-33.872284003 151.259760992,-33.872287999 151.25978892800001,-33.8722888685 151.25990099199998,-33.872291995 151.260042016,-33.872295991 151.26018201599996,-33.872298007499992 151.26032300799997,-33.8722990065 151.26046300799999,-33.872301004500002 151.260603008,-33.872302003499996 151.260695008,-33.872304001499998 151.26078700799999,-33.8723059995 151.26088,-33.872306998500001 151.260972,-33.872308996500003 151.26102739199999,-33.872309274 151.261064,-33.872308996500003 151.261152,-33.872307997500002 151.26124,-33.872306998500001 151.26128499199999,-33.8723059995 151.26132099200001,-33.872305000499999 151.261368,-33.872302003499996 151.261416,-33.8722990065 151.261464,-33.872295991 151.26151100800001,-33.872292994 151.26155900800001,-33.872288998 151.26161401600001,-33.872285002 151.26166998400001,-33.872282005 151.26172601599998,-33.872278009 151.26178099200001,-33.872272995499998 151.261836,-33.872264004500003 151.261892,-33.872251998 151.261948,-33.8722369945 151.262004,-33.87221899399999 151.26205900799997,-33.872200993500002 151.262114016,-33.872181994 151.26213801599999,-33.872174002 151.26216201599999,-33.872168008 151.26218601599999,-33.8721609965 151.262208,-33.872152005499998 151.26222700799997,-33.872139999 151.26224300800001,-33.872123996500001 151.262256992,-33.872104997 151.26226700800001,-33.872083000499998 151.26227500799999,-33.872062003 151.262283008,-33.872026002 151.262284,-33.871996994 151.262283008,-33.871968004500005 151.26227900800001,-33.8719399955 151.26227401599999,-33.871913004 151.26226700800001,-33.871884995 151.262259008,-33.871858003500002 151.26225100799999,-33.871829994499997 151.26224201599999,-33.871801005 151.262232,-33.871771997 151.26222099200001,-33.871744006500002 151.26221100799998,-33.871714998500003 151.262202016,-33.871686009 151.262191008,-33.871647991499998 151.26218099199997,-33.871610991499999 151.262172,-33.871572992499999 151.26216300799999,-33.871534993499999 151.26215401600001,-33.8714979935 151.262144992,-33.871462991500003 151.262136,-33.871428008 151.26212700799999,-33.871394005 151.26211900800001,-33.871359003 151.262114016,-33.871324001 151.262112,-33.871293994 151.26211100800001,-33.871264005500002 151.26211100800001,-33.871232999500002 151.26211001600001,-33.871202992500002 151.262108,-33.871173004 151.26210601599999,-33.871152006500004 151.262104,-33.871132008 151.2621,-33.87111199099999 151.26209699200001,-33.871091992499998 151.26209299199999,-33.871071994 151.26214899199999,-33.870892007500004 151.26223500799998,-33.870900998499998 151.262248,-33.87087700399999 151.26226300799999,-33.870852991 151.26227900800001,-33.870829995500003 151.26229699199999,-33.870807999 151.262315008,-33.870786002500004 151.26233500800001,-33.870765005 151.26235699200001,-33.870744007500001 151.26238,-33.870724009 151.262404992,-33.870704991 151.262428992,-33.870687009 151.26247900800001,-33.870657002 151.262532,-33.870628993 151.26258899199999,-33.870604998499999 151.26264700799999,-33.870585999 151.26269100799999,-33.870569996500002 151.262688,-33.870540008 151.262696,-33.870487005500003 151.262686016,-33.870431006 151.262698016,-33.8704150035 151.262712,-33.870399001 151.26272899200001,-33.870381000500004 151.262748,-33.870363999 151.262767008,-33.870347996500001 151.262792,-33.870336008500004 151.26281900800001,-33.870326999 151.26284,-33.870321005 151.26286499199998,-33.870314992499999 151.26288499200001,-33.870310996500002 151.26290899200001,-33.870308998499993 151.262932992,-33.870308998499993 151.262956992,-33.870308998499993 151.26298,-33.870310996500002 151.263002016,-33.870312994499997 151.263023008,-33.8703159915 151.26305001599999,-33.870322004 151.263071008,-33.870327998 151.263082016,-33.870345998499999 151.26309001600001,-33.870404995 151.26318899200001,-33.870361002 151.26448499200001,-33.869920998 151.264708,-33.869896004499999 151.264794016,-33.869911008 151.26501500800001,-33.86999999299999 151.26508700799999,-33.870051996500003 151.265128,-33.870070996 151.26515699199999,-33.870068998 151.26527401600001,-33.870192004499991 151.26550601599999,-33.870428009 151.265647008,-33.870383997499999 151.26605699199999,-33.870784004500003 151.26607900799999,-33.870810996 151.266122016,-33.8707959925 151.26615900799999,-33.870859003500001 151.26619398400001,-33.870904994500002 151.26625100800001,-33.870944991500004 151.26648700800001,-33.870844999 151.26672201599999,-33.870734998 151.26697100800001,-33.870651008 151.26726099199999,-33.870454001500001 151.26759100799998,-33.870236996500005 151.267784992,-33.870051996500003 151.267976992,-33.86985399099999 151.26815398400001,-33.869649991500005 151.26846899200001,-33.869304004500002 151.268668,-33.869118005499992 151.268912992,-33.868870993500003 151.269082016,-33.868685993500002 151.269204992,-33.868568000499998 151.269336,-33.868395007 151.26950601600001,-33.868172008 151.2696,-33.867984991500002 151.26970899200001,-33.867779993 151.26984899199999,-33.867537994500005 151.26994300800001,-33.867331997 151.27004499200001,-33.867126998499998 151.270204992,-33.866791001500005 151.27030099199999,-33.866516998 151.270466016,-33.866167995499993 151.27056899199999,-33.865923999 151.27021648,-33.865503142500003 151.27004947200001,-33.865328132500004 151.26991648,-33.86511214499999 151.26962099199997,-33.864477003 151.269587008,-33.864377991 151.26955699199999,-33.864279996500002 151.26955801599999,-33.864202000500001 151.26954499199999,-33.864097993500003 151.269555008,-33.864 151.269540992,-33.863907998500004 151.26951801600001,-33.863874994500001 151.269488,-33.863854996 151.26943299199999,-33.863829003500001 151.269332,-33.863800994500004 151.26925401599999,-33.863779997 151.26986304,-33.863886261 151.270559456,-33.864001127499996 151.27236793599999,-33.864298015500005 151.27235136,-33.864239611 151.27441884800001,-33.864555517 151.27509385600001,-33.864650551499992 151.27598016,-33.864775371 151.27828131199999,-33.865098066500003 151.278186976,-33.865416988 151.27795430399999,-33.866204070500004 151.27771753600001,-33.867002253 151.27755443199999,-33.867551610500001 151.27748134399999,-33.867798067499997 151.279049152,-33.868030224 151.27886134400001,-33.869039066 151.27867116799999,-33.870057028499993 151.27840841599999,-33.871414059 151.27825392,-33.872210558 151.27823142400001,-33.872335063 151.278171488,-33.872838929 151.278044768,-33.873897776500002 151.27804044800001,-33.873916313500004 151.27803468799999,-33.873931705499999 151.27802784,-33.873943231 151.27800985600001,-33.873965190499995 151.27798787200001,-33.87398382 151.27799507200001,-33.873997584 151.278014528,-33.874023965 151.27803936000001,-33.874046017 151.27806204800001,-33.874057265 151.27809120000001,-33.874066718500004 151.27815168000001,-33.874080038500004 151.27836947200001,-33.874111044500005 151.27816646400001,-33.8750820355 151.27798105599999,-33.875973088 151.27796089599997,-33.876074967500003 151.27770688000001,-33.877528956500001 151.27766604799999,-33.877766348500003 151.277599552,-33.8781160355 151.27748953599999,-33.8781010505 151.27732656000001,-33.8780780365 151.27716556799996,-33.87805604 151.27671158399997,-33.877994065 151.27626457599999,-33.877932053 151.27597558400001,-33.877892056 151.27568256000001,-33.877852059 151.27552358400001,-33.8778270655 151.27522160000001,-33.877785070500003 151.2750776,-33.877766071 151.27493459199999,-33.877747053 151.27490460800001,-33.8777430755 151.2748416,-33.878068083500004 151.27482460799999,-33.878160065499998 151.27475859200001,-33.878152073500004 151.27394688000001,-33.878047141499998 151.27372009600001,-33.878050027500002 151.273582624,-33.878052081 151.271049248,-33.877704429 151.27044912,-33.877621974500002 151.27040768000001,-33.877673108499998 151.270337888,-33.877950479 151.27035270399998,-33.878098109 151.27044803199999,-33.879102307499998 151.27049881600001,-33.879650851 151.27048620799999,-33.879982685500003 151.27047174399999,-33.880398103 151.27033932800001,-33.881044863 151.27017977599999,-33.881377104500004 151.26979536,-33.882151496 151.26963516800001,-33.882475135 151.26932339199999,-33.8829869745 151.26928848,-33.883044472500004 151.26928345600001,-33.883052668 151.268780832,-33.883879118499998 151.26845904000001,-33.884312573500004 151.268208128,-33.884684553 151.26805548799996,-33.8848859625 151.267947488,-33.885011707 151.26786899199999,-33.88510935 151.26785209600001,-33.885112236 151.267817536,-33.885114937 151.26778297600001,-33.885113586500005 151.26774192,-33.885104669499995 151.26770089600001,-33.885091886 151.26746867199998,-33.884914674500003 151.26697152,-33.884535054499999 151.26550560000001,-33.883362265500004 151.26502790399999,-33.882979149 151.264512,-33.882567653500004 151.26378912000001,-33.881490713 151.26366851200001,-33.881310819 151.26224985600001,-33.879657178 151.26224723199999,-33.879640583499999 151.262188928,-33.8792809435 151.26198841600001,-33.878039575 151.26194016,-33.877739061 151.26166115199999,-33.877038336499993 151.26119388800001,-33.876618127500002 151.26069168000001,-33.87627153 151.260629408,-33.876223837 151.260622208,-33.876230497 151.26060672,-33.876238415 151.26058944,-33.87624237399999 151.26057145600001,-33.8762420965 151.26055452799997,-33.876237693500002 151.26054841600001,-33.876234178499999 151.26052787199998,-33.876288087500001 151.26051888000001,-33.876315449 151.260509152,-33.876352985499999 151.260495488,-33.876429575499998 151.26049116799999,-33.876468092499998 151.260486496,-33.8765407235 151.260486848,-33.876609118 151.26048864000001,-33.876635314 151.26049187199999,-33.876677253499999 151.26049081599999,-33.876745204 151.26047712,-33.876835114 151.26045769599997,-33.876901085 151.260239872,-33.877377182499998 151.260211072,-33.877458638 151.260195968,-33.877542517 151.26019344,-33.877606138499999 151.26019849599999,-33.877669593500002 151.26021187200001,-33.877732197500002 151.260240256,-33.8778136715 151.26026985600001,-33.877872187 151.260320896,-33.877945798500001 151.26036624,-33.877996821499998 151.260382816,-33.878013027500003 151.26043609600001,-33.878058482 151.26051529599999,-33.878111854499998 151.26057971200001,-33.878145783499996 151.26064704000001,-33.878163876500004 151.260689856,-33.878179194499999 151.26073164799999,-33.878197713 151.260861952,-33.878280778 151.26087852800001,-33.878294819499992 151.26092352000001,-33.878340089 151.260973568,-33.878406337500003 151.26101100799997,-33.878478154500002 151.261035136,-33.8785537455 151.26104556799999,-33.878633850500002 151.2610992,-33.878937158 151.26103043200001,-33.879356812 151.261018912,-33.879427297 151.260960256,-33.879676677 151.260592672,-33.880291469 151.26048937600001,-33.880457691499998 151.2601128,-33.8801215465 151.259596192,-33.879475619 151.259550496,-33.87905541 151.25840099199999,-33.878944613500003 151.258418656,-33.878857053 151.25841971199998,-33.878782627500001 151.25841504,-33.878745627500003 151.25840099199999,-33.878690997 151.25837075199999,-33.878621067 151.25833945599999,-33.878571653500003 151.25831497600001,-33.878540610500004 151.25782931200001,-33.877984852 151.257758048,-33.877770751500002 151.25761369599999,-33.877688667 151.25742864,-33.877599848500004 151.25732099199996,-33.877527384 151.256797568,-33.8770410375 151.256746432,-33.876982984499996 151.25670192000001,-33.876921231499999 151.25667593599999,-33.876878237500001 151.256642752,-33.876811989 151.25661683199999,-33.876743317 151.25659811200001,-33.876673017 151.25658732799997,-33.876601551500002 151.25658409600001,-33.876529568 151.256453056,-33.876469165499998 151.256318048,-33.876414627499997 151.25622588799999,-33.8763817715 151.25603833599999,-33.876324366 151.256002688,-33.876309695499998 151.25589993599999,-33.876031233500001 151.25567724800001,-33.8754287625 151.255530368,-33.875008017 151.25539932800001,-33.874197661499998 151.25539465599999,-33.874171114 151.255267936,-33.873385049 151.25470848000001,-33.872191928500001 151.25468617600001,-33.872163031499994 151.25477219199999,-33.872035418499998 151.254774016,-33.8720352335 151.254900736,-33.872017862 151.25503283199998,-33.872016789 151.25507209599999,-33.872012275 151.255097632,-33.872005522500004 151.25512140799998,-33.871996087500001 151.25514371200001,-33.871984025499998 151.25517324800001,-33.871961603500004 151.2552024,-33.871924881 151.25551884800001,-33.87141306 151.25563350399997,-33.8712342205</coordinates></LinearRing></outerBoundaryIs></Polygon>

	</Placemark>
</kml>