<?xml version="1.0" encoding="UTF-8"?>
<kml xmlns="http://www.opengis.net/kml/2.2">
	<Placemark>
		<Style>
			<LineStyle>
				<color>ff0000ff</color>
			</LineStyle>
			<PolyStyle>
				<fill>1</fill>
				<color>330000cc</color>
			</PolyStyle>
		</Style>
			<ExtendedData><SchemaData>
		<SimpleData name="STATE_2006">1</SimpleData>
		<SimpleData name="POA_2006">2721</SimpleData>
	</SchemaData></ExtendedData>
      <MultiGeometry><Polygon><outerBoundaryIs><LinearRing><coordinates>147.68214547199997,-33.924440849499994 147.682258464,-33.924615859499994 147.682505472,-33.924799860500002 147.68308246399999,-33.92489286 147.68371347199997,-33.925009854 147.68442742400001,-33.925126848 147.685306432,-33.925220846500004 147.68659740799998,-33.925522840500001 147.68766841599998,-33.925754830500004 147.68862937599999,-33.9258268325 147.68975638399999,-33.925875839 147.69069033599996,-33.925924827 147.69137635199999,-33.925949839 147.69200835199999,-33.925997828 147.69384832,-33.926369807500002 147.69492032,-33.926487819 147.69568928,-33.9265128125 147.69612828800001,-33.926559821 147.69654128,-33.926331808500002 147.69572633600001,-33.93116584 147.69536739199998,-33.93313683 147.69615836799997,-33.9332988345 147.69904233599999,-33.933719839 147.69881737599999,-33.935025828 147.702663296,-33.935518816 147.70501427199997,-33.935809821 147.70959817599999,-33.936334795500002 147.712663136,-33.936738798500002 147.711934208,-33.940679816500001 147.71062835199999,-33.947577837499999 147.71028140799999,-33.9494088565 147.70973443199998,-33.952343863 147.70980044800001,-33.9523518735 147.71012144,-33.95240088 147.71974627199998,-33.953605859 147.72722915200001,-33.954541829500002 147.726548224,-33.958153862 147.726152224,-33.960283859500002 147.724847264,-33.967314895500003 147.72481328000001,-33.9674949005 147.72347638400001,-33.974695951500003 147.72342636799999,-33.974964941499998 147.7227144,-33.978801971 147.72266441599999,-33.979070961 147.72209244800001,-33.982148991 147.73243216,-33.9834989545 147.73115420799999,-33.9898499675 147.7308632,-33.991294965500003 147.73003228799996,-33.995420946499998 147.72760134399999,-33.995115955500005 147.72349145599998,-33.994600009 147.72327145599999,-33.994572 147.72272348800001,-33.997421 147.72261552000001,-33.998252982 147.723564512,-33.998294977 147.72474646399996,-33.998320988 147.72570944,-33.998299972 147.72592844799999,-33.998312959 147.729084352,-33.99844493799999 147.73489516800001,-33.998686899500001 147.73679312,-33.998766893500004 147.73688412800001,-33.999057898499998 147.73700812800001,-33.999455889 147.74159113600001,-34.0128658175 147.74240518400001,-34.015247803500003 147.74260716799998,-34.015837805499999 147.74387824,-34.019557804 147.74567430399998,-34.02480984299999 147.74814140800001,-34.03202488 147.7482384,-34.032309872500001 147.750049472,-34.037604905500004 147.75330857599999,-34.047133959500002 147.75501456000001,-34.052387978 147.75715155200001,-34.058970000500004 147.76916534399999,-34.0609099845 147.767689408,-34.067202019500002 147.773142304,-34.067958022 147.77308131199999,-34.068222017 147.772437344,-34.071387034 147.772741344,-34.071429010500005 147.776711264,-34.071980014499999 147.77679526399999,-34.071991022 147.77699523199999,-34.071032019 147.77715024,-34.070229026500002 147.77730224000001,-34.069174027 147.77731523199998,-34.0688090035 147.777723232,-34.068865003 147.78404412800001,-34.069740996500002 147.78397612800001,-34.070076993500003 147.783213152,-34.073854027499998 147.783058176,-34.074555011 147.78087328000001,-34.085079069 147.77182742400001,-34.083863082499995 147.77144345599999,-34.085834091 147.77005254400001,-34.092983138499996 147.770000544,-34.093250130500003 147.76967952000001,-34.093205138500004 147.76959952000001,-34.093193132 147.76954553600001,-34.093507132500001 147.768965568,-34.096386158 147.767693632,-34.102703168 147.767806624,-34.102718171499994 147.76579971199999,-34.112597227 147.77097462399999,-34.1133382075 147.76989168,-34.118710237500004 147.76889872000001,-34.121474267 147.76860576000001,-34.122973266500004 147.76689580799999,-34.131704304499998 147.76540185600001,-34.13181029099999 147.765429856,-34.132079299499999 147.76066195199999,-34.132424324500001 147.760568992,-34.133042317 147.76054099199996,-34.13322132299999 147.76000300800001,-34.136771325 147.759962016,-34.137045328500001 147.75971900799999,-34.138651332 147.75920204799999,-34.142073351 147.75916003200001,-34.142347354500004 147.75903203199999,-34.142347354500004 147.75868806400001,-34.142404353 147.75799907199999,-34.142604375 147.75731008,-34.142689364 147.75655312000001,-34.142632365499999 147.75627712,-34.142431363 147.75586409599998,-34.141887370500001 147.75576211200001,-34.141629351 147.75576211200001,-34.141543344500001 147.75583110400001,-34.14148634599999 147.75583110400001,-34.141429347500001 147.756003104,-34.141229344 147.756003104,-34.14114335599999 147.756072096,-34.141086357500001 147.75614112,-34.140914344500004 147.75607312,-34.140198357499997 147.755127104,-34.139872350499999 147.75407715200001,-34.139510361 147.753663136,-34.139567359499999 147.75325014399999,-34.139939357499998 147.753249152,-34.14008234399999 147.75331814399999,-34.140139361 147.75331814399999,-34.140225349 147.75338713599999,-34.140282347499998 147.75338713599999,-34.140339346 147.75345612800001,-34.140397343499998 147.75355913600001,-34.140654345499996 147.75355814400001,-34.141170366 147.753696128,-34.141428367 147.753730144,-34.141628370500001 147.75345417599999,-34.142057367 147.75317817600001,-34.14222938 147.75297116799999,-34.142286378500003 147.752042176,-34.142113366499999 147.75190419200001,-34.142113366499999 147.75159420799997,-34.142199373 147.7504232,-34.141941372 147.749873248,-34.141511376499999 147.74897824000001,-34.14116637 147.74784326400001,-34.140536371 147.74742928000001,-34.140478373500002 147.74684326400001,-34.140764365 147.74612028799999,-34.14090737 147.74553529600001,-34.140649369 147.74546630399999,-34.140677378 147.74543228799999,-34.140649369 147.744777312,-34.140677378 147.74405433599998,-34.140905372 147.743020352,-34.141448384 147.74243436799998,-34.141963387 147.74236435199998,-34.142450381 147.74215737599999,-34.142650384499994 147.74112438399999,-34.143021383499999 147.74077939199998,-34.14310739 147.74022841600001,-34.143422389500003 147.73950441599999,-34.144137414500001 147.739399456,-34.144909401 147.73933046400001,-34.145110403499999 147.73919244800001,-34.145282416500002 147.73919244800001,-34.145339415 147.73898547199997,-34.145511409500003 147.73860646399999,-34.145682405 147.73853747199999,-34.145682405 147.73798649599999,-34.145939425500003 147.737779488,-34.14611142 147.73688348799999,-34.146654432 147.73657251200001,-34.1467974185 147.73640051199999,-34.146825427499998 147.73584953599999,-34.146796419499999 147.73481654400001,-34.146910453499999 147.73409254399999,-34.147167437 147.73357558399999,-34.147281452499996 147.7329896,-34.147538436 147.732852576,-34.147653469 147.73267958400001,-34.147910471 147.73250659199999,-34.148339467500001 147.732403616,-34.148454463500002 147.732403616,-34.148511462 147.73205862399996,-34.148826461500001 147.73164460799998,-34.148997457 147.730749664,-34.149025466 147.73047366399996,-34.149139481500001 147.730163648,-34.149425473 147.72999065600001,-34.149797489500003 147.72995564799999,-34.149940476 147.72995564799999,-34.150227485 147.73026464,-34.15082847599999 147.730298656,-34.151000489 147.730263648,-34.151086477 147.73002268799999,-34.151257491 147.729781696,-34.151286480499998 147.72957468800001,-34.151228483 147.729230688,-34.151228483 147.72860972799998,-34.151829492499999 147.72823072,-34.152114503500002 147.72788572799999,-34.1522575085 147.72750672000001,-34.152200491500004 147.72730070399999,-34.151971498500004 147.727059712,-34.151799504 147.72688774400001,-34.151770496 147.72637075200001,-34.151941491500004 147.72623273599999,-34.152084496500002 147.72623273599999,-34.152170503 147.72616374399999,-34.152256509499999 147.72616374399999,-34.152628526 147.72609376,-34.152771512500003 147.72588675200001,-34.1529435255 147.72561177599999,-34.153000524 147.72530179200001,-34.15285652 147.72516377599999,-34.152742523 147.72499276799999,-34.152513511500004 147.724923776,-34.152369526 147.724923776,-34.152255510499998 147.724820768,-34.152140514500005 147.72435779200001,-34.152157516 147.724234784,-34.152598519 147.72419881600001,-34.153227519 147.72423280000001,-34.153428521500004 147.724438816,-34.154001522 147.72430080000001,-34.154172517500001 147.723955808,-34.154315522499999 147.72388681599998,-34.154315522499999 147.72367980799999,-34.154486536500002 147.72361180799999,-34.154630540500001 147.72361081599999,-34.1550025385 147.724022816,-34.155603529499999 147.7240568,-34.155718544 147.7240568,-34.156033543500001 147.72384982400001,-34.156204539 147.72347084799998,-34.156233528499996 147.72278284799998,-34.155860531500004 147.72216284800001,-34.155745535500003 147.72188688,-34.155945539 147.721851872,-34.156088544 147.721783872,-34.156145542499999 147.72174886400001,-34.156403562 147.721851872,-34.156689553500001 147.72188588799997,-34.156890556 147.72184988800001,-34.157348560500004 147.72171187199999,-34.157491547 147.72153987199999,-34.157519556 147.72122988800001,-34.15740456 147.72095488,-34.1571755485 147.72092086399999,-34.157089560500005 147.72047392,-34.156774561 147.719715904,-34.1569165485 147.71950889600001,-34.157116552 147.71936992,-34.157374553 147.71933590399996,-34.157574556500002 147.71926691199999,-34.157660563 147.71926691199999,-34.157775559 147.719196928,-34.157946573 147.71905894400001,-34.158118567500004 147.71892092799999,-34.158490565500003 147.71891993599999,-34.158719577 147.71905795199999,-34.158977578 147.71957395199999,-34.159235579 147.71974592000001,-34.159235579 147.719986912,-34.159350575 147.72008992,-34.159436581500003 147.72019392000001,-34.159579568 147.72026192000001,-34.159808579500002 147.72026192000001,-34.160066580500001 147.719950944,-34.160380581 147.719536928,-34.160552575499992 147.71922694400001,-34.160551576499998 147.71915894399999,-34.160523567499993 147.71846896,-34.160637583 147.71808998399999,-34.160923574500003 147.71805497599999,-34.16129559099999 147.71815798399999,-34.161553592 147.71822697600001,-34.161610590500004 147.71822697600001,-34.161696597 147.71836396800001,-34.161953599 147.71836396800001,-34.162068595 147.718431968,-34.162183591 147.718431968,-34.162514593 147.71843097600001,-34.16296758399999 147.717364,-34.162611588499999 147.71660601599999,-34.162668587 147.71615699200001,-34.163068594 147.715950048,-34.163211599 147.715813024,-34.163268616 147.71557203200001,-34.163268616 147.715193024,-34.163067613500004 147.71512403200001,-34.163095604 147.71491702399996,-34.163095604 147.71481404799997,-34.163038605499999 147.714677024,-34.162866611 147.71465804799999,-34.162420613 147.71440204800001,-34.162179613500001 147.71405808,-34.16212161599999 147.71378307200001,-34.161920613500001 147.71366406399997,-34.161619618499998 147.71371507200001,-34.161462609 147.71364608,-34.161319604 147.713440064,-34.161147609499999 147.71323305600001,-34.161089612 147.71295808,-34.1608896085 147.71189011199999,-34.160745604500001 147.71151209599998,-34.1606306085 147.71134009599996,-34.16045861399999 147.711616096,-34.160000609500003 147.711616096,-34.159828615 147.711513088,-34.159742608500004 147.71114009600001,-34.15983361 147.71082409600001,-34.15997162 147.71058310399999,-34.159627612500003 147.71058310399999,-34.159570614 147.710515104,-34.159512616500002 147.710446112,-34.1593416025 147.710515104,-34.158940615 147.71058508799999,-34.158883616499999 147.71058508799999,-34.1586256155 147.71051609599999,-34.158568617 147.710379104,-34.158568617 147.71006809599999,-34.158796611 147.71006809599999,-34.158825619 147.70941414399999,-34.158796611 147.70917212800001,-34.158967606499999 147.70903414399999,-34.159139619500003 147.708758144,-34.159253616500003 147.708655136,-34.159253616500003 147.70741516799998,-34.158965627 147.70738115200001,-34.158936637499991 147.70738115200001,-34.158879639 147.70724416,-34.158707626 147.70727916800001,-34.158478633 147.70769315199999,-34.158107615500001 147.70769315199999,-34.157935602500004 147.70762416,-34.157878604 147.707486176,-34.157849614500002 147.70703916799999,-34.157848615500001 147.70655616,-34.157962631 147.7060392,-34.158219633 147.70566019200001,-34.158219633 147.70548819199999,-34.15810463699999 147.70531718399999,-34.157675622 147.705214208,-34.157589634 147.70493820799999,-34.157617624499998 147.70480019199999,-34.157731621499998 147.70483318399999,-34.158361639 147.70452323199999,-34.158647630499999 147.704316224,-34.158647630499999 147.703731232,-34.158360621499995 147.703559232,-34.158303623 147.70324921599999,-34.1582746335 147.70273225599999,-34.158273634499999 147.702560256,-34.158359622500001 147.70242227199998,-34.158359622500001 147.70221526399996,-34.15844463 147.701974272,-34.158644652 147.701974272,-34.15873064 147.70159427199999,-34.158988641 147.70135328000001,-34.159044640499999 147.70100928,-34.159044640499999 147.700930304,-34.159031653499994 147.70058428799996,-34.158862656 147.70056128,-34.158843656500004 147.70049328,-34.158700651499998 147.70045929599999,-34.15847164 147.70014928000001,-34.158213657499999 147.69959830400001,-34.158012655 147.69949529600001,-34.15786965 147.69953030400001,-34.157439654499996 147.69973728,-34.1572686405 147.70004828799998,-34.157125654 147.70011728,-34.157125654 147.70046230400001,-34.156896624 147.70049728000001,-34.156524626 147.700187296,-34.156152628 147.69980928000001,-34.1559796345 147.69974028799999,-34.156008624 147.69970528,-34.1559796345 147.69925830400001,-34.156008642499998 147.698982304,-34.155893646499997 147.69805532800001,-34.154403638 147.69798732800001,-34.154117628 147.69829728,-34.15388863499999 147.69878028799999,-34.153688631500003 147.69884928,-34.153688631500003 147.69933228799999,-34.15337463099999 147.69941526400001,-34.153093634500003 147.69943526399999,-34.1530596315 147.699161248,-34.152343626 147.69905830399998,-34.152200621 147.69874928,-34.151942638500003 147.69864528,-34.151913630500005 147.69844128,-34.151698623500003 147.697202304,-34.150394632499996 147.697190304,-34.150356633500003 147.697099296,-34.150051624 147.69675529599999,-34.149649637499998 147.69634428800001,-34.148962621500004 147.69613731199999,-34.148876633500002 147.69606832,-34.148876633500002 147.69531033600001,-34.149390637499998 147.69517132799996,-34.149819634 147.695065344,-34.150936627 147.69465235199999,-34.15119362899999 147.69430736000001,-34.15116462099999 147.69406636799999,-34.151106642 147.69375734400001,-34.1509636555 147.69324137599997,-34.150504652 147.6926224,-34.149759657 147.69258838399998,-34.149616633500003 147.692623392,-34.149301634 147.692692384,-34.149187637 147.6927624,-34.148900628 147.69324534399999,-34.148529629 147.693828352,-34.148071624499998 147.69379836799999,-34.147556621500001 147.69366035199999,-34.147384627 147.693454368,-34.147327628499994 147.69310934399999,-34.1473266295 147.692937344,-34.147269631 147.69280035200001,-34.147126626 147.69280035200001,-34.146925623500003 147.69266336,-34.146810627500003 147.6918704,-34.146924624500002 147.691733376,-34.146953632500001 147.69145737599999,-34.146924624500002 147.691285376,-34.146866627 147.69104438400001,-34.146665624500002 147.69097638400001,-34.146350625 147.69080438399999,-34.146178630499996 147.69066739199999,-34.146121632 147.69021942399999,-34.146178630499996 147.69015043199997,-34.146264637 147.68987443200001,-34.146435632500001 147.68921942399999,-34.146749651500002 147.68915043199999,-34.146749651500002 147.68908140799999,-34.14680665 147.68830544,-34.146943642499998 147.68794544,-34.146776643 147.68773846400001,-34.146604648500002 147.68760144000001,-34.14626164 147.68767046400001,-34.146003657500003 147.687671456,-34.145745656500004 147.68763744,-34.14565965 147.68753446400001,-34.145573643500001 147.68729344,-34.145544654 147.68684544000001,-34.14563064199999 147.68632848,-34.145543655 147.68615648,-34.145543655 147.68533049599998,-34.145571645499999 147.68433152,-34.145312645499999 147.68398752,-34.145311646499998 147.68343552,-34.145482642 147.683160544,-34.145625647 147.68291856,-34.145825669 147.68233254399999,-34.146283673500001 147.68209056,-34.146425661 147.681091584,-34.146624665499999 147.67971462399998,-34.146709673 147.678887616,-34.14653666099999 147.67854364799999,-34.146364666499998 147.67820064,-34.146077694500001 147.67795964800001,-34.1457336685 147.67778764799999,-34.145590663500002 147.677615648,-34.145532684500004 147.67720265599999,-34.145532684500004 147.67616966400001,-34.145301693500002 147.67610166399999,-34.145044691500004 147.67603267199999,-34.144929677 147.67603468799999,-34.144185681 147.67589766399999,-34.143812684 147.67490067200001,-34.143210694 147.67476268799996,-34.143009691499998 147.67479766400001,-34.142809688 147.67503968,-34.142551668499998 147.67500566399997,-34.142323674499991 147.67483366399998,-34.142179670499999 147.67407667200001,-34.141777665500001 147.67332070399999,-34.141175694 147.67263270399999,-34.140974691499999 147.67204672,-34.140973692500005 147.671943712,-34.141001683 147.671529728,-34.141230694500003 147.671426752,-34.141258685 147.67118572800001,-34.141258685 147.67097875199997,-34.141143689 147.670807744,-34.140857679 147.670842752,-34.140685684499999 147.67060172800001,-34.140255689 147.67032774399999,-34.139940689500001 147.670258752,-34.139797684500003 147.67025974399996,-34.139596682 147.67032873599999,-34.139511693 147.67032873599999,-34.139425686500005 147.67122569599999,-34.138338663500001 147.67122771199999,-34.137880659 147.670952704,-34.137422673 147.67067769600001,-34.137106674500004 147.67054070399999,-34.136791675 147.67040470399999,-34.136190665500003 147.67033571199997,-34.136047660500004 147.67019872,-34.135903675 147.67019872,-34.135846658 147.670129696,-34.135789659499999 147.670061696,-34.135445670500005 147.66971971199999,-34.13450067199999 147.66972070400001,-34.13398467 147.669997696,-34.133469667 147.66992969599997,-34.133097669 147.66961971199999,-34.132811659 147.66879670399999,-34.132303667500004 147.668037728,-34.132293659 147.66734774400001,-34.132636667500002 147.66679676800001,-34.132606660500002 147.66662476799999,-34.1325206725 147.66652176,-34.132434666 147.66621276800001,-34.132004670500002 147.666214784,-34.131289664 147.66642275199999,-34.130573658499991 147.666148768,-34.130201660499992 147.66601078400001,-34.130143663 147.665631776,-34.130171672 147.665114784,-34.13054367 147.6640808,-34.13102866599999 147.663873792,-34.131056693499993 147.66321884800001,-34.131513680499999 147.66266784000001,-34.131513680499999 147.662425824,-34.13156968 147.662253824,-34.131713684 147.66225184000001,-34.132714682 147.66221683200001,-34.132800688499998 147.662009856,-34.133029681499991 147.661905856,-34.13308668 147.66118288,-34.133286683500003 147.660311904,-34.133156702500003 147.65966988799997,-34.132596707499999 147.659635904,-34.132310697500003 147.65977491199999,-34.131881682500001 147.65980889599999,-34.13168068 147.65980988800001,-34.131457681 147.65980988800001,-34.131279692500001 147.65977590400001,-34.131136687500003 147.659467904,-34.130506688499999 147.659467904,-34.13019168899999 147.65926387199997,-34.129475683500004 147.65912588800001,-34.129217682499998 147.65912688,-34.129103685499999 147.65905788800001,-34.1289596815 147.658645888,-34.128444678500003 147.658508896,-34.128329682500002 147.65806188799999,-34.12812868 147.657820896,-34.127899687 147.657855904,-34.127641686 147.65916886400001,-34.125811666 147.65920387200001,-34.125668661 147.659237856,-34.125639671500004 147.65913587200001,-34.125066671 147.65889587199999,-34.124694673 147.658449856,-34.124206661500004 147.65829088000001,-34.124051668500002 147.657212864,-34.123002663 147.65717888,-34.123002663 147.65717888,-34.122916675 147.65693785600001,-34.122859658 147.656594912,-34.122543659500003 147.65645689600001,-34.122285658500005 147.656492896,-34.121741666 147.65646185599999,-34.120396660499999 147.65629088,-34.1200236635 147.65604985600001,-34.119851669 147.65560188800001,-34.119908667499992 147.65491289600001,-34.120050673500003 147.65274297600001,-34.120705684499995 147.65122700800001,-34.121218689500004 147.650709984,-34.121218689500004 147.65043500799999,-34.121160692 147.650228992,-34.121074685499998 147.65012598399997,-34.120959689500005 147.650092,-34.12064469 147.64992,-34.1204436875 147.649025024,-34.12032871 147.64881904000001,-34.120241704500003 147.64854403199999,-34.119983703500004 147.64837401599999,-34.119324678 147.64849001599998,-34.118845694499996 147.64858304,-34.118437677 147.64834403200001,-34.117492678499993 147.64827504,-34.117406690500005 147.64827504,-34.117320684 147.64820704,-34.117234677500001 147.64820704,-34.117148689499999 147.64813801599999,-34.117063682 147.64779900799999,-34.114972682500003 147.64780099199999,-34.114514678 147.648008,-34.114056692 147.648008,-34.1139706855 147.648457984,-34.113341667 147.648492992,-34.113084665 147.64842796799999,-34.111194668 147.64835996799999,-34.111022673500003 147.64832595199999,-34.110736663499999 147.64822595199999,-34.109734666500003 147.64822697599999,-34.109190674 147.64815795199999,-34.109104667499999 147.64815897599999,-34.10901866099999 147.64808995199999,-34.108932673 147.64808995199999,-34.108817658500001 147.64795296,-34.108588665500001 147.64778096,-34.108445660499996 147.646647008,-34.107813663500004 147.646647008,-34.107756665 147.646577984,-34.107698667500003 147.646544992,-34.107412676 147.646613952,-34.107241662 147.64719196799999,-34.106350646500005 147.64713596799996,-34.106282640499991 147.64716796799999,-34.105753651500002 147.64713497599999,-34.10552464 147.64706595199996,-34.105352645499998 147.64641296,-34.104893642 147.64528,-34.103975653500001 147.64507398399999,-34.103688644500004 147.64507398399999,-34.103602656499994 147.645004992,-34.10351665 147.64504,-34.103488641 147.6448,-34.103115644 147.644765984,-34.103115644 147.64466300799998,-34.103029656 147.644387008,-34.1029146415 147.643768,-34.102741648 147.643561984,-34.102569653499998 147.643563008,-34.102340642 147.643596992,-34.102254654 147.644563968,-34.101197656499998 147.64480595199998,-34.100624656 147.64473795200001,-34.100424652500003 147.64453196799997,-34.100166651500004 147.64456796799999,-34.09973765499999 147.64453296,-34.0996516485 147.644258976,-34.099364639500003 147.64429395199997,-34.098992623 147.64401996800001,-34.098419622500003 147.643538976,-34.098074634500001 147.64322995200001,-34.097731626 147.64312796799999,-34.097358629 147.64316396800001,-34.096700621 147.64319897600001,-34.096585625 147.64313097600001,-34.096070622 147.64282195199999,-34.095869638 147.64247795200001,-34.095725634 147.642065952,-34.095610638 147.64168700799999,-34.09543862499999 147.64120598400001,-34.095151634499999 147.64062300800001,-34.094463638 147.64034899200001,-34.09377562299999 147.640212,-34.093603628499999 147.640212,-34.09354663 147.640144,-34.093489631499999 147.640007008,-34.09317363299999 147.63938998399996,-34.092113638500003 147.639356,-34.091970633500004 147.639356,-34.091712632499998 147.63946099200001,-34.091398632 147.639771008,-34.091054624500003 147.639771008,-34.090997626 147.63984,-34.090940627500004 147.63984099199999,-34.090883629 147.64001296000001,-34.090568611 147.640185952,-34.090425606 147.64028995199999,-34.089939611 147.64029097599999,-34.089767616499998 147.64022195199999,-34.0896246115 147.64001696,-34.089366610500001 147.63956995199999,-34.089021604 147.63891699199999,-34.088706604500004 147.638608,-34.088619617500001 147.638160992,-34.088332608500004 147.63795500800001,-34.088074607499998 147.637956,-34.087645611 147.63807798400001,-34.087289615499998 147.638096,-34.086843617500001 147.637820992,-34.086471619500003 147.63747798399996,-34.0861556025 147.637065984,-34.086011617 147.63531001600001,-34.086037609500003 147.634415072,-34.086379619 147.63420806400001,-34.086379619 147.63386505599999,-34.086207606 147.633658048,-34.086149608499994 147.63334806399999,-34.0861486095 147.632970048,-34.086234616 147.632399104,-34.086011617 147.632051104,-34.085376604499999 147.63194009599999,-34.085173604 147.63156208,-34.084886613500004 147.63115008,-34.084628612499991 147.63115008,-34.084513616500004 147.63108208,-34.084370611499999 147.631116096,-34.0843416035 147.63080809600001,-34.083682615 147.63074009599998,-34.083625616499994 147.63056908799996,-34.083195602499998 147.63053609599999,-34.082737616500005 147.63046710399999,-34.082622620500004 147.63040009599999,-34.081964612500002 147.63012707199999,-34.080961598 147.63012905599999,-34.080331599 147.630337056,-34.079845585500003 147.63068204800001,-34.07953158499999 147.63109504,-34.079360589499998 147.63178403200001,-34.079218602 147.632025024,-34.079018598499999 147.63212902399999,-34.078875593500001 147.63216403199999,-34.078732588500003 147.63192403199997,-34.078302593 147.63082502399999,-34.077470592499999 147.63038003200001,-34.077221601 147.62993104,-34.07715359499999 147.62958707199999,-34.077210593499998 147.62896707199999,-34.077524594 147.628863072,-34.077552584500005 147.62869107200001,-34.077552584500005 147.62803808000001,-34.077351600500002 147.62790108799999,-34.077264595 147.627592096,-34.07697858499999 147.62738608000001,-34.0765196 147.62731910399998,-34.076147602 147.62728604799997,-34.075488595 147.62732105599997,-34.075403587499999 147.627252064,-34.075288591499998 147.627255072,-34.074543578 147.62732406399999,-34.0743145665 147.62732505599996,-34.074000566 147.627218048,-34.073608569500003 147.62664006399999,-34.072710579500004 147.62657206399999,-34.07239558 147.62650307199999,-34.072338581499999 147.62643507199999,-34.072166568500002 147.62609206400001,-34.071908567500003 147.62592006400001,-34.0717075835 147.62588707200001,-34.071306577500003 147.62592105599998,-34.071249579 147.625407072,-34.0707615675 147.62516707200001,-34.070446568 147.624686048,-34.070102579 147.62454905599998,-34.069958575 147.62451507200001,-34.069872568500003 147.62427408,-34.069671566 147.62403408,-34.069585578 147.62310508799996,-34.0695265815 147.62245209599996,-34.069124576500002 147.62234908799999,-34.069096567500004 147.62207411200001,-34.069095568500003 147.62138512000001,-34.069323599500002 147.62066313599999,-34.069236594 147.62007814399999,-34.069235595 147.61966515200001,-34.069177597500001 147.61846118400001,-34.068888590500002 147.61729120000001,-34.068886611 147.616169216,-34.0690166105 147.615191264,-34.069455615500004 147.61495024,-34.069397618 147.61481324799999,-34.069283602500001 147.61467625599997,-34.069082637 147.61467625599997,-34.069024602500001 147.614607264,-34.068967622500004 147.614471264,-34.068623633500003 147.614472256,-34.068280606499997 147.614886208,-34.06773761299999 147.61485420799997,-34.066935619500001 147.614821216,-34.06656360299999 147.61506323200001,-34.066219614 147.61502921600001,-34.0659056135 147.61485820799996,-34.065733619 147.61468620799997,-34.065675603 147.61444521600001,-34.065674604 147.61420422399999,-34.0657606105 147.614031232,-34.065903615499998 147.61396224000001,-34.066160617500003 147.61382425599996,-34.06636162 147.61361724799997,-34.066475617 147.61347926399998,-34.066474636500004 147.612379264,-34.066100622 147.61100528,-34.065382637 147.61059328,-34.065066638499999 147.610216288,-34.064636624500004 147.610114272,-34.064206629 147.60983929599999,-34.06406362399999 147.60973632,-34.064120622499999 147.60973632,-34.064177621 147.60945932800001,-34.064549656 147.60932131199996,-34.064634645 147.60914931199997,-34.064634645 147.608978304,-34.064519649 147.60870432,-34.063918639500002 147.60849830399999,-34.063745646 147.60777536000001,-34.063859643 147.607293344,-34.064058647499991 147.60708633600001,-34.064058647499991 147.60681136,-34.063971642 147.60633033600001,-34.063913644499998 147.606021376,-34.063569655500004 147.606021376,-34.063512657 147.60550838399999,-34.062852669500003 147.60550838399999,-34.062766644500002 147.605199392,-34.062365675500004 147.604616384,-34.061820665500001 147.60468636799999,-34.061534674 147.60468636799999,-34.061305662500004 147.60465238399999,-34.061161658499998 147.604413376,-34.060789660499999 147.60417337599998,-34.06050267 147.60417337599998,-34.060445671499998 147.60410438400001,-34.060388673 147.604106368,-34.059758674 147.604038368,-34.059557671500002 147.60376438399999,-34.059242672 147.60314636800001,-34.0587546605 147.60278636800001,-34.058566663499995 147.60208041600001,-34.058637666500005 147.60197641600001,-34.058723673 147.60156342399998,-34.058865660500004 147.6009784,-34.058836671 147.600599456,-34.059064683500004 147.60015244799999,-34.059034676499998 147.59891545599996,-34.058459678 147.598537472,-34.058401680500005 147.59760848,-34.058428690500001 147.597470464,-34.058399682500003 147.59723046400001,-34.058284686500002 147.59699046399999,-34.057998676499999 147.59695648,-34.057912688500004 147.59695648,-34.057711686 147.59699148799999,-34.057654687499991 147.59682048,-34.057253681499994 147.596614464,-34.057109677500002 147.596029504,-34.057079707500002 147.595342496,-34.056849697 147.59506649599996,-34.056934704500001 147.59448054399999,-34.057477698 147.59365155200001,-34.058334729 147.59323856,-34.058391727500002 147.59286156799999,-34.058247723500003 147.59255257599997,-34.057874726500003 147.59255257599997,-34.057817728 147.59245056,-34.057674723 147.59207257599999,-34.057415723 147.591797568,-34.05718673 147.59172956800001,-34.057071715500001 147.591867584,-34.056842722500001 147.591800576,-34.056499714 147.59173158399997,-34.056441716500004 147.591663584,-34.056269722 147.59121657599999,-34.056154726 147.59118256,-34.056068719500004 147.591079584,-34.055982731500002 147.591113568,-34.055839726500004 147.59118358399999,-34.055782728 147.59118358399999,-34.0556677135 147.59111558399999,-34.055495719 147.59097856,-34.055352714 147.59097856,-34.055294716500001 147.590841568,-34.055123721 147.590841568,-34.055036715500002 147.59063558400001,-34.054721716 147.5900536,-34.054061728500002 147.590053568,-34.053947731500003 147.59012256,-34.0538907145 147.59012256,-34.05383371599999 147.59036457600001,-34.053633731 147.59033158399998,-34.053117729 147.59019456,-34.053003713500004 147.589885568,-34.052859728 147.58912860800001,-34.052628718500003 147.58847561600001,-34.052656746 147.58833859200001,-34.05254175 147.58837260799999,-34.052455743499998 147.58847660800001,-34.052341728 147.58851161600001,-34.051997720500005 147.58820361599996,-34.051653731500004 147.58813459199999,-34.051624723499998 147.587963616,-34.051452747500001 147.58824060800001,-34.050651716 147.5882416,-34.050336716499999 147.5881736,-34.0500787155 147.58807161600001,-34.049906721 147.58796860800001,-34.049820714500001 147.58711059199999,-34.049303732 147.58711059199999,-34.049246733499999 147.5866016,-34.048716745500002 147.5856016,-34.047811744 147.58567260800001,-34.047096737499992 147.585708608,-34.046609725 147.585675616,-34.0462667165 147.585606592,-34.046036724499999 147.58543561600001,-34.0457787235 147.58533260799999,-34.045692717 147.584955616,-34.045491714500002 147.58485161600001,-34.045462725 147.584404608,-34.045461726 147.583819648,-34.045660749 147.583750624,-34.045746737 147.583233632,-34.0459467405 147.58268368,-34.04600274 147.58261465599998,-34.046030749 147.58233865599999,-34.046316740500004 147.582233664,-34.046745755499998 147.58216265600001,-34.0474037635 147.58186969599998,-34.047748751500002 147.58085670399998,-34.047028768499999 147.580444704,-34.046856755500002 147.58016969600001,-34.04679875799999 147.579208736,-34.046223759500002 147.577901728,-34.045906780500005 147.57621875199999,-34.04515877 147.57546275199999,-34.044927779 147.57494678399999,-34.044897772 147.5743968,-34.044724797 147.5742608,-34.044581792 147.57422579199999,-34.044495804 147.5742288,-34.0438657865 147.57426380800001,-34.043608784499995 147.57436777599997,-34.04337977299999 147.57474675200001,-34.043008774 147.57474777600001,-34.0428367795 147.57443875199999,-34.042663786 147.57344179200001,-34.0425467735 147.57278780799999,-34.042574782500004 147.57240880000001,-34.0428597935 147.57233881600001,-34.043174793 147.57220083199999,-34.043346787499999 147.572062816,-34.043345788499991 147.57178883199998,-34.043173794 147.57158182399996,-34.043086788499991 147.57113584000001,-34.042999801500002 147.57096384,-34.042799798 147.57103481599998,-34.0422267975 147.57096681600001,-34.042083792500001 147.57076083199996,-34.04191179799999 147.57045184,-34.041824792500002 147.57021081600001,-34.0418538005 147.56976284799998,-34.042023797 147.56904086399999,-34.042050788499999 147.56873084799997,-34.042164822499998 147.56848886399999,-34.0423648075 147.56807590400001,-34.042563812 147.56793788799999,-34.04259282 147.56754390399996,-34.042582811500004 147.56697488,-34.042504815500003 147.566390912,-34.042331822 147.56597993599999,-34.041872818500003 147.56597993599999,-34.041786812 147.56587692799997,-34.041671816 147.56587692799997,-34.041614817500005 147.56563792,-34.041298819 147.56529491199998,-34.04101181 147.56508892799999,-34.04078281699999 147.564780928,-34.040352821500001 147.56464492800001,-34.039865809 147.56461193600001,-34.0395508095 147.56464688,-34.039206820499999 147.56478588799999,-34.038863812 147.565027904,-34.038692816499996 147.56547590400001,-34.038521821 147.56575088,-34.038321799 147.56578585599999,-34.038235792500004 147.56585484799999,-34.038207802 147.566062848,-34.037778805500004 147.56620185599999,-34.037378798500001 147.56630585599999,-34.037234794500002 147.566580864,-34.03703579 147.56757984000001,-34.036751778 147.567717824,-34.036608773 147.56768384,-34.036350772 147.56696384,-34.035804781499998 147.56689584,-34.035718775 147.56672483200001,-34.035203772 147.56672582399997,-34.034974779 147.56652083200001,-34.034573773 147.56586883200001,-34.03405677199999 147.56549081599996,-34.033998774499999 147.56504483200001,-34.033825781 147.56480483199999,-34.033624778499998 147.56487481600001,-34.03328177 147.56490883199999,-34.03328177 147.565218816,-34.033052777 147.5660168,-34.032666756 147.56611580800001,-34.03251076399999 147.5661168,-34.032195764500003 147.56604780800001,-34.032023751499999 147.56597980799998,-34.031966753 147.56597980799998,-34.031909754499992 147.565499808,-34.031507768 147.56494979199999,-34.031363764 147.56347081600001,-34.031359786499998 147.562852832,-34.031071778499999 147.562338848,-34.0305847845 147.562304832,-34.030383782 147.56258083200001,-34.03012678 147.56313184,-34.029870777 147.56323584,-34.029755762500002 147.563270816,-34.029555759 147.56289382400001,-34.029268768500003 147.56289382400001,-34.0292117515 147.56282582399999,-34.029153754 147.56286083200001,-34.028953750500001 147.56372380799999,-34.028010768500003 147.5637248,-34.02766776 147.5636568,-34.027523756 147.56297078399996,-34.026949756500002 147.56290179199999,-34.026834760500002 147.56290278399999,-34.026606766500002 147.56331676799999,-34.026263739500003 147.56335177599999,-34.026177733 147.56331875199999,-34.025862733499999 147.562118752,-34.024829749 147.56201577600001,-34.024657736 147.562222752,-34.024342736500003 147.56242976,-34.024285738 147.562775776,-34.023828732499993 147.56301673600001,-34.023628747499998 147.56342972799999,-34.02348672299999 147.564943712,-34.023117722 147.56566771199996,-34.0227757125 147.56590867200001,-34.0225477 147.56615168,-34.022061705 147.56622067199996,-34.021832712 147.56635865600001,-34.021689707 147.56635968000001,-34.021603700500002 147.56667062400001,-34.021088697499998 147.566775648,-34.020573694500001 147.566879648,-34.020287684499998 147.56715664000001,-34.019944694499998 147.567329632,-34.01963069399999 147.56733059199996,-34.019372693 147.5672616,-34.01920068 147.567159616,-34.019057693500002 147.56691859200001,-34.018884681499998 147.56671363199999,-34.018798693499996 147.566609632,-34.018798693499996 147.566506624,-34.018740677499999 147.565097632,-34.018451689 147.56382768,-34.017818711499999 147.56375968,-34.01776171299999 147.56345168,-34.017302709500001 147.56345366400001,-34.016816696 147.563556672,-34.016587703 147.563557664,-34.016444698 147.563626656,-34.0163867005 147.56383465600001,-34.015958703 147.56386966400001,-34.015814699 147.563837632,-34.015013704499999 147.56366768000001,-34.014583709 147.56363366400001,-34.014411696 147.563601632,-34.013609702499998 147.563498624,-34.013494706499998 147.56343062399998,-34.013466697499993 147.56336262400001,-34.013151698 147.56350262399999,-34.012521699 147.56370963200001,-34.012235707500004 147.56422662400001,-34.011864708499999 147.565086592,-34.011838679 147.56532761599996,-34.0117816805 147.56556860800001,-34.011667683500001 147.565775616,-34.011496688 147.5659136,-34.011296684500003 147.56601760000001,-34.011038683500004 147.56622556799999,-34.010809690500004 147.56622656,-34.010494691 147.56591760000001,-34.010150683500001 147.5657816,-34.009921690500001 147.5657816,-34.009835684 147.56571260800001,-34.009749677500004 147.56561161600001,-34.00934869 147.5654056,-34.009119678499999 147.56502761600001,-34.009003683499998 147.564614592,-34.009231677500004 147.56423561599999,-34.009345711500004 147.56409859199999,-34.009345711500004 147.56372064000001,-34.009229698 147.56210662399999,-34.008453697 147.56114566399998,-34.00810771 147.56093968,-34.007935697 147.560597664,-34.007447722499997 147.56022067200001,-34.007103715 147.55998067199997,-34.006959729500004 147.55963769600001,-34.006815725500005 147.55888169599999,-34.006699730500003 147.55874470399999,-34.006498728 147.55877971199999,-34.006241726 147.55884870399998,-34.006155719500001 147.55891868800001,-34.005926726499993 147.558987712,-34.005869728 147.559056704,-34.005583718 147.558853696,-34.004953719 147.558854688,-34.00460973 147.55902768000001,-34.004237713500004 147.559337664,-34.004009719500004 147.55947568,-34.003809716 147.55947766400001,-34.003465727 147.55940867199999,-34.0033797205 147.55940867199999,-34.003293714 147.55934067199999,-34.003207726 147.55934067199999,-34.003121719500001 147.55920467199999,-34.002835728 147.55917168,-34.002319726 147.55903568,-34.002004726500004 147.55862368000001,-34.0017177175 147.558109664,-34.001258714 147.55790569600001,-34.000713722500002 147.557906656,-34.000456720500004 147.55797568,-34.000313715499999 147.55856166399997,-33.999770722 147.558906656,-33.999570718499996 147.559078656,-33.99951372 147.56004163200001,-33.999373730499997 147.56066163200001,-33.999173708500003 147.56114259200001,-33.999117709 147.56217459199999,-33.999120706 147.5622776,-33.999091698 147.56241561600001,-33.999006709 147.56248460800001,-33.999006709 147.563353568,-33.998445696499999 147.56365558399997,-33.998084706 147.56365558399997,-33.9980277075 147.56396457599996,-33.997740698500003 147.56413555200001,-33.997396691 147.56416953599998,-33.997253686 147.56423654400001,-33.996279679499992 147.564027552,-33.994962683 147.563958528,-33.994847687 147.56381955200001,-33.994389701 147.56375052800001,-33.994332702500003 147.56375052800001,-33.994275704 147.56368153599999,-33.994218705500003 147.56368153599999,-33.994160708 147.56330252800001,-33.99378871 147.56306153599999,-33.993617696 147.56254457599999,-33.993360712499999 147.56223558400001,-33.993331704500001 147.561856576,-33.9934757085 147.561271584,-33.993533706 147.56082460799999,-33.99341970899999 147.560618592,-33.993420708 147.56030860800001,-33.993363709500002 147.55982659200001,-33.993192714 147.55955059199999,-33.993049727500001 147.5594816,-33.993049727500001 147.55910364799999,-33.992763717500004 147.55879264000001,-33.99236273 147.55865462400001,-33.99207672 147.55865462400001,-33.991961724 147.55858563199999,-33.9919047255 147.55858464,-33.991589726 147.55878960000001,-33.990959727 147.55885859200001,-33.990844731 147.55889260800001,-33.990644727499998 147.55892460800001,-33.989469718500004 147.55906160000001,-33.989154719 147.55906160000001,-33.989039723 147.559198592,-33.98881073 147.55981657599997,-33.988150705500004 147.56084652799998,-33.987290696 147.56098355200001,-33.987146710499999 147.56146355199996,-33.986487703500003 147.56167052800001,-33.986286701 147.56214950399999,-33.985397683500004 147.562630496,-33.984709687 147.56290448,-33.984423677 147.563282464,-33.984136686500001 147.56359046399996,-33.983981693499999 147.56417545599999,-33.983275659499995 147.56417443199996,-33.983218661 147.56442144,-33.982844665 147.56334844799997,-33.982703676500002 147.56293548799999,-33.9826186875 147.562763488,-33.982532681 147.56248748799999,-33.982303688 147.56234947199999,-33.982074676499998 147.56234947199999,-33.981960679499998 147.56228048,-33.981874691500003 147.56228048,-33.981788685 147.56200348799999,-33.9813596885 147.56200348799999,-33.981301691 147.56193446399999,-33.981244692499999 147.56193446399999,-33.981187694 147.56186547199999,-33.981130677 147.56186547199999,-33.981073678500003 147.56179648,-33.981015681 147.561727488,-33.980844685500003 147.56176848000001,-33.980592678500003 147.56182944,-33.980213669 147.561794432,-33.979927659 147.56141545599999,-33.979584669 147.561208448,-33.979469673 147.56103644800001,-33.979212671 147.56106944,-33.978639670500002 147.560724448,-33.978267672500003 147.560139488,-33.977981681 147.55986348799996,-33.977667680499998 147.55986348799996,-33.977581692500003 147.55979446399999,-33.977495686 147.55979446399999,-33.977323673 147.559655488,-33.977037663 147.55962144,-33.976865668500004 147.559620448,-33.976435673 147.559723456,-33.976149663 147.55999744,-33.975833664500001 147.56027244800001,-33.975575663500003 147.5610624,-33.975001664 147.56157740800001,-33.97457165 147.56174838399997,-33.974370647500002 147.56174838399997,-33.974284641 147.56185139199999,-33.974112646500004 147.56185139199999,-33.973998649500004 147.56202137599999,-33.97342465 147.56191638399997,-33.972393645 147.561778336,-33.972079644499999 147.56170937599998,-33.972021647 147.56108736,-33.970762648 147.560880352,-33.970476656500004 147.560880352,-33.9704186405 147.56063936000001,-33.970161657 147.56053638399996,-33.97010464 147.560295392,-33.970047641500003 147.559779392,-33.970019651 147.55912537599997,-33.970049639500004 147.55888537600001,-33.97002065 147.55836841600001,-33.969878662500001 147.557989408,-33.969506664500003 147.557989408,-33.969219674 147.55822838399999,-33.968646655 147.55843436800001,-33.968302647500003 147.55839939200001,-33.968102644 147.55843337600001,-33.967815653500004 147.55853638400001,-33.967586642 147.55850038400001,-33.96712865599999 147.558190368,-33.966813656500001 147.55784636800001,-33.966699641 147.55715836799999,-33.966671650500004 147.55653942399999,-33.966471647 147.55602342399999,-33.966558671 147.555679424,-33.96655967 147.55495644800001,-33.966359666500004 147.55481945599999,-33.96627366 147.55475043199999,-33.96627366 147.553958432,-33.965701658500002 147.55375145599999,-33.965387658 147.55368144,-33.965129675500002 147.55371545599999,-33.964785668 147.55392144000001,-33.964527667 147.55443641599999,-33.96415467 147.55450540800001,-33.963954666500001 147.55450441599999,-33.963782672 147.55440041599996,-33.963180663500005 147.55446841599999,-33.962951670500004 147.55470838400001,-33.962664643 147.554948384,-33.961862649499999 147.55559936,-33.961030649 147.55590835199999,-33.960772648 147.556320352,-33.9602856355 147.556320352,-33.960170621 147.55652630399999,-33.959941628 147.55656032,-33.959769633500002 147.55659430399999,-33.959740625500004 147.55655932799999,-33.959483623499999 147.55624832000001,-33.95868163 147.55617932800001,-33.958624631500001 147.55617932800001,-33.958566634 147.55597232,-33.958338621500005 147.55593830399999,-33.958223625500004 147.55580032,-33.958109628500004 147.55566230400001,-33.958109628500004 147.55538732799999,-33.957994632499997 147.55414934399997,-33.958025657 147.55308339199999,-33.958198650499995 147.55236137599996,-33.958199649500003 147.55201740800001,-33.958142651 147.551639424,-33.958028672499999 147.5512264,-33.957857658500004 147.55033040000001,-33.957228658499993 147.55029641600001,-33.957142670499998 147.55005542399999,-33.956941668 147.54974441600001,-33.956340658500004 147.54977840000001,-33.956083675 147.5500184,-33.955882672500003 147.55050041600001,-33.955738668500004 147.5505344,-33.955766659 147.550603424,-33.955709660499998 147.55070636799999,-33.955680671 147.551289376,-33.955135642499997 147.55159836799999,-33.954992656 147.552424352,-33.954962649 147.552492352,-33.954905650499995 147.552561344,-33.954905650499995 147.55328230399999,-33.954216655 147.55366032000001,-33.954015634 147.55390032,-33.953757633 147.553899328,-33.953442633500003 147.55376131200001,-33.95298462899999 147.55369232000001,-33.9529276305 147.55365731200001,-33.952784625500001 147.553381312,-33.952383638 147.55293430399999,-33.952097628 147.551661344,-33.951984648499995 147.55135235200001,-33.951899641 147.551076352,-33.951870651500002 147.54829142400001,-33.951788659500004 147.54746540799999,-33.95147465899999 147.54698342399996,-33.9510456625 147.54667241600001,-33.950329675500001 147.546327424,-33.949814672499997 147.54618841600001,-33.949127675 147.54612041600001,-33.949069659 147.54612041600001,-33.949012660500003 147.54594742399996,-33.948841665 147.54574041599997,-33.948554674500002 147.5457064,-33.94844065899999 147.54577542399997,-33.948354671 147.5457744,-33.948239675 147.545843424,-33.948182658 147.54598041599999,-33.947867658500002 147.54604841599999,-33.947580668 147.54604838399999,-33.947351675 147.54611638399999,-33.947236660499996 147.54618438399999,-33.946835673 147.54618339199996,-33.9463486605 147.54611436799999,-33.946148675499998 147.546045376,-33.946091658500002 147.54576937599998,-33.945403662 147.54525238400001,-33.94491766699999 147.54446137599999,-33.944546668 147.5439784,-33.944088663500004 147.543703424,-33.94363065899999 147.54356438400001,-33.942799676 147.54369836800001,-33.941367665 147.543801376,-33.941253668 147.543801376,-33.941195670500001 147.54386937599998,-33.941104669 147.543973376,-33.940966659 147.544161344,-33.940292648499991 147.54424633599996,-33.940221645500003 147.54424633599996,-33.940106649500002 147.54431536,-33.940020643 147.54431536,-33.939934655 147.54438336000001,-33.939877656500002 147.54438336000001,-33.939820639499992 147.54445235200001,-33.939762642 147.54445235200001,-33.939705643499998 147.544658336,-33.939418653 147.544658336,-33.939361654500004 147.544726336,-33.939304656 147.544726336,-33.939218649499999 147.545275328,-33.93864465 147.54565331200001,-33.938414639500003 147.54582531200001,-33.938386649 147.54606528,-33.938414639500003 147.546410272,-33.938557626 147.546616288,-33.938585635 147.54699328,-33.938270635500004 147.547199264,-33.937783623 147.54719824,-33.937410626 147.54709526400001,-33.937296629 147.54692326399999,-33.937210622500004 147.546028288,-33.936982628500004 147.545960288,-33.93692563 147.54589129600001,-33.93692563 147.544858272,-33.936124654 147.54472028800001,-33.935952641 147.54475328000001,-33.93546564699999 147.54489027199998,-33.935121621 147.544959296,-33.935064622500001 147.54499328,-33.9349496265 147.54533628799999,-33.934634627 147.545611264,-33.934462632500001 147.54616025600001,-33.934003629 147.54653824,-33.933945631500002 147.546917216,-33.934031638 147.54729622400001,-33.934374628 147.54770822399999,-33.934545605 147.54781123199999,-33.934516615500002 147.54794921600001,-33.934401619500001 147.548189216,-33.93408662 147.54822323199997,-33.933886616500004 147.548154208,-33.9337146035 147.548085216,-33.933657605 147.548085184,-33.933571617 147.54787820799999,-33.933284608 147.54787718399999,-33.932626618500002 147.547601184,-33.932483613500004 147.54718921599999,-33.932483613500004 147.547086208,-33.932426615 147.547085216,-33.932168614 147.54718819199999,-33.9318536145 147.5471192,-33.931796616 147.54725619199999,-33.931624603 147.5477032,-33.931394611 147.54814918400001,-33.931308604500003 147.54931715199999,-33.930733587499994 147.549660128,-33.930361589499995 147.549763136,-33.930160587 147.54986512,-33.929759599499995 147.54986512,-33.929616594500004 147.55003612799999,-33.929186599 147.55020812800001,-33.9289565885 147.55075308799999,-33.928503597500004 147.55082508799998,-33.928239584 147.55082508799998,-33.928096597500002 147.55075510399999,-33.927867586 147.55061808,-33.927696590499998 147.55041110400001,-33.927524596 147.55003308799999,-33.9273245925 147.54951708799999,-33.927239585 147.549310112,-33.9270965985 147.54910313600001,-33.926695592500003 147.54889712,-33.926581595500004 147.548072128,-33.926582594500005 147.54776211199999,-33.926353601499997 147.54752012799997,-33.925666585500004 147.54755312,-33.924835584 147.54751811200001,-33.9246635895 147.54741513600001,-33.924463586 147.54727712,-33.92434859 147.54686412800001,-33.924206584 147.546383136,-33.924206584 147.54566115200001,-33.924436613 147.5445632,-33.925240604500004 147.543910176,-33.925556603 147.54349820799999,-33.925671636 147.543257216,-33.925671636 147.54291321599999,-33.925528631 147.54284422399999,-33.925471632499999 147.54281020799999,-33.925242621 147.54294620799996,-33.924411638 147.54304819199999,-33.924182626499999 147.54339219199997,-33.924038604 147.54359817599999,-33.924038604 147.54380419200001,-33.9238946185 147.54380320000001,-33.923608608500004 147.5437352,-33.923465603499999 147.54359718399999,-33.923350607499998 147.543390176,-33.923265618500004 147.5431152,-33.923036607 147.54304617599999,-33.922893620499998 147.54304518399999,-33.922434617 147.54301017599997,-33.922234613500002 147.542941184,-33.922091608500004 147.54266617600001,-33.921862615500004 147.542425184,-33.921891605 147.5419792,-33.922006638 147.54122323199999,-33.922093625 147.54087923200001,-33.922065634500001 147.54063820799999,-33.921979628 147.54001820799999,-33.921464625 147.53974323200001,-33.921178633499991 147.53967420800001,-33.921064636499999 147.53967420800001,-33.921006639 147.53939820799999,-33.920606632 147.53939820799999,-33.920548634500001 147.53932921599997,-33.920491636 147.53932921599997,-33.920434637499994 147.53908822400001,-33.920148627499998 147.53905321600001,-33.920062621 147.53905222399999,-33.919288636499999 147.53891420799999,-33.918888629499996 147.538947232,-33.918343638 147.538912224,-33.918057628 147.538843232,-33.917856625499994 147.53874022400001,-33.917713639 147.53860220799999,-33.917599623500003 147.53829321599997,-33.917456637 147.537708224,-33.917285623 147.53750121600001,-33.917256633500003 147.53678025599999,-33.917257651 147.536505248,-33.9172006525 147.535885248,-33.916943650500002 147.53561024000001,-33.916772655 147.535266272,-33.916486645 147.53509427200001,-33.916228644 147.53505929599999,-33.916113648 147.53505926400001,-33.915913644500002 147.53512726400001,-33.915655643500003 147.53523024,-33.915483649 147.535264256,-33.915283645500004 147.53522924800001,-33.914767643499999 147.53509126399999,-33.914624657 147.53430025599999,-33.9143106565 147.534093248,-33.914138643500003 147.53388624,-33.913737656 147.53402124799999,-33.912248646500004 147.53409024000001,-33.912190649 147.53419225600001,-33.911818651 147.53426124800001,-33.911703655 147.53422620800001,-33.911188652 147.53415622399996,-33.910959622 147.533881216,-33.910329623 147.533880224,-33.909784631500003 147.53408521599999,-33.909326627 147.53477219199999,-33.908867623500001 147.5351152,-33.908781635499999 147.53539017599999,-33.908780636499998 147.53552819199999,-33.90880962599999 147.53604419199999,-33.909037638500003 147.53625014400001,-33.909180625 147.53669715199999,-33.909380628500003 147.53745414400001,-33.909637612 147.53790115199996,-33.909837615500003 147.53800416000001,-33.909923603500005 147.53810716799998,-33.909951612500002 147.53852012799999,-33.910238603 147.538899136,-33.9105816115 147.53972512000001,-33.911038617 147.53996512000001,-33.911038617 147.54006812799997,-33.911009609 147.54037708800001,-33.910837614500004 147.54048009600001,-33.910751608 147.540607104,-33.910564591499998 147.54093708799999,-33.910466597 147.548637888,-33.908267557500004 147.54850291199998,-33.90755355 147.55388176,-33.905997515 147.55543078400001,-33.908748520499998 147.55859875199999,-33.908882497500002 147.562658656,-33.909405474 147.57771337599999,-33.911342387 147.578034368,-33.911383383 147.59601504,-33.91369329299999 147.59633603200001,-33.913734289 147.59678,-33.913791306 147.59715699200001,-33.913840294 147.60174694400001,-33.914429278499995 147.61923059200001,-33.916672181500005 147.6203056,-33.916810173 147.64607411200001,-33.920110036499999 147.66409379199999,-33.922414951500002 147.6741936,-33.923705881499998 147.674023616,-33.924605888 147.68193548799999,-33.925586850500004 147.682046464,-33.924981845 147.682101472,-33.92468085 147.68214547199997,-33.924440849499994</coordinates></LinearRing></outerBoundaryIs></Polygon><Polygon><outerBoundaryIs><LinearRing><coordinates>147.799571136,-34.016657966 147.79936147199999,-34.016627755500004 147.798870464,-34.016557751500002 147.79602454400001,-34.016153767 147.795810528,-34.016122761 147.79368256000001,-34.015820785500004 147.793525472,-34.015798992500002 147.79310345600001,-34.017933892500004 147.7929456,-34.017911785 147.791130624,-34.017653784 147.78929168,-34.017392786 147.789175296,-34.017376395 147.78920265599996,-34.017283784 147.78971664,-34.014703774 147.78979561599999,-34.014309779500003 147.78981161600001,-34.0142297855 147.7899296,-34.013633771 147.79012256,-34.01266477799999 147.789981568,-34.0126447795 147.78877859199997,-34.012475782 147.788672768,-34.012460945 147.7886896,-34.01237677 147.78882656,-34.011670773 147.78887456000001,-34.011426776500002 147.78891456,-34.01121978 147.78896656000001,-34.010952788 147.78910652799999,-34.010232786499998 147.789249536,-34.009498780500003 147.7893536,-34.008952013 147.78671008000001,-34.008494933500003 147.78675753600001,-34.008247792 147.78791241600001,-34.002658794 147.787983424,-34.002270793499996 147.78802448,-34.002044390500004 147.78809241600001,-34.002126789500004 147.78812441599999,-34.002167804 147.79122944,-34.006048771 147.793378432,-34.008724777499999 147.794086432,-34.009622786 147.79601248,-34.01210478299999 147.79795948799998,-34.014617767499999 147.799571136,-34.016657966</coordinates></LinearRing></outerBoundaryIs></Polygon></MultiGeometry>

	</Placemark>
</kml>