<?xml version="1.0" encoding="UTF-8"?>
<kml xmlns="http://www.opengis.net/kml/2.2">
	<Placemark>
		<Style>
			<LineStyle>
				<color>ff0000ff</color>
			</LineStyle>
			<PolyStyle>
				<fill>1</fill>
				<color>330000cc</color>
			</PolyStyle>
		</Style>
			<ExtendedData><SchemaData>
		<SimpleData name="STATE_2006">1</SimpleData>
		<SimpleData name="POA_2006">2312</SimpleData>
	</SchemaData></ExtendedData>
      <Polygon><outerBoundaryIs><LinearRing><coordinates>152.38447584,-32.102010696500002 152.38427788800001,-32.103135718499999 152.38417888000001,-32.103699728 152.38407891200001,-32.103686722500001 152.38241094399999,-32.10346973599999 152.38131993600001,-32.10313475649999 152.37713500800001,-32.102544791500002 152.375476064,-32.10232580699999 152.375548,-32.102151999500002 152.375991008,-32.101070008500002 152.376232,-32.100008996500002 152.376372992,-32.099610007 152.37629699199996,-32.099542001 152.376324,-32.09935400399999 152.37643801600001,-32.098717992499999 152.37645500799999,-32.098621996 152.37649033599999,-32.0985119025 152.37651801600001,-32.09842600699999 152.376488,-32.098390006 152.37656,-32.097986003 152.376816,-32.097448004500002 152.37699299199997,-32.097275991499998 152.37735100800001,-32.097061003 152.377869952,-32.096761747 152.378816,-32.096339003499999 152.38208601599999,-32.094842002 152.382328,-32.094731002 152.38586899200001,-32.093123999500001 152.386192,-32.092971004500001 152.38662300799999,-32.092791998500005 152.387227008,-32.092613991499995 152.387878016,-32.092511002 152.3886,-32.092480995 152.38865699199999,-32.092525006500004 152.39066201599999,-32.092625998 152.390975008,-32.092674005500001 152.392116,-32.092740994 152.392607008,-32.092769003 152.392774016,-32.092784006500004 152.393012,-32.092805004 152.393312,-32.092791998500005 152.39367001599999,-32.092823004499998 152.393778016,-32.092815993 152.39392099200001,-32.092808001 152.39465299199998,-32.092693005 152.39557574400001,-32.092463642 152.39721401599999,-32.093810997 152.39912272000001,-32.095378428 152.39961939200001,-32.095786538 152.39961638400001,-32.095830531 152.39943443199999,-32.096852545 152.39926044800001,-32.097861553499996 152.39928147200001,-32.097864550499999 152.39936147200001,-32.097876557 152.399321472,-32.098108547 152.39901849599997,-32.099862569 152.39901049599996,-32.099902566 152.39900348800001,-32.09993557 152.39897849600001,-32.100060574499999 152.39893049599999,-32.100077576 152.39888851199998,-32.100084569 152.39878752000001,-32.100171574499996 152.39877152,-32.100207575500001 152.398737536,-32.100250569499998 152.39867152,-32.100365565499999 152.39863753599997,-32.100401566500004 152.39862953599996,-32.100437567500002 152.39857952,-32.100523574 152.39857152,-32.100559575 152.39853753599999,-32.100595576 152.398421536,-32.100789567 152.39841353599999,-32.100825568 152.39836352,-32.100911574500003 152.39834652799999,-32.100954568500001 152.398264544,-32.101255563500004 152.39824755199999,-32.101284571500003 152.39823056,-32.101342569 152.39821456000001,-32.101370578 152.398197568,-32.101428575500002 152.39818156800001,-32.101457565 152.398173568,-32.10149256699999 152.39810656,-32.101586584 152.39808156800001,-32.101644581500004 152.39800656,-32.101773582 152.397939552,-32.101866581499998 152.39789859199999,-32.101988589 152.39788160000001,-32.1020745955 152.39781059200001,-32.102574595 152.397755072,-32.1029687005 152.3974936,-32.102548584 152.39688659199999,-32.102073596499999 152.39606963200001,-32.101940581500003 152.39454963200001,-32.101883601499999 152.39339164800001,-32.102054615499995 152.39285968,-32.102491622500004 152.39250492799999,-32.103101012499998 152.39136070399999,-32.102932625500003 152.390322752,-32.102793653500001 152.39025376000001,-32.102783645 152.38960576,-32.102697638500004 152.38853977599999,-32.102554670499998 152.38828076799999,-32.102519668500001 152.387250784,-32.102380678 152.38668681600001,-32.102306678 152.38663782399996,-32.102299685 152.384618848,-32.102037706499999 152.38447584,-32.102010696500002</coordinates></LinearRing></outerBoundaryIs></Polygon>

	</Placemark>
</kml>