<?xml version="1.0" encoding="UTF-8"?>
<kml xmlns="http://www.opengis.net/kml/2.2">
	<Placemark>
		<Style>
			<LineStyle>
				<color>ff0000ff</color>
			</LineStyle>
			<PolyStyle>
				<fill>1</fill>
				<color>330000cc</color>
			</PolyStyle>
		</Style>
			<ExtendedData><SchemaData>
		<SimpleData name="STATE_2006">1</SimpleData>
		<SimpleData name="POA_2006">2548</SimpleData>
	</SchemaData></ExtendedData>
      <MultiGeometry><Polygon><outerBoundaryIs><LinearRing><coordinates>149.90990512,-36.894894422499995 149.90968412800001,-36.89476742 149.90946512,-36.894622417 149.90936617599996,-36.894534579 149.90927184,-36.894431515500003 149.90920992,-36.894360327500003 149.909112736,-36.894193291 149.90908787199999,-36.894142175500001 149.90902560000001,-36.894013378499999 149.90897472,-36.893863824500002 149.90868288,-36.894212993499998 149.90862492799999,-36.894221004 149.90859900799998,-36.894203003499996 149.908455008,-36.894422968500002 149.90819689599999,-36.894554004 149.90801401600001,-36.894596998 149.90788188799999,-36.894626006 149.90776812799999,-36.894659047 149.90765689599999,-36.894677047500004 149.907558016,-36.894703003 149.90746787200001,-36.894717988 149.907363008,-36.894744998 149.907276,-36.894745997 149.90716188799996,-36.894720966500003 149.907062016,-36.894765995500002 149.90699699199996,-36.894822032 149.90696601600001,-36.894847007 149.90687603200001,-36.894922024499998 149.90680908799996,-36.895004016500003 149.90672592,-36.895092021 149.906475008,-36.895375996 149.906400832,-36.895449959 149.90629897599999,-36.895519981500001 149.90619385599996,-36.895577035500004 149.90608601599999,-36.895622009 149.905991008,-36.895646003499998 149.90580601600001,-36.895687998500001 149.90571500799999,-36.895702003 149.905619008,-36.895723000499999 149.905524,-36.895740002 149.90542307199999,-36.89575902 149.905222912,-36.895724018 149.905096,-36.895669998 149.90497993599999,-36.895627984500003 149.90488201599999,-36.895574001499995 149.90478899199999,-36.895516004 149.90474700799999,-36.895484998 149.90469516799999,-36.895446999 149.90460409600001,-36.895403968 149.90441004799999,-36.895371038 149.90429699200001,-36.895357977 149.90410403199999,-36.895365987499993 149.903971936,-36.895391018 149.90387616000001,-36.895410998 149.90384700800001,-36.895419989 149.90377788800001,-36.895440968 149.903670976,-36.89548596 149.90353417599999,-36.895537982 149.90342617600001,-36.895571004499999 149.90320297599999,-36.8956490375 149.903116928,-36.89567702799999 149.90302908800001,-36.895723019 149.90290812800001,-36.895799979 149.902896032,-36.8958073975 149.902817056,-36.895853962 149.90267088,-36.895921024499998 149.90258592,-36.895962964 149.90251500799999,-36.896036039 149.90235408000001,-36.896150961 149.90226515200001,-36.89620002299999 149.90214492800001,-36.896281016 149.90205996799997,-36.896318016 149.90193504000001,-36.896376957 149.901834976,-36.89643501 149.90172012799999,-36.896523033 149.90162905599999,-36.896609964500001 149.901527872,-36.896690976 149.90135689600001,-36.89681696099999 149.90124601599999,-36.896901025 149.90116896,-36.896976005500001 149.90110595199999,-36.897049987 149.90103612799999,-36.897147001 149.90096700799998,-36.897222962 149.90091193599997,-36.89729999599999 149.900852896,-36.897374976500004 149.900776928,-36.897455969499994 149.90068908800001,-36.89753498299999 149.90060195199999,-36.897573962500005 149.90050908800001,-36.897566044500003 149.90042089599999,-36.897554963 149.90030099200001,-36.8974940425 149.90021209599999,-36.89742402 149.90013001599999,-36.897356976 149.900056928,-36.897282994500003 149.900004,-36.897213952500003 149.89995001599999,-36.897137991500003 149.89989888,-36.897053039500001 149.89984812799997,-36.896981037499991 149.89980601600001,-36.896904984 149.89975993600001,-36.896828042500005 149.89970304,-36.896750009500003 149.89951401600001,-36.896614996499991 149.89942201599999,-36.896590003 149.89931100800001,-36.896549044 149.89911408,-36.896444001 149.89902012799999,-36.896408999 149.89893408,-36.896385966499999 149.898835072,-36.896354017 149.898812,-36.896347005500004 149.89869900799999,-36.896300996 149.898596032,-36.896235025 149.898507008,-36.896178008 149.89841401599998,-36.896114997 149.89832201600001,-36.8960599965 149.89820601599999,-36.895984997500001 149.89811184000001,-36.895940005500002 149.89798099199996,-36.895951993499999 149.897887008,-36.896017002499995 149.897793952,-36.896057018 149.89769209599999,-36.896021017 149.89760099200001,-36.895977005500001 149.89749900799998,-36.895940005500002 149.89739801600001,-36.895937008499999 149.897304,-36.895949995499997 149.897211008,-36.895956008 149.897112,-36.895957007 149.89700988800001,-36.895956026500002 149.89688316799999,-36.895928036 149.89678499199999,-36.8959000085 149.89676185600001,-36.895892035 149.896692,-36.895866024 149.89659984,-36.895834981 149.89650201599997,-36.895810006 149.89637987200001,-36.895791968499999 149.89629385599997,-36.895794022 149.89619987200001,-36.89580996899999 149.896114912,-36.895832002500001 149.895987136,-36.895858013500003 149.89590201600001,-36.895870001500001 149.89580784,-36.895904004499997 149.89571699199999,-36.8959760065 149.89563001599998,-36.895998003 149.89554,-36.895995006 149.89549104,-36.895920025500004 149.89539312,-36.89585703299999 149.89530096,-36.895815001 149.895191872,-36.895761998499999 149.89510300800001,-36.895726996500002 149.895014016,-36.895700005 149.89488409599997,-36.895656955500002 149.89481388799999,-36.895644005500003 149.89454604799997,-36.89556003399999 149.89429008,-36.895509991499999 149.89417705599999,-36.895500982 149.894098912,-36.895491991 149.89396896,-36.8953959575 149.89394592,-36.895384987 149.89391497599999,-36.895368966 149.89377203199999,-36.895355997500005 149.89365504,-36.895339976500004 149.89355603199999,-36.8953049745 149.89344700800001,-36.895259002 149.89334700799998,-36.895215009 149.89316300799999,-36.895106007 149.89308697600001,-36.895014006499991 149.89301209600001,-36.894933994 149.892928928,-36.89485100299999 149.89282883199999,-36.894772988500002 149.89272912000001,-36.894700986499998 149.89254192000001,-36.894548972 149.89247785599997,-36.894481021499999 149.89239792000001,-36.894392018 149.89232592,-36.894319017 149.892252832,-36.894240984 149.89217292800001,-36.894148021499994 149.892126848,-36.894068009 149.89210092799999,-36.893980985 149.89206384,-36.893737987500003 149.89204512000001,-36.893637995 149.89204585600001,-36.893593983499997 149.89204691200001,-36.893549972 149.89204585600001,-36.893505960500001 149.89204512000001,-36.893462041499994 149.89204297599997,-36.89341803 149.89204188799999,-36.893383028 149.89204115199999,-36.893348007500002 149.89203900800001,-36.893313005499998 149.89203504,-36.893277985 149.89202892799997,-36.893243963499991 149.892019936,-36.893212014 149.89200912,-36.893178991500001 149.89199616,-36.8931480225 149.89198105599996,-36.8931169795 149.89196483200001,-36.893088008500001 149.89194108800001,-36.893031028500005 149.89192704000001,-36.892967037 149.89187593599999,-36.892764998499999 149.891803936,-36.892547993500003 149.89177116799999,-36.892386007500001 149.891796,-36.892150021500001 149.89186297599997,-36.891942026 149.89187088,-36.8918049595 149.89185395199999,-36.891707039 149.89182985599999,-36.891603994 149.89179996799999,-36.8915229825 149.891789152,-36.89142003 149.89178412800001,-36.891288994500002 149.89168512000001,-36.891012956 149.89150691200001,-36.890787959 149.89126105599999,-36.890565034 149.89097593599999,-36.890407987499998 149.89085388799998,-36.890359018 149.89065913600001,-36.890280004499999 149.89047408,-36.890229962 149.89018211199999,-36.890247962499991 149.88994883199999,-36.890316005500004 149.88965401600001,-36.890543962500004 149.889404896,-36.890667986499999 149.88925798400001,-36.890765019 149.88902905599997,-36.890790031 149.88878604799999,-36.890795969500005 149.88841884799999,-36.890727038500003 149.887973888,-36.890513992500004 149.88769993599999,-36.89038898799999 149.887627936,-36.8903559655 149.88734604800001,-36.890285036500003 149.88701808,-36.890292954499998 149.886884896,-36.8902960255 149.886749888,-36.890261005 149.88650112,-36.890110988499998 149.886165952,-36.889903973500004 149.885782912,-36.889665027500001 149.88573504,-36.889639016499999 149.88554892799999,-36.889490961 149.88549708799997,-36.889407008 149.88532896000001,-36.889243024 149.885130976,-36.889071029500002 149.88497113599996,-36.888876002499998 149.88494304,-36.888638037 149.88499811200001,-36.888323037500001 149.885093888,-36.888082019500004 149.88511008,-36.888026038500001 149.88519504000001,-36.887718957 149.88518713600001,-36.887513033499999 149.88514211200001,-36.887337006 149.88498588799996,-36.887234035 149.88490489599999,-36.887104979 149.88465289599998,-36.887012016500002 149.884449856,-36.886947026 149.88438288,-36.886943973500003 149.88424896000001,-36.886937036 149.88405817599997,-36.8869490055 149.88396384000001,-36.886982046500002 149.88388896000001,-36.887030017 149.88387385600001,-36.887122979499999 149.88386089599999,-36.887291995499993 149.88380185599999,-36.887492961 149.88371904,-36.887587015 149.883611712,-36.8876628465 149.88385740800001,-36.886664716 149.885236128,-36.881235447 149.88534048,-36.881238777 149.88563027199999,-36.881231673 149.88590640000001,-36.881259571 149.88599712000001,-36.881268654499998 149.88638844799996,-36.881341748 149.88683737599996,-36.881440834 149.88698784,-36.881474041499999 149.887471328,-36.881572406 149.88795408,-36.881652418500003 149.88869641599999,-36.881634418 149.88960361599999,-36.881583395 149.88984768,-36.881569612500002 149.89039596800001,-36.881565487 149.89076281600001,-36.8815932925 149.89115484800001,-36.881684645500002 149.89159513600001,-36.881848352 149.891773696,-36.881934488 149.89212108800001,-36.882085411 149.892219872,-36.882147034500001 149.89260316799999,-36.880489582500005 149.89265616,-36.880260589499997 149.89267616,-36.880175582 149.892756128,-36.879835589 149.89279913600001,-36.879652587 149.89300012800001,-36.879681558 149.89301913599999,-36.879545564499999 149.89309811199999,-36.879288562500001 149.89322211199999,-36.879044566 149.89373708799999,-36.878371554499999 149.89377510400001,-36.878315555 149.89498707199999,-36.878500536499999 149.895466048,-36.878573537500003 149.89574707200001,-36.8786155325 149.89712502399999,-36.878825526 149.90211196800001,-36.879622450500001 149.90330195199999,-36.879805452500001 149.905014112,-36.8800688 149.90503536,-36.879951695 149.90505228800001,-36.8793239345 149.90504976,-36.879290468 149.905014112,-36.8788777145 149.90487193600001,-36.877978448 149.90477580800001,-36.877445907 149.90473369599999,-36.877260518500002 149.90465484800001,-36.877068174 149.90440969599996,-36.876476969500004 149.90404105600001,-36.875858755 149.9039568,-36.875733658 149.903558656,-36.875141103 149.90261904,-36.873757802500002 149.90240953599999,-36.873449278 149.90197897600001,-36.872770864499998 149.90159881599999,-36.872108731 149.901408,-36.871731627 149.90136841599997,-36.871653057499998 149.90100732799999,-36.870700955 149.90083344000001,-36.87011280299999 149.9005008,-36.868987448 149.90045363199999,-36.868662088499995 149.90047776,-36.868372286 149.900537536,-36.868109586 149.90061456000001,-36.867911488 149.90078016000001,-36.867663181 149.901061696,-36.867346017 149.90139107199997,-36.867064946500001 149.90170176000001,-36.866902239 149.90205961599997,-36.866763174500001 149.90247721599999,-36.866670563500001 149.90504761599999,-36.866100597 149.90517180800001,-36.866062431499998 149.90556313600001,-36.865941922499999 149.90600377600001,-36.865738792500004 149.90625792,-36.8655154235 149.90663052799999,-36.865147680500002 149.9072184,-36.864567446500004 149.90747776000001,-36.864354474500004 149.9074992,-36.864332903499992 149.90783184,-36.864138598 149.90962476799999,-36.8634344695 149.91208633599999,-36.862452082499999 149.91244777599999,-36.862223034 149.912771392,-36.861997944500004 149.91310835199999,-36.861722905 149.91348025600001,-36.861341490500003 149.91391513600001,-36.86077574199999 149.91476867200001,-36.859665594 149.915395808,-36.858867023 149.91629760000001,-36.857719172 149.91689123200001,-36.856965593 149.91709356800001,-36.856708646500003 149.91733513599999,-36.856415884 149.9176416,-36.856067621499996 149.91766956800001,-36.8560351725 149.918065568,-36.855623788 149.91835212800001,-36.85533030399999 149.919242048,-36.854495288 149.91931187200001,-36.854429853500001 149.92025075199999,-36.853425895500003 149.920554592,-36.853106844499997 149.92076051199996,-36.852859444 149.920884,-36.852676830500002 149.920950976,-36.852577837 149.92109747200001,-36.852274178 149.92120044800001,-36.851960066499998 149.92144704,-36.851261673 149.921588512,-36.850831196500003 149.92173936,-36.850540506 149.92183369599999,-36.850375171499998 149.92224659199996,-36.849793235500002 149.92258787200001,-36.849343852 149.92387379199999,-36.847650695 149.92405164799999,-36.847426771 149.92444585600001,-36.846688769 149.92457616,-36.846330128 149.92471692800001,-36.845810722 149.92473385599996,-36.845598878499999 149.92477129599999,-36.845132123500001 149.92474860799999,-36.844536146 149.924602432,-36.843862505499992 149.92439580800001,-36.843389275500002 149.924316608,-36.843208475 149.92396921599999,-36.842651366 149.92448473600001,-36.842349779 149.92463952,-36.842200835500002 149.926192192,-36.842388296 149.92704108800001,-36.84254480599999 149.92739209600001,-36.842600065500001 149.928192,-36.842725976499999 149.929159328,-36.842831186 149.92952291200001,-36.842722554 149.929819936,-36.842682871500003 149.93040707200001,-36.842635974 149.93052876799999,-36.84265884 149.93108425599999,-36.842839566499997 149.93123904,-36.842874661 149.93136793599999,-36.842871423499993 149.93173548799999,-36.842784566 149.931844576,-36.842740018 149.93187049599999,-36.842729399 149.931957952,-36.8426884585 149.93211273599997,-36.842660024 149.93225376000001,-36.842652032 149.93267776,-36.842688014499998 149.93274675200001,-36.842702999499991 149.932886752,-36.842768008500002 149.93302675199996,-36.842853016 149.93316576000001,-36.842939004 149.933606752,-36.843088003 149.93419811199999,-36.843289542 149.93426099199999,-36.843572999 149.934352,-36.844126001 149.93445500799999,-36.844600008 149.93458201600001,-36.844981996 149.93470099199999,-36.845138006500001 149.93491798400001,-36.845507007500004 149.93518499199999,-36.845943996 149.935371008,-36.846211006499999 149.93561699200001,-36.846405996500003 149.935964,-36.846640003 149.93619401599997,-36.846765007500004 149.93622601600001,-36.846774997499999 149.936410016,-36.846849996499998 149.93657500800001,-36.846897005 149.936711008,-36.846915005499994 149.93677401599999,-36.846891991500001 149.93685398400001,-36.846853992500002 149.936868992,-36.846794996 149.936983008,-36.846690008499998 149.937116992,-36.846650992 149.93718899199999,-36.846626997499996 149.93736300799998,-36.846674006 149.93744700799999,-36.8467300055 149.937546016,-36.846719997 149.93775001599997,-36.846861004 149.937804992,-36.846915005499994 149.937852,-36.846994999499991 149.937950016,-36.847041009 149.938088,-36.847082005 149.938255008,-36.84709099599999 149.93837500800001,-36.847063005500004 149.93846,-36.847029002500001 149.93855401600001,-36.84697799799999 149.938668992,-36.846950007499998 149.93872899199999,-36.846920000499999 149.938804992,-36.846931008 149.938872,-36.846961995500003 149.93887900799999,-36.847013999 149.93893100799997,-36.847049001 149.938975008,-36.847028003499993 149.93895699199999,-36.846955002500003 149.93896,-36.84689400799999 149.938892,-36.846819009 149.93889900799999,-36.846746008 149.93891100799999,-36.846667993499999 149.93897100800001,-36.846655006500001 149.93904601599999,-36.846636007 149.939210016,-36.8465470035 149.93925299200001,-36.846489006 149.93935001599999,-36.846381003 149.939415008,-36.846359006499995 149.93949900800001,-36.8462959955 149.93960899199999,-36.846273 149.93966499199999,-36.846288003499993 149.93971001599999,-36.846278994 149.93976499199999,-36.846256997499999 149.93980499200001,-36.846259994500002 149.939787008,-36.84630500499999 149.939788,-36.846346001 149.939718016,-36.846351995 149.93971100799999,-36.846437002500004 149.93967801599999,-36.846502992 149.939630016,-36.846552997499998 149.93956499199999,-36.846594992500002 149.93959100800001,-36.846614991 149.93966201599997,-36.846621003500005 149.939704,-36.846644998 149.93968099200001,-36.846705992499999 149.93962300799998,-36.846792998 149.93956300799999,-36.846786005 149.939492,-36.846788003 149.93947801599998,-36.846816992500003 149.93951900799999,-36.846847998499996 149.93948499199999,-36.846868996 149.939435008,-36.8468830005 149.93934899199999,-36.846897005 149.93929500799996,-36.846919001499998 149.93937100799999,-36.846924995500004 149.939427008,-36.846943995 149.939458016,-36.8469589985 149.93942899199999,-36.846992002500002 149.93935100799999,-36.847071996499999 149.93929699200001,-36.847105000500001 149.939284,-36.847154007 149.939244992,-36.847196002 149.939196,-36.847257995499994 149.939144,-36.847198 149.939144992,-36.847227008 149.939168,-36.847311997 149.939148,-36.847320007499995 149.93907900799999,-36.847229006 149.939054016,-36.847220995500003 149.93901299199999,-36.847221994500003 149.939028992,-36.847241993 149.93904601599999,-36.847290000500003 149.93896601599997,-36.847311997 149.93890099199999,-36.847322005500004 149.93892300799999,-36.847379004 149.938916,-36.847448009 149.938896992,-36.847485009 149.93892300799999,-36.847516995499994 149.939,-36.847523008 149.93900099199999,-36.847550998500004 149.93894300799997,-36.8476220015 149.93889299200001,-36.84764699499999 149.938839008,-36.847680998 149.93884,-36.847704992499999 149.938795008,-36.847731003500002 149.938750016,-36.847752001 149.93874201599999,-36.847789001 149.938804,-36.847820007 149.93886,-36.8478509945 149.93885299199999,-36.847906994 149.938808,-36.8479120075 149.93876300799997,-36.847933005 149.93874499200001,-36.847994998499999 149.93879401599997,-36.848074992500003 149.938851008,-36.848125997 149.938864,-36.848198998 149.93878998400001,-36.848234 149.938792,-36.848290998499998 149.93885401599999,-36.848333992500002 149.93881001599999,-36.848366996500005 149.93885299199999,-36.848443993499998 149.938804,-36.848480993500004 149.93878601599997,-36.848527003 149.938792992,-36.848579006500003 149.93883100799999,-36.848667991500001 149.93887900799999,-36.848712003 149.938860992,-36.848765005499999 149.93886899199998,-36.8488420025 149.93891100799999,-36.848878003500005 149.93898300800001,-36.848920997499995 149.93900099199999,-36.848989003500002 149.93899299200001,-36.849054993 149.939055008,-36.849078007 149.9391,-36.849060006500004 149.93917401600001,-36.849010001 149.93925001599999,-36.849011999 149.939326016,-36.849010001 149.939412,-36.849019991 149.93956499199999,-36.849035993500003 149.93964300799996,-36.849083002 149.93968201600001,-36.849192004 149.939671008,-36.849298009 149.939628,-36.849351992 149.93959900799999,-36.849394005500002 149.93956499199999,-36.849447008 149.93960899199999,-36.849528001 149.939672,-36.849599004 149.93973401599999,-36.849650008499999 149.939776,-36.849681995 149.93981500800001,-36.849721992 149.939872,-36.849769000499997 149.939952,-36.849814991500004 149.93995900799999,-36.849866995 149.939924,-36.849919997499995 149.93987001599999,-36.849942993 149.93983900800001,-36.849999991499999 149.939832,-36.85004100599999 149.939816,-36.8501000025 149.93980499200001,-36.850166991 149.93982,-36.850223009 149.939864992,-36.850291995499994 149.93986700799999,-36.850350992 149.93985100800001,-36.850417999 149.93982499200001,-36.850471001499997 149.93988201600001,-36.850498992 149.93995001600001,-36.850486005 149.940048,-36.850502007500005 149.94011699199999,-36.850496994 149.94017500800001,-36.850559006 149.940256,-36.850616004500004 149.940339008,-36.850636003 149.9404,-36.850641997 149.940494016,-36.850679996 149.940540992,-36.850709004 149.940608,-36.850778009 149.94064499199999,-36.850772995500002 149.94070499200001,-36.8507640045 149.940764992,-36.850773994500003 149.940867008,-36.850797008499995 149.94093699199999,-36.850803002500001 149.94104300800001,-36.850807997499999 149.941132,-36.850839003499992 149.941188,-36.850856005 149.94125401599999,-36.850892006 149.94132,-36.850927008 149.94134499200001,-36.850971001 149.94134201599999,-36.851023004499993 149.941348992,-36.851093008500001 149.94139699199999,-36.851128991 149.94145299199999,-36.851145992500001 149.94154899200001,-36.851133005500003 149.941619008,-36.851135003499998 149.94171500799996,-36.851124995 149.941756,-36.851101999500003 149.941736,-36.851053992 149.941748,-36.851016992 149.94182499199997,-36.850977994 149.941912992,-36.850972 149.94195001599999,-36.850986004500001 149.941948,-36.851045001 149.94197299199999,-36.851100001500001 149.941956,-36.8511449935 149.94198899199998,-36.851155002 149.94201100800001,-36.851118002 149.942056,-36.851104996499998 149.94209699199999,-36.85108599699999 149.942128,-36.851037009 149.94215699199998,-36.850976995 149.94217500799999,-36.850960992499992 149.942248,-36.850934001 149.942283008,-36.850977994 149.94229401600001,-36.851032994500002 149.94231401600001,-36.851081002 149.942316992,-36.8511300085 149.942304,-36.851162994 149.942304992,-36.851204008499998 149.94233500799999,-36.851236994 149.942408,-36.851209003500003 149.942454016,-36.851208004500002 149.94250700800001,-36.851254994500003 149.942544,-36.851268999 149.94259699200001,-36.851305 149.94260700800001,-36.851342 149.94261500799999,-36.851413003 149.94264201600001,-36.8513970005 149.942667008,-36.851341001 149.94272099200001,-36.851294991499991 149.94276601599998,-36.851245004500001 149.94279798400001,-36.8512519975 149.94286499199998,-36.851294991499991 149.942939008,-36.851285001500003 149.943007008,-36.851247002500003 149.943096,-36.851174001499999 149.943140992,-36.851132006500002 149.94317100800001,-36.851067996499999 149.943230016,-36.851017991 149.943312,-36.850990000500005 149.94340201599999,-36.8509239925 149.943448,-36.850903994 149.94351798399998,-36.850939995 149.94353801599999,-36.850969003 149.943464,-36.851075008 149.94346201599998,-36.851160996 149.94348700800001,-36.851194 149.943570016,-36.851194999 149.943652,-36.851156001 149.943748,-36.851131007499994 149.94380099200001,-36.851171004500003 149.94376099199999,-36.851228003 149.943759008,-36.851287998499998 149.94377401599999,-36.8513279955 149.94375299199999,-36.851392005500003 149.94371900799999,-36.851449004 149.94374499200001,-36.851522005 149.94376499200001,-36.851574008499995 149.943836992,-36.851619999500002 149.94389801599999,-36.8516560005 149.94398601599997,-36.851664991500002 149.943992,-36.851698994499998 149.94402601600001,-36.851718993 149.94423001600001,-36.851785001 149.944384,-36.851804999500004 149.94451801599996,-36.851786 149.944604,-36.851799005499998 149.94477699199996,-36.851786999 149.944928,-36.851713998 149.945032,-36.851695997499995 149.94521299199999,-36.851644993 149.94524300800001,-36.851682992 149.94526499200001,-36.851751997 149.945336,-36.851835006500004 149.94545500800001,-36.851954997499995 149.945428,-36.852002006 149.94551001599999,-36.852132005500003 149.945503008,-36.852193 149.94534700799997,-36.852390006500002 149.94516300799998,-36.852586994500001 149.94509100799999,-36.852728001500004 149.94498300800001,-36.852899996 149.94493801600001,-36.852986002500003 149.94483500800001,-36.853049994 149.94473100799999,-36.853099000500002 149.944762016,-36.853159995 149.94477299199997,-36.853191001 149.94482300799999,-36.853228001 149.944928992,-36.853264002 149.945008,-36.853307995 149.945068,-36.853383993 149.945144992,-36.853381995 149.945166016,-36.853428004500003 149.94513001600001,-36.853483005 149.94507299200001,-36.853506999499999 149.944943008,-36.853611006500003 149.944906016,-36.853666007 149.94482,-36.853659994499992 149.944792,-36.8536840075 149.944852,-36.853744003 149.944856,-36.853859998 149.94479100800001,-36.853914998500002 149.944784,-36.853985002500004 149.94485500799999,-36.854082997 149.944908,-36.854205004500002 149.94490201599999,-36.854298004 149.94502,-36.854364992500003 149.945088992,-36.854416996 149.94518,-36.854487999 149.945212,-36.854542000500004 149.945376,-36.85464199299999 149.94550700799999,-36.854670002 149.94561299200001,-36.854685005500002 149.94573500800001,-36.854682008499999 149.945824,-36.854613003499999 149.94592300799999,-36.854610006500003 149.945978016,-36.8546520015 149.946056,-36.854705004 149.94618601600001,-36.854726001499998 149.946256,-36.854748997 149.946368992,-36.854722005500001 149.94638300799997,-36.854690999500001 149.946539008,-36.854589009 149.94665001600001,-36.8545069985 149.946716,-36.85445 149.94678300800001,-36.854399994499992 149.94687299200001,-36.854384991 149.946876992,-36.8544769915 149.946843008,-36.854568992 149.94677100800001,-36.854674997 149.946744,-36.854766997500001 149.946656,-36.85485500199999 149.94663401599999,-36.854897996 149.946652,-36.85495900899999 149.94671500799998,-36.855006998 149.946799008,-36.855010994 149.946866016,-36.854971996 149.94696099199999,-36.854865991 149.94702700799999,-36.854815005 149.947103008,-36.854813007 149.94710201599997,-36.854783 149.94716,-36.854708001 149.94724099199999,-36.854651002499999 149.94726601599999,-36.854687003500004 149.94724499200001,-36.854748997 149.94720998400001,-36.854811009 149.94714300800001,-36.854874001500001 149.947092,-36.854917994499992 149.94704899199999,-36.854998007 149.94706,-36.855064995500001 149.94712201600001,-36.855113003 149.947144,-36.855081997 149.947204,-36.8550560045 149.94728,-36.855065994500002 149.947374016,-36.855131003499991 149.94742099199999,-36.855166005500003 149.947608992,-36.855113003 149.947716,-36.855116 149.94780601599996,-36.855064995500001 149.94788099199999,-36.855039003 149.94793500799997,-36.8550560045 149.947936,-36.855092005499998 149.947915008,-36.855135998500003 149.94796201599999,-36.855176994499992 149.94800700799999,-36.855157995 149.948068,-36.855144009 149.948151008,-36.855148005 149.94822099199999,-36.855189001 149.948296992,-36.855174996500004 149.948448,-36.855147006 149.94860700800001,-36.855113003 149.948748,-36.855023000500005 149.94880998400001,-36.855052008500003 149.94890099200001,-36.855038004 149.94898300799997,-36.854999006 149.949064,-36.854935995 149.94912499200001,-36.854922009 149.94918,-36.854964004 149.94920499200001,-36.855029993500004 149.94923801600001,-36.855084994 149.949263008,-36.855145008 149.949355008,-36.855160992 149.949512992,-36.85511400199999 149.94957299199999,-36.855100996499999 149.949635008,-36.855117998 149.94966,-36.855166005500003 149.949676,-36.855208000499999 149.94975299199999,-36.855219008 149.949759008,-36.855175995499998 149.94980499199997,-36.855187003 149.94980700799999,-36.855242003500003 149.94980899199996,-36.855290991499999 149.949916,-36.855305995 149.94997801599999,-36.855329009 149.95001100799999,-36.855390003499991 149.94995900800001,-36.85544000899999 149.949895008,-36.85555700299999 149.949750016,-36.855738007 149.94974499200001,-36.855805994500002 149.94967699200001,-36.855819999 149.94964899199999,-36.855893999 149.94958499200001,-36.855999005 149.94946099200001,-36.856149003 149.949387008,-36.856193995 149.949355008,-36.856152 149.94926899199999,-36.856098997499998 149.94916998400001,-36.856095001500002 149.949096,-36.856146006 149.94898300799997,-36.856178991500002 149.94894201599999,-36.8561009955 149.94885001599997,-36.856078999 149.948780992,-36.8560930035 149.948692,-36.856150002 149.948664,-36.856206001499999 149.94859699200001,-36.856244000499998 149.94849001599997,-36.856233992 149.94838198399998,-36.8562000075 149.94831398400001,-36.856202005500002 149.94822899199997,-36.856180009 149.948136992,-36.856164006500002 149.94804300800001,-36.856086991 149.94796601599998,-36.856063995500001 149.947991008,-36.856112003 149.9481,-36.856194994 149.94816899200001,-36.856218008 149.94827100800001,-36.856277004500001 149.948364,-36.856329008 149.94838899199999,-36.856384008499994 149.948368,-36.856427002499998 149.94827801599999,-36.856453994 149.94823299199999,-36.856485 149.94814499200001,-36.856566992 149.948083008,-36.856550009 149.948016,-36.856576001500002 149.947971008,-36.856590006 149.94786201599999,-36.856524997 149.94779299199999,-36.856515007 149.947716,-36.856503999499999 149.94763900800001,-36.856469996500003 149.947576,-36.856422007499994 149.94752099199999,-36.856374999 149.947444,-36.856345991 149.94734300799999,-36.8563 149.947271008,-36.856215991500001 149.947138016,-36.856115 149.947012992,-36.856025996500001 149.946896,-36.855962005 149.94682700800001,-36.855945003500004 149.94672499199999,-36.855861994 149.94661500800001,-36.855792008500003 149.94643001599997,-36.855716991 149.94619900799998,-36.855662009 149.946147008,-36.85569900899999 149.946064992,-36.855744001 149.946008992,-36.855677993 149.945908992,-36.855650002499999 149.94585001600001,-36.855675995 149.94574300799999,-36.855678992 149.94567100800001,-36.855595002 149.945615008,-36.855517006 149.94552899199999,-36.855464003500003 149.945414016,-36.855449 149.945324,-36.855481005 149.945256992,-36.855525997 149.945204,-36.855521002 149.94517100799999,-36.855467000499999 149.94508,-36.855450998 149.945010016,-36.8554220085 149.944968,-36.855313006500005 149.944896,-36.855241004500002 149.94477001600001,-36.855128006500003 149.944684,-36.855062997499999 149.944628,-36.854985001500005 149.94447299199999,-36.854934996 149.94416,-36.854925006 149.94388700799999,-36.854974993 149.94351798399998,-36.855076003 149.943299008,-36.855135998500003 149.94299001600001,-36.855223004 149.942826016,-36.855319000500003 149.942690016,-36.855353003499999 149.942620992,-36.855330008 149.942572,-36.855345992 149.942528,-36.855387006500003 149.94249001599999,-36.85544000899999 149.942388,-36.855391002499999 149.942263008,-36.855401991500003 149.94224,-36.855447002 149.942272,-36.8554980065 149.942208,-36.855527995 149.94219100800001,-36.855480006 149.942150016,-36.855461006500001 149.942071008,-36.855503001500004 149.94196201599999,-36.855518005 149.94191100800001,-36.855490995 149.94185001599999,-36.855472994500005 149.941710016,-36.855487998 149.94145900800001,-36.855622992500003 149.94120099200001,-36.855815004 149.94084300799997,-36.856057002500002 149.94062,-36.856240004500002 149.940424992,-36.8563900025 149.940338016,-36.856456991 149.94000300799999,-36.856755007499999 149.939676,-36.857041998 149.93933100800001,-36.857328008 149.939116,-36.857512009 149.93892300799999,-36.857694992500001 149.93853699199997,-36.858079996 149.938356,-36.858290008 149.93806694400001,-36.858637993 149.93804694400001,-36.858670997 149.93796595200001,-36.858784994 149.937915936,-36.858843990499999 149.93758896,-36.8592270145 149.93713097599999,-36.859676009499999 149.93709497599997,-36.859760998499993 149.936826016,-36.860032005 149.93650499200001,-36.860514004 149.936336,-36.860745994 149.93602300800001,-36.861212009 149.93572499199999,-36.861695007 149.93539801599999,-36.862145001 149.935132,-36.862559993 149.93484998399998,-36.862997 149.934568,-36.863551001 149.93436099199999,-36.863904998500004 149.9341,-36.864285007 149.933807008,-36.864889994 149.933532,-36.865278993499999 149.93328201599999,-36.865777994 149.93310499200001,-36.866180998 149.93303900799998,-36.866365998 149.932930016,-36.866760991499994 149.93271801599997,-36.867164994500001 149.93253299200001,-36.867541007 149.93243801599999,-36.867758992500001 149.93213801600001,-36.868380000500004 149.931968,-36.868816008499998 149.93176499199998,-36.869446007500002 149.931592,-36.870148008500003 149.931556992,-36.87032999299999 149.93146,-36.870625993 149.93134118399999,-36.870829696500003 149.931304,-36.8708920045 149.931248,-36.871139997 149.93119900799999,-36.871308994499998 149.9311,-36.871583997 149.93094601600001,-36.871860997500001 149.93080499199999,-36.872181991 149.93065401600001,-36.872556005500002 149.93052300799999,-36.872841997 149.93045900800001,-36.8731870035 149.93037801599999,-36.873357 149.930352992,-36.873443006500004 149.93034499199999,-36.873475992 149.930324,-36.873597000499998 149.93032201599999,-36.873621994 149.930262016,-36.873782999500001 149.930172,-36.873987998 149.93016182400001,-36.87410847 149.930148992,-36.874261002499999 149.930094016,-36.874554005499995 149.93004899199997,-36.874793007 149.93004300800001,-36.8749250045 149.92998601599999,-36.875167003 149.929991008,-36.8752990005 149.929932992,-36.875485998499997 149.92989401599999,-36.875646005 149.929835008,-36.875805993 149.92984099200001,-36.875965000500003 149.92981500799999,-36.876160009 149.92979001599997,-36.876354 149.92979500800001,-36.876486996499999 149.929791008,-36.876663005499999 149.92976198400001,-36.877259001500001 149.929696,-36.877950994 149.929628992,-36.878999999500003 149.92955500799999,-36.879469992 149.92957001600001,-36.879851998500001 149.92967299200001,-36.8805520015 149.92980300799999,-36.881141004500002 149.92996201599996,-36.881632993499998 149.930084,-36.882070999500002 149.93016300799999,-36.882337991500002 149.93027801599999,-36.882549002499999 149.93043299199999,-36.882831997 149.93057299200001,-36.883104002499998 149.93068700800001,-36.883291000500002 149.93083900799999,-36.883495 149.930983008,-36.88368099899999 149.93112,-36.883879004500002 149.9313,-36.8839910035 149.93139100799999,-36.883994999500004 149.93141900800001,-36.883933006 149.931431008,-36.883841005500003 149.93145900799999,-36.883811997500004 149.93154,-36.883846999500001 149.931564,-36.883902 149.93165500799998,-36.883940998 149.93176899199997,-36.883927992499991 149.93185801599998,-36.883900002 149.93194700800001,-36.883877006499993 149.93201001599999,-36.883860005 149.93208899199999,-36.883903998 149.93211500800001,-36.883923996500002 149.932192,-36.883927992499991 149.932268,-36.883900002 149.93231699200001,-36.883846999500001 149.93234201600001,-36.883830997 149.93245001599999,-36.883823005 149.93254601599997,-36.883821007 149.93261001600001,-36.883809000500001 149.932694016,-36.883828 149.932738016,-36.88382700099999 149.93277699199999,-36.883841005500003 149.932772,-36.883866998 149.932748992,-36.883919001499997 149.93281401600001,-36.8839530045 149.93289900799999,-36.883996997499999 149.93303299199999,-36.883989005499998 149.933192,-36.883975001 149.93331900800001,-36.883940998 149.93344499200001,-36.883902 149.93358601599996,-36.883883000499999 149.933650016,-36.883891991500001 149.933664,-36.883917003500002 149.93369001600001,-36.883937002 149.933728,-36.883940998 149.93381100799999,-36.883922997500001 149.933848,-36.883881002499997 149.93387900799999,-36.883854991500002 149.933943008,-36.883847998499995 149.93403900800001,-36.883850995499998 149.934084,-36.883881002499997 149.934112,-36.883931008 149.934202016,-36.883934005 149.934264,-36.883891991500001 149.934327008,-36.883859006 149.934384,-36.883836991 149.93444099199999,-36.883830997 149.934556,-36.883832995 149.93459001599999,-36.883867997 149.934662016,-36.883922997500001 149.93474700799999,-36.883957000500004 149.93477900799996,-36.883960996499994 149.934868,-36.883954003500001 149.934932,-36.883941997 149.93502099200001,-36.883935004 149.93508499199996,-36.883938001 149.93515001599997,-36.883952005499999 149.93525500800001,-36.884020992 149.935283008,-36.884071996500005 149.935304,-36.884132991 149.935304992,-36.884159002 149.93526,-36.884164996 149.935184,-36.884166994 149.935171008,-36.884182996500002 149.935136,-36.884266006 149.93505500800001,-36.884313995 149.935,-36.884387995 149.934924,-36.884415005 149.93489401599999,-36.884452005 149.934844,-36.884498995 149.93481500799999,-36.884556992500002 149.93476,-36.884629993499992 149.934731008,-36.884722993 149.93465801599999,-36.884823004 149.93459100799998,-36.884906994 149.93452201599999,-36.884929009 149.934504,-36.884975999 149.93445401599996,-36.885008004 149.93443500800001,-36.885017994 149.93441100799998,-36.885040009 149.934338016,-36.885143997500002 149.934244992,-36.885229005 149.934152,-36.885312995 149.934078016,-36.885392008499998 149.934068,-36.8854389985 149.933967008,-36.885481992499997 149.93393801599998,-36.885569997 149.933916,-36.885674004 149.93390099199999,-36.885771998500005 149.93389001599999,-36.885833992 149.93389299200001,-36.885905994 149.93386700799999,-36.885982991 149.933792,-36.885999992500004 149.93367699199999,-36.885956998499999 149.93356300799996,-36.885914004500002 149.933524992,-36.885922995500003 149.93350899199996,-36.885991001500003 149.933568,-36.886049998 149.93371100799999,-36.886091993 149.93372201599999,-36.88612999199999 149.933688,-36.886220993500004 149.93363299200001,-36.886261009 149.93358700799999,-36.886291996499999 149.933616,-36.886313993 149.93359900799999,-36.886366995499998 149.93356499199999,-36.886458996 149.93352300800001,-36.886588995499999 149.933516,-36.886672005 149.93346300799999,-36.886749002 149.93342,-36.886856006 149.93338598400001,-36.886970003 149.93335299200001,-36.887069995499999 149.933326016,-36.887107994499992 149.93327500800001,-36.887252997499999 149.93322998400001,-36.887314991 149.933166016,-36.887368992500001 149.93312899200001,-36.887393005500002 149.933131008,-36.887431004500002 149.933104,-36.887461992 149.93305699199999,-36.887477994500003 149.93304,-36.887524004 149.93297900799999,-36.887631008 149.932963008,-36.887707006 149.932908,-36.887753996 149.93280499199997,-36.887779008 149.93280899199999,-36.887861999 149.93279001600001,-36.887878001499999 149.932736,-36.8879169995 149.93263401600001,-36.887979992 149.932572,-36.888095006500002 149.932536,-36.888134004500003 149.93248,-36.888127992 149.932290016,-36.888086996 149.932222016,-36.888035991500004 149.932155008,-36.888022005499998 149.932110016,-36.888053992 149.93207699199999,-36.888068995499992 149.93202601599998,-36.888094007500001 149.93198099200001,-36.88814800899999 149.93197500799999,-36.888231 149.931844,-36.888256992499997 149.93178499199996,-36.888190004 149.931728,-36.888169006499993 149.931670016,-36.888139998499994 149.93159500799999,-36.888141996500003 149.93153900799999,-36.888165991 149.931448,-36.888244005499992 149.93137299200001,-36.888252996499993 149.93132601599999,-36.888254994500002 149.93122201599999,-36.888256992499997 149.931128,-36.888267001 149.93098,-36.888323999500003 149.93090499199997,-36.888347994 149.93085001599999,-36.888379999 149.93085100799999,-36.888417998 149.93085299200001,-36.888463008500004 149.930816,-36.888487003 149.93075100799999,-36.888503005499999 149.930648,-36.88852899799999 149.93057299200001,-36.888538007500003 149.930528,-36.888592009 149.93050201599999,-36.888638 149.93056300800001,-36.888757991 149.93051699200001,-36.888788997 149.93043500799999,-36.888852008 149.93026499199999,-36.888900996 149.930112,-36.888956995500003 149.930012,-36.889074008 149.92994601599997,-36.889366992500001 149.929892,-36.889659995500004 149.92983801599999,-36.889941991 149.92974300799997,-36.89016299199999 149.92970201599999,-36.890455995 149.929668,-36.890581998500004 149.92966300800001,-36.890780004 149.929710016,-36.891018006499998 149.929676,-36.891122994 149.92959100799996,-36.891270994 149.92955001600001,-36.891563997 149.929506016,-36.891783999 149.929512,-36.891929002 149.929496,-36.892201007499999 149.92947801599999,-36.892409003 149.929462016,-36.892649003500004 149.92947699199999,-36.892819 149.929474016,-36.893059000500003 149.929460992,-36.893205002500004 149.92948899199999,-36.893458008499998 149.92950099199999,-36.893770991499999 149.929536,-36.893959007 149.92956099200001,-36.894154996 149.929531008,-36.894322994500001 149.929548,-36.894512009 149.929592,-36.894713992 149.92964,-36.894806991500005 149.929804,-36.8948330025 149.929879008,-36.894873998500003 149.92994300800001,-36.894902007500001 149.93001801599999,-36.894958007 149.93007401599999,-36.895015005499999 149.930128,-36.895014006499991 149.9302,-36.895004997 149.93031001599996,-36.895031008 149.930348,-36.895074002 149.930342016,-36.895153996 149.930344,-36.895219005 149.930319008,-36.895248993500005 149.930274016,-36.895272007500004 149.930284992,-36.895315001499995 149.93034300799999,-36.895415993 149.93043699200001,-36.895515005 149.93051299199999,-36.895600993 149.93051500799999,-36.89566600199999 149.93048099200001,-36.895703002 149.93048300800001,-36.895754006499999 149.93054998400001,-36.895860992 149.930598016,-36.895932994 149.93057299200001,-36.895992009 149.930520992,-36.896051005499999 149.93046,-36.896095997499998 149.93044300799997,-36.896140009 149.930436,-36.896184002 149.93040499200001,-36.896322992500004 149.930408992,-36.896418008499992 149.93041100799999,-36.89648999199999 149.930386016,-36.896541995500002 149.930360992,-36.896593 149.93033699200001,-36.896667 149.93032,-36.896704 149.930330016,-36.896740001 149.930384,-36.896738003 149.930428992,-36.8967229995 149.930484992,-36.896764994499996 149.93050499200001,-36.896822992 149.93055299199997,-36.896880009 149.93061699200001,-36.896885004 149.93062700799996,-36.896928997 149.930620992,-36.896994006 149.93063699199999,-36.897039997 149.93070499199999,-36.897112998 149.930832,-36.897192992 149.93092201600001,-36.897218004 149.930992,-36.897206996500003 149.931072,-36.89719199299999 149.93111100799999,-36.897182003 149.93112601600001,-36.897203999499993 149.931148,-36.897271006499999 149.93119900799999,-36.897296999 149.93121100799999,-36.897316997499992 149.93121299200001,-36.897354996499999 149.93126998400001,-36.897377992 149.93133401599997,-36.897378991 149.93139500800001,-36.897418007500001 149.93142899199998,-36.897440004 149.93144700799999,-36.897447996 149.93148601600001,-36.897464997500002 149.931476,-36.897489991 149.9315,-36.897530006499998 149.93151500799999,-36.897560994 149.93158,-36.897579993499996 149.93164700799997,-36.897585007 149.93165398400001,-36.897603007500003 149.931646016,-36.897628001 149.931658016,-36.897651995499999 149.93169500799999,-36.897658008 149.93175299200001,-36.897651995499999 149.93181801599999,-36.8976460015 149.931882016,-36.897637991 149.93194,-36.897617992499995 149.93200700799997,-36.897598993 149.93204499199999,-36.897571002500001 149.93209401600001,-36.897555999 149.932130016,-36.897528008500004 149.93220499200001,-36.897510008 149.93227401600001,-36.897495004500001 149.932299008,-36.897474007 149.93232601599999,-36.897462000499999 149.93233801599999,-36.897478003 149.93233900799999,-36.897504994499997 149.932308,-36.89756399099999 149.932288,-36.897643004500004 149.93226099200001,-36.897672993 149.932234016,-36.897701002 149.93219398400001,-36.897744995 149.932172,-36.897824008500002 149.93216899199999,-36.897880008 149.93216700799999,-36.897926998 149.93217900799996,-36.897999 149.932232992,-36.8980880035 149.932266016,-36.898099991500004 149.932284,-36.898151995 149.93231900800001,-36.898222998 149.932388992,-36.898332999 149.93248,-36.898376992 149.93258499199999,-36.898334997 149.93264099199996,-36.898313999500004 149.932683008,-36.898326006 149.93270099200001,-36.898370998 149.93274300799999,-36.898409996 149.932850016,-36.898426997500003 149.932948,-36.8984309935 149.93307801599997,-36.898407998 149.93307100800001,-36.89844100199999 149.93303900799998,-36.898475005 149.93301801600001,-36.898554 149.932972,-36.898633994 149.93293500799999,-36.89873300599999 149.932896992,-36.898798995500002 149.93291500800001,-36.898851998 149.932975008,-36.898916008 149.93303299199999,-36.898926997 149.933096992,-36.898899006500002 149.933154016,-36.898890996 149.93324300800001,-36.898883004 149.93334,-36.898867001499994 149.93336601600001,-36.898905999500002 149.93331900800001,-36.898940002499998 149.93332099199998,-36.899004993 149.93327299200001,-36.899038996 149.93322499199999,-36.899059993500003 149.93325100800001,-36.89910500399999 149.93323699199999,-36.899164999500002 149.933296,-36.899196005500002 149.93338700799998,-36.89922699299999 149.933508,-36.899190992 149.93359699199999,-36.8991560085 149.933695008,-36.899152993 149.93372700799998,-36.899159005499996 149.93373699200001,-36.899211009 149.933795008,-36.899209991499994 149.93382700800001,-36.8992089925 149.933828992,-36.899261995 149.93384700799999,-36.899300993 149.933896,-36.899306006499991 149.93396099200001,-36.899297996 149.93407500799998,-36.899294999 149.934167008,-36.899331999 149.934258016,-36.899368999 149.934292,-36.899407997 149.93429500799999,-36.899479999 149.934280992,-36.899538995500002 149.93433100799999,-36.899576994500002 149.93446300799999,-36.899593996 149.934551008,-36.899558994 149.93462300799999,-36.899503993499998 149.934754016,-36.899455005500002 149.93489699199998,-36.899424998500002 149.934979008,-36.899423000499993 149.9351,-36.899401004 149.93517401599999,-36.8993919945 149.935294016,-36.899336994 149.93532499200001,-36.899283991499999 149.935363008,-36.899211009 149.935384,-36.899138008 149.935440992,-36.899109999 149.935472,-36.89910500399999 149.935495008,-36.899114994 149.93547699199999,-36.899135991500003 149.935462016,-36.8991630015 149.93547801599999,-36.899189993 149.935495008,-36.899222997 149.935530016,-36.899233005500001 149.93557699199999,-36.899234004500002 149.93559500800001,-36.899220999 149.935640992,-36.899180003 149.935656,-36.899169994499999 149.935712,-36.899164000499994 149.93580300799999,-36.899166997500004 149.935816,-36.899186996 149.935852,-36.899195006500001 149.935900992,-36.899184998 149.93595500800001,-36.899177006 149.935959008,-36.899205995500004 149.93596300799999,-36.8992469915 149.93598899200001,-36.8992700055 149.936012,-36.899275999499999 149.936032,-36.899263993 149.93606598399998,-36.899255002 149.936094016,-36.899242995499996 149.93610201600001,-36.899220999 149.936104,-36.899158006500002 149.93608700799999,-36.899142004 149.936082016,-36.899116992 149.936096,-36.8990939965 149.93610899199996,-36.899069003 149.93610700799999,-36.899015001500004 149.93617100799997,-36.898980998500001 149.936268,-36.898964996 149.936307008,-36.898931992 149.93633299199999,-36.898963997 149.93631299200001,-36.89907599599999 149.936274016,-36.899128998500004 149.93622601600001,-36.89914300299999 149.936204992,-36.899165998500003 149.936196,-36.899216004 149.93617900800001,-36.899254003 149.93616700800001,-36.899292002 149.93616899200001,-36.899325006 149.93618899200001,-36.899351997499991 149.93621001599999,-36.899367001 149.936276,-36.899385001499994 149.93636700799999,-36.8994220015 149.93640300800001,-36.8995059915 149.936372992,-36.899559993 149.936316992,-36.899607001500002 149.93630201600001,-36.899632994 149.936296,-36.899693008 149.93637001600001,-36.899717002500005 149.93652700800001,-36.899752004500002 149.936634016,-36.899769006 149.936678016,-36.899847002 149.936736,-36.899878008 149.93679401599999,-36.8999030015 149.936858016,-36.899868998500004 149.93692198400001,-36.899820991 149.93702700799997,-36.899806006 149.937116992,-36.899810002 149.937206016,-36.899828002499994 149.937208,-36.899849 149.93719500799997,-36.899862005500005 149.93713401599999,-36.899870996499999 149.93710198399998,-36.899900004500005 149.937092,-36.899925997 149.937092992,-36.899951009 149.93712,-36.899972006500001 149.937148,-36.899982995499997 149.937187008,-36.899994003 149.93721001599999,-36.9000100055 149.93719100799999,-36.900027007 149.93717100800001,-36.900049003500001 149.93713100799999,-36.900070001 149.93711500800001,-36.900081008500003 149.93708899200001,-36.900089999500004 149.93711100799999,-36.900121005500004 149.937139008,-36.900125001499994 149.937168,-36.900121005500004 149.937198016,-36.900116991 149.937219008,-36.900129996499999 149.93724,-36.900157006500002 149.93725900800001,-36.900158005499996 149.93730099199999,-36.900158005499996 149.937328992,-36.900189992 149.937344,-36.900224994 149.937366016,-36.900308003500001 149.93734899200001,-36.900354993499995 149.937330016,-36.900361006 149.937332,-36.900406997 149.937308992,-36.900474004 149.937272,-36.900516998 149.937240992,-36.900548004 149.937242016,-36.9005739965 149.93726201600001,-36.900593995 149.93732,-36.90059799099999 149.93741699200001,-36.900615991500004 149.937424,-36.900646997499997 149.93741900800001,-36.900682998500002 149.937364,-36.900740996 149.93729500800001,-36.900798993500004 149.93727001600001,-36.900826003500001 149.937272,-36.900846002 149.937298016,-36.9008709955 149.93737001599999,-36.900904998500003 149.937428,-36.900914008 149.937467008,-36.90091900299999 149.93749299199996,-36.900939001499999 149.93749401599999,-36.900963995 149.937444,-36.900991005 149.9374,-36.901017996500002 149.93737500799998,-36.901038994 149.937376992,-36.901080008500003 149.93740300799999,-36.901094993500003 149.937448,-36.901093994500002 149.937499008,-36.901098009 149.937558016,-36.901122003499999 149.93761801599999,-36.901193006500002 149.937624992,-36.901213005 149.9376,-36.901223994 149.937568992,-36.901255999 149.937552,-36.901317992500005 149.937534016,-36.9013440035 149.937522016,-36.901369996 149.93749699199998,-36.901381003499999 149.93745900799999,-36.901386997499998 149.937434016,-36.901403 149.937448,-36.901434006 149.937512,-36.901447992 149.937596,-36.901435005 149.937679008,-36.901438002 149.937736992,-36.901458000499993 149.93779801599999,-36.901522991 149.93781900799999,-36.901573995500002 149.93781699199999,-36.9016869935 149.937792992,-36.901738997 149.93777500799999,-36.901771002 149.93778899200001,-36.901801009 149.93782099199998,-36.901801009 149.93789699199999,-36.901777995 149.937948,-36.901760993499998 149.937984992,-36.901744991 149.93800499199997,-36.901754999499992 149.938007008,-36.901801009 149.93803500800001,-36.901851995 149.93809401599998,-36.901885998 149.938116992,-36.901998996 149.93812,-36.902087000500003 149.93811500800001,-36.902123001500001 149.938136,-36.902143 149.938143008,-36.902162998500003 149.93813699200001,-36.902183996 149.938118016,-36.902195003500005 149.93811299199999,-36.902225991 149.93812700800001,-36.902267005500001 149.93813401599999,-36.902287004 149.938136,-36.902317991499999 149.938130016,-36.902339007499997 149.93811100799999,-36.902348997499999 149.93809299200001,-36.902370994 149.938107008,-36.902401001 149.93810201599996,-36.902453004500003 149.93806499199999,-36.902490004499995 149.93801401600001,-36.902527004500001 149.937974016,-36.902569998499992 149.93790899199999,-36.902580007 149.93784700800001,-36.902588998 149.93783100799999,-36.902598007500004 149.937815008,-36.902607997499999 149.93777900800001,-36.902606998499998 149.93771699199999,-36.902607997499999 149.93771100799998,-36.902626997 149.93774499200001,-36.902649992500002 149.93770899200001,-36.902661 149.93768,-36.902656005 149.93764,-36.902636006499996 149.937584,-36.902635007500002 149.93754201600001,-36.902648993499994 149.937510016,-36.902655006 149.93743900800001,-36.902673006500002 149.937396,-36.90266599499999 149.93736,-36.902675004500004 149.93732099199997,-36.902673006500002 149.93727801599999,-36.902656005 149.937212,-36.902639003499999 149.937172,-36.902626997 149.937160992,-36.902604001500002 149.937127008,-36.902556993 149.93711299200001,-36.902533997500001 149.937084992,-36.902500993499999 149.93704601599998,-36.902489005500001 149.937044,-36.902454003500004 149.937048992,-36.902394008 149.93707500799999,-36.9023879955 149.93711001599999,-36.902365999 149.93709900799999,-36.902350995500001 149.93708899200001,-36.902329998 149.937088,-36.902309000500004 149.93709001600001,-36.902291 149.937092992,-36.90225599799999 149.93706,-36.902261992 149.93702099199999,-36.902278993500005 149.93697299199997,-36.902298992 149.936926016,-36.902330997 149.936876,-36.902329998 149.93684899199999,-36.902307002500002 149.936852,-36.902286005 149.93684099199999,-36.902259994 149.936815008,-36.90226099299999 149.93678598400001,-36.902276995499996 149.93673801599999,-36.9023119975 149.93670601599999,-36.902328999 149.936667008,-36.902327001 149.93663100800001,-36.902335992 149.93660598400001,-36.902351994500002 149.936584,-36.902377006499997 149.93654499199999,-36.9023879955 149.93651299199999,-36.902409992 149.93646899199996,-36.902437002 149.93645299199997,-36.902456001499999 149.936431008,-36.9024639935 149.936375008,-36.902455002499998 149.93636601599997,-36.902474002 149.936336,-36.902479996 149.93631500800001,-36.902506007 149.936316,-36.9025329985 149.93628700799999,-36.902551998 149.93627100800001,-36.902568000500004 149.93622601600001,-36.902576991499998 149.93619001599998,-36.902574993500004 149.93615299199999,-36.902551998 149.93613398400001,-36.902573994499996 149.93608601599999,-36.9026089965 149.936059008,-36.9026469955 149.93602099200001,-36.902681997500004 149.93598499199999,-36.902687991500002 149.93593900799999,-36.902689009 149.935916,-36.902679000500001 149.935888992,-36.902659002 149.935856,-36.902657004 149.93580499199999,-36.90266599499999 149.93578499200001,-36.9026849945 149.93574,-36.902680998500003 149.935732992,-36.902662998 149.93573801599999,-36.902634008500002 149.93570201599999,-36.902628995 149.93566,-36.902654007 149.93562899200001,-36.902678001499993 149.93561299199999,-36.902704993 149.93557100800001,-36.902711005500002 149.935592,-36.9027470065 149.935596,-36.90276600599999 149.93557299199998,-36.90276600599999 149.93552700800001,-36.902765007 149.935504,-36.902757995500004 149.935496992,-36.902734001 149.93546,-36.902716999500001 149.935427008,-36.902715001499999 149.935418016,-36.902731004 149.93541500800001,-36.902749004499995 149.935392992,-36.902754998500001 149.935356,-36.902742992 149.935336,-36.902724991500001 149.935280992,-36.902731004 149.93529801599999,-36.902756996500003 149.935292992,-36.902780991 149.93525299199996,-36.90277899299999 149.93522,-36.902770002 149.93518,-36.902752001499998 149.935148,-36.902748005500001 149.93511500799997,-36.902758994500005 149.935092,-36.9027470065 149.935080992,-36.902726009 149.93507401599999,-36.902702995 149.93506601600001,-36.9026710085 149.935046016,-36.902650991500003 149.93500601599999,-36.902639003499999 149.93495401600001,-36.902629994 149.93491401599999,-36.902629994 149.93488899199997,-36.902660001 149.93489299199996,-36.902680998500003 149.934892,-36.90272800699999 149.93487401600001,-36.902759993499998 149.934852,-36.902780991 149.93483001600001,-36.902808001 149.93480099199999,-36.902796993500004 149.934742016,-36.902784006499999 149.934684,-36.9027850055 149.934651008,-36.902771001 149.93462499200001,-36.9027539995 149.93455900800001,-36.902738996 149.93451500800001,-36.902724991500001 149.93448601599999,-36.902716999500001 149.93443100799996,-36.902710006500001 149.93440201600001,-36.902710006500001 149.93436099199999,-36.902687991500002 149.934324,-36.902662998 149.93426499200001,-36.902628995 149.93424300799998,-36.902629994 149.93421100800001,-36.902642000500002 149.93412,-36.902647994500001 149.934076992,-36.902637005500004 149.934046016,-36.902611993500003 149.93402499199996,-36.9026089965 149.933978016,-36.902630993 149.93396099200001,-36.902648993499994 149.933884992,-36.902661999 149.93388300800001,-36.902694004 149.93386700799999,-36.902764008 149.933828,-36.902779992 149.933808992,-36.902769003 149.93377699199999,-36.902767005 149.933756,-36.902792997500001 149.933736,-36.902846 149.933719008,-36.902872991500004 149.933694016,-36.902859005499998 149.933650016,-36.902853992 149.93365900800001,-36.902901000500002 149.93366,-36.902936002499999 149.93365699200001,-36.902958998 149.93362499200001,-36.902971004500003 149.93357401599999,-36.902957999 149.93352300800001,-36.902951006 149.93348700799999,-36.902959997 149.93345500800001,-36.902980994499998 149.933416,-36.903002991 149.93337299199999,-36.903010002500004 149.93331500799999,-36.903011001500005 149.93324899199999,-36.903004008499991 149.93321900799998,-36.902973002499998 149.93322601599999,-36.902955002 149.933232,-36.902922997 149.93320300799999,-36.902935003499998 149.933190016,-36.902958998 149.93314899199999,-36.902948009 149.93314099200001,-36.902911009 149.933143008,-36.902881002 149.933179008,-36.902860004499999 149.933235008,-36.9028299975 149.93326300800001,-36.902803006 149.93326300800001,-36.902782008499997 149.933247008,-36.902765007 149.933222016,-36.902769003 149.933176,-36.902790000499998 149.93315699199997,-36.9027850055 149.93313900800001,-36.902768004 149.933096,-36.902774997 149.933052,-36.902767005 149.93303299199999,-36.902743991 149.933028,-36.9027239925 149.932974016,-36.902716999500001 149.93294499199999,-36.902714002499998 149.93291500800001,-36.90269500299999 149.93288899199999,-36.902680998500003 149.93285299199999,-36.902679000500001 149.93278700799999,-36.9026859935 149.93275801600001,-36.902678001499993 149.93268499199999,-36.902654007 149.932658016,-36.902624999 149.932624992,-36.90261500899999 149.932568992,-36.902568999499998 149.932512,-36.902504009 149.932452,-36.902435004 149.932422016,-36.902413007500002 149.932390016,-36.902404997 149.93234201600001,-36.902390992500003 149.93230499200001,-36.902383999500003 149.932304,-36.902340006500005 149.93226899199999,-36.902296994 149.932243008,-36.902279992499999 149.932166016,-36.902264008499998 149.932130016,-36.902276995499996 149.93208300800001,-36.902272000499998 149.93201299200001,-36.902248006 149.93196899200001,-36.902236998500001 149.93192099199999,-36.902217999 149.93192300800001,-36.902187992 149.931908,-36.90217700299999 149.93182700799997,-36.902156005500004 149.93180201600001,-36.902156005500004 149.931783008,-36.902132991500004 149.93176499199998,-36.902057992499998 149.931752,-36.902012001500005 149.931726016,-36.901979996500003 149.93166601600001,-36.9019459935 149.93159699199998,-36.9019310085 149.93152,-36.901921 149.931490016,-36.901903998500003 149.931446016,-36.901892991 149.93140201599999,-36.9019000025 149.931348,-36.901909992500002 149.93131100799997,-36.901890993 149.931274016,-36.901867997499991 149.931256,-36.901868996499999 149.931198016,-36.9018699955 149.931184,-36.901884999 149.931186016,-36.9019079945 149.93117900799999,-36.901940998500002 149.93116499199999,-36.901956002 149.93114300799996,-36.90195100699999 149.93109100800001,-36.901934005499996 149.93105699200001,-36.901905996499998 149.931008,-36.901860005499998 149.930914016,-36.901683996500005 149.93086099199999,-36.901548003 149.930844,-36.90147000699999 149.93082099200001,-36.901355991500004 149.93082700799999,-36.901310000500004 149.93082899199999,-36.901273999499999 149.93083100800001,-36.901231005500001 149.93084300800001,-36.901172009 149.930856992,-36.901157005500004 149.930882016,-36.901142002 149.93093299200001,-36.901140004 149.93099900799999,-36.901149994 149.931084,-36.901172009 149.93113401599999,-36.901170991500003 149.93113699200001,-36.901149994 149.93109699199999,-36.901139005 149.931027008,-36.901121004499998 149.93098700799999,-36.901109997 149.930928,-36.901100007 149.93088700800001,-36.901083005499999 149.930828,-36.901057993500004 149.93082,-36.901032001 149.930838016,-36.901019994500004 149.93086598399998,-36.901011003500003 149.93089500799999,-36.901007007499999 149.93092,-36.900997998 149.930902016,-36.900979997500002 149.930876,-36.900972005500002 149.93082899199999,-36.900991005 149.93080499199999,-36.901009005500001 149.93078,-36.90103599699999 149.930736,-36.901033999 149.930699008,-36.901006008499998 149.93066,-36.900937003500005 149.93064,-36.900899004500005 149.93061299199999,-36.900847001 149.93061100799997,-36.900822007499997 149.930608,-36.900792999499998 149.93059401599999,-36.900778995 149.930572,-36.900759995499996 149.93057100799999,-36.900738998 149.930554016,-36.900703996 149.93053500799999,-36.900686994499999 149.930492,-36.900644000500002 149.93043900799998,-36.900589999 149.93037801599999,-36.900565005499999 149.930344,-36.900568002500002 149.930286016,-36.900557994 149.930248992,-36.900552999 149.93022499200001,-36.900533000500005 149.93019100800001,-36.900533000500005 149.93015801600001,-36.900516998 149.93011001599999,-36.900495001500005 149.93007798400001,-36.900485992 149.93004201599999,-36.900483994 149.92999500799999,-36.900492004500002 149.92998,-36.90051799699999 149.93000700799999,-36.900554997 149.930004,-36.900584005 149.929980992,-36.900613993499995 149.929972,-36.900661002 149.92995500800001,-36.900686994499999 149.929908,-36.900694006 149.929888992,-36.900678003500005 149.929832992,-36.900641003499999 149.929767008,-36.900591997 149.929724,-36.900557994 149.92971801600001,-36.900521993 149.92971699200001,-36.900498997500002 149.9297,-36.90047999799999 149.92966899199999,-36.900499996500002 149.92964601599999,-36.900497998500001 149.92961100799999,-36.900491005500001 149.92957900799996,-36.900467991499994 149.929564,-36.900433008 149.929544,-36.900381004499998 149.92951699199998,-36.900367 149.929486016,-36.90037199499999 149.92946998400001,-36.900359008 149.929464,-36.900335994 149.92944700800001,-36.900311000500004 149.92942,-36.900298994 149.92939699199999,-36.900297995 149.929384992,-36.900280993500004 149.929384,-36.900254002 149.929383008,-36.900219999 149.929362016,-36.900205994499998 149.929327008,-36.900208991499994 149.92930899199999,-36.900216003 149.92925299199999,-36.900194006500001 149.92927401599999,-36.900181001 149.929252,-36.9001620015 149.92921801599999,-36.900163000500001 149.929184,-36.900165997500004 149.92914201599999,-36.900163000500001 149.92910499199999,-36.9001699935 149.929068992,-36.900182 149.92904198400001,-36.900171991500002 149.929047008,-36.900149995 149.929056992,-36.900132993500002 149.929068992,-36.900108 149.929088992,-36.900077993 149.929079008,-36.900030004 149.929056992,-36.900007008499998 149.92904300799998,-36.899968991 149.929032,-36.899951009 149.929014016,-36.899965994 149.928976992,-36.899966993 149.928955008,-36.899943997500003 149.92895100800001,-36.899905998500003 149.92892700799999,-36.899891994 149.92890598400001,-36.899892993 149.92886300800001,-36.899875991500004 149.928868,-36.899855993 149.928843008,-36.899834995500001 149.92881401599999,-36.899843006 149.92876099200001,-36.899861006499997 149.92871299199999,-36.8998650025 149.928663008,-36.899861006499997 149.928588,-36.899850998 149.92857001600001,-36.899840009 149.92856899200001,-36.899813998 149.92857900800001,-36.899781993 149.92858700799999,-36.8997579985 149.928584992,-36.899709991 149.92857001600001,-36.89969900199999 149.92851500800001,-36.899668995 149.928504,-36.899693008 149.928468,-36.899686995499998 149.928448992,-36.899659005 149.92841299200001,-36.899627999 149.928383008,-36.899622005 149.928376,-36.899603005500005 149.928380992,-36.899578992500004 149.92837100799997,-36.899553 149.92835500799998,-36.899519996 149.928324992,-36.899509007 149.92827699200001,-36.899497999499992 149.928188,-36.899507009 149.92812899199998,-36.899516 149.92807001599999,-36.8995290055 149.928008,-36.899561991 149.92796499199997,-36.899591998 149.927932,-36.89959 149.927916,-36.899561991 149.92789500800001,-36.899570001500003 149.92786,-36.89959 149.92785900800001,-36.899634992 149.927831008,-36.899666997 149.92779299199998,-36.899682000499993 149.92775299199999,-36.899665998 149.92770899199999,-36.899595994 149.92767100799998,-36.899524991 149.927684,-36.899479 149.927704,-36.899474005 149.92771001599996,-36.899455005500002 149.92770899199999,-36.899430992500001 149.92770099200001,-36.899389996499991 149.927648992,-36.899349000500003 149.927648,-36.899327004 149.927644,-36.899291003 149.92764201599999,-36.899271004500001 149.927624,-36.899257999 149.927607008,-36.899239998500001 149.927592,-36.899223996 149.927584,-36.899206994499998 149.927550016,-36.899179004 149.92751100800001,-36.899167996499997 149.92748899200001,-36.8991329945 149.92744499199998,-36.89908099099999 149.92738499199999,-36.899066006 149.927344992,-36.899033002 149.92731801599999,-36.899013003499995 149.92729401599999,-36.898962998 149.92730700799999,-36.898897008500001 149.927316,-36.898880007 149.92730899200001,-36.898848002 149.92727401600001,-36.898789005499999 149.92723900799999,-36.898734005 149.927210016,-36.898687995499991 149.92718099199999,-36.898646999500002 149.92715699199999,-36.898620008 149.92711500799999,-36.898574997499992 149.92708198400001,-36.898538996500001 149.927086016,-36.898501996500002 149.927088,-36.898426997500003 149.92703699200001,-36.8983169965 149.927004,-36.898256002 149.927008,-36.8982099925 149.926996,-36.898165000499993 149.92696899200001,-36.898136991500003 149.92693299199996,-36.898132995499999 149.92689001599999,-36.898096994500001 149.92687001600001,-36.898102008 149.92683401599996,-36.898098992500003 149.926812,-36.898066007 149.926806016,-36.898033003 149.926783008,-36.897972008499998 149.92676499199996,-36.897923002 149.92670700799999,-36.897883005 149.92666499200001,-36.897843008 149.92660998400001,-36.897760997500001 149.926546016,-36.897713008499998 149.926472,-36.897648998500003 149.92642499199999,-36.89762600299999 149.92639388799998,-36.897611314 149.926356992,-36.897593998 149.92632899200001,-36.897557997 149.92628300799998,-36.897537998499999 149.92618,-36.897536999499998 149.926112,-36.897521996 149.92603299199999,-36.897485995 149.925996,-36.89744200199999 149.92597699199999,-36.897439005 149.925948992,-36.897435009 149.925892992,-36.897440004 149.92583401600001,-36.897388000500001 149.92578601599999,-36.897348003499999 149.92574499200001,-36.897322991500005 149.92570499199996,-36.897307007500004 149.92559401599999,-36.897297998 149.925516,-36.897312002500001 149.92548201599999,-36.897255004 149.92537401600001,-36.897225996 149.92527001599998,-36.897215007 149.925142016,-36.897218004 149.92502300800001,-36.89718300199999 149.92498499199999,-36.897137991500003 149.924959008,-36.897095996499999 149.924858016,-36.89707000399999 149.92478598400001,-36.897049006499991 149.92477299199999,-36.897008991 149.924752,-36.897003996 149.924688,-36.897004995 149.92461299199999,-36.897006993 149.92457299200001,-36.896994006 149.92456198400001,-36.896977004500002 149.92455699199999,-36.896945998500001 149.92453900799998,-36.896931994 149.92447001599999,-36.896905002499999 149.92440300800001,-36.896849003 149.92432601600001,-36.896788008500003 149.92425401599999,-36.896763995500002 149.924204,-36.896761997500001 149.924082016,-36.896740001 149.92399798400001,-36.896696008 149.92388598400001,-36.896664003 149.92377100799999,-36.89662700299999 149.923708992,-36.896606005499997 149.92364,-36.896575998500005 149.92358790399999,-36.896527269499991 149.92355190399999,-36.896483258 149.92352188800001,-36.89643427 149.923496,-36.896373997 149.923482912,-36.896327266 149.92347491199999,-36.896272025 149.92194,-36.895119993 149.92183500799999,-36.895088006500004 149.92173100799999,-36.895058998499998 149.921615008,-36.895044994 149.92146,-36.895026993499997 149.92111900800001,-36.895036003 149.920851008,-36.89508099499999 149.920584,-36.895164004499996 149.92027100799999,-36.895279999499998 149.919948992,-36.895364008 149.91969699200001,-36.895441005 149.91915699200001,-36.895638992 149.91874300800001,-36.89582099499999 149.918431008,-36.89596300099999 149.91804201599999,-36.896169997500003 149.91798899200001,-36.896191994 149.917568,-36.896445 149.91672700800001,-36.896936008499992 149.91644300799999,-36.897146002 149.91605372800001,-36.897266196499992 149.915999008,-36.897282994500003 149.91558899200001,-36.897794001500003 149.91519500799998,-36.898212009 149.91462499199997,-36.898632995 149.914040992,-36.899196005500002 149.91352899200001,-36.899585005 149.913260992,-36.899733005 149.913018016,-36.900020994500004 149.91266099200001,-36.900359008 149.91234,-36.900664998 149.91223100799999,-36.9008709955 149.912024,-36.901095992500004 149.91150099199996,-36.901687992499994 149.91097699199997,-36.902296994 149.910494016,-36.902936002499999 149.91004201600001,-36.903385996499999 149.909712,-36.903942994499999 149.909403008,-36.904478995 149.908954016,-36.905073992 149.908570016,-36.905742008499999 149.90798899200001,-36.906884994 149.90758499200001,-36.907552992 149.90720099200001,-36.908267998500001 149.906784,-36.909109008499996 149.906227008,-36.910376998499999 149.90596099199996,-36.911089008 149.905630016,-36.912132001 149.90548899199999,-36.912542997 149.90506099199999,-36.913607006 149.904788,-36.914648001 149.90469299200001,-36.915215007500002 149.90472899199997,-36.915519998499995 149.904652992,-36.915718004 149.90454598400001,-36.915986994 149.90449900799999,-36.916368001499997 149.90440998400001,-36.917040994499999 149.90427500799998,-36.917576995 149.9042,-36.918175007500004 149.90412201599997,-36.918694006500004 149.90414201600001,-36.919225992500003 149.904167008,-36.919311 149.90409856,-36.91957159099999 149.90410057599999,-36.919843596500002 149.90401356800001,-36.920401612 149.903984608,-36.921616618 149.90402560000001,-36.922416613500005 149.903964608,-36.922796622 149.9039656,-36.922996625499991 149.90404860800001,-36.923403625500001 149.9040696,-36.923932633 149.90412499199999,-36.924212001499995 149.904168992,-36.924715997 149.90427401599999,-36.925786 149.904356,-36.926487002 149.904415008,-36.926803999500002 149.90444201599999,-36.927241006499997 149.904437664,-36.927355632500003 149.90452166399999,-36.9279776395 149.90463065599999,-36.928334634 149.90479366400001,-36.928633631 149.90488467200001,-36.928933627 149.90493968000001,-36.929005629 149.90499465600001,-36.929305662 149.90510368,-36.92957665 149.90516067199999,-36.930119662 149.905269664,-36.930505646 149.90532771199997,-36.931262647499999 149.90545571199999,-36.9316916625 149.905696,-36.932386004500003 149.90580300799999,-36.932753007499997 149.9059,-36.933134995499998 149.90608499199999,-36.9336559925 149.9062,-36.93400799199999 149.90652601599999,-36.934570003499999 149.90666,-36.9349370065 149.90668745599999,-36.935039977500004 149.90572972799998,-36.935352664500002 149.904464768,-36.935766694500003 149.899232224,-36.937489784499995 149.89908889599999,-36.937398783 149.89892256,-36.937309132 149.89889017600001,-36.937291594 149.89863132799996,-36.937162075499998 149.89839155199999,-36.937083062 149.89792176,-36.936965439 149.89723993600001,-36.936836105499992 149.89708512000001,-36.936808744 149.895634336,-36.936552778 149.89474764799999,-36.936385297500003 149.89435488000001,-36.936304471 149.89419721600001,-36.936271985 149.89414681599999,-36.936261625 149.89327632000001,-36.936004586 149.89278924799999,-36.935879304 149.89221792000001,-36.935732525 149.89159548800001,-36.935551262 149.890597568,-36.935258129499999 149.89014793599998,-36.935129795 149.88966624,-36.9349921735 149.88940704000001,-36.934921614499999 149.88883321599999,-36.934735763500001 149.88834396799999,-36.934552706 149.888316608,-36.934542364500004 149.88813264000001,-36.93448359 149.88741299199998,-36.93425382 149.88689497600001,-36.934128094 149.88635353599997,-36.933987512500003 149.885738656,-36.933830373500001 149.8855032,-36.933721889499999 149.88522220799996,-36.933523902499999 149.884636672,-36.933061051 149.88439049600001,-36.932891202500002 149.8848464,-36.930685614 149.884696096,-36.930672183 149.88452617600001,-36.930645543 149.88420540800001,-36.930624749 149.883722656,-36.930506497 149.88355488,-36.930459784500002 149.88334537599999,-36.930350708500001 149.88317795200001,-36.930307141 149.88291696,-36.930307141 149.88281075200001,-36.930322440499992 149.882695552,-36.930302997 149.88253283200001,-36.930287975 149.88230316799996,-36.930282832 149.88231424,-36.930238913 149.882324256,-36.930200914 149.88233923199999,-36.930117904500001 149.88253020799999,-36.929058909 149.88262422400001,-36.9285989065 149.8826152,-36.928564922 149.882605216,-36.928530919 149.882594208,-36.928495917 149.8825832,-36.928464911 149.882562208,-36.928422916 149.8825392,-36.92838192 149.882526208,-36.928361921499999 149.88275315199999,-36.928243447500002 149.88298320000001,-36.9281017745 149.88343465599999,-36.927823405 149.88413881599999,-36.927522539500004 149.88488076799999,-36.927277562500002 149.88542940799999,-36.927025296499998 149.885532,-36.9269780475 149.88578220799999,-36.926815858 149.88598243199999,-36.926650653 149.88041721600001,-36.926026907 149.88052,-36.925571992 149.87812819199999,-36.9252347925 149.87815123199999,-36.925108955500001 149.87610326399999,-36.92482396299999 149.87588230399999,-36.924928969 149.87574073600001,-36.925273883 149.87569968,-36.925351657 149.875675296,-36.925385974500003 149.875493312,-36.925607974500004 149.875202336,-36.925739990499999 149.87516233599999,-36.925757991 149.87486592,-36.9259003855 149.87467836799996,-36.925874818499999 149.87473164799999,-36.9258126215 149.87497968,-36.925487465499998 149.87527379199997,-36.925101981 149.87566835199996,-36.924645419500003 149.87585088,-36.924349493500003 149.87588832,-36.924057008499993 149.87587609600001,-36.923736681 149.87579184,-36.923427712500001 149.87563452800001,-36.923101113500003 149.87553193599999,-36.922948118500003 149.87483171199997,-36.922362575 149.87407536000001,-36.921706657500003 149.87367827200001,-36.921362483500005 149.87316851200001,-36.920843817499993 149.87312496000001,-36.920803857500005 149.872933792,-36.920628274 149.87234771199999,-36.9200443585 149.87202265599998,-36.919599396500004 149.87179331199999,-36.919169197500004 149.87168064,-36.9189019835 149.87166515199999,-36.918864724500004 149.871592448,-36.918635768500003 149.871548512,-36.918329223500002 149.87152873599999,-36.918139043499998 149.87147075199999,-36.917398988 149.871443392,-36.916666739500002 149.87143187199999,-36.916366762 149.87143116799999,-36.915941336 149.87147580800001,-36.915514837 149.87161081599999,-36.915074019 149.87187324800001,-36.914468033 149.87208419199999,-36.91398078 149.87242259199999,-36.913316223 149.87270665599999,-36.9128110435 149.87297017599997,-36.912401546 149.87299283199997,-36.912366544 149.873459392,-36.911893314 149.87368656000001,-36.911633222500001 149.87398608000001,-36.911241004 149.87429459200001,-36.910656089500002 149.87436624,-36.910471774 149.87452067199996,-36.910073247 149.874530048,-36.910033823500001 149.87464883199999,-36.909519301499998 149.874687008,-36.909213126499999 149.87471545599999,-36.908867343 149.87469961599999,-36.908568901 149.87465712,-36.908313305 149.87461248,-36.908042946 149.87460384,-36.9080230585 149.87446332799999,-36.907701158500004 149.874563424,-36.907496826 149.87466294399999,-36.907293899500004 149.87507094399999,-36.906649896 149.87507894399999,-36.906592897500005 149.87553292800001,-36.906068885 149.87588892799999,-36.905810884 149.87604092800001,-36.905745875 149.87636188799999,-36.905658869500002 149.87673788800001,-36.905600853500005 149.87722889599999,-36.905406862500001 149.87769286400001,-36.905161867 149.87851184,-36.904430839500002 149.87850281600001,-36.904394838499996 149.87876083200001,-36.9042158325 149.87892083200001,-36.904057842500002 149.87924278400001,-36.903899815500004 149.87963478399999,-36.9035978215 149.87980380799999,-36.903532812500004 149.879946784,-36.903518826500004 149.88189872000001,-36.902912785 149.88695964799999,-36.901900724 149.891937536,-36.901164646 149.89581545600001,-36.900412602500005 149.90112035199999,-36.899276517499999 149.90189731199999,-36.899046525500005 149.90599622400001,-36.897831464 149.90841315199998,-36.8961424325 149.90990512,-36.894894422499995</coordinates></LinearRing></outerBoundaryIs></Polygon><Polygon><outerBoundaryIs><LinearRing><coordinates>149.93481299199999,-36.8848450005 149.93486,-36.884746007 149.93491798400001,-36.884738995500001 149.934964992,-36.884800008500001 149.934968,-36.884897004 149.934916,-36.885031998500004 149.934834016,-36.885069997500004 149.93482,-36.885024006500004 149.93481001599997,-36.884926992499992 149.93481299199999,-36.8848450005</coordinates></LinearRing></outerBoundaryIs></Polygon><Polygon><outerBoundaryIs><LinearRing><coordinates>149.931590016,-36.8975389975 149.93156201599999,-36.897537998499999 149.931536,-36.897521996 149.93152601599996,-36.897496003499995 149.931528,-36.897468993499999 149.93154099200001,-36.897452991 149.931568992,-36.897441003 149.931591008,-36.89744200199999 149.931664,-36.897436008 149.93171100800001,-36.897424001499999 149.93174,-36.897436008 149.93176300799999,-36.897454008499999 149.93176598400001,-36.897476005 149.93174499200001,-36.897483997 149.93169699200001,-36.897488992 149.93167699200001,-36.897484996 149.93165398400001,-36.897481 149.931616,-36.897499999499999 149.931611008,-36.897520997 149.931590016,-36.8975389975</coordinates></LinearRing></outerBoundaryIs></Polygon><Polygon><outerBoundaryIs><LinearRing><coordinates>149.92759001600001,-36.899288006 149.92754601600001,-36.899300993 149.927512992,-36.899287007 149.927476,-36.89925999699999 149.92747500799999,-36.899228991 149.927471008,-36.899204996500004 149.927482016,-36.899189993 149.927512992,-36.899211009 149.92754601600001,-36.89922 149.92756300799999,-36.899230008499998 149.927584,-36.899244993499998 149.92759801599999,-36.899258998 149.92759001600001,-36.899288006</coordinates></LinearRing></outerBoundaryIs></Polygon></MultiGeometry>

	</Placemark>
</kml>