<?xml version="1.0" encoding="UTF-8"?>
<kml xmlns="http://www.opengis.net/kml/2.2">
	<Placemark>
		<Style>
			<LineStyle>
				<color>ff0000ff</color>
			</LineStyle>
			<PolyStyle>
				<fill>1</fill>
				<color>330000cc</color>
			</PolyStyle>
		</Style>
			<ExtendedData><SchemaData>
		<SimpleData name="STATE_2006">1</SimpleData>
		<SimpleData name="POA_2006">2876</SimpleData>
	</SchemaData></ExtendedData>
      <Polygon><outerBoundaryIs><LinearRing><coordinates>147.89716582400001,-33.212777521500001 147.89689382399999,-33.212777521500001 147.89672384,-33.212920526499992 147.89674288000001,-33.213623526500001 147.896845888,-33.21408253 147.89669286399999,-33.214355516 147.89645488,-33.214470530499995 147.89546790399999,-33.214442521500004 147.89536489599999,-33.214356515 147.89526291199996,-33.214069524499997 147.895091904,-33.213955527499998 147.89476889599999,-33.213998521499995 147.894291904,-33.214199524 147.89378195200001,-33.214286529499994 147.89335593600001,-33.214215526499999 147.89327094399999,-33.214143524500003 147.89284393599999,-33.2135845285 147.892638944,-33.213412515500004 147.892008928,-33.2133705205 147.89185593600001,-33.213270528 147.89178793599999,-33.213127523 147.89182092799999,-33.212897531 147.89175292799999,-33.212696528500004 147.89156492800001,-33.212625525500002 147.890509952,-33.212540518 147.88974297600001,-33.212297520500002 147.88964096000001,-33.212211514 147.88964096000001,-33.212096518 147.88991196799998,-33.211752529 147.88991196799998,-33.211637514499998 147.88970796800001,-33.211522518500004 147.88957097599999,-33.211523517499998 147.889026976,-33.211609524 147.888822976,-33.21172452 147.888516,-33.211782517499998 147.887563008,-33.211639531 147.88720499199999,-33.211396515 147.88681299199999,-33.210995527500003 147.886608,-33.210694514 147.886504992,-33.210321517 147.886368,-33.21020752 147.886232,-33.210178530499995 147.88592604799999,-33.210236528 147.885348032,-33.210810527500001 147.88526304000001,-33.210824532 147.88495702399999,-33.210825531 147.88466704000001,-33.210753529 147.884053056,-33.210180528500004 147.88345705599997,-33.210052545499998 147.88310006399999,-33.210038541 147.88303206399999,-33.210095539500003 147.88303206399999,-33.210353540500002 147.88289606399999,-33.210525535 147.882692064,-33.21055454299999 147.88231808,-33.210469535500003 147.88204508800001,-33.210498543500002 147.88184108799996,-33.210670538 147.88174009599999,-33.210985537500001 147.88150211199999,-33.211187539 147.88131408000001,-33.211244537500001 147.88089014400001,-33.211589544 147.88065113600001,-33.211675550500004 147.87923315200001,-33.211660547 147.87923712,-33.210859534 147.87915113599999,-33.210500541500004 147.87921913599999,-33.21025754399999 147.87986412800001,-33.209596539 147.879574144,-33.2087655375 147.87955609599999,-33.208507536500001 147.87958908799996,-33.208177533499999 147.87972508799999,-33.208062537499998 147.88062710400001,-33.207774548 147.88091606399999,-33.207573527 147.88129004800001,-33.207185526499998 147.88156105600001,-33.206798525 147.88162902400001,-33.20646852199999 147.88156003200001,-33.206139518 147.88138902399999,-33.205938515500002 147.880742016,-33.205480529500001 147.88062204799999,-33.2052655225 147.880485024,-33.2048925255 147.880449024,-33.204757531 147.87372912000001,-33.203892545 147.86946115200001,-33.203343539 147.852733312,-33.201191582 147.84923836799999,-33.200741569500003 147.84527939199998,-33.200232597499998 147.845733408,-33.201910603 147.845613504,-33.205006596499992 147.84610761600001,-33.208803592 147.8459136,-33.209410614 147.84521699199999,-33.211592004499998 147.82671785599999,-33.209406655 147.826396864,-33.209369655 147.82091596800001,-33.208730665 147.819184,-33.208522003500001 147.81890099200001,-33.2086809925 147.81334105600001,-33.2079676695 147.80803299199997,-33.207287998 147.80571113600001,-33.206990684499999 147.78646742399997,-33.204660720500002 147.77899401599998,-33.2037559965 147.74092592,-33.199123855499998 147.72640912,-33.19740692599999 147.72533513599998,-33.197308931500004 147.725263136,-33.197319939 147.70526339199998,-33.195001056500004 147.692596576,-33.193531139 147.69227654400001,-33.193492141 147.69202355199999,-33.193461135 147.69195555199997,-33.193453124500003 147.691704,-33.193422007500004 147.65763100800001,-33.189236382499999 147.65703401600001,-33.189163381500002 147.657004992,-33.189159367 147.656704,-33.189122367 147.641070208,-33.186879482499997 147.635656256,-33.186103537 147.63628220800001,-33.18242755 147.64050272,-33.157679415499999 147.653635552,-33.159288342 147.65369056,-33.159040331 147.653747552,-33.158783329 147.65488441599999,-33.150940272500002 147.65441699199999,-33.150889009 147.651087424,-33.150520304 147.64294956799998,-33.149621352 147.643660512,-33.145485344 147.64384345600001,-33.144551334500001 147.642643456,-33.1437123595 147.64320243200001,-33.140717357500002 147.64340243199999,-33.139641360500001 147.64365238400001,-33.138302349 147.61835878400001,-33.135029551 147.61966176000001,-33.135158533 147.621769728,-33.135177532500002 147.624234688,-33.134915517 147.62614105599999,-33.134597187499999 147.62770963200001,-33.134330491500002 147.64691424,-33.131289332 147.64775523200001,-33.1311243305 147.663699968,-33.128525247 147.67723974399999,-33.126370163499999 147.68230867199998,-33.125567152500004 147.68266067199997,-33.1255021435 147.68293766400001,-33.125451157500002 147.724760992,-33.118684986 147.72538499199999,-33.118593984500002 147.72566297599997,-33.118552988499999 147.734492832,-33.117125935499992 147.74489168,-33.115443878499995 147.76213936,-33.112577710499998 147.76574329599998,-33.111977663 147.76875622399999,-33.111496626 147.76897222399998,-33.111458627 147.77646409600001,-33.1101686035 147.77894905599999,-33.109817603 147.78710995200001,-33.109447584500003 147.797825824,-33.10895554 147.79827577599997,-33.108927383 147.79672883200001,-33.108326373499999 147.79657382400001,-33.108259533 147.79592880000001,-33.107875547 147.7952688,-33.107244549 147.7947888,-33.106642540500005 147.79440880000001,-33.105452546500004 147.79442281600001,-33.104691549 147.79461980799999,-33.10409855 147.795298016,-33.104070004500002 147.79552476800001,-33.104059533499999 147.796383776,-33.104023532500001 147.79670278399999,-33.104009546500002 147.79883875199999,-33.103913531499998 147.79916176,-33.103899527 147.79917036800001,-33.104034521500004 147.79925699200001,-33.104024994 147.800241728,-33.103979521 147.80052070400001,-33.103957524500004 147.80078272,-33.103954527500001 147.80319900800001,-33.103844008499998 147.80339424,-33.103835091500002 147.805104,-33.103757003 147.80526566399999,-33.103749510500002 147.80525763200001,-33.103625505 147.80739260799996,-33.103531506499998 147.80772262400001,-33.103516503 147.81073657599998,-33.103385486 147.81137500799997,-33.103356996 147.811332,-33.103599993499998 147.811328992,-33.103617994 147.81054761600001,-33.108342505499998 147.81054665600001,-33.108347278499998 147.829218368,-33.107457447 147.82954736,-33.107441444500004 147.831233344,-33.107522456 147.83327833600001,-33.107946457499999 147.83478032,-33.108487453 147.83635033600001,-33.109257441499999 147.83774928,-33.109769429 147.83923228800001,-33.11009443699999 147.841327296,-33.110274423500002 147.843140256,-33.1107144275 147.843544256,-33.110812422 147.85363321599999,-33.112473389 147.85573020799998,-33.112968393500005 147.856737184,-33.113295381 147.85830819200001,-33.114094377500003 147.86950508800001,-33.118993362499999 147.87092105599999,-33.119433348 147.872727072,-33.119714363 147.87449804799999,-33.119736359500003 147.87589401599999,-33.119559351499994 147.877475968,-33.119137348 147.87868195199999,-33.118616351 147.883976832,-33.115152337 147.884876832,-33.114718345500002 147.88620278400001,-33.114282337499994 147.88754675199999,-33.114033346 147.88875574400001,-33.113957329500003 147.89003273599999,-33.1140533445 147.89103868800001,-33.114236328 147.89243769599997,-33.114690318 147.89361667200001,-33.115289311 147.89713964800001,-33.117945337500004 147.89845664000001,-33.119017338500001 147.89972464,-33.120348321 147.90071664,-33.121695324500003 147.900799616,-33.121885319500002 147.90011164800001,-33.122715322 147.89980764800001,-33.123218318500001 147.89945769600001,-33.124497316 147.899462688,-33.125387314 147.899672,-33.126306005499998 147.89993072,-33.126893325 147.90061670399996,-33.127795311 147.90083872,-33.128010318 147.90114771199998,-33.128310314 147.90220768,-33.128923311500003 147.909569632,-33.132077321 147.91351760000001,-33.133768313499999 147.91376700800001,-33.133879998 147.91549155199999,-33.134700306500001 147.91801699199999,-33.136214994 147.91826352000001,-33.136363308500002 147.918773536,-33.136669298500003 147.92000953600001,-33.137275303 147.92051552000001,-33.137523295500003 147.92193100799997,-33.137861993500003 147.92242348799999,-33.138034302500003 147.92294748800001,-33.138217304500003 147.924308,-33.138690997 147.926164992,-33.139338996500001 147.929251392,-33.140447276 147.931019392,-33.141090280500002 147.93190035200001,-33.141411274 147.93705129599999,-33.1424532865 147.93766531200001,-33.142623283 147.93811030399999,-33.142908275499998 147.94463030399996,-33.150648268499999 147.94483232,-33.150865255 147.94565632000001,-33.154031289500004 147.94534233600001,-33.155712273500001 147.945517376,-33.156372298 147.94636336,-33.157597294 147.95153635199998,-33.165088314 147.95198099199999,-33.165733002 147.95583737600001,-33.172090342 147.95631936000001,-33.1728213325 147.95710835200001,-33.173707353 147.95788099200001,-33.174273009 147.95805337600001,-33.174344363499991 147.95929734399999,-33.174861364500003 147.960352352,-33.175955362 147.960521344,-33.175976359499998 147.96618630399999,-33.180961351 147.96931328,-33.185098358 147.97216726400001,-33.188874356 147.97257225600001,-33.189602349499999 147.973702272,-33.191637368 147.973894272,-33.192311378500001 147.97382828799999,-33.1927143825 147.97251331199999,-33.194158381500003 147.97247132800001,-33.194254378 147.97235699199999,-33.194515006 147.97241235199999,-33.19510338 147.97323334399999,-33.196020369500005 147.973265344,-33.196165372499998 147.97362934399999,-33.197817367 147.97388633599999,-33.198987381 147.97420736000001,-33.201310370500003 147.97423836799999,-33.203363389499998 147.97407939199999,-33.205187397 147.9741,-33.205480992 147.97417401600001,-33.206535991500004 147.97445244799999,-33.207482396 147.97990444800001,-33.219741421 147.97988345600001,-33.219860413 147.98089846400001,-33.223474406500003 147.98225251199997,-33.227229407 147.98237699200001,-33.227989997500003 147.98207852799999,-33.232286437500001 147.98201856,-33.233144430499998 147.98085264,-33.236698428499999 147.98036163200001,-33.23819543 147.97981164800001,-33.239872455 147.978780736,-33.243896445499999 147.97859670400001,-33.244485448500001 147.97839273599999,-33.244658442 147.977528992,-33.248078999500002 147.97732579199999,-33.248395460499999 147.97706300799996,-33.248745998499999 147.97686700799997,-33.2490069965 147.97284588799999,-33.24844147 147.97080992,-33.248223466 147.97076489599996,-33.248157476499998 147.96663596799999,-33.247656478 147.95954710399999,-33.246630486500003 147.956203136,-33.246169485 147.947572288,-33.244979509499998 147.94693932800001,-33.2481225115 147.93611753600001,-33.246619516 147.935796512,-33.246574524 147.924272704,-33.244974533 147.92059977599999,-33.244464543500001 147.92110569600001,-33.241989539500004 147.92199369599999,-33.237650531 147.9228656,-33.233382525499998 147.92358656,-33.229854501499993 147.92459849599999,-33.224905511 147.91810457599999,-33.224010499500004 147.920211424,-33.212343493 147.91489753600001,-33.211593484499993 147.91542252799997,-33.211228479500001 147.915981504,-33.21058048 147.916710016,-33.205335008500001 147.91642643200001,-33.204965471 147.91594643199997,-33.204580467500001 147.91500947200001,-33.204669471 147.91466147200001,-33.204604462 147.91434246399996,-33.205070458500003 147.91400246399999,-33.205300469 147.91400246399999,-33.205444473 147.91410444799996,-33.205529462 147.91434345600001,-33.205586460500001 147.91444544000001,-33.2057304645 147.91437744000001,-33.205844461499993 147.91327248,-33.206419478500003 147.91295049600001,-33.206678478500002 147.91295152,-33.207252478 147.91285052800001,-33.207739490500003 147.91290252799999,-33.2080404855 147.91298752,-33.208255492500001 147.91319251199999,-33.208427487 147.91383952000001,-33.2086274905 147.91395852799999,-33.208756491 147.91399350399999,-33.20910048 147.91384153600001,-33.209459491 147.91357052800001,-33.209861477499999 147.91340051200001,-33.209976492 147.91316150399999,-33.209947484 147.91299152,-33.209833487 147.912684544,-33.209862495 147.91231056000001,-33.210035488500004 147.91217456000001,-33.209863494 147.91196956799999,-33.20971949 147.91186755199996,-33.209720489 147.91151056000001,-33.209806477 147.91016758399999,-33.210783480499998 147.91010057599999,-33.211242484 147.90984563200001,-33.211558482500003 147.909522624,-33.211730477 147.90901260800001,-33.211702505 147.90887561599999,-33.211817501 147.90877465599996,-33.212147504 147.90843564799999,-33.212534505500003 147.90870064,-33.212990512 147.90860665599999,-33.213280499500001 147.90833465599999,-33.21348150199999 147.90790966399999,-33.2135685075 147.90765366400001,-33.213539499500001 147.90707468799999,-33.213167501500003 147.90658067199999,-33.213125506499999 147.90622268800001,-33.213025495499998 147.90608668799999,-33.212939507500003 147.905745696,-33.212882509 147.905371712,-33.212968497 147.90516771200001,-33.21314051 147.90503270400001,-33.213542496500004 147.90404576,-33.213572503500004 147.90353574400001,-33.213888502 147.90316073599996,-33.213860511500002 147.90278576,-33.213602510500003 147.90251376000001,-33.2136315 147.90217376,-33.213947498499998 147.90179977599999,-33.214120510499995 147.901492768,-33.214206498499998 147.90088080000001,-33.214579514 147.90030281599996,-33.214580531500005 147.90016582399997,-33.214465517 147.9000288,-33.214007531 147.89990979199999,-33.213935529 147.89914281599999,-33.213864526 147.8990408,-33.213779518500004 147.89895580800001,-33.21356453 147.89890281599997,-33.213062514 147.89866480000001,-33.21286153 147.89852780799998,-33.212804531499998 147.89815382399999,-33.212833521 147.897473856,-33.2131495195 147.89733785600001,-33.2131495195 147.89726883200001,-33.213092521 147.89716582400001,-33.212777521500001</coordinates></LinearRing></outerBoundaryIs></Polygon>

	</Placemark>
</kml>