<?xml version="1.0" encoding="UTF-8"?>
<kml xmlns="http://www.opengis.net/kml/2.2">
	<Placemark>
		<Style>
			<LineStyle>
				<color>ff0000ff</color>
			</LineStyle>
			<PolyStyle>
				<fill>1</fill>
				<color>330000cc</color>
			</PolyStyle>
		</Style>
			<ExtendedData><SchemaData>
		<SimpleData name="STATE_2006">1</SimpleData>
		<SimpleData name="POA_2006">2146</SimpleData>
	</SchemaData></ExtendedData>
      <Polygon><outerBoundaryIs><LinearRing><coordinates>150.97905094399999,-33.791062121 150.979027328,-33.791043787500001 150.97899961600001,-33.791022087 150.97864643200001,-33.790764863 150.97838796799999,-33.790583433500004 150.978141376,-33.790395603 150.978067552,-33.790351776499996 150.9773256,-33.789765234 150.97643747199999,-33.789089873 150.97608755199997,-33.788816017500004 150.975857152,-33.788635568499998 150.97501065599999,-33.787993415 150.97496579200001,-33.787959116 150.974237152,-33.787402469500002 150.97409568,-33.7872913215 150.973599968,-33.786902063 150.97302576000001,-33.786501926500002 150.97238352,-33.787040665 150.97227731199999,-33.787117884 150.97247100799999,-33.787724499 150.972549856,-33.787972898499994 150.97189356800001,-33.788116347500001 150.970938848,-33.787990973 150.97077468800001,-33.788863359 150.97072320000001,-33.789136770500001 150.970614496,-33.7897420165 150.97035203199999,-33.791135677 150.97017744,-33.792040086500002 150.96917088000001,-33.791901836 150.96902435199999,-33.792682943 150.96894083199999,-33.793123502 150.968868832,-33.793503751 150.96861251199999,-33.794839358499999 150.9685056,-33.795397614500004 150.968457728,-33.795423995500002 150.96640825599997,-33.796533144500003 150.96511692799999,-33.797230206 150.96450131199998,-33.797147936500004 150.96357648,-33.797019694500001 150.96206483200001,-33.796822410499999 150.96077712,-33.796652488 150.96047868799999,-33.796613342 150.95917369599999,-33.796440089500003 150.95907302399999,-33.796425955499998 150.958981792,-33.796413357 150.9583104,-33.79632489 150.95564064000001,-33.795973075500001 150.954219008,-33.795784801 150.953957632,-33.795750150499998 150.9538536,-33.795736201499999 150.95375424,-33.795722974 150.952825792,-33.795599856500004 150.95257107200001,-33.795564743499995 150.95239776,-33.794863205 150.95232288,-33.794257959 150.95209283200001,-33.792399985499998 150.95205072,-33.792013076499998 150.951845152,-33.790116068 150.95181779200001,-33.789765067499999 150.95174291199999,-33.788808802499993 150.95167971199999,-33.788254006 150.95131596799999,-33.78849650399999 150.950650688,-33.788940578 150.950922112,-33.791185627 150.95094697600001,-33.791389293499996 150.949481408,-33.7920086735 150.9480144,-33.792628682500002 150.94662121600001,-33.793214318499999 150.94552105599999,-33.792368313499999 150.94528595200001,-33.792524916 150.94456201599999,-33.79242546 150.94245241600001,-33.792134122 150.94200492799999,-33.792420779499999 150.93986003200001,-33.793793812499992 150.93901801600001,-33.794333013500001 150.93892512,-33.794467749 150.938687872,-33.795666364 150.938672032,-33.795746543 150.938640736,-33.795746006500003 150.93860796800001,-33.795753480500004 150.93857916799999,-33.795768336 150.93855612799999,-33.795789389 150.93854137599999,-33.795814956 150.93853596799997,-33.795842946500002 150.93854028800001,-33.795871103499998 150.93855360000001,-33.795897114500001 150.938575552,-33.795918981500002 150.938603648,-33.795934743499998 150.938635328,-33.795943105500001 150.93845209599999,-33.796882165499994 150.93803017600001,-33.7990391915 150.93797257599999,-33.799349695499998 150.937862752,-33.799821926500002 150.93783504000001,-33.799940456 150.93777491200001,-33.800200566 150.93761795199998,-33.800781429 150.93701027200001,-33.802081923499998 150.93693648000001,-33.802239506500001 150.936745312,-33.802610487 150.93567756799999,-33.804683375 150.93506915200001,-33.805863453 150.934896,-33.8061992465 150.93385632,-33.807215692 150.93372668800001,-33.807339623499999 150.93350892800001,-33.807222907 150.932965696,-33.806951734 150.932848288,-33.80689249699999 150.932712928,-33.8068247685 150.93269891200001,-33.806817757 150.93163795199999,-33.806278778 150.93082496,-33.805860789 150.930246208,-33.805653607499998 150.93027696,-33.805094796500001 150.930347936,-33.805026790500001 150.92922793599999,-33.804189795 150.92875993600001,-33.803764813 150.92841894399996,-33.803319814 150.928289952,-33.803110819499999 150.92813894400001,-33.802790825 150.92802393599999,-33.802584809 150.92800896,-33.802533823 150.92741696,-33.801082831 150.92719696,-33.800486835 150.92706595199996,-33.800141828500003 150.92656294400001,-33.798818838 150.92652896000001,-33.7987288355 150.92617990399998,-33.797810828499998 150.926016928,-33.797488854500003 150.92591990400001,-33.797223860500004 150.92585292800001,-33.797010851499998 150.92584592,-33.796987856 150.92577392000001,-33.796894856500003 150.92581990400001,-33.796920849 150.92587190399999,-33.796933854500004 150.92592592,-33.796934853499998 150.92597891200001,-33.796922847 150.926024928,-33.7968988525 150.926036928,-33.796888862499998 150.926060928,-33.796865848499998 150.92608492799999,-33.796823853500001 150.92609392,-33.796779860500003 150.926139904,-33.7966778515 150.92626592,-33.796546834499992 150.92640192,-33.7963568395 150.92652192,-33.796191838 150.92661888,-33.796050831 150.92664787199999,-33.795925845 150.92759289599999,-33.79570884 150.927993888,-33.795615822 150.92874486400001,-33.795441811 150.929074848,-33.795365813 150.92913184,-33.795366812 150.92918848,-33.795389141500003 150.92934486399997,-33.795450802 150.92971984,-33.795629808 150.92979286400001,-33.7956548015 150.92984284799999,-33.795666808 150.92986886400001,-33.795672802 150.929894848,-33.795676798 150.92997184000001,-33.795687805500002 150.930077856,-33.795691801499991 150.93018182399999,-33.795683791 150.93026083199999,-33.795670804 150.93033782399999,-33.795651804500004 150.930411808,-33.795625793500001 150.93048281599999,-33.795593807 150.93126182399999,-33.795077786499995 150.931965792,-33.794612789 150.93261478400001,-33.7941827565 150.93584169600001,-33.792029726499997 150.940940576,-33.788631665 150.94262252799999,-33.787507642 150.94328451199999,-33.78706564 150.94257548799999,-33.78631565 150.94225849599999,-33.785691645 150.94151548799999,-33.784225649500002 150.942063488,-33.784009643499999 150.94265648000001,-33.783774638 150.942727456,-33.783677624 150.94278048000001,-33.783626638 150.94281046399999,-33.783603624 150.94285945600001,-33.783573635499998 150.94289446400001,-33.783556634 150.94294947200001,-33.783536635499999 150.942987456,-33.783525628 150.94304745599999,-33.783515638 150.94310745600001,-33.783511623500004 150.94316848,-33.78351364 150.94322745599999,-33.783522631 150.94328547200001,-33.7835376345 150.94334048,-33.783557633 150.94337648000001,-33.7835756335 150.943425472,-33.783605640499999 150.943482464,-33.783653629500002 150.94358947200001,-33.7838346335 150.94471142399999,-33.783725613 150.9459104,-33.783695587499992 150.9461064,-33.783915589499998 150.94991936,-33.785114556 150.95017737599997,-33.784823532499999 150.95041936000001,-33.7852665335 150.95044038399999,-33.785318537 150.95063033599999,-33.785177548500002 150.95079443200001,-33.78504285 150.950760352,-33.784974548 150.95060035200001,-33.784663544499999 150.950188352,-33.783896534500002 150.949895328,-33.783381531499998 150.94958732800001,-33.782875556500002 150.949262336,-33.78238055199999 150.94892035199999,-33.781900551 150.948609344,-33.781497565500004 150.948286336,-33.781102553499998 150.94795132799996,-33.780717568500002 150.947630336,-33.780374578500002 150.94767033599999,-33.780339576499998 150.94775334400001,-33.7802655765 150.94784835199997,-33.780180569 150.94806534400001,-33.779986578 150.948159328,-33.77990255099999 150.94838729599999,-33.779699550499998 150.94841529600001,-33.779674557 150.95142524799999,-33.7769255125 150.95147225599999,-33.776881519500002 150.95160921600001,-33.776755516 150.95182921599999,-33.776558528 150.95192521600001,-33.776615526500002 150.95257222399999,-33.77699649699999 150.9531872,-33.777358505 150.95434419200001,-33.77803949 150.95443417600001,-33.778092492500001 150.954527168,-33.778146475499994 150.954650176,-33.777999493 150.955528192,-33.7785334585 150.955687168,-33.778773459 150.95571817599998,-33.778822465499999 150.95602716799999,-33.77929046 150.95605916799997,-33.779338467500004 150.95628118399998,-33.779674464500005 150.956316192,-33.779727467 150.95651017599999,-33.78002047 150.956913184,-33.779990444500001 150.95695219199999,-33.779987447499998 150.95717619199996,-33.779971445 150.957069152,-33.779674446 150.95703814399999,-33.779586441500001 150.95731113599999,-33.779506447500005 150.95758515200001,-33.7794254545 150.957867136,-33.77934344399999 150.95814515199999,-33.779261433500004 150.95842515199996,-33.779180422 150.95901712,-33.779005430499993 150.959454112,-33.778877410500002 150.95985811200001,-33.778758418500004 150.960163072,-33.778668416 150.96046809599997,-33.778579412500001 150.96082009599996,-33.778476386 150.96499401599999,-33.779586330500003 150.96507603200001,-33.77960333199999 150.96508700800001,-33.77960533 150.96542432000001,-33.779436221499999 150.96629376000001,-33.780447098499998 150.96678265599999,-33.780965764500003 150.96691043199999,-33.781110564 150.96695148800001,-33.781153465500005 150.96705155199999,-33.781258083 150.96716771199999,-33.781380109 150.96739500800001,-33.781313342499999 150.96776905600001,-33.781133337500002 150.968089088,-33.781038303 150.96853187199997,-33.780959271 150.969168,-33.780927247500003 150.96980304,-33.780937237499998 150.97064976,-33.780936238499997 150.97086108799996,-33.780968280499991 150.97128409600001,-33.781004281500003 150.97149504000001,-33.781007241499999 150.97235795200001,-33.781078263 150.97256892799999,-33.781111285500003 150.97276188800001,-33.781157276500004 150.973095968,-33.781219288500004 150.973306912,-33.781251238 150.97349881599999,-33.781340241500004 150.97367196799999,-33.781486225 150.97379075200001,-33.781674240500003 150.97381884799998,-33.781990239 150.97365072,-33.782373263 150.97357872000001,-33.782430243 150.973486912,-33.782600258 150.97346675200001,-33.782700232 150.97349808000001,-33.782900217 150.97357536000001,-33.782999580500004 150.973599936,-33.783031234 150.97382688,-33.783149227 150.97403888,-33.783153223 150.97469590399999,-33.782963209500004 150.97499888,-33.782853208500001 150.97522790399998,-33.7828432 150.97543884800001,-33.782889209499999 150.97563084800001,-33.782978213 150.97590787199999,-33.783197216 150.97601187199999,-33.783285183499999 150.976061856,-33.7833861935 150.976130848,-33.783473180500003 150.976161856,-33.7836451935 150.976176864,-33.783745186 150.97625488,-33.784205188500003 150.976356896,-33.784364196 150.97638988799997,-33.784479192 150.97657888000001,-33.7846821925 150.97661788799999,-33.784715196500002 150.97669990399999,-33.784785182 150.97692688000001,-33.784874185500001 150.97706886399999,-33.784876183500003 150.97726387200001,-33.784822182 150.97735385600001,-33.784766164 150.97749686399999,-33.784640179 150.97782585599998,-33.784158161500002 150.97800585599998,-33.784004167500001 150.97823683199999,-33.783936161499994 150.97843081600001,-33.783939177 150.97858883200001,-33.783999172500003 150.97879683199997,-33.784160159500004 150.97888281600001,-33.784233160499994 150.97901984000001,-33.784421157499999 150.97905283200001,-33.784522149 150.97915382400001,-33.784710146 150.97932483199997,-33.784970145 150.979428832,-33.785057150500002 150.97965584,-33.785175143499998 150.97988384000001,-33.785208147500001 150.98020182400001,-33.785213124 150.98041382400001,-33.785173127 150.98051984,-33.785147134500001 150.98064582399999,-33.785048141 150.98070179199999,-33.784949129 150.98075878399999,-33.784778133499998 150.9807608,-33.784678141 150.9808368,-33.784422138 150.98090979199998,-33.78435113499999 150.9811248,-33.784211127 150.981461792,-33.7841171285 150.98181475199996,-33.784123122499999 150.98202576,-33.784155109 150.98213075199999,-33.784199120499999 150.98235875200001,-33.784260115 150.98258476800001,-33.784378108 150.98286076799999,-33.784655108500004 150.98299776,-33.784829101 150.98303075199996,-33.784929093500004 150.98309977599999,-33.785016099 150.98316576,-33.785203097 150.98326777599999,-33.785363103500003 150.98330076799999,-33.785463096 150.98336976,-33.78553609699999 150.98341977600001,-33.785637088500003 150.983488768,-33.785724094 150.98372377600001,-33.786257097499998 150.98375676800001,-33.786358089 150.983858752,-33.7865321 150.98473276799999,-33.787771082 150.98474675199998,-33.7877910805 150.98486576,-33.787979077500005 150.98496976000001,-33.788067082 150.98503776000001,-33.78815307 150.98522777599999,-33.788357069500002 150.985558752,-33.788534077500003 150.98576876800001,-33.788595053500003 150.98585676799996,-33.788596052500004 150.98601776000001,-33.788527066 150.98608976,-33.788457062 150.986271776,-33.788231066 150.98634377600001,-33.788160063 150.986471776,-33.787976062 150.98647977600001,-33.787969050500003 150.98672374399999,-33.787751065 150.98697372800001,-33.787641064 150.98764774399999,-33.787350040500002 150.987631744,-33.787394033499993 150.98771673600001,-33.787567045499998 150.98771372799999,-33.787653033499993 150.98778073599999,-33.787840031500004 150.987947744,-33.788229049499996 150.98832073599999,-33.788893033 150.98840473600001,-33.789052040500003 150.988385728,-33.789138047 150.988383744,-33.789223036 150.988273728,-33.789408036 150.98820172800001,-33.78947804 150.98801977599999,-33.789704036 150.98790780799996,-33.789974043500003 150.98790678399999,-33.790016297500003 150.98790563200001,-33.790059994499998 150.987881888,-33.790317033500003 150.98787971199999,-33.790403077 150.98785488,-33.790747047499998 150.98783075200001,-33.791004086500003 150.98781059199999,-33.791089057 150.987806656,-33.791261033 150.987671648,-33.791788079499995 150.98766768,-33.7919460325 150.98747472,-33.792673045500003 150.987326752,-33.792928012499992 150.98725475200001,-33.793027024499999 150.98719968,-33.793083005500002 150.98701968,-33.793223032 150.98682384,-33.793321045 150.98671801599997,-33.793348055 150.985728,-33.793403037 150.985302848,-33.793468101500004 150.98486185600001,-33.79346109 150.98477401599999,-33.793474058500003 150.98457673600001,-33.793571072500001 150.98441472,-33.793740088500002 150.984358912,-33.793839082 150.98428476799998,-33.794010096 150.984191872,-33.7941800925 150.98417280000001,-33.794251114 150.984117728,-33.794351106500002 150.984078848,-33.794522102 150.98395104,-33.794720107499998 150.98375385599999,-33.795014202 150.98373072000001,-33.794991632 150.98366736,-33.7949270115 150.98359104,-33.794849348500001 150.98338585599998,-33.794620836500002 150.98320691200001,-33.794433986500003 150.98302908799999,-33.794248043 150.98291712,-33.794131049 150.98280947200001,-33.7939590545 150.982700032,-33.793858433 150.98257801599999,-33.793730191 150.98165459200001,-33.792813997 150.98114521599999,-33.792441832500003 150.98084857599997,-33.792225216 150.97995756799997,-33.791669735 150.979679296,-33.791507009 150.97932179200001,-33.791272281 150.97915184,-33.791140172499993 150.97905094399999,-33.791062121</coordinates></LinearRing></outerBoundaryIs></Polygon>

	</Placemark>
</kml>