<?xml version="1.0" encoding="UTF-8"?>
<kml xmlns="http://www.opengis.net/kml/2.2">
	<Placemark>
		<Style>
			<LineStyle>
				<color>ff0000ff</color>
			</LineStyle>
			<PolyStyle>
				<fill>1</fill>
				<color>330000cc</color>
			</PolyStyle>
		</Style>
			<ExtendedData><SchemaData>
		<SimpleData name="STATE_2006">1</SimpleData>
		<SimpleData name="POA_2006">2556</SimpleData>
	</SchemaData></ExtendedData>
      <Polygon><outerBoundaryIs><LinearRing><coordinates>150.753475264,-33.941978812500004 150.753306592,-33.941911583500001 150.75324793600001,-33.941890623 150.75293257600001,-33.941778568499998 150.752697152,-33.941702163500004 150.75245952,-33.941628903500003 150.75222016,-33.941560176 150.75197856,-33.94149894099999 150.75173516800001,-33.9414461605 150.75155315200001,-33.941412176 150.751370208,-33.941383168 150.75118620800001,-33.94135819299999 150.751164192,-33.9413551775 150.74856323200001,-33.941175209500003 150.74851824,-33.941174210500002 150.74847424000001,-33.941173211499994 150.74840624000001,-33.9411722125 150.74833923200001,-33.941171195 150.74827123200001,-33.941169197 150.74820422400001,-33.941165201 150.74815222399999,-33.941162204 150.748137216,-33.94116120499999 150.74807824000001,-33.941155211 150.74801824,-33.941148199499999 150.74795923199997,-33.941140207499991 150.74790022400001,-33.941131216500004 150.74784022399999,-33.941123224500004 150.74775923199999,-33.941111218 150.74767824,-33.941098231 150.74759724800001,-33.941084226500003 150.74751625599998,-33.941070222 150.74743526399999,-33.941056217499991 150.74737126399998,-33.941045228500002 150.747307264,-33.941034221 150.74724326399999,-33.941022214500002 150.74717926400001,-33.941010226499998 150.747115264,-33.94099822 150.74702124800001,-33.940981218499999 150.746926272,-33.940963218 150.74683225599998,-33.9409442185 150.74673724799999,-33.94092621799999 150.746643264,-33.940907218500001 150.74652627200001,-33.940888219 150.74640924799999,-33.940871217500003 150.74629126400001,-33.940855215 150.74617324799999,-33.940841247499996 150.74605526400001,-33.940829241 150.74594924799996,-33.940819232500004 150.74584227199998,-33.940811240500004 150.74573625599999,-33.940805246499998 150.745630272,-33.940798235 150.74552329599999,-33.94079324 150.74543529600001,-33.940789244 150.745348288,-33.940785248 150.745260288,-33.940782232499998 150.74517328,-33.940780234500004 150.74508528000001,-33.940779235499996 150.74499728000001,-33.940777237500001 150.74490928,-33.9407762385 150.74482128,-33.940777237500001 150.74473328,-33.940779235499996 150.74464630400001,-33.940784249 150.74458230399998,-33.940790243 150.74451728,-33.940797254499998 150.74445328,-33.940806264 150.74438828800001,-33.940815255 150.744324288,-33.940823265500001 150.74425328000001,-33.940832256500002 150.74418329599999,-33.940840267 150.744112288,-33.94084925799999 150.74404128,-33.940856251 150.74397030399999,-33.940863262500002 150.74391129599999,-33.940867258499999 150.74385129599997,-33.940871254500003 150.74379132799999,-33.940874251499999 150.74373232,-33.940876268 150.74367232,-33.940877267 150.74363232,-33.940876268 150.743593312,-33.940874251499999 150.74355331199999,-33.940872253500004 150.743513312,-33.940869256500001 150.74347331199999,-33.940865260500004 150.73970937600001,-33.940609294499993 150.739680384,-33.940607296499998 150.73933539199996,-33.940585318499998 150.73754841600001,-33.940468324500003 150.736044448,-33.940371329 150.73370448,-33.940181371 150.73362249599998,-33.940178374 150.73354048,-33.940174378 150.73345849599997,-33.940169364500001 150.73337648,-33.9401613725 150.73329548800001,-33.940153362 150.733219488,-33.940143372 150.73314448,-33.940133363500003 150.73306848,-33.940121375499999 150.732993472,-33.940107371 150.73291948799996,-33.940093366500001 150.73176652800001,-33.93986639 150.72937753599999,-33.939357399500004 150.72895955199999,-33.939268433 150.72887155199999,-33.939253429499992 150.72878355199998,-33.939237427 150.728695552,-33.939221424499998 150.72860854399997,-33.939205422 150.72852054399999,-33.939188420500003 150.72845056,-33.939173417 150.72837955200001,-33.939158432 150.72830953600001,-33.939142429500002 150.72823856,-33.93912842499999 150.728168544,-33.939114420500005 150.72806355200001,-33.93909941699999 150.72795856,-33.939087429 150.727852576,-33.939076421500005 150.72774659199999,-33.939066431500002 150.72764156799997,-33.939054425 150.72754358399996,-33.939042418500001 150.72744457600001,-33.939028432500002 150.727345568,-33.93901542699999 150.727247584,-33.93900244 150.72714857599996,-33.938990452 150.727043584,-33.938978445499998 150.72693756799998,-33.938967438 150.72683158399997,-33.938956449 150.72672659200001,-33.938947439499998 150.72662057599999,-33.938938448500004 150.72646659200001,-33.938923445 150.72631158399997,-33.938909440499998 150.72615657599999,-33.938898451500002 150.72600156799999,-33.938889442 150.72584662400001,-33.93888145 150.72570060799998,-33.938876436500003 150.72555561599998,-33.938874438500001 150.72540960000001,-33.938872459 150.72526361600001,-33.93887146 150.725118624,-33.938869462 150.71899033599999,-33.938892531500002 150.71885971200001,-33.93889451099999 150.718728704,-33.938896527499999 150.71859772799999,-33.938898544 150.71846675200001,-33.938899543 150.718335744,-33.938900542 150.71818572800001,-33.938900542 150.71803475199999,-33.938900542 150.717884736,-33.938899543 150.71773475200001,-33.938898544 150.717583744,-33.938896546 150.71742675199999,-33.938894529500004 150.71726873599999,-33.9388905335 150.71711174399999,-33.938887536500005 150.71695475199999,-33.938884539499995 150.71679676799999,-33.938881561 150.71664377600001,-33.938880562 150.716491776,-33.93887956299999 150.71633878399999,-33.938878564 150.71618576,-33.938878564 150.71603376,-33.938877546500002 150.71587776000001,-33.938876547500001 150.71572278400001,-33.9388755485 150.715567776,-33.938874549499999 150.71541276799999,-33.938874549499999 150.71525776,-33.938873550499999 150.715138784,-33.938873569 150.71501977599996,-33.938873569 150.71490179199998,-33.938873569 150.714782816,-33.938873569 150.71466380800001,-33.93887257 150.7145208,-33.938870572 150.71437779199996,-33.938868574 150.71423481599999,-33.938866576 150.71409180799998,-33.938863579 150.7139488,-33.938859583 150.71383081600001,-33.938855568500003 150.713711808,-33.938851572499999 150.7135928,-33.938846577500001 150.713473792,-33.9388426 150.71335580799999,-33.938838585500001 150.71324179199999,-33.938833590500003 150.71312784,-33.938828595499999 150.713013824,-33.938823600499994 150.712900832,-33.938819586 150.71278684800001,-33.938817588 150.71270684800001,-33.938816589 150.71262684800001,-33.938816589 150.71254684799999,-33.938817588 150.71246684799999,-33.938818587 150.71238684799999,-33.938819586 150.71227782400001,-33.9388226015 150.71216784000001,-33.938826597500004 150.712058848,-33.938830593500001 150.71194982399999,-33.938834589500004 150.71184083200001,-33.938840583500003 150.71173584,-33.9388456155 150.71163184,-33.938850610499998 150.71152684800001,-33.938856604499996 150.71142284800001,-33.938862617 150.71131888,-33.938870609 150.711225856,-33.938880617500004 150.71113385599998,-33.9388916065 150.71104185600001,-33.938904612 150.71094886399999,-33.938914602 150.71085686399999,-33.938922612500001 150.71078288000001,-33.938927607499991 150.710708864,-33.938930604500001 150.71063488,-33.938932602500003 150.710560864,-33.93893362 150.71048688,-33.93893362 150.71042387200001,-33.938935618 150.71036185599999,-33.938935618 150.71029888000001,-33.938935636499998 150.710236864,-33.938935636499998 150.71017385600001,-33.938935636499998 150.71010787200001,-33.938935636499998 150.710041856,-33.938934637500004 150.70997488,-33.938933638500004 150.709908864,-33.938931622 150.70984288,-33.938929624 150.70978086399998,-33.93892662699999 150.709717856,-33.938922631 150.70965587200001,-33.938918635 150.709592896,-33.938913621499999 150.70953091199999,-33.938908626500002 150.70945388800001,-33.938901633500002 150.70937689600001,-33.938892624 150.709300896,-33.938882634 150.70922390399997,-33.938873624500005 150.70914691199999,-33.938864633500003 150.70907091199999,-33.938856623 150.70899388799998,-33.938848649500002 150.70891689600001,-33.938840639 150.708839904,-33.938833646 150.70876390399999,-33.938827652 150.708650912,-33.938818642500003 150.708537888,-33.938810650500002 150.70842588799999,-33.938804656500004 150.708312896,-33.938800642 150.70820089599999,-33.938801641 150.70814889599998,-33.938803639 150.708095904,-33.938805655499998 150.70804390399999,-33.938809651500002 150.70799190400001,-33.938813647499998 150.707940896,-33.938819641500004 150.70786588799999,-33.938832647 150.70779193600001,-33.938850647500004 150.70771894399999,-33.93887164499999 150.70764592,-33.938891662 150.70757193599999,-33.938909662500002 150.70751792,-33.93892067 150.707480928,-33.938927663 150.707388928,-33.938943665499998 150.70729692800001,-33.93895767 150.70720492800001,-33.938973672499998 150.70711292799999,-33.938990674 150.70700294400001,-33.9390136695 150.70689193600001,-33.939039662 150.706782944,-33.939066672 150.70667292799999,-33.939093663500003 150.70656393599998,-33.939121672500001 150.70645392,-33.939151661 150.706343936,-33.9391816865 150.70623395199999,-33.9392126925 150.70612396800001,-33.939244679 150.70601395200001,-33.939275685 150.705903968,-33.939306691 150.70579497599999,-33.939337678500003 150.70568496000001,-33.939368684500003 150.70557497600001,-33.939399690500004 150.70546396799998,-33.939429679 150.705374976,-33.939452693 150.70528496,-33.939475688500004 150.705194976,-33.939497685 150.70510496,-33.9395197 150.705013952,-33.939539698499999 150.70494096,-33.939555701 150.70486697600001,-33.9395717035 150.70479398399999,-33.939586707 150.70471900799998,-33.939600711499999 150.70464598399997,-33.939614697499998 150.704556,-33.9396307 150.704465984,-33.939644704500004 150.704376,-33.93965870899999 150.70428598399999,-33.939672695 150.704196,-33.939688697500003 150.704124,-33.939702702 150.704052,-33.9397167065 150.703979008,-33.939730711 150.703908,-33.939746695 150.703836,-33.939763696500002 150.703779008,-33.939778718500001 150.703720992,-33.939794721 150.703664,-33.939811722500004 150.70360700800001,-33.939828724 150.70355100800001,-33.939846724500001 150.70345398399999,-33.939887720499996 150.703356,-33.939928716499999 150.70326003199997,-33.93997073 150.70316403199999,-33.940012725 150.703068032,-33.940056718 150.703013024,-33.940082729 150.702958016,-33.940108721500003 150.70290304,-33.940134714 150.70284803199999,-33.940161724 150.70279401600001,-33.940187716499999 150.702742016,-33.940212728500001 150.70269001599996,-33.940237722 150.70263801600001,-33.940262715499998 150.702586016,-33.940286728499999 150.70253203199999,-33.940308743500005 150.70248601599999,-33.940326744 150.70245904000001,-33.940336734 150.702438016,-33.940343745500002 150.70239104000001,-33.940360747 150.70234304,-33.940374733 150.702293024,-33.940386739499999 150.70225203199999,-33.940392733499998 150.70221001600001,-33.940397747 150.70216704000001,-33.94040074399999 150.702125024,-33.940402742 150.70208201599999,-33.940403741 150.70203702399999,-33.940403741 150.70199104,-33.94040074399999 150.701945024,-33.940397747 150.701900064,-33.940393732499999 150.701854048,-33.940388737500001 150.70181206399997,-33.940383742499996 150.70177004799996,-33.940378747499999 150.70172806400001,-33.940372735 150.701686048,-33.940366741 150.70164406399996,-33.940359748 150.701587072,-33.940350738499994 150.70153107199999,-33.9403417475 150.70147404799999,-33.94033074 150.70141804799997,-33.940319732500001 150.70136204799999,-33.940307744500004 150.70132105600001,-33.940297736 150.70127907200001,-33.940287746 150.70123804799996,-33.940276757 150.70119804800001,-33.940264750499999 150.701157056,-33.940252762500002 150.69957305599999,-33.938110777 150.699559072,-33.938091777499999 150.69954505600001,-33.938072778 150.69953107200001,-33.938053778499999 150.69951804799996,-33.938034779 150.699504064,-33.938015779499999 150.699492064,-33.938000776 150.699481056,-33.9379867715 150.69947004799999,-33.9379717865 150.699459072,-33.937956783 150.69944905599999,-33.937941779499994 150.69944307200001,-33.937928774 150.699436064,-33.937914769500004 150.69943004800001,-33.937901782499999 150.699424064,-33.937887778 150.69941907200001,-33.937873773500002 150.69931907200001,-33.937410774 150.69893504,-33.935440783 150.698304,-33.932260781 150.69825398399996,-33.9319937705 150.697969984,-33.9304997845 150.69792899199996,-33.930283778499998 150.697884,-33.930044777 150.697872,-33.929981784500001 150.697864,-33.929943785500001 150.69775897599999,-33.929386769 150.69763795200001,-33.928750776 150.69750995199999,-33.928126771 150.69747097600001,-33.927936776 150.69744096,-33.927618779500001 150.69744096,-33.927591769500005 150.69744096,-33.92756577699999 150.69744297599999,-33.927538785499998 150.69744595200001,-33.927512774500002 150.69744896,-33.927486782 150.69745497599999,-33.927450781 150.69746396799999,-33.92741478 150.697473952,-33.927378779 150.69748496,-33.927343777 150.697494976,-33.927308775 150.69750697599997,-33.927265781 150.69751996799999,-33.927222768500002 150.69753296,-33.927179774500004 150.69754697600001,-33.927137779500001 150.697562976,-33.927095784500004 150.69757593599999,-33.927063779500003 150.69758992000001,-33.927030775499993 150.697604928,-33.926998770499999 150.697619936,-33.926966784 150.69763692800001,-33.926935778 150.697660928,-33.926894782 150.697686944,-33.926853786 150.69771593599998,-33.926814769499998 150.69774492799999,-33.926774772500004 150.69780592000001,-33.926695777500001 150.69787193600001,-33.926615783500004 150.69790492800001,-33.926576785500004 150.69793894399996,-33.92653677 150.69797094399999,-33.926496773 150.69800393599999,-33.926456776 150.69803692799999,-33.926416760500004 150.69806992,-33.926377762500003 150.69810294399997,-33.926337765499994 150.69813792,-33.926298767500001 150.69817292799999,-33.926259751 150.69820892799999,-33.926221752 150.69824492800001,-33.926182754 150.69828192,-33.926144755 150.699000896,-33.925371751 150.69915289599996,-33.925208766 150.69923190399999,-33.92512374 150.699641856,-33.924683736 150.69972348799999,-33.9245982845 150.699979872,-33.924329738499999 150.70059584000001,-33.923686715500004 150.701026848,-33.923236721500004 150.70162780800001,-33.922609701 150.70269852800001,-33.921491487 150.702779776,-33.921406683 150.703218784,-33.920920688 150.704209728,-33.919822657499999 150.704251744,-33.919776666499999 150.70427075200001,-33.91975666799999 150.70428870399999,-33.919737668499998 150.704307712,-33.91971866899999 150.70432672000001,-33.919698670500004 150.70434569599996,-33.919679671 150.704494912,-33.919530653500004 150.704533696,-33.919484662499997 150.70457171199996,-33.919439670500005 150.70459369599999,-33.919417674 150.70461571199999,-33.919397675500001 150.70464,-33.919377843500001 150.70466470400001,-33.919358659 150.70469072,-33.919339659500004 150.70471670399996,-33.919323675500003 150.70474371199998,-33.919307673 150.70477270399999,-33.919293668500003 150.704801696,-33.919279664 150.70483072,-33.9192666585 150.704859712,-33.919252672500001 150.70488272,-33.919241665 150.704905696,-33.919230657500002 150.704928704,-33.919218669500005 150.70495072,-33.919207662 150.704973696,-33.919196673 150.70551468799999,-33.918974654499998 150.70557366400001,-33.918949642500003 150.70640688,-33.9186662965 150.70689664,-33.918498631 150.70693763200001,-33.918482628500001 150.70697763199999,-33.918466626 150.707018656,-33.9184506235 150.70705865599999,-33.918434621 150.707099648,-33.918418637 150.70713664,-33.918405631500001 150.70717363200001,-33.91839162699999 150.707210656,-33.918378621500004 150.707246656,-33.918364635499998 150.70728064,-33.918347634 150.70730464,-33.918334628499998 150.70732864,-33.918320624 150.70735065599999,-33.918306638 150.70737363200001,-33.918291634500001 150.70739465599999,-33.918275632 150.707411648,-33.918261627500002 150.70742864,-33.918247623 150.70744464,-33.91823263799999 150.707459648,-33.918217634500003 150.70747465599999,-33.918202631 150.70831920000001,-33.915907169500002 150.7080976,-33.9158046055 150.70769660799999,-33.915580607500004 150.707536608,-33.915491604 150.70715660799996,-33.915279612500001 150.706828608,-33.915087638 150.70665161599999,-33.914971624499998 150.70653862399996,-33.914924634500004 150.70642860800001,-33.91487263099999 150.706320608,-33.914816631500003 150.70621561600001,-33.914756636 150.70611561600001,-33.91469362499999 150.70603360000001,-33.914635627500004 150.70595561599998,-33.914573634 150.705880608,-33.914508625 150.70580460799999,-33.914444633500004 150.70572761599999,-33.914381622500002 150.7056576,-33.914329637500003 150.70558460799998,-33.914279632 150.705511616,-33.914229645 150.705443616,-33.914176642500003 150.70542060799997,-33.914154646 150.70538262400001,-33.914118645 150.705333376,-33.914056855 150.70529062399999,-33.913990643499993 150.705251616,-33.913921657 150.70521260800001,-33.913852652 150.70517209600001,-33.913784979 150.70510860799999,-33.913691646499998 150.70507660799998,-33.913644656500004 150.7050456,-33.91359764799999 150.7050176,-33.913549640500001 150.70497862400001,-33.913477657 150.70494361600001,-33.913404656 150.704911616,-33.913330656 150.704880608,-33.913255657 150.70485161600001,-33.913179640499997 150.70482662399999,-33.913116648 150.70480361599999,-33.913053655500001 150.7047816,-33.912989645499998 150.70476160000001,-33.912925654 150.704742624,-33.912860645 150.70472662399999,-33.912799650499998 150.704711616,-33.912738656 150.704698624,-33.912677643 150.704686624,-33.912615649500005 150.7046776,-33.912553656 150.7046696,-33.912488647 150.70466262400001,-33.912422639 150.70465862399999,-33.912356649499991 150.70465660799999,-33.912289642499999 150.70465692799999,-33.912224282 150.704660512,-33.9121413835 150.70466761599999,-33.912057652500003 150.7046776,-33.911974643 150.70469161599999,-33.911892651 150.704708608,-33.911810640500001 150.7047336,-33.911623642500004 150.7047576,-33.911494642 150.70493859199999,-33.910506631 150.70518854399998,-33.909143625 150.70521955199999,-33.908837635 150.70524153599999,-33.908678627500002 150.705248544,-33.908633635499996 150.705259552,-33.908563631500002 150.70527856000001,-33.908022636 150.70524153599999,-33.907568627499991 150.70518953600001,-33.907337636500003 150.705147552,-33.907116635499996 150.70510454399999,-33.90691863 150.70508352,-33.906759622500005 150.70505052799999,-33.906417631499998 150.70504252800001,-33.906182626 150.70497452799998,-33.905829627499998 150.704741504,-33.904313626499999 150.708452448,-33.904728581499995 150.70941542400001,-33.904836547500004 150.709656416,-33.904863557499993 150.711717376,-33.90509453 150.71223939199999,-33.905152546 150.71222937599998,-33.905218535499998 150.71465532799999,-33.905538493 150.71474531199999,-33.905481494500002 150.71483033600001,-33.905438500499997 150.71483033600001,-33.905423497 150.715002336,-33.905437501500003 150.71512233600001,-33.905466491 150.715225312,-33.905480495500001 150.71534432,-33.905465492 150.71544732800001,-33.905436502500002 150.71570332799999,-33.905264508 150.71587532799998,-33.905264508 150.71597731200001,-33.9052355 150.71621728,-33.90506348699999 150.71645030400001,-33.904979478500003 150.71645628799996,-33.9049764815 150.716542336,-33.904990523 150.71674729599999,-33.904919483 150.71685030399996,-33.904833476500002 150.71696928,-33.904789465 150.71708928000001,-33.904789483500004 150.71714128,-33.904832477500001 150.71719228800001,-33.904832477500001 150.71722630400001,-33.904803488 150.717363296,-33.90477448 150.71761926400001,-33.904459480500002 150.71767027199999,-33.904459480500002 150.717790272,-33.904473466500001 150.71787625600001,-33.904487471 150.71809827199999,-33.904458463 150.71820124799999,-33.904401464500005 150.718287264,-33.904386461 150.71849225599999,-33.904400465500004 150.71859526399999,-33.904485454499998 150.718682272,-33.904585465499999 150.71876726400001,-33.90464246399999 150.718870272,-33.90464246399999 150.718973248,-33.90459947 150.71919523199998,-33.904470469499998 150.71929824,-33.904455466 150.719589216,-33.904455447499998 150.71970822399996,-33.904411436 150.71996521599999,-33.904268449500002 150.72013622399999,-33.904268449500002 150.72035923199999,-33.904210452 150.72046121599999,-33.904152436 150.7207512,-33.9039084395 150.72088819199999,-33.903865445500003 150.72109420800001,-33.903893436 150.72118019199999,-33.903936448499998 150.72155718400001,-33.904179427500004 150.7217632,-33.904293424500004 150.72196918399999,-33.904364427499999 150.72207219200001,-33.904363428499998 150.7221912,-33.904320434500001 150.72224320000001,-33.904263417500005 150.722225184,-33.90416342499999 150.72191619200001,-33.903906423 150.72191619200001,-33.90382043499999 150.72193318399999,-33.903734428500002 150.72198416000001,-33.903706419500004 150.72208716799997,-33.90367743 150.722258176,-33.903705420500003 150.72241216,-33.903662426499999 150.72260016000001,-33.903533426 150.72273715199998,-33.903504418 150.722943168,-33.903575421 150.72326816,-33.903674414500003 150.72349116800001,-33.90366041 150.72361113599999,-33.903573404500001 150.723662144,-33.903487416499999 150.72369612799997,-33.903387405499991 150.72367814399999,-33.903287413 150.72360912,-33.903201406500003 150.72330012800001,-33.902858416500003 150.72330012800001,-33.902773409 150.72331712,-33.902673416500001 150.72340214399998,-33.9024864 150.72365712,-33.902228399 150.72386214400001,-33.9020854125 150.724068128,-33.902013410500004 150.72429110399997,-33.902070409 150.72451308800001,-33.902112404 150.72473609599999,-33.902111386500003 150.724822112,-33.902068392499999 150.72499209599999,-33.901811390500001 150.72507708800001,-33.901739388500005 150.72519708799999,-33.9016963945 150.72543609600001,-33.90158138 150.725573056,-33.901451380499999 150.725709056,-33.901294389500002 150.72569206399999,-33.901237391 150.72591408,-33.901150385500003 150.72601705599999,-33.901150385500003 150.72612006400001,-33.901207384 150.72624105599999,-33.901407387500001 150.72634406399999,-33.901478390500003 150.72648105600001,-33.901550374 150.72656707199999,-33.901621377 150.72672208,-33.901921373 150.72679408,-33.901939373499999 150.72689305599999,-33.901964367 150.727013056,-33.901935377500003 150.72708208,-33.901878379 150.72709705599996,-33.901491377499994 150.727148064,-33.901391366499993 150.727217024,-33.901305378499998 150.72752403199996,-33.901161374499992 150.727610048,-33.901132366499994 150.72781504,-33.900975375500003 150.728037024,-33.900731379 150.72808304,-33.900697376 150.72817302399997,-33.900630350500002 150.728276032,-33.900601361 150.728464992,-33.900630350500002 150.72858499199998,-33.900701353500004 150.72870499199999,-33.900729344 150.72875699199997,-33.900719354 150.728859008,-33.900700354500003 150.72897801600001,-33.900657360499999 150.7292,-33.900485347499995 150.72923401599999,-33.900413345499999 150.72930300799999,-33.900327357500004 150.72930201599999,-33.900241351 150.729319008,-33.900156343500001 150.72926700799999,-33.9000413475 150.729130016,-33.899884356500003 150.729095008,-33.89979835 150.729095008,-33.899727347 150.729266016,-33.899612351 150.72969385600001,-33.899582344 150.729813984,-33.899539331500002 150.730018976,-33.899524328 150.73022496,-33.899524328 150.73054998399999,-33.899538332500001 150.73094396799996,-33.899565342500004 150.73118294399998,-33.899479336 150.73147395199999,-33.899292338 150.73171292800001,-33.899177323499998 150.73181603200001,-33.899120288 150.732021952,-33.899119307500001 150.73214195200001,-33.89916232 150.732244928,-33.899262312499999 150.732278944,-33.899319311 150.732313952,-33.899419322 150.73243395199998,-33.899519314500004 150.73251993599999,-33.899562308500002 150.732964896,-33.899618308 150.73315289600001,-33.899589318499999 150.73315289600001,-33.899446313499993 150.733066912,-33.899318312 150.73304889600001,-33.8992173205 150.73306592,-33.899146317499998 150.73335590400001,-33.898845322500001 150.733731904,-33.898572299500003 150.73400588800001,-33.898428295500004 150.73415987199999,-33.898385301499999 150.73439888,-33.898370298 150.73469088,-33.8985842875 150.73491388799999,-33.898626301 150.73501686399999,-33.898612296499998 150.735136864,-33.898569302499993 150.73530688,-33.898411275500003 150.735426848,-33.898253304 150.73551180800001,-33.898181302 150.735665856,-33.898153274500004 150.735974752,-33.898252323500003 150.73618073599999,-33.89825138 150.73640284799998,-33.898237283 150.73662483199999,-33.898279278 150.73683084800001,-33.898336276499997 150.73712284800001,-33.898521276499999 150.737294848,-33.898678267500003 150.73736384,-33.898764255499998 150.73736384,-33.898850262 150.73738185600001,-33.898936268500002 150.73724483199999,-33.89916528 150.73727984000001,-33.899236283 150.73741683200001,-33.8993082665 150.73774185600001,-33.899250250500003 150.73792982399999,-33.8991632635 150.73819881599999,-33.899029268 150.73818281600001,-33.89907426 150.73815580799999,-33.899117254 150.738139808,-33.899164262500001 150.738041888,-33.899462279 150.73781184000001,-33.899825267499999 150.73752883200001,-33.900125263500001 150.73718985599999,-33.900471269 150.73689488,-33.90084027 150.736645888,-33.901226272500004 150.73598489599999,-33.9025102835 150.735959904,-33.902559271500003 150.73553993600001,-33.903309298499998 150.73510092800001,-33.903983290500001 150.73430297600001,-33.90493432 150.73421696,-33.905037309500003 150.733632992,-33.905767319500001 150.73317699200001,-33.90634032 150.73263904000001,-33.90710733 150.73238204800001,-33.907485340499996 150.732317024,-33.907612324500001 150.73223004799999,-33.907792329499998 150.73220006400001,-33.907860335500004 150.73226406399999,-33.907868327500005 150.7354,-33.908282302 150.74163689599999,-33.909239233 150.746021856,-33.909912189 150.75575971200001,-33.912720341 150.755696704,-33.913020096499999 150.75567772799999,-33.91323009 150.75564771200001,-33.913592098 150.755663712,-33.913635092 150.75566272,-33.913678086 150.75571072,-33.913794099499995 150.75572672000001,-33.913851098 150.755876704,-33.914040094 150.756385728,-33.9142640735 150.75636470399996,-33.914393074 150.75629072000001,-33.9145920785 150.75619670399996,-33.914948074 150.75621075199999,-33.91506307 150.75617475199999,-33.915120068499995 150.756259744,-33.9151790835 150.75629273599998,-33.915222077500005 150.756461728,-33.915311081 150.756564704,-33.915313079 150.75676972799999,-33.915345065499999 150.75694172799999,-33.915348081 150.757024704,-33.915436067 150.757059712,-33.915436067 150.75717472,-33.915639067500003 150.75729072,-33.915770066 150.757475712,-33.915916068 150.75757670399997,-33.916018077 150.75760870400001,-33.916090079 150.75765872,-33.916149075500002 150.75777372799999,-33.916351077 150.75783472000001,-33.916639066500004 150.75781670399999,-33.91668108 150.757812704,-33.91683907 150.757792704,-33.916939081 150.75780774399999,-33.9170390735 150.757804736,-33.917168074 150.75773875199997,-33.917740075499992 150.75762976,-33.917996078500003 150.75757376000001,-33.918153069500001 150.75752176,-33.91819508299999 150.757466752,-33.918295075499998 150.75740176,-33.9183730715 150.75718377600001,-33.9186330705 150.75702579200001,-33.918788082 150.756781792,-33.918927072500004 150.75654076800001,-33.918980093499997 150.75640179199999,-33.919035094 150.756297792,-33.919091093500001 150.75612377600001,-33.919160098500001 150.75612076799999,-33.9192740955 150.75606681599996,-33.919373089 150.75604582400001,-33.919531097499998 150.756106816,-33.919818088 150.75623481599996,-33.920207087500003 150.75626681599999,-33.920294093 150.75634982400001,-33.920410088 150.75643081600001,-33.920598085 150.75649680000001,-33.920685090500001 150.75649580800001,-33.920728084499999 150.756611808,-33.920902095499997 150.75664281600001,-33.921017091499998 150.7567248,-33.921176099 150.756771808,-33.921363097 150.7569968,-33.921940093499998 150.75702582400001,-33.922141096 150.756941856,-33.922784100500003 150.75693785600001,-33.922913101 150.75696585599999,-33.923171102 150.75701184,-33.923387089500004 150.75704483199999,-33.923445087 150.757074848,-33.923603095499999 150.75705683199999,-33.923646089500004 150.757086848,-33.923804098 150.757084832,-33.9238761 150.75709984,-33.923976092499998 150.75739683200001,-33.9244681 150.75757884800001,-33.924715075 150.757762848,-33.924890066499998 150.75791484800001,-33.924993074500001 150.75805084800001,-33.925067074499999 150.75832284800001,-33.925158076 150.75840784,-33.925202069 150.75850784,-33.925290073500001 150.75863984,-33.925507078500004 150.75880384000001,-33.925825075 150.75878284800001,-33.92596808 150.758764832,-33.926011074 150.75876384,-33.926054068 150.75870784,-33.9262110775 150.75870384000001,-33.92638207299999 150.75874985600001,-33.926613082499998 150.758708864,-33.926841076500004 150.75869088,-33.926884070500002 150.75863686399998,-33.926983082500001 150.75858188800001,-33.92712507 150.758528864,-33.927196073 150.75847587199999,-33.927238068 150.758337888,-33.927293068499999 150.75809587200001,-33.927346071 150.75796188800001,-33.927201068 150.75786288,-33.927070069500004 150.75777788799999,-33.927011091499999 150.757795872,-33.926997087 150.757573888,-33.9269360925 150.75747187199997,-33.92692009 150.757212864,-33.926958089 150.75717788799997,-33.927001101500004 150.75710787199998,-33.9270430965 150.75696592,-33.9272260985 150.75691392,-33.927268093500004 150.756827904,-33.927267094499996 150.756482912,-33.927318099 150.756411904,-33.927432096 150.75634089600001,-33.9275310895 150.756300896,-33.927745097500001 150.75639990400001,-33.927890100500001 150.75660192000001,-33.928037101500003 150.75660192000001,-33.928065092 150.757292896,-33.928564092500004 150.75853392,-33.929703082 150.75868390400001,-33.929878073499999 150.75874592,-33.930137073499999 150.75873990400001,-33.930380071 150.75870192,-33.930537080500002 150.75869792,-33.930666081 150.75874192000001,-33.930954070499993 150.75873990400001,-33.931040077 150.75870291199999,-33.931168078500001 150.75864790399999,-33.93129608 150.75846793599999,-33.931622068499998 150.75844393599999,-33.931880069500004 150.75841292800001,-33.931950092 150.758407936,-33.931965095500004 150.75840694399997,-33.932008089500002 150.758351936,-33.932136091 150.75831494400001,-33.932250088 150.75822694399997,-33.932320092 150.758244,-33.932349081499993 150.75810492799999,-33.932404100500001 150.75804995199999,-33.9324031015 150.75801894400001,-33.9324031015 150.75789795199998,-33.932429094 150.75782995200001,-33.932414090500004 150.75755497599999,-33.932409095499999 150.75723097599999,-33.932360089 150.75714598399998,-33.932316096 150.756909984,-33.93214008699999 150.756807968,-33.932095095 150.756585984,-33.932048105 150.756449984,-33.931989108499998 150.75623097600001,-33.931856112 150.75616297600001,-33.931812119 150.75602697599999,-33.931781113 150.75585497599999,-33.931763112500001 150.75573497599999,-33.931761114499999 150.75566598399999,-33.93177511899999 150.75554598400001,-33.931787107 150.755459968,-33.931785109 150.7552,-33.931881105500004 150.75511299199997,-33.931937123499999 150.755040992,-33.932064126 150.754988,-33.932135129 150.754986016,-33.932207131 150.75500201599999,-33.932250125 150.754984,-33.932293137500004 150.75562899199997,-33.932562109 150.75565801600001,-33.932777116 150.755584,-33.932976120500001 150.755371008,-33.933245110500003 150.75516099199999,-33.933413127500003 150.75502300799999,-33.9334401375 150.75476601599999,-33.933435124 150.754628032,-33.933461135 150.75452502399997,-33.933460136 150.75445404800001,-33.933544126 150.75434502399997,-33.933786124500003 150.754326048,-33.933843123 150.75425504,-33.93395612099999 150.75418403200001,-33.934055133 150.753941024,-33.934151129500002 150.75345507200001,-33.934372149 150.75329808000001,-33.934456157499994 150.75319305599999,-33.934554152 150.753175072,-33.934582142499991 150.75294707199998,-33.934765144499998 150.75270105600001,-33.934990141500002 150.75259408,-33.935145153 150.75254208000001,-33.93518814699999 150.75250505599999,-33.935273154500003 150.75236211199999,-33.935500149500001 150.752253088,-33.93571314 150.752200096,-33.935783162500002 150.75205510399999,-33.936110168499994 150.752084096,-33.936311171 150.75213411199999,-33.936370167500002 150.75213308799999,-33.936413161499999 150.75221609600001,-33.936514171500001 150.752569088,-33.936821142 150.75265209599999,-33.936923151 150.75266710400001,-33.936995153 150.75270009600001,-33.937039146 150.75271110399999,-33.937282143499999 150.75305011200001,-33.937446146 150.753010112,-33.938362155 150.75323110399998,-33.938452157500002 150.753470112,-33.93848514299999 150.75360611199997,-33.938559143 150.75358710399996,-33.938630146 150.75360310400001,-33.93867314 150.75354809599997,-33.938787155500002 150.75330227199998,-33.939040143 150.752683136,-33.9397461585 150.75266412799999,-33.939803175500003 150.75264412799996,-33.939932176 150.75267513599997,-33.940076161499995 150.752739136,-33.94023417 150.75273814400001,-33.940292167500004 150.752820128,-33.940422148499998 150.752920128,-33.9405381435 150.75293712,-33.94058215499999 150.753020128,-33.940655156 150.753055136,-33.940655156 150.75335513599998,-33.940990154 150.753470144,-33.941193154499999 150.75348512,-33.941293147 150.75350112000001,-33.941351144500004 150.75347715199999,-33.94162315 150.75345216,-33.941909141499998 150.753475264,-33.941978812500004</coordinates></LinearRing></outerBoundaryIs></Polygon>

	</Placemark>
</kml>