<?xml version="1.0" encoding="UTF-8"?>
<kml xmlns="http://www.opengis.net/kml/2.2">
	<Placemark>
		<Style>
			<LineStyle>
				<color>ff0000ff</color>
			</LineStyle>
			<PolyStyle>
				<fill>1</fill>
				<color>330000cc</color>
			</PolyStyle>
		</Style>
			<ExtendedData><SchemaData>
		<SimpleData name="STATE_2006">1</SimpleData>
		<SimpleData name="POA_2006">2445</SimpleData>
	</SchemaData></ExtendedData>
      <Polygon><outerBoundaryIs><LinearRing><coordinates>152.86024835200001,-31.548999724 152.85975936,-31.549618715499996 152.859319392,-31.550495726499996 152.85832742399998,-31.551947736 152.85832742399998,-31.551990748499996 152.85798643199999,-31.552583747500002 152.857654016,-31.553109998500002 152.857575424,-31.553214745500004 152.85740547200001,-31.553442739499999 152.857298464,-31.553654749499998 152.857206464,-31.553745732500001 152.856924,-31.554168994 152.85630700799999,-31.554924996500002 152.85571849600001,-31.5557417345 152.855081536,-31.55655875 152.85440752,-31.557617764 152.85432252800001,-31.557847756 152.85405254400001,-31.558271757500002 152.852706592,-31.559947765 152.85230201600001,-31.560570993 152.850953664,-31.563517784 152.85064864,-31.563971774 152.85061366400001,-31.564050769 152.85061366400001,-31.564152778 152.85036464000001,-31.564564773 152.85036464000001,-31.564607785499998 152.850223008,-31.564850006 152.85009369599999,-31.564976786499997 152.85008169599999,-31.564988774499998 152.84969168,-31.565502797 152.849513696,-31.565817796499999 152.84925168000001,-31.566452790500001 152.84875571199998,-31.567257799499998 152.84869872,-31.567299794500002 152.848613728,-31.567511804499997 152.848343712,-31.5679048 152.848343712,-31.567953788 152.84766976,-31.568963795499997 152.84712374399999,-31.5699018195 152.84691078399999,-31.570355809500001 152.84667676800001,-31.570718816500005 152.846676992,-31.570767009 152.846003776,-31.571747823500001 152.846004,-31.571795997499997 152.84591779199999,-31.571959815 152.84568380799999,-31.572292815 152.845669824,-31.572370811 152.8453288,-31.572927827500003 152.8453288,-31.572987841499998 152.84499580799999,-31.573623834500001 152.84499580799999,-31.57368383 152.84458384000001,-31.574440831499999 152.84456985599999,-31.574579840499997 152.84440585599998,-31.57489484 152.84421484799998,-31.575378837 152.84396585600001,-31.575880834500001 152.84390985600001,-31.57594083 152.84332688000001,-31.577333843 152.84329187200001,-31.5774848585 152.84298588799996,-31.5779688555 152.842428896,-31.579317857 152.84231190399998,-31.579602849500002 152.84211891199999,-31.580341850500002 152.84163593599999,-31.581521873 152.841636,-31.581582997 152.84130195200001,-31.58233887 152.84115996799997,-31.582762871500002 152.84108796800001,-31.583398864499998 152.84099596799996,-31.583852873 152.84098096,-31.584172867499998 152.840887968,-31.58466987 152.840887968,-31.584839866499998 152.84055299199997,-31.585880861500002 152.84055299199997,-31.585970864 152.84041100799999,-31.5864438905 152.84021100800001,-31.587302882500001 152.84012601599997,-31.587847892500001 152.840115008,-31.587954896499998 152.840104,-31.588059884 152.84012304000001,-31.589379896 152.84020704,-31.589803897499998 152.84027804799999,-31.589906887 152.84059603200001,-31.590137896499996 152.84073699199996,-31.590181001499996 152.84105404799999,-31.590381874500004 152.84106,-31.590466993 152.841074048,-31.590542861500001 152.84111104,-31.590637877499997 152.841156,-31.5907310065 152.84120704,-31.590820879500001 152.84126204799998,-31.590908865500005 152.841318016,-31.590996000500002 152.841364032,-31.591062878 152.841412,-31.591128997 152.84146102400001,-31.591192877500003 152.84151104,-31.591256869 152.84156102399999,-31.591321878 152.841612,-31.591387997 152.84166102399999,-31.591453875500005 152.841712032,-31.591519865 152.841764,-31.591585003499997 152.84181804799999,-31.591647866499997 152.841862048,-31.591695874 152.84190899199999,-31.591741994499998 152.841968,-31.591800991 152.84200201600001,-31.591834994 152.84204704000001,-31.591881873 152.84207801599999,-31.591919002500003 152.84210899199999,-31.591956002500002 152.84214,-31.591993002499997 152.84217004800001,-31.592029873 152.84220204799999,-31.592064875 152.842219008,-31.592084004 152.84223302399997,-31.592098878 152.84226403199997,-31.592132862500002 152.84229603200001,-31.592165866499997 152.84232899200001,-31.592197002 152.842364,-31.592225991500001 152.84239702399998,-31.592245879 152.842432,-31.592263879499999 152.842467008,-31.592280862500001 152.842500992,-31.592299862 152.842532,-31.592323005499999 152.842584,-31.592379005 152.84263299199998,-31.592473873 152.8427,-31.592714003 152.84270102400001,-31.592755868499999 152.842712992,-31.593149992500003 152.842768992,-31.593362002500005 152.84294502399999,-31.5937858745 152.843312032,-31.594379872499999 152.843505024,-31.594521878499997 152.8436,-31.594570996 152.84364403199996,-31.594615858500006 152.84368700799999,-31.594671007 152.843730048,-31.594724860499998 152.84377904,-31.594767854500002 152.84384704000001,-31.594803855499997 152.843920032,-31.594830847 152.843996,-31.594854009 152.84407299200001,-31.594874858500006 152.84414899199999,-31.594899001 152.84420899200001,-31.594919850499998 152.844270016,-31.594941995 152.84433001599999,-31.594962844499996 152.844391008,-31.594984859499998 152.84445100799999,-31.595006856 152.844503008,-31.595026003500003 152.844556,-31.595046002 152.84460700799997,-31.595065852499999 152.84466,-31.595084852 152.84471299199998,-31.595102852500002 152.84475801599999,-31.595114859 152.84480300800001,-31.595124997 152.84484899200001,-31.595134857499996 152.84489299200001,-31.595147844500001 152.844934016,-31.595165993 152.844979008,-31.595194853 152.84501900800001,-31.595230854 152.845058016,-31.595270999 152.845096,-31.595310996 152.84513699199999,-31.595348995 152.84517699200001,-31.595381 152.84521699199999,-31.595412857 152.845258016,-31.595443844499997 152.84529900800001,-31.595475997499999 152.845339008,-31.595509001500002 152.84537900800001,-31.595540858499998 152.84542,-31.595573844 152.84546,-31.595606848 152.84549900799999,-31.595641998 152.84553401599999,-31.595679997 152.845584,-31.595744858 152.845604,-31.595776992499996 152.84563299199999,-31.595823853 152.84629900799999,-31.596817007 152.84639801599999,-31.596965839499997 152.846442016,-31.597030996500006 152.846596992,-31.597381830500002 152.84677398400001,-31.597655001500002 152.846915008,-31.597806997499998 152.84708899200001,-31.597897999 152.84711100800001,-31.597886991500001 152.84714,-31.597858002 152.847172,-31.597855005 152.847192,-31.597875836 152.84721401599998,-31.597894003 152.84723801600001,-31.597897832499999 152.847268,-31.597893004 152.847298016,-31.597885992500004 152.847324,-31.59788183 152.847348,-31.597902827499997 152.84734899200001,-31.597923825 152.847348,-31.597947005499996 152.847348,-31.597967836499997 152.84735500799999,-31.597985004499996 152.84737699199999,-31.597992996499997 152.84741299199999,-31.5979890005 152.847452992,-31.597980842 152.84749100799999,-31.597976827499998 152.847522016,-31.597992996499997 152.84753100799998,-31.598012995 152.84754300799997,-31.598030995499997 152.84756,-31.598037840499998 152.847584,-31.598037840499998 152.847611008,-31.598036009 152.847636,-31.598034991500001 152.84765699199997,-31.598042003 152.84767100799999,-31.598059004500001 152.84768,-31.598082832500001 152.847688,-31.598109842500001 152.84769699200001,-31.598135835 152.84771100799998,-31.598156 152.84773401599998,-31.598170004500002 152.84776201599996,-31.598178829 152.847792992,-31.598185008 152.84782201600001,-31.598192833500001 152.84784499200001,-31.598206838 152.84786099199999,-31.598227003 152.84787500799999,-31.598249832 152.84788601599999,-31.598275991 152.847894016,-31.598301835500003 152.84789900800001,-31.5983448295 152.847896,-31.598362996499997 152.847892,-31.598380830499998 152.847892,-31.598414001 152.84791401599998,-31.598439993500001 152.84793001599996,-31.598451001 152.84794300799999,-31.598462841 152.84795699200001,-31.598493828499997 152.84795699200001,-31.598513993500003 152.84795500800001,-31.598533825500002 152.84795500800001,-31.5985529915 152.847970016,-31.598578836 152.84799801599999,-31.598593839499998 152.848027008,-31.598607825499997 152.84804499200001,-31.598619832 152.84806499199999,-31.598631006 152.848083008,-31.598642994 152.84809801599997,-31.598655833 152.84811100799999,-31.598689003500002 152.84810899199999,-31.598707836499997 152.848104992,-31.598729000500001 152.84810099200001,-31.5987488325 152.84810201600001,-31.598768831 152.848107008,-31.598788829499998 152.84811500800001,-31.598809993500002 152.84812499200001,-31.598829992 152.848136,-31.598848825 152.84814899200001,-31.598865993 152.848162016,-31.598877833 152.84817801599999,-31.598888840499999 152.84819401600001,-31.598898830499998 152.848216,-31.5989229915 152.848216,-31.598955995500003 152.84821100799999,-31.598972997 152.84820300800001,-31.599008831500001 152.84820201599999,-31.599029995499997 152.84820099199996,-31.599050993 152.84820099199996,-31.5990709915 152.84820201599999,-31.599092007499998 152.848204,-31.599113005 152.848208992,-31.599134002500001 152.848216,-31.599156998 152.848224,-31.599178994499997 152.848224,-31.599215828 152.84819900799999,-31.599234994 152.84816700799999,-31.59925083 152.848156,-31.599278839 152.848164,-31.599299836500002 152.848175008,-31.599323831 152.848186016,-31.599347992 152.848192,-31.599371006 152.848188,-31.599403991500001 152.84817699199999,-31.599436829 152.848160992,-31.599470832 152.84814300799999,-31.599505001500003 152.84812499200001,-31.59953684 152.84810198400001,-31.599582997499997 152.848088,-31.599606992 152.848074016,-31.599570824500002 152.84806499199999,-31.599593838500006 152.848044,-31.599726835 152.847936992,-31.599926838499997 152.847780992,-31.60047183 152.84771001600001,-31.600593005 152.847708,-31.601228998 152.847792992,-31.601470996499998 152.84789900800001,-31.601561998 152.848218016,-31.601471995500003 152.848288,-31.601574837 152.84799004800001,-31.601906838 152.84795504,-31.601997839499997 152.84753702399999,-31.602400825 152.84571808,-31.602149854 152.838994176,-31.601223892 152.83861516799999,-31.601171888500001 152.838275168,-31.601075892 152.83862816000001,-31.6006478945 152.83843916800001,-31.600492883 152.83814617600001,-31.600234882 152.837845152,-31.599926894 152.83731916799999,-31.599409911499997 152.837294176,-31.599381902499999 152.83706,-31.599252994500002 152.83682617599999,-31.599137906 152.83655001599999,-31.599029995499997 152.83635715200001,-31.598950908 152.83613120000001,-31.598864901499997 152.835989184,-31.598799911 152.83583820800001,-31.5987499055 152.83572201600001,-31.598642994 152.835596192,-31.59854191 152.83547920000001,-31.598412909500002 152.83534499199999,-31.598334007 152.835178208,-31.598189910499997 152.83507020799996,-31.598017916 152.83499420800001,-31.597881922499997 152.83481318399998,-31.597640923 152.834661184,-31.597502931499996 152.83446019199999,-31.597314934499998 152.8343512,-31.5972139245 152.8342352,-31.597123922 152.8338192,-31.596987928500003 152.833772192,-31.596971926 152.83386819200001,-31.596441919500002 152.83400057599999,-31.595706896 152.834068992,-31.595326906 152.83412860799999,-31.594995885500001 152.83428928000001,-31.594103926500001 152.83447715200001,-31.593060933499999 152.834414176,-31.592976925 152.83425817599999,-31.592770927500002 152.834171008,-31.592657004499998 152.834129152,-31.592567927 152.83404617599999,-31.592393934499999 152.83396617599999,-31.592224918500005 152.83317216,-31.592358932499998 152.83187801599999,-31.592435004499997 152.83080220799999,-31.592199943499999 152.828383008,-31.590974004 152.82948617599999,-31.585449941 152.829503168,-31.585361936499996 152.82960316800001,-31.585381953500001 152.830155168,-31.585490937 152.83027516799999,-31.585490937 152.83033216000001,-31.585521943 152.83050812799999,-31.585533949499997 152.831371136,-31.585734952 152.831923136,-31.585826934 152.832461728,-31.585776188500002 152.83245814399999,-31.585768918 152.83245712,-31.585760926 152.832249088,-31.584525921499999 152.83211510399997,-31.583756932 152.807249888,-31.579900995500001 152.807812928,-31.579284779 152.80837740799998,-31.578652079 152.80948499199999,-31.577365996 152.80978438400001,-31.575897040500003 152.810351008,-31.573118007499996 152.81058336000001,-31.57197702 152.810690368,-31.571454025 152.810816,-31.570837993499996 152.810947328,-31.570196025 152.811071328,-31.569587023500002 152.81226732799996,-31.569748991 152.82024918399998,-31.570834959500001 152.82182316800001,-31.571048967499998 152.82311616,-31.571224939500002 152.824228992,-31.571375992 152.824230016,-31.571375992 152.82451708799999,-31.569714951 152.82474380799999,-31.568355645 152.82435209600001,-31.5680849345 152.82431708799999,-31.5680849345 152.82392809599997,-31.567769953499997 152.823695104,-31.567526937500002 152.82330710400001,-31.566993952500003 152.82292009599999,-31.566344935499998 152.82253212800001,-31.565907947 152.82228512,-31.565314948 152.82223612799999,-31.565071950500002 152.82221609600001,-31.564266941500005 152.82228809599999,-31.563800926500001 152.822274112,-31.563497933499999 152.82199308799997,-31.562782927 152.82164009600001,-31.562297931 152.82139308800001,-31.562024926500001 152.82133708800001,-31.561994919500002 152.82123110399999,-31.561860924 152.820666112,-31.561357946 152.82005212799999,-31.560841944 152.819607136,-31.560356948 152.81932512,-31.559981953 152.81931113600001,-31.559889952499997 152.81907814399997,-31.559556952499999 152.81897312000001,-31.559326942 152.82047910399999,-31.558600928 152.82136608,-31.558118929 152.82182608,-31.5579559255 152.821981056,-31.557865923 152.82230006399999,-31.557744933 152.822654048,-31.557545928500005 152.822958048,-31.557442902 152.823149024,-31.557322911 152.82346704,-31.557201902500001 152.82371504,-31.557274903500002 152.82392704,-31.557292904 152.82445801599999,-31.5574149115 152.825872,-31.557580912 152.826048,-31.557640907500005 152.82628201599999,-31.557671913500002 152.82631699199999,-31.557701902 152.82829596799999,-31.557995885500002 152.82889692799998,-31.558190894 152.82951193599999,-31.558511887499996 152.82985094399999,-31.558633895 152.83013395200001,-31.558676870500001 152.830465952,-31.558797879 152.83052294399997,-31.558797879 152.83071395199997,-31.558889879500001 152.830925952,-31.558937868499999 152.83133491199999,-31.559119871500002 152.831667904,-31.559211872 152.83210790399997,-31.559281876 152.83211392000001,-31.559282875 152.83211091199999,-31.559293864 152.83210592,-31.559316878 152.83209091200001,-31.559384865499997 152.83207891199999,-31.559453870500001 152.83207590399999,-31.559474868 152.83206992000001,-31.559514865 152.83206790400001,-31.559534863500001 152.83206691199999,-31.559554862 152.83206790400001,-31.559587866 152.832071904,-31.55962087 152.83207792,-31.559653874 152.832083904,-31.559686878 152.83209091200001,-31.559718864500002 152.83209891199999,-31.559758861500001 152.832106912,-31.559797878 152.832116896,-31.559836876 152.83212691199998,-31.559876873 152.83213891199998,-31.559914872 152.83215689599999,-31.559962879499999 152.832175904,-31.560010868499997 152.832183904,-31.560028869 152.832196896,-31.560058876 152.832218912,-31.560105866 152.832242912,-31.560152874500002 152.83226691199999,-31.560194869499998 152.83229491199998,-31.560234866499997 152.83232192,-31.560275862500003 152.83234691199999,-31.560316877 152.832366912,-31.560359871 152.832376896,-31.560393874 152.83238291200001,-31.560427877 152.832388896,-31.560462879 152.83239392,-31.5604978625 152.832398912,-31.560532864500001 152.83240592000001,-31.560569864499996 152.832410912,-31.560607863500003 152.83241689599998,-31.560644863500002 152.832423904,-31.560681863500001 152.832434912,-31.560717864500003 152.83244592,-31.560747871499998 152.83245891199999,-31.560776879499997 152.83247392000001,-31.560805869 152.832488896,-31.560833878 152.83250489599999,-31.560861868499998 152.83253891199999,-31.56091587 152.832578912,-31.560967873500001 152.83262089600001,-31.561017879 152.83266291199996,-31.561068865 152.832702912,-31.561120868499998 152.83274089599999,-31.561179865 152.83277689600001,-31.561239879 152.83281289600001,-31.561299874500001 152.832848896,-31.561358871 152.83288790399999,-31.561416868499997 152.83293689599998,-31.561482876500001 152.83298790399996,-31.561547867 152.833040896,-31.561611877 152.833096896,-31.561673870499998 152.833154912,-31.561733866 152.83319289600001,-31.561769867 152.833231904,-31.561805868 152.83327190399999,-31.56184087 152.833312896,-31.561874873 152.833355904,-31.561907877 152.833376896,-31.561922862 152.83339891200001,-31.561938864500004 152.83342089600001,-31.561953868 152.83344390400001,-31.561967872500002 152.83346691200001,-31.561981877 152.83348889600001,-31.561992866 152.83351091199998,-31.5620038735 152.83353289600001,-31.562013863500002 152.83355590400001,-31.562022873 152.83357891200001,-31.562031864 152.83361289600001,-31.5620418725 152.83364691200001,-31.5620498645 152.83368192,-31.562056876 152.833716896,-31.56206287 152.833751904,-31.562068864 152.833840896,-31.562086864499996 152.833930912,-31.562103866 152.834020896,-31.562119868499998 152.834110912,-31.562132874 152.83420192,-31.562143863 152.834288896,-31.5621518735 152.83437590400001,-31.562156868499997 152.83446192,-31.562160864500001 152.83448889599998,-31.562160864500001 152.83454992,-31.562162862499999 152.83463689600001,-31.562164879 152.83468889599996,-31.562167876 152.83471289600001,-31.562167876 152.83478886399999,-31.562171872 152.834863872,-31.562174869 152.83493987199998,-31.56217387 152.83501488,-31.562169874 152.83505788799999,-31.562162844 152.83510086399997,-31.562154852 152.835144864,-31.5621448435 152.83518787200001,-31.5621368515 152.83523187200001,-31.562131856500002 152.835280864,-31.562125844 152.83533088,-31.562121848 152.835380864,-31.56211985 152.83542886399997,-31.562121848 152.835473888,-31.562130857499998 152.83551187200001,-31.562145861 152.83554787200001,-31.562166858499999 152.83558188800001,-31.562190853 152.83561587200001,-31.562215846500003 152.83564886400001,-31.562240858499997 152.83569088,-31.562270847 152.83573286399999,-31.562302852 152.83577286399998,-31.562334857 152.83581088,-31.56236886 152.83584688,-31.5624038435 152.835877888,-31.562438845499997 152.83590787200001,-31.562474846500002 152.83593587199999,-31.562512845500002 152.83596188800001,-31.562549845500005 152.83598787199998,-31.562588843500002 152.83600886400001,-31.5626208485 152.83602787199999,-31.562653852500002 152.83604688,-31.562686856499997 152.83606588800001,-31.5627198605 152.83608588800001,-31.562752846 152.83612486399997,-31.562819853 152.83616288,-31.562887859 152.83620188799998,-31.562954847500006 152.83624387200001,-31.563020855499996 152.83628787200001,-31.563084847 152.83632188799999,-31.563130856500003 152.83635587200001,-31.563176847499999 152.83639088000001,-31.563221858 152.836428864,-31.563264852 152.836471872,-31.563301852 152.836496864,-31.563320851499999 152.83652188799999,-31.563337853 152.83654787200001,-31.563354854500002 152.836575872,-31.563369858 152.83660288,-31.563383844 152.83663488,-31.563397848499999 152.83666688,-31.563409855 152.836699872,-31.563419845 152.83673388799997,-31.563429853500001 152.836767872,-31.563439843499996 152.83680588799999,-31.563449852 152.836845888,-31.5634598605 152.83688486400001,-31.563468851500001 152.836924864,-31.563475844500001 152.83696486400001,-31.563482856 152.83701686399999,-31.563487851 152.83706787200001,-31.563489849 152.83773584,-31.563537856500002 152.83780585599999,-31.563542851499999 152.83966182399999,-31.562209834 152.84103779200001,-31.561572842 152.841683776,-31.560830807 152.84226073599999,-31.559962824 152.842559744,-31.559664807499999 152.84266576,-31.559546814500003 152.84275475199999,-31.559465821500002 152.84281776,-31.559415816 152.842884736,-31.559372822 152.842954752,-31.559332806499999 152.84303376,-31.5592928095 152.84309776000001,-31.559266817 152.84313974400001,-31.559230816 152.84323072000001,-31.559164808 152.84332771199999,-31.559107809500002 152.843425728,-31.559061818500002 152.84352870399999,-31.559023819500002 152.84364672000001,-31.558983822499997 152.84391772800001,-31.558909822500002 152.844203712,-31.558821818 152.84459171200001,-31.558694797 152.844672704,-31.558661793 152.84474672,-31.558618799 152.84484867200001,-31.558542801 152.844920672,-31.558478791 152.84501667200001,-31.558374802499998 152.845045696,-31.558338801499996 152.84509769600001,-31.558262803499996 152.84517769600001,-31.558137799 152.845293696,-31.5579457875 152.84553369599999,-31.557575787499999 152.84559568,-31.557494794499998 152.84566169600001,-31.5574167985 152.84579667200001,-31.557270796499999 152.84586368000001,-31.557206805 152.846034656,-31.557064799 152.84619964800001,-31.556917798 152.84624265599999,-31.556883795 152.84634064,-31.556813791 152.84655264,-31.556677797500001 152.84702764799999,-31.556402795 152.847295648,-31.556239791499998 152.84746963200001,-31.556116803499997 152.847619616,-31.55600079 152.84766060800001,-31.555960793 152.847677632,-31.555934800500001 152.84772860800001,-31.555820785 152.84779363199999,-31.555721773 152.84780963200001,-31.555684773 152.84784361600001,-31.555568778 152.84785961599999,-31.555532777 152.84789862400001,-31.555473780500005 152.84794460800001,-31.555416782 152.84804163199999,-31.5552857835 152.84809763199999,-31.555221773499998 152.84815660800001,-31.555173784499999 152.84839260799998,-31.555012779 152.84847462399998,-31.554983771 152.848590624,-31.554957778500004 152.84876560000001,-31.554891770499996 152.84880857599998,-31.55486378 152.848912576,-31.554796773 152.8489816,-31.554740773500001 152.849026592,-31.554695781499998 152.8490656,-31.554646775 152.84909859199999,-31.554595770499997 152.84912560000001,-31.55454077 152.84914659200001,-31.554473781499997 152.849150592,-31.554417782 152.8491496,-31.5543357715 152.84915657599998,-31.5540997855 152.8491496,-31.553952784499998 152.8491176,-31.553667773499999 152.84911459200001,-31.553589777500001 152.849116576,-31.553511781500003 152.849126592,-31.553408773499999 152.849095584,-31.553143779499997 152.84905558400001,-31.552874771 152.84905059199997,-31.552824784 152.849048576,-31.552752782 152.84905257599999,-31.552691769 152.8490616,-31.552625779500005 152.8490776,-31.552554776500003 152.849095584,-31.55249578 152.849118592,-31.5524377825 152.84914560000001,-31.552381783 152.849195552,-31.552306784 152.84926454399999,-31.552215782499999 152.849283552,-31.552181779499996 152.84931254399999,-31.552144779499997 152.84937456,-31.552089779 152.84946256,-31.552027785500002 152.84958454400001,-31.551919782500001 152.84962454399999,-31.551890774500002 152.84967155199999,-31.551863783 152.84983356799998,-31.551787785 152.849868544,-31.551767786500001 152.84989555199999,-31.551745771499998 152.849915552,-31.551733783500001 152.84999654399999,-31.5516977825 152.85017056000001,-31.551603784 152.85023856000001,-31.551559772499999 152.850287552,-31.551514780499996 152.85036755199999,-31.55142278 152.85040454400001,-31.551389776 152.85045955199999,-31.551349779 152.85052752,-31.551312779 152.85058051199999,-31.551291781499998 152.850624512,-31.55127478 152.85074352000001,-31.551212786500002 152.85080051200001,-31.551185776500002 152.85084752,-31.551153771499997 152.85087552,-31.551124782 152.850928512,-31.551039774500001 152.85095852800001,-31.550999777499996 152.85097552,-31.550981777 152.85101251199998,-31.5509587815 152.851050528,-31.550925777500002 152.85107052799998,-31.550901783 152.85110553599998,-31.550836774 152.85112553600001,-31.550815776500002 152.85115952000001,-31.550786787 152.85121251199996,-31.550755781 152.85127952,-31.550725774 152.85133852800001,-31.550707773500001 152.851432512,-31.550687756499997 152.85149152,-31.55066576 152.85152153600001,-31.550646760499998 152.85156352,-31.550600751 152.85161852799996,-31.550519758 152.85163251200001,-31.550490768499998 152.85164352000001,-31.550451752 152.85163952,-31.550419765500003 152.85162553599997,-31.550389758499996 152.85161651199999,-31.550375754 152.85160352,-31.550363766 152.85154953599999,-31.550334758 152.851502528,-31.550301754 152.85147552000001,-31.550277759499998 152.85146352000001,-31.550263755 152.85145152000001,-31.550241758499997 152.85142451199999,-31.5501387505 152.85138451200001,-31.550049765500003 152.85136051199999,-31.549962778499996 152.85131852800001,-31.54984177 152.85130051199999,-31.549768769 152.85128752,-31.549741777499996 152.85126252800001,-31.549706775500002 152.85124352,-31.549674770499998 152.85121651200001,-31.549605784 152.85120553600001,-31.549552781499997 152.85120153599999,-31.549516780499999 152.85120153599999,-31.549480779499998 152.85120851199997,-31.54939777 152.85120652800001,-31.549365783500001 152.85119353600001,-31.5493037715 152.851174528,-31.549258779499997 152.85114953600001,-31.5492167845 152.85107552,-31.549129779 152.85104652800001,-31.549075777499997 152.85103152,-31.54901778 152.851029536,-31.548958783500002 152.85104252799999,-31.548900786 152.85104848,-31.54883278 152.85109849599999,-31.548669776500002 152.85096950400001,-31.548511786500001 152.85113350399999,-31.548397771 152.851207488,-31.5483427705 152.85102048,-31.548234786 152.850837504,-31.548173773 152.85072950399999,-31.548057778 152.850633504,-31.547892776499996 152.850554496,-31.547735785500002 152.85063977600001,-31.547702633499998 152.85060048,-31.547645783 152.85056848,-31.547592780499997 152.85041148799999,-31.547270769499999 152.85030848,-31.547087786 152.85006848,-31.546810785500004 152.84954601600001,-31.546356999 152.84929251199998,-31.546132779 152.84896153599999,-31.545890780499999 152.848336512,-31.545595779499997 152.8476,-31.545242004 152.84752752,-31.545206798499997 152.84702953600001,-31.5449167925 152.84644656,-31.544564793 152.845852544,-31.544373799 152.84556838399996,-31.544313692499998 152.84561756799999,-31.544191796 152.84609552000001,-31.542858797 152.84614953600001,-31.542669801 152.846166528,-31.542574803499999 152.84618252800001,-31.5423997935 152.84618153599999,-31.542311789 152.84615852799999,-31.542010794 152.84610652800001,-31.541451798 152.84600752,-31.54042379 152.84599952,-31.540326794500004 152.84600153599999,-31.540132803500001 152.84602649600001,-31.539938794 152.846075488,-31.539748799 152.84614550399996,-31.539563799 152.84623849600001,-31.539385792 152.84629248,-31.539300803 152.84635148800001,-31.539217793500001 152.84641548799999,-31.539137799500001 152.84648348799999,-31.539059803500002 152.846478496,-31.5390078 152.84640048,-31.5389537985 152.84631849600001,-31.538902794 152.84623449599999,-31.538855804 152.84614748800001,-31.538811792500002 152.84605750399999,-31.538771795499997 152.84596550399999,-31.538735794500003 152.84587248,-31.538703789500001 152.84577648000001,-31.538675799 152.845679488,-31.538651804500002 152.84409299199999,-31.538307001500002 152.843886016,-31.538260992 152.84249500799999,-31.537957999 152.842222144,-31.537904626500001 152.842882688,-31.535729822 152.843822496,-31.535531816499997 152.84424649600001,-31.535550816 152.844755488,-31.535684793 152.845130528,-31.535835753 152.845342496,-31.5359577975 152.84549750400001,-31.536078787499999 152.846027456,-31.536351792 152.84638044799999,-31.53661279 152.84694547199999,-31.536885794500002 152.84700246400001,-31.536885794500002 152.847178464,-31.536977795 152.84774444799999,-31.537038789499999 152.84839542399999,-31.53703977 152.84880544000001,-31.5370097815 152.84920841600001,-31.5370097815 152.84933542399997,-31.537034775 152.84944144,-31.537112771 152.84958243200001,-31.53711377 152.84975942400001,-31.536980773500002 152.84986544,-31.536798770500003 152.85009238399999,-31.536629773 152.8505384,-31.536599784500002 152.85064438399999,-31.536569777499999 152.85072940800001,-31.536509782 152.850821408,-31.536497775500003 152.85103340800001,-31.536509782 152.85118896,-31.536570961500001 152.85149238400001,-31.536600783500003 152.852001376,-31.536722754 152.85207235199999,-31.536771760500002 152.853026368,-31.537087759 152.85320236800001,-31.537208767500001 152.853520352,-31.537347758 152.853873376,-31.537560767 152.85401497599997,-31.537693985500002 152.854106368,-31.53786376 152.85424736,-31.538420758 152.85424636799999,-31.538844759500002 152.85418937599997,-31.5389537615 152.85401337599998,-31.539074751499996 152.853906368,-31.539044763 152.85382236799998,-31.538904755 152.85382336000001,-31.538450765 152.853858368,-31.538135765499998 152.85376736000001,-31.537935762 152.853625376,-31.537832754 152.85343536,-31.537832754 152.853272352,-31.538013758 152.85308035200001,-31.538710764 152.85300940799999,-31.538812754499997 152.85276140799999,-31.539085759 152.852669408,-31.539145754500005 152.852669408,-31.539176760500002 152.8521384,-31.539659758500001 152.85212352,-31.539810774 152.85220848,-31.539901775500002 152.85237139200001,-31.539932763 152.85261840000001,-31.539829755 152.85300838399996,-31.539388752 152.85319939199999,-31.539267762 152.85330540800001,-31.539267762 152.853411392,-31.539358763500005 152.853432384,-31.5395097605 152.85332540799999,-31.539873766499998 152.853041408,-31.540387752 152.852723392,-31.540738752500001 152.85241843200001,-31.541143754500002 152.85241843200001,-31.541192761 152.85206342399999,-31.541718753 152.85199356800001,-31.541778804 152.85195744000001,-31.5418697685 152.85176643200001,-31.54208176 152.85166041599999,-31.542263763 152.85141241599999,-31.542535787 152.851353472,-31.542692778 152.8539104,-31.542521764 152.854031392,-31.542513753499996 152.85442038400001,-31.542409765 152.85442899200001,-31.542425009 152.85444,-31.542436997 152.854455008,-31.542447005500001 152.8544704,-31.54245176 152.854492384,-31.542449762 152.854523392,-31.542442750500001 152.85459900800001,-31.542408007499997 152.85469900800001,-31.542366993 152.85474838399998,-31.542349751 152.85478140800001,-31.542332768 152.854895008,-31.542306997500003 152.85495500799999,-31.542294991 152.85513900800001,-31.542263004500001 152.855268352,-31.542244745 152.855334016,-31.542231998499997 152.855472,-31.542207005 152.85554035199999,-31.542191742500002 152.85561036799999,-31.542177738 152.85574499200001,-31.542155001499999 152.855807008,-31.542139998 152.85586137600001,-31.542127732500003 152.85593337599997,-31.542114745499997 152.855998368,-31.542099742 152.856068,-31.542086995499997 152.856348352,-31.542039746499999 152.85655737600001,-31.5419997495 152.85662537600001,-31.541987743 152.85664300799999,-31.541985005 152.85676336,-31.541960733 152.856830368,-31.541947746 152.85689337599999,-31.541935739500001 152.857023328,-31.541909747 152.857256992,-31.541872007 152.85736633600001,-31.541844738 152.85742332800001,-31.541834748 152.85747734399999,-31.5418277365 152.85757900799999,-31.541829993500002 152.85762534400001,-31.541837745 152.85762832,-31.541838744 152.85767033600001,-31.541851749500001 152.857710016,-31.541866993500001 152.857741344,-31.541882737 152.85779033599999,-31.541912744 152.85781734400001,-31.541932742500002 152.85788032,-31.541987743 152.85790700800001,-31.542016991499999 152.85795033599999,-31.542069735 152.85806332799999,-31.542226744500002 152.85818332799997,-31.5424067495 152.85821232000001,-31.542451741500003 152.85827232,-31.542539746 152.85830032000001,-31.542584738 152.858395328,-31.542714737499999 152.858518336,-31.542867732499996 152.858542016,-31.542899996500005 152.85855734399999,-31.542926747499997 152.85855734399999,-31.542951741 152.85869699200001,-31.543208003 152.85888332799996,-31.54341672 152.85902032,-31.543505723499997 152.85914601600001,-31.543550993 152.85925699199998,-31.543547996 152.85942732800001,-31.5435127165 152.859572,-31.543439993 152.85968732800001,-31.543392725499999 152.85975401600001,-31.543328993 152.85986531199998,-31.543220731 152.86001929599999,-31.543141717499999 152.860142016,-31.542892004500001 152.860472,-31.542669005500002 152.86169801599999,-31.5418200035 152.86289500800001,-31.542372006500003 152.863026848,-31.54261419 152.863504,-31.542815007499996 152.86393801599999,-31.543093895 152.864717536,-31.543439068 152.86435024,-31.543852709500001 152.86435024,-31.543882698 152.86367728,-31.54453671 152.86367728,-31.544566698500002 152.86333728,-31.5449297055 152.86333728,-31.544959712500003 152.86325225600001,-31.545032695 152.86300425600001,-31.545364696 152.86236700800001,-31.546109006500004 152.86176432,-31.546895719 152.861092,-31.547875997 152.86071632,-31.548347728499998 152.860715328,-31.548408723 152.86024835200001,-31.548999724</coordinates></LinearRing></outerBoundaryIs></Polygon>

	</Placemark>
</kml>