<?xml version="1.0" encoding="UTF-8"?>
<kml xmlns="http://www.opengis.net/kml/2.2">
	<Placemark>
		<Style>
			<LineStyle>
				<color>ff0000ff</color>
			</LineStyle>
			<PolyStyle>
				<fill>1</fill>
				<color>330000cc</color>
			</PolyStyle>
		</Style>
			<ExtendedData><SchemaData>
		<SimpleData name="STATE_2006">1</SimpleData>
		<SimpleData name="POA_2006">2090</SimpleData>
	</SchemaData></ExtendedData>
      <Polygon><outerBoundaryIs><LinearRing><coordinates>151.224052,-33.821406006 151.224115552,-33.821482337 151.224748,-33.822222004 151.22477001600001,-33.822217009 151.224792,-33.822211995499998 151.22481398400001,-33.822207000500001 151.22483699200001,-33.822202005500003 151.22485900800001,-33.822196992 151.224931008,-33.822183006 151.22500499200001,-33.822170000500002 151.225078016,-33.822159992 151.22515100800001,-33.822152 151.22522499199999,-33.822150002 151.225336,-33.822156995 151.225447008,-33.8221759945 151.22555801600001,-33.822202005500003 151.225668,-33.822232993 151.22577699199996,-33.822263999 151.225808,-33.822274007499999 151.225842016,-33.822287993499998 151.22587401600001,-33.8223 151.22590099199999,-33.822307992 151.22593001600001,-33.822295005 151.22594700799999,-33.822267995 151.225952,-33.822240004500003 151.225892,-33.822079998 151.22584899200001,-33.821868006500004 151.22585100800001,-33.821804995500003 151.22585187199999,-33.82179467249999 151.225852992,-33.821741004 151.22585801599999,-33.821677993 151.225864,-33.821614001500002 151.22587100800001,-33.821551009 151.225887008,-33.821430000500001 151.22590601600001,-33.821308992 151.225931008,-33.821189001 151.225964992,-33.821071008 151.226010016,-33.820957991500002 151.22608700800001,-33.820822997 151.226182016,-33.820691998500003 151.226291008,-33.820565995 151.22640899199999,-33.820446004 151.226530016,-33.820331008 151.22666201600001,-33.820223005 151.22680499199998,-33.820122994 151.22695299200001,-33.820026997500001 151.2271,-33.819930002 151.22723801599997,-33.819825995 151.22734201599999,-33.8197359925 151.22744300799999,-33.819641994 151.227542016,-33.819547995499995 151.22760832,-33.819481580500003 151.22764,-33.819451999 151.22773900799999,-33.819357001500002 151.227890016,-33.819223006 151.228047008,-33.819091008500003 151.22819900799999,-33.818956994499999 151.22833699200001,-33.818817005 151.22839776000001,-33.818735679 151.22845001599998,-33.818667007 151.228516,-33.818550993500004 151.22857299200001,-33.818429004500004 151.22862,-33.818304999 151.228658016,-33.818178995499999 151.22868499200001,-33.818051993 151.22868,-33.817955996500004 151.22869401599999,-33.817855005 151.228723008,-33.817752996 151.22876601600001,-33.817657998500003 151.22882300800001,-33.817574008500003 151.22888700799999,-33.817505003500003 151.22896601599999,-33.817437996500004 151.22905500799999,-33.817379 151.229148,-33.817334008 151.22924099199997,-33.817307997 151.229308992,-33.817304001 151.229379008,-33.817307997 151.22944899199999,-33.817318005499999 151.22952,-33.817333009 151.229588,-33.817349992 151.229632,-33.817362997499998 151.22967401599996,-33.817379999 151.22971699199999,-33.817397000500002 151.22976,-33.817413003 151.229804,-33.817424991 151.229883008,-33.817436997500003 151.22996700799999,-33.817439994499999 151.230051008,-33.817435998500002 151.230136,-33.8174260085 151.23021699200001,-33.817413003 151.230290016,-33.817397000500002 151.23036300800001,-33.817377002 151.230434016,-33.817352008500002 151.230503008,-33.817323999500005 151.23056700800001,-33.817290995500002 151.230651008,-33.817233997 151.23072499200001,-33.817165991 151.230794016,-33.817089993 151.23085900799998,-33.817010998 151.23092201599999,-33.816934001 151.230964,-33.816880998500004 151.231004,-33.816825998 151.231042016,-33.816771996500002 151.231053984,-33.816754736 151.23146544,-33.817083832500003 151.231560704,-33.81716366 151.231788704,-33.817350639499999 151.232396416,-33.817847753 151.23291865599998,-33.818275639500001 151.23290665600001,-33.818337633 151.23289321600001,-33.818404954499997 151.23270025599999,-33.8193609235 151.23260771199998,-33.8198136185 151.23251449599999,-33.820269125499998 151.23246227199999,-33.820523001 151.232315712,-33.820704615499999 151.23221974399999,-33.821179621500001 151.23205372800001,-33.821991623500004 151.23194892800001,-33.822495804 151.231730752,-33.8235496195 151.231534912,-33.824538278 151.23149177600001,-33.824755616 151.23141776,-33.825132609 151.2312608,-33.82593562 151.23118678399999,-33.826311595500002 151.231015808,-33.82718659 151.23089881600001,-33.827785601500004 151.23076281600001,-33.827871589499999 151.23060083199996,-33.827951602 151.23023984,-33.828129609 151.230305824,-33.828346595499994 151.23028384,-33.828512596 151.23026784,-33.82858459799999 151.230157824,-33.82911059 151.23015686400001,-33.8291156035 151.2321408,-33.829375584 151.23451676799999,-33.829692563 151.234636768,-33.829672564499994 151.234607168,-33.829954911500003 151.234607168,-33.830147607500002 151.23452435199999,-33.830605168 151.23713833599999,-33.8309509515 151.23697372800001,-33.831804523 151.23436380800001,-33.831457537 151.23169296,-33.831105833499997 151.229788928,-33.8308551955 151.229697888,-33.83129259099999 151.22960489599998,-33.8317276 151.22958089599999,-33.831842596 151.22942688000001,-33.8325615985 151.22930256,-33.833139113 151.22916992,-33.833764598 151.22906291199999,-33.834263598499994 151.22894992,-33.834790589499995 151.22885692799997,-33.835233572 151.22877296,-33.835627585 151.228553952,-33.836646583499991 151.22852928,-33.836763873500004 151.228358112,-33.837590657 151.22846796799996,-33.837618573500002 151.22848496,-33.837623587 151.22849696,-33.837626584 151.22851395199999,-33.83762858199999 151.22852796800001,-33.837633577 151.228542944,-33.837638572 151.22855494399997,-33.837640588499994 151.22857296000001,-33.837645583499999 151.22859094399999,-33.837649579500003 151.22860796800001,-33.837656572500002 151.228618944,-33.837659588 151.22863795200001,-33.83766758 151.228653952,-33.837673574 151.22867395200001,-33.837680585500003 151.22870096,-33.837687578500002 151.22878694400001,-33.837728574499998 151.22886496000001,-33.837777581 151.22897696000001,-33.83781558 151.229038944,-33.837835578499998 151.22913401599999,-33.837891004500001 151.22909900799999,-33.837920993 151.22907100800001,-33.837953997 151.229052,-33.837988 151.22904700800001,-33.838028996 151.22905500799999,-33.838075005500002 151.229072,-33.838121995500003 151.22909299200001,-33.83816900399999 151.229112,-33.838214995 151.22913299199999,-33.838262003499999 151.22915900800001,-33.8383089935 151.229187008,-33.838354004 151.22921299199999,-33.838400994 151.22923500799999,-33.838448002500002 151.229254016,-33.838501005 151.22926899199999,-33.838554007500001 151.22928300800001,-33.838608009 151.22929500799998,-33.838661992 151.229308,-33.838715993500003 151.22932300799999,-33.838777006500003 151.22933900800001,-33.838837002 151.229352992,-33.838897996500002 151.229364992,-33.838958991 151.22937299200001,-33.839020004 151.22937500800001,-33.839043998500003 151.229376,-33.83906799299999 151.229378016,-33.839115001499998 151.229378016,-33.839138996 151.229404,-33.839205004 151.229432992,-33.8392699945 151.22946201600001,-33.839335003500004 151.22949299199999,-33.839398995 151.22952499199999,-33.839463005 151.229570016,-33.839545996 151.229616,-33.839630004500002 151.22966499200001,-33.8397119965 151.22971801599999,-33.839792009 151.22977500799999,-33.839870005 151.22985699200001,-33.839961006499998 151.229951008,-33.840044996499998 151.230048,-33.840128006 151.23014,-33.840213994 151.23021699200001,-33.8403059945 151.230276,-33.840393999 151.230334016,-33.840485000500003 151.23038300799999,-33.840578 151.23041801599999,-33.8406729975 151.230434016,-33.840766996 151.23043100800001,-33.840822995499991 151.23042099200001,-33.840878995 151.23040700799999,-33.840934994500003 151.230392,-33.840991993 151.230379008,-33.841047992500002 151.23036601599998,-33.841120993499999 151.23035299200001,-33.841192995500002 151.23034,-33.841264997499998 151.23032998400001,-33.841337998500002 151.230324,-33.841410999499999 151.230320992,-33.84147499099999 151.230320992,-33.84154 151.230323008,-33.841605009 151.23032700799999,-33.841669000499998 151.230332992,-33.841732992 151.23034,-33.841772008500001 151.23034899199999,-33.841810007500001 151.230358016,-33.841848006500001 151.23036300800001,-33.841886005500001 151.230396,-33.841951995 151.23062099199998,-33.842078997500003 151.23058675199999,-33.842176881 151.230536992,-33.842318998 151.23047500800001,-33.8423419935 151.23047401599999,-33.842362991 151.23047100799999,-33.842391999 151.23046700800001,-33.842422006 151.23046,-33.842450995500002 151.23044899199999,-33.842479004499999 151.230434016,-33.842504997 151.23041900800001,-33.842523996499992 151.230400992,-33.842540998 151.23038099199999,-33.842557000499994 151.23036,-33.842573003 151.23034,-33.842589005500002 151.23031299199999,-33.842609004 151.23028601600001,-33.842629002500004 151.23025801599999,-33.842648002 151.230228,-33.842666002500003 151.230199008,-33.842683004 151.23015900799999,-33.842703002499995 151.23011801600001,-33.842722002 151.230075008,-33.842738004499999 151.230032,-33.842753008 151.229988,-33.842764996 151.22999001599999,-33.842801996 151.229992,-33.842838996 151.22999299200001,-33.842874997 151.22999401600001,-33.842911997 151.229996,-33.842947998 151.229996992,-33.842997004499999 151.229996992,-33.843045992499995 151.229996992,-33.843094 151.23,-33.843142007499999 151.230006016,-33.843189996500001 151.23001801599997,-33.843239003 151.23003299199999,-33.843287991 151.230051008,-33.843335998500002 151.23006899200001,-33.84338400599999 151.230084992,-33.843432994 151.230096,-33.843476006499991 151.23010601600001,-33.843519999500003 151.23011500800001,-33.843563992500002 151.23012700800001,-33.843607005 151.230142016,-33.843649999 151.23016,-33.843688997 151.23018201599999,-33.843727995 151.23020601600001,-33.843765994 151.23023001600001,-33.843803993 151.230252,-33.843841992 151.230276,-33.843888001499998 151.230299008,-33.843932993500005 151.230322016,-33.843979003 151.23034300799998,-33.844025993 151.23036201599999,-33.8440730015 151.23037500800001,-33.844112998500002 151.230388,-33.844153994500005 151.23039900800001,-33.844193991499999 151.23041001600001,-33.844236005 151.23041801599999,-33.844277001 151.230424,-33.844318996 151.230426016,-33.844362008499992 151.23042899199999,-33.844405002500004 151.230434016,-33.8444469975 151.230444,-33.844486994500002 151.230458016,-33.844518000500003 151.23047401599999,-33.844548007500002 151.230492,-33.844577996 151.230512,-33.844606005 151.23053299200001,-33.844633995499997 151.23057299199999,-33.844677008 151.23061900799999,-33.844716006 151.230668,-33.844754005 151.230716,-33.844793003 151.23075798400001,-33.844834998 151.23080198400001,-33.844893994499998 151.230840992,-33.844956006499999 151.230876,-33.845021996 151.23090601600001,-33.845088004 151.23093401599999,-33.845154992499999 151.230952992,-33.845208994 151.230968,-33.845263994500002 151.23098198400001,-33.845318995 151.230996,-33.845374994499998 151.231012,-33.845429995 151.231024,-33.845466995 151.23103699200001,-33.845503995 151.23104998400001,-33.84554099499999 151.23106300800001,-33.845577995 151.231076992,-33.845614995 151.23109500800001,-33.845643004 151.231112,-33.845671993499998 151.23112700799999,-33.845701001500004 151.23114201600001,-33.845731008500003 151.231155008,-33.845760997 151.23116899199999,-33.845795 151.23118201599999,-33.845831001 151.23119299199999,-33.845867002 151.23120300799997,-33.845903003 151.23121100799997,-33.845939004 151.23121801599999,-33.84598 151.23122201599998,-33.846020996 151.23122499199999,-33.846062991 151.231228,-33.846105004500004 151.23122998400001,-33.8461469995 151.231232992,-33.8462150055 151.23123401599997,-33.846284991 151.23123401599997,-33.846353996 151.23123401599997,-33.846423001 151.231235008,-33.846492006 151.231232992,-33.8465579955 151.23122700799999,-33.846624003500004 151.231224,-33.846690992 151.23122700799999,-33.846755002 151.23124,-33.8468179945 151.231270016,-33.846884002499998 151.231312,-33.846946995 151.23136201599999,-33.847009007 151.231416,-33.8470690025 151.231470016,-33.847127 151.231536,-33.847194007 151.231604992,-33.847257998499998 151.23167900799999,-33.847318993 151.23175500799999,-33.84737900699999 151.231831008,-33.847438003500002 151.23192,-33.847504992 151.232012,-33.847569002 151.23210601599996,-33.847630995499998 151.23220099199997,-33.847692008499997 151.23229801599999,-33.84775100499999 151.232370016,-33.847792001 151.232444,-33.84783 151.232519008,-33.847868998 151.232592,-33.847908995 151.23266099200001,-33.847953006499999 151.232708,-33.847986991 151.232756,-33.848020994 151.23280201599997,-33.848055996 151.232844,-33.848093995 151.23288201599999,-33.848133992 151.232911008,-33.848173008499991 151.23293801599999,-33.8482130055 151.23296099199999,-33.848255999500005 151.23298099199999,-33.848298993499995 151.232996,-33.848343005 151.233008,-33.848392992 151.233015008,-33.848445994500004 151.23301801599999,-33.848497998 151.233012992,-33.848550001500001 151.233002016,-33.848600007 151.23299299199999,-33.848629995499998 151.23298201599997,-33.848661001499998 151.232968,-33.848691008499998 151.23295100799996,-33.848717001 151.232928,-33.848736999499998 151.232899008,-33.848749006 151.232864,-33.848755 151.23282601599999,-33.848757997 151.232787008,-33.848756998 151.23275100799998,-33.848754001 151.23269500800001,-33.848741994499996 151.23264,-33.848719998 151.232586016,-33.848691008499998 151.23253401599999,-33.848660002500004 151.23248099200001,-33.8486319935 151.2324,-33.848588999500002 151.23232201600001,-33.848543008500002 151.23224300799998,-33.848496 151.23216499200001,-33.848451008 151.23208300799996,-33.848408994499998 151.23203001600001,-33.848384001 151.231976992,-33.848359007500001 151.231924,-33.8483349945 151.23186899199999,-33.848313997 151.23181299199999,-33.8482969955 151.231768,-33.8482890035 151.23172099199999,-33.848286006500004 151.231674016,-33.848282991 151.231628992,-33.848276997 151.23158899200001,-33.848263991499998 151.231548992,-33.848236001 151.231516992,-33.848199001 151.23148700799999,-33.848157006 151.231459008,-33.8481139935 151.231427008,-33.848073996499998 151.23137500799999,-33.848016998 151.23132099199998,-33.8479609985 151.23126601600001,-33.847906997 151.23120899200001,-33.847853994499999 151.23114899199999,-33.847803008500001 151.23111299199999,-33.847775998499998 151.231076,-33.847748008 151.23103900800001,-33.84772199699999 151.23100099199999,-33.847697003500002 151.23096201600001,-33.8476719915 151.230916992,-33.847647997 151.23086998400001,-33.847626000499993 151.23082201599999,-33.847604004 151.230774016,-33.847583006500003 151.230727008,-33.847560991500004 151.23067801600001,-33.847534 151.23063001599999,-33.847507008500003 151.230580992,-33.847479998499992 151.230532,-33.847453007 151.230482016,-33.847428994 151.230426016,-33.847406997500002 151.230368992,-33.847387998 151.230310016,-33.847369997500003 151.230254016,-33.847349999 151.2302,-33.847326004500005 151.230152,-33.847299993499995 151.23010499199998,-33.847271004 151.23006,-33.847240997 151.23001801599997,-33.847208992 151.22997801599999,-33.847175007499999 151.22993299199999,-33.847127999 151.229892,-33.8470769945 151.22985500799999,-33.847022993 151.22981900799996,-33.846968991499999 151.229782016,-33.846915008499998 151.229748992,-33.846866002 151.22971699199999,-33.846815996499998 151.22968499199999,-33.846767008500002 151.22965001599999,-33.846719001 151.22961001600001,-33.846676007 151.229559008,-33.846632994499998 151.22950300799999,-33.846593996500005 151.229443008,-33.846556996499999 151.22938099199999,-33.846523992500003 151.22931699200001,-33.846494004 151.229242016,-33.846466994 151.22916,-33.846448993500005 151.22907801599999,-33.846431992 151.22899900799999,-33.846410994500005 151.22892899199999,-33.846380007 151.22887801600001,-33.846347003 151.22883001599999,-33.846309004 151.22878499199999,-33.846268008 151.228744,-33.846224995500002 151.22870899200001,-33.846179004500001 151.22867299200001,-33.846125003 151.22864300800001,-33.846066006500003 151.22861900800001,-33.846004993500003 151.228600992,-33.845943 151.228588,-33.845866003 151.228579008,-33.845835996 151.228564992,-33.845808005500004 151.22853900800001,-33.845779996499999 151.22850099199999,-33.845757001 151.22845801599999,-33.845736003500001 151.22841500799998,-33.845715006 151.22837699199997,-33.845690993 151.228340992,-33.845660005500001 151.228308,-33.845626002499998 151.228276,-33.845591999500002 151.22824499199999,-33.845556997500005 151.228212,-33.845522994500001 151.228168,-33.845477003500001 151.228124,-33.845431993 151.22808,-33.84538600199999 151.22803500800001,-33.845340991500002 151.227988,-33.845296998500004 151.227952,-33.845263994500002 151.227916,-33.845229991499998 151.227879008,-33.845197006 151.22784099199998,-33.845165001 151.227800992,-33.845135993 151.22775900799999,-33.845109001499999 151.22771500799999,-33.84508500699999 151.22767001599999,-33.845060994 151.22762499199999,-33.845036999500003 151.22758198400001,-33.845012006 151.22754601599999,-33.844986994 151.227512,-33.844961001500003 151.22747801599999,-33.844935009 151.227444,-33.844908998 151.22741001599999,-33.844882006500001 151.22736499199999,-33.844850001499999 151.227318016,-33.844817996499991 151.227272992,-33.844785991500004 151.227232,-33.844752007 151.2272,-33.844714008 151.22718,-33.8446749915 151.227168,-33.844632996500003 151.227159008,-33.844589003499998 151.227148992,-33.844544992 151.227135008,-33.844502997 151.227115008,-33.84445800499999 151.227092,-33.844412994500004 151.22706700800001,-33.844369001499999 151.22704,-33.844327006500002 151.22701001600001,-33.844284993 151.22696499200001,-33.844234007 151.22691401599997,-33.844185999499999 151.22686,-33.844138991 151.226808,-33.844091002 151.226764,-33.844039997499998 151.226724,-33.843979003 151.226688,-33.843914993 151.22665801599999,-33.843849003500004 151.226632,-33.843780997499998 151.226610016,-33.843712991499999 151.22659401600001,-33.843640009 151.226584992,-33.843564991500003 151.22658,-33.843488993499996 151.22657699199999,-33.843412995500003 151.226572992,-33.843337996500004 151.22656601599996,-33.843240002 151.22656201599997,-33.843142007499999 151.22655801599998,-33.8430439945 151.22655500799999,-33.842946 151.226552,-33.842848005500002 151.22655001599998,-33.842779999500003 151.226548,-33.842711993500004 151.22654601599999,-33.842644006 151.226544,-33.842576 151.226542016,-33.842507994 151.22651401600001,-33.842449996500001 151.226483008,-33.842392998 151.226450016,-33.842337997500003 151.22641299200001,-33.842282997 151.22637401599999,-33.842229994500002 151.22633001599999,-33.842180007499998 151.226282016,-33.842132 151.22623100800001,-33.842084991499995 151.226182016,-33.842038001500001 151.226136,-33.841987996 151.226088,-33.841928999499999 151.22604201599998,-33.841869004 151.22599900799997,-33.841806992 151.22595699199996,-33.841743999500004 151.22591699200001,-33.841681007 151.225888,-33.841634997500002 151.22586,-33.841589006500001 151.22583299199999,-33.841541998 151.225807008,-33.841495008 151.22578300800001,-33.841447000500004 151.22574899200001,-33.8413819915 151.225716992,-33.84131600199999 151.22568700799999,-33.84124899499999 151.225660992,-33.841181007499998 151.22564201599999,-33.841113001499998 151.225632,-33.841040000499994 151.225628992,-33.840966000500003 151.22563100799999,-33.840892000499998 151.22563299199999,-33.8408170015 151.225632,-33.840743001499995 151.22562499200001,-33.840689 151.22561401600001,-33.840633000499999 151.225604,-33.840577001 151.22560099199998,-33.840523998500004 151.225612,-33.840474992 151.22562099199996,-33.840458009 151.22563299199999,-33.840441007500004 151.22564598400001,-33.840424006 151.22565699200001,-33.840407004500001 151.22566601599999,-33.840389004 151.225672992,-33.840366008499998 151.22568,-33.840341995499998 151.225683008,-33.840318001 151.22568201599998,-33.840295005500003 151.22567699199999,-33.840274008 151.22565801600001,-33.840251993 151.22562601600001,-33.840233992500004 151.225588,-33.840218008500003 151.225548,-33.840202006 151.22551401599998,-33.840184005499999 151.225464,-33.840149003500002 151.22541699199999,-33.840110005500001 151.225372,-33.840068991 151.225328,-33.840026996 151.225284,-33.839986 151.225252,-33.839956992 151.225220992,-33.839928002499995 151.225190016,-33.839897995500003 151.22516,-33.839869006 151.22513100799998,-33.839838999 151.22508499199998,-33.839790991499996 151.22503900800001,-33.839743002500001 151.224996992,-33.839693996 151.22495801599999,-33.8396429915 151.22492700800001,-33.8395900075 151.224916,-33.839561998500002 151.22490899199997,-33.839533009 151.22490099199999,-33.839505 151.224892,-33.839476991 151.22487801599999,-33.839450998499998 151.22485798400001,-33.839425006 151.22483299199999,-33.839396997 151.22480700799997,-33.839371004500002 151.224842048,-33.839226612 151.224752064,-33.839040613 151.224728064,-33.83904361 151.22466304,-33.838963616 151.22467116799996,-33.838922971500004 151.22426761599999,-33.838092081 151.224014176,-33.838209722500004 151.22398355199999,-33.838221322 151.22395331199996,-33.838235548499995 151.223924512,-33.838252013499996 151.22389788800001,-33.838270384 151.22387376,-33.838290271499993 151.22384819199999,-33.838320149 151.223828768,-33.838354614499998 151.22379635199999,-33.838429058500004 151.22377798400001,-33.838464967 151.223708512,-33.838579075 151.22366352,-33.8386407355 151.22363651200001,-33.838674202 151.22357820799996,-33.838738748499999 151.22354723199999,-33.838769699 151.223443936,-33.838350026500002 151.22338848000001,-33.838111709499991 151.22338057600001,-33.838084163 151.22337084799997,-33.838057356500002 151.22334313600001,-33.838001727 151.22332656,-33.837974735499998 151.22330819199999,-33.837948724500002 151.22328768,-33.837924156500002 151.2232632,-33.837898774500005 151.223236192,-33.837874558 151.22320739200001,-33.837851784500003 151.2231768,-33.837830824 151.223144768,-33.837812009499999 151.222882688,-33.837627879 151.222883072,-33.837399644499996 151.22287836800001,-33.837371099 151.22287798400001,-33.837340777500003 151.22288124799999,-33.837310178500005 151.22288844799999,-33.837280467500001 151.222899232,-33.837252754499993 151.22291328,-33.837230961499991 151.222971616,-33.837170947499999 151.222987072,-33.837149432 151.22300147199999,-33.837123698500001 151.22301228800001,-33.837097132499999 151.22301481599999,-33.837083812499998 151.22301408000001,-33.837068346500004 151.223010848,-33.837052492 151.22299788799998,-33.837021171499998 151.22298995200001,-33.837006427 151.222974112,-33.836985540500002 151.22295360000001,-33.836966633499998 151.22290752000001,-33.8369306325 151.22286611199999,-33.836890228500003 151.22282617600001,-33.836846753499998 151.222809248,-33.83682390599999 151.22279628800001,-33.836800041 151.222788,-33.836775029 151.22278368,-33.836748759 151.222777216,-33.836626807 151.22277612799999,-33.836565239 151.22279804799999,-33.836319651499998 151.222825056,-33.836128657499998 151.22293904,-33.835476662 151.22313180800001,-33.834369955 151.22190313600001,-33.834217774 151.22209104000001,-33.833154671500004 151.22268,-33.833228301499993 151.222808512,-33.832501732499999 151.22281929600001,-33.83239101 151.224081856,-33.832550332 151.22436265600001,-33.832279436500002 151.223296672,-33.831509947500003 151.22350944,-33.831061655500001 151.22379996800001,-33.830451636500001 151.2232416,-33.8303147365 151.22341728000001,-33.829810556 151.22240963199999,-33.829566652 151.22239740800001,-33.829618045 151.22223936,-33.830067243499997 151.221622016,-33.829914692500004 151.221011008,-33.829765693500001 151.22104003199999,-33.829679687 151.221188896,-33.829256166499995 151.22049372800001,-33.829088408499999 151.22031516799998,-33.829597806 151.21971705600001,-33.829452710499993 151.21981305599999,-33.829077715499999 151.21982806400001,-33.829008710499998 151.2175464,-33.828193804 151.21751004800001,-33.828157081500002 151.21748304,-33.828134678 151.21740492799998,-33.828046377500002 151.21739340799999,-33.828029283500001 151.217381152,-33.828003087500001 151.217372512,-33.827975097 151.21736281599999,-33.827916951500001 151.217357408,-33.827849648499999 151.217358848,-33.827792039500004 151.21756585599999,-33.826709512 151.21768105599998,-33.826185721500003 151.21778304,-33.82572472 151.21780451199999,-33.825685315 151.21800144,-33.825321457 151.218088032,-33.825032727500002 151.21814473599997,-33.824766512499998 151.218340576,-33.823828174 151.21969884800001,-33.823986201 151.21969273599998,-33.823939581 151.219690912,-33.823876496 151.219695968,-33.823812412 151.21970675200001,-33.823748346499997 151.21972188800001,-33.823684799 151.21973987199999,-33.823622602 151.219770496,-33.823539093 151.219808992,-33.823456379500001 151.21985472,-33.823375738 151.21990656,-33.823298426500003 151.21996451199996,-33.823225795500001 151.21996416,-33.82306227399999 151.22043395199998,-33.822980097 151.22061996799999,-33.822903729 151.22169993599999,-33.8229417095 151.22232992,-33.822336704 151.223607904,-33.821648707500003 151.223957888,-33.82135968199999 151.22401488,-33.821409687500001 151.224037856,-33.821410686500002 151.224052,-33.821406006</coordinates></LinearRing></outerBoundaryIs></Polygon>

	</Placemark>
</kml>