<?xml version="1.0" encoding="UTF-8"?>
<kml xmlns="http://www.opengis.net/kml/2.2">
	<Placemark>
		<Style>
			<LineStyle>
				<color>ff0000ff</color>
			</LineStyle>
			<PolyStyle>
				<fill>1</fill>
				<color>330000cc</color>
			</PolyStyle>
		</Style>
			<ExtendedData><SchemaData>
		<SimpleData name="STATE_2006">1</SimpleData>
		<SimpleData name="POA_2006">2132</SimpleData>
	</SchemaData></ExtendedData>
      <Polygon><outerBoundaryIs><LinearRing><coordinates>151.12197865600001,-33.877559426 151.12197504,-33.877565734500003 151.1219736,-33.877572653500003 151.12197468799997,-33.877579683500002 151.12197792000001,-33.877586066 151.121983328,-33.877591468 151.12178028799997,-33.877863177500004 151.121453696,-33.878345657499999 151.12138470400001,-33.8784536605 151.12268169599997,-33.879333631500003 151.12278569599999,-33.879403635500005 151.12340070399998,-33.879821643 151.12351072000001,-33.879922634499998 151.123543936,-33.879969624499999 151.123437376,-33.8800214615 151.12324441600001,-33.880168888 151.12270272000001,-33.880669646 151.12241574399999,-33.880920654 151.12199372800001,-33.881548655 151.12156678400001,-33.8821826685 151.12087081600001,-33.883217669499999 151.12069580799999,-33.883476669499998 151.120570816,-33.883662668500001 151.1202888,-33.884082692500002 151.12025180800001,-33.884145685 151.120207808,-33.884219685 151.120146976,-33.884312222 151.119606976,-33.885229507499993 151.11950112,-33.885345151 151.119420832,-33.885308521 151.11931644800001,-33.885260735500005 151.11841859200001,-33.88481675399999 151.11815472000001,-33.884686162500003 151.1177904,-33.8845060835 151.11728134399999,-33.8842540765 151.1171928,-33.884207641499998 151.116788512,-33.883981553 151.116466336,-33.883825672 151.11633488000001,-33.883749304 151.11624585600001,-33.883861747 151.11614985599999,-33.88397774199999 151.11589689600001,-33.884282751500002 151.115313888,-33.884986750499998 151.116239904,-33.885471746500002 151.11657190400001,-33.8856447215 151.11717788799999,-33.885961719 151.11770588799999,-33.886237720499999 151.11799091200001,-33.886341727500003 151.11754291199998,-33.887054736 151.11727292800001,-33.887485730500003 151.11691094400001,-33.888521749 151.117464928,-33.888536734 151.11735587199999,-33.8887654125 151.117275616,-33.888927417 151.11725545600001,-33.889129196500001 151.11718848000001,-33.889792144 151.11719065599999,-33.889998696500001 151.117196,-33.890494996 151.11718297600001,-33.890626753 151.11715897600001,-33.890959753 151.11712499199996,-33.891528739 151.11568198399999,-33.891472758 151.11470902400001,-33.891435776500003 151.11374803199999,-33.891397777500003 151.11275004800001,-33.891358798 151.11169305600001,-33.891316821499998 151.11047008,-33.891268832500003 151.10932710399999,-33.891223859 151.108896128,-33.891206857500002 151.10878012800001,-33.891201862500004 151.10824611199999,-33.891099872 151.10800112000001,-33.891051883 151.10795212799999,-33.891038877500002 151.10711907199999,-33.886691877 151.10733004799999,-33.886659853499999 151.107924064,-33.886664848500004 151.108384032,-33.884279847 151.10850198399999,-33.883779829 151.108544,-33.883555831 151.10755603199996,-33.883420855 151.107756,-33.88266883 151.10782499199999,-33.882378842500003 151.10910297599997,-33.882565822 151.11056496,-33.882776796 151.110770944,-33.881822806500004 151.11110188800001,-33.880294799 151.111165696,-33.88007357599999 151.11107209599996,-33.879995543 151.11089315199999,-33.879846507 151.11050003199998,-33.879525569 151.11026496,-33.879365636500005 151.11008425599999,-33.879233694500002 151.10985779200001,-33.879081957499999 151.10981545600001,-33.87904264499999 151.109853888,-33.878860808500001 151.11015286400001,-33.8774448 151.110169856,-33.877365805 151.11043705599999,-33.876095576499992 151.11045072,-33.875928188499998 151.11046403200001,-33.875851136 151.110460448,-33.875788865 151.11047772799998,-33.875789124 151.11049465599999,-33.875785257499999 151.11050940800001,-33.875777691 151.110520928,-33.875766905499994 151.11052848,-33.875753844500004 151.11053136000001,-33.875739544 151.110529216,-33.875725225 151.110522016,-33.875711905 151.11051084799999,-33.875700749499998 151.11049644799999,-33.875692739 151.11047987200001,-33.875688428499991 151.11049968,-33.875632891500004 151.11052489599999,-33.875527145500001 151.11057852799999,-33.875373503 151.110664832,-33.874909782 151.11084681599999,-33.873998786500003 151.1108928,-33.873766778 151.11096179200001,-33.873422789 151.11134377599998,-33.871500768499999 151.111697408,-33.869725471500004 151.11251353599999,-33.869809443 151.11279612800001,-33.869841207500002 151.11324432000001,-33.869927251 151.11337392,-33.869947675 151.11407411199997,-33.870119762 151.1148744,-33.870303097 151.11509833599999,-33.870357986500004 151.115783776,-33.870503063500003 151.11675395200001,-33.870721141499999 151.11693936,-33.870745358 151.11781164800001,-33.870833288500002 151.11859644800001,-33.87089942599999 151.118783296,-33.870919498500001 151.11943020799998,-33.870983397499998 151.11956483200001,-33.870996717499999 151.121549888,-33.871273551500003 151.121991232,-33.871335027 151.12334233599998,-33.871546537500002 151.123647968,-33.871628067 151.12374156800001,-33.871651192 151.123788,-33.871664345500001 151.12383337599996,-33.871679552499991 151.123886656,-33.871700605500003 151.12389276799999,-33.871703399 151.12393884799999,-33.871724008 151.1239896,-33.871749482499993 151.124038912,-33.871776936499998 151.12408643200001,-33.871806185 151.12437011200001,-33.871957108 151.1246664,-33.872150618 151.12602073599999,-33.873091287499996 151.126497728,-33.873422585500002 151.12686275199997,-33.873664417500002 151.12712233600001,-33.873842961 151.12717984,-33.873890247 151.12733472,-33.874026388499999 151.12752697600001,-33.874227187500004 151.127584544,-33.8742895695 151.12705353600001,-33.874525574 151.126651552,-33.87471457 151.126493536,-33.8747855915 151.12647036800001,-33.874799041 151.12639856000001,-33.874840592 151.12548358399999,-33.875657589 151.12534956799999,-33.875791603 151.124614624,-33.87637661 151.12395689600001,-33.876720136499998 151.12385664,-33.876578611499994 151.123095648,-33.875953626 151.12302163199999,-33.87602363 151.12219139199999,-33.877254231500004 151.12202291200001,-33.877554838 151.12201609600001,-33.877550879 151.12200780800001,-33.877548807 151.12199952,-33.877548622 151.121991232,-33.877550527499999 151.121984032,-33.877554209 151.12197865600001,-33.877559426</coordinates></LinearRing></outerBoundaryIs></Polygon>

	</Placemark>
</kml>