<?xml version="1.0" encoding="UTF-8"?>
<kml xmlns="http://www.opengis.net/kml/2.2">
	<Placemark>
		<Style>
			<LineStyle>
				<color>ff0000ff</color>
			</LineStyle>
			<PolyStyle>
				<fill>1</fill>
				<color>330000cc</color>
			</PolyStyle>
		</Style>
			<ExtendedData><SchemaData>
		<SimpleData name="STATE_2006">1</SimpleData>
		<SimpleData name="POA_2006">2643</SimpleData>
	</SchemaData></ExtendedData>
      <Polygon><outerBoundaryIs><LinearRing><coordinates>146.61804102400001,-35.975399671 146.61765299199996,-35.975336419500003 146.616219008,-35.974661428499999 146.615572,-35.974548430500001 146.61487904000001,-35.974323433500004 146.61353804800001,-35.973346448500003 146.61252003199999,-35.972858437 146.61131907199999,-35.972634439 146.61071808,-35.9726344575 146.610210112,-35.972823453499998 146.609748096,-35.973086468 146.60905513599999,-35.973689475500002 146.60850115199997,-35.974291484 146.60799318400001,-35.974705495500004 146.60743916800001,-35.974894491500002 146.60706918400001,-35.974857491500003 146.60660617600001,-35.974706494500005 146.6052192,-35.973993523 146.604202208,-35.973392513500002 146.603832192,-35.973242515500004 146.60360124799999,-35.973242515500004 146.60337024,-35.973393512500003 146.60323222400001,-35.973581509500001 146.60304822399999,-35.974371533499998 146.602909248,-35.974672528500001 146.602863232,-35.97504854099999 146.60267926399999,-35.975349536 146.60244825599997,-35.975537551500004 146.60189328000001,-35.975801546500001 146.601570272,-35.975877563 146.601154304,-35.975877563 146.600738304,-35.975651567 146.60055331199999,-35.975388571 146.60027532799998,-35.975200574 146.60018332800001,-35.975050576 146.60013632,-35.974749581 146.60004432,-35.974636564500003 146.600043328,-35.973884576499998 146.59990432000001,-35.973470565 146.59981132799999,-35.972756557499999 146.59985628800001,-35.971101547499998 146.599671296,-35.970875551500001 146.59944032000001,-35.970800552500002 146.59777740799998,-35.972155585 146.59694643200001,-35.973096606 146.59620745599997,-35.973699632 146.59514553599999,-35.974264640500003 146.594544512,-35.974377657 146.5934816,-35.974378693 146.592926592,-35.974303675500003 146.59112464,-35.974229712499998 146.58992272,-35.974079733 146.58927574399999,-35.974080750500001 146.58821276800001,-35.974306783500005 146.58793577599999,-35.974457780500003 146.587519808,-35.974833774499999 146.587011808,-35.975059789 146.586133856,-35.975173786 146.58497891199997,-35.974910827 146.58446992,-35.974873827 146.584146944,-35.974986825 146.583684928,-35.975325856 146.583592928,-35.97570185 146.583639936,-35.976905848500003 146.58382489600001,-35.977506858 146.58419491199999,-35.978108829500002 146.58636780800001,-35.98021381499999 146.58669177600001,-35.980664789500004 146.58692377599996,-35.981191799 146.58701577599999,-35.981529794 146.58696979199999,-35.982206801499999 146.58673977599997,-35.982695812 146.586369792,-35.983147822500001 146.586369792,-35.9832608205 146.584567808,-35.983788829 146.58396684799999,-35.9838638465 146.582487872,-35.983563869 146.58123993599997,-35.983150875 146.580129984,-35.982700881 146.579574976,-35.982286906500001 146.579204992,-35.981873912499999 146.57823408,-35.979992925 146.57791011200001,-35.979541932 146.57717014400001,-35.978902942 146.57652316799999,-35.978564965499999 146.57596816,-35.9784519675 146.57541420799998,-35.978677963500004 146.574674208,-35.978828979 146.57356524799999,-35.978829996499996 146.572641248,-35.978981012 146.57213228800001,-35.978906013 146.57162432000001,-35.978906013 146.57042233600001,-35.979283043 146.56959132799997,-35.979283043 146.56926736,-35.979171062500001 146.56885136,-35.97883205 146.56834240000001,-35.978268059 146.56815737599999,-35.978005081500001 146.5680184,-35.977629069 146.567972416,-35.976764064500003 146.568064416,-35.976350071500001 146.56824940800001,-35.976012076499998 146.56824940800001,-35.975748081500001 146.56783344,-35.975372069 146.567140448,-35.975147090500002 146.566400448,-35.975110090500003 146.56603046399999,-35.975260088500001 146.565522464,-35.975524083499998 146.56473744,-35.976126110500005 146.56399744000001,-35.9765781025 146.56348944000001,-35.976841117 146.563212448,-35.976917115 146.56265747200001,-35.976955132500002 146.56238048,-35.976917133500002 146.56205648,-35.976804135500004 146.56154848,-35.976729136499998 146.56062352000001,-35.976391141500002 146.560300512,-35.976391141500002 146.55997651199999,-35.976504139500001 146.55965350400001,-35.976805153 146.55951452799999,-35.977031149 146.55877548800001,-35.978536142500005 146.55896048,-35.978987154 146.55877548800001,-35.979100152 146.55854448,-35.979138151 146.55785152000001,-35.979138169500004 146.55549456,-35.978500178499992 146.55447753600001,-35.978500197 146.55355356800001,-35.978651194 146.55253657599999,-35.979065224 146.55221257599999,-35.979329219 146.552028576,-35.979592215 146.55193558399998,-35.979818229499998 146.551982592,-35.9801942235 146.55216659199999,-35.980457219500003 146.55336854399997,-35.9813222055 146.55355353600001,-35.981623200500003 146.554478528,-35.982299209 146.554940512,-35.982751182500003 146.55507952,-35.983164176500004 146.55503347199996,-35.984029181 146.55466348799999,-35.984782205 146.55434051200001,-35.9850832 146.55378550399999,-35.985384195 146.55207555199999,-35.985723226 146.55124355199999,-35.985686244500002 146.550596576,-35.985536246500004 146.550272576,-35.985536246500004 146.55008758400001,-35.985686263 146.55008758400001,-35.98587426 146.55036556799999,-35.986288234500002 146.55045756800001,-35.986589248 146.55055056,-35.987642231 146.55064256,-35.987793246500004 146.55096656000001,-35.988018243500001 146.55156755199999,-35.988056242500001 146.55249152,-35.987980226 146.55290752,-35.98786722799999 146.55373948799999,-35.987491197 146.55429449600001,-35.9873402 146.55494144,-35.987340181500002 146.55521846400001,-35.987415180500001 146.55554246400001,-35.987565178499999 146.55577344,-35.987791174500003 146.55591244799999,-35.98801619 146.55591241600001,-35.988806177 146.55595843200001,-35.988844176 146.55595843200001,-35.989182189499999 146.55577340799999,-35.989483184500003 146.55411046399999,-35.990650201500003 146.55276947199997,-35.991027213 146.55193750399999,-35.991366244 146.55170652800001,-35.991554241 146.550920512,-35.992118250499999 146.550227552,-35.992419264 146.54958057600001,-35.992457281499995 146.54870156800001,-35.992307283500004 146.54833260800001,-35.992119268 146.54782361599999,-35.9915552955 146.5473616,-35.990615292 146.54694563199999,-35.990276298 146.54611363199999,-35.989788305 146.54537366400001,-35.989449311 146.54444870399999,-35.988923337499998 146.54366371200001,-35.98820933 146.54264675199997,-35.98696835 146.54190675199999,-35.986366341500002 146.54070476800001,-35.985614372 146.53978076800001,-35.985351376 146.5389488,-35.984712367500002 146.53867180799998,-35.984637368500003 146.538255808,-35.984674387 146.53816281600001,-35.984599388 146.538255808,-35.984373373499999 146.53820880000001,-35.983546368 146.538255808,-35.983508369 146.538255808,-35.982831361500004 146.5381168,-35.982455367500002 146.5377928,-35.982229371500004 146.5373768,-35.982154372499998 146.53705379199999,-35.982342388 146.53636083200001,-35.982869379 146.53580582399997,-35.983434387500004 146.53506582399999,-35.984036414500004 146.534511872,-35.984374409499999 146.53391088,-35.984562406500004 146.533540864,-35.984600424 146.53293987199999,-35.984563424 146.532292896,-35.984299429 146.53196988799999,-35.983923416499998 146.53169190400001,-35.9831334295 146.53159990399999,-35.982155427 146.53192387199999,-35.980350400500001 146.53210886399998,-35.978469413 146.532755872,-35.9770403805 146.53275584,-35.976513389499999 146.53243187199999,-35.975836382 146.53196985599999,-35.975422389 146.531369856,-35.975009413500004 146.530444864,-35.97459540199999 146.52942889600001,-35.97399341199999 146.529197888,-35.973805396499998 146.52799590399999,-35.972715432 146.52776489600001,-35.972376419500002 146.52753388799997,-35.971812428500002 146.52684089599998,-35.970985423 146.526563936,-35.970420433 146.52605593600001,-35.970082419500002 146.52559292800001,-35.970044420500003 146.52508492800001,-35.970120418500002 146.52346796799998,-35.970571448500003 146.522635968,-35.970609466 146.52208099200001,-35.970496468 146.52032499200001,-35.969782479 146.51960403199999,-35.969566473 146.51944803200001,-35.968653479499991 146.519585984,-35.968390483500002 146.51954,-35.96748748 146.519632992,-35.966810472500001 146.519772,-35.966434478499998 146.520048992,-35.966058466 146.520926976,-35.965381458499998 146.521342976,-35.964892466500004 146.52180496,-35.964478436500002 146.52194396799999,-35.964139442499999 146.52194393600001,-35.963613450499999 146.52189792,-35.963425435 146.52143596799999,-35.962672466500003 146.52014297599999,-35.960980456500003 146.51968096,-35.960604462500001 146.51917196799999,-35.960378485 146.519505952,-35.95993948 146.51957196800001,-35.959580469 146.51955897600001,-35.959529464500001 146.51953497599999,-35.95944146 146.51935897600001,-35.959210487500002 146.51923097599999,-35.958992483500005 146.51909897600001,-35.958709470500004 146.51898697599998,-35.9585224725 146.51879196799996,-35.958308483 146.51833395200001,-35.957871476 146.51800396799999,-35.957574477 146.51794595199999,-35.957479479500002 146.517785952,-35.957500477 146.51763497600001,-35.957000496 146.51765296,-35.956416488 146.517762976,-35.955927477499998 146.51798995199999,-35.955430475 146.518191968,-35.955159487 146.51862496000001,-35.954799477 146.51920192,-35.954421485 146.51988793599998,-35.954153457 146.520382944,-35.9540544635 146.52096889599997,-35.953930458 146.52159491200001,-35.95391243899999 146.52224291199997,-35.953954434 146.52262688,-35.954011451 146.522792864,-35.953444426 146.52372384,-35.948878422500002 146.523790848,-35.948571415 146.524106848,-35.948700397 146.52417782399996,-35.948446410500004 146.52422780800001,-35.948056412 146.52424681599999,-35.947482412500001 146.52429379200001,-35.946955403 146.52436979199999,-35.946427413 146.52452780799999,-35.94576041399999 146.52467779200001,-35.9445904 146.52498678399999,-35.943297379500002 146.52507376,-35.942936389 146.52512278399999,-35.942500381 146.525251776,-35.941765394500003 146.52535075200001,-35.9409163925 146.52545273600001,-35.940296383499998 146.525499744,-35.939722384 146.52581875199999,-35.93852739499999 146.52597670399999,-35.937838362500003 146.526105696,-35.937149367 146.52631872000001,-35.936368352500004 146.52639270399999,-35.935748343500002 146.52655068799999,-35.935082343499992 146.52681868799999,-35.934208329500002 146.52702864,-35.933289305 146.52723865599998,-35.932324308 146.52729164799999,-35.932095315 146.52739564800001,-35.931589303 146.52755161600001,-35.930785293 146.527736608,-35.9300272925 146.5279176,-35.92901728499999 146.528127584,-35.928075265 146.52828156800001,-35.927157258 146.52843654399999,-35.926284243 146.52875155199999,-35.924860242500003 146.52910950399999,-35.922656208 146.52931750399998,-35.9215542 146.529578496,-35.920290187500001 146.529757472,-35.919165184 146.529859456,-35.918477169 146.52988716799996,-35.918316515 146.52995900799999,-35.918326005499999 146.53281900799999,-35.918696005500003 146.53295299199999,-35.918714006 146.543723008,-35.920107000500003 146.54395500800001,-35.920097991 146.54441401599999,-35.920094994 146.547979008,-35.920066004500001 146.550872,-35.920043009 146.55236700799998,-35.920106001500002 146.5553,-35.92000800699999 146.57033100800001,-35.921943995 146.577382016,-35.922850994500003 146.57820201600001,-35.922933005 146.583134016,-35.9235420065 146.583276,-35.922859005 146.584816,-35.915465998 146.58482899200001,-35.915283995 146.58681699199997,-35.905132009 146.58880300800001,-35.894991992500003 146.58883801600001,-35.894813005 146.59017001599997,-35.88801 146.590204992,-35.88783099399999 146.59042499200001,-35.887859003 146.60632201600001,-35.889978992 146.60672899199997,-35.888007003 146.606752,-35.887896003 146.60676601599999,-35.887827997 146.60698601599998,-35.887858004 146.608836,-35.888082002 146.609056,-35.888108993499998 146.60914499199998,-35.888120001 146.61417500799999,-35.888729002499993 146.619652992,-35.889391006499999 146.61987401600001,-35.889417998 146.61984,-35.889597004 146.619808,-35.889751997 146.61978,-35.889890007 146.62463299199999,-35.890514992500002 146.624712,-35.890104995500003 146.62569100799996,-35.890223007 146.63016099199999,-35.890764002499999 146.63038601599996,-35.890766999500002 146.63274300800001,-35.889986003499999 146.63321299200001,-35.889546998500002 146.64131001600001,-35.890538006500002 146.64153100799999,-35.890564998 146.64923299200001,-35.891506000500002 146.649444,-35.890306997 146.655427008,-35.890988999500003 146.65951100800001,-35.891454996 146.65859500799999,-35.896342992 146.65850499199999,-35.896824991 146.65847100799999,-35.897003997 146.65814899200001,-35.898721000500004 146.658116,-35.8989000065 146.657703008,-35.901104004 146.65104499200001,-35.900171992499999 146.650652,-35.902376008499999 146.64976099200001,-35.907366994 146.64974700799999,-35.907443991 146.649044992,-35.911378996499991 146.65696700800001,-35.912519003500002 146.65671900800001,-35.913959006500001 146.65696700800001,-35.91399099299999 146.65674300800001,-35.915567008 146.65696300799999,-35.915595997499999 146.65600300799997,-35.920728008499999 146.655384,-35.920646997 146.65518300799999,-35.921664996499999 146.655148,-35.921844002500002 146.65373100799999,-35.929014991 146.65395100800001,-35.929043 146.653916,-35.929222006 146.65375500799996,-35.930036006 146.65372099199999,-35.930215992500003 146.66701801599999,-35.931916993500003 146.66755289599999,-35.931985073500002 146.667686016,-35.932002001 146.66765699199999,-35.932078998 146.66752201599999,-35.932430997499999 146.66745401599999,-35.9326070065 146.665996,-35.936352997500002 146.67598700799999,-35.940463993499996 146.68438,-35.943917 146.688308992,-35.945532993499995 146.688951008,-35.944495994500002 146.689024,-35.944378001499999 146.68905100800001,-35.9443340085 146.68935001599999,-35.9444559975 146.69888700800001,-35.948314006 146.699254016,-35.94846200599999 146.70068601599999,-35.949041000500003 146.70586899200001,-35.95113699499999 146.70611001599997,-35.951151998500002 146.70600899199999,-35.951314003 146.70545801599999,-35.954534002 146.71206499199999,-35.955325006500004 146.71179801599999,-35.956805006499998 146.711208992,-35.960068998499999 146.71120099199999,-35.960111992500003 146.71075900799997,-35.962563002 146.71089299199997,-35.962712001 146.709916,-35.967633001 146.709880992,-35.967812007 146.70946700799999,-35.969897993 146.70941401600001,-35.970167001500002 146.70796,-35.977493001499994 146.70834499200001,-35.97773100399999 146.708176,-35.978570996499997 146.70804201600001,-35.979244008 146.708036,-35.979270999500002 146.70771299200001,-35.98088199799999 146.70727401600001,-35.980821003500004 146.70651699199999,-35.984598999500001 146.70646300799999,-35.984867009 146.706236,-35.985998006500004 146.70617900799999,-35.986282999 146.70603801600001,-35.986985 146.70600300800001,-35.987164006 146.70530300799999,-35.990653994 146.70524899200001,-35.990923002500004 146.70440300800001,-35.995144998500002 146.70464300800001,-35.995174006500001 146.704612,-35.9953250035 146.704436,-35.996181997500003 146.70438099200001,-35.996450007 146.70389401599999,-35.998465008499998 146.70307401599999,-36.001858001 146.702864992,-36.002738009 146.70233100799999,-36.005078 146.701872,-36.007093001500003 146.701831008,-36.007271008499998 146.70133900799999,-36.009427997499998 146.701292,-36.009655991500004 146.701167008,-36.010263994 146.698412,-36.023711995500001 146.69808499199999,-36.025305992500002 146.69692499199999,-36.030967991499999 146.69682835200001,-36.031437947 146.696518432,-36.031234965 146.69598944000001,-36.031148977 146.69540742399997,-36.031148977 146.69480745599998,-36.031292000499995 146.69441945599999,-36.031435005500001 146.69417248,-36.0314489915 146.69360745599997,-36.031492022500004 146.692637504,-36.031421038 146.69180851199999,-36.03123404 146.69133152000001,-36.031033056 146.69092553599998,-36.030747046 146.69032352,-36.030360063 146.68995552000001,-36.030345059499993 146.68960252799999,-36.030446069500002 146.68924953600001,-36.030661076500003 146.68903856,-36.030876065 146.68900256000001,-36.031205069 146.68902057599999,-36.03157706699999 146.689197568,-36.031807077499991 146.68958556800001,-36.032094068 146.690008576,-36.032280048499999 146.69048553600001,-36.032395063 146.69076752000001,-36.032610051499994 146.69101452800001,-36.032810055 146.69159654399999,-36.032839044500001 146.69269049599998,-36.032681036 146.69341350399998,-36.0326390225 146.69401347199997,-36.032696002499996 146.69454345599999,-36.032924995500004 146.694966464,-36.033354991 146.69507248,-36.033785005 146.695002464,-36.034314993 146.69477251199999,-36.034803004499999 146.694261504,-36.035403995499998 146.693538528,-36.036092010499999 146.69302652799999,-36.036522024500002 146.692674528,-36.036952038500004 146.69233856,-36.03722404399999 146.69188057599999,-36.037482045 146.69129756800001,-36.03772606 146.690715584,-36.037983062 146.69023958400001,-36.038284057 146.68999260800001,-36.038628064500003 146.68992259199996,-36.039173074499999 146.689939584,-36.039588066499995 146.69009859199997,-36.039846067500001 146.68992262399999,-36.040247073499998 146.68974563200001,-36.040391077500004 146.689569632,-36.0405770765 146.68942864,-36.040663064500002 146.68896963200001,-36.040734067500004 146.68872262400001,-36.040849100500004 146.68815766399999,-36.0410350995 146.687522656,-36.041064107499999 146.687028672,-36.040978119500004 146.686711648,-36.040849119 146.68648166400001,-36.040691110499999 146.685811648,-36.040576133 146.685462688,-36.040338130500004 146.68521168000001,-36.040089120499999 146.684876704,-36.0399601385 146.68408268799999,-36.039730146499998 146.68337670400001,-36.039386157500005 146.68309369599999,-36.0392291665 146.68265270399999,-36.03898517 146.682264704,-36.038670170499998 146.681840704,-36.037996178500002 146.68132969600001,-36.036979178 146.68085270399999,-36.036047185 146.68051769600001,-36.0354021825 146.68013168,-36.034783209499999 146.67995270399999,-36.034384201500004 146.67993568,-36.033940201500002 146.67989968000001,-36.033768207 146.679970688,-36.0330231935 146.68037667199999,-36.032679186 146.68081766399996,-36.032235186 146.681152672,-36.031934172500002 146.68185766400001,-36.0314901725 146.68261664,-36.030831147 146.68291664,-36.030444145499999 146.68291664,-36.0300721475 146.68272262400001,-36.02968514599999 146.68245763199999,-36.029355143 146.68199862399999,-36.029140173 146.68129161600001,-36.029115161 146.68060563200001,-36.029169162500004 146.68007667200001,-36.029254188499998 146.67958166399998,-36.029412178500003 146.67905267200001,-36.02964119 146.67861164799999,-36.029899209499995 146.67820569599999,-36.030085208500005 146.677976704,-36.030099194500004 146.67741270400001,-36.029999220500002 146.67667168,-36.0298132215 146.67615968000001,-36.029641227 146.675894688,-36.029501219 146.67561168,-36.029072241 146.675364704,-36.028599233 146.67573670399997,-36.028007214500001 146.675894688,-36.027821215499998 146.67607168000001,-36.027448218499998 146.67633564799999,-36.027147223500002 146.676882656,-36.026918212 146.67771164800001,-36.026689200500002 146.678593632,-36.026560181500002 146.67914064000001,-36.026460189 146.67973763200001,-36.02645216 146.6806576,-36.026374164 146.68127558399999,-36.02620315 146.6818576,-36.025902155 146.68219260800001,-36.025586138 146.68229859199997,-36.025228126 146.68233356799999,-36.02481313399999 146.68215756800001,-36.024282128499998 146.68187456000001,-36.023838128500003 146.68148656,-36.023351134500004 146.68090457599999,-36.022835132499999 146.68019859199998,-36.022376147500005 146.6796456,-36.022101145 146.6789816,-36.021917144 146.678311584,-36.021917162500003 146.67741158399997,-36.021946170500001 146.67656464,-36.021931185499994 146.67552464,-36.021845197499999 146.67481363199997,-36.021842200500004 146.674284672,-36.021957196500004 146.67393164800001,-36.022200212500003 146.67368467200001,-36.022630226499999 146.67349164800001,-36.0233022205 146.67329769599996,-36.024147245 146.67305168,-36.0249492385 146.672789696,-36.025513248 146.67246972800001,-36.0259942665 146.67239971199999,-36.026495265 146.67195971199996,-36.026952252 146.67118371199999,-36.027496281499999 146.67030176,-36.027883301500005 146.66941974400001,-36.028212287 146.6687328,-36.028484311 146.66815779199999,-36.028764308500001 146.668061792,-36.028727308500002 146.6677448,-36.028713322500003 146.66710979199999,-36.028807339499998 146.66636883199999,-36.02897833499999 146.66583980799999,-36.029093349500002 146.66516883200001,-36.029121358499999 146.664640832,-36.02912837 146.66419884800001,-36.028949364 146.664057856,-36.028777369499998 146.66382886400001,-36.028612368 146.66358086400001,-36.028347374 146.66322886399999,-36.027903374 146.66299984,-36.027501369 146.66282281599999,-36.027086377 146.66261180800001,-36.026713361500001 146.66243481599997,-36.026426371 146.66211785600001,-36.02619737799999 146.66176486399999,-36.026039369500005 146.66105884800001,-36.025938396500003 146.66035286399998,-36.025952382500002 146.65968288,-36.026024384500005 146.65910089600001,-36.026124414 146.65846588799999,-36.026206406 146.65784787199999,-36.026367411500004 146.65731891199999,-36.026410424 146.65685190399998,-36.026428424500004 146.65638390399999,-36.02636643099999 146.65599590400001,-36.026252434 146.65572291199999,-36.026055427500005 146.65551990399999,-36.025833427500004 146.65539692799996,-36.025568433499998 146.65529891200001,-36.025053430500002 146.65523792,-36.024646430499999 146.655492928,-36.024466425500002 146.65580192,-36.0243884295 146.65611891200001,-36.024173422499999 146.65637488,-36.023937399499999 146.65705488,-36.023515414500004 146.65765488,-36.023100404 146.65793686399996,-36.022813395 146.65830784,-36.0222833885 146.65828985600001,-36.021968389 146.65806086399999,-36.021624381500004 146.65765184,-36.021324385499994 146.65700284799999,-36.021194386 146.65657689599999,-36.021138386499999 146.65608489600001,-36.021222413499999 146.655344896,-36.02146541099999 146.65483289599999,-36.021594411499997 146.65446192,-36.0216514285 146.654162912,-36.021694422499998 146.65377491199996,-36.021851432 146.65359792000001,-36.021823423 146.65349190399999,-36.021679419 146.65328092799999,-36.021679419 146.65303292799999,-36.021722431500002 146.652239936,-36.021349416 146.65139296000001,-36.020948447 146.650810944,-36.020618444 146.65044096,-36.020159440500002 146.65033193599999,-36.019476439 146.65029993600001,-36.01872644899999 146.650335936,-36.018411431 146.65044096,-36.018268426 146.65059990399999,-36.017995421500004 146.65072390399999,-36.017866421 146.65091792000001,-36.017723416 146.65130592,-36.017666417499996 146.65172892799998,-36.017394412 146.65213488000001,-36.017208413 146.65292889599999,-36.017108402 146.65377587200001,-36.017108383500002 146.65442784000001,-36.017295381499999 146.65488684799999,-36.01756738699999 146.65529184,-36.017768389499999 146.65599785599997,-36.017940384 146.65686185599998,-36.017969373499994 146.65719683200001,-36.017941364500004 146.65788483200001,-36.0176403695 146.658361824,-36.017124349 146.65880278399999,-36.0164803455 146.658855776,-36.015978348 146.658731776,-36.0152913505 146.658573792,-36.014488339499998 146.65834480000001,-36.014115324 146.6579568,-36.013900335499997 146.65758579199999,-36.013871346 146.6572328,-36.013914358500003 146.65672182399999,-36.014100357499991 146.656051808,-36.014186345500001 146.65532780800001,-36.01435837699999 146.65488684799999,-36.014501363499996 146.65435785599999,-36.014629365 146.65374086400001,-36.01483038599999 146.65317686399999,-36.01493039699999 146.65271788800001,-36.014915393500004 146.65209987200001,-36.014801396500005 146.65157187200001,-36.014657411 146.65083088,-36.014312404500004 146.650177888,-36.013796402499999 146.649807904,-36.013452413499998 146.64954288000001,-36.012850405 146.64957888000001,-36.012378414499999 146.649331872,-36.011718408500002 146.64931488,-36.0110454155 146.64942988799999,-36.010200391 146.64959689599999,-36.009655381 146.65016185600001,-36.009111388500003 146.65044384000001,-36.008767362500002 146.65102585599999,-36.008351371499998 146.65111484799996,-36.008137363499998 146.651043808,-36.007864377499999 146.65086784,-36.007735377 146.65032086400001,-36.0076063765 146.64970384,-36.0073623615 146.649174848,-36.0072473655 146.64875184,-36.007175382 146.648398848,-36.007347395 146.64767488000001,-36.007633386500004 146.64712889599997,-36.007819404 146.64651187199999,-36.007919415 146.64592892799999,-36.007891406 146.64531190400001,-36.0078044005 146.64465990400001,-36.007546418 146.64430691199999,-36.007216433499998 146.64384892800001,-36.006528418500004 146.64361990399999,-36.005983427 146.64351392,-36.005267403 146.643460928,-36.004722411499998 146.64324992,-36.004350413499999 146.64289692799997,-36.004134407500004 146.64250892800001,-36.004091413499999 146.64212790399998,-36.004128432 146.64170496,-36.004342421499999 146.641510944,-36.004700433499998 146.64128096,-36.00512943 146.64129193599999,-36.00550942 146.64137993599996,-36.00589644 146.641634944,-36.006346452500004 146.64205795199999,-36.0069054485 146.64241094400001,-36.007478449 146.64263094399999,-36.007846451 146.64269296000001,-36.008222445 146.64262294400001,-36.008651441499993 146.64249897600001,-36.008938450500004 146.64221699199999,-36.00925345 146.64168796800001,-36.009481462499998 146.64114998400001,-36.009553464500001 146.640691968,-36.009553464500001 146.64037302400001,-36.0095214595 146.64012601600001,-36.009378454500002 146.639572,-36.00867946899999 146.639272,-36.008264458500001 146.63878601600001,-36.007786455500003 146.63834601599999,-36.007227459500001 146.638117024,-36.006826453500004 146.63744700799998,-36.006238468 146.63695302400001,-36.005908483500001 146.63646,-36.005535486500001 146.63564803200001,-36.0050914865 146.63460803199996,-36.004732475499999 146.633656032,-36.004473494 146.632792064,-36.004458490499999 146.63217408,-36.004372502500004 146.63175107199999,-36.004228498499998 146.63109907199998,-36.003511494 146.63088806399998,-36.003067494 146.63078208,-36.002680492499998 146.63055507199999,-36.002680492499998 146.63071206399999,-36.002465504 146.630959072,-36.002250497 146.63120608,-36.002078502499998 146.63173504,-36.001577504 146.632194048,-36.001291475500004 146.63327001600001,-36.000790477 146.633852,-36.000518453 146.63401100799996,-36.0003034645 146.63401100799996,-36.000060467 146.63371100800001,-35.999802466 146.63323500800001,-35.999558469500002 146.6329,-35.9994574595 146.632477024,-35.999471482499999 146.63189504,-35.999586478499999 146.63134803200001,-35.999829476 146.63074803200001,-36.000086496500003 146.630360064,-36.000186507500004 146.629831072,-36.000229501500002 146.62894908800001,-36.000085497500002 146.62821507199999,-35.999928525 146.62772112,-35.999641516 146.62729209599999,-35.99926752 146.62701011199999,-35.99882352 146.62671811199999,-35.998465526499999 146.626736096,-35.998386513 146.62650512,-35.997860521 146.62650409599996,-35.997446509500001 146.62659606400001,-35.997258494 146.62655008,-35.996731503 146.62631808,-35.996506506 146.62604108799999,-35.996393508 146.62544009600001,-35.996394525500001 146.62525510399999,-35.9964695245 146.62493209599998,-35.996733519499998 146.62460912,-35.997222511499999 146.62447011199998,-35.997523543500002 146.62442713600001,-35.997816528 146.62440515200001,-35.997972538500001 146.62433315199999,-35.998464527499998 146.62433212799999,-35.998465545 146.624284128,-35.998574528500001 146.62411913599999,-35.998744543500003 146.62371414399999,-35.999029536 146.62352412800001,-35.999184547500001 146.62333516800001,-35.999296546499998 146.623159168,-35.999396557499999 146.62293017600001,-35.999483563 146.62265616,-35.999569551 146.62237417599999,-35.999627548500001 146.62209216,-35.9996565565 146.621889184,-35.999649582 146.621739168,-35.999613581 146.62155318399999,-35.9995345675 146.621403168,-35.999441568 146.621200192,-35.99929157 146.62080019199999,-35.999044576500005 146.620721312,-35.998967894 146.62073321599999,-35.998949579 146.620763168,-35.998312568500005 146.62140016000001,-35.997499549 146.62228713600001,-35.996631529 146.62258214400001,-35.995791536500001 146.62254009599999,-35.994877525500002 146.62119212799999,-35.993877545 146.62063497599999,-35.994011466499998 146.620537152,-35.993953543 146.62039814400001,-35.993954542 146.61989014400001,-35.993766545 146.61910416,-35.993654527499999 146.61822617600001,-35.993730562499998 146.61781017600001,-35.993881559499997 146.617486208,-35.994220553499993 146.617117216,-35.994784581499999 146.61670220799999,-35.995462569499999 146.61647123200001,-35.996101596500004 146.61624022399999,-35.996402591500001 146.61591724799999,-35.996666586499998 146.615732224,-35.996741585500004 146.615316224,-35.99681760199999 146.614854272,-35.99681760199999 146.61462326399996,-35.99674260299999 146.61429926400001,-35.996479607 146.61342025600001,-35.995615601499999 146.61304928000001,-35.995164608499998 146.61286425599999,-35.994713615500004 146.61281728,-35.994148607 146.612863264,-35.993847612 146.613232224,-35.993020588 146.61337123199999,-35.992418598 146.61337024,-35.991778572 146.61313824,-35.9910645645 146.61281424000001,-35.990575572499999 146.612444224,-35.990274577499996 146.61170422399996,-35.9900125805 146.61087222399999,-35.989862582500002 146.60939225600001,-35.989412588500002 146.60879126399999,-35.989074593499993 146.60832928,-35.988698599500005 146.60809728000001,-35.988397586 146.607727264,-35.987608598 146.607819264,-35.987269585499995 146.607818272,-35.986517597500004 146.607864256,-35.986479598500004 146.60782025599997,-35.986371595500003 146.60883424,-35.985575577500001 146.60897324800001,-35.9856135765 146.60971222399999,-35.985424562 146.61054419199996,-35.985085549499999 146.61243817600001,-35.984143529500003 146.613409152,-35.983691519 146.61451814399999,-35.983314507500005 146.61465612799998,-35.983314507500005 146.61530310399999,-35.983050494 146.61558009599997,-35.982861498 146.61613408,-35.982372487499994 146.616457088,-35.981883477 146.616457088,-35.981544483 146.61618006399996,-35.981319486 146.61507011200001,-35.98113148899999 146.61423811199998,-35.981170505500003 146.61386912,-35.981245504500002 146.61243612800001,-35.981284502500003 146.61202012800001,-35.981247521 146.61160412800001,-35.981135522 146.61118716799999,-35.980759509500004 146.61095616,-35.980684510499998 146.610775168,-35.980076526499992 146.61081718400001,-35.980007521499999 146.610955136,-35.979630491499996 146.61127814400001,-35.979104499500004 146.61169414400001,-35.978765505499993 146.61234112,-35.978388475500005 146.61303411199998,-35.978049481500001 146.61418908799999,-35.977634471 146.61525104,-35.977370439 146.61691500800001,-35.977143444 146.617469024,-35.976954429500005 146.617977024,-35.976615417 146.61825398400001,-35.976276423 146.618715968,-35.975937410500002 146.61866998400001,-35.975674414499998 146.618345984,-35.975449399 146.61804102400001,-35.975399671</coordinates></LinearRing></outerBoundaryIs></Polygon>

	</Placemark>
</kml>