<?xml version="1.0" encoding="UTF-8"?>
<kml xmlns="http://www.opengis.net/kml/2.2">
	<Placemark>
		<Style>
			<LineStyle>
				<color>ff0000ff</color>
			</LineStyle>
			<PolyStyle>
				<fill>1</fill>
				<color>330000cc</color>
			</PolyStyle>
		</Style>
			<ExtendedData><SchemaData>
		<SimpleData name="STATE_2006">1</SimpleData>
		<SimpleData name="POA_2006">2845</SimpleData>
	</SchemaData></ExtendedData>
      <Polygon><outerBoundaryIs><LinearRing><coordinates>150.08604841600001,-33.426877226 150.08581692800001,-33.426879205500001 150.08530825599999,-33.426888566500004 150.08503104,-33.426897483499999 150.08483232,-33.4269060305 150.08475420799999,-33.426909360499998 150.084477376,-33.426924216 150.084200896,-33.426941939 150.08401500799999,-33.426951004 150.08383008000001,-33.426962733 150.08364505599997,-33.4269782175 150.083460352,-33.426997106 150.08327641599999,-33.4270194355 150.08308921599999,-33.427046427 150.08290307199999,-33.42707784 150.082717312,-33.427112398 150.08253193600001,-33.427148843 150.08218201599999,-33.427219772 150.08217372799999,-33.427221566500002 150.08201712,-33.427254774 150.08168844799999,-33.427328496500003 150.081524992,-33.427367457500004 150.08138425600001,-33.427402293 150.08110380799999,-33.427475016499997 150.0808248,-33.427551773 150.080489632,-33.427655003 150.08015664000001,-33.427764264 150.07982579200001,-33.427879297 150.07963068800001,-33.427951206499998 150.07949856,-33.427999898499998 150.07917456000001,-33.428125976 150.07895785599996,-33.42821337 150.07874185599999,-33.428302743499998 150.078528,-33.428394892 150.07831632,-33.428490666500004 150.078107872,-33.4285910105 150.07787568000001,-33.428710169 150.07764636799999,-33.428834544499992 150.07742099199999,-33.428963878 150.07728419200001,-33.429046684 150.07566060799996,-33.427386179500004 150.07509648000001,-33.426809553 150.07491648000001,-33.426617671 150.074643232,-33.426313734499999 150.07458384,-33.426243638 150.07452624000001,-33.4261723575 150.07444300799997,-33.426063004 150.07436387199999,-33.425951763500002 150.07428864,-33.425838358499995 150.07421699199998,-33.425723251500003 150.07419504000001,-33.425685456 150.07365756799999,-33.42556602 150.072978592,-33.425420314 150.07274899199999,-33.425365998 150.07258691199999,-33.425331569500003 150.07244499199999,-33.4253050035 150.07215923199999,-33.425258587 150.072064576,-33.425241474499998 150.07201705599996,-33.425232927499998 150.07187664,-33.425202421 150.07158432,-33.425136542499999 150.07143996799999,-33.425098747 150.07130352,-33.425051220500002 150.07118041599998,-33.424989301 150.07110012800001,-33.424936021 150.07102345600001,-33.42487671 150.07095216,-33.424812274499999 150.07088844800001,-33.424743787499999 150.070833728,-33.424672137 150.07080169599999,-33.42461408399999 150.07079484799996,-33.424601393 150.0707664,-33.4245258945 150.07071276799999,-33.424338323 150.07068937599999,-33.4242680415 150.070664,-33.424198000499999 150.070636992,-33.424128995499998 150.0705864,-33.424018014 150.07050361599997,-33.423853234500001 150.07041216,-33.423649013 150.07037616,-33.423584318499998 150.07033152,-33.423525007500004 150.07027715199996,-33.4234707285 150.07021561600001,-33.423419705500002 150.070148,-33.42337299299999 150.07007699199997,-33.423331312500004 150.070003552,-33.423295496500003 150.06993264,-33.423267598500004 150.06985811199999,-33.423244288500001 150.06978108800001,-33.42322547399999 150.069702976,-33.4232111735 150.06962521599996,-33.42320127599999 150.06955644799999,-33.423195689 150.06948624,-33.423193265500004 150.06941603199999,-33.423194338500004 150.06934656000001,-33.423199740500003 150.06927923200001,-33.423210082 150.06920688,-33.423228637500003 150.06915648,-33.423246712 150.06913632000001,-33.423253927 150.06906720000001,-33.423284156 150.06899952000001,-33.423317271 150.06893363200001,-33.423351218500002 150.06886848,-33.423387663500002 150.06885804799998,-33.423394046 150.06880512000001,-33.42342708699999 150.06862153599999,-33.423552813 150.068525408,-33.423620763500004 150.06824352,-33.423831904 150.06796668799998,-33.424027911499998 150.067874528,-33.424090386 150.06777948799999,-33.424147532500001 150.067679392,-33.424195854499999 150.06759804800001,-33.424227175 150.067514176,-33.424254906500003 150.06742812799996,-33.424281084 150.067334528,-33.424298548 150.067237312,-33.424307002500001 150.06714121600001,-33.424306114499998 150.06705049600001,-33.4242953105 150.06698499199999,-33.424280991499998 150.06692016,-33.424260845 150.06685680000001,-33.424235999499999 150.06679740800001,-33.424206566 150.06674377600001,-33.424173007 150.06669408,-33.424129883499994 150.066651232,-33.424079489500002 150.066636128,-33.424056993500002 150.066576,-33.423968970499999 150.06649212799999,-33.423852143 150.06640608000001,-33.423723531 150.066359296,-33.423662333 150.06630528,-33.423606537 150.066244,-33.423554996 150.066177856,-33.423506378 150.06610691200001,-33.423461811500005 150.06603276800001,-33.423422943 150.06595609600001,-33.423391086 150.06585923199998,-33.423366684500003 150.06575593599999,-33.423355529 150.065541376,-33.423346889500003 150.06543625599997,-33.423336622 150.065272096,-33.423315291500003 150.065191008,-33.423303007500003 150.06511152,-33.423286043 150.06503628799996,-33.423261937500001 150.06496249599999,-33.423228008500004 150.064892,-33.423186994 150.06482496000001,-33.423140244500004 150.064761248,-33.423090387 150.06470076799999,-33.423039179 150.0646392,-33.422982291499999 150.064580896,-33.422921907500005 150.06453913600001,-33.422873049 150.06452688,-33.422858637499992 150.06447683199997,-33.422793129 150.06444409599999,-33.422743808 150.064401248,-33.422666940500001 150.06436236799999,-33.422588463499999 150.064319168,-33.422489821500001 150.06429504,-33.422430159 150.06427379199999,-33.422369756500004 150.06425689599999,-33.422308928500001 150.064246432,-33.422247897 150.064245376,-33.422164554499993 150.0642576,-33.4220800465 150.06427776000001,-33.421995002 150.06432240000001,-33.421825616 150.06434761599999,-33.421740849 150.06441024,-33.421572092 150.064432928,-33.421488120500001 150.064440128,-33.421404426500004 150.06443436799998,-33.421346466 150.0644232,-33.421288320500004 150.06440700799996,-33.421230545 150.064387936,-33.421173306 150.06433644800001,-33.421035148 150.06428784,-33.420919597 150.06426156799998,-33.420862432 150.06423312000001,-33.4208043975 150.06418956799999,-33.420722128 150.06404089599999,-33.420453471 150.06393577599999,-33.4202714125 150.06382883200001,-33.420082231500004 150.063788512,-33.420022014 150.06374208,-33.419966403 150.0637032,-33.419927793500001 150.063661792,-33.419890442 150.06361788800001,-33.41985507 150.06357145600001,-33.4198224915 150.06352284799999,-33.419793502 150.06346601600001,-33.419765992500004 150.06340512,-33.419743385499999 150.06334211199999,-33.419723849500002 150.063278048,-33.419707014499991 150.06315168,-33.419678136 150.06308867199999,-33.419665537500002 150.06302496,-33.419655621499999 150.0629616,-33.419649775499998 150.06289859200001,-33.419649516500002 150.06281651200001,-33.419658692500001 150.06273408,-33.419677414500001 150.06265235199996,-33.419703425500003 150.062573536,-33.419734746 150.06249900799997,-33.419769304 150.062438176,-33.419801605 150.062379136,-33.419837606 150.06232259199999,-33.419876752 150.06226969599999,-33.419918691500001 150.062220352,-33.419962795499998 150.06203891199999,-33.420164852500001 150.061919776,-33.420300661 150.06180780799997,-33.420420892500005 150.06169043200001,-33.420539977 150.06157699199997,-33.420661004 150.061479136,-33.420785768 150.06140569599998,-33.420918061500004 150.06136105600001,-33.421057736500003 150.06133728,-33.42120479299999 150.061328992,-33.421355901 150.06133260799999,-33.421507656499998 150.06133980800001,-33.421617546500002 150.061342688,-33.421656507499996 150.06135420800001,-33.42176649 150.06137148799999,-33.421876565 150.06139452799999,-33.421986085 150.06142259200001,-33.422094624499991 150.061455712,-33.422201462 150.06146112,-33.422279217499998 150.06147731199997,-33.422357158 150.0615,-33.422435098500003 150.06154860800001,-33.422590535499999 150.06159324799998,-33.422744344500003 150.06162528,-33.422846409 150.06165094400001,-33.422983716 150.06174201600001,-33.42721474 150.06174697599999,-33.427259732 150.06173472,-33.427358633 150.06159030399999,-33.427719660500003 150.061329728,-33.427685528 150.05936905599998,-33.427404753499999 150.05718208,-33.427109771 150.055378112,-33.426838764500005 150.05439888000001,-33.426651729500001 150.05576,-33.422097769499999 150.055808,-33.421935765 150.05661523200001,-33.419244884499996 150.05445798400001,-33.418932771 150.05182601600001,-33.418550783 150.050534016,-33.418363785 150.05038204799999,-33.419101805499999 150.049625056,-33.419018814499999 150.04938105599999,-33.418992803500004 150.04595910399999,-33.418617827 150.043671136,-33.418367836500003 150.04077318399999,-33.418050857499999 150.039182208,-33.417876865 150.03643123200001,-33.417575888500004 150.03697424000001,-33.417118883 150.03716121599999,-33.416874886500004 150.03733219200001,-33.41663089 150.03743420800001,-33.416430886500002 150.03753625599998,-33.416114851 150.03755321599999,-33.415485888 150.03755318399999,-33.414710867499998 150.03768918399999,-33.413878867 150.03768918399999,-33.413391854499991 150.03786012800001,-33.413190870500003 150.03787715199996,-33.413190870500003 150.03832012800001,-33.412717862500003 150.03855814400001,-33.4123028705 150.03886512,-33.41162886 150.03905328,-33.411398849500003 150.03913811199999,-33.41128487099999 150.03918912,-33.41125586299999 150.03999008,-33.410223840500002 150.04022806399999,-33.409994847500002 150.04046704000001,-33.40982285299999 150.04068905599999,-33.409678849 150.04135305599996,-33.409134838 150.041625856,-33.408961826 150.04220601599999,-33.408675834500002 150.042529024,-33.408460827500001 150.04278502399998,-33.408245820499999 150.04281897600001,-33.408173818499996 150.04288697600001,-33.40811682 150.04310899199999,-33.407686824500004 150.04317699200001,-33.40741382 150.04329596799997,-33.407041822 150.04358595199997,-33.406640834500003 150.04397795200001,-33.406295809500001 150.04419894399999,-33.405937816 150.04433593600001,-33.405708786 150.04448892799999,-33.4053648155 150.04465884800001,-33.404862781 150.04466291199998,-33.4048458165 150.04498291199999,-33.404633806500001 150.045272896,-33.4044038145 150.04547689599997,-33.4043038035 150.04576688,-33.404274814 150.04605689600001,-33.404231801500003 150.04622700799999,-33.404116768500003 150.04632566399999,-33.403992726 150.04547497600001,-33.403099046500003 150.04375056000001,-33.401288063 150.04320624,-33.400716209500004 150.04272489600001,-33.400299811499998 150.04197587199999,-33.399855811500004 150.04092089599999,-33.399504829500003 150.04047091199999,-33.399375829 150.03867392000001,-33.398859827 150.038057952,-33.398621843 150.03796032,-33.398573391500001 150.03771193599999,-33.398448849499999 150.03732896,-33.398234841499999 150.03691696000001,-33.397979837500003 150.03652595200001,-33.397756838500001 150.036022944,-33.397473844 150.03558896000001,-33.397210848 150.03534294400001,-33.397078850500002 150.03521459199999,-33.396991734 150.03500595200001,-33.396891852499998 150.034560992,-33.39669085 150.03418099199999,-33.396512861499993 150.03393996799997,-33.396403859499998 150.03371996800001,-33.3962848675 150.033489984,-33.396148855500002 150.033265984,-33.395993862499999 150.03300899199999,-33.395839868499991 150.03286396799999,-33.395725871499998 150.032656,-33.395572007 150.03206796800001,-33.395112855499995 150.03199801599999,-33.395054007 150.03158198400001,-33.394704856499999 150.03131996799999,-33.394473865500004 150.03098902400001,-33.39416486 150.03077075199997,-33.393942638 150.030498016,-33.393688855 150.030306016,-33.393502856 150.03021100800001,-33.3933718575 150.02991702400001,-33.393148858499998 150.029644,-33.392953868500001 150.02943001599996,-33.39281288 150.02885702399999,-33.392485874 150.028552,-33.392339890500004 150.027984,-33.392097873499999 150.02714905600001,-33.391695887 150.02688105600001,-33.39155488 150.02633004800001,-33.391227874 150.02595504000001,-33.390981879500004 150.02564003200001,-33.390763875499999 150.02536204799998,-33.390550903499999 150.025084032,-33.390327904499998 150.02498304,-33.390205897 150.02483904,-33.390051903 150.024621056,-33.389757901 150.02448803199999,-33.389571902 150.024408032,-33.389422903 150.02429203200001,-33.389218903499994 150.024138048,-33.388929896500002 150.02405904,-33.388716906 150.02394304000001,-33.388441903500002 150.023789056,-33.388102891 150.02368905599999,-33.3878719 150.02352505600001,-33.387591902499999 150.02337603199999,-33.387346907 150.02321603199999,-33.387116896499997 150.02306204800001,-33.386912897 150.022945056,-33.386790908 150.02186112000001,-33.385882854 150.02132108800001,-33.385433896 150.02094707199998,-33.385110904499996 150.020424064,-33.3846889195 150.02017379200001,-33.3844732835 150.02011404800001,-33.384421890499993 150.01982108799999,-33.3841629275 150.019414912,-33.383822934500003 150.01871507199996,-33.383223923 150.01821312000001,-33.3827749095 150.018102368,-33.382676785500003 150.01794112,-33.38253391 150.01781312,-33.382429921499998 150.01734809600001,-33.382070929 150.017124096,-33.381870944 150.01691609599999,-33.381693936 150.01661376000001,-33.381412736 150.01643510400001,-33.381249936 150.01586425599999,-33.380772747 150.01554912,-33.380514931 150.01496112000001,-33.380055946 150.014448128,-33.3796339425 150.012995136,-33.378489958 150.01138188799999,-33.377247905 150.01085318400001,-33.376840979 150.01067123199999,-33.376713847 150.01054316799997,-33.376573968500004 150.01038918399999,-33.37643298 150.01020118400001,-33.376318983 150.01003008000001,-33.376191832499998 150.00988105600001,-33.376055765 150.009405184,-33.375809974 150.00922297599999,-33.375682805 150.00905232,-33.375550770499999 150.00874716800001,-33.37533297 150.00852313599998,-33.375182768500004 150.007838048,-33.374826902500004 150.00739820800001,-33.374626991500001 150.00704019200001,-33.374457994 150.00670819199999,-33.374306997 150.00642576000001,-33.374188079 150.00630620800001,-33.3741379995 150.0053792,-33.373762986 150.00444224,-33.373435018 150.004110016,-33.373316007500001 150.00336822400001,-33.373052012500004 150.00289724800001,-33.3728650145 150.00262822400001,-33.372797008500001 150.00222563200001,-33.372673558 150.00209625599999,-33.372641016499998 150.00169126399996,-33.372528037 150.00160227200001,-33.372511035500004 150.00153225599999,-33.37249803 150.00116726399997,-33.372396021 149.99758131199999,-33.371364054 149.99570032,-33.370816065500001 149.99541033599999,-33.370748059500002 149.99522233600001,-33.370730059 149.99273936,-33.370384090499996 149.9909504,-33.370135080499999 149.99056339200001,-33.370072088 149.99009833599999,-33.369966009 149.98987443199999,-33.369906106 149.98962243199998,-33.369831107 149.98937344000001,-33.369750095500002 149.989128,-33.3696619985 149.98876643200001,-33.369517106499998 149.988530432,-33.3694121005 149.988071424,-33.369184106499993 149.98773846399999,-33.368996109500003 149.98763046400001,-33.368931100499999 149.98752345599999,-33.368864112 149.98721046399999,-33.368655099 149.98698540800001,-33.368491078 149.98690944000001,-33.368432932499999 149.98671648000001,-33.368277865499998 149.98643846399997,-33.368036126 149.98617433599998,-33.367782861 149.986089472,-33.3676971135 149.98592521599997,-33.367520161 149.985768256,-33.367338990500002 149.98554547200001,-33.367060121500003 149.98533900800001,-33.366771003499998 149.985316,-33.3667340035 149.98515046399999,-33.366475114499998 149.98497846399999,-33.366171122499999 149.98487446399997,-33.365965125 149.98477747199999,-33.365756130499996 149.984648,-33.3654380045 149.98457244799999,-33.365223127 149.98412988800001,-33.363781477499998 149.98389587200001,-33.362409147500003 149.98355177600001,-33.360389169500003 149.99172428799997,-33.361453067500001 149.991848256,-33.36146907 149.992176352,-33.361512064 149.99230928,-33.361529047 149.992422272,-33.361544050500001 149.99847120000001,-33.362331003499996 149.998650016,-33.362168 150.00109212800001,-33.359954993 150.00110281600001,-33.359805994 150.001167232,-33.359647504500003 150.00125292800001,-33.359425837499998 150.00140880000001,-33.358760559 150.001500096,-33.358417994500002 150.001547104,-33.358189001500001 150.00160464,-33.357446004499998 150.001644064,-33.357280984500001 150.00175408000001,-33.356944969 150.00182307200001,-33.356778968499995 150.00198806399999,-33.356445968500005 150.002064064,-33.356329973500003 150.00216006400001,-33.356163973 150.00231564799998,-33.355936793 150.00238403200001,-33.355826977 150.002605792,-33.3555291825 150.00263568,-33.355489315 150.00281004799999,-33.355267981 150.00293504000001,-33.355153965500001 150.00301305599999,-33.3550309775 150.00305580799997,-33.354911338 150.00315696000001,-33.354571863 150.003178048,-33.354396964 150.00321456,-33.354174964 150.003294496,-33.353783282 150.00335353599999,-33.353618225 150.00340902400001,-33.353444954 150.00341472,-33.353419146500002 150.003821536,-33.351698609499998 150.003866528,-33.351525264500005 150.00391584,-33.3512811015 150.00361801599996,-33.351210006 150.00349097599999,-33.351204955499995 150.003287008,-33.351187991 150.00309299200001,-33.351162960499998 150.00255900799999,-33.35107096 150.00235100799998,-33.351018956499999 150.00208499199999,-33.350989005 150.0014736,-33.350894451500004 150.00127699199996,-33.350871992500004 150.00116700800001,-33.350865961499998 150.00073667199999,-33.350830293499996 150.00038998400001,-33.350849459500004 150.000125056,-33.350919667 149.999832736,-33.351066353500002 149.99831008000001,-33.352162996499999 149.99787504,-33.352411673500001 149.9975424,-33.3525342545 149.99700672,-33.3525658525 149.99684256,-33.352578081 149.99641308799997,-33.35260949399999 149.99613840000001,-33.352560099 149.99544828800001,-33.352435538500004 149.994794528,-33.3523175455 149.994444128,-33.352255015499999 149.99453209599997,-33.350793016 149.99468211199999,-33.349963013500002 149.99476211199996,-33.349610995499994 149.99484211199999,-33.34933099799999 149.995548,-33.347565543 149.995634048,-33.347331999 149.995708928,-33.347108963 149.99577660799997,-33.346816644500002 149.99579404799999,-33.346549967 149.99578604800001,-33.34628797 149.99575753600001,-33.346033465499993 149.99571216000001,-33.345756983 149.995663936,-33.345562955 149.995477056,-33.344605968499998 149.995404,-33.344306971500004 149.99533596800001,-33.343964721500001 149.99533100799999,-33.343704981500004 149.995362016,-33.343361973 149.99541401600001,-33.3430829745 149.995519008,-33.342730975 149.99567001599999,-33.342456971499999 149.99594099199999,-33.341996950500004 149.99618697599996,-33.341570951 149.996462976,-33.341068953499999 149.99724793599998,-33.339561943500001 149.996147936,-33.338932962 149.989207104,-33.3430460115 149.989288864,-33.342645061 149.98872816,-33.342973288 149.98870332800001,-33.342679267500003 149.98869312,-33.342570006500004 149.98847868799999,-33.341008588 149.98830732799999,-33.340451312500001 149.98822992000001,-33.340199934499999 149.988105088,-33.339823015499995 149.988079008,-33.339710998 149.98797606400001,-33.339539003500001 149.98768595199999,-33.339047403 149.987611808,-33.338922213499998 149.98758006400001,-33.338881014 149.98719408,-33.338500006499999 149.98700665600001,-33.337742228 149.98695408,-33.3375640175 149.98692508799999,-33.337487002 149.98689408000001,-33.337420013500001 149.98662899199999,-33.337019784500001 149.986067072,-33.336318005500004 149.98583408,-33.336017010500001 149.98578006400001,-33.33584102 149.98576908800001,-33.3356880065 149.98575206399997,-33.335584018 149.985671072,-33.335156002 149.98560608,-33.334656002500004 149.98552006400001,-33.334219014 149.98543907199996,-33.333768002500001 149.98536307200001,-33.333457017500002 149.984456,-33.331673007 149.98431904,-33.331403018 149.98410905599999,-33.330934006 149.98395804799998,-33.330475002500002 149.98386604800001,-33.3300920155 149.98380105599998,-33.329646017500004 149.98379504,-33.329348019500003 149.98380604799999,-33.329118009 149.983896,-33.328501015500002 149.983944,-33.328130997 149.98399702399999,-33.327924000499998 149.98402902399999,-33.327814998500003 149.984056,-33.327670994500004 149.98414201599999,-33.327431993 149.98425401599999,-33.327075997500003 149.98434,-33.3267829945 149.984388,-33.3265309875 149.984440992,-33.326070985 149.984518976,-33.324226979 149.98465798399999,-33.323753971 149.98478598400001,-33.323383971 149.98489296,-33.323185965500002 149.98501094400001,-33.323045976 149.98516096,-33.322757968 149.98546195200001,-33.322450979 149.98579395199999,-33.322157976 149.98621292799999,-33.3218639555 149.98658291199999,-33.321687946499999 149.98691484799997,-33.321523944 149.987012032,-33.32147588099999 149.988182048,-33.320843902499995 149.989710976,-33.320035989 149.990177856,-33.3197289445 149.990380192,-33.319556191499991 149.99052086399999,-33.319435923 149.99090681600001,-33.318997917 149.991088832,-33.318731924 149.99138380799999,-33.318186914 149.99155481599999,-33.317946913500002 149.99167283200001,-33.317658924 149.99191878400001,-33.316873895 149.99198278399999,-33.316459902 149.99220678399999,-33.315602908 149.99233478400001,-33.315251907499999 149.99251676799997,-33.314912895 149.99272576000001,-33.314633896499998 149.99307500800001,-33.314250003 149.99378172799996,-33.313555883 149.99505273599999,-33.312233854500001 149.99514070399999,-33.312150863500001 149.99536368,-33.31194087 149.996017696,-33.311272872 149.99619968,-33.3110288385 149.996655648,-33.310370849 149.99690665599999,-33.309996853 149.997094656,-33.309784843 149.997298656,-33.30956783799999 149.997555616,-33.309351850500001 149.99780761599999,-33.309170828 149.998097632,-33.308999832499993 149.99864464,-33.308651829 149.99877862399998,-33.308543826 149.998928608,-33.308434824 149.99907744000001,-33.308271802 149.99923958400001,-33.308114829499999 149.99949660799999,-33.307816813 149.99998460800001,-33.307347801 150.000391552,-33.306937804 150.000837472,-33.306598791499994 150.00104057599998,-33.30640981399999 150.00131756799999,-33.306218783 150.00143955199999,-33.306142785 150.00153587199998,-33.30607563 150.00206435199999,-33.30565416299999 150.00228854400001,-33.305428796 150.00261049599999,-33.305164468 150.00268681599999,-33.305071505500003 150.00284089599998,-33.304883934 150.00331465599999,-33.304432238 150.00345548799999,-33.304266774 150.00352524799999,-33.304160436 150.00382646400001,-33.303541777500001 150.00387145600001,-33.3034337745 150.003910464,-33.303269772 150.00394646399997,-33.303046773 150.00397347200001,-33.302766775500004 150.004064992,-33.302197993 150.004125472,-33.301968759499999 150.00426745600001,-33.301628748 150.00431747199997,-33.301460749499995 150.00436048,-33.301347751499996 150.00441043199999,-33.301127749500004 150.004413376,-33.300852395500002 150.004705696,-33.300545850500001 150.00480035199999,-33.300432094 150.00487142399999,-33.30036875 150.00527987199999,-33.300140219500001 150.00542144,-33.300074729500004 150.00589740800001,-33.299937737 150.006172416,-33.299885733499998 150.00638240000001,-33.299867733 150.006587392,-33.29987073 150.00719939199999,-33.299941733 150.00748272000001,-33.300010627 150.00760236799997,-33.299624717 150.00781936000001,-33.299117706 150.00793100800001,-33.298887991499996 150.00805728,-33.2986077905 150.00817212800001,-33.298380444 150.00846732799999,-33.29758672 150.008658016,-33.297193003 150.008707808,-33.297083279500001 150.008888896,-33.2968013025 150.008962016,-33.296625996499998 150.00908832,-33.296232705 150.00922188799998,-33.295899427500004 150.00933731200001,-33.295610698 150.00937632,-33.295501696 150.00953030400001,-33.295221698500001 150.009815264,-33.294598674 150.00990201600001,-33.294368996499998 150.00995728000001,-33.294202681500003 150.01009827199999,-33.2938716795 150.01020326400001,-33.293700684 150.01028928,-33.293526673 150.01049123199999,-33.2930176825 150.01053299200001,-33.292900614499992 150.01054380799999,-33.292723865500001 150.01055747199996,-33.292603615499992 150.01056224000001,-33.292564673 150.01058425599999,-33.292503678500005 150.010579232,-33.29237268 150.01053923200001,-33.292304674 150.01045724799999,-33.292194673 150.01039260799999,-33.292080713 150.01007724799999,-33.291630682 150.00999923200001,-33.291466679500004 150.00994124799999,-33.291305674 150.00992899199997,-33.291144002499998 150.009935232,-33.290752672 150.009960256,-33.290589687 150.010035488,-33.29037135 150.010245728,-33.290040144500004 150.01033465599997,-33.28992513 150.010428,-33.289757002 150.01052822400001,-33.289651663 150.010769216,-33.289425667 150.01086921599997,-33.289310652499999 150.0109872,-33.289135661 150.011017216,-33.28907065199999 150.01102521600001,-33.288946665 150.01101500799999,-33.288827007 150.01093718399997,-33.288591668500004 150.01089916800001,-33.288528657500002 150.01078220799999,-33.288409665499998 150.01076220799999,-33.288391665 150.010743168,-33.288287658 150.01073916799999,-33.2882286615 150.01070316799999,-33.288107653 150.010621184,-33.287885653 150.01056918399999,-33.287712659500002 150.01048601599999,-33.287489993500003 150.01044716800001,-33.287326657 150.01041318399999,-33.286993657 150.01040316800001,-33.286315650500001 150.01038252800001,-33.286140548 150.01033392,-33.285966204 150.01027619199996,-33.285845658 150.01018019200001,-33.285725667 150.010052992,-33.28560700799999 150.009845184,-33.285482651 150.00950499199999,-33.2852990015 150.00930499200001,-33.285224002500001 150.009179168,-33.285146654 150.008639776,-33.284748774500002 150.00857532800001,-33.28470801899999 150.008272928,-33.2844321655 150.00818720000001,-33.284325661 150.00809622400001,-33.284161658500004 150.0080592,-33.2840576515 150.00804921599999,-33.283896664499991 150.00805916799999,-33.283732662 150.008098176,-33.283568659499998 150.00821641600001,-33.28318025199999 150.0083784,-33.282846086500001 150.00845619200001,-33.282737658 150.00856054400001,-33.2826091015 150.00887014400001,-33.28222765 150.00897673599999,-33.282054989500004 150.00910300799998,-33.281830991500001 150.00922115200001,-33.281665638500002 150.00935715200001,-33.28149764 150.00961616000001,-33.281218641499997 150.009856128,-33.280990647499998 150.01005411200001,-33.280769646499998 150.01105408000001,-33.279959624 150.01123008,-33.279791625500003 150.01142608000001,-33.27962362699999 150.01154809600001,-33.279512627 150.01199785599999,-33.279181477 150.01201504,-33.279167620500004 150.01221305600001,-33.279046630499991 150.012352064,-33.278953631 150.012552064,-33.278790627500001 150.01268006399999,-33.278698608500001 150.01281904000001,-33.278611603 150.01300224,-33.278448877 150.013139008,-33.278353602 150.013374016,-33.278124609 150.01347302400001,-33.278005598500002 150.01367100799999,-33.277661609500001 150.013757024,-33.277428602 150.0140088,-33.276414062 150.01401385599999,-33.276398392499999 150.014156,-33.275963587 150.014252992,-33.275622576499991 150.01442096,-33.274607592500004 150.01448096,-33.274326577499998 150.01461395199999,-33.273652585500002 150.01475792,-33.273201592500001 150.0148,-33.273030005 150.01485491199998,-33.272806580500003 150.01499792000001,-33.272357585500004 150.01517392,-33.27184656 150.01522291200001,-33.271680559499998 150.01534889600001,-33.271344562499998 150.015397888,-33.271228567500003 150.015476896,-33.270979576 150.01560588800001,-33.270663559 150.01567488000001,-33.270383561500005 150.015733888,-33.270210568 150.01580489599999,-33.2697535625 150.01581484799999,-33.269582567 150.015804,-33.268845009 150.015788,-33.268621991499998 150.01576284800001,-33.268391574 150.01571884800001,-33.2681605645 150.015644864,-33.267983575 150.015567232,-33.267866137 150.015384,-33.267638161500003 150.0153264,-33.267577592500004 150.015184928,-33.267476434500004 150.01511472000001,-33.267432145500003 150.01498115199999,-33.267370503500004 150.01492211199999,-33.26733108 150.01461084799999,-33.267000559 150.01452387199998,-33.26683857299999 150.01430185599997,-33.266443561 150.014245856,-33.26633356 150.014177856,-33.2661625645 150.01368387199997,-33.26525956099999 150.01352086399999,-33.264975567500002 150.01343286400001,-33.264811565 150.01320486399999,-33.264249572 150.013064864,-33.263747574500002 150.01299484800001,-33.263301558 150.01297884799999,-33.262853562 150.012984864,-33.262634559 150.01301484800001,-33.2624645625 150.01311683200001,-33.261971574500002 150.01313184,-33.261898573499998 150.013162016,-33.261218994499998 150.013154816,-33.260990556499998 150.01309081599999,-33.260650545 150.01308108800001,-33.260485673 150.01308179200001,-33.260412783 150.013086816,-33.259755552 150.01318380800001,-33.259067555500003 150.013173792,-33.258793552 150.01318380800001,-33.258574549 150.013265792,-33.257957555499999 150.01334979200001,-33.257560545499999 150.01339776,-33.257100543 150.01340579199996,-33.256822950500002 150.01340675200001,-33.256765545 150.01345100799998,-33.256311 150.01345977599999,-33.255807541 150.01347676799998,-33.255579547 150.01356672,-33.253932529 150.01356972799999,-33.252947533499999 150.01360873600001,-33.252448533 150.013672192,-33.251224221500003 150.013667712,-33.251162524 150.01356668799997,-33.250877531500002 150.01345657600001,-33.250375441499997 150.01340268800001,-33.249872537500003 150.01339392,-33.249349524 150.01339171199999,-33.249250530499999 150.01337171200001,-33.249021537499992 150.01334300799999,-33.248902009 150.01328592,-33.248622067 150.01329168000001,-33.248434532499999 150.01331267199998,-33.248228535 150.01329766399996,-33.24812752499999 150.01326972800001,-33.248069194500005 150.01326179200001,-33.248004204 150.01325424000001,-33.24749427 150.01329456,-33.247107638500005 150.01330768,-33.246981505500003 150.01331968,-33.2461935165 150.01332864,-33.246027516 150.01339164800001,-33.24540351099999 150.01339763199999,-33.244730518 150.01338464,-33.244622515 150.01337664,-33.244447505 150.013315648,-33.243888509 150.01330464,-33.243657518 150.013324608,-33.242978512500002 150.01335059199999,-33.24269352 150.01342361600001,-33.242458514500001 150.013507616,-33.2422825055 150.0135976,-33.242165511499998 150.01370281600001,-33.242047555500001 150.0137736,-33.24199052 150.013979296,-33.241871879499996 150.01410995199998,-33.241780989 150.014240288,-33.241676408499998 150.014315872,-33.241631842 150.01438464,-33.241605757 150.01464057600001,-33.241432486 150.014699648,-33.241376967500003 150.01483644800001,-33.241273293500001 150.01496454399998,-33.241164495 150.01536995199999,-33.240854694 150.01558092799999,-33.240730041 150.01578899200001,-33.240668214 150.0160608,-33.240571107500003 150.016934496,-33.240366497499998 150.017005504,-33.240346480500001 150.01753824,-33.24019661199999 150.01775388799999,-33.240169269 150.01783046400001,-33.240175466499998 150.01790364799999,-33.240190951 150.01824707200001,-33.240319914499999 150.018582976,-33.240477516 150.018847456,-33.240574474499994 150.01897104,-33.240602872 150.01930144,-33.240610475499999 150.01944588799998,-33.240625553 150.019727456,-33.240719477500001 150.01979744,-33.240760473500004 150.01992720000001,-33.240814734 150.02019443200001,-33.240938480499999 150.02039740800001,-33.241022470499999 150.0205944,-33.241091475499999 150.0208624,-33.241195464 150.021121408,-33.24124645 150.02131740799999,-33.241268465 150.02164640000001,-33.241276457 150.021840416,-33.241254460500002 150.02210636800001,-33.241203456 150.02223699199996,-33.241171007 150.02277737599999,-33.241050461 150.023653344,-33.2408934515 150.02398435199999,-33.2408324385 150.02418835200001,-33.240788445500002 150.02446035200001,-33.240745433 150.02473136,-33.2407254345 150.02546732799999,-33.240620428500002 150.02587132799999,-33.240548445 150.02653632,-33.240444438 150.02686729600001,-33.2403524375 150.027070272,-33.240303412499998 150.027262272,-33.240241419 150.02745228800001,-33.240135414 150.02763929599996,-33.239975426 150.027735296,-33.23986642399999 150.027792288,-33.239733427499999 150.02784928,-33.239519419499999 150.02797424,-33.239205419 150.02805625600001,-33.238308428 150.02810924799999,-33.237965419499993 150.02815699199999,-33.237811999 150.028241248,-33.237666422499998 150.02835724799999,-33.237543397499998 150.02843424,-33.237498405499998 150.02870924800001,-33.237408403 150.029054016,-33.2373410075 150.02959897599999,-33.237263881 150.02967420799999,-33.237379395 150.03003622400001,-33.237996407 150.03013001599996,-33.238168993500004 150.03030323199999,-33.238448399 150.030402208,-33.2386203935 150.030446208,-33.2386814065 150.03054422400001,-33.238791407500003 150.03065721600001,-33.238961404 150.030682208,-33.238995407 150.03078121600001,-33.239125406500001 150.03081321600001,-33.239184403 150.03094620799999,-33.2393524015 150.03096921599999,-33.239405404 150.03100723200001,-33.239469395500002 150.03107123199999,-33.239532406500004 150.03113420799997,-33.239577398500003 150.03118323199999,-33.239652397500002 150.03124422400001,-33.239744398 150.03134121599996,-33.239852401 150.031439232,-33.240021398499998 150.031507232,-33.2401304005 150.03166022400001,-33.240462401500004 150.031922208,-33.241359392500001 150.032012224,-33.241818396 150.03205222399998,-33.241928397 150.03209820800001,-33.242094397500004 150.03218425599999,-33.2427154055 150.03240326400001,-33.243671393 150.032431264,-33.243843406 150.03252326399999,-33.244185397 150.03259625600001,-33.244407397 150.03270825600001,-33.244913409 150.03279024,-33.245312398499998 150.03288425599999,-33.245645398500002 150.03304627200001,-33.2464894055 150.03306428799999,-33.2466614 150.033206272,-33.247339406500004 150.03327328,-33.247619422500001 150.033298272,-33.247791417 150.03336627199999,-33.248076428 150.03346227200001,-33.24836241949999 150.03349027199999,-33.248434421500001 150.03356227200001,-33.248647412 150.03368428799999,-33.248783424 150.03381228800001,-33.248996414499999 150.03388528,-33.249243426500001 150.03407027200001,-33.249709423 150.03531830399999,-33.252847411499999 150.03550432,-33.253315424500002 150.03872435199997,-33.261285428 150.03883433600001,-33.261505411500004 150.038838336,-33.261519416 150.03897833600001,-33.262010424499991 150.03904838400001,-33.262456422500001 150.039110368,-33.263043427500001 150.039119392,-33.263131413499998 150.039132384,-33.263522411 150.039124,-33.263630007 150.03909238400001,-33.263804425 150.03908339200001,-33.263971424499999 150.03906636799999,-33.264138424 150.03902137599999,-33.264359425 150.0388904,-33.264753419500003 150.03877241599997,-33.26514142 150.0386624,-33.265339425500002 150.0386144,-33.265426412499998 150.03859542399999,-33.265478416 150.03855241599999,-33.265540428 150.03784243199999,-33.266880438500003 150.035455552,-33.271203463 150.03530054399999,-33.271657453 150.034971584,-33.272618454 150.034860576,-33.273016481500001 150.03483456000001,-33.273125483500003 150.034703584,-33.273523474 150.03463958399999,-33.273922482 150.034602592,-33.274262475 150.03459260799997,-33.274827483500005 150.0345696,-33.275054478500003 150.034566592,-33.275528467 150.03465664000001,-33.278936481500004 150.034718656,-33.279480474 150.034998656,-33.281974496 150.03520870400001,-33.283896498 150.03521468799997,-33.2839564935 150.03520873599999,-33.285057484 150.035272736,-33.286925484500003 150.03545580799997,-33.290622506 150.035453792,-33.290718502499999 150.03529078400001,-33.2912685075 150.0350928,-33.292079510500002 150.035015808,-33.292364503 150.03494182399999,-33.292548504 150.03426681599998,-33.293893528 150.03416988799998,-33.294234501499993 150.033911776,-33.294844539 150.033855872,-33.294972522 150.033801856,-33.295056530499991 150.033711872,-33.295226527 150.03358284800001,-33.295510539 150.033519904,-33.29585253 150.03327990400001,-33.296433522500003 150.03311990399999,-33.2966445335 150.03299689599996,-33.296756532499998 150.032628,-33.297076527 150.03229891199999,-33.297269556 150.03214291200001,-33.297337543499992 150.03100796800001,-33.297683549 150.030087968,-33.2981915405 150.02929299199999,-33.2985735655 150.02920499199999,-33.2986425705 150.02911699200001,-33.298741564 150.02902499199999,-33.298953574 150.02879897599999,-33.299091565499992 150.026525056,-33.300885584500001 150.02539507200001,-33.301588603 150.02525507199999,-33.301699603 150.02519209599998,-33.301770606 150.024608,-33.301929003 150.024383008,-33.30196300599999 150.024151104,-33.301970609500003 150.022828992,-33.301765000499998 150.02237216,-33.301707595 150.02247616,-33.301805608 150.02280515199996,-33.302171612 150.02298713600001,-33.302318613 150.02362214399997,-33.302677605500001 150.023723104,-33.302708611500002 150.02442310399999,-33.303169613 150.024909248,-33.303395609 150.02531712000001,-33.303420602500005 150.02551907200001,-33.30348156 150.02644009599999,-33.303948611 150.02674208,-33.304084604499998 150.02714009600001,-33.304394590500003 150.02755008,-33.304862585 150.02798009599996,-33.3052455905 150.028901088,-33.306212585499999 150.02897209599999,-33.306142581499998 150.029355232,-33.305893553 150.02954819199999,-33.305712567500002 150.02961705600001,-33.305685594499998 150.02986406400001,-33.305433587499998 150.030160064,-33.305239578 150.03038412800001,-33.305173551499998 150.030913024,-33.305100569 150.03142502399999,-33.305083567499999 150.03187302399996,-33.304922562 150.03261897600001,-33.304727572 150.03259401599999,-33.304843567 150.03256502399998,-33.30494557599999 150.03211500800001,-33.305668574499997 150.03193100799999,-33.30639157299999 150.03195104,-33.306793559499994 150.03252499199999,-33.307958005 150.03301500800001,-33.308750008499999 150.03402304,-33.310380561500004 150.03474204799997,-33.311478573500004 150.034900064,-33.311709564499999 150.034944064,-33.311760569 150.035092064,-33.311986565 150.03525004799997,-33.312194560500004 150.03545404799999,-33.312521566500003 150.035820992,-33.313225991 150.03592304,-33.313390567 150.03612099200001,-33.313841005 150.036237056,-33.314069572500003 150.036396,-33.314347997500001 150.036508064,-33.3146305665 150.03659104,-33.314805558 150.03663404799997,-33.31490856599999 150.03670806400001,-33.315188563499994 150.03676406400001,-33.315466563 150.03680806400001,-33.315748558499998 150.03694304,-33.316369566500001 150.03697404799999,-33.316535567 150.03702,-33.316764005 150.03713609599998,-33.317388565 150.03724707200001,-33.31772656 150.03740307199999,-33.318351564 150.03745209600001,-33.31846056599999 150.03750009599997,-33.318630562500005 150.03763209600001,-33.318972572 150.038065088,-33.319926561500004 150.03812307199996,-33.320098574500001 150.03823008000001,-33.320330564500004 150.038299072,-33.3204405655 150.03835408,-33.320554562499993 150.03838608000001,-33.320608564 150.03847507200001,-33.320884565500002 150.03851408,-33.321048568 150.038524096,-33.3212105725 150.03850208,-33.321428558 150.038380128,-33.321883584 150.03836211199999,-33.322044589500003 150.03833312,-33.322128579500003 150.03794416,-33.323528585499993 150.03786416,-33.323819590500001 150.037812,-33.324003998500004 150.03716918399999,-33.325792597 150.0365472,-33.327423612499999 150.03645622400001,-33.327995595499992 150.0364632,-33.328340602 150.0365152,-33.328685608500003 150.0366272,-33.3289716 150.03669120000001,-33.329090610500003 150.03673020799999,-33.329150606 150.03682220799999,-33.329259608 150.037044224,-33.329703608 150.03717420800001,-33.3300936065 150.03723020800001,-33.330422610499994 150.03722025600001,-33.330755629 150.03717225599999,-33.330974613500004 150.037065248,-33.331197631 150.03696224,-33.331479626499998 150.03670924799999,-33.332101615 150.03660224,-33.332440627499992 150.036560256,-33.332557621499994 150.03644528000001,-33.33312562699999 150.03643926399999,-33.33346562 150.03641299200001,-33.333750002 150.03642326400001,-33.334542634500004 150.03658528,-33.335393634500001 150.03660928,-33.335498640499992 150.03671331199999,-33.335956645 150.036719296,-33.336063649 150.03671331199999,-33.336398647 150.036653312,-33.336674648500001 150.03617734400001,-33.338312657 150.03612732799999,-33.338535656 150.03606633599998,-33.3387636685 150.036045344,-33.33893866 150.036036352,-33.339104660499999 150.03600300799999,-33.339331008 150.035980352,-33.339834652 150.03597532800001,-33.339953662500001 150.03598636800001,-33.341028660500001 150.03602038400001,-33.341365675 150.03603036800001,-33.341539686 150.03609436799999,-33.341931682500004 150.03611036800001,-33.342089672500002 150.03611238400001,-33.342105675 150.03628038400001,-33.342950681 150.03631936,-33.343181672 150.03656537599997,-33.343753673500004 150.03662336,-33.343862675499999 150.036700384,-33.344032672 150.03678736000001,-33.344198672499999 150.03683936,-33.344316684 150.03715936,-33.344928682500004 150.03723737600001,-33.345213675 150.03732499200001,-33.345438006 150.037386368,-33.345665685500002 150.03751936,-33.345999684500001 150.03762140800001,-33.346397675 150.03767340799999,-33.346562676499993 150.0377384,-33.346790670499999 150.03796540799999,-33.347527673500004 150.03807040000001,-33.347766675 150.038165408,-33.347981682 150.038411392,-33.348376675499992 150.03847740800001,-33.348493669499994 150.03855641600001,-33.348603670500005 150.03862140800001,-33.34871868499999 150.03872441600001,-33.348868683 150.038852416,-33.349054682 150.03888841599999,-33.349114677499998 150.0389984,-33.349233669500002 150.0394344,-33.349624685500004 150.03949040000001,-33.349683682 150.03956640000001,-33.349737683500003 150.03983539199999,-33.349866684 150.039877408,-33.349885683499998 150.04010636800001,-33.349995684500001 150.040425376,-33.350161685 150.04044137599999,-33.350169677 150.040649376,-33.350282675 150.04105836799999,-33.350430675 150.04130137600001,-33.350503657499999 150.04146336,-33.350552664 150.04274732799999,-33.350812663 150.043216352,-33.350879651500001 150.04341033599999,-33.350928658 150.04381734399999,-33.351039658 150.043947328,-33.351069646500001 150.04461430399999,-33.351326648499999 150.04480729599999,-33.35141765 150.04501331200001,-33.351564632500001 150.04514630399999,-33.351620632 150.04538832,-33.351792645 150.04668329599997,-33.352632637500001 150.04707030399996,-33.3528836455 150.0488,-33.354024004 150.049496992,-33.354484006500002 150.049768,-33.354644993500003 150.04996528000001,-33.3547886275 150.05029827199999,-33.355042614 150.05041728,-33.355156629499994 150.05061625600001,-33.35531260299999 150.05081523199999,-33.35553859899999 150.05094323200001,-33.355647601 150.051047232,-33.355757602 150.05147424,-33.356268609 150.05154224,-33.356322610500001 150.051880256,-33.356661604500005 150.05228624,-33.356977603 150.05255225600001,-33.357163602 150.052603232,-33.3572206005 150.05285523199998,-33.357391596 150.05417324800001,-33.358247609500005 150.055778016,-33.359223003499999 150.05597520000001,-33.359312580499996 150.056044224,-33.35935859 150.056244,-33.359467999 150.05644220799996,-33.359605583499999 150.05669420800001,-33.359808584 150.05673820800001,-33.359865582499999 150.05680521599996,-33.3599275945 150.05687020799999,-33.359967591500002 150.05690921600001,-33.360015580500004 150.05700422399997,-33.360185577 150.057137216,-33.360352576499999 150.05730598400001,-33.360684004 150.05737721599999,-33.360856590499999 150.05743321599999,-33.360966591500002 150.057644224,-33.361579589 150.05767222399999,-33.361698581 150.05774921599999,-33.361866579500003 150.057824224,-33.362094592 150.0579632,-33.362490584500001 150.05813721600001,-33.362821586500004 150.058321216,-33.363175584 150.0583752,-33.363230584500002 150.05843721599999,-33.363295593499998 150.05853721599996,-33.363402579 150.05872220800001,-33.3635715765 150.0588392,-33.363686591 150.05916620799999,-33.363963591500003 150.05929622400001,-33.364058589 150.0593912,-33.364149590499999 150.0594152,-33.364172586 150.059534208,-33.3642575935 150.05976121599997,-33.364404594500002 150.0599072,-33.364456579500001 150.06004822400001,-33.364488584500002 150.06032620799999,-33.364515594499998 150.06092617600001,-33.364520571 150.06119116799999,-33.364542567500003 150.06132819199999,-33.364564564 150.06165916799998,-33.364611572499996 150.06200419199999,-33.364670569 150.06246518399999,-33.364751562 150.06279417600001,-33.364857567 150.06312819199997,-33.364990563500001 150.063270144,-33.365041568 150.06333315199998,-33.365057570499999 150.06353513600001,-33.365138563499997 150.06367315199998,-33.365165573500001 150.06406713600001,-33.365316552 150.06422816,-33.365401541 150.064271136,-33.365424555 150.06447014400001,-33.365505548 150.064743136,-33.365642540499998 150.06528416,-33.365800549 150.06545216,-33.365853551500003 150.065690144,-33.365928550500001 150.06596300799998,-33.3660019955 150.06629910399997,-33.366080546500001 150.06643910400001,-33.366107556499998 150.06677312,-33.366157543500002 150.06757612799998,-33.366297533 150.06791612800001,-33.366373531 150.06804611199999,-33.366398524499992 150.06871110399999,-33.366601525 150.068850016,-33.366653991 150.06897907199999,-33.3666965225 150.06938307199999,-33.366874529499995 150.06951008,-33.366935524 150.06957907200001,-33.3669785365 150.06967209600001,-33.367025526500001 150.06982707200001,-33.367103522500003 150.07011408,-33.3672985125 150.07024608,-33.367378506500003 150.07055008,-33.367623520500004 150.07059609599997,-33.367682517 150.07071209599999,-33.367787504500001 150.070800096,-33.367955503 150.07085308800001,-33.367833514 150.07108707200001,-33.367438520500002 150.07110908799996,-33.367295515500004 150.07116508799999,-33.367139505 150.07128304,-33.366669512500003 150.07156905599999,-33.366275518 150.07214304,-33.366445477500001 150.072329056,-33.366464495500004 150.07270505599999,-33.366430492500001 150.07459500799999,-33.365973468500002 150.07522899200001,-33.365859471500002 150.075569984,-33.365838474 150.07635299200001,-33.365885482499998 150.07698099199999,-33.365958483500002 150.077064992,-33.365988472 150.07752294399998,-33.366056459500001 150.07796294400001,-33.366152456 150.078877952,-33.366288449500004 150.07916694400001,-33.366310464500003 150.07959395200001,-33.366291465 150.07969696000001,-33.366250450500004 150.07998793600001,-33.366214431 150.08029891199999,-33.366207438 150.08060192,-33.366200445 150.08116592,-33.366156433500002 150.08143692799999,-33.366191435499999 150.08185692800001,-33.366387443 150.08202393600001,-33.366505436 150.08233692799996,-33.36679943799999 150.08274592000001,-33.367324431 150.08293491200001,-33.367787430500002 150.08293292799999,-33.36787343699999 150.08298092800001,-33.367946438 150.08306793599999,-33.368406440500003 150.08298592,-33.368848442500003 150.082783936,-33.3693024325 150.08269392,-33.369428436 150.08223494399999,-33.36990544 150.081749952,-33.370667455 150.081206976,-33.371657464 150.08116499199997,-33.371885458 150.080973984,-33.3724974565 150.08094297599996,-33.372925454 150.081019008,-33.373228447 150.08114902400001,-33.373434463 150.081200032,-33.373512459 150.08124201599998,-33.373562464500004 150.08137900799997,-33.373723451499991 150.08160803199999,-33.374077449 150.08198403199998,-33.374535453500002 150.081986016,-33.37454746 150.082221984,-33.374234458499998 150.08237497600001,-33.374234458499998 150.083244992,-33.375180456 150.083432,-33.375451462500003 150.0842,-33.375653445499999 150.08448998399999,-33.375738434499993 150.08488198399999,-33.375795433 150.085733984,-33.375810436500004 150.08617699199996,-33.375823442 150.086484,-33.375838445500001 150.08687494399999,-33.375838445500001 150.087567936,-33.376003835499993 150.08733097599998,-33.377173442500002 150.087175008,-33.377979006499999 150.08712,-33.378146431499999 150.08706998400001,-33.378326436500004 150.087004992,-33.378515432500002 150.086970976,-33.378663432499998 150.08692003199999,-33.3791764375 150.08683203199999,-33.379470439500004 150.08679801599996,-33.379686445499999 150.08674300799998,-33.3799164375 150.086670016,-33.380331429500004 150.086604032,-33.380479429499999 150.086523008,-33.380646429 150.08643004800001,-33.3808164625 150.08635904,-33.380974452499999 150.089167008,-33.381384431 150.09069820799999,-33.381622211500002 150.090756992,-33.381433419 150.090808,-33.381440412 150.092016992,-33.381609428 150.09202198400001,-33.381763422 150.092112,-33.382469419 150.092400032,-33.383372422500003 150.09256601600001,-33.384058421 150.09257500800001,-33.384423426 150.09257100799999,-33.384504419 150.092569024,-33.384552426500001 150.09254102400001,-33.384816421499998 150.09246502400001,-33.385127425 150.09235504,-33.385543416 150.09215104,-33.38591041899999 150.09180204800001,-33.386341413499991 150.08978508800001,-33.387825446500003 150.08964899199998,-33.387923996 150.08948512000001,-33.388093437500004 150.089314016,-33.388271000499998 150.089140128,-33.388532461 150.08901312,-33.388816454500002 150.088934112,-33.389119447500001 150.08891212799998,-33.389448451499995 150.08896214399996,-33.3897744585 150.089203008,-33.390632007500002 150.08981699199998,-33.392828993499997 150.090648,-33.395798003 150.090685216,-33.396366452500004 150.090685248,-33.397048455 150.09059123200001,-33.397616460500004 150.08984128,-33.399405447500001 150.089764,-33.399391998 150.08885728000001,-33.399237467500001 150.087272,-33.398965998500003 150.08514729599997,-33.39860449 150.08471731200001,-33.398528492 150.08440832,-33.398414495 150.08418032,-33.398277484 150.083416,-33.397627005499999 150.08313529599999,-33.397310507499995 150.08305632,-33.39717851 150.08298601600001,-33.397203004 150.08286832,-33.397251511 150.08271232000001,-33.397335519500004 150.08255331199999,-33.397424504500002 150.081906336,-33.397824511499991 150.081534336,-33.39805352299999 150.08180035199999,-33.398183504 150.08241033600001,-33.398565510499999 150.082945344,-33.398717506499999 150.083708352,-33.398794503499992 150.08435734400001,-33.399366505 150.08451033599999,-33.399977504500001 150.084701344,-33.400665501 150.08489532799999,-33.401023494500002 150.085197376,-33.401581491500004 150.08515936000001,-33.402001497 150.08477737600001,-33.402726512 150.084205408,-33.403872513 150.08386144,-33.404902519 150.083681216,-33.405524785 150.08351843200001,-33.406086519 150.086075456,-33.409713518 150.08565548799996,-33.410973516 150.08275456000001,-33.412576522500004 150.08286860800001,-33.4154395455 150.07779164799999,-33.416050582 150.07704870399996,-33.417018594499993 150.07659971199999,-33.41890861 150.07794576000001,-33.421918578499998 150.079129792,-33.424288576500004 150.07968979200001,-33.424808593 150.079920832,-33.4248876065 150.080085344,-33.424964215 150.08017427199999,-33.424921443 150.0802776,-33.424869236 150.080378752,-33.424815142 150.08047849599998,-33.424759087 150.08053788800001,-33.424721199 150.08065273599999,-33.424639743500002 150.08071212799999,-33.424603113499998 150.08077584,-33.42457386499999 150.08084700800001,-33.424552997 150.08092272,-33.424538585500002 150.08100048,-33.424529317 150.081156736,-33.424516348499999 150.081263648,-33.424510058500005 150.08137091200001,-33.424508708 150.08169456,-33.424514184 150.082116832,-33.424516718500001 150.08239872,-33.4245204 150.08248656000001,-33.424514017500002 150.08253516799999,-33.424510502499999 150.08274144000001,-33.424491429 150.08288256,-33.424474501500001 150.08294412800001,-33.424466306 150.083060416,-33.424447769 150.083293696,-33.424409252 150.08341033599999,-33.4243926945 150.08351616,-33.424382242 150.083728992,-33.424367997 150.083833696,-33.424356878499999 150.08393699199996,-33.424340006500003 150.08402201600001,-33.424316992499996 150.084269632,-33.424230597499999 150.08435459200001,-33.424209008 150.08448348799999,-33.424185957 150.08454899200001,-33.424177317500003 150.084614528,-33.424171749 150.08467968,-33.42416975099999 150.084756,-33.424172008 150.08483305599998,-33.424178945500003 150.08490972799999,-33.424190008499998 150.08498496000001,-33.424205585500005 150.085057312,-33.424225473 150.085115296,-33.424245453 150.08517251200001,-33.424268485500001 150.085228,-33.424293997 150.085281248,-33.424322931 150.08533235199999,-33.4243536225 150.085386016,-33.424390345 150.08543712,-33.424430397500004 150.08544288,-33.424435263 150.08548572800001,-33.42447315099999 150.08553036800001,-33.424518328 150.08557068799999,-33.424565318 150.08562864000001,-33.424659982500003 150.08566752,-33.424765562 150.08569488000001,-33.424877616499998 150.08571721600001,-33.424991632 150.08576147199997,-33.425178038 150.08581187199999,-33.425404478 150.08583059199998,-33.425479532499992 150.08590044799999,-33.425724602 150.08591916799998,-33.425803079 150.08595155200001,-33.425960939500001 150.08597676799999,-33.426119614 150.08604841600001,-33.426877226</coordinates></LinearRing></outerBoundaryIs></Polygon>

	</Placemark>
</kml>