<?xml version="1.0" encoding="UTF-8"?>
<kml xmlns="http://www.opengis.net/kml/2.2">
	<Placemark>
		<Style>
			<LineStyle>
				<color>ff0000ff</color>
			</LineStyle>
			<PolyStyle>
				<fill>1</fill>
				<color>330000cc</color>
			</PolyStyle>
		</Style>
			<ExtendedData><SchemaData>
		<SimpleData name="STATE_2006">1</SimpleData>
		<SimpleData name="POA_2006">2218</SimpleData>
	</SchemaData></ExtendedData>
      <Polygon><outerBoundaryIs><LinearRing><coordinates>151.12951056,-33.970596388499999 151.129659616,-33.97077630099999 151.13033001599999,-33.971584603 151.13110211200001,-33.972516189 151.13113523199996,-33.972556056500004 151.131168352,-33.972592483 151.13039760000001,-33.973129353 151.13028780799999,-33.973205850500001 151.12967113600001,-33.973629482 151.12758169599999,-33.975064804500001 151.12703017600001,-33.975443610500001 151.12631449599999,-33.975935285 151.126032608,-33.976132384 151.12533686399999,-33.976618527 151.12433484799999,-33.977318678 151.12260972799999,-33.978518181 151.121137312,-33.979541138500004 151.120328992,-33.980108811 151.12025603199999,-33.980160056 151.11999216000001,-33.980345814499998 151.11915913600001,-33.980920202500002 151.11842048,-33.981421404500004 151.11835379199999,-33.981360743 151.11793836800001,-33.980941810499999 151.11791641600001,-33.980922626 151.11787104000001,-33.980886273499998 151.11779795199999,-33.980835953499998 151.117666208,-33.980764044 151.11752336,-33.980707841 151.116077152,-33.98024060499999 151.116008032,-33.980218294 151.11566841600001,-33.980129864 151.115298112,-33.98014089 151.11400537599999,-33.9801803135 151.113910688,-33.980174726500003 151.11384083199999,-33.980163478500003 151.11375043199999,-33.980138892 151.11366588800001,-33.980104445 151.11364537599999,-33.98009427 151.113625568,-33.980083558499992 151.11345420800001,-33.979936946 151.11197891199998,-33.978674524500001 151.11166643199999,-33.978254408 151.111646976,-33.978219831499992 151.111683712,-33.978197798 151.11241744,-33.977780900500001 151.11372707199999,-33.977003216 151.113459968,-33.976693618500001 151.1118792,-33.974861582 151.11180144,-33.974771043 151.11038089599998,-33.973126559500002 151.110219968,-33.9729394505 151.10905248,-33.971579904 151.109927296,-33.971056298499995 151.11036179199996,-33.97079691 151.110797408,-33.970536818500001 151.10935164799997,-33.968865417499998 151.10907913599999,-33.968554025499998 151.10888220800001,-33.968342515 151.1090712,-33.968346381499998 151.10916588800001,-33.96835035899999 151.109335808,-33.9683617735 151.10934588800001,-33.96836268 151.109448832,-33.968372041 151.10954963200001,-33.9683831965 151.10995177599997,-33.968438826 151.11025020799997,-33.968474734499999 151.110348832,-33.968488498500001 151.110446752,-33.968505518499995 151.110580672,-33.968533768 151.1107128,-33.968566346499998 151.11077833600001,-33.968584162 151.111059488,-33.96866571 151.11144505599998,-33.968782611500004 151.111548352,-33.968816725499998 151.11172153599998,-33.968879366499998 151.11186192,-33.968928058499991 151.111944,-33.968955327499998 151.11255708799999,-33.969158994 151.11289152,-33.969267718499999 151.113258368,-33.969382011500002 151.11353267199999,-33.969463115499998 151.11367056,-33.969502354 151.11394777599997,-33.969576335500001 151.11416627200001,-33.969630059499991 151.114276096,-33.9696556265 151.11449676800001,-33.969702875499998 151.114637536,-33.969730311 151.114779008,-33.969755693 151.11500041599999,-33.969791342500002 151.11515123199999,-33.969811766500001 151.1152272,-33.969819148 151.11527904,-33.969822385500002 151.11548675200001,-33.969829674499998 151.11560233599999,-33.969838055 151.11570096,-33.9698450665 151.115754592,-33.969846861 151.11582876799997,-33.969846232 151.11597708799999,-33.969837685 151.11629603200001,-33.96981456 151.11640979199998,-33.969804385 151.116218272,-33.96961457499999 151.114636096,-33.967783611500003 151.11377920000001,-33.9667918265 151.11249769599999,-33.965308977500001 151.11211500799999,-33.964861592 151.111562752,-33.964314214 151.111652768,-33.964091825499999 151.11178419199999,-33.963748835499999 151.11180899199999,-33.963685103 151.1121096,-33.962896448 151.11221977599996,-33.96270933899999 151.11230256,-33.962625441499995 151.11237168,-33.962555252500003 151.11271513599999,-33.962332142500003 151.11273702400001,-33.962325667500004 151.11302,-33.962653006499998 151.11309913599999,-33.962742824 151.11317616,-33.962830828500003 151.11325299200001,-33.962918999500005 151.113331136,-33.963008817 151.113409152,-33.963098819500004 151.11348416000001,-33.9631858065 151.11356313600001,-33.963275809 151.113640992,-33.963364997500001 151.11406300799996,-33.963844998499994 151.11426499199999,-33.964081003 151.114344,-33.9641720045 151.11436915199999,-33.964203806 151.11441504000001,-33.964178220500003 151.11477395200001,-33.963981935500001 151.11509472,-33.963790682500004 151.11597744,-33.963264265 151.11615708799999,-33.963157353500002 151.11686448,-33.962735701500002 151.117201088,-33.96253477299999 151.11774908800001,-33.9622087475 151.1186616,-33.961664514500001 151.11888192000001,-33.961924717 151.11953804800001,-33.962699719 151.120146976,-33.963419258 151.12037808,-33.963736052 151.120431712,-33.963809848499999 151.1204472,-33.963830827500004 151.12065168000001,-33.964015494500003 151.12081907199999,-33.964212593500001 151.121405536,-33.964606976500001 151.12150236799999,-33.964672503500005 151.12208700799999,-33.965067423 151.122215872,-33.965146085 151.12225744,-33.965169654 151.12230227200001,-33.965144734500001 151.12253411200001,-33.964994255500002 151.12432998400001,-33.963973666 151.12611504,-33.962959089 151.12619964800001,-33.962933966 151.126249696,-33.962928841499995 151.126370272,-33.962943068 151.12640176,-33.962957812500001 151.12641744000001,-33.962990224499997 151.12646137600001,-33.963060413500003 151.12685411199999,-33.963523561 151.127013952,-33.963709948500004 151.127424,-33.964187766500004 151.12688940800001,-33.964515993500001 151.12725296,-33.964956626499998 151.12819513599996,-33.966063537 151.12895977599999,-33.966962100499991 151.12908729599999,-33.967104828 151.128977056,-33.967156054500002 151.12883737599998,-33.967217789 151.12875132799999,-33.967253253500004 151.128722528,-33.967263502500003 151.1284896,-33.967337132499999 151.12841113600001,-33.967363402499998 151.12830384,-33.967404084 151.12808028800001,-33.967480507499999 151.127853856,-33.967549882500002 151.12762524799999,-33.9676120795 151.12711548799999,-33.967714236500001 151.12731100799999,-33.967941638500001 151.127882656,-33.968632132499991 151.12847411199999,-33.969346029 151.12850902400001,-33.969388616 151.12896083199999,-33.969933533500004 151.12908540800001,-33.970083476 151.12951056,-33.970596388499999</coordinates></LinearRing></outerBoundaryIs></Polygon>

	</Placemark>
</kml>