<?xml version="1.0" encoding="UTF-8"?>
<kml xmlns="http://www.opengis.net/kml/2.2">
	<Placemark>
		<Style>
			<LineStyle>
				<color>ff0000ff</color>
			</LineStyle>
			<PolyStyle>
				<fill>1</fill>
				<color>330000cc</color>
			</PolyStyle>
		</Style>
			<ExtendedData><SchemaData>
		<SimpleData name="STATE_2006">1</SimpleData>
		<SimpleData name="POA_2006">2774</SimpleData>
	</SchemaData></ExtendedData>
      <Polygon><outerBoundaryIs><LinearRing><coordinates>150.64402012799999,-33.721414449500003 150.643963136,-33.721752444499998 150.64393513600001,-33.721915448 150.64390812799999,-33.722077452500002 150.643905152,-33.722094435500004 150.64388012800001,-33.722245451 150.64385414399999,-33.72240643799999 150.64382816,-33.722566444500004 150.64379916799999,-33.722732445 150.64377116799997,-33.7228984455 150.643770176,-33.722906437500001 150.643737184,-33.723089439500001 150.64365017599999,-33.723606440499999 150.643623168,-33.723776437 150.64361718399999,-33.723813437 150.64358816000001,-33.723974442500001 150.6435592,-33.724136447 150.6435312,-33.724302447500001 150.643502208,-33.724463434500002 150.643480192,-33.724639443500003 150.64347721600001,-33.72465444699999 150.64344320000001,-33.724839447 150.64340419199999,-33.725036435 150.64330921600001,-33.72554944 150.643133248,-33.726506445 150.64309424000001,-33.726717419 150.64302224,-33.7271064185 150.64299225600001,-33.727290419500001 150.642928256,-33.727619423500002 150.642851264,-33.728026423500005 150.64264428800001,-33.729215418500004 150.64260131200001,-33.729482429 150.642492288,-33.730100421499991 150.642480288,-33.73018443 150.644719264,-33.730513415499999 150.645056256,-33.730562385 150.64630624,-33.730743389 150.64694323200001,-33.73083637 150.64695424,-33.730837369 150.64703824,-33.7308493755 150.647017248,-33.730940377 150.64697424,-33.731129373 150.64693024,-33.731319368 150.64688723200001,-33.731509363 150.64684323200001,-33.731698377500003 150.646800224,-33.731888372500002 150.646756224,-33.732077368500001 150.646713248,-33.7322673635 150.646701248,-33.732320366 150.64667225599996,-33.732461373 150.646623264,-33.732705369500003 150.64660326399999,-33.732803364 150.646579264,-33.732921375499998 150.64653827199999,-33.733125375 150.64650025599997,-33.733314371 150.64646227200001,-33.733504366 150.64642326399999,-33.733694361 150.64638531200001,-33.7338833755 150.64634729599999,-33.734073370499999 150.64631430399999,-33.734237373 150.64627628799997,-33.734426369 150.64613331199999,-33.734405371500003 150.64551331199999,-33.734315369 150.64548931199997,-33.734311373 150.64504134399999,-33.734245383500003 150.64415532800001,-33.734116383 150.64413532799998,-33.734212379500001 150.64397936,-33.734959391 150.64393936,-33.735153382 150.643900352,-33.735338382 150.64263148800001,-33.741414374 150.642610496,-33.741513367499998 150.64254950399999,-33.741807369500002 150.64251827199999,-33.741954814499991 150.64244172799999,-33.741919627500003 150.64233587199999,-33.741853471499994 150.64222982399997,-33.741821207500003 150.641924512,-33.742731389 150.64144656,-33.744119388500003 150.64132960000001,-33.745569363 150.64057164799999,-33.748033378 150.64066566400001,-33.748104362500001 150.64109964799997,-33.748428371500005 150.64115766399996,-33.748472364500003 150.641995616,-33.748943356 150.642144608,-33.748983353 150.64279363200001,-33.749156346500001 150.642774624,-33.74920835 150.64296060800001,-33.7492313455 150.6434816,-33.749308324 150.643840576,-33.749361326500001 150.64387859199999,-33.749437324500001 150.644066592,-33.749763331499999 150.64449859199999,-33.750552338 150.64460358400001,-33.7507633305 150.64469459200001,-33.750980335500003 150.644752576,-33.75113830699999 150.64480758400001,-33.751298313500001 150.6448496,-33.751436305 150.64471859199998,-33.751442336 150.64380460800001,-33.751671329 150.64363462399996,-33.751807341 150.64355660799998,-33.75174433 150.64343363200001,-33.751674326 150.64322163200001,-33.751590354500003 150.643001664,-33.751549358499993 150.64282364799999,-33.75161335 150.642627648,-33.751775354499991 150.642456,-33.752105006 150.642302688,-33.752618344 150.642077696,-33.753290356500003 150.64186067199998,-33.753674361 150.64172371199999,-33.753825376500004 150.641516704,-33.753870368500003 150.64129500799999,-33.753871996500003 150.64105427199999,-33.753800161 150.640829728,-33.753672363 150.64058272,-33.753514373 150.640401728,-33.753366391500002 150.64012771200001,-33.753103395499998 150.64001673599998,-33.752962388500002 150.639794016,-33.752729991500004 150.63961974399999,-33.752628389500003 150.639452,-33.752600991 150.639287744,-33.752640396 150.639142752,-33.752721389 150.63809900800001,-33.753096994499998 150.636996,-33.752983996499999 150.636344,-33.7526420055 150.63566329599999,-33.752642579 150.63559020799997,-33.752642579 150.63450601599999,-33.752883005 150.63319692799999,-33.7535051415 150.63311289599997,-33.753544472500003 150.63255692800001,-33.754340472 150.63250499200001,-33.754314997500003 150.63239539200001,-33.754259701 150.63231001599999,-33.754221998 150.63227292799999,-33.754205477500001 150.63234083200001,-33.753147666 150.631701472,-33.752369796499998 150.63140412800001,-33.752318033500003 150.631008928,-33.75224949099999 150.630494016,-33.752136992499999 150.63011596800001,-33.751965516 150.62982297600001,-33.751782514 150.62931696000001,-33.751573519499999 150.62894028799997,-33.75144962499999 150.62874300799999,-33.751384523500001 150.628446016,-33.751350539 150.628088,-33.751343527499998 150.627848,-33.751409535500002 150.62745702399999,-33.751395531 150.62709132800001,-33.751360177500004 150.62645484800001,-33.7512513605 150.62629008,-33.751213546500004 150.62572300799997,-33.751154994 150.62462908800001,-33.751477578500001 150.623170144,-33.751525586 150.62150118400001,-33.75167662 150.62093718399998,-33.751561624 150.62060099199999,-33.7513229925 150.620566016,-33.751344008499991 150.61853052800001,-33.752588133499998 150.61851721599999,-33.75273667 150.61850700799999,-33.752850001 150.61848627200001,-33.753432658499996 150.61843001599999,-33.753629998 150.61820627200001,-33.7544286615 150.618211008,-33.754497999500003 150.616872736,-33.754333053499998 150.61598230399997,-33.7542237 150.61588928,-33.754225698 150.61419900800001,-33.754016999500003 150.61410179200001,-33.754005270500002 150.613776992,-33.755812998 150.61376934399999,-33.755936744499998 150.613010368,-33.755841765500001 150.61312764799999,-33.7568328845 150.61295337599998,-33.757791758 150.612630016,-33.7577500035 150.612383392,-33.75777977 150.61219100799997,-33.757804005 150.612202432,-33.757871770500003 150.61228300799999,-33.758341004500004 150.61251542400001,-33.759067777 150.612569632,-33.759238957500003 150.61277241600001,-33.759886753499998 150.61281164799999,-33.7599727785 150.61280540800001,-33.759971761 150.61248041600001,-33.759936777500002 150.61182,-33.759843001 150.61154345599999,-33.759803781 150.61148672,-33.75971997599999 150.61077344,-33.759631786500002 150.60884249599999,-33.75939482 150.60813203199996,-33.759308258499999 150.608067232,-33.759104666 150.60781948799999,-33.759302838 150.60748950399997,-33.759496847500003 150.60724451199999,-33.759677851500001 150.60705052799997,-33.759888844 150.60697552,-33.760130842500004 150.60698752,-33.760345849499998 150.60698153600001,-33.76117585199999 150.60712153599999,-33.761722841500003 150.60716054400001,-33.762180846 150.60701353600001,-33.762521856500001 150.606963552,-33.7625658495 150.60680355199997,-33.7627038595 150.60650857600001,-33.76286986 150.60633558399999,-33.762938865 150.606231584,-33.762950871499996 150.60604156799999,-33.763032863500001 150.605971584,-33.763088863 150.605780576,-33.763171872500003 150.60510761599997,-33.763372893499998 150.6050376,-33.763442879 150.60493462400001,-33.763469889 150.60432460800001,-33.763873892 150.60406460799996,-33.763968908 150.60353763200001,-33.764217899500004 150.60352864000001,-33.764173906499991 150.60338064000001,-33.763941898 150.603302528,-33.763667931500002 150.60324563199998,-33.763237899 150.60305360000001,-33.762775898500003 150.602820608,-33.7625139015 150.60272262399997,-33.762340926500002 150.60272460799999,-33.76225492 150.60257862399999,-33.7619799175 150.60237961600001,-33.761732924 150.60219660800001,-33.761542929 150.60189561600001,-33.761279933 150.60174662399999,-33.761090918500003 150.601683616,-33.760903920499999 150.60169260800001,-33.760560930499999 150.601731616,-33.760389916500003 150.60189161599999,-33.760163920499998 150.60203561599999,-33.760009926500004 150.60205062399999,-33.759994923 150.60227561599999,-33.7598989265 150.60311859199999,-33.759742897500004 150.60323952,-33.759701901500001 150.603686592,-33.759624904500001 150.603788576,-33.759626884 150.60446054400001,-33.75948188099999 150.60489456,-33.75926088 150.60496454400001,-33.759176871500003 150.605004544,-33.758977867 150.60494153600001,-33.75878987 150.60477456000001,-33.758614878499998 150.60420355199997,-33.758217887 150.603933536,-33.7580838915 150.60386656,-33.758010890500003 150.603731552,-33.75796588 150.603259552,-33.757698906500003 150.603055552,-33.757623907500005 150.60227353600001,-33.757422905 150.60164659200001,-33.757195928500003 150.60137657600001,-33.757061933 150.60103657600001,-33.756969932499999 150.600749568,-33.756849941500001 150.59976556800001,-33.756530946 150.59946057600001,-33.756395951500004 150.598971616,-33.756114955 150.598822592,-33.755939963499998 150.598758592,-33.755780956 150.59876358399998,-33.755595956 150.598822592,-33.755324968 150.598836576,-33.754809965 150.598960576,-33.754639968500001 150.59922457600001,-33.754387943 150.59928054400001,-33.754202943 150.599251552,-33.754029949500001 150.59927056000001,-33.753944942 150.59946755199999,-33.753633938500002 150.59952553599999,-33.753376936500004 150.59954953600001,-33.753105948499993 150.59955056,-33.753091944 150.59950553600001,-33.752875938 150.59924656000001,-33.7522979425 150.59911952,-33.751937951 150.59907952,-33.751755948 150.59904352000001,-33.751592944500004 150.59906252799999,-33.750891942500004 150.59934150399999,-33.750696934 150.59948352000001,-33.750541941 150.60046499200001,-33.749674013499998 150.60060649600001,-33.749518928 150.60076944,-33.7491639315 150.60078944,-33.7490649195 150.60074844799999,-33.748504924500004 150.60074345599998,-33.748428926500004 150.60074144000001,-33.7484009175 150.60051001599999,-33.748081015499999 150.60047846399999,-33.74800892099999 150.60041145599996,-33.7479209165 150.600396448,-33.747849932 150.600236448,-33.747444948500004 150.600238464,-33.747373945500001 150.60021046400001,-33.747157939499999 150.60025046399997,-33.746972939500004 150.60032140800001,-33.746859941499999 150.60048841599999,-33.7464189385 150.60054441599999,-33.746247943 150.60055043200001,-33.74601895 150.60041740799997,-33.745872948 150.600317408,-33.745784962 150.600182432,-33.745724966499999 150.600114432,-33.745680955 150.59992742399999,-33.745648968499999 150.599774432,-33.745602959 150.59907241600001,-33.745588973 150.598952416,-33.745600979500004 150.59878144,-33.745597982500001 150.59845744,-33.7455349715 150.59792745600001,-33.745509996500004 150.59741545599999,-33.745545997500002 150.59729744000001,-33.745382994 150.59701046399999,-33.745220009 150.59696144,-33.745133022 150.596928448,-33.745104014 150.59684944,-33.744873023 150.596850464,-33.744844015 150.59683344000001,-33.744801021 150.59682444800001,-33.744514012 150.59676345599996,-33.744241044500001 150.596715456,-33.744140034499999 150.59668444799999,-33.744025038499998 150.59665145599999,-33.743981027 150.596532352,-33.743334063500001 150.596490432,-33.742990056 150.59641340799999,-33.74268706299999 150.596364416,-33.742586053 150.596240416,-33.742125051500004 150.59624652799999,-33.74189604 150.59623542400001,-33.74168107 150.596205408,-33.741566074 150.59617542399999,-33.741393080500004 150.59617740799999,-33.7413360635 150.596130432,-33.74116307 150.596117408,-33.74100508 150.59608739199999,-33.740862075 150.596092384,-33.740690099 150.59616838399998,-33.74043309699999 150.5963304,-33.74013609799999 150.59633337599999,-33.740021083500004 150.596351392,-33.7399790885 150.59632137599996,-33.739849089 150.5963224,-33.739792090500003 150.5962624,-33.739504082499998 150.59626537599999,-33.739390085499998 150.59635936000001,-33.739091088500004 150.596430368,-33.738992095 150.59643136,-33.738963087 150.59645036799998,-33.738951099 150.59651836800001,-33.738908086499997 150.59662435199999,-33.738795088499998 150.59671136,-33.738739089 150.59676435200001,-33.738697094 150.59690336,-33.7386140845 150.59711334400001,-33.738461089499992 150.597869312,-33.737759088499992 150.598130336,-33.737592089 150.59840832,-33.737469064 150.598547328,-33.737386073 150.59868828800001,-33.737245066 150.59868928,-33.737202072 150.59872729599999,-33.737060066 150.598835296,-33.736890069499999 150.598872288,-33.7367760725 150.599016288,-33.736521068500004 150.599052288,-33.73646407 150.59921430399999,-33.736181075499999 150.599408256,-33.735984069 150.59954825599996,-33.73587207 150.59975625600001,-33.735776073499999 150.60022627199999,-33.735484069500004 150.60059424,-33.7352050525 150.60082422400001,-33.734923057 150.60100323199998,-33.734640062499999 150.601041216,-33.734526047 150.60104521599999,-33.734368057 150.60099824,-33.734210067 150.60092320000001,-33.733850075500001 150.60075312000001,-33.7335334295 150.59821721599999,-33.73299713299999 150.59117830400001,-33.728514324 150.591172,-33.728459009 150.59106499200001,-33.728216992 150.59089328,-33.728170353499998 150.59082428799999,-33.728177346500004 150.59070428800001,-33.728039355 150.590679008,-33.727819001500002 150.59090528,-33.7274633575 150.591076,-33.726954996 150.591068256,-33.726695367 150.590811264,-33.726435368 150.590215008,-33.726385991500003 150.590176,-33.726345994500001 150.59016428800001,-33.726285388500003 150.59017728000001,-33.726155389 150.59016528000001,-33.725996381500003 150.59013529599997,-33.72589539 150.59011526399999,-33.72574739 150.590111264,-33.72559239699999 150.59017225599999,-33.725444397 150.590247264,-33.725185397 150.59025225600001,-33.725084405499999 150.59022627199997,-33.725062409 150.59015244799997,-33.725055416 150.59006601600001,-33.725053991499998 150.59001926399998,-33.725036398 150.59003545600001,-33.725012755 150.590232,-33.724723008 150.590324256,-33.724359409 150.590357216,-33.723739418500003 150.59045824,-33.723252424500004 150.590471232,-33.723196425 150.59048224,-33.723170432499998 150.59049824,-33.723147418499998 150.59051856,-33.723127531 150.59111820800001,-33.7226614235 150.59143020799999,-33.72241942499999 150.59336912000001,-33.720913395499998 150.59356713599999,-33.720760382 150.593571776,-33.720756645 150.59345814400001,-33.720597378500003 150.59332512,-33.72039941 150.59317513600001,-33.720146404 150.59304313599998,-33.719885406 150.59294912,-33.719571424 150.59285612799997,-33.719290427499999 150.59279712,-33.719030428499991 150.59275513599999,-33.71874144 150.59270908799996,-33.71828745 150.592729088,-33.717858435 150.59275708800001,-33.717410420500002 150.59277110399998,-33.71723742699999 150.592817088,-33.716965421499999 150.59286806399999,-33.716754429 150.592929056,-33.716567431 150.59293808000001,-33.716517425500001 150.59303907200001,-33.716178413 150.59310406399999,-33.715998408 150.59317907199997,-33.715847411 150.59327408,-33.715645409499999 150.59337904,-33.715386409499999 150.59346604800001,-33.715188385499999 150.59348403199999,-33.715137381 150.59352803199999,-33.714907389 150.59353536,-33.714818385500003 150.59354102399996,-33.714818385500003 150.594719008,-33.714993377 150.595384,-33.715092352 150.595486016,-33.71509435 150.595588,-33.715139323500004 150.59579299200001,-33.715129333500002 150.59647798399999,-33.71512831599999 150.59695696,-33.715137307 150.59745596799999,-33.715061290500003 150.59769696000001,-33.715008269500004 150.59773097600001,-33.715009268500005 150.59795494400001,-33.714985274 150.59814595200001,-33.714874274 150.598407936,-33.714693251500002 150.598476928,-33.714665261 150.59856492799997,-33.714581252500004 150.59873795199999,-33.714499260499998 150.59883993599999,-33.714482259 150.598892928,-33.714473249500003 150.59904595200001,-33.714505236 150.599114912,-33.714491231499998 150.59923491199999,-33.714508233 150.599543904,-33.714457247 150.59966390400001,-33.714442243500002 150.60069488,-33.714307193499998 150.60079888000001,-33.71428120099999 150.60105488,-33.714286196 150.60110588800001,-33.714301199499999 150.60117488,-33.71430218 150.601276864,-33.714333186 150.601481888,-33.714337182 150.60149788800001,-33.714334185 150.60168787200001,-33.71429818399999 150.601773888,-33.714300182 150.60198086399998,-33.7142321575 150.60213683200001,-33.714192160499998 150.60220585600001,-33.714150165500001 150.60251785599999,-33.714013154500002 150.602570848,-33.713971141 150.60265683200001,-33.713930145 150.60318182399999,-33.713525124500002 150.6032688,-33.713483129499998 150.60332182400001,-33.71342713 150.60335580799998,-33.713428129 150.60347782400001,-33.713344120499997 150.60349481599999,-33.713359124 150.60379980799999,-33.713451106 150.605247776,-33.713708089500003 150.60531676799999,-33.713695084 150.60545379199999,-33.713712067 150.60584678399999,-33.7137200775 150.60612179200001,-33.71368206 150.606261792,-33.713599050500001 150.60643673600001,-33.713430053 150.60671574400001,-33.713249030500002 150.60680275199996,-33.713208034499999 150.60716976,-33.712929036 150.60725776000001,-33.712830042500002 150.60756070400001,-33.712406022499998 150.60768470400001,-33.712280019 150.607857728,-33.71219699099999 150.60840572800001,-33.7121789905 150.60874969599999,-33.712142971 150.60899068799998,-33.712060979 150.60909568,-33.712005978500002 150.609129696,-33.712006977500003 150.60930569600001,-33.711961967 150.60933667200001,-33.711952957500003 150.60937068800001,-33.711967961 150.60969568,-33.711974954 150.60976268799999,-33.712004961 150.61063664,-33.71197895 150.61080764799999,-33.711981928500002 150.61098064000001,-33.711913922500003 150.611186656,-33.711888929 150.61142860800001,-33.71189092699999 150.61200060799999,-33.712190904499998 150.61228662400001,-33.7123689115 150.61245561600001,-33.712457896499998 150.61264163199999,-33.712518891 150.61318662400001,-33.712629872500003 150.61337462399999,-33.712646874 150.613697632,-33.7127108655 150.61396857599999,-33.712830856499998 150.61442057599999,-33.713197859499999 150.61453760000001,-33.71329985 150.61459158400001,-33.713323844500003 150.61467257599998,-33.713359845500001 150.6148776,-33.713392831 150.615236576,-33.71339982399999 150.6155456,-33.713347820500005 150.615632576,-33.713335814 150.6158896,-33.713325805499998 150.615991584,-33.713342807 150.61609456,-33.713344805 150.61643356799999,-33.713436787 150.61711056,-33.713736801499998 150.61739955199999,-33.713784772 150.61760556799996,-33.713779777 150.61774256,-33.71377678 150.61823952,-33.71375776199999 150.61878652799999,-33.713782737 150.61907852799999,-33.713759741499999 150.61959452799999,-33.713683725 150.61973049599999,-33.713640712500002 150.61976649599998,-33.713629723499999 150.61999148800001,-33.713547713 150.62005948800001,-33.713549711 150.620163488,-33.713522701 150.62042150400001,-33.713484702 150.621054496,-33.713467682 150.621346464,-33.713445685499998 150.621502464,-33.713362676 150.62158768,-33.713306029 150.62178745599999,-33.713632683500002 150.62187299199999,-33.713774005 150.62197945599999,-33.714116680499998 150.62203545599999,-33.714257687500002 150.62234444800001,-33.714561679500001 150.62259347200001,-33.714825674499998 150.622659008,-33.714902005500001 150.62281347199996,-33.715024660499992 150.622843456,-33.715071669 150.62295446399997,-33.715226662 150.62307046399999,-33.715418673500004 150.62326246399999,-33.715750674500001 150.62340499199996,-33.715949993500004 150.62366147199998,-33.716292669 150.623856,-33.716560993 150.62404499199999,-33.716753004499999 150.62422044799999,-33.716972673500003 150.62436499200001,-33.717290004 150.624547936,-33.717228399 150.62448950399997,-33.717601673499999 150.62444601600001,-33.718298994 150.62442,-33.719480996 150.62441724799999,-33.719625185 150.62436576,-33.719928936500004 150.62437081600001,-33.720144036 150.62434019200001,-33.720554514 150.62433516799999,-33.720689064499993 150.624330496,-33.720824429 150.62427683199999,-33.721208729499999 150.62420627200001,-33.721440386499999 150.62411737599999,-33.721606535 150.62404755200001,-33.721801673 150.624016576,-33.721977663499999 150.623960576,-33.722139668 150.62386857599998,-33.7224286565 150.62378579200001,-33.722847903500003 150.62375232,-33.723012239 150.623761312,-33.723227153499998 150.62370553599999,-33.723383848499999 150.62359859200001,-33.723525151499999 150.623372512,-33.723635578 150.62322348800001,-33.723746633499999 150.62327065599999,-33.723775715500004 150.62341753600001,-33.723829717 150.62361155199997,-33.723920515 150.62382396799998,-33.724074509 150.6238416,-33.724154244 150.623850976,-33.724235348 150.62385276800001,-33.724275844499999 150.62384809599999,-33.724338578 150.623835488,-33.724401293 150.62380345599996,-33.724527037500003 150.623792288,-33.724590215 150.62378761599999,-33.724655908500004 150.62378617600001,-33.724854006499996 150.623783296,-33.724919885 150.62376816,-33.7250688285 150.623738656,-33.725291846 150.62373324800001,-33.725367363 150.62372748799999,-33.725520006499998 150.623717056,-33.725593895499998 150.623694016,-33.725663918 150.623664832,-33.725709631500003 150.62365836799998,-33.725719973 150.62360976,-33.725772365 150.62355792,-33.725823480500004 150.62351184,-33.725876039 150.62348089599999,-33.725932297500002 150.62347008,-33.725970981 150.62346396800001,-33.726010867 150.623460352,-33.726051456 150.62345820799996,-33.726132634 150.623460352,-33.726213090500003 150.623469728,-33.726293732 150.623484128,-33.726374373500001 150.623529856,-33.726607473500003 150.62357881599999,-33.726823109500003 150.62359139200001,-33.726895296500004 150.62359644799997,-33.726944525 150.62360112,-33.727043888499999 150.62360688000001,-33.727092562 150.623619136,-33.727139644499999 150.62362848000001,-33.727160161 150.62366124799999,-33.7272203785 150.62366771200001,-33.727240987499997 150.62366915199999,-33.72727401 150.623662688,-33.727308124 150.62362883200001,-33.727412334500002 150.62358889599997,-33.727557689 150.62357772799999,-33.727606196 150.62357052799999,-33.72765507299999 150.62356944,-33.727723467499999 150.62357628800001,-33.727792491 150.62359248000001,-33.727886008500001 150.62364576,-33.728196068500004 150.623702272,-33.728489367500003 150.6237624,-33.728773953 150.62378003200001,-33.7288689875 150.623791936,-33.728964392 150.62379852800001,-33.729067437 150.62382755199999,-33.729034673500003 150.62386355199999,-33.7289786925 150.62394771199999,-33.728791639 150.62399171199996,-33.728694643499992 150.62404969599999,-33.728451646 150.62408768,-33.72830964 150.62430668799999,-33.727826642 150.62444969599997,-33.727614650500001 150.62480064,-33.727291640499999 150.62486966399996,-33.727250644500003 150.62501065599997,-33.727109656 150.62508364799999,-33.727042649 150.625133664,-33.726997638500002 150.625158656,-33.7269576415 150.62518764800001,-33.726912649500001 150.62520665599999,-33.726826643 150.62536656,-33.726629618 150.625403616,-33.7265296255 150.62562163199996,-33.726089621500002 150.62581561600001,-33.725864624499998 150.625833632,-33.7258216305 150.62609760000001,-33.72555462 150.626516576,-33.725276620500004 150.62667859199999,-33.72499262699999 150.626697568,-33.724907619500001 150.62676956799999,-33.724794621500003 150.626796544,-33.724695628 150.626807552,-33.724651635 150.62701756800001,-33.724483636500004 150.62754169600001,-33.7241356145 150.62769852799997,-33.724009629500003 150.62787251200001,-33.723898611 150.62808451199999,-33.723673614 150.62820652799996,-33.723575601 150.628293536,-33.723534605 150.62841452800001,-33.723507613500004 150.62851648,-33.723509611499999 150.628721504,-33.723527612 150.62904448,-33.723634616 150.62938249600001,-33.723784614 150.62958448,-33.723902588500003 150.62993948799999,-33.724081594499999 150.63003948799999,-33.724169599 150.63015849599998,-33.724214591 150.63024249599999,-33.72425958299999 150.63063248,-33.724395595 150.630667456,-33.724381590500002 150.63071846400001,-33.724397593 150.63075244800001,-33.724383588500004 150.63090745599996,-33.724357577500001 150.63140745599998,-33.724238567 150.63156147199999,-33.724226579 150.63185446400001,-33.724160571 150.63202643199998,-33.724121573 150.63278144,-33.724092546500003 150.63284944,-33.724094563 150.63296841600001,-33.724110547 150.63324041600001,-33.724187562499999 150.6334944,-33.724278545499999 150.6339864,-33.72447355399999 150.63407139200001,-33.724489556500004 150.634515392,-33.724526538 150.63475539199999,-33.724517528500002 150.635064384,-33.724494533 150.635288352,-33.724427544500003 150.63556537599999,-33.7243175435 150.63589619199996,-33.724094489 150.63601836800001,-33.724039525500004 150.63653532800001,-33.723920515 150.63660332800001,-33.723922513 150.63682732800001,-33.723869510499995 150.63694732799999,-33.723871508500004 150.637102336,-33.723845516 150.63737734399999,-33.723779526500003 150.637844288,-33.7236304905 150.63793030400001,-33.723618502500003 150.63798230399999,-33.723576507499999 150.63810729599999,-33.723392506499998 150.63816028799999,-33.723336507 150.63823030399999,-33.723280507499993 150.63837030400001,-33.723182494500001 150.63856025600001,-33.723100502500003 150.63885328000001,-33.723048499 150.63904128,-33.723037491500001 150.63909328,-33.723024504500003 150.63923027199999,-33.723026502499998 150.63947126400001,-33.722988503499991 150.639610272,-33.72291948 150.63971523199999,-33.722835471499991 150.63985324800001,-33.722781488500004 150.640116224,-33.7225704775 150.64020624,-33.722386476499999 150.64021324800001,-33.722143479 150.64016224,-33.722113472 150.64011222400001,-33.722055474500003 150.63971024,-33.721761491 150.639576224,-33.721629493500004 150.63937824000001,-33.721368495500002 150.639281248,-33.721165495 150.63919923200001,-33.721035495500004 150.63920124800001,-33.720977498 150.639168224,-33.720905496 150.63908822400001,-33.720717499 150.639091232,-33.720603502 150.63907536,-33.720560545 150.63911222399997,-33.720446492500002 150.63931020800001,-33.720091496 150.6393632,-33.720035496500003 150.63950921599999,-33.719709508 150.6396072,-33.719252502499991 150.63958617599999,-33.718764491 150.639571168,-33.718692507500002 150.63957916800001,-33.718392493 150.63953318399999,-33.718205495 150.63952316800001,-33.717976502 150.63952217600001,-33.717961498500003 150.639541184,-33.7179045 150.63976016000001,-33.717407497499998 150.63980214399999,-33.717121506 150.639765152,-33.716591499499998 150.63977612799999,-33.716204498 150.63987212800001,-33.715819476 150.640054112,-33.715421485500002 150.64007110399999,-33.715422484500003 150.640244096,-33.715354478499997 150.64072611200001,-33.715277481500003 150.64101811200001,-33.715239482500003 150.64120707199999,-33.715200484500002 150.64141308799998,-33.715189458499999 150.64146406399999,-33.7151904575 150.64163507200001,-33.715222462500002 150.64212806399999,-33.715332463500005 150.64240108800001,-33.715352462 150.64243606400001,-33.715352462 150.64257308800001,-33.715340455499998 150.64265808,-33.715356458 150.64271008,-33.715343471 150.64283004799998,-33.715331464500004 150.64312403199997,-33.71522244399999 150.64334905600001,-33.715126447499991 150.643417056,-33.715127446499999 150.64347004800001,-33.715100436500002 150.64365900799999,-33.715074999 150.64427500799999,-33.715086450500003 150.64493900799997,-33.715214433499995 150.64502502400001,-33.715201428 150.645076,-33.715216431500004 150.645144,-33.715217430500005 150.64543702399999,-33.715166426 150.64607596799999,-33.714934417500004 150.646523968,-33.714828412500005 150.64669596799999,-33.714803400500003 150.64709094400001,-33.714767399499998 150.64712496000001,-33.714768398499999 150.64727894399999,-33.7147854 150.648009952,-33.714957394500004 150.64894691200001,-33.715132386 150.64913491199999,-33.7151503865 150.64923692799999,-33.715159396 150.649356928,-33.715169386 150.64951091200001,-33.715172383 150.64998992,-33.715152366 150.650192928,-33.715108373 150.65023190400001,-33.715099363500002 150.65050889599999,-33.714961372 150.65097488000001,-33.714827376500004 150.65152588800001,-33.714723351 150.65162889600001,-33.71472534899999 150.65167984000001,-33.714712343500004 150.65193584,-33.714745347499999 150.65227584,-33.714852351499999 150.652989856,-33.715023328500003 150.65307584000001,-33.715024327500004 150.653125856,-33.71504033 150.653486848,-33.715018333499998 150.65372982400001,-33.714879306 150.65383283200001,-33.714881322499991 150.65440281599999,-33.714692308 150.654488832,-33.714679321 150.65454083200001,-33.714651312 150.65472982399999,-33.714597310499997 150.65481782399999,-33.71454231 150.65502377600001,-33.71448829 150.65523177599997,-33.714406298 150.6553688,-33.714409295 150.6556608,-33.714386299499999 150.65577878399998,-33.714460299500004 150.65577779200001,-33.714474304 150.656705824,-33.714497503 150.655681792,-33.715504254500004 150.65534774400001,-33.716865355 150.65491561600001,-33.716814017499999 150.65446886399999,-33.716747306500004 150.653645856,-33.716624337 150.65293888,-33.716519349500004 150.65203987199999,-33.716385354 150.649671904,-33.716031393500003 150.64907299199999,-33.7188924 150.64894102400001,-33.719522399 150.64843904,-33.7218523815 150.646288064,-33.721537419 150.64509411200001,-33.721363426499998 150.64405315199997,-33.721212448 150.64402012799999,-33.721414449500003</coordinates></LinearRing></outerBoundaryIs></Polygon>

	</Placemark>
</kml>