<?xml version="1.0" encoding="UTF-8"?>
<kml xmlns="http://www.opengis.net/kml/2.2">
	<Placemark>
		<Style>
			<LineStyle>
				<color>ff0000ff</color>
			</LineStyle>
			<PolyStyle>
				<fill>1</fill>
				<color>330000cc</color>
			</PolyStyle>
		</Style>
			<ExtendedData><SchemaData>
		<SimpleData name="STATE_2006">1</SimpleData>
		<SimpleData name="POA_2006">2749</SimpleData>
	</SchemaData></ExtendedData>
      <Polygon><outerBoundaryIs><LinearRing><coordinates>150.72367536,-33.705723304500005 150.72364035199999,-33.70582729299999 150.72318438399998,-33.707172317 150.72251641599999,-33.708528311500004 150.72226844799999,-33.709318335499994 150.72219545600001,-33.70996134 150.72216944,-33.710753325 150.72220444800001,-33.710966334 150.72223145599997,-33.711309342500002 150.72233344,-33.71199634 150.72238348799999,-33.712284329500001 150.722706464,-33.713051321 150.72285948799998,-33.713349319 150.722907488,-33.713413310500002 150.72306048,-33.713599309500005 150.72320448,-33.713748308500001 150.72323148800001,-33.713776317499999 150.72333248000001,-33.713888316500004 150.72334448,-33.713899324 150.72336848,-33.713920321499991 150.72342246400001,-33.713967311499999 150.723472448,-33.714010324 150.723796448,-33.71423632 150.72396745599997,-33.714329301 150.72422944,-33.714492304499998 150.72450844799999,-33.714664299 150.724774432,-33.714819292 150.72496144,-33.714977282 150.72529344,-33.715291282500004 150.7254192,-33.715437118 150.72588035199999,-33.715955432500003 150.72608051200001,-33.716348187500003 150.72612012799996,-33.716501275 150.72619104,-33.716776222 150.72623424,-33.717249452 150.72619356800001,-33.717525564500001 150.72616441599999,-33.717784324 150.72610249600001,-33.71803326 150.725926816,-33.718391272 150.72577523199999,-33.718666311500002 150.72576409600001,-33.718682258500003 150.72548761600001,-33.719068612500003 150.725260096,-33.719286690499999 150.72503292799999,-33.719486305499998 150.724556288,-33.719894286 150.7240584,-33.720283341 150.723972,-33.7203551765 150.72350256,-33.720745508 150.72303673600001,-33.721172284499993 150.722852768,-33.721418871 150.72270083199999,-33.721712558500002 150.722515808,-33.722203863 150.72235417600001,-33.722684197 150.72211440000001,-33.723365219 150.721857376,-33.723964896499993 150.72170867200001,-33.724356301 150.721197472,-33.725701806 150.72085404800001,-33.726496418 150.72047244800001,-33.727379312 150.72036227199999,-33.7276345565 150.71945363200001,-33.729759540499998 150.719328,-33.730053838499998 150.718648032,-33.731512434 150.71834700799999,-33.732156234 150.71827715200001,-33.732306269 150.71820204799999,-33.732543568499999 150.7181832,-33.732603083 150.71791033599999,-33.733746531 150.717861376,-33.733973156 150.717763072,-33.73435673499999 150.71757299199999,-33.735100416500003 150.71197296,-33.734294501 150.71173094400001,-33.734259499 150.71084198400001,-33.734108520500001 150.71003398400001,-33.733897528 150.70969398400001,-33.733765530500001 150.709396032,-33.733625541 150.70932102399999,-33.733579531499998 150.708855008,-33.733264532 150.70883801599999,-33.733251545 150.708449024,-33.732896548500001 150.70834502400001,-33.732797555 150.70809603199999,-33.732579551 150.70788003199999,-33.732419563 150.707754016,-33.732340549500002 150.70764201599999,-33.7322695465 150.707481024,-33.732166557 150.70737603200001,-33.732118568 150.70717203199999,-33.732034578 150.707134016,-33.732021572500003 150.70694601599999,-33.731940579499991 150.70674905600001,-33.73188458 150.70650806399999,-33.731794577500004 150.706021056,-33.731695565500004 150.70482208000001,-33.7315235895 150.70257011199999,-33.731192624500004 150.69999216,-33.730809674500001 150.69543424,-33.730138716500001 150.69539324799999,-33.730136718499999 150.69473024000001,-33.730053746 150.694556256,-33.730032748500001 150.694432928,-33.730639733499999 150.69427027200001,-33.731401748499991 150.69427628799997,-33.731508734 150.69429228800001,-33.731640731499994 150.69428428800001,-33.731838737 150.69427331200001,-33.731928739499992 150.69419232,-33.732359734 150.694162304,-33.7325167435 150.69410832,-33.73279774 150.69389932799996,-33.73387173899999 150.693713344,-33.734539737 150.69368332799999,-33.734689735 150.69366332800001,-33.734793742 150.69339238399996,-33.736169735 150.69331737600001,-33.736551741500001 150.69266742400001,-33.739877745500003 150.69243945599996,-33.741073733500002 150.69238646400001,-33.741375746 150.69226345600001,-33.742081743 150.69222950399998,-33.742264745 150.69193651200001,-33.743328735499993 150.69186649599996,-33.743561743 150.69180252799998,-33.743754735 150.691704544,-33.743957735500004 150.69135452800001,-33.744808754 150.69130953599998,-33.744908765 150.691268544,-33.744993754 150.691245536,-33.745042760499999 150.69109456000001,-33.745361756 150.69098156800001,-33.745596761499996 150.69085356799999,-33.745855761499996 150.69083456000001,-33.7458907635 150.69075856000001,-33.746000764500003 150.69066857600001,-33.746147765499998 150.690546592,-33.746320759 150.69026460800001,-33.746723763 150.69017059199999,-33.746836761 150.69004758400001,-33.746984761 150.68972700800001,-33.747307382500004 150.689275936,-33.747602938499995 150.68903004800001,-33.747915607 150.688781632,-33.748320683 150.6887496,-33.748377478 150.688728672,-33.748427779499998 150.68870764799999,-33.748502778500004 150.688400672,-33.748427779499998 150.687996672,-33.748334798500004 150.687871648,-33.748305790499998 150.687307648,-33.748194790499994 150.68725968000001,-33.748190794500005 150.68721168,-33.748185799499993 150.68706768000001,-33.748167799 150.68695270399999,-33.7481478005 150.68683868799999,-33.748122788499998 150.68661369599999,-33.748062793 150.68635568,-33.747993806499998 150.68621270400001,-33.7479498135 150.68578268799996,-33.747816817 150.68563868800001,-33.74777582099999 150.68534972800001,-33.747693810500003 150.68532371199998,-33.747685818500003 150.68520672,-33.747649817499997 150.68515104,-33.747630577500004 150.6849696,-33.747545699500002 150.684769088,-33.7474376965 150.68440441600001,-33.747253196 150.68425465600001,-33.747171481500004 150.68416105599999,-33.747120088500004 150.68408905599998,-33.747086511 150.68402569599999,-33.747056911 150.68360665599999,-33.746829028 150.68313900800001,-33.746578205 150.682968,-33.746474697499998 150.682850656,-33.746403787 150.68272377599999,-33.746332025500003 150.682004992,-33.745926154 150.68157923199999,-33.745703784 150.68362265600001,-33.742512848499992 150.684519712,-33.741239345499999 150.68511865599999,-33.740756828500004 150.68534870400001,-33.740363481500005 150.68534060799996,-33.740074826 150.68533360000001,-33.739841837 150.68530457599999,-33.738821839499998 150.68476256,-33.7362168545 150.68462444799999,-33.735618564500001 150.68318857599999,-33.734425869499994 150.68227171199999,-33.735058884 150.68029523199999,-33.733534280500002 150.67972099199997,-33.733337995500001 150.678955616,-33.733177952 150.67692467200001,-33.733264273 150.67507232,-33.734169515 150.672866656,-33.734542734 150.67220784,-33.734947717499999 150.67068009600001,-33.735273280500003 150.66396764799998,-33.734939762499998 150.661542368,-33.73366132 150.65983324800001,-33.731763497500005 150.657580032,-33.7303902425 150.656687968,-33.730470144 150.65507820799999,-33.729023962 150.654641024,-33.727200287500004 150.65397744000001,-33.724289534500002 150.65447891199997,-33.722106312500003 150.65496784000001,-33.7178183085 150.65534774400001,-33.716865355 150.655681792,-33.715504254500004 150.656705824,-33.714497503 150.65686259200001,-33.7143279505 150.6571448,-33.713806287499999 150.6572232,-33.713154199500003 150.657834624,-33.710624139499998 150.65869856,-33.705011202500003 150.65997036799999,-33.694258133 150.65951932799999,-33.68998911 150.65947830399998,-33.689374114499998 150.65921286400001,-33.687322057499998 150.65897526399999,-33.685494109499999 150.657889184,-33.677031136499998 150.65894108800001,-33.673076132499993 150.660753024,-33.669754106 150.66132790399999,-33.669686525499998 150.661771552,-33.669526278500001 150.66442694400001,-33.668294049 150.665726912,-33.667697479499999 150.667143872,-33.666432042499999 150.66739692799999,-33.665685789500003 150.66748064000001,-33.665435225499998 150.667631328,-33.664752446 150.66780710399996,-33.664606129500001 150.667723392,-33.66389548899999 150.667748512,-33.663630717 150.66791593599999,-33.663122115 150.667815488,-33.662104892499997 150.66759782400001,-33.661059587 150.667589472,-33.660955080499996 150.66741366400001,-33.660794833499999 150.66735507199996,-33.660711232 150.66723788799996,-33.660634586500002 150.66718764800001,-33.660474358 150.667204384,-33.660139915 150.667313216,-33.659798534499998 150.66753088,-33.659450179499999 150.667405312,-33.658871906500003 150.66729648,-33.657819867 150.66766899199999,-33.65646822 150.66743459200001,-33.654600941 150.667560544,-33.653647358500002 150.66777065599999,-33.652872005 150.66805404799999,-33.650918164499991 150.66891001600001,-33.649236995500004 150.66968153600001,-33.647137948500003 150.67228739199996,-33.641172882500001 150.67460329599999,-33.637118829500004 150.67720912,-33.630806777499998 150.67727811200001,-33.630697775500003 150.67935203199997,-33.627447732500002 150.68036995200001,-33.626319713500003 150.68149392000001,-33.6250737015 150.68261289599999,-33.62432669 150.68340585599998,-33.62342766399999 150.68521382399996,-33.62203565 150.68551184,-33.622156621500004 150.68588182400001,-33.622188626499998 150.68616073600001,-33.622092815 150.686495552,-33.622023107 150.68671321599999,-33.622023107 150.686997824,-33.622078866 150.68723222400001,-33.62214857399999 150.687399648,-33.622329818499999 150.6875336,-33.622441355 150.687650784,-33.622497114 150.68780281599999,-33.622523606 150.68830780799999,-33.622463610499999 150.688797792,-33.622363599499998 150.68924576000001,-33.622272598 150.689607776,-33.6222205945 150.69001977600001,-33.622113572 150.69059276799999,-33.621921579 150.690934752,-33.621827580500003 150.691452736,-33.621668554499998 150.69188473599999,-33.621513561499995 150.69229174399999,-33.621326563499998 150.69275171199999,-33.621097533499992 150.693333696,-33.6207945405 150.69370771199999,-33.620568544500003 150.69400368000001,-33.6203365175 150.69436438400001,-33.620099181 150.69506758399999,-33.619374221500003 150.69536892799999,-33.618997802 150.695620064,-33.618663211 150.69602188799999,-33.618063718500004 150.69649065600001,-33.617645470500001 150.69694268800001,-33.6171714635 150.69700966400001,-33.616544091500003 150.697344512,-33.616125843500001 150.69771158399999,-33.615663436 150.699088512,-33.614211426499992 150.69951449600001,-33.612879408 150.69952147199999,-33.6126113985 150.699797472,-33.61255340099999 150.70005449600001,-33.612357412 150.70026448,-33.612385384 150.70090499200001,-33.612470003 150.70103929599998,-33.612486819499999 150.70109849599999,-33.61241639 150.70141081599999,-33.612410155499994 150.703340416,-33.612693390499999 150.704066176,-33.612804446 150.70435561599999,-33.612848642499998 150.706802176,-33.613214942500001 150.70688819200001,-33.613227818499993 150.70784976,-33.613371804 150.708106816,-33.613410247 150.708280672,-33.613436332 150.70839984,-33.613454166 150.7084416,-33.613460456 150.70859539200001,-33.6135242995 150.70882048000001,-33.613603535 150.71088348800001,-33.614331029 150.71101440000001,-33.61437628 150.71107456,-33.614324406 150.71125001600001,-33.614493995499998 150.711334016,-33.614433001 150.71151001599998,-33.614613006 150.711670016,-33.6144959935 150.71184438399999,-33.614368251 150.71238499200001,-33.614891005499992 150.712612992,-33.615112006499999 150.71266499199996,-33.615161993500003 150.71273299200001,-33.615227002499999 150.71299100799999,-33.6150829985 150.713130976,-33.615052917500002 150.71314176000001,-33.615068753500005 150.71315939199999,-33.615084330500004 150.71318064,-33.615097928 150.71320297599999,-33.615107825499997 150.71322419200001,-33.615112228500003 150.71538348799999,-33.615836818 150.71543497600001,-33.615852746500003 150.717965056,-33.616634575 150.719826592,-33.617209684500004 150.720012352,-33.617265480500002 150.720530048,-33.617466002 150.72142681599999,-33.61797108899999 150.72119136,-33.619088248499999 150.72101891200001,-33.619947666 150.72055091199999,-33.622292781500001 150.72035235199999,-33.623427183 150.71916745600001,-33.628962235 150.71315059200001,-33.628126331 150.71254956799999,-33.631448302 150.71239081600001,-33.63232616399999 150.71208265600001,-33.633670411 150.71157504000001,-33.635886748 150.71138675200001,-33.6368157255 150.710918784,-33.639171423 150.71090576,-33.639226423499991 150.71010553599999,-33.643430363500002 150.709290944,-33.647722493 150.70918492800001,-33.6482564955 150.70892992,-33.648562504 150.70865795200001,-33.648756476500004 150.707643136,-33.649132507499999 150.70748185599999,-33.649188932500003 150.70694291199999,-33.649379556500001 150.706647008,-33.64951185 150.70646,-33.649595544 150.70558704000001,-33.650134541500002 150.704813024,-33.650550551 150.70432905600001,-33.650891561500003 150.70416505599999,-33.651075581 150.70400905599999,-33.6512845755 150.70392204800001,-33.651590565500001 150.70324512,-33.655141585 150.702459232,-33.659246605500002 150.70230822400001,-33.659900636 150.70969513599997,-33.660961537 150.72038691200001,-33.662489341 150.72056691200001,-33.662515333500004 150.719559008,-33.667096359 150.71926300800001,-33.668476348 150.719256992,-33.668506355 150.72446291200001,-33.669247261500004 150.731306784,-33.670228131500004 150.73133376000001,-33.6702321275 150.731439776,-33.67024813 150.731191776,-33.671300132499994 150.73115676800001,-33.671485132500003 150.7310608,-33.671935126499996 150.73098681600001,-33.67228313 150.730821792,-33.6732281285 150.73060982399997,-33.674338147 150.73001488,-33.677432142500002 150.729832896,-33.678288174500004 150.72943193599997,-33.679898174 150.72922492799998,-33.681350165 150.72909897599999,-33.682300158499999 150.72901561599997,-33.682866924500004 150.72896697600001,-33.683200183499999 150.72893497600001,-33.683368182 150.72890099200001,-33.683535181499998 150.72868198399999,-33.684836194 150.72856003199996,-33.685560191500002 150.72824403199999,-33.687435185 150.727915072,-33.689577207500001 150.72790908799999,-33.689650208499991 150.72791308800001,-33.6898252 150.727875488,-33.689845809 150.72784608,-33.689867195 150.72781708799999,-33.689931205 150.727815104,-33.689947207499991 150.72781209600001,-33.689971202 150.727816096,-33.690030198500004 150.72783209599999,-33.690070195499999 150.72784409600001,-33.690088196 150.72785510400001,-33.690106196499997 150.72788108799998,-33.690130209499998 150.72789910399999,-33.690139200499999 150.727915104,-33.69014821 150.72792608,-33.690183212 150.72792608,-33.69022221 150.72787708799999,-33.691388209499998 150.72787369599999,-33.691467778 150.72784211199999,-33.694666206 150.72746217599999,-33.697150219500003 150.72744118400001,-33.697283216 150.727422176,-33.697408220500002 150.72720217599999,-33.698128222 150.72685820800001,-33.698834237500002 150.726478208,-33.699614234500004 150.72576326399999,-33.701081266 150.72511027199999,-33.702066261500001 150.72484329599999,-33.702465269500003 150.72471827199996,-33.70265828 150.72456531200001,-33.703063282 150.72435030400001,-33.703629271 150.72429632000001,-33.703772276 150.72420832,-33.704080282500001 150.724086336,-33.704510296499997 150.72367536,-33.705723304500005</coordinates></LinearRing></outerBoundaryIs></Polygon>

	</Placemark>
</kml>