<?xml version="1.0" encoding="UTF-8"?>
<kml xmlns="http://www.opengis.net/kml/2.2">
	<Placemark>
		<Style>
			<LineStyle>
				<color>ff0000ff</color>
			</LineStyle>
			<PolyStyle>
				<fill>1</fill>
				<color>330000cc</color>
			</PolyStyle>
		</Style>
			<ExtendedData><SchemaData>
		<SimpleData name="STATE_2006">1</SimpleData>
		<SimpleData name="POA_2006">2063</SimpleData>
	</SchemaData></ExtendedData>
      <Polygon><outerBoundaryIs><LinearRing><coordinates>151.218076352,-33.805632647 151.218086016,-33.805643007 151.21812,-33.805687 151.218156,-33.805726997 151.218199008,-33.805761 151.21823699199999,-33.805781997499999 151.218279008,-33.805799998 151.21832099199997,-33.805816000499995 151.21836499200001,-33.805831004 151.21840899200001,-33.805846007500001 151.21846300799999,-33.805863009 151.21851900799999,-33.80587899299999 151.21857500799996,-33.805894995500005 151.21863001599999,-33.805910998 151.218683008,-33.805930996500003 151.218752,-33.805958006499992 151.218824,-33.805985997 151.218892,-33.806018002 151.21894899200001,-33.806055002 151.21898899199999,-33.806097996 151.219004,-33.806137993 151.219008,-33.806181005500001 151.21900700800001,-33.806226996500001 151.219008,-33.806273006 151.21901699199998,-33.806316 151.219044,-33.806372998500002 151.21907900799997,-33.806429997 151.219120992,-33.806484997499993 151.21917001599999,-33.806534004 151.219223008,-33.806576998 151.219268992,-33.806606006 151.21931900800001,-33.806632997500003 151.219372,-33.806655993 151.219426016,-33.8066749925 151.219480992,-33.806688997 151.21956499199999,-33.806699005500001 151.21965299199999,-33.806697007499999 151.21974300799999,-33.806686 151.21983299199999,-33.806670996500003 151.219920992,-33.806654994 151.220011008,-33.806633996500004 151.2201,-33.806608004 151.22018700800001,-33.806579995 151.22027500799999,-33.806551005499998 151.22036300799999,-33.806524994500002 151.22044099199999,-33.806504996 151.220519008,-33.806485996500001 151.220598016,-33.806466997 151.22067699199999,-33.806449995500003 151.220756,-33.806435991 151.220820992,-33.806426001 151.22088601600001,-33.806418009 151.22095100799999,-33.806410997500002 151.22101699199999,-33.806405003499997 151.221082016,-33.806400008499999 151.221136992,-33.806396993 151.221192992,-33.806394995 151.221248,-33.806393996 151.221304,-33.806392997 151.22135900800001,-33.80639 151.22142099199999,-33.806387003 151.22148300800001,-33.806383007 151.22154499199999,-33.8063779935 151.22160700800001,-33.806372998500002 151.22166899199999,-33.806368003500005 151.22173100800001,-33.806358994 151.22179401599999,-33.806348005 151.221856,-33.806336997500004 151.22191801599999,-33.806331003499999 151.22197900800001,-33.806331003499999 151.22204601599998,-33.806338995499992 151.222116,-33.806353 151.222184,-33.806371999499994 151.22224300799999,-33.806397992 151.222286016,-33.806430996 151.222306016,-33.806471992 151.22231100799999,-33.806521997499999 151.22231001599999,-33.806576998 151.22231299199998,-33.8066300005 151.222328992,-33.806675991500001 151.22234899200001,-33.806704999499999 151.222372,-33.806736005499999 151.22239801599997,-33.806763996 151.22242598400001,-33.806785992499996 151.22245699199999,-33.806799997 151.22248499199998,-33.806803993 151.22251401599999,-33.806803993 151.222544,-33.806799997 151.22257500800001,-33.80679400299999 151.222604,-33.806788009 151.222655008,-33.806772006500005 151.222704,-33.806747993499997 151.222752,-33.806719004 151.2228,-33.806691994 151.222850016,-33.806669997500002 151.22290700799999,-33.806652996 151.22296601599999,-33.806641008 151.22302601600001,-33.8066300005 151.22308601599997,-33.806619992 151.22314499199999,-33.806606006 151.223188,-33.806594998500003 151.22323100799997,-33.806582992 151.223274016,-33.806571004 151.223316,-33.806556999500003 151.22335801599999,-33.806540997 151.223424,-33.806508992 151.223488,-33.806469994 151.22354899199999,-33.806427999 151.22361001599998,-33.806384006 151.223671008,-33.806341992500002 151.22373100799999,-33.806302994500001 151.22379100800001,-33.8062639965 151.223851008,-33.806223999499998 151.22391001599999,-33.806184002500004 151.223968,-33.806143006500001 151.22404,-33.806089005 151.224110016,-33.806034004499999 151.22417900799999,-33.805977006 151.22424700799999,-33.805920007499999 151.22431500799999,-33.805863009 151.224368992,-33.805817998500004 151.224423008,-33.805773006500004 151.224476,-33.805727996 151.22452899199999,-33.80568200499999 151.22458,-33.805635995499998 151.224624992,-33.805594000500001 151.224668,-33.805551006500004 151.22471001599999,-33.805506995 151.22475299199996,-33.805464001 151.224796,-33.805422006 151.224848,-33.8053720005 151.22489900799999,-33.805322994 151.224952,-33.805274006 151.22500499200001,-33.805225998499999 151.22506201600001,-33.8051810065 151.2251,-33.805152997500002 151.22513900799999,-33.805126006 151.22517801599997,-33.805098996 151.22521900800001,-33.805073003499999 151.22526,-33.805047991500004 151.225288992,-33.805031008500002 151.22531801599999,-33.805014007 151.225347008,-33.8049980045 151.22537699200001,-33.804983001 151.225408,-33.804968996500001 151.22549500799997,-33.804939008 151.225588,-33.804916993 151.22568601599997,-33.804904006 151.22578499199997,-33.804895995500004 151.22588099199999,-33.804893997500002 151.225966016,-33.804896994499991 151.226052,-33.804905005 151.22613801599999,-33.804916993 151.22622201600001,-33.804933994500004 151.226303008,-33.804954992 151.226348992,-33.804969995500002 151.22639401599997,-33.804987996 151.226438016,-33.8050059965 151.226483008,-33.805023997 151.226528992,-33.805039000500003 151.22659001599999,-33.805054004 151.226651008,-33.805065992 151.22671299199999,-33.805076999500002 151.226775008,-33.805087008 151.22683699199996,-33.805097997 151.22690201599997,-33.8051120015 151.226967008,-33.805127005 151.227032,-33.805142008499999 151.227096,-33.805155994499998 151.22716099199997,-33.805170998 151.227204,-33.805179008499998 151.22724700800001,-33.805186001500005 151.22728899200001,-33.805193993499991 151.22733100799999,-33.805203003 151.227372,-33.805213992 151.22739900799996,-33.805224000500004 151.22742499200001,-33.805234009 151.227451008,-33.805244998 151.22747699199999,-33.8052570045 151.22750099199999,-33.805271009 151.227532,-33.805292006500004 151.22756099200001,-33.805317999 151.227588,-33.805343991499996 151.22761500799999,-33.805371001499999 151.22764499199999,-33.805394996 151.227700992,-33.805430997 151.22776099199999,-33.805463002 151.227824,-33.805491991499999 151.22788700800001,-33.805520999500004 151.22795100799999,-33.805549008500002 151.22802,-33.805580995 151.22809001600001,-33.805613 151.22816,-33.805644006 151.228232,-33.805669998499994 151.228306016,-33.805688998 151.228366816,-33.805698081500005 151.228428,-33.805703002499996 151.22849001599999,-33.805705000499998 151.22855299199998,-33.805705999499999 151.22861401599999,-33.8057069985 151.228684,-33.805712992499998 151.228756,-33.80572000399999 151.228826016,-33.805725998 151.228894016,-33.805724999 151.228956,-33.805711993500005 151.22899900799999,-33.805692994 151.229038016,-33.805666002500004 151.229076,-33.805636994499991 151.22911398400001,-33.805606007 151.22915401599997,-33.805578997 151.229204,-33.805550007500003 151.229256,-33.805520999500004 151.229308,-33.805494008 151.22936198400001,-33.805468996 151.22941699199998,-33.805446999499999 151.22946700799997,-33.805429998 151.22951900800001,-33.805414994499998 151.229572,-33.805401008499999 151.229624992,-33.80539000099999 151.22967900800001,-33.805383008 151.229702016,-33.805380991500002 151.229724992,-33.805379992500001 151.229748,-33.8053789935 151.229771008,-33.805377994499999 151.229794016,-33.805377994499999 151.229844,-33.805369003500005 151.229894016,-33.805361992 151.22994598400001,-33.805357996 151.229996992,-33.805355998 151.23004700800001,-33.805357996 151.230099008,-33.805362991 151.23014998400001,-33.8053720005 151.23020099199999,-33.805383008 151.23025100800001,-33.805395995 151.230300992,-33.8054099995 151.23036601599998,-33.805428 151.230432992,-33.8054479985 151.23049699200001,-33.805469995 151.230558016,-33.805497005 151.23061100800001,-33.805530009 151.230648,-33.805563993500002 151.23067801600001,-33.805604009 151.230707008,-33.805645005 151.230736,-33.805687 151.230768,-33.805724999 151.23081500800001,-33.805767993 151.23086499199999,-33.805806991 151.230916992,-33.805845008499993 151.23096899199999,-33.8058830075 151.231019008,-33.805922005500001 151.23104998400001,-33.805950995 151.23108,-33.805981002 151.231110016,-33.806011009 151.231143008,-33.806038000500003 151.231178016,-33.806059997 151.23121801599999,-33.806074001500001 151.23126201599999,-33.806081993500001 151.23130700799999,-33.806088006 151.23135299200001,-33.806094 151.23139699199999,-33.806100993 151.23145299199999,-33.806113998500003 151.23150899199996,-33.806126005 151.23156499199999,-33.806139991 151.23162,-33.806154994499991 151.231674016,-33.806172995 151.23175401599997,-33.806203002 151.23183401599999,-33.806237005 151.23191100799997,-33.806276003 151.23198099199999,-33.806320995 151.23204,-33.8063710005 151.23208,-33.806422005 151.232112992,-33.806479003500002 151.23213900799999,-33.806539998 151.23216201599999,-33.806601991499996 151.232184,-33.806663004500003 151.232204,-33.806723999 151.23222,-33.806785992499996 151.23223401600001,-33.806848004499997 151.23224700799997,-33.806909998 151.232259008,-33.806973009 151.23227699200001,-33.807056 151.232296,-33.807140008499999 151.232312,-33.807222999499999 151.23232099200001,-33.807307008 151.23232,-33.807389 151.232314016,-33.807440004500002 151.232304992,-33.807491009 151.232292992,-33.807541995 151.23227801599998,-33.807592000499994 151.232256992,-33.807639009 151.23222899199999,-33.807688996 151.232196,-33.807738002499995 151.232158016,-33.807784992500004 151.23211500799999,-33.807826007 151.23206700799997,-33.807857993500001 151.232023008,-33.807874995 151.23197299200001,-33.807885003500004 151.23192201599997,-33.807891996500004 151.23187100800001,-33.807900007 151.23182300799999,-33.807912994 151.231774016,-33.8079329925 151.23172700799998,-33.8079560065 151.23168201600001,-33.807981 151.231639008,-33.808009009 151.23159801599996,-33.808038997499999 151.231572,-33.808092999 151.231550016,-33.808148998500002 151.231532,-33.808205997 151.23151900799999,-33.808263994500003 151.23151001599999,-33.808320993 151.23151001599999,-33.808362007500001 151.231515008,-33.808404002499998 151.23152099199999,-33.808445997500002 151.23152300800001,-33.808486993500004 151.231518016,-33.808527009 151.231503008,-33.808565008 151.231482016,-33.808602008 151.23145699200001,-33.808638009 151.231432,-33.808673991500001 151.23140899200001,-33.8087109915 151.23137900799998,-33.80876699099999 151.231352,-33.808825007 151.231324,-33.808882005500003 151.23129500799999,-33.808938005 151.23126201599999,-33.8089930055 151.23120899200001,-33.80905899499999 151.231146016,-33.809120008 151.23108201599996,-33.809181002500004 151.231022016,-33.809243995 151.230974016,-33.809311002 151.23096,-33.809337993500002 151.23094601599999,-33.809365003499998 151.23093299199999,-33.809391995 151.23092201599999,-33.809419005 151.23091299199999,-33.809446995500004 151.23090499200001,-33.809485993500004 151.2309,-33.809524991499998 151.23089900799999,-33.809565007 151.23090201599996,-33.809604005 151.230908992,-33.809643003 151.230918016,-33.809668995499997 151.230930016,-33.809694007499992 151.230943008,-33.809719001 151.230955008,-33.809744993500004 151.230964992,-33.8097710045 151.230974016,-33.809801992 151.230984,-33.809834996 151.23099001599999,-33.809867001 151.230992,-33.809899006 151.23097699199997,-33.809942 151.230964,-33.809955005500001 151.230942016,-33.809981997 151.23093798399998,-33.810010006 151.23095100800001,-33.810039994500002 151.230974016,-33.810064007500003 151.23099401600001,-33.810090999 151.231012,-33.810120007 151.231028,-33.810149995499991 151.23104,-33.810181001499998 151.23104998400001,-33.810212007499992 151.231055008,-33.810270005 151.23104499199999,-33.810330000500002 151.23102601599999,-33.810391994 151.231004,-33.810453007 151.23098499199997,-33.810514001500003 151.230964,-33.810585004499998 151.230942016,-33.810655008499992 151.230918016,-33.810724994 151.23089401599998,-33.810793999 151.230872,-33.810865002 151.23086,-33.810914008499992 151.23085001600001,-33.810962996500002 151.23084,-33.811013002 151.23082700800001,-33.811062008500002 151.230808,-33.811107999500003 151.230784992,-33.8111509935 151.23075798400001,-33.811193007 151.230728992,-33.811233004 151.230696,-33.811273001 151.230664,-33.811311999 151.23062099199998,-33.811354993 151.230572,-33.811396007500001 151.23052300800001,-33.811437003500004 151.23047699200001,-33.811477999499999 151.23043699199999,-33.811524009 151.23041801599999,-33.811550001500002 151.230400992,-33.811575994 151.230384,-33.81160400299999 151.230368992,-33.8116309945 151.230356,-33.811660002499998 151.230346016,-33.811710008 151.23033900799999,-33.811759995 151.23033500799997,-33.811810999500004 151.230334016,-33.81186300299999 151.23033500799997,-33.811913008499992 151.23033801599999,-33.811944995 151.230344992,-33.81197600099999 151.23035100800001,-33.812008006 151.230356,-33.812038993500003 151.230355008,-33.812069999500004 151.230344,-33.812106000500002 151.230324,-33.812141002499999 151.230302016,-33.812177003500004 151.23028601600001,-33.8122110065 151.23028099199999,-33.812244991 151.23028601600001,-33.812271002 151.23029500800001,-33.812296994500002 151.23030700800001,-33.812322006499997 151.230323008,-33.812346001 151.23034099200001,-33.812366998500003 151.23038201599996,-33.812436003500004 151.230444992,-33.812499995 151.23052300800001,-33.812560009 151.230606016,-33.812616008500001 151.230688,-33.812666994499999 151.23078700799999,-33.812720996 151.23089401599998,-33.8127670055 151.23100499200001,-33.812808001500002 151.23111699200001,-33.812847998500004 151.23122601599999,-33.812890992500002 151.23134300800001,-33.812936003 151.23146300799999,-33.812977998 151.231580992,-33.81302099199999 151.23169100800001,-33.8130719965 151.231787008,-33.813135007500001 151.23184099199997,-33.813184994499998 151.23189100799999,-33.813237997 151.231936,-33.813294995500002 151.231978016,-33.813353992 151.23201699199998,-33.813414006 151.23204899199999,-33.813461995 151.232084,-33.813513998499992 151.23211500799999,-33.813565003 151.232132992,-33.813611993 151.23212998400001,-33.8136520085 151.23210700800001,-33.813680998 151.232072,-33.813707009 151.23202899200001,-33.813730004500002 151.23198300799999,-33.813750003 151.23193801599996,-33.813767004500001 151.231844,-33.813784006 151.23173801600001,-33.813777993500004 151.231624,-33.813757995 151.23150899199996,-33.8137359985 151.23139699199999,-33.813719996 151.23129401599999,-33.813709007 151.231190016,-33.8136979995 151.231087008,-33.813686992 151.23098300800001,-33.813678001 151.23088,-33.813673006 151.230762016,-33.81367200699999 151.23064300799999,-33.813675004 151.230524992,-33.813680998 151.23040700799999,-33.813691006500001 151.230290016,-33.813703993499999 151.23019398400001,-33.813716 151.230096992,-33.813731003500003 151.23000099199999,-33.813748005 151.229907008,-33.813769002500003 151.229816,-33.813794995 151.22967699200001,-33.813855009 151.229544,-33.81393100699999 151.22941801600001,-33.814017994 151.22929398400001,-33.814109994500001 151.229172,-33.814198998 151.2291,-33.8142539985 151.22903100799999,-33.814312995 151.22896300799997,-33.814371991500003 151.22889100800001,-33.81442499399999 151.228812992,-33.814469005500001 151.228752,-33.814491002 151.228688,-33.814507004500001 151.228623008,-33.814521009 151.22856099200001,-33.814538991 151.228504,-33.814563004 151.228468,-33.814586998499998 151.22843401599999,-33.814612991 151.22840099199999,-33.814641999 151.22836899199999,-33.814670008 151.228336,-33.814697998500002 151.22825500799999,-33.8147650055 151.22817500799999,-33.814831994 151.22809500799997,-33.814898002 151.228012992,-33.814963991499994 151.22792899199999,-33.815027002500003 151.227790016,-33.815127994 151.22764899200001,-33.815231002 151.22750201599999,-33.815325999500004 151.227348992,-33.815407991500003 151.22718899200001,-33.815469004499995 151.227138016,-33.815484008 151.22708601599996,-33.81549899299999 151.22703299200001,-33.8155119985 151.22698099199999,-33.815521008 151.226928,-33.815524005 151.226864992,-33.815520009 151.2268,-33.815509001500004 151.226736,-33.815492 151.226676,-33.815469004499995 151.22662300799999,-33.815440995499998 151.22659299200001,-33.815416002 151.22656700799999,-33.81538599499999 151.226542016,-33.815355007500003 151.22651500799998,-33.815325999500004 151.22648499199997,-33.815301006 151.226412,-33.815274995 151.226324,-33.815267003 151.22623001599999,-33.815266004 151.22613900799999,-33.8152599915 151.22606201599999,-33.815235997 151.22601900800001,-33.815210004499995 151.225979008,-33.815180996499997 151.22594099199998,-33.815147992499995 151.22590700800001,-33.815113009 151.225876992,-33.815076009 151.22585699199999,-33.815041007 151.225842016,-33.8150009915 151.225828992,-33.814960994499998 151.225812,-33.814925992500001 151.225786016,-33.814898002 151.22573299199999,-33.8148869945 151.225656,-33.8149 151.22556601599999,-33.814925992500001 151.225472,-33.814953002500005 151.225384,-33.814971003 151.22530499199999,-33.814981992 151.225223008,-33.8149939985 151.22514201600001,-33.815003008 151.225068,-33.815002009 151.22500601600001,-33.814985007499999 151.224964,-33.814954001499999 151.224930016,-33.814913005499996 151.2249,-33.814864998 151.224872992,-33.814813993500003 151.22484601599999,-33.814766004500001 151.22481500800001,-33.814709006 151.22478899199999,-33.814648992 151.224764,-33.814587997499991 151.224739008,-33.814528002 151.22471100800001,-33.814469005500001 151.224684,-33.814414005 151.22465699200001,-33.814357006500003 151.22462899199999,-33.814301007 151.224594016,-33.814251001500004 151.22455100799999,-33.814211004499995 151.22449900800001,-33.8141849935 151.22444,-33.81416599399999 151.224376,-33.814152008 151.22431001599998,-33.8141400015 151.224246016,-33.814127995 151.224143008,-33.814112991500004 151.22403699199998,-33.814104999500003 151.22393100799997,-33.814098006499997 151.223827008,-33.814086 151.22372899199999,-33.814062005499999 151.22368899199998,-33.814044005 151.22365001599999,-33.814020991 151.223612,-33.813997995500003 151.22357500799998,-33.813982992 151.22354201600001,-33.813980994 151.22353100800001,-33.814003009 151.22353100800001,-33.81405299599999 151.223534016,-33.814118005 151.22352998400001,-33.814182995499998 151.223512992,-33.814235998 151.223484,-33.814265006 151.223444,-33.814290998499992 151.22340300799999,-33.814315992 151.223367008,-33.81434100399999 151.22334499199999,-33.814370992500002 151.22336300800001,-33.8144059945 151.22342499199999,-33.814451005 151.22351001600001,-33.814501991 151.22359798400001,-33.814556991499998 151.223670016,-33.814611992 151.22370499199997,-33.814645995 151.223739008,-33.814680997 151.223772,-33.814715999 151.223803008,-33.814752999 151.223832,-33.814790998 151.223884,-33.814881999500003 151.22392201599999,-33.814978995 151.223952,-33.815081004 151.22397900799999,-33.8151839935 151.22401001599999,-33.815285003500001 151.22404,-33.815376005 151.22406899200001,-33.815468005500001 151.224096992,-33.815560006 151.224128992,-33.815651007500001 151.224166016,-33.815739992499999 151.224196,-33.815800006499998 151.22422899200001,-33.815859003 151.22426300799998,-33.815917999500002 151.22429500800001,-33.815976996 151.224324,-33.816036991499999 151.224356,-33.816101001500002 151.224391008,-33.816165992 151.22442099200001,-33.816232 151.22443900799999,-33.816294992499998 151.224436,-33.816353008500002 151.22440899200001,-33.816404993500001 151.224366016,-33.816453001 151.22431001599998,-33.81649799299999 151.22425100800001,-33.816543003499994 151.22419500800001,-33.816585997499999 151.224144,-33.816626993499995 151.224092,-33.816667009 151.22403801600001,-33.816705008 151.22398201600001,-33.816742008 151.22392601600001,-33.816776991499999 151.223874016,-33.816822002 151.22382300800001,-33.816866994 151.223772,-33.816911005500003 151.22372,-33.816954998500002 151.22366700800001,-33.816997992499999 151.22361699199999,-33.817046999 151.22356601600001,-33.817101000500003 151.22351500799999,-33.817152005 151.22346300800001,-33.817190004 151.223410016,-33.817206006500001 151.223376,-33.817204008499999 151.22334099199998,-33.817195998 151.22330601600001,-33.817185009 151.22327100800001,-33.8171740015 151.223236,-33.817163993 151.223198016,-33.817153004 151.22315900800001,-33.817139998500004 151.22312099199999,-33.817128991 151.223083008,-33.817120999 151.22304700799998,-33.817121998 151.22301401600001,-33.817132006499996 151.222982016,-33.817151006 151.222951008,-33.8171740015 151.22292,-33.817194999 151.22288700799999,-33.817212000499993 151.222828,-33.817227004 151.22276499200001,-33.817234996 151.2227,-33.817236994 151.222634016,-33.817235995 151.22256899199999,-33.817233997 151.22253100799998,-33.817231 151.22249299200001,-33.817226005 151.222455008,-33.817220991500001 151.22241699200001,-33.817216995500004 151.22237900799996,-33.817217994499998 151.22232,-33.81722900199999 151.222260992,-33.817249000499999 151.22220300800001,-33.81727499299999 151.22214601600001,-33.817304001 151.222092,-33.817333009 151.222039008,-33.8173649955 151.22198899200001,-33.817400996499998 151.22194,-33.817437996500004 151.221888992,-33.817472998500001 151.221835008,-33.817501007499999 151.22178899199997,-33.8175169915 151.22174099200001,-33.817528998 151.22169299199999,-33.8175400055 151.221644,-33.817550994500003 151.221596,-33.817563001 151.22154700799999,-33.817577005499999 151.221498016,-33.817590991499998 151.22145001600001,-33.817605995 151.22140300800001,-33.817620998500004 151.22135699200001,-33.817638999 151.221307008,-33.8176619945 151.221259008,-33.817688005499996 151.221212,-33.817714997 151.221164,-33.817742007 151.221116,-33.817767999499992 151.22106,-33.817797007499991 151.221004,-33.817826996 151.220947008,-33.817856004 151.220888992,-33.817878999500003 151.220828,-33.817896001 151.220767008,-33.817904992 151.22070300799999,-33.817909006500003 151.22063699200001,-33.817908007500002 151.22057299199997,-33.81790199499999 151.22051100799999,-33.817891006 151.22045299199999,-33.817874004499998 151.22039699199999,-33.817848992500004 151.22034099199999,-33.817820003 151.22028601599999,-33.817791994 151.22022899199999,-33.817767999499992 151.220179008,-33.817749 151.220128,-33.817729001499998 151.220076,-33.817711001 151.22002499199999,-33.8176999935 151.219976992,-33.817698994499999 151.219922016,-33.817716995 151.21987001599999,-33.817752996 151.219819008,-33.8178000045 151.21976998400001,-33.817848992500004 151.219719008,-33.81789300399999 151.219656,-33.817937996 151.21958998400001,-33.817982007499999 151.219524992,-33.818026999499992 151.21946499200001,-33.818075007 151.219412992,-33.818126992 151.219352,-33.8182040075 151.21929500799999,-33.818289995499995 151.21928364799999,-33.818313324 151.21918393600001,-33.818295749 151.218825952,-33.818232756500002 151.21865596800001,-33.818158756500004 151.21845094400001,-33.818113764499998 151.21755996799996,-33.818101758 151.21737196799998,-33.818041762499995 151.21726995200001,-33.81802576 151.21720096000001,-33.818024761 151.21706496,-33.817965764500002 151.21647097600001,-33.81769979 151.21636899200001,-33.817626789 151.21623299199999,-33.817553788 151.21615792,-33.817516251500003 151.216114976,-33.817494791500003 151.21589497599999,-33.817333786 151.21572697600001,-33.81715977499999 151.215202976,-33.816780784 151.215134976,-33.816750777 151.215068,-33.816692779500002 151.21498198399999,-33.8166907815 151.21481097599997,-33.816660774500001 151.21443302399999,-33.816712796499999 151.21381401599999,-33.816804797 151.21322803199999,-33.81695379599999 151.21288406400001,-33.817034807500001 151.21267804799999,-33.8170608 151.21257606399999,-33.817001803499998 151.21236486399999,-33.817057877 151.21221404799999,-33.8170978 151.21211004799997,-33.817138796 151.21174604800001,-33.817348808 151.21160809599999,-33.817375799499992 151.21147008,-33.817445822 151.21112608000001,-33.817483821 151.211109088,-33.8174688175 151.210973088,-33.817425823500002 151.21092208,-33.817409821 151.210804096,-33.817321816499998 151.210500096,-33.817059819500003 151.210319072,-33.816741823 151.210151072,-33.816524818 151.210153088,-33.816453815 151.20995708800001,-33.815934816 151.20991209600001,-33.815619816499996 151.20991408,-33.815519842500002 151.209881088,-33.815461845 151.20979808000001,-33.81535983599999 151.209713088,-33.815301838499998 151.20962809599999,-33.815271831499999 151.20956009599999,-33.8152278385 151.20949209599999,-33.815226839499999 151.20914707200001,-33.815279842 151.208960096,-33.815262840500004 151.20882208,-33.815260842500003 151.208600128,-33.815243841 151.207934112,-33.815090846 151.20772912000001,-33.81505984 151.20755910400001,-33.814999844500001 151.20742412800001,-33.814883849499999 151.20732512,-33.814681866500003 151.20721312000001,-33.814293866 151.20708912000001,-33.813675855 151.20700710400001,-33.813459849 151.20672310399999,-33.813112863 151.20657110399998,-33.813009855 151.206452128,-33.812936854 151.20619612799999,-33.812889864 151.20583811200001,-33.812770872 151.20566812800001,-33.81272588 151.20556512,-33.812723882 151.205359136,-33.81273587 151.20523913599999,-33.81276288 151.20516,-33.812802414499998 151.205101216,-33.812711542500004 151.20502345599999,-33.812590774500002 151.20488915199999,-33.812369903 151.20469116800001,-33.812037088 151.20455184,-33.811821359499994 151.204509376,-33.811748377 151.20447299200001,-33.81167348899999 151.204441696,-33.811592126 151.20441504,-33.811508876 151.20439379199999,-33.811424275500002 151.20435635199999,-33.811291889499998 151.20431964799997,-33.811086502500004 151.20429625599999,-33.810973467499998 151.20428256,-33.810884094 151.20427321599999,-33.810794017500001 151.20426816,-33.810703478500002 151.20426636799999,-33.81061292099999 151.204267456,-33.810522752 151.204275008,-33.810394325 151.20428905599999,-33.810265620500005 151.20430992,-33.810137193500005 151.204337632,-33.810010024500002 151.20437212799999,-33.809884890500001 151.20481212799999,-33.807860546500002 151.20530099199999,-33.805641323499998 151.20557801599998,-33.804382879500004 151.20683097599996,-33.804574872499998 151.20807913599998,-33.804767069 151.20919241600001,-33.8049305535 151.20918361599999,-33.804963816499992 151.20908848,-33.80536399 151.20926595200001,-33.805352853 151.20949795199999,-33.805350855 151.210599968,-33.805343862 151.21190688,-33.804686834499996 151.21195888,-33.804682838499993 151.21194288000001,-33.804750844499999 151.212385888,-33.804528844499998 151.212576896,-33.804501834500002 151.21270889600001,-33.804539833500002 151.21274089600001,-33.804549842 151.21298288,-33.80461984599999 151.213104896,-33.8047898425 151.21329788799997,-33.805003832 151.21331888,-33.805028844 151.21335488,-33.805067842 151.21338688,-33.805076833 151.213568896,-33.8051248405 151.2133704,-33.805588765 151.21316339200001,-33.805528825 151.21294848,-33.80541912 151.21294704,-33.805491936 151.212926528,-33.805621177 151.21292614399999,-33.80563779 151.21299088000001,-33.80569384499999 151.213363904,-33.805884839 151.21365289599999,-33.806017835500001 151.213907904,-33.806092816 151.21435289599998,-33.806127818 151.214455904,-33.806157825 151.214591904,-33.806173827500004 151.214848864,-33.806191828 151.21491785599997,-33.806206813 151.21519286399999,-33.806167815 151.21536486400001,-33.806126819 151.21562387200001,-33.806030822499999 151.21567587199996,-33.805987828500001 151.21595385599997,-33.805834815 151.216333824,-33.80568182 151.21645382400001,-33.80565481 151.21667881599998,-33.805557796 151.21704083200001,-33.805462798500002 151.21729686399999,-33.805473639500001 151.21753683200001,-33.805483796 151.21758784,-33.8054987995 151.21789580800001,-33.805559794 151.21803180799998,-33.805619808 151.218076352,-33.805632647</coordinates></LinearRing></outerBoundaryIs></Polygon>

	</Placemark>
</kml>