<?xml version="1.0" encoding="UTF-8"?>
<kml xmlns="http://www.opengis.net/kml/2.2">
	<Placemark>
		<Style>
			<LineStyle>
				<color>ff0000ff</color>
			</LineStyle>
			<PolyStyle>
				<fill>1</fill>
				<color>330000cc</color>
			</PolyStyle>
		</Style>
			<ExtendedData><SchemaData>
		<SimpleData name="STATE_2006">1</SimpleData>
		<SimpleData name="POA_2006">2727</SimpleData>
	</SchemaData></ExtendedData>
      <Polygon><outerBoundaryIs><LinearRing><coordinates>148.526558464,-35.115211091 148.52701440000001,-35.112600075 148.52762233600001,-35.109120077 148.52891216,-35.101741056 148.52903939199999,-35.101125154 148.52892601600001,-35.101112000500002 148.52781900799999,-35.101060996 148.526983008,-35.100755006 148.526744992,-35.100592002500001 148.524574016,-35.100210995 148.524180992,-35.100056002 148.52496912000001,-35.095566033499992 148.52524508799999,-35.094026038 148.525832,-35.090508004 148.524264,-35.0903129955 148.524720992,-35.087737 148.51902403199998,-35.087064044 148.514847008,-35.086605003500004 148.51497001599998,-35.085882005 148.50004899199999,-35.084148999 148.49956259199999,-35.084111573500003 148.499294752,-35.084103748 148.49877564799999,-35.084118862499999 148.49816147199999,-35.084178802499999 148.497420608,-35.084240185500001 148.495345216,-35.084396529 148.49401500799999,-35.084486975499999 148.493597408,-35.084496503 148.49312976,-35.084441243500002 148.49272585599999,-35.084367817 148.49238563200001,-35.084319661500004 148.49214156799999,-35.084313982 148.49191843200001,-35.084388111499997 148.491671424,-35.08425012 148.49143561599999,-35.084075128500004 148.49135241600001,-35.084002109 148.49130243199997,-35.083996115 148.48493852799999,-35.083216136499999 148.48083459200001,-35.08271314 148.48100054400001,-35.081787141 148.48103254399999,-35.0816081535 148.48081456,-35.081581143500003 148.476482624,-35.0810441625 148.47431465599999,-35.080775172500005 148.46944470400001,-35.080170185500002 148.469225728,-35.080143194 148.46919372799999,-35.080322181500001 148.467743872,-35.088049206 148.467709888,-35.088228212 148.468056864,-35.088274203 148.46837088000001,-35.088315199 148.4719088,-35.088777181 148.471717856,-35.089639188500001 148.46982403199996,-35.0994662035 148.46923209600001,-35.102540200500002 148.46855116799998,-35.106070204 148.46686835200001,-35.114802222500003 148.46636041599999,-35.1174362155 148.46565340800001,-35.117348229500003 148.46245446399999,-35.116950239 148.46127356799997,-35.123446236500001 148.4611496,-35.124129238 148.46143862400001,-35.124170234 148.46128662399997,-35.124933248 148.46121360000001,-35.125300232500003 148.46058368000001,-35.128465268 148.459499712,-35.128330255 148.45946169599998,-35.128509261 148.457979008,-35.136135183 148.45782601600001,-35.136923190499999 148.457496096,-35.138619159500003 148.45739312000001,-35.139164169499999 148.455964416,-35.146737089 148.45595040000001,-35.146980086500001 148.45609340799999,-35.147053087499998 148.45619740799998,-35.147082095500004 148.45637241599999,-35.147110086 148.45689440000001,-35.147025097 148.45816636800001,-35.146982084500003 148.45831238400001,-35.146940089499999 148.45683065599999,-35.154524016499998 148.450652832,-35.156353999499991 148.44725993599999,-35.157357994500003 148.44330502400001,-35.158528989 148.44276502400001,-35.158423983 148.44235801599999,-35.158808986499999 148.43893011200001,-35.159823989 148.42712534399999,-35.16331801 148.42696934400001,-35.163341024 148.42619638400001,-35.163454022 148.42513641599999,-35.163713040499999 148.4248544,-35.163782045499993 148.423937408,-35.164007042500003 148.42311344000001,-35.164209062499999 148.42270544,-35.164309055 148.42140044800001,-35.164132047 148.41840748800001,-35.163725084 148.41820451199999,-35.1636230935 148.41740550399999,-35.163195096 148.41601251199998,-35.162449102 148.41587548800001,-35.162369108 148.41579548799999,-35.162212117 148.41570848000001,-35.161640115499999 148.415586464,-35.161225105 148.41556848,-35.160838103499998 148.41551648000001,-35.160710102 148.415237472,-35.160281124 148.415045472,-35.159894122499999 148.41487145599999,-35.159651125 148.41459244800001,-35.159365133500003 148.41429542399999,-35.159136122 148.41403443199999,-35.158993135500005 148.41347644800001,-35.158535131 148.41336444799998,-35.158470122 148.413232448,-35.158349150500001 148.41316243200001,-35.15822015 148.413075424,-35.15793414 148.41270944,-35.157419155500001 148.41260544,-35.15714715 148.41251344,-35.157010139 148.41243840000001,-35.156922153 148.412116416,-35.156589171500002 148.41194140799999,-35.15610116 148.41195939199997,-35.15601717 148.41213340799999,-35.155760168 148.41222137599999,-35.155531175 148.41239536,-35.155317167 148.41256937599999,-35.155216175500001 148.413040384,-35.155116164500001 148.41323132799999,-35.1550311755 148.413667328,-35.1546731635 148.413858304,-35.154387172 148.41394531200001,-35.154158160500003 148.41396329599999,-35.154030159 148.41394531200001,-35.153815170500003 148.413701312,-35.153272177 148.413666272,-35.153028180500002 148.41367526400001,-35.15300019 148.41358428800001,-35.1529881835 148.41212432,-35.152797189499992 148.41190531199999,-35.152768181499994 148.39468752,-35.150509294500004 148.39485548799999,-35.149680291 148.394895488,-35.149480287500005 148.39553241600001,-35.146305317500001 148.39678620800001,-35.140060328 148.39654921600001,-35.139872331 148.3964992,-35.139832334 148.39618620799999,-35.139716339 148.39592521599997,-35.139673326499995 148.39552422400001,-35.139600325499998 148.3952632,-35.139571336 148.39491523199999,-35.139513338500002 148.39425424000001,-35.1394113295 148.393975232,-35.139396326 148.39355724800001,-35.139467347499995 148.39324326400001,-35.139623358 148.39299027199999,-35.139795352500002 148.39285926400001,-35.139852351 148.39263228799999,-35.13988036 148.391897312,-35.139722351499991 148.39181331200001,-35.139978354500002 148.39170832,-35.140178358 148.39156732800001,-35.140493357499999 148.39127033599999,-35.140978353500003 148.39109532800001,-35.141150348 148.39087136,-35.141321343500003 148.390580384,-35.141263346 148.39041536,-35.141291355 148.39022336,-35.1413483535 148.389927392,-35.141462350499999 148.38989241600001,-35.141447347 148.3896824,-35.141533353500002 148.38956540800001,-35.141567356499998 148.3890384,-35.141509359 148.38828144,-35.141426349500001 148.38514745599997,-35.1410813615 148.37519968000001,-35.139985384500001 148.374980704,-35.13996139 148.368463808,-35.139242406 148.36413587199999,-35.1387654205 148.35936496,-35.138239428499993 148.35933696,-35.138236431500005 148.35913094399996,-35.138213417500005 148.357325984,-35.13801445 148.35190608,-35.137494452 148.34758812800001,-35.137080459 148.34754816,-35.137290471 148.347515168,-35.137458469500004 148.347066208,-35.1397714505 148.34667721599999,-35.139735449500002 148.34622723199999,-35.139694435 148.344555232,-35.139489455 148.34295427199999,-35.139226459 148.34218931199999,-35.13906747 148.34137731199999,-35.138811467 148.34141331199999,-35.139143468 148.341464288,-35.139387464500004 148.341532288,-35.139745458 148.34158428799998,-35.139945461499998 148.34165232000001,-35.140260461 148.34170432,-35.140461463500003 148.34178934399998,-35.140848465 148.34197833600001,-35.141392457500004 148.34204732800001,-35.141621469 148.342097344,-35.141842451500004 148.34188534399999,-35.14186245 148.33749340799997,-35.141201463500003 148.337908352,-35.138952455499997 148.33355942399999,-35.138318460500003 148.33429132800001,-35.134761465499999 148.329951392,-35.134141456500004 148.33029337599996,-35.13240747 148.33007536,-35.132378462 148.32533744,-35.131691464500001 148.32357843200001,-35.131436442 148.32336144000001,-35.131403438 148.322874496,-35.133555450500005 148.315346592,-35.132528423 148.31416960000001,-35.13234642 148.31484252800001,-35.129054419 148.314846528,-35.129035419499999 148.31131654399999,-35.12849042799999 148.310919552,-35.128429433500003 148.3099776,-35.128283431500002 148.31010454400001,-35.1276184305 148.31015155200001,-35.127367422500001 148.31031452799999,-35.126509411 148.30903356799999,-35.126295403 148.3088696,-35.12711943 148.30656563199997,-35.126810424499993 148.30650563200001,-35.127096434500004 148.30646860799999,-35.127274423 148.306250624,-35.127243417 148.30223769599999,-35.1266574295 148.30202067199997,-35.126625424499998 148.30043472,-35.126394433500003 148.30062272,-35.12553842 148.29761273599999,-35.125143426500003 148.29728873600001,-35.125101431499999 148.296854752,-35.125044433 148.29663676799998,-35.125015425 148.296540768,-35.125468434499993 148.29632278400001,-35.125440425500003 148.29326483200001,-35.125058437500002 148.29331580799996,-35.124806449 148.29256083199999,-35.124712450499999 148.29277782400001,-35.123446421499999 148.29295779200001,-35.122401430499991 148.28891884800001,-35.121878417 148.283204928,-35.121138417 148.28376188799999,-35.118246404499999 148.27659699200001,-35.117339423499999 148.27617900800001,-35.117283424 148.276136992,-35.1173334295 148.27580700799996,-35.117591430499992 148.27575401600001,-35.117663432500002 148.27566704,-35.117863417499997 148.27566704,-35.118121418500003 148.27575404800001,-35.118336425500004 148.27603302399999,-35.118637420500001 148.27603302399999,-35.118837442500002 148.27599804799999,-35.1190254395 148.262570272,-35.11720546499999 148.261872256,-35.117110467499998 148.261626304,-35.118377477 148.25716739200001,-35.117775487 148.25673043200001,-35.119843491 148.25353548800001,-35.119425520500002 148.25340947199999,-35.11940951799999 148.253302496,-35.119394514500001 148.25317648,-35.119378512 148.25272147199999,-35.119318516500002 148.25121651200001,-35.11912151 148.25066352,-35.1190495265 148.25100947199999,-35.117114500500001 148.2416136,-35.115825531500001 148.24139564800001,-35.115796542 148.241534624,-35.115018543 148.23545369600001,-35.114193554 148.233037728,-35.113874558499994 148.232856736,-35.113667562 148.22830684799996,-35.113065572 148.22745584,-35.112953573 148.22765481599998,-35.111985579 148.22743779199999,-35.111956571 148.215650944,-35.110414614500002 148.215124,-35.112978622 148.20948403200001,-35.112213647 148.20923302400001,-35.112179644 148.20006806399999,-35.110936666 148.199864064,-35.110899666 148.200660032,-35.110481658499999 148.20147401599999,-35.109968653500005 148.20230998400001,-35.1093456475 148.202933952,-35.108823633 148.20388192,-35.108053607500004 148.20440294400001,-35.107635618499998 148.20504988799996,-35.107140614 148.20605289599999,-35.106591589499999 148.20706688,-35.106023584 148.20735686399999,-35.105702590500002 148.20749088,-35.105308577500004 148.20752384,-35.105043565 148.20747984,-35.104795572500002 148.20714582400001,-35.104612570500002 148.20654384,-35.104327578 148.20618784000001,-35.104071575 148.205922816,-35.103554574 148.20561180799999,-35.102783549500003 148.20531078400001,-35.102069560499991 148.20489878399999,-35.101601547499996 148.204397728,-35.101207534499999 148.20382972799999,-35.100730530500002 148.20332774400001,-35.100125543499999 148.20284969599999,-35.099484518499992 148.202327712,-35.098995526499991 148.20209366399999,-35.098656514 148.20209366399999,-35.0983725205 148.20213868799999,-35.098133519 148.20208368,-35.097757525 148.20192764800001,-35.09730849299999 148.20194963200001,-35.096997508 148.20197264000001,-35.096722505499997 148.20190563200001,-35.096456494 148.201749632,-35.0961175 148.20151561599999,-35.095503503499998 148.20111462400001,-35.0950815 148.200195616,-35.094390506499998 148.19982860799999,-35.094160496 148.19941660800001,-35.094059504500002 148.19890361599997,-35.094059504500002 148.19849161600001,-35.093977494 148.19823561600001,-35.093839502499996 148.197990592,-35.0935275 148.19784556799999,-35.093188506 148.19763459200001,-35.092803502500004 148.197277568,-35.092354489 148.197077568,-35.092088477499999 148.19685756800001,-35.091707488499999 148.19601155199999,-35.090946472500001 148.19573353600001,-35.090625479 148.195621536,-35.090323485 148.19545456,-35.090066483 148.19508755199999,-35.089892472 148.19457456000001,-35.089745489500004 148.19376153599998,-35.089543488 148.19323753599997,-35.089287485 148.19289254399999,-35.088984473499998 148.19248352,-35.08835749 148.19236150399999,-35.088008487499998 148.19220550399999,-35.087697484 148.19187152000001,-35.087477482 148.191526528,-35.08732149 148.19053552,-35.086853477 148.18987750400001,-35.086477483 148.189488512,-35.08611048 148.18922051199999,-35.085716485499994 148.18894252800001,-35.085294482 148.18800752000001,-35.0840844895 148.18747852799999,-35.08348547799999 148.187122528,-35.083293485 148.18666550399999,-35.083137474499999 148.18636451200001,-35.082779481 148.186008512,-35.0822384855 148.185964512,-35.081752472 148.18587552,-35.081083475 148.18578652799999,-35.080781481 148.18584249599999,-35.080433477500002 148.18596547199999,-35.080277485499998 148.186199488,-35.080112484 148.18650947200001,-35.079889485 148.18700044799999,-35.079523481 148.187390464,-35.079046458500002 148.18755744000001,-35.078524462499999 148.187580416,-35.077919457 148.187525408,-35.077424471 148.187380416,-35.076856465500001 148.18714742399996,-35.076003467500001 148.1869784,-35.075615467 148.18695638400001,-35.075028462 148.18726838399999,-35.074781468499992 148.18793734400001,-35.074533439 148.18855036799999,-35.0742864455 148.188873344,-35.074002452 148.18906233600001,-35.073599448 148.18906332799997,-35.073324445499999 148.18865033599999,-35.072967451 148.18826131200001,-35.072646439 148.18752633599996,-35.072205436 148.18659036799997,-35.071820451 148.18555036799998,-35.071449452 148.18459235200001,-35.071063468 148.18376739199999,-35.070806466 148.1824984,-35.070393453500003 148.181907392,-35.070182461 148.18149542399999,-35.069925459 148.18118441600001,-35.069531464500002 148.180928416,-35.069201461500001 148.18058342399999,-35.068825467499998 148.180253408,-35.068628461 148.17968540800001,-35.068536460499999 148.17901740799999,-35.068399486499992 148.17856041600001,-35.068160485 148.17826041599997,-35.067985475 148.178171424,-35.067665480500004 148.17812742399997,-35.067160486 148.17806038399999,-35.06680347299999 148.17794937599999,-35.066363469 148.17794937599999,-35.065795463500002 148.17819536,-35.065245458499994 148.17850732799999,-35.064842454500003 148.17891932800001,-35.064393459500003 148.17912028800001,-35.064100456499993 148.17923228800001,-35.063834463500001 148.179406304,-35.063419471499998 148.179741248,-35.06298844 148.18026524800001,-35.062558444499999 148.18090022399997,-35.062027439 148.1811672,-35.061642435499998 148.18131219200001,-35.061248441 148.18143520000001,-35.061019448 148.18168115199998,-35.060748441500003 148.18179315200001,-35.060244446 148.18183814400001,-35.059841423500004 148.18199414399999,-35.059566421 148.18234012799999,-35.059190427 148.182730112,-35.058833432500002 148.18297510400001,-35.05849442 148.183020064,-35.058173426499998 148.183009056,-35.057779432 148.182831072,-35.057385419 148.18268604799999,-35.057000434 148.18272003199999,-35.0567344225 148.182910048,-35.056441419500004 148.183188,-35.056102425500001 148.18348899200001,-35.055864404499999 148.18418598400001,-35.055374413500004 148.184854976,-35.054943400500001 148.18564595199999,-35.054660406 148.18653689600001,-35.054431413 148.18737689599999,-35.054260380500004 148.18842387199999,-35.053976387 148.18922585600001,-35.053747394 148.18981683199999,-35.053628383499998 148.19050681600001,-35.0535093915 148.1911088,-35.053372380500001 148.19172179200001,-35.053107368 148.19271276800001,-35.052575363500004 148.193648736,-35.0518613745 148.19439571199999,-35.051219350499998 148.194952672,-35.050770355499992 148.195850656,-35.05001735 148.19657561599999,-35.049302343500003 148.196987584,-35.048615346 148.197143584,-35.047955358499998 148.197199552,-35.047460335499999 148.197021568,-35.046745329 148.19618752,-35.0457463475 148.195521536,-35.045310358 148.19510953599999,-35.044815353499999 148.19479753599998,-35.044192347500001 148.19466448,-35.043578351 148.194609504,-35.043229348499999 148.194876448,-35.042964354499993 148.19526646400001,-35.042845325500004 148.195834464,-35.042671333 148.19622441600001,-35.042396330500004 148.19637043200001,-35.0421633415 148.19639344000001,-35.04197133 148.196304416,-35.041806328500002 148.19603744,-35.041613336499999 148.19562544,-35.041411335 148.195168416,-35.041265333 148.19458944,-35.041218324500001 148.193999424,-35.041255343 148.19369846399997,-35.041209352 148.19334246400001,-35.040943359 148.19301942399997,-35.0406313565 148.19272944,-35.040292344 148.19234041600001,-35.039779357500002 148.19197344,-35.039357354 148.19157241600001,-35.039036360499999 148.19105344,-35.038573342500001 148.18991843199998,-35.037793345499999 148.18937344,-35.037280359 148.18905043199999,-35.036867346499996 148.18880540799998,-35.036363351 148.188516384,-35.035905346500002 148.18799340800001,-35.035400352 148.1876144,-35.035116358499991 148.187469408,-35.034850347 148.187536384,-35.034536346499998 148.18783737599998,-35.03398636 148.18840633600001,-35.032739349 148.18857433599996,-35.03195136 148.18879628799999,-35.031502346499998 148.189086304,-35.031310353500004 148.189548288,-35.031148349 148.19090726399997,-35.030911345500002 148.19164224,-35.0309023545 148.19219923200001,-35.030939354499999 148.192800224,-35.0309023545 148.19342422400001,-35.030692342500004 148.1939032,-35.030371349 148.194137216,-35.029931345 148.194282176,-35.029518351 148.194305184,-35.029143356 148.19411616,-35.028813353 148.19375916800001,-35.02840935 148.19321417599997,-35.027822345 148.19298118399999,-35.027502350499994 148.19292518399999,-35.027254358 148.19299212799999,-35.0270523565 148.19315913599999,-35.026842344499997 148.19338614399999,-35.026629354 148.19417712000001,-35.026116349 148.19476710399999,-35.025612353500001 148.195057088,-35.025154349 148.195079072,-35.02481535499999 148.19487907199999,-35.024521353 148.19453408000001,-35.024393351499995 148.19394406399999,-35.024438343500002 148.19344310400001,-35.024411352 148.19295312,-35.024365342499998 148.19207312,-35.024227351 148.19131609600001,-35.0241623605 148.190804128,-35.024263352 148.19019113600001,-35.024446354 148.18960118399997,-35.024675347 148.189061184,-35.025048344 148.18858220800001,-35.025506348500002 148.188192192,-35.026102344500003 148.18762323199999,-35.026908352500001 148.18712224000001,-35.027393348499999 148.186688256,-35.027687350500003 148.18621926399999,-35.027769361 148.185808256,-35.02768637 148.18535126399999,-35.027494377 148.184772288,-35.0272193745 148.18420428799999,-35.026888372500004 148.183726304,-35.026430368 148.18324825599998,-35.025819368500002 148.18273728,-35.025003370500002 148.18258128,-35.024664376499999 148.18238128,-35.024077371499999 148.182136224,-35.023335373500004 148.182103232,-35.022638367500001 148.18227123200001,-35.022235363500002 148.182148192,-35.021887378500004 148.1817592,-35.0215933765 148.18123622399997,-35.021418366500001 148.18054624000001,-35.021311362500001 148.17983724800001,-35.021481377500002 148.17916227200001,-35.021395371 148.17838528,-35.021053361500002 148.17736528,-35.020541374 148.176207264,-35.020070364 148.174970272,-35.019550366 148.173742304,-35.019009389 148.17291331199999,-35.018382387 148.172447264,-35.017728393500001 148.17177328,-35.01715839 148.171255264,-35.016944382 148.17080531199997,-35.016901388 148.17042531199999,-35.016858394 148.16982028800001,-35.016616395500002 148.169094304,-35.0164313955 148.16826432,-35.016373379500003 148.16761734399998,-35.016541396500003 148.16709833600001,-35.016683384 148.16647536,-35.016910397499998 148.16555936,-35.017294383500001 148.16497139200001,-35.017592381500002 148.16448739199998,-35.017749391 148.163951392,-35.017635394 148.16310441600001,-35.017221382500004 148.16203344,-35.016580394500004 148.16084041600001,-35.015897393 148.16013241600001,-35.015597397 148.15947542399999,-35.015383389 148.158628416,-35.0149983855 148.157222464,-35.014267395 148.15611644800001,-35.01356939 148.15497644799999,-35.012928383500004 148.15423347199999,-35.012387388 148.153663456,-35.011632384500004 148.15328345599997,-35.010963387499999 148.15255846400001,-35.010123395 148.15164246399999,-35.009553391499999 148.15074444800001,-35.009140397499998 148.14947244800001,-35.008590392500004 148.14836649599999,-35.008176381 148.14741648,-35.007663394499993 148.14657049600001,-35.007036392499998 148.145671488,-35.006637403 148.14420252799999,-35.0062384135 148.14326953599999,-35.00603841 148.14202454400001,-35.005951404500003 148.140935552,-35.00605039799999 148.14013158399999,-35.006173404500004 148.13928457599999,-35.006400399500002 148.13821260799998,-35.006542405499999 148.13741763199999,-35.006456399 148.13672665600001,-35.006271399 148.13601766400001,-35.005957398500001 148.13536166399999,-35.005829415500003 148.13498166400001,-35.005885415 148.13490166400001,-35.005936401 148.13488966400001,-35.005799408500003 148.134861664,-35.005497414499999 148.13438566400001,-35.005440416 148.13399168000001,-35.005392408500001 148.13524761599999,-35.004184414 148.1357136,-35.003505408500004 148.13586659200001,-35.003282409500002 148.136175584,-35.002702416 148.13658752000001,-35.000705415 148.13699248,-34.998446417 148.13761641599999,-34.99599442699999 148.137656384,-34.995866425500004 148.13776140799999,-34.995532426499999 148.13865033599998,-34.992570428500002 148.13871433599999,-34.992370425 148.138722336,-34.992348428500001 148.13876134399999,-34.992238427499998 148.13883929599999,-34.992039423 148.13892531199997,-34.991844433 148.139060288,-34.99156142 148.139206304,-34.991289433 148.14158217599996,-34.987275451 148.142430144,-34.98584344 148.14373808,-34.983610453 148.149590848,-34.973622525 148.15010083199999,-34.972728512499998 148.1516928,-34.970006533499998 148.15577366400001,-34.9631855835 148.155924672,-34.962945583 148.15606966399997,-34.962701586500003 148.15620864,-34.962453594 148.15646761599999,-34.961949617 148.156798592,-34.959684625 148.15683558399999,-34.959367627500001 148.15684160000001,-34.959205623 148.15686160000001,-34.958762622 148.156887584,-34.9583986345 148.15690659200001,-34.957865631 148.156912608,-34.95772862 148.1569216,-34.957591627500001 148.15694758399999,-34.957347631 148.15698259199999,-34.957105651 148.15702857599999,-34.956862653500004 148.15708656000001,-34.956618638500004 148.15711955200001,-34.956498647499998 148.15715657599998,-34.9563786565 148.15723155200001,-34.956165647500001 148.157316576,-34.955955654 148.15745456,-34.955668645 148.15750355200001,-34.9555776435 148.15755657599999,-34.955489639 148.15761356799999,-34.955406648 148.15770355199999,-34.955296647 148.15785052799998,-34.955142653 148.15790352,-34.955092647500003 148.158014528,-34.954995652 148.158258528,-34.954793650500001 148.15839254400001,-34.954688644499996 148.15846054400001,-34.954638639 148.15852352,-34.954598642 148.15871753600001,-34.954484645 148.15878054399997,-34.954443649 148.15890054400001,-34.954356643499999 148.15907251199999,-34.954214674500001 148.15932550399998,-34.954073667499991 148.15964649599999,-34.953893662499993 148.16175043199999,-34.952716674 148.1635904,-34.951687667 148.16385836800001,-34.951537669 148.16540633599999,-34.950671665499996 148.165652352,-34.950493658500001 148.16590332800001,-34.95032066499999 148.166030304,-34.95023667499999 148.16635529600001,-34.950037670500002 148.16643331200001,-34.949984668 148.166525312,-34.94991566299999 148.166615296,-34.949842662 148.16687830399999,-34.949617665 148.167132288,-34.949409669499993 148.16721526399999,-34.949337667500004 148.16729427199999,-34.949262668500005 148.16736828800001,-34.949186670499998 148.16751126399998,-34.949028662 148.16757827199999,-34.94894667 148.16764128,-34.948861662500001 148.16771228799999,-34.948750662500004 148.167775264,-34.948633668500001 148.16789523200001,-34.948394667 148.16796025599999,-34.948277673 148.16815024,-34.947985669 148.16816224,-34.947964671500003 148.168249248,-34.947817670500001 148.16839820800001,-34.947528645 148.16852521600001,-34.94726265199999 148.16874822399998,-34.946760654499997 148.168986176,-34.946332638500003 148.168783136,-34.944881646500001 148.16862115199999,-34.943724656500002 148.16786304,-34.9391396535 148.166795936,-34.931968646500003 148.16600883199999,-34.926787647499999 148.16597283199999,-34.926688654 148.16594182399999,-34.92658564599999 148.16591683199999,-34.926482656499999 148.16589683199999,-34.926377650500001 148.16588281599999,-34.926272644500003 148.16587481600001,-34.926170654 148.16587184,-34.926066647 148.16587382399999,-34.92596264 148.165881824,-34.925859650500001 148.16589580799999,-34.925757641499999 148.165923808,-34.925642645499998 148.16596480000001,-34.925528648499998 148.16605580800001,-34.9253016535 148.16608979200001,-34.92518564 148.16611180799998,-34.92506864599999 148.166127808,-34.924949654 148.166149792,-34.924710652500004 148.16615776,-34.924590643 148.16616275199999,-34.924446639 148.16616176,-34.924013646500001 148.166170752,-34.923870641500002 148.16618675199999,-34.923738644 148.16625875199998,-34.923348645499999 148.16629872,-34.923083651500001 148.16633273599999,-34.922813644 148.16639974399999,-34.922206640500001 148.166416704,-34.921982642499998 148.16642070399999,-34.921829647499997 148.16641171200001,-34.92152264 148.16640169599998,-34.921215651 148.16640268800001,-34.920721645500002 148.16640070400001,-34.92059764 148.166393664,-34.920462645500002 148.16636368,-34.920057643500002 148.166357664,-34.919922649 148.16635667200001,-34.919785656499997 148.166370656,-34.919236650500004 148.166378624,-34.918705645 148.16639363199999,-34.918334646 148.16640963200001,-34.918095644499999 148.16642364799998,-34.917977651500003 148.16643964799999,-34.917878639500003 148.16659161600001,-34.917134625 148.16664358400001,-34.916902635 148.166683584,-34.916749621500003 148.166771584,-34.916447627499998 148.16690953599996,-34.916001629500002 148.167099552,-34.915425613499998 148.16752748799999,-34.914177603500001 148.16792243199998,-34.913043590500003 148.16796944000001,-34.912918586 148.16802041599999,-34.912798595 148.16818140799998,-34.912443598499998 148.16823241599997,-34.912323589 148.16841238399999,-34.911842589 148.16864739199997,-34.911247573499999 148.168780352,-34.910892577 148.16882835199999,-34.910776582 148.168882336,-34.910663565499995 148.16897936000001,-34.910489573 148.16908732799999,-34.910320575500002 148.16914531200001,-34.910239582500004 148.16922032,-34.910145565500002 148.16930032,-34.910056580499997 148.16954732799999,-34.9097925485 148.169710272,-34.909596559500002 148.16987529599999,-34.90940255 148.16996329599999,-34.9093115485 148.17011328000001,-34.909177553 148.17027129600001,-34.909050550499998 148.17044025599998,-34.908928561499998 148.17053024000001,-34.9088695465 148.17071526399999,-34.908757547500002 148.17080924800001,-34.908704563500002 148.17095024,-34.908632561499992 148.17109424,-34.908567552500003 148.17153123200001,-34.908382552499994 148.17246217600001,-34.9079465445 148.172837184,-34.907783541 148.173120192,-34.907665529500001 148.17340515199999,-34.907556527499999 148.17352614399996,-34.907515531500003 148.173894144,-34.907402533500004 148.17400115199999,-34.907365533499998 148.17401616000001,-34.907360538500001 148.17412515199999,-34.907319542499998 148.17444915199999,-34.907185528500001 148.174692128,-34.907091511499999 148.175100128,-34.906947526 148.17566912,-34.9067565135 148.17581408000001,-34.9067115215 148.17595910399999,-34.906671524499998 148.17610508800001,-34.9066355235 148.17640009600001,-34.906575509500001 148.17696009599999,-34.90647252 148.17700608000001,-34.906463510500004 148.17722806399996,-34.906425511500004 148.17736204799999,-34.906405513 148.17751404799998,-34.906388511499998 148.177820064,-34.906363518 148.178126048,-34.906347515500002 148.17828707199999,-34.906342520500004 148.17893203200001,-34.906335509 148.17926803200001,-34.90632452 148.17994003199999,-34.906292496500001 148.18027603199999,-34.906280508500004 148.180756992,-34.906275495 148.181645984,-34.906292496500001 148.18211299199999,-34.9063075 148.18258899200001,-34.906334491500004 148.18280195200001,-34.906346498 148.18297497599997,-34.906351493 148.18326396800001,-34.906352492 148.18355296,-34.906345499 148.183863968,-34.906327498499998 148.18395897600001,-34.9063225035 148.18421996800001,-34.906297491499998 148.18450396799997,-34.906259492499998 148.18465894400001,-34.906235498 148.18481292800001,-34.906208506500001 148.184964928,-34.906174503500004 148.18511392,-34.906131491 148.18520393599999,-34.906098505499997 148.18555792,-34.905947508499999 148.18578992,-34.905854472 148.18594691199999,-34.905797473500002 148.18602889600001,-34.905771481 148.18619491199999,-34.905723473500004 148.18636291199999,-34.905682477500001 148.18643491200001,-34.905669472 148.186651904,-34.905639483500003 148.18672390399996,-34.905625479 148.18695091199999,-34.905555475 148.18696390400001,-34.905549481 148.18717289599999,-34.905458479499998 148.18738985600001,-34.905344482499999 148.18760486399998,-34.905224473 148.18794585599997,-34.905042488500001 148.188192864,-34.904904478500001 148.188317856,-34.90483749 148.18844483199999,-34.90477547799999 148.18857283200001,-34.9047204775 148.18870384,-34.904669473 148.18909683199999,-34.904522472 148.18963084799998,-34.904304486500003 148.18987481599999,-34.904197482500003 148.19041779200001,-34.903950489 148.19103478400001,-34.90368545799999 148.19135977600001,-34.9035464675 148.19150678400001,-34.903479460500002 148.19202176,-34.903235464 148.192205728,-34.903152454500002 148.19517465600001,-34.901824487499994 148.198371552,-34.900608482499997 148.19983347199999,-34.899750489500001 148.20109446399999,-34.899045473 148.20205241599999,-34.89884349 148.20301040000001,-34.898540497 148.20457433600001,-34.897986496 148.20563328,-34.897633497500003 148.20637129599999,-34.897305585 148.20654025600001,-34.897230493500004 148.2075992,-34.896725517500002 148.20840617600001,-34.896120512 148.20951609599999,-34.895314522500001 148.21047404800001,-34.894255545500002 148.211431968,-34.89309554 148.21284390400001,-34.891835560499999 148.213499872,-34.89148256199999 148.21501276799998,-34.890776565 148.21647472000001,-34.8901215725 148.217332672,-34.889617595499999 148.21834060800001,-34.8888105885 148.21934956800001,-34.887953594499997 148.22045852799999,-34.886995609 148.22121548800001,-34.886289612 148.22185545599999,-34.885393583 148.222219456,-34.885029595500001 148.223244416,-34.884335586499994 148.2241704,-34.883872568500003 148.224964384,-34.883475577 148.224996,-34.883466031 148.224957856,-34.88335821299999 148.22493443199997,-34.8832601075 148.22491788799999,-34.8831600225 148.22490924799999,-34.883071463 148.225824,-34.882682315499999 148.22682537599997,-34.882410550499998 148.22777532800001,-34.882152549499999 148.228745344,-34.881965551500002 148.22966032,-34.881789561 148.23227328,-34.881193528 148.23508422399999,-34.880235524 148.23730019199999,-34.8794085185 148.239582176,-34.878846507 148.242360096,-34.878350485 148.24464211200001,-34.877987478 148.24572806399999,-34.877732455500002 148.24619606399997,-34.8776234535 148.24853203200001,-34.876884471 148.25282995200001,-34.875285423500003 148.25657888000001,-34.874035415500003 148.26017785600001,-34.872836393500002 148.26432678399999,-34.871537379 148.27028268800001,-34.869713334499998 148.276272608,-34.867739310499999 148.278621536,-34.866839304 148.280321504,-34.866040270500001 148.282010464,-34.865111274500002 148.28277945599999,-34.864490266499999 148.28350144000001,-34.863892254 148.28381542400001,-34.863632255 148.2845544,-34.862893235500003 148.28511740799999,-34.862271247 148.285709376,-34.861177249500003 148.286034336,-34.860319219499999 148.28633033599999,-34.859580218499993 148.286596352,-34.858781222 148.286922304,-34.857361199 148.28730627199997,-34.856267201500003 148.28775027200001,-34.855202212 148.288283232,-34.854285185500004 148.2888152,-34.853456182 148.28952620800001,-34.852539192500004 148.290328192,-34.851688174 148.29115718400001,-34.850859170500001 148.29191113600001,-34.85020613899999 148.29306611199999,-34.849302155 148.29424707199999,-34.848423127499998 148.29555308799999,-34.847669123 148.29628806400001,-34.8470901285 148.29650806399999,-34.846916136 148.29816601600001,-34.845635103500001 148.29822102399996,-34.845593108500005 148.29896300799999,-34.846682111 148.29923603200001,-34.846832109 148.299510016,-34.84683111 148.299692032,-34.84671811199999 148.29982902399999,-34.846530115 148.30005603199999,-34.846455116 148.300512032,-34.846529116 148.300832,-34.846679095500001 148.30147097599999,-34.847166089499993 148.30179097600001,-34.847579083500001 148.302019008,-34.848105112500001 148.301931008,-34.848670102499995 148.301827008,-34.8487061035 148.301615008,-34.849009115 148.30160700799999,-34.849155117 148.302797024,-34.849832106 148.30320803199999,-34.8501701195 148.30330003200001,-34.850320117500004 148.303437024,-34.850357117500003 148.304350016,-34.851107107499999 148.305856,-34.851932115 148.30626697599999,-34.852232111 148.30635798399999,-34.852382109 148.30631500800001,-34.853735106500004 148.30636003199999,-34.853772106499996 148.30636201600001,-34.854486114 148.306499008,-34.854824109 148.306636032,-34.854899108 148.30668201599997,-34.855124105 148.30681900799999,-34.855275102 148.307321024,-34.855386102 148.30773100799999,-34.855273104 148.30905097600001,-34.854406101500004 148.30991696000001,-34.853954091 148.31059996799999,-34.853765095 148.311146944,-34.85368909699999 148.31164896000001,-34.853688098 148.31219593599999,-34.853800078500001 148.312743936,-34.854212073500001 148.31347392000001,-34.854436071500004 148.31420492800001,-34.855187079 148.31443392,-34.85560007299999 148.31461692799999,-34.856238082499999 148.31466291199999,-34.856576077500002 148.31461891199999,-34.857215086 148.31448291199996,-34.857478100500003 148.314118944,-34.857893092499999 148.31384496000001,-34.858081089499997 148.31361795199999,-34.858420083499993 148.313298944,-34.858646098 148.312296992,-34.858986109500002 148.311932,-34.859024108500002 148.311430976,-34.859288103499999 148.31124902400001,-34.859626117 148.31115900799998,-34.860115109 148.31056803199999,-34.860980132 148.31025104,-34.862071132499999 148.31025104,-34.862334128500002 148.31038905599999,-34.862634124499998 148.31107404799999,-34.863234135 148.31317305600001,-34.864283122 148.31344704,-34.864357122 148.31385705599999,-34.864582137500001 148.31454204799999,-34.8651451295 148.31476304,-34.865434136499992 148.31477104000001,-34.865445125500003 148.314954048,-34.865971136 148.31545705600001,-34.86638313099999 148.31564006400001,-34.86675912499999 148.31582304,-34.866909123 148.31600505599997,-34.866983123 148.31687206399999,-34.867057123 148.31792102399999,-34.867318121 148.31992803200001,-34.867503102500002 148.32074899200001,-34.867764119 148.32097699199997,-34.867952116 148.32111497599996,-34.868177113 148.321618016,-34.869228116500004 148.32184803199999,-34.869942105500002 148.32189401599999,-34.870355118 148.32198502400001,-34.870468116 148.32210102400001,-34.870717107499999 148.32219603199999,-34.871091122 148.32233705600001,-34.87142312299999 148.32250105599999,-34.871546129500004 148.322733024,-34.871570124 148.32296201599999,-34.871555120499998 148.32322300800001,-34.871420107500001 148.32406598399999,-34.870724119 148.32468899200001,-34.870013108500004 148.32485398399999,-34.869468098500001 148.32525696,-34.868984101500004 148.32598995199999,-34.868757088 148.326714912,-34.868725101500004 148.32777792,-34.868846073 148.32845692800001,-34.869102076 148.32900793600001,-34.869541081 148.32972291199997,-34.8701300655 148.330475936,-34.87076507799999 148.33106291199999,-34.871294067 148.33164992,-34.871611083 148.33265888,-34.871626068 148.33401590399998,-34.871459068499995 148.33636284799999,-34.871034049500004 148.33968579199998,-34.870222029 148.34153776,-34.869812013500002 148.34465468799999,-34.869038991 148.34661568000001,-34.868433005 148.34855862399999,-34.867311979 148.349951616,-34.866101968 148.351490528,-34.864738943500001 148.35264355199999,-34.863961943500001 148.353357504,-34.863053926500001 148.353998464,-34.861737910500004 148.3549304,-34.85881788899999 148.35536438400001,-34.857569897499999 148.35620633600001,-34.855557874500001 148.35679136,-34.853908877 148.356955328,-34.852773865 148.35678931199999,-34.851941864499999 148.356774304,-34.851898870500001 148.35724131200001,-34.851960864 148.35823030399999,-34.852083852 148.35900128,-34.852179848500001 148.35935728000001,-34.85222386 148.36036828799999,-34.852349845 148.361839264,-34.852531848 148.36276726400001,-34.8525908445 148.363301248,-34.852871841 148.364908224,-34.853567829499994 148.36576921599999,-34.854063833 148.36688822400001,-34.854891837499999 148.367733216,-34.855766832 148.368556224,-34.856525831500001 148.36958720000001,-34.857011808 148.37080518400001,-34.857380809 148.3715512,-34.857618811500004 148.37239718399999,-34.858108821 148.37304816,-34.858322810499999 148.37390016,-34.858233788500002 148.37530012799999,-34.857962800500005 148.37648412799999,-34.857704799499999 148.377557088,-34.857609802 148.378516096,-34.857571784500003 148.37973408,-34.857746776 148.38137907199999,-34.857945780500003 148.38243907200001,-34.858050768 148.38368704000001,-34.858156754500001 148.38524003199998,-34.858217767500001 148.38720499199999,-34.858554745 148.38825900800001,-34.858952735500004 148.38928,-34.859711735 148.390804,-34.860921746 148.391851008,-34.861914752 148.39242998399999,-34.862347763 148.392887008,-34.862642764 148.393451008,-34.862855754500004 148.394036992,-34.862967753500001 148.395156,-34.863286749 148.396276,-34.863932732 148.39728,-34.864498758 148.397996,-34.864824746499998 148.39868899199999,-34.865351756 148.399284,-34.866160761 148.399755008,-34.866948768500002 148.40000803199999,-34.867883758499993 148.400093024,-34.869051774500001 148.40013305599999,-34.870227782500002 148.40021008,-34.871194796 148.399915136,-34.8723748 148.39982512,-34.872954812 148.399378144,-34.874229813500001 148.399242144,-34.874719823 148.3990752,-34.875473827500002 148.39891017599996,-34.876429833499998 148.39895622399999,-34.87677484 148.399276224,-34.87700683 148.39945123199996,-34.877376848499999 148.39916323200001,-34.878142859500002 148.398897248,-34.878582845 148.39839526399999,-34.87895384399999 148.39775628800001,-34.879449866 148.39579830400001,-34.880808894499999 148.39499936000001,-34.881493894 148.393273408,-34.883322915 148.39185043200001,-34.884593920500002 148.39058748799999,-34.885548946 148.38963651200001,-34.886591957500002 148.38895254400001,-34.887392970500002 148.388360576,-34.888397983 148.38779856,-34.888883978 148.387122592,-34.889377983500005 148.3865136,-34.8899369795 148.38607964799999,-34.890524983500001 148.38573862399997,-34.891052973500003 148.38552966399996,-34.891611988 148.38541667199999,-34.892039985499991 148.38523670399999,-34.892602977500005 148.385142688,-34.893230978499993 148.38519574399999,-34.89413598 148.38514576,-34.895855980500002 148.38501779200001,-34.896531008499991 148.38487379200001,-34.897095998499999 148.38464681599999,-34.897586008 148.38467782399999,-34.898107005 148.385082848,-34.899161005499998 148.38536486399997,-34.899524993 148.38594387200001,-34.900064989500002 148.38692486400001,-34.901331980500004 148.38765689600001,-34.902341988 148.38846588800001,-34.903712986 148.38890892800001,-34.90476097399999 148.38932192,-34.905958978500003 148.38980496,-34.906608976 148.390848928,-34.906921977499998 148.392051936,-34.907303984 148.393110912,-34.907384958500003 148.39391088,-34.907270961500004 148.39610486399997,-34.90685095599999 148.39745984000001,-34.906340948 148.399643776,-34.905346943 148.40154172800001,-34.904193949 148.402028704,-34.904005933499995 148.40292771200001,-34.903571923499996 148.40646460799999,-34.901031910499995 148.40749158400001,-34.900269914 148.40911254400001,-34.899294908500003 148.41062646399999,-34.898295908500003 148.411546464,-34.897427888500005 148.41256240000001,-34.896318887500001 148.413019424,-34.896154885 148.41378841599996,-34.896109893 148.41424041600001,-34.896215898 148.415619392,-34.896195862500001 148.41644838400001,-34.896043866500001 148.41723235200001,-34.895798871 148.417902336,-34.895521870499991 148.418397344,-34.895489865500004 148.41870230399999,-34.895582865 148.41890736,-34.895844862 148.418969344,-34.89639087099999 148.41884035199999,-34.896874868 148.41869638399996,-34.897307879 148.41858339199999,-34.897778870499998 148.41875539200001,-34.898151867500005 148.41927139200001,-34.898384875 148.42055337599999,-34.898704869500001 148.422800352,-34.899009860500001 148.42437136000001,-34.899207847500001 148.42600131200001,-34.899437858 148.42697632,-34.899536851500002 148.42897929599999,-34.899522828499997 148.43107324799999,-34.899431827 148.43201024000001,-34.899311836 148.433273216,-34.89905883 148.434164224,-34.898824842 148.43511520000001,-34.898535816500001 148.43600118399999,-34.898203815500004 148.437090144,-34.898051819500004 148.43825516800001,-34.89818181899999 148.43905516800001,-34.898431809500003 148.439993152,-34.898895808 148.44189315200001,-34.900031819 148.443540128,-34.900795813500004 148.44616912000001,-34.90193484 148.44726611199999,-34.902291834499998 148.44839510399999,-34.9024078295 148.44945308800001,-34.902481829500005 148.45009308799996,-34.902437836499999 148.45098406400001,-34.902417838 148.451631072,-34.902428827 148.452171072,-34.902371828500002 148.45346601599996,-34.902099823 148.45396102399999,-34.90203081799999 148.45464003199999,-34.902010819499999 148.455112,-34.901972820499999 148.45553798399999,-34.901940815499998 148.456163008,-34.901971821499998 148.45697798399999,-34.902164813499994 148.457176,-34.90228981799999 148.457359008,-34.902364817 148.45760300800001,-34.902446809 148.457992,-34.902671824500004 148.45865497599999,-34.902802841499991 148.45971497599999,-34.902764842499998 148.46097792,-34.902618822 148.461746944,-34.902485807 148.46271091200001,-34.902124816499999 148.46377990400001,-34.901849795499999 148.465097856,-34.901538792 148.46601283199996,-34.901486788500002 148.467381824,-34.901284787 148.4690808,-34.901007786500003 148.470071776,-34.90072575399999 148.47082777599996,-34.900633753499996 148.471545728,-34.900643762 148.471871744,-34.900649756 148.47231475199996,-34.900522735 148.473029696,-34.900384743499998 148.47377072,-34.900308745499999 148.47433971199999,-34.900262736 148.47584768,-34.900124726 148.47699164799999,-34.899951714 148.477643648,-34.89987072099999 148.47844764800001,-34.899766695499999 148.47921062399999,-34.899667702 148.480827584,-34.899488696 148.481874592,-34.899395678 148.482401536,-34.899308691 148.48342054400001,-34.89912469 148.48391254399999,-34.899026658499999 148.48474451199999,-34.89877367099999 148.48539952,-34.898619658499996 148.486002496,-34.898601658 148.48709849599999,-34.89865664 148.488104448,-34.898746642500001 148.48886745600001,-34.898808654500002 148.48937744,-34.898898657 148.49023744,-34.899159636499995 148.49130643199996,-34.899507621499993 148.491987424,-34.899774632 148.49286243200001,-34.900196635500002 148.494272416,-34.90073962899999 148.49498742399999,-34.900961629 148.49590342400001,-34.901245622499999 148.49667443199996,-34.901501625500003 148.49872038399999,-34.901830629500004 148.499709376,-34.902062638 148.500452384,-34.902301621 148.50118038399998,-34.902385629500003 148.502195392,-34.90251463 148.502994368,-34.902596622 148.50509836800001,-34.902667625 148.50610934400001,-34.902624631 148.506787328,-34.902664628 148.50870832000001,-34.902678632499992 148.51004329599999,-34.902726603 148.510895296,-34.902764620500001 148.51176528,-34.902912620500004 148.512584288,-34.903019606 148.51331328000001,-34.90319361699999 148.51411228800001,-34.903300602500003 148.51491126400001,-34.903349609 148.51544726399999,-34.903314607 148.515780256,-34.903214614500001 148.516094272,-34.903038605500001 148.51633526399999,-34.902696614500002 148.51693123199999,-34.902311611 148.51799222400001,-34.901826615 148.518501216,-34.901701610499998 148.519067232,-34.901625594 148.51953219200001,-34.901458594499999 148.5201592,-34.901223589 148.520866208,-34.901147591 148.52171619200001,-34.901362598 148.5222392,-34.9016115895 148.52280016,-34.901877601 148.52411616000001,-34.902567577 148.524638176,-34.902721571 148.525872128,-34.902903574 148.52654012799999,-34.903001568500002 148.52759209600001,-34.903399577499997 148.52851411200001,-34.903948565 148.52933308799999,-34.904769558 148.530430112,-34.906492555500002 148.531030112,-34.907892561499999 148.53124310399997,-34.908770553 148.53154009599999,-34.909862552500002 148.53173414400001,-34.910837576500001 148.53206112000001,-34.911761577500002 148.532494144,-34.912840571499991 148.53315414400001,-34.913781574 148.53376313599998,-34.914489569 148.53442214399999,-34.91513755 148.53512214400001,-34.91562054799999 148.53583011200001,-34.915819552500004 148.536386112,-34.915776558499999 148.53717011200001,-34.915706554499998 148.53799907199999,-34.915521536 148.538817056,-34.915244535500001 148.53963603199998,-34.915042534 148.54014102399998,-34.914808546 148.54064601600001,-34.914424523 148.54113001600001,-34.914047511500002 148.54158796799999,-34.913492511500003 148.541797984,-34.912741522499999 148.54208896,-34.911874501500002 148.542349952,-34.911065496500001 148.54272089599999,-34.9099974915 148.543043904,-34.909325497499999 148.54316291200001,-34.9087084855 148.54368688,-34.9080904745 148.544303872,-34.907814473 148.54533484800001,-34.907837487 148.54608384,-34.907961455500001 148.54682284800001,-34.908193464 148.54731481600001,-34.908315471500003 148.54790182400001,-34.908339466 148.5486408,-34.908504467500002 148.549298784,-34.908795454 148.54978579199999,-34.90925244099999 148.55016179200001,-34.9099274505 148.55007280000001,-34.910794471500004 148.549661824,-34.911945467500004 148.54885587199999,-34.913677474499998 148.54846387200001,-34.914495489 148.54800192,-34.915430479 148.547278912,-34.916782496 148.54664595199998,-34.918083508499997 148.54629398399999,-34.918843507 148.545951968,-34.919402521500004 148.545457984,-34.9201455185 148.54456099199999,-34.921055515 148.54394502399998,-34.921556532 148.54334304,-34.921852532 148.54223305599999,-34.922855565 148.54106211199999,-34.923441552500002 148.539617088,-34.924261583499998 148.53909612799998,-34.924641573500004 148.53815814399999,-34.925468579 148.537311168,-34.9263295875 148.53674720000001,-34.927255586500003 148.53648620800001,-34.927989592499998 148.53619619200001,-34.929102608 148.53597923199999,-34.931012603500001 148.53598022399999,-34.931654609 148.53603424,-34.932839608 148.536199232,-34.933781628 148.536525216,-34.934706628 148.53701424,-34.935972638500004 148.53762224,-34.93699163699999 148.53841424000001,-34.938123633499998 148.53934921600001,-34.939822636500004 148.540443232,-34.941254629 148.54156121599999,-34.943278621499999 148.54186624,-34.943827627499999 148.54220224,-34.944694648500004 148.54237721600001,-34.945744653 148.54258224,-34.946454646 148.54280624,-34.947112654 148.542829216,-34.947962655 148.54279024,-34.9486626395 148.54292425599999,-34.949287662 148.54313827199999,-34.950112669500001 148.54323126400001,-34.950687668 148.54326428799999,-34.951491678 148.54328732799996,-34.952691680500003 148.54317833600001,-34.9532836805 148.542967328,-34.953892700499999 148.54271536,-34.954509712499998 148.54230339200001,-34.955553704499998 148.54187142399996,-34.956587725 148.54158041599999,-34.957288727 148.541238464,-34.958189732500003 148.54109846399999,-34.958889735500001 148.54083747199996,-34.959423738 148.54059548800001,-34.959924755 148.53988550399998,-34.961433781499998 148.539563552,-34.962118781 148.539161568,-34.963069773499996 148.538809568,-34.963978789500004 148.53867062399999,-34.96466279 148.538610624,-34.965162789499992 148.53834963200001,-34.96577982 148.538037632,-34.966288810500004 148.53751267199999,-34.966873817500002 148.53718368,-34.967191832499992 148.536599712,-34.967934829500003 148.53609472,-34.968560832500003 148.53538873599999,-34.969370855 148.53495577599998,-34.969954844500002 148.534370784,-34.970789879 148.53386681599997,-34.971607875 148.53336582399999,-34.97244389 148.53277088,-34.97337888 148.532651872,-34.974220907499998 148.53245190399997,-34.975071907500002 148.53233190399999,-34.975788912 148.53225392,-34.976796921500004 148.532023968,-34.977993945500003 148.531856,-34.979268947 148.531665984,-34.980211947499996 148.53146704,-34.981296954 148.531388032,-34.982296971499999 148.531553024,-34.983063963 148.531839072,-34.984071954 148.53200307200001,-34.984717955500003 148.53203507200001,-34.985250959 148.53204608,-34.985734956 148.53188608,-34.986492975 148.53160508799999,-34.987135979500003 148.53126211199998,-34.987694975499991 148.531152128,-34.988086990499994 148.53110313600001,-34.988689979500002 148.53125616,-34.98918898 148.53162316799998,-34.990021998 148.53195916799999,-34.990729993 148.53229516799999,-34.991455008 148.53275216,-34.991969992500003 148.53314816,-34.992277999 148.53340816,-34.992441002499994 148.53416915199998,-34.993181002500002 148.53484915199999,-34.993664000500004 148.53567014399999,-34.9940789925 148.53654112000001,-34.994393992 148.53766611199998,-34.994666978 148.53888012799999,-34.994772983 148.54097110399999,-34.994807985 148.542296064,-34.994629959500003 148.54404601600001,-34.99419397 148.54570700799999,-34.993575940500001 148.54670796799996,-34.993156952500001 148.54739494399999,-34.992663946 148.54814092800001,-34.99165392 148.54848390399999,-34.991386928 148.549200896,-34.990843934499999 148.55006985599999,-34.990174919 148.55084787199999,-34.9899069095 148.55138784,-34.989725905500002 148.55230780799999,-34.989148909 148.553691808,-34.988546882 148.55479478399999,-34.9883358895 148.55619075199996,-34.987957897500003 148.557009728,-34.987730865499998 148.55769769599999,-34.987629874 148.55844672000001,-34.987669871 148.55964867200001,-34.988066862499998 148.56063168,-34.988639863 148.561485664,-34.98966387499999 148.56206467199999,-34.990528879500005 148.56264768,-34.991564879500004 148.56303571199999,-34.992505863499993 148.56328169599996,-34.993438874 148.56341472,-34.994055867499995 148.56327475199998,-34.994672898 148.562650752,-34.995707880499999 148.56235078399999,-34.996069888500003 148.56167580799999,-34.997237904500004 148.56157580799996,-34.9976459035 148.56158780800001,-34.998195908500001 148.561659808,-34.998429915 148.5614968,-34.99869291099999 148.56131545599999,-34.999322318 148.560892448,-34.99990632599999 148.560377856,-35.000272922 148.56012288,-35.000491925 148.55974585600001,-35.000624921499998 148.55941488,-35.0006569265 148.55913286399999,-35.000812918500003 148.558915904,-35.001185934 148.55887990400001,-35.001800929499993 148.55906393599997,-35.0030519365 148.55939494399999,-35.003559946500005 148.56044694400001,-35.004567937499999 148.56111792,-35.004932942499998 148.562034912,-35.005093948 148.56299788800001,-35.005146932 148.56411286400001,-35.005003927 148.56515385599999,-35.004629931 148.56589984,-35.004324903 148.56645584,-35.004129913 148.56728480000001,-35.003551899 148.56815932800001,-35.003348251 148.56888876799997,-35.002848880500004 148.56970547200001,-35.002662844500001 148.57084774399999,-35.002231887 148.57150409600001,-35.002108362500003 148.572061088,-35.00184335 148.572400096,-35.001725357 148.57302768,-35.001573879 148.573665664,-35.001495864500001 148.57451568,-35.001486873499999 148.57532764800001,-35.001523873499998 148.575547648,-35.001674870500004 148.57568464,-35.001768869 148.57594464,-35.001840871 148.57614064000001,-35.001830844 148.57625763199999,-35.001784853 148.576605632,-35.001784853 148.57684864000001,-35.001828846 148.577177632,-35.001958845499999 148.57731664,-35.002044852 148.57799363199999,-35.002275843 148.57814963199999,-35.0023188555 148.5785496,-35.002348844 148.578616608,-35.002382847 148.57927760000001,-35.002412854 148.5800256,-35.002409857 148.58031936,-35.002409542500004 148.58046288,-35.002368583500001 148.58065587199999,-35.002327587499998 148.58123795200001,-35.002416979499991 148.58133958400001,-35.00216784 148.58141356799999,-35.0021118405 148.58158457600001,-35.002151837499994 148.58171558399999,-35.002261838500004 148.58180659199996,-35.002401828 148.58187657600001,-35.002453831499999 148.58196659199996,-35.002490831500005 148.58223657600001,-35.0025998335 148.58250659199996,-35.002708835500002 148.582756832,-35.002759692 148.58309459200001,-35.002644825499999 148.57476486399997,-35.01466089 148.574755872,-35.014674894500004 148.57217497600001,-35.018609881499998 148.57365996799999,-35.019741878 148.57545196800001,-35.020651874500004 148.57575395199999,-35.021985872500004 148.57546499200001,-35.022838870500003 148.57602700800001,-35.02350984699999 148.57640598399996,-35.024380845499998 148.57592201599999,-35.025329858500001 148.57604006400001,-35.027374848499996 148.57555206399999,-35.027538851 148.57484508799996,-35.028704850499999 148.57440211199997,-35.029808856500004 148.57508112,-35.030749859 148.57451116799999,-35.032242827499999 148.5736712,-35.033717832500002 148.574405184,-35.034698832 148.57397420800001,-35.037285835 148.57377824,-35.038458827500001 148.57332128,-35.038910838 148.57420329600001,-35.040377832499999 148.57551427199999,-35.04161783199999 148.57511532800001,-35.042503834 148.57498332799997,-35.042795838 148.5735624,-35.045951845499999 148.57320540800001,-35.046460854500005 148.57265344000001,-35.04674884399999 148.572512448,-35.047569855500001 148.57204144,-35.047521848 148.57187849600001,-35.049577864 148.570194528,-35.051101875500002 148.566450624,-35.052231892500004 148.56503670399997,-35.05439789099999 148.56588371199999,-35.054989891 148.56462176,-35.057178885 148.56649676800001,-35.058551881 148.56730576000001,-35.06015190899999 148.56739379199999,-35.060661898499994 148.565002816,-35.061433903500003 148.564715904,-35.063579903499999 148.56438089599999,-35.063922912 148.56416992000001,-35.066154918500004 148.56501094399999,-35.068303934 148.566831936,-35.067529931 148.56873488,-35.067088928 148.57090086400001,-35.06725491 148.57098787199996,-35.068227917500003 148.56912393599998,-35.069213930499998 148.56842496,-35.069927919500003 148.56840595200001,-35.069959924500004 148.568033888,-35.070633361500001 148.56811379199996,-35.070825872499995 148.56818723200001,-35.071130253 148.568296672,-35.071849792 148.56833772799999,-35.072119448 148.56838345599999,-35.072393581 148.56845833599999,-35.072774829 148.56875785599999,-35.074071179500002 148.56890761599999,-35.07463863 148.56900553599999,-35.074951465 148.56909372799998,-35.075168451499998 148.56914736,-35.07538455 148.56917904,-35.075757695 148.56917113599999,-35.076284186500004 148.56915420799999,-35.076631135499994 148.569082208,-35.076815821 148.56887843199999,-35.07712218099999 148.56874777600001,-35.0773306205 148.56839100799999,-35.078012734 148.56832259199999,-35.078181213500002 148.5682632,-35.078412963 148.56821065599999,-35.078519079 148.56795468799999,-35.078840553500001 148.56789923199997,-35.078930186 148.5678528,-35.07911082 148.56770412799997,-35.079315300499999 148.567418656,-35.079693662499999 148.56731568000001,-35.079919288500001 148.567260256,-35.080172368499994 148.56714396799998,-35.080410963 148.56680521599998,-35.081071653500004 148.56664969600001,-35.081419768 148.566362752,-35.082118439 148.5662544,-35.082412644500003 148.56611257599999,-35.082677527500003 148.565942656,-35.082922597 148.565783168,-35.083119511 148.56553728,-35.083366282500002 148.56540336,-35.08353306 148.565349728,-35.083692363499999 148.56531769599999,-35.083950660500001 148.56518089599996,-35.084667961 148.56505632,-35.084990249500002 148.56497171199999,-35.085241165 148.564816576,-35.085802418 148.56480329600001,-35.085958983499999 148.56485977599999,-35.086112274500003 148.564914496,-35.086299291 148.56492384000001,-35.086504678 148.56489792,-35.086739221 148.56490441599996,-35.087062767500001 148.56487164800001,-35.087240978 148.564836,-35.087411696 148.56483168,-35.087586835499998 148.56489433600001,-35.087829296500004 148.564998368,-35.088077696 148.56511536,-35.088246804499995 148.56524713600001,-35.088357786 148.565551328,-35.088530668499999 148.56583427199999,-35.088691951500003 148.56605929599999,-35.08886205899999 148.566644352,-35.08935497299999 148.5672552,-35.089801378 148.56758819199996,-35.089912526 148.567718176,-35.089991632 148.567770368,-35.090064355499997 148.56804972799998,-35.090574030500001 148.56832224,-35.09099270399999 148.56844499199997,-35.091263618 148.56845113599999,-35.091445325 148.56840467200001,-35.091649343 148.56829379199999,-35.09187345199999 148.568062368,-35.0923720085 148.56775241599999,-35.093213 148.56743644799997,-35.093996993 148.567014016,-35.094904825 148.56682105600001,-35.095230628499998 148.56660035199999,-35.095553916 148.56646032,-35.09581743 148.56639443200001,-35.095975198 148.56631955200001,-35.096167801500002 148.566174848,-35.0963172075 148.56599376,-35.096454366499998 148.56577344,-35.096522224499999 148.56568128000001,-35.096542463500001 148.56557113599999,-35.096536987500002 148.56535872000001,-35.096487111500004 148.565018176,-35.096377314 148.5647928,-35.096252938500001 148.56461785600001,-35.096183822500002 148.564449376,-35.096162214499998 148.56435721599999,-35.096168153 148.56411564800001,-35.096266443499999 148.56360409599998,-35.096449131 148.56350076799998,-35.096502781 148.563415456,-35.096575227 148.56325632,-35.096734345499996 148.563085312,-35.09687448299999 148.56268537599996,-35.097160419 148.56230304,-35.097443635499999 148.561742528,-35.097793470500001 148.561151776,-35.098091283500004 148.56096851199999,-35.0981959565 148.56084864,-35.098292619 148.56071219200001,-35.098418067499999 148.56049657599999,-35.098654053499999 148.56025392000001,-35.098985425500004 148.55999507199999,-35.099378902 148.559749216,-35.099843677500004 148.55963904000001,-35.100091170500001 148.55956633599999,-35.100255154500005 148.55943817599999,-35.100535133500003 148.55932044799999,-35.100727015499999 148.55913395199997,-35.100974434500003 148.558902848,-35.101300941 148.55865875200001,-35.101551505 148.55848380800001,-35.101782181499999 148.558332608,-35.102055334 148.558244032,-35.102270526 148.558133728,-35.10249903799999 148.55734873599997,-35.1035928875 148.55715395199999,-35.103835256 148.556997728,-35.104019664 148.55676624,-35.104293445499998 148.556759392,-35.104301733500002 148.55668489599998,-35.104394603499998 148.55653513600001,-35.104598917499999 148.55643251199999,-35.104728417499999 148.55636736,-35.104806635500005 148.55623056,-35.104959538 148.55608585600001,-35.105104892500002 148.555934272,-35.105243753499998 148.55577193599999,-35.105372994500001 148.55553216000001,-35.105529153 148.55536259199999,-35.105622115500005 148.55515596800001,-35.10571419 148.55483555199999,-35.105838658 148.55421241600001,-35.106096141 148.553640352,-35.106320157500001 148.55330377599998,-35.106445347 148.55298012799997,-35.10658332 148.55257187199999,-35.1067809555 148.55230153599999,-35.106898671 148.552128,-35.106984807 148.551959872,-35.107093439 148.55153545600001,-35.1074128415 148.55120393600001,-35.107677058500002 148.550979936,-35.107877062 148.55072096000001,-35.108157059500002 148.55053897599998,-35.108426049500004 148.55035596799996,-35.108820062499994 148.55011097600001,-35.109284061 148.54992198400001,-35.1095350505 148.549747008,-35.109741048 148.54952300799999,-35.109941051500002 148.549250016,-35.110227061499998 148.54904,-35.1104960515 148.54890003200001,-35.110713056500003 148.54873904,-35.110999048 148.54857004799999,-35.111279064 148.54845804799999,-35.111537046499997 148.54836006400001,-35.111777047 148.54821907199999,-35.112178053 148.54798707200001,-35.11254405699999 148.54765811199999,-35.113076061500003 148.547532096,-35.113362071499999 148.54741209599999,-35.113654075500001 148.54726512,-35.113928079 148.54709014400001,-35.114163066 148.54678214399999,-35.114460065 148.54630012800001,-35.11485407799999 148.54607616000001,-35.115048069 148.54588716800001,-35.115231071 148.545733184,-35.115397071499999 148.54560016,-35.115580073499999 148.54548716799997,-35.115889079 148.5454312,-35.116095076499995 148.5454232,-35.116301074 148.545431648,-35.116528494500002 148.545406816,-35.116725686 148.54539132799999,-35.116943042500004 148.54548707199999,-35.117051304500002 148.545588256,-35.117240763 148.54565161599999,-35.1174244495 148.54569011199999,-35.117644951 148.54565123200001,-35.118211865 148.54564585599999,-35.118412553 148.54562928000001,-35.119017984 148.54564259200001,-35.119337756500002 148.545685792,-35.119632517 148.54597452799999,-35.120636641499992 148.54610448,-35.121232082500001 148.546332,-35.121896639500001 148.54656384,-35.122527896500003 148.54668083199999,-35.122811483 148.5468072,-35.123118472 148.54694723200001,-35.123446088500003 148.54702969600001,-35.123626981500003 148.54713481600001,-35.123951786 148.547185568,-35.124155008499997 148.547214368,-35.124437614500003 148.547207872,-35.124715891499996 148.547162176,-35.124997683499991 148.547155328,-35.125037902500004 148.54711248000001,-35.125225566499999 148.547103488,-35.125367128500002 148.547108896,-35.125664497500004 148.54713804799999,-35.125966251 148.54717980799998,-35.126325447 148.54727808000001,-35.126885423499999 148.547366272,-35.127232021 148.547448352,-35.127868865 148.54768380799999,-35.129194464 148.54774355199999,-35.129464101499998 148.54777955200001,-35.129624940500001 148.547867424,-35.129892099 148.548009952,-35.130123626500001 148.54816441599999,-35.130355838499995 148.54835449599997,-35.130616374 148.54879475199999,-35.1311971445 148.549185728,-35.131723192 148.549428,-35.132053047 148.54964112,-35.132342498 148.55009113599999,-35.132911114 148.550685472,-35.133529495 148.551046208,-35.133867804499992 148.55138208,-35.134182804 148.55102099199999,-35.134180917 148.548894112,-35.134052767500002 148.54849129600001,-35.134032954 148.5477288,-35.133995602500001 148.54765897600001,-35.133993993 148.54679315199999,-35.1339550135 148.54601411199999,-35.133929095 148.545753472,-35.133896794 148.54574339199999,-35.1339839105 148.54570128,-35.134053933 148.545647648,-35.134094337 148.54550185599999,-35.134142122500002 148.54332672000001,-35.1345275145 148.54304016,-35.134556041499998 148.54301136000001,-35.134558835 148.542746752,-35.1345574845 148.54247353599999,-35.134526885500001 148.54221683200001,-35.134449759 148.54178377599999,-35.134302961499998 148.54107203199999,-35.134021798500001 148.54089996799999,-35.133975178500002 148.54073507199999,-35.133957178 148.54059827200001,-35.133967538 148.54063139199999,-35.133915775 148.54065337599999,-35.133864123 148.54065193599999,-35.133794100500005 148.540638976,-35.133719582499999 148.54059792000001,-35.133645323499998 148.53960972799999,-35.13218247299999 148.53940128,-35.131965745500004 148.539170528,-35.131784223499992 148.53897504,-35.131670004500002 148.53830364799998,-35.131328272499999 148.537535392,-35.130976199 148.53708323199999,-35.130804482 148.536802432,-35.130691354500001 148.53659004799997,-35.130577320500002 148.53628009600001,-35.130403809 148.536066592,-35.13024774299999 148.535848448,-35.130115172 148.53565331199999,-35.130028851 148.535436256,-35.129968652 148.53477635199999,-35.129830771500004 148.53467737599999,-35.1298101625 148.53358115200001,-35.129539174500003 148.53301561599997,-35.1293735625 148.53274092800001,-35.129274384 148.53248857599999,-35.1291514515 148.53224448,-35.129003766 148.532079232,-35.12901087 148.532085376,-35.128942642 148.53207312000001,-35.128874691500002 148.53204323200001,-35.128824741500004 148.53170521600001,-35.128464842500001 148.53142188800001,-35.128169286500004 148.53078755199999,-35.127457739500002 148.53008844799999,-35.126732336 148.52979683199999,-35.12650005 148.529633408,-35.126401852 148.52917152000001,-35.126229506 148.52874816,-35.126091533 148.52865024,-35.126060397499998 148.52829923199999,-35.125907032500002 148.52804832000001,-35.125666014499998 148.527792,-35.125341654 148.52760841599999,-35.125019365500002 148.52747017600001,-35.124604281 148.52739852799999,-35.12425796099999 148.526786176,-35.124248156 148.52536128,-35.124193988 148.52476416,-35.124129922500003 148.52482499199999,-35.123930992 148.524896,-35.123810002 148.52494300800001,-35.123667996 148.52496499200001,-35.123516 148.52496201599999,-35.123445996 148.524958016,-35.123368 148.524923008,-35.123238000500002 148.52484,-35.123125002500004 148.524712,-35.123028007 148.524560992,-35.122936006499998 148.524408,-35.12284300699999 148.524276,-35.122739999 148.524188,-35.122660005 148.52409500799999,-35.122578993499999 148.52400899200001,-35.122495003499999 148.52394201600001,-35.12240899699999 148.523908,-35.1223199935 148.52390601600001,-35.122225995 148.52392700799999,-35.122123005500001 148.523968,-35.122020996499998 148.52402499199999,-35.121930994 148.524096,-35.1218630065 148.52420499199999,-35.121829003500004 148.52435001599997,-35.121831001499999 148.52451401599998,-35.121851 148.52468201599999,-35.121869000499998 148.52483801599999,-35.121866003500003 148.525147008,-35.1218019935 148.525463008,-35.121694009 148.52566201600001,-35.121598993 148.52576499200001,-35.121550005 148.52602899199999,-35.121377992 148.52623299199999,-35.121185999 148.52634700799999,-35.121000999 148.526419008,-35.120791005499996 148.526466016,-35.120568006500001 148.526508,-35.120340993 148.526564,-35.120122008499997 148.526623008,-35.119953991500005 148.526688,-35.119787991 148.52675100799996,-35.119622009 148.52680601599999,-35.119453992 148.526847008,-35.119284994499999 148.52686601600001,-35.119081994 148.52686,-35.118874997500001 148.52684601600001,-35.118668001 148.526838016,-35.118461004499999 148.52685299199999,-35.118257005 148.52692201599999,-35.117922007 148.52702499199998,-35.1175859915 148.52716099200001,-35.117256007 148.52726300799998,-35.1170599995 148.52626700799999,-35.116942006499997 148.526558464,-35.115211091</coordinates></LinearRing></outerBoundaryIs></Polygon>

	</Placemark>
</kml>