<?xml version="1.0" encoding="UTF-8"?>
<kml xmlns="http://www.opengis.net/kml/2.2">
	<Placemark>
		<Style>
			<LineStyle>
				<color>ff0000ff</color>
			</LineStyle>
			<PolyStyle>
				<fill>1</fill>
				<color>330000cc</color>
			</PolyStyle>
		</Style>
			<ExtendedData><SchemaData>
		<SimpleData name="STATE_2006">1</SimpleData>
		<SimpleData name="POA_2006">2338</SimpleData>
	</SchemaData></ExtendedData>
      <Polygon><outerBoundaryIs><LinearRing><coordinates>151.16313187200001,-31.694104011500002 151.16303990399999,-31.694578 151.16300992000001,-31.694743001500001 151.16273894400001,-31.696092003 151.17032281600001,-31.697167926 151.17055680000001,-31.697096923 151.17058681599997,-31.697189922500005 151.17069081599999,-31.697511915 151.17072380799996,-31.697597921500002 151.17084080000001,-31.697984923 151.17149385600001,-31.699260923500002 151.172162848,-31.699934915499998 151.17221283200001,-31.700178912 151.17266483200001,-31.700651901500002 151.17311683200001,-31.701353902499996 151.17314185599997,-31.701379895 151.173434848,-31.701683905499998 151.173702848,-31.702213893499998 151.174220832,-31.702586890500001 151.17428384,-31.702788873499998 151.17428784000001,-31.702801879 151.17447184,-31.703117877500002 151.17540985599996,-31.704077879500002 151.17648086400001,-31.705797861500002 151.17678188799999,-31.706356857500001 151.17684886399999,-31.706600854 151.17586089599999,-31.707288869 151.17522492800001,-31.707961880500001 151.17465593599999,-31.708176869 151.173718976,-31.708390895500003 151.1733,-31.708405899 151.172530016,-31.7086059025 151.17181104,-31.708733922500002 151.170773056,-31.708920920499999 151.17050608,-31.709587919499999 151.17045606400001,-31.709760913 151.17683094399999,-31.710670854 151.17685094399999,-31.710673851 151.17354828800001,-31.725667879 151.17351328000001,-31.725848883 151.18526809599999,-31.727713775499996 151.18325932799999,-31.736756779 151.18322531199996,-31.736942778 151.183198336,-31.737067782499999 151.18155849600001,-31.744570809 151.18111852800001,-31.746503818500003 151.18068153600001,-31.748419826499997 151.17837878399999,-31.758525877 151.17752387199999,-31.762292902499997 151.17649696000001,-31.76681791 151.17561904,-31.770650925 151.17558601600001,-31.770829931 151.172405088,-31.770392979499999 151.17123312000001,-31.770232991499999 151.17113913599999,-31.770736987 151.169859264,-31.777582005500001 151.16982627199999,-31.777760012499996 151.16909235200001,-31.781685028 151.16847740799997,-31.784969037 151.16844742399999,-31.785132040499999 151.16803846400001,-31.787320035500002 151.16800448000001,-31.7875240535 151.17219040000001,-31.788091004499996 151.17240041599999,-31.788120012500002 151.17218742399996,-31.789247014 151.17423539200001,-31.789535984 151.17446937599999,-31.789567989 151.17687536,-31.789906964499998 151.18049027199996,-31.790417934499999 151.18637417599999,-31.791236874 151.186582176,-31.791274873 151.19987296,-31.793154769 151.199847968,-31.793313758 151.19898006399998,-31.797605795 151.197526208,-31.804779817500002 151.19749721599999,-31.804969831 151.19746220799999,-31.805115814499999 151.194159552,-31.821452868499996 151.19075760000001,-31.820955903 151.19067459199999,-31.821371894 151.186520672,-31.8207679245 151.18648268800001,-31.820946930499996 151.18630070399999,-31.820919939 151.186226688,-31.820905953 151.186183712,-31.820896943499999 151.18615270399999,-31.820892947499999 151.186138688,-31.821289957499999 151.18619068800001,-31.821604957 151.18629171200001,-31.821790956 151.18652771199996,-31.822061925499998 151.18728371200001,-31.822718934500006 151.18765468800001,-31.823203930499997 151.187760704,-31.823318926500001 151.187545728,-31.8244659265 151.18735872,-31.8243929255 151.18702272,-31.824193939500002 151.186871744,-31.824179935 151.18667072,-31.824252954499997 151.18653772799999,-31.824366951500004 151.18645472,-31.824539945 151.186388768,-31.824911943 151.18640876800001,-31.825484943499998 151.18649276799999,-31.825669943499996 151.18681276800001,-31.826112944499997 151.18704076799997,-31.826334944499997 151.187200768,-31.826541941 151.187200768,-31.82662693 151.18715075200001,-31.826712955 151.18698377600001,-31.826842954500002 151.18679977599999,-31.826914956499998 151.18649878400001,-31.8269589495 151.186333792,-31.827054946 151.1864168,-31.827330947499998 151.186770784,-31.827959947499998 151.18682179199999,-31.828117956 151.18682380799999,-31.828460946 151.186625824,-31.829119953 151.18664182399999,-31.829678949 151.18654582399998,-31.829950954500003 151.18626281600001,-31.830323951500002 151.18602886400001,-31.830539957499997 151.18593686400001,-31.830758960499999 151.18597987199999,-31.830854957 151.18611385599999,-31.830968954 151.18636684800001,-31.831125945 151.18643385600001,-31.83126895 151.186434848,-31.831353957499999 151.186302848,-31.831883945499996 151.186153856,-31.832256961 151.18609286399999,-31.832650955499997 151.18588889599999,-31.833073976499996 151.185773888,-31.833474964 151.18575788800001,-31.833718979 151.18567689599999,-31.834002972499999 151.18560889599999,-31.834162979 151.18557590399999,-31.834320969 151.18561088000001,-31.834477978499997 151.18571190399999,-31.834620965 151.18591388799996,-31.834805965 151.18601488,-31.835005968500003 151.18601590399999,-31.835134969 151.185898912,-31.83539297 151.18591692800001,-31.8355219705 151.18601792,-31.835635967499996 151.18621891199999,-31.835735978499997 151.18665488,-31.835848958 151.18699088,-31.835890953 151.187191904,-31.835961956 151.187325888,-31.836047944 151.18741088,-31.836161959499996 151.18741088,-31.836218958 151.18734489600001,-31.836447951 151.18721190400001,-31.83673496 151.187146912,-31.837063945500002 151.18716592000001,-31.837736957 151.18729993599996,-31.838004948 151.18738793599999,-31.838609953500001 151.18750592000001,-31.838852951 151.18755792,-31.839152947 151.18765993599999,-31.839410948 151.18793792,-31.839863957499997 151.18801392,-31.840039948 151.188014912,-31.840196957500002 151.187947936,-31.8402829455 151.18763094400001,-31.840498951499999 151.18754796799999,-31.84065696 151.187497952,-31.841206946500002 151.18729996799999,-31.841487961499997 151.187049952,-31.84164597 151.18663798399999,-31.841784979 151.186564,-31.841804977500001 151.186238976,-31.841784979 151.186028,-31.841720969 151.18572598399996,-31.841721968 151.18554598399999,-31.841758968 151.18470601600001,-31.842111985 151.18448902399996,-31.842240985499998 151.18385404799997,-31.842672997499999 151.18351504,-31.84295799 151.183237056,-31.8433330035 151.18308707200001,-31.8436339985 151.183055072,-31.843849005499997 151.18307209599999,-31.844007014 151.18314009599999,-31.844206999 151.18324108799999,-31.844350004 151.18349408,-31.844621010500003 151.18383308799997,-31.84489198 151.18431808,-31.845305991500002 151.184721056,-31.845475988 151.18490604799996,-31.845632997500001 151.184957056,-31.845761998 151.184891072,-31.846090983499998 151.184893088,-31.846477985 151.18497708800001,-31.84662099 151.18511107200001,-31.846720982500003 151.185431072,-31.846905982499997 151.185624064,-31.846944980500002 151.186017056,-31.846960983 151.18630304000001,-31.847031967500001 151.18653804799999,-31.847145964499997 151.18679004800001,-31.8474309755 151.18682406400001,-31.847573962 151.18677504,-31.847716967 151.18657504000001,-31.847975967 151.18642508799996,-31.848276962 151.18637107199999,-31.84859198 151.18644409599997,-31.848777997500001 151.186512096,-31.848834977500001 151.18662908799999,-31.848891976 151.18684707200001,-31.848962979 151.18714905600001,-31.848946976499999 151.18795705599999,-31.848804970500002 151.18803705599998,-31.848901966 151.188021056,-31.849044971 151.187772064,-31.849646979500001 151.18779004800001,-31.850047967 151.18770809599999,-31.850376971 151.18770908799999,-31.850663961499997 151.18777907200001,-31.851164978500002 151.187864096,-31.8515369765 151.18786608,-31.852008967 151.187775104,-31.852849977 151.18760412799998,-31.853283968500001 151.18750611199999,-31.8538279795 151.18752412800001,-31.854171968500001 151.187626112,-31.854457978500001 151.18786912,-31.854883978 151.18791312,-31.855100964499997 151.18786515199997,-31.855516974 151.187799136,-31.855688968500001 151.18728316799999,-31.856649988 151.18726118399999,-31.856921993500002 151.18724419200001,-31.856986984 151.18538422399999,-31.856712999 151.18469628799997,-31.859978008499997 151.18557724799999,-31.860102014 151.18535523199998,-31.860221006 151.184786272,-31.860323015 151.18451827199999,-31.860409003 151.18441827199999,-31.860495009500003 151.184368288,-31.860582015 151.184335264,-31.860782 151.18416928,-31.861097998499996 151.18393632,-31.8614560105 151.18388729599999,-31.861628005 151.18388931199999,-31.862172016 151.183773312,-31.862574002500001 151.18367033600001,-31.86275003 151.18349033600001,-31.862961022499999 151.18313532799999,-31.863234027 151.18260438399997,-31.863479022499998 151.18245436800001,-31.863565029 151.18227036799999,-31.863724018 151.18218736,-31.863881027499996 151.182154368,-31.864025031500006 151.182188384,-31.8641820225 151.182357376,-31.864353018 151.18265936,-31.864481019499998 151.18284438399999,-31.864638029 151.18296236800001,-31.864824028 151.18296336,-31.865039035 151.182930368,-31.865153032 151.18274739200001,-31.8654400225 151.18266540799999,-31.86564602 151.18249939200001,-31.865937025 151.182381408,-31.8662140255 151.18231641599999,-31.866472026500002 151.182336448,-31.867217021499997 151.18237744000001,-31.867489027 151.18245542400001,-31.867674027 151.18259244800001,-31.868318030499996 151.18258944,-31.868639024 151.18225347200001,-31.869236019 151.182246464,-31.869622021499996 151.18234848,-31.869980033500003 151.18272646400001,-31.870757033500006 151.18282649599996,-31.8716810345 151.18290950400001,-31.871939017 151.182945504,-31.872459033499997 151.18296348799998,-31.872669027 151.182947488,-31.872884034 151.18284752,-31.873114026 151.18278652800001,-31.873420034499997 151.18283753599999,-31.873519028 151.18280752000001,-31.874466024499998 151.182757536,-31.874795028499999 151.18269155199999,-31.8749820265 151.18255856,-31.875168025499999 151.182407552,-31.875298025 151.18220755199999,-31.8753980175 151.181821568,-31.875485041500003 151.18163756800001,-31.875572047 151.18121260800001,-31.875952037 151.18120358399997,-31.876203045 151.181272608,-31.876475050500002 151.1813736,-31.876704043500002 151.18159360000001,-31.877075042499996 151.18182160000001,-31.877314044 151.182115584,-31.877604031500002 151.18230060799999,-31.877895018 151.182959584,-31.878990033 151.18304464,-31.879305032499996 151.183005632,-31.879630022 151.182929632,-31.879778022 151.18277862400001,-31.879921027 151.18259462399999,-31.8800220185 151.18236064000001,-31.8800940205 151.181681664,-31.8802210415 151.18153865599999,-31.880283053500001 151.18140566400001,-31.880412035499997 151.18133865600001,-31.880555040499999 151.18107865600001,-31.880542053500001 151.180970656,-31.880532045 151.18076067199999,-31.8805100485 151.18025868800001,-31.880456047 151.18009568,-31.881283071 151.178074912,-31.891525078 151.177928928,-31.89226308 151.17719596800001,-31.895964097499999 151.177064,-31.896691092 151.169222112,-31.895524167499996 151.16708713599999,-31.895206189499998 151.16673417600001,-31.895154186 151.16285820799999,-31.894600222 151.162672192,-31.894573230499997 151.160425248,-31.894252274 151.14778444800001,-31.892445416 151.14724646400001,-31.892368419 151.147168448,-31.892754421499998 151.146989472,-31.892731407500005 151.144842496,-31.892440458 151.14548144,-31.88928643 151.14225750400001,-31.888851476500001 151.14081052799997,-31.888655487500003 151.13725555199997,-31.888116527 151.13746156799999,-31.887983530500001 151.132879616,-31.887315588 151.13362256,-31.883747585499997 151.13366656,-31.883537573499996 151.13271158399999,-31.883397602500001 151.13249958399999,-31.883363599500001 151.13245859200001,-31.883561605 151.13024662399999,-31.883263625499996 151.12956268799999,-31.886610627 151.125047744,-31.886022678500002 151.11573392,-31.884748787 151.115542912,-31.884723793500001 151.11550992,-31.884892791 151.10837900800001,-31.883937876500003 151.105313056,-31.8835279165 151.10608998399999,-31.878977915500002 151.10611798400001,-31.878786921499998 151.10589996799999,-31.878768921 151.097368096,-31.8775360255 151.09713312,-31.878760022499996 151.09668016000001,-31.881128041 151.09664217599999,-31.8812960395 151.088231296,-31.880099163499999 151.08740828800001,-31.879973178500002 151.08576233599999,-31.879720191 151.08226640000001,-31.879184246 151.08205238400001,-31.879151242 151.08199638400001,-31.87914325 151.07507347200001,-31.878091358500001 151.07443248,-31.877994363 151.07438947200001,-31.878157366500002 151.07430048000001,-31.878366361 151.07416147199999,-31.878564366500001 151.073785504,-31.878951368 151.07338352,-31.879296374499997 151.07311452799999,-31.8794374 151.072807552,-31.879542387499999 151.07251155200001,-31.879645395499999 151.07231753600001,-31.879755396499998 151.071807552,-31.8800774075 151.071512576,-31.880270418 151.07119859199997,-31.880477414499996 151.07086457599999,-31.880629429 151.07048057599999,-31.880745424 151.07013561599999,-31.880814429 151.05858278400001,-31.879198602 151.05404787200001,-31.878564681 151.05397987200001,-31.879065679499998 151.04388304,-31.877591803 151.04378403199996,-31.878067826499997 151.04358704000001,-31.878065828499999 151.04356601599997,-31.878082811500001 151.04266307200001,-31.878809843 151.04133110399999,-31.8790698605 151.04234710399999,-31.880085862 151.04240508799998,-31.880480855499997 151.04228112000001,-31.882166871500001 151.042072128,-31.88247288 151.04211411200001,-31.882797869500006 151.04202316799996,-31.883119899 151.042131168,-31.883514892499999 151.04193116799999,-31.884130887 151.04204614400001,-31.884245901499998 151.04230016,-31.884306896 151.04228316800001,-31.884387889 151.042265152,-31.884478890500006 151.030632352,-31.882779018 151.02964944,-31.887760087500002 151.01459968,-31.885569225 151.01451568,-31.885557218499997 151.01453065600001,-31.88553722 151.014545664,-31.885516222500002 151.01455968,-31.885495225 151.01457568000001,-31.885475226500002 151.014589664,-31.885454229 151.01464966399999,-31.885368222500002 151.01470966400001,-31.885282234500004 151.01476768000001,-31.885195229 151.014824672,-31.885107224500004 151.01487865600001,-31.885018221 151.014936672,-31.8849162305 151.014993664,-31.884812223500003 151.01504665600001,-31.884707236 151.015097664,-31.884601231 151.01514467199999,-31.884493228 151.01519568000001,-31.884369222500002 151.01544662399999,-31.884182224500002 151.01554764799999,-31.884039201 151.01558064,-31.883796203500001 151.01566364799999,-31.883538202500002 151.015814624,-31.883309209499998 151.01609459199997,-31.8830412 151.01645059200001,-31.882806213 151.0167856,-31.882734192500003 151.017096608,-31.882621194499997 151.01727158399999,-31.882419193 151.01737158399999,-31.882218190500001 151.01738758400001,-31.881989197499998 151.01746156799999,-31.881683189 151.01758758400001,-31.881330190500002 151.01770256,-31.881194197 151.017636576,-31.880886172 151.01768454399999,-31.879798168500002 151.01775052799999,-31.879354168500001 151.01775052799999,-31.879111171 151.01768252799999,-31.878824180500004 151.01766451200001,-31.8784951765 151.01776451200001,-31.877865177500002 151.017745504,-31.877512179 151.017444512,-31.877221174 151.01725849600001,-31.876950167500002 151.01710752,-31.876578169499997 151.01702147200001,-31.875821168 151.01698748800001,-31.8754611765 151.01698646400001,-31.875046166 151.01703347200001,-31.87467217 151.01711948799996,-31.8744011635 151.017117472,-31.873857171 151.01716745599998,-31.873679145500002 151.01714144,-31.87358215 151.017158432,-31.873422162 151.017296448,-31.873141147 151.011117536,-31.8722832465 151.00327267200001,-31.871194355 151.001137696,-31.870898373500001 150.99334579200001,-31.8699154685 150.99314179199999,-31.86986846 150.99227881600001,-31.869738479 150.988961856,-31.869241532 150.988736864,-31.869207529 150.97827603199997,-31.867639654 150.97807603199999,-31.867609647 150.966357184,-31.865636807 150.96570716799999,-31.865526824500002 150.96297923200001,-31.865067858 150.962804256,-31.865022847500001 150.96277024,-31.865013856499999 150.96263225600001,-31.864977855500001 150.94415148799999,-31.861875072499998 150.94413251200001,-31.861872075499999 150.94410550399999,-31.862055077499999 150.939613568,-31.861394128 150.939412576,-31.8613631405 150.93526464000001,-31.860759189499998 150.92997971200001,-31.859990237 150.92797075199999,-31.859697271 150.927774752,-31.859669280499997 150.92313683200001,-31.858993346 150.922917824,-31.859032344 150.919968896,-31.858787367 150.91916288,-31.858707373 150.918109888,-31.858602385499996 150.91539795200001,-31.858332415 150.907276032,-31.857514493 150.903732096,-31.857157498500001 150.899422176,-31.856742543499998 150.89932716800001,-31.857182566 150.8958512,-31.856577579 150.89556124800001,-31.8565315695 150.89499222399999,-31.856441604 150.89455523199999,-31.856709595 150.89216329600001,-31.858277636500002 150.89243827199999,-31.856991609 150.89251625599999,-31.85654661 150.89186425599999,-31.856434611 150.891267296,-31.856334618499996 150.89092329600001,-31.856284631499999 150.89083331200001,-31.856269628 150.89069529599999,-31.856245633500002 150.89053731199999,-31.856218642 150.88823632,-31.855821650499998 150.88804432000001,-31.855787666 150.887326336,-31.855677665 150.88732934399999,-31.855663679 150.88706233600001,-31.855617669500003 150.88699532800001,-31.855602666 150.88694633599999,-31.855594674 150.885821376,-31.855428692 150.88557136,-31.855391692 150.88205340799999,-31.8548727485 150.87911744,-31.854438775499997 150.87667046399997,-31.854105794 150.876387456,-31.854066814500001 150.875062496,-31.853878836 150.87355952,-31.853664846500003 150.86864256000001,-31.8529649175 150.86785459199999,-31.852852937 150.86723657600001,-31.852764932499998 150.86400361599999,-31.852304985499998 150.86402563199999,-31.8521929865 150.86156163199999,-31.849330999500001 150.86117865599999,-31.851217999500001 150.85515772799999,-31.850375065499996 150.8483808,-31.849426108 150.848337824,-31.849603116 150.85072083199998,-31.852703105500002 150.84517990399999,-31.851928159 150.84445097599999,-31.8556381675 150.84374006399997,-31.859258192 150.84267116800001,-31.864695231 150.838141216,-31.864021257499999 150.839250144,-31.8586192205 150.839251136,-31.858611228500003 150.83941308799999,-31.857802223500002 150.83921011199999,-31.857784223 150.83667913599999,-31.857403252499999 150.83064723199996,-31.856493293 150.83056121599998,-31.856416296 150.830259232,-31.856302299 150.829924224,-31.856258306 150.82960624,-31.856258306 150.829372224,-31.8562152935 150.82917123199999,-31.856129324 150.828953216,-31.855957311 150.82888624,-31.855814324499999 150.82888624,-31.855585313 150.828987232,-31.855385309500001 150.82903721599999,-31.8551553175 150.82903718399999,-31.854869326 150.82900419200001,-31.854812309 150.82875318399999,-31.854583316 150.82784822400001,-31.854167325 150.82778121600001,-31.854167325 150.82722822400001,-31.853981344499999 150.82711321599996,-31.8539243275 150.82709424000001,-31.854036345 150.82705622399999,-31.854232334 150.82698224000001,-31.854605331 150.82693126399997,-31.85486533 150.82611132799997,-31.8590103475 150.82589331200001,-31.85897936 150.81775545599999,-31.857829474 150.819139296,-31.85076943 150.80680745599997,-31.849025583 150.80144755200001,-31.848268655499997 150.79722358399999,-31.847688680499999 150.78973664,-31.846567747 150.790231616,-31.844071745500003 150.79003161599996,-31.844043736500002 150.785414656,-31.843388781 150.785030656,-31.843333780499997 150.77776972800001,-31.842308862 150.77775475199999,-31.842306845499998 150.771381792,-31.841448908 150.77111481599999,-31.841412907 150.753216,-31.839004096 150.75115904,-31.8387141085 150.75114102399999,-31.838712110500001 150.75093904,-31.838682122 150.750564064,-31.840639126 150.73947817600001,-31.839137240500001 150.73955718400001,-31.838608251500002 150.7391232,-31.838555249 150.73895718399999,-31.838535250500001 150.73494227200001,-31.838046295499996 150.734542304,-31.840145305500002 150.72388752000001,-31.839010423 150.723394496,-31.838558431 150.72339552,-31.838553436 150.72390243199999,-31.836102426500002 150.72502940800001,-31.834459404499999 150.72504940799999,-31.833586408 150.72434236799998,-31.832042416500002 150.72397836799999,-31.831248415 150.72392739200001,-31.830531410499997 150.72310038399999,-31.828555425500003 150.72300736,-31.827479428500002 150.72713424,-31.825112372 150.72798320000001,-31.82386636 150.72799017599999,-31.823833356 150.72815699200001,-31.823687002500002 150.728432,-31.8232849975 150.72850099199999,-31.823121994 150.72857001599999,-31.822959009 150.728826016,-31.822553008 150.72900899199999,-31.822306995 150.72918601599997,-31.822025998499999 150.72943699199999,-31.821548994500002 150.729688,-31.821144991500002 150.730175008,-31.820631006 150.72878012800001,-31.820348344499997 150.72890012799996,-31.81978933 150.73020499200001,-31.813736315 150.728602016,-31.814265341 150.72815507199999,-31.814000328499997 150.72408608000001,-31.812329371500002 150.722367104,-31.811255391 150.721172096,-31.810748417 150.71966809599999,-31.809473434 150.719675104,-31.809463425499999 150.71960608000001,-31.808817424 150.712879104,-31.804653481 150.71381302399996,-31.802620460500002 150.71444502400001,-31.8020584675 150.716575968,-31.801233441500003 150.71655097600001,-31.800861443500001 150.71581996800001,-31.799831437500004 150.71655494399999,-31.798426436500002 150.71707689600001,-31.7975894225 150.718103872,-31.796661407 150.71888787200001,-31.796058418 150.72669174399996,-31.791832333499997 150.73364064,-31.790585267 150.73549260799999,-31.790021239 150.73601257600001,-31.787866248 150.736452576,-31.787934217 150.73863644799999,-31.779281212 150.75114025600001,-31.781056065 150.75965814400001,-31.782253958500004 150.759876128,-31.782275973500006 150.76169401600001,-31.7737789235 150.7617,-31.773766935499996 150.76232694399999,-31.770662931500002 150.762372992,-31.770436991 150.76267593599999,-31.770482926499998 150.76581987200001,-31.770778889500001 150.76605388799999,-31.770800886 150.76664188800001,-31.770787880500002 150.76664204799999,-31.770787880500002 150.767336,-31.767288994 150.769776,-31.767640993500002 150.77046099200001,-31.764256992 150.778987008,-31.765588992 150.780552992,-31.757564006499997 150.77779424,-31.757199038499998 150.77779446400001,-31.757198705500002 150.777771296,-31.757195616 150.77713401599999,-31.757100748 150.77857939200001,-31.755382708500004 150.779348352,-31.754848687500004 150.780890336,-31.754078662 150.781150336,-31.753931661 150.78133433599999,-31.753957653500002 150.781541344,-31.753695656499996 150.78212028799999,-31.753368650500001 150.78226428799999,-31.752978652 150.78366928,-31.752484628 150.78402627200001,-31.75228061 150.784095232,-31.752237616 150.78429024,-31.752114609500001 150.78506624,-31.7516256175 150.78510022399999,-31.751626616499998 150.788064128,-31.749812562 150.78869312,-31.748896553 150.78900710400001,-31.748424544 150.78958806399999,-31.747548532 150.79002406399997,-31.747448539500002 150.790922048,-31.747309530499997 150.79102704,-31.746914518500002 150.792772,-31.747162511 150.79345795200001,-31.743611491500001 150.792146016,-31.743422995 150.792808,-31.739958000499996 150.79355699199999,-31.740239996 150.79360099199999,-31.740288706499999 150.79360403199999,-31.740285395 150.794212,-31.740884998499997 150.79422547199999,-31.740896949499998 150.794236192,-31.740892879500002 150.794748,-31.741184994499999 150.794812992,-31.741391991 150.794540896,-31.742303467500001 150.79455689599999,-31.742306464499997 150.795284,-31.742486007 150.79565881600001,-31.7423561 150.79579900799999,-31.742297991500006 150.796874016,-31.736500998 150.801148,-31.734331003499999 150.80228499200001,-31.733206 150.80575401600001,-31.732736007500005 150.809812,-31.731094003 150.81151699200001,-31.731950997 150.81391401600001,-31.732506996 150.81803401600001,-31.731177993 150.82318,-31.731939009 150.825039008,-31.731485000500001 150.82782499199999,-31.732444003499999 150.829768992,-31.733578997 150.834339008,-31.732837998 150.835936992,-31.732325992 150.83991500799996,-31.729190001500001 150.84901500800001,-31.730528994500002 150.852103008,-31.716647001499997 150.85485299199999,-31.717039997 150.85538700800001,-31.714325991499997 150.862556,-31.715377994 150.865828,-31.699297997499997 150.86853001599997,-31.698422004 150.87109500799997,-31.699242997 150.87348601599999,-31.697340993500003 150.87549801599999,-31.696988994 150.87884,-31.700243995 150.882808,-31.701367999499997 150.88598899199999,-31.702485991500001 150.88654201599999,-31.702156007 150.881200992,-31.693964003499996 150.880484,-31.692588991 150.880644,-31.688662995 150.88677699199999,-31.688821003499996 150.887023008,-31.689691003 150.888148992,-31.695441006499998 150.89009001599999,-31.696493009 150.89947699199996,-31.691118999500002 150.89888201599999,-31.690328994 150.897966016,-31.687524005499998 150.89768499199999,-31.686024007 150.895298016,-31.682545008 150.895803008,-31.681352997500003 150.90395900799999,-31.681582009 150.906448,-31.669062004500002 150.91075100800001,-31.669659998499998 150.910688,-31.667997995500002 150.89391299199997,-31.664792001 150.897314752,-31.663120729500001 150.89813900799996,-31.662776000499999 150.89866972799999,-31.6625016825 150.89890972800001,-31.662377695500002 150.90020067200001,-31.661711677 150.90103964799997,-31.660898639 150.901126656,-31.65953863 150.90190060800001,-31.657898623499996 150.902420576,-31.657379606 150.90445552,-31.655825550499998 150.90454953599999,-31.655819538 150.90540451199999,-31.655773547 150.90575651199998,-31.655755528 150.90870444800001,-31.655153464 150.9111704,-31.6531914095 150.91167536,-31.651817396 150.91333334399997,-31.651546352499999 150.91405427199999,-31.647851329 150.91426825600001,-31.647883297 150.93006406399999,-31.650056122 150.93155792,-31.642483036 150.93204185600001,-31.640031009 150.93378486399999,-31.640275986 150.933992864,-31.640304994 150.93825478399998,-31.640900953 150.93887280000001,-31.640987958499998 150.944076736,-31.641715896499999 150.94409171199999,-31.641711900500002 150.94531568,-31.641379881 150.94625270399999,-31.641618882500005 150.94852966400001,-31.641912866 150.949501664,-31.642400859 150.950152672,-31.642726847500001 150.95261264000001,-31.6433438225 150.952829632,-31.64340182 150.954135584,-31.643750804 150.95550060799997,-31.643455784500002 150.95728355200001,-31.643273744499997 150.95817152000001,-31.643119750499999 150.95936054399999,-31.6431057275 150.96074950400001,-31.643596717499999 150.96115948799999,-31.643526713500002 150.96177049600001,-31.643792688 150.96269049599999,-31.643919690500002 150.96431446400001,-31.644199669500001 150.96560342399997,-31.64431165 150.96701043199997,-31.644530634500001 150.96722742399999,-31.644564619 150.968214432,-31.645152623 150.96920044800001,-31.646274611 150.969408448,-31.646296626 150.96960243199999,-31.646316624499999 150.97234739199999,-31.646905572 150.97618332799996,-31.645769505500002 150.97749027200001,-31.644997482 150.97827923199998,-31.643469456 150.97967020799999,-31.6423614355 150.98208118399998,-31.642571392 150.984310112,-31.642279332499996 150.98539712,-31.642136327499998 150.98881500799999,-31.640046253 150.990890976,-31.640060202 150.99256592,-31.6395551705 150.99501187199999,-31.638474141500001 150.99626787199998,-31.638362124 150.99639481599999,-31.638117091499996 150.99647184,-31.637968092499996 150.99670384000001,-31.637520096500001 150.99911772799999,-31.635024039499999 150.99843369599998,-31.633005042 150.99729571200001,-31.632150046 150.996544672,-31.630453041 150.99493865599999,-31.6284980535 150.99481968000001,-31.628353069 150.99410368,-31.627481053 150.99444563200001,-31.626431067 150.99450163200001,-31.626260053 150.994674592,-31.625728048499997 150.99437459200001,-31.624691049500001 150.9943616,-31.624674048 150.99347056,-31.6234210615 150.99145558399997,-31.620591061 150.991452576,-31.620586066 150.99208550399999,-31.61867805 150.99219152000001,-31.61845605 150.99314345600001,-31.617170022500005 150.994440384,-31.614782986 150.99456438399997,-31.613846997 150.99390736000001,-31.611958979500006 150.99493529599999,-31.609622966 150.99499024,-31.609455966499997 150.99572723200001,-31.6080679485 150.99591622399998,-31.607188939499999 150.99648918400001,-31.606330928 150.997079168,-31.606158915 150.997719136,-31.605314889500001 150.99809910399998,-31.604130889500002 150.99884707199999,-31.602679879 150.99894006400001,-31.602736877500003 150.999282048,-31.602861863499999 150.999711072,-31.602979856499996 150.999992064,-31.603001853 151.00024003199999,-31.602943837 151.00050704,-31.602868838 151.000834016,-31.6027708435 151.00113302400001,-31.602769844499999 151.00225798400001,-31.602828822500001 151.00328,-31.602798797 151.00393196799999,-31.602672793500002 151.004209952,-31.602722780499999 151.00459497599996,-31.602637773 151.00568393599997,-31.601854742 151.00669990399999,-31.6013247355 151.00714988799999,-31.601429723 151.00734988799999,-31.601474715 151.008325856,-31.601720709500004 151.00853686399998,-31.6017736935 151.00859888,-31.601789696 151.01085084799999,-31.602147652500001 151.01267276799999,-31.601573653 151.01515872,-31.600448631 151.01645168,-31.600321628499998 151.01737363199999,-31.600231626 151.01910060799997,-31.600132614 151.020787552,-31.598839593500003 151.023970496,-31.59802058 151.024870464,-31.597417572499996 151.025713376,-31.596420589 151.02672835199999,-31.595944565499998 151.02766233599999,-31.595356561500004 151.02904428799999,-31.594957535 151.03055625600001,-31.594742546500001 151.031406272,-31.594872546 151.03189123199999,-31.594946546 151.03285424000001,-31.5952985455 151.03427820799999,-31.596014551 151.03429420800001,-31.596022543 151.0348072,-31.596324537 151.035612192,-31.597011553 151.0366712,-31.597574545 151.03817116799999,-31.597893540499996 151.03920112,-31.598274548 151.04056812799999,-31.598520524 151.040532128,-31.5987135345 151.04054713599999,-31.598716531500003 151.04119708799999,-31.598852525 151.04250108799999,-31.598971517 151.04323411199999,-31.598909523499998 151.04380508799997,-31.598860498500002 151.044017088,-31.598842498 151.044098112,-31.598862515 151.04417910399999,-31.598880515499999 151.04426108800001,-31.598897498500001 151.04434409599997,-31.598911503 151.044426112,-31.598924508500001 151.04452310400001,-31.598937514 151.04462108800001,-31.598947504 151.044719104,-31.598955514499998 151.044817088,-31.598960509499996 151.04491510400001,-31.598963506500002 151.04500908799997,-31.5989645055 151.04510310399999,-31.598963506500002 151.04519705600001,-31.598959510500002 151.045291072,-31.598953498 151.04538406399999,-31.598944507 151.04547008,-31.598931501499997 151.04555606400001,-31.598916498 151.04564208,-31.598898516 151.045728064,-31.5988815145 151.04581408000001,-31.598866511 151.04590006399999,-31.598853505499999 151.04598608000001,-31.598842498 151.04607206399999,-31.598831509 151.04615808,-31.598820501499997 151.04624406400001,-31.598807514499999 151.04632608,-31.598792492499999 151.04640806399999,-31.598774492 151.04649008000001,-31.598757490500002 151.046572064,-31.598741488 151.04665507199999,-31.598729481499998 151.04674006400001,-31.598721489499997 151.04682608,-31.5987164945 151.046912064,-31.598714496500001 151.04699907200001,-31.59871248 151.04708505599999,-31.598709483 151.04716707200001,-31.598704488 151.047249056,-31.598698494 151.04733107199999,-31.598692481499999 151.04741305600001,-31.598689484499999 151.047495072,-31.598689484499999 151.04757808,-31.598696496 151.04766006400001,-31.598706486 151.04774208000001,-31.598719491500006 151.047824064,-31.598733496 151.04790608,-31.598748481 151.047993056,-31.598765482499999 151.04807907199998,-31.598782484 151.04816505599999,-31.598802482499998 151.04825107199997,-31.59882348 151.04833606400001,-31.598846494 151.04841907199997,-31.598870488500001 151.04850105599999,-31.598896481 151.04858406400001,-31.59892449 151.048665056,-31.598953479499997 151.04874608,-31.5989834865 151.04881408,-31.599009497500003 151.048880064,-31.599036489 151.04894707199998,-31.599063480499996 151.04901305600001,-31.599091489499997 151.04907907200001,-31.59911948 151.04915808000001,-31.599154482 151.04923606400001,-31.599189484 151.04931408,-31.599224486 151.04939206399999,-31.599260487 151.04947008,-31.599296488 151.04952806399999,-31.599323479499997 151.04958707200001,-31.599351488500002 151.049645056,-31.599378461499999 151.049704064,-31.5994064705 151.04976307199999,-31.599432463 151.04984006399999,-31.599466466 151.04991808,-31.59949947 151.049996064,-31.599530476 151.050075072,-31.599560464500001 151.05015408,-31.5995894725 151.05023507199999,-31.599614466 151.05031808000001,-31.599638479 151.050400064,-31.599660475500002 151.05048307199999,-31.599682472 151.05056505600001,-31.599706466500002 151.050639072,-31.599729462 151.05071305600001,-31.599754474 151.05078707199999,-31.599779467499996 151.050861056,-31.599802463 151.05093606400001,-31.599823479 151.05097107200001,-31.599831471 151.05100608000001,-31.599839463 151.05104208,-31.599846474500001 151.051077056,-31.599854466500002 151.05111206399999,-31.599862477 151.05118406400001,-31.599884473500001 151.051255072,-31.599910466 151.05132505599997,-31.599938475 151.05139507199999,-31.599968463500002 151.05146406399999,-31.599999469500005 151.05151107200001,-31.600021466 151.05155808000001,-31.600045479 151.051605056,-31.6000694735 151.051652064,-31.600092469 151.05169907199999,-31.600116463500001 151.051761056,-31.600148468500002 151.05182307199999,-31.6001804735 151.051885056,-31.600212478500001 151.05194806399999,-31.600243466 151.052011072,-31.600273473 151.052077056,-31.600303461499998 151.05214208000001,-31.600334467500002 151.05220806399998,-31.6003634755 151.05227606400001,-31.600388469 151.05234406400001,-31.6004094665 151.05238608,-31.600420474 151.05242905599999,-31.600429465 151.052472064,-31.600438474499999 151.05251507200001,-31.600444468500005 151.05255907200001,-31.600449463499999 151.05259808,-31.600453478 151.05263808000001,-31.600456475 151.05267804799996,-31.600458473 151.052717024,-31.600456475 151.052754048,-31.600449463499999 151.05279302400001,-31.600434478500002 151.052830048,-31.600413462500001 151.052865024,-31.600388469 151.05289904,-31.600360478500004 151.05293004800001,-31.600331470500006 151.05297404800001,-31.600282464 151.05301104,-31.600224466500002 151.053044032,-31.600163472 151.05307504000001,-31.6001004425 151.05310604799999,-31.600038449 151.053126048,-31.599999451 151.053146048,-31.599961452 151.05316604800001,-31.599921455 151.05318502399999,-31.599882457 151.053204032,-31.599843459 151.05323104,-31.599784444 151.053257024,-31.599724448500005 151.05328304,-31.599665452 151.05331004799999,-31.599606455500002 151.05334102399999,-31.599549457 151.05337404799997,-31.599498452500001 151.05341104,-31.599447448 151.05344803200001,-31.59939846 151.053485024,-31.599348454500003 151.053517024,-31.599296451 151.053544,-31.599239452500001 151.053568,-31.599181455 151.05359001599999,-31.599121459499997 151.05361100799999,-31.599061445500002 151.05363401599999,-31.599002449 151.053652992,-31.598955459 151.05367100800001,-31.598907451500001 151.05369001599999,-31.598860443 151.053710016,-31.598814452 151.053732,-31.598768442499999 151.053766016,-31.598702453 151.05380201599999,-31.598638443 151.053840992,-31.598574451499999 151.05388300800001,-31.598514456 151.05392700799996,-31.598455459499998 151.05397001599999,-31.598404455 151.05401500799999,-31.598355448499998 151.05406201599999,-31.598308458499996 151.05411100800001,-31.598262449 151.05416201599999,-31.598221453 151.05421001600001,-31.598185452 151.054259008,-31.598152429500001 151.05431001599996,-31.598120424499996 151.05436297599999,-31.598091435 151.054415968,-31.598064425 151.05445398399999,-31.598046424500001 151.05449296,-31.598030440500001 151.05453196799999,-31.598014438 151.054571968,-31.597999434500004 151.05461097599999,-31.597986429 151.05468096000001,-31.5979654315 151.05475296,-31.597947431 151.05482496,-31.597932427499998 151.05489696000001,-31.597920439499998 151.054969984,-31.59791143 151.05629398400001,-31.597696441499998 151.05778793600001,-31.597442418 151.059444896,-31.596696387 151.060827872,-31.5962683895 151.06330086399998,-31.596475386 151.06559481599999,-31.594939368 151.06758982400001,-31.594843334499998 151.06905382399998,-31.596000343 151.0695648,-31.596403347 151.07009980800001,-31.597018342499997 151.07043884800001,-31.597406343 151.07071785599999,-31.598049347500002 151.07118588799997,-31.598856336 151.07272185599999,-31.599792343500003 151.07391484799999,-31.600399347 151.07498483200001,-31.601258339 151.07592585599997,-31.601876331500002 151.07584089599999,-31.604989363499996 151.07582089600001,-31.605158361 151.07562694399999,-31.606347356 151.07596796799996,-31.60760136 151.07617996799999,-31.607885353500002 151.07704892800001,-31.607983366499997 151.077910944,-31.608389367500003 151.07844092799996,-31.608636361 151.08027792,-31.608889367 151.08128188800001,-31.608918356500002 151.082284864,-31.608976335499996 151.08459184,-31.609715336500003 151.08462985599999,-31.609727343 151.086797824,-31.610953338 151.0872168,-31.610917337 151.08967977599997,-31.611615342 151.090127776,-31.612618338 151.09081078400001,-31.613526336500005 151.09233382400001,-31.616665342499999 151.09371276799999,-31.616364347499996 151.093887776,-31.616326348499996 151.093898784,-31.616324332 151.09494576,-31.6159613435 151.09733571199999,-31.6161663235 151.09879168000001,-31.616216329 151.09919168,-31.616292327 151.10056364799999,-31.617155315 151.10146764800001,-31.61795433 151.10487158399999,-31.618526294500004 151.10573360000001,-31.618728296 151.10687955200001,-31.6189983035 151.107863552,-31.618809289 151.10930752,-31.618621292 151.11043548800001,-31.619143288 151.11078051199996,-31.620243279499999 151.11071452799999,-31.620943282500001 151.110801536,-31.621576278499997 151.111273568,-31.6222152685 151.112376512,-31.623144264500002 151.11248355199996,-31.623420266 151.113107552,-31.624717264 151.11337456,-31.6251472595 151.11364156799999,-31.625864245499997 151.11427657600001,-31.627269246500003 151.114609632,-31.628602245500002 151.11504460800001,-31.629304246500002 151.11602963199999,-31.630566224 151.116848608,-31.631742232 151.117266624,-31.632015236500003 151.118604576,-31.631987227499998 151.11975856000001,-31.631730207 151.12005955199999,-31.631659204 151.12052752,-31.631559211500001 151.121798496,-31.631101207 151.12387244799999,-31.630959201 151.12435744000001,-31.630759197499998 151.12485942399996,-31.630344187 151.127602336,-31.629285191499996 151.12946329600001,-31.628929177499998 151.13133724799999,-31.628821174499997 151.13137222399999,-31.628816179499999 151.13341619199997,-31.628779142499997 151.13379520000001,-31.628542139 151.13594809599999,-31.626926127 151.13730208000001,-31.6270271 151.13753606399999,-31.6270271 151.13772006400001,-31.6270271 151.13922604800001,-31.626383078 151.14078102400001,-31.626857066500001 151.143154944,-31.627288042500002 151.14335593600001,-31.627374049 151.144359936,-31.628071018 151.14450995199999,-31.628018034 151.14482793599998,-31.628033019 151.145115936,-31.627974022500002 151.14543292799999,-31.627981034 151.14569590400001,-31.627954005499998 151.146520928,-31.6278840015 151.14777488,-31.627857990500001 151.148420864,-31.6277879865 151.14883484800001,-31.627703996499999 151.14993980799997,-31.627441962499997 151.150221824,-31.62730497 151.1504568,-31.627117972 151.151254752,-31.626307949500003 151.15141574399999,-31.626200945499999 151.15164675199998,-31.6261179545 151.15197376,-31.626073924500002 151.15256771200001,-31.626045934 151.15287772799999,-31.626090926 151.15310672000001,-31.626143928499996 151.154743712,-31.627279921 151.15564668799999,-31.627652918 151.15696668799998,-31.628255888499996 151.15825465599997,-31.628843874 151.165511616,-31.632615839 151.16669958400001,-31.632315824500001 151.16341500799999,-31.64873796 151.16144019199999,-31.658609005 151.16139920000001,-31.658815002500003 151.16136019199999,-31.659014007 151.16120620800001,-31.659309008 151.16029430399999,-31.663865021500001 151.15951939199999,-31.667934022499999 151.15744960000001,-31.678071060500002 151.16600150400001,-31.67926999 151.16597148799997,-31.679437988500002 151.164939616,-31.684769984500001 151.16393478399999,-31.689958013499997 151.16313187200001,-31.694104011500002</coordinates></LinearRing></outerBoundaryIs></Polygon>

	</Placemark>
</kml>