<?xml version="1.0" encoding="UTF-8"?>
<kml xmlns="http://www.opengis.net/kml/2.2">
	<Placemark>
		<Style>
			<LineStyle>
				<color>ff0000ff</color>
			</LineStyle>
			<PolyStyle>
				<fill>1</fill>
				<color>330000cc</color>
			</PolyStyle>
		</Style>
			<ExtendedData><SchemaData>
		<SimpleData name="STATE_2006">1</SimpleData>
		<SimpleData name="POA_2006">2280</SimpleData>
	</SchemaData></ExtendedData>
      <MultiGeometry><Polygon><outerBoundaryIs><LinearRing><coordinates>151.640559008,-33.002320855500002 151.64077632,-33.002265022499991 151.64087830400001,-33.002266021499999 151.64101430400001,-33.002296028499998 151.64119929599997,-33.002384033 151.641366304,-33.002557026499993 151.64151731199999,-33.002717033 151.64165129599999,-33.00283302799999 151.64180230400001,-33.002977032 151.64210432,-33.003196035 151.64235728,-33.003356023 151.64237737600001,-33.003364052 151.64262726399997,-33.003473035500001 151.64272928,-33.003489019500002 151.64303328,-33.003577024 151.64340428799997,-33.00378202249999 151.64349264000001,-33.003807848500003 151.64349401599998,-33.003724006499993 151.64346636799999,-33.003446229 151.643401216,-33.003146251499999 151.64326873600001,-33.002829365 151.64368601599998,-33.002690004500003 151.64434044800001,-33.002502488499992 151.644408,-33.00248300799999 151.646984992,-33.002149009 151.64742614400001,-33.0020920105 151.64808412799999,-33.0019999915 151.65002809599997,-33.0017329995 151.650070016,-33.001728948 151.65033904,-33.0017029925 151.65065104000001,-33.001698996500004 151.650961056,-33.001719994 151.65273100799999,-33.001912005500003 151.65533296000001,-33.002192965 151.655890016,-33.002253996500002 151.65592700799999,-33.002262007 151.65703404800001,-33.00250284 151.65846,-33.002818838499998 151.65930563200001,-33.003006299 151.65944928,-33.003038156 151.659984608,-33.003139943 151.660878016,-33.003309995 151.660966272,-33.0033248875 151.66228860800001,-33.003548275 151.66242700800001,-33.003569994 151.66273897600001,-33.003619296499998 151.663141088,-33.003656648 151.66345536,-33.003643494500004 151.664084992,-33.003576006499998 151.664655232,-33.003507501 151.66497996800001,-33.0034613435 151.66508112,-33.003449281500004 151.66512972800001,-33.003901255 151.66518947199998,-33.004267647500001 151.665239872,-33.004480508500002 151.66532412800001,-33.004674185 151.66538569599999,-33.004815839500004 151.665599872,-33.005236418500004 151.66581552,-33.005583904 151.66617299200001,-33.005926265 151.66654704000001,-33.00619581 151.66682713599999,-33.006374372 151.66692601599999,-33.006408005 151.66735884799996,-33.006558336 151.667876992,-33.006756008499998 151.66835209600001,-33.006925524 151.66905408,-33.007143324499999 151.66941408,-33.007240172 151.669443616,-33.007247997500002 151.66983673600001,-33.00734843399999 151.66987417599998,-33.00735798 151.670038592,-33.007438917499996 151.670278016,-33.007585992500005 151.67036483199999,-33.007650742500005 151.670628,-33.007844992499997 151.67083059199999,-33.007981911 151.672052896,-33.008788344500005 151.672379584,-33.009003925 151.67268457599999,-33.009334908500001 151.672934016,-33.009822994 151.67321100800001,-33.010354795 151.67327040000001,-33.010534356 151.673259008,-33.010688997500004 151.67324736,-33.010722538 151.67319408,-33.010866098 151.67322,-33.010877993500003 151.67367756799996,-33.011068044 151.674190208,-33.011235543 151.6745808,-33.011314926499999 151.674938016,-33.0113480045 151.67532924799997,-33.011346062 151.675765568,-33.0113705375 151.67583756799999,-33.011374589 151.67631744,-33.011403486 151.676731072,-33.011448922 151.67712025599999,-33.011478633 151.67755296000001,-33.011472953500004 151.678029248,-33.011370352500002 151.67810233599999,-33.011348319 151.678457632,-33.011241481500001 151.67874,-33.011075 151.67902969599999,-33.01085781 151.67919996799998,-33.010709939499996 151.679251808,-33.010665299 151.67948112,-33.010395846500003 151.67971699200001,-33.010111002 151.67992787200001,-33.009821107 151.68013849600001,-33.009597627 151.680398048,-33.0093387935 151.68063801599999,-33.009190997 151.68088332799999,-33.0090444955 151.68093100799996,-33.009018003500003 151.68137472000001,-33.008772693499999 151.68188448000001,-33.008480634 151.68236329600001,-33.008213882500002 151.682818688,-33.007900677500004 151.68310201599999,-33.007700692500002 151.683255712,-33.007592430500004 151.68369817600001,-33.007309917 151.68399408,-33.007074301 151.68440665599999,-33.006776044 151.684752608,-33.006441231 151.68503699199999,-33.006151891 151.68513852799998,-33.006291381 151.685156,-33.006337002 151.68517561600001,-33.006498562499992 151.685215008,-33.006746999 151.685226016,-33.006964004 151.68522025600001,-33.007324051 151.68519827200001,-33.007532046500003 151.68516985599999,-33.007664155 151.685132,-33.007852004 151.68507699200001,-33.008006997 151.68506,-33.008032009 151.68490704000001,-33.008257801500001 151.68485699199996,-33.008354001500003 151.68479292799998,-33.008476046 151.68465801599999,-33.008774007 151.68448601599999,-33.009162007500002 151.684259392,-33.00965901 151.684057088,-33.010111353500001 151.68400704000001,-33.010275596500001 151.683975008,-33.010435085 151.68397100799999,-33.010479004 151.68396672,-33.010515356499994 151.68397299199998,-33.010655993500002 151.68399948800001,-33.010865728 151.684044,-33.011115996 151.68408,-33.011347005499999 151.68412044799999,-33.011572687 151.68415680000001,-33.011741259 151.68416435200001,-33.011889037 151.68416300800001,-33.012018000499999 151.68507011200001,-33.012145983499998 151.68550787199999,-33.012220057500002 151.68559968,-33.012233285 151.685697248,-33.012247326500002 151.68590387200001,-33.012249472500002 151.686117728,-33.012218078 151.686251008,-33.012183002 151.68641257600001,-33.012108983499999 151.686523456,-33.01203996 151.68666201600001,-33.011928997 151.68674556799999,-33.011828468 151.687093312,-33.0114710665 151.68721536000001,-33.01137729 151.68726793600001,-33.011336886 151.687412,-33.011204999500002 151.687552,-33.011114997 151.687723328,-33.011043938500002 151.68785472,-33.0110007225 151.68803328000001,-33.010974452500001 151.6881672,-33.010964185 151.688351168,-33.010959060499999 151.68851280000001,-33.010941966499999 151.688638432,-33.010908111500001 151.688750752,-33.010864747500001 151.68884688,-33.010811375 151.68894214400001,-33.010952974 151.68947401599999,-33.011743997 151.689535232,-33.011847819 151.68959721599998,-33.011972823500003 151.68963123200001,-33.012057831 151.689668224,-33.012167832 151.689696,-33.012277000499999 151.68970649599999,-33.012338901500001 151.689748224,-33.012429829 151.68982921599999,-33.012521829500002 151.68996521599996,-33.012675823500004 151.68994822400001,-33.012718817500001 151.68994723200001,-33.012746826499999 151.689963232,-33.01280482399999 151.690063232,-33.012963831500002 151.69021420799999,-33.013107817 151.690398208,-33.013253819 151.69065321599996,-33.013459816500003 151.690816192,-33.0138308155 151.69103817600001,-33.014259830500002 151.69112217599999,-33.014548819 151.69116118400001,-33.014650828 151.6911592,-33.014721831 151.69123920000001,-33.015095827 151.6914032,-33.01551281699999 151.69143619199997,-33.015584819 151.69155219199999,-33.015786820500004 151.69157817600001,-33.015859821499994 151.69163417600001,-33.016016831 151.69171417599998,-33.0163468155 151.69175619199999,-33.016441831500003 151.69154019199999,-33.016631826500003 151.69129923200001,-33.016872826 151.691144224,-33.017014832 151.69112723200001,-33.017057826 151.69105820799999,-33.017128829 151.69102323199999,-33.017213818 151.691005504,-33.017269762 151.69096921600001,-33.017385831 151.690968352,-33.017456797 151.69095724799999,-33.017583022499998 151.690883232,-33.017561821500003 151.69051296000001,-33.017552553 151.69043808000001,-33.017560193500003 151.69019801600001,-33.017585002 151.689828256,-33.017644165 151.68945817599999,-33.0177391255 151.68908304000001,-33.017890418500002 151.688816992,-33.018028835500004 151.68854051199997,-33.018240068499999 151.68817043199999,-33.018607978 151.68737100800001,-33.019402997 151.68723948799999,-33.019542542499998 151.68716700799996,-33.019700995 151.687160992,-33.019819006500001 151.68707001600001,-33.0201920035 151.68696131199999,-33.020389842500002 151.686788992,-33.020430006 151.68673900799999,-33.020417000500004 151.68656198400001,-33.020367994 151.68643046400001,-33.020332344499991 151.68642803200001,-33.02033499 151.686321408,-33.0204841 151.68622896,-33.020612009 151.685668096,-33.021371970499999 151.684776384,-33.022534862 151.68449939199996,-33.022916868499998 151.684265888,-33.023175036 151.685420416,-33.023430983499999 151.68551436800001,-33.023621885 151.68559753599999,-33.023750848500001 151.68579840000001,-33.023967835 151.685983456,-33.024113818499998 151.68613536000001,-33.024171871500002 151.686588352,-33.024440861499997 151.69727868800001,-33.028722020499998 151.6971,-33.028854998500002 151.69661100799999,-33.029187998499999 151.69575699199999,-33.029831003 151.69519801600001,-33.030257002500001 151.694456992,-33.030715007 151.693856,-33.031115994499999 151.693312,-33.031448994500003 151.692892992,-33.031844006500002 151.69247001599999,-33.03208200899999 151.691912,-33.032555997499998 151.69153900800001,-33.032846003499998 151.691000992,-33.033197004 151.690444,-33.033562009 151.689775008,-33.033989007500004 151.68894,-33.034537995 151.68858601599999,-33.034812997499998 151.68814,-33.035118007 151.68761900800001,-33.035561008 151.68715299199999,-33.035943995 151.68657699199997,-33.0363560085 151.68585100799999,-33.036936002 151.68531100800001,-33.037348996 151.68464300799999,-33.037759992 151.68421500799997,-33.038080005 151.68388,-33.038386994 151.683376,-33.038877003499991 151.68283699200001,-33.039257992499991 151.68241001600001,-33.039486005 151.68183398400001,-33.039898 151.68159801600001,-33.040131007500001 151.68137401600001,-33.040424991 151.68097299199999,-33.040716995 151.68057299200001,-33.041021005499999 151.68009699199999,-33.041472997500001 151.67972700799999,-33.041740008 151.679356,-33.042032992499998 151.679,-33.04233700299999 151.678508,-33.042887008 151.678122016,-33.043191999 151.677796,-33.043460008499999 151.67741001600001,-33.043764000499998 151.677024,-33.044043998 151.67665299199999,-33.044349007500003 151.67622300799999,-33.0447269995 151.675836,-33.045079998 151.67549401599999,-33.045385007500002 151.67463801599999,-33.046365008 151.67439488,-33.046574169 151.673536,-33.047313003500001 151.67213001600001,-33.048663004 151.671975008,-33.048746994 151.67121804799999,-33.049413012500004 151.67085606399999,-33.049796018 151.670821088,-33.049868001500002 151.67076908799999,-33.049910033499998 151.67057907200001,-33.050152032 151.67006700799999,-33.050687995499999 151.66953100800001,-33.051331999 151.66898563199999,-33.051830944 151.668856,-33.051944996499991 151.668392,-33.052530003500003 151.66771299199999,-33.0533050055 151.666964,-33.054212005 151.666124,-33.055266005500002 151.66544198400001,-33.056276993499999 151.66519340799999,-33.056597136 151.66454099200001,-33.057440995 151.66440633600001,-33.057612083 151.66433734399999,-33.057669081500002 151.66423433599999,-33.057796084 151.664076384,-33.058095081 151.66393737600001,-33.05830908899999 151.663885376,-33.058366087499998 151.66372937599999,-33.05865108 151.66345139200001,-33.059035084500003 151.6632424,-33.059420106499992 151.6629824,-33.059747094 151.66275644800001,-33.060088104500004 151.662547424,-33.060473108 151.66252944,-33.060544111 151.66245900800001,-33.060687005 151.66226899200001,-33.060929003499993 151.66214201599999,-33.061129007 151.66133001599999,-33.062410002500002 151.66120550400001,-33.062795117 151.661097536,-33.0631951425 151.66047257599999,-33.064134147 151.66029856,-33.064419139500004 151.660209568,-33.064705131 151.660120992,-33.064976008 151.65985760000001,-33.065504164499998 151.65966259199999,-33.066046159 151.65940064,-33.066574149 151.65925900799996,-33.066974008 151.659256992,-33.067146002500003 151.659008672,-33.067845173 151.658918656,-33.068202167500004 151.658692992,-33.068911994 151.658526016,-33.069485993500003 151.658498912,-33.069605762500004 151.656744992,-33.069148997499994 151.65670700800001,-33.06913699099999 151.65651500800001,-33.069085006 151.65462672000001,-33.068646815 151.65414793599996,-33.068627186500002 151.653955776,-33.068619194500002 151.651422016,-33.068523993500001 151.65130601599998,-33.068519997500005 151.648628,-33.068419006 151.645974016,-33.068318995 151.644904,-33.068279257 151.643957024,-33.068243256 151.643114048,-33.06821225 151.642497056,-33.068188255499997 151.64215299200001,-33.068160006 151.64161116799997,-33.068116124 151.64162713600001,-33.06803202299999 151.64154288,-33.067853017 151.641459008,-33.067690013499991 151.64144496,-33.06759102 151.64143308800001,-33.067503996 151.64147088,-33.067481037500002 151.641510848,-33.067457006 151.641541088,-33.067376013 151.64152704,-33.067245958 151.64152092800001,-33.067078015 151.64148707199999,-33.066882007499999 151.64148492800001,-33.066856977 151.641473056,-33.066738984 151.64142803199999,-33.066601011 151.64138304,-33.066440005499999 151.64134307200001,-33.06623904 151.64134092800001,-33.066096035 151.64129987199999,-33.065944020499998 151.64121491200001,-33.0658170365 151.641168128,-33.065781035500002 151.641210976,-33.065719023500002 151.64120700800001,-33.065657011500001 151.641176032,-33.065615978499999 151.641198016,-33.065553966499998 151.641219968,-33.065478986 151.64119513599999,-33.065394034 151.64116992000001,-33.065308971 151.64117100799999,-33.065224019 151.64115587200001,-33.0651749755 151.64106803199999,-33.065084973 151.64102592,-33.065009012 151.64104393599999,-33.064910999 151.64110403199999,-33.064804975500003 151.641152992,-33.0647030035 151.64118684799999,-33.064539038 151.64124083199999,-33.064468016499994 151.64137513599999,-33.0643760345 151.64152307200001,-33.064345972 151.64163001599999,-33.064289991 151.64174195199996,-33.064233029499995 151.64188812800001,-33.064135016500003 151.641963008,-33.064082014 151.64218188799998,-33.063968979 151.64231004800001,-33.0638949975 151.64245296000001,-33.063851966500003 151.64261891199999,-33.063765035 151.64273593600001,-33.0636729605 151.64286300800001,-33.063638032500002 151.64315497600001,-33.063566049 151.64329897600001,-33.063473974499999 151.64349696,-33.063343013 151.64372592000001,-33.063243039 151.64389116800001,-33.063173997 151.643971072,-33.063111985 151.644030112,-33.063014971 151.644038048,-33.062898957499996 151.64405603200001,-33.062752974 151.64408304,-33.062686022500003 151.644174112,-33.062594040500002 151.64428211200001,-33.06250196599999 151.64438905599999,-33.062423045 151.64450604800001,-33.062353022499998 151.64462915199999,-33.062270031499999 151.644773152,-33.062173017500001 151.644917152,-33.062085993499998 151.64502912,-33.062024962 151.645109056,-33.061971959499999 151.64517312000001,-33.06195999 151.64530992,-33.0619429885 151.645394176,-33.062011013 151.64549785599999,-33.062131984499999 151.64556409599999,-33.06225303 151.645636096,-33.062382992499998 151.645672096,-33.062450036500003 151.64573004799999,-33.062468037 151.64577289600001,-33.062460026499998 151.64582688,-33.062407024 151.645896,-33.062349951500003 151.64598096,-33.062337982 151.64614512,-33.062303979 151.64624016,-33.062291010500005 151.64635104,-33.0622399875 151.64653788800001,-33.062178956 151.64665705600001,-33.0621249545 151.64681689599999,-33.062101015499998 151.64694108800001,-33.062065014499993 151.647081856,-33.062040002499998 151.64724096,-33.062038023 151.647391072,-33.062036043500001 151.64754083199998,-33.062059982500003 151.64764092799999,-33.062138996 151.647711136,-33.062192017 151.64774496000001,-33.062274009 151.647779168,-33.062355982500002 151.64779392,-33.062493955499995 151.64782307199999,-33.06264597 151.64785692800001,-33.062747035500003 151.64792208,-33.062799964 151.64802288000001,-33.062841996 151.64811107200001,-33.062876017500002 151.64824608000001,-33.062932979 151.64833392,-33.063011992500002 151.64844300799999,-33.063091024500004 151.64855500799999,-33.063139994 151.64869715200001,-33.0631790475 151.64880300799999,-33.063168965 151.648904896,-33.063155996500001 151.64900713599999,-33.063101014499999 151.64907913600001,-33.063057003 151.649172,-33.063039983 151.64925984000001,-33.063014971 151.649353088,-33.06297897 151.649429056,-33.0629270405 151.649526976,-33.062902028499998 151.64954496,-33.062842976500001 151.64953811199999,-33.0627349735 151.64946,-33.062637959500002 151.64937289599999,-33.062589008499998 151.649250112,-33.062524018 151.64914105599999,-33.062460026499998 151.64901792000001,-33.062428983499998 151.64887212799999,-33.062412962499998 151.64870508800001,-33.062370024 151.64849411200001,-33.062303979 151.64827091199999,-33.062204967 151.64810496000001,-33.062106954 151.647948,-33.061978971 151.64772912000001,-33.061847047500002 151.64763408,-33.061692961 151.64762688,-33.061586031 151.64762508800001,-33.061440954 151.647635872,-33.061316042 151.647624,-33.061233957500001 151.647607072,-33.061196976 151.647599168,-33.061148006499998 151.64764416,-33.061096983499993 151.64767584000001,-33.061019043 151.64768304,-33.060870987499996 151.64770211199999,-33.060744984 151.64772192000001,-33.060633022 151.64771904,-33.060521966499998 151.64768483200001,-33.060431964 151.64766899200001,-33.060286979499999 151.647672,-33.060133004 151.64766,-33.060042002499998 151.64760889600001,-33.059907988500001 151.64754912000001,-33.059807015499999 151.647487936,-33.059727983500004 151.647419168,-33.059663992 151.64733996800001,-33.059603978 151.64726617599999,-33.0595329565 151.647231968,-33.059487964500001 151.64717904,-33.059420014 151.64713296,-33.059312011 151.64704691200001,-33.059169986500002 151.64698608,-33.059058024500004 151.64690508800001,-33.058937978 151.64683091200001,-33.058841038 151.64678595199999,-33.058809958 151.64674812800001,-33.058783984 151.64670492799999,-33.058736013500003 151.646691968,-33.058675981 151.64666208,-33.058609011 151.64666784,-33.058553048499995 151.646670016,-33.058433964 151.646671072,-33.058356023500004 151.64662896,-33.0582300385 151.64655913600001,-33.058184047499999 151.64648784,-33.058176037 151.64641296,-33.058175038 151.646369056,-33.058160016 151.64634384,-33.058107994 151.64639712,-33.058068034 151.64647705600001,-33.058050033500002 151.64653897599999,-33.058043003500003 151.64654796799999,-33.058009981 151.64649612799997,-33.057956978500002 151.646444992,-33.057860038499996 151.64637193600001,-33.057717033499998 151.64634838399996,-33.057676370499998 151.64629811200001,-33.057590031 151.64615593600001,-33.057366033 151.645974112,-33.057181976500004 151.64579593600001,-33.057017012 151.64565696,-33.056870048 151.64539884800001,-33.056708043500002 151.645066912,-33.056504007 151.64479513599997,-33.056373952 151.64454601599996,-33.05624904 151.64428716800001,-33.056135006 151.64408089599999,-33.056070034 151.643873888,-33.056008022 151.64372016,-33.055982991500002 151.643592,-33.055963011499998 151.643468896,-33.055950968 151.64331408000001,-33.055959959 151.64317296,-33.055984971 151.64308009599998,-33.055980031499992 151.64294796799999,-33.056000992 151.64282016000001,-33.0560029715 151.64270604800001,-33.055982991500002 151.64260883200001,-33.055974981 151.64249004800001,-33.055976979 151.642405088,-33.055991002 151.64229888,-33.056030962 151.642202048,-33.056055992499999 151.64210915199999,-33.056036012500002 151.64198099199999,-33.056027003 151.64183593599998,-33.056047982 151.64171603200001,-33.056083983 151.641533888,-33.0561639955 151.64137404799996,-33.056220957 151.64121888,-33.056282969 151.641001088,-33.056358023500003 151.64082396800001,-33.056426973 151.640642176,-33.056503026500003 151.64047296000001,-33.0565380285 151.64033616,-33.056577988500003 151.64025587200001,-33.056621001 151.640172,-33.056616968 151.64007984,-33.056567018 151.639975072,-33.056529037499999 151.63990489599999,-33.056465046 151.63986598400001,-33.05641698299999 151.639779968,-33.056312032500003 151.63966585599997,-33.056270019 151.639601056,-33.056205028500003 151.639488,-33.056100004 151.63934003200001,-33.055956999 151.63921296000001,-33.0558959675 151.63911683200001,-33.05583197599999 151.638986176,-33.055749003500004 151.63893792,-33.055667011499999 151.63895305599999,-33.055588978499998 151.63895411199999,-33.055480975499997 151.63892099199998,-33.055328961 151.63886592,-33.055245988499998 151.63889401599999,-33.055127995500001 151.63899696,-33.055029002 151.63910387199999,-33.054951968 151.63921513599999,-33.0548969675 151.63932096,-33.054858006499998 151.639449856,-33.0548370275 151.63965683199999,-33.054846037 151.63980697599999,-33.0548519755 151.64003196799999,-33.054850976499999 151.640208,-33.05484899699999 151.64033689600001,-33.054839007 151.64046505600001,-33.054785005500001 151.64059392,-33.054733982500004 151.640687872,-33.054687991500003 151.64087795200001,-33.05460402 151.64132291199999,-33.054411953 151.64153209599996,-33.054307021 151.64162892799999,-33.054282009 151.641775072,-33.054257977500001 151.641894976,-33.054225029 151.64200512,-33.0541820165 151.64213904,-33.0541200045 151.64227584,-33.054081025 151.642554848,-33.054024951500004 151.642710016,-33.053982031499999 151.642807936,-33.05393802 151.64290009600001,-33.053921018499999 151.64300700800001,-33.053892029 151.64303795199999,-33.053841006 151.64307395200001,-33.05380400599999 151.643122912,-33.053830017 151.64324604800001,-33.053849997 151.64336089599999,-33.053840007 151.64344009599998,-33.053825965500003 151.64351100799999,-33.053831016 151.64363987199999,-33.053831996500001 151.64380297599999,-33.05378798499999 151.64392608,-33.053775035 151.64406684799999,-33.053810037 151.64419392,-33.053869977 151.64428211200001,-33.053894008500002 151.644384,-33.0538689965 151.644405952,-33.0538390265 151.64444700799999,-33.053813996 151.64454313600001,-33.053867017 151.64461296,-33.053889957 151.64471484800001,-33.053879967 151.64486892799999,-33.053874028500005 151.644953888,-33.053849016499996 151.64507699200001,-33.053849997 151.64526204800001,-33.053870976 151.64539811199998,-33.053902019 151.64555689599999,-33.053940998500003 151.64571491199999,-33.053991022499993 151.64586,-33.054026043 151.64603603200001,-33.054060952499995 151.64617212799999,-33.05409201399999 151.646316832,-33.0541200045 151.646429888,-33.054213966 151.64656992,-33.054297031 151.64667504,-33.054388014 151.646752096,-33.054499976 151.64683884799999,-33.054612030500003 151.64690003199999,-33.054668992 151.64700409599999,-33.054748024 151.64710992,-33.054815974500002 151.64717795199999,-33.054823985 151.647380992,-33.054822986 151.64754928,-33.054806743 151.64755705600001,-33.0548059845 151.64771184,-33.054793016 151.64790192000001,-33.054768984500001 151.64805203199998,-33.054737035 151.64814096000001,-33.054720033500004 151.64822016,-33.054742973499998 151.64827705600001,-33.054740013500002 151.648326016,-33.054732983500003 151.64836595200001,-33.054762953499996 151.648395136,-33.054845038 151.64849088,-33.0549429585 151.64858700799999,-33.055010002499998 151.64868313599999,-33.055040971499999 151.64871913600001,-33.055019012 151.64883395199996,-33.054972022 151.64898083200001,-33.05491100899999 151.649092096,-33.054864037500003 151.64919900799998,-33.054797974 151.649278912,-33.054735962 151.64938188799999,-33.054629032 151.64952012800001,-33.05457504899999 151.64963497599999,-33.054532018 151.64973395199999,-33.05444399499999 151.64982288,-33.054370013499998 151.64992115199999,-33.054308001500004 151.64997913599998,-33.054258958 151.65016595200001,-33.054135026499999 151.650245888,-33.054110014500004 151.650343072,-33.054114954 151.65049283199997,-33.054112974500001 151.65060803200001,-33.054073014499998 151.65075097600001,-33.05402297199999 151.650928096,-33.053934967499998 151.65103104,-33.053885017500001 151.65116892799998,-33.053815975500001 151.65129708800001,-33.053750004500003 151.65141299199996,-33.053696003 151.65155088,-33.053623020499998 151.65167507199996,-33.053545986499991 151.65176508799999,-33.053469026500004 151.65186803199998,-33.053376952 151.65193104,-33.053292999 151.65203401599999,-33.053182017499999 151.65210995199999,-33.0530979535 151.652163968,-33.053013001499998 151.65221904000001,-33.052923998 151.65227411199999,-33.052784045500005 151.65230185599998,-33.052688012 151.65234288,-33.052609979 151.652374912,-33.052535997500001 151.652420992,-33.052420983 151.65245305600001,-33.052307041500001 151.65247609599999,-33.052224957 151.65250416,-33.052161964500002 151.65255817600001,-33.052080953 151.652598848,-33.052014982 151.65259488000001,-33.051954968 151.65258697600001,-33.05189898699999 151.652622976,-33.051869997499999 151.65264995199996,-33.051867037500003 151.65270288,-33.051867037500003 151.65274716799999,-33.051849037 151.65275184000001,-33.051812037 151.65274393600001,-33.051744993 151.65272304000001,-33.051681982 151.65271116799997,-33.051610979 151.65271187199997,-33.051533038499997 151.65270899199999,-33.0514589645 151.65269209600001,-33.051369961 151.65267193599999,-33.051261958 151.65264313599999,-33.051171955500003 151.65261289599999,-33.051094015 151.65256499200001,-33.051038034 151.65248291200001,-33.050961999 151.65239113600001,-33.050880007 151.65232595200001,-33.050823027 151.65224316800001,-33.050778035 151.65215497599999,-33.050728973 151.65205417600001,-33.050705034 151.65196883199999,-33.050655990500005 151.65189792000001,-33.050651032499999 151.65174384,-33.050661022500002 151.65155808,-33.050662021500003 151.65137196800001,-33.050708993 151.651235168,-33.050747972499998 151.65108,-33.050795036499999 151.65087193599996,-33.050817995 151.65066096000001,-33.050816015500004 151.65042697600001,-33.050795036499999 151.65002089599997,-33.050805026500001 151.64988012800001,-33.050799994500004 151.649764928,-33.0508029545 151.64967312,-33.050787026 151.649562976,-33.050744994 151.64950211199999,-33.050707013499995 151.649427968,-33.050636010499993 151.64934912000001,-33.050567967500001 151.64928899200001,-33.050511986499991 151.64923212799999,-33.050463035500002 151.64919792000001,-33.0503840035 151.64918208,-33.050291041 151.64916912000001,-33.050228048500003 151.64919289599999,-33.050168996499991 151.64920691199998,-33.050123005499998 151.64921305600001,-33.04998198 151.64924112,-33.049907998500004 151.64930304,-33.049845006 151.64939699199999,-33.049772005 151.64950105599999,-33.049647000500002 151.649564032,-33.0495620485 151.649645056,-33.049437025499998 151.64970409599999,-33.049314981 151.64975916799997,-33.049204018 151.64983584000001,-33.049052003500002 151.649930176,-33.04896803199999 151.65005401600001,-33.048925019500004 151.65016092799999,-33.048910978 151.65026208,-33.048926999 151.65034883199999,-33.048964979499999 151.65044496,-33.049052003500002 151.65054108800001,-33.049149036 151.650636128,-33.049224997 151.65073692799999,-33.049277999499999 151.65082691200001,-33.049307969499999 151.65095904,-33.04937303399999 151.651145888,-33.049515965 151.651293856,-33.049647000500002 151.65147708800001,-33.049830964500003 151.651685888,-33.049989990500002 151.651834912,-33.050051003500002 151.65193609599996,-33.050062973 151.652021056,-33.050023013 151.65210889599996,-33.050024012 151.65222803199998,-33.050028951500003 151.652427136,-33.050012042499993 151.65263916800001,-33.049978021 151.65282995199996,-33.049913049 151.65295488000001,-33.049814037 151.653133088,-33.0496669805 151.653290048,-33.049523975500001 151.65339696000001,-33.049429015 151.65356185600001,-33.0493560325 151.65373500800001,-33.049261978499999 151.653837952,-33.04916198599999 151.65387504,-33.049091963499997 151.65386208000001,-33.049025012 151.65381888,-33.048962001 151.65375408,-33.048928978500001 151.65368387199999,-33.048893976500004 151.65354816000001,-33.048829985 151.65356185600001,-33.048766974 151.65360217599996,-33.048737004 151.65366083200001,-33.04865997 151.653723136,-33.04862001 151.653798016,-33.048631979500001 151.65389808,-33.048684982 151.65399888,-33.048738003 151.65410905600001,-33.048786954 151.65420985599999,-33.04880297499999 151.65425916799998,-33.048771025500002 151.65434016,-33.048656011 151.65443088000001,-33.048504995500004 151.65451692799999,-33.048308969499999 151.654645088,-33.048006032 151.65471708800001,-33.047793985 151.65473616,-33.047679951 151.65476208000001,-33.047540997500001 151.65479987200001,-33.047391961500004 151.65483696000001,-33.047242019 151.65486899199996,-33.047127985 151.65486505600001,-33.046983981 151.654812832,-33.046902988 151.65473113600001,-33.046828026 151.65468611200001,-33.046703003 151.65474985599997,-33.046516985499991 151.65481609599999,-33.046406004 151.654854976,-33.046360013 151.654946048,-33.046319979 151.654957024,-33.046264257 151.65497305599999,-33.0461829865 151.65493308800001,-33.046085972500002 151.65494099200001,-33.04597599 151.65497808000001,-33.045895977500003 151.65508608,-33.045802016 151.65521891200001,-33.045688981 151.65531504,-33.045575039500001 151.655358976,-33.045474954500001 151.65537804799999,-33.045380993 151.655372992,-33.045296041 151.65530208000001,-33.04527003 151.655254912,-33.045289011 151.655202016,-33.045238987 151.65517283199998,-33.0451689645 151.655214976,-33.045148984500003 151.655267872,-33.045159955 151.65528697600001,-33.045135035500003 151.65526393600001,-33.045065013 151.65521785600001,-33.044948999499994 151.655184,-33.044833985 151.65511417600001,-33.044772953500001 151.65502595199999,-33.044661990500003 151.65492697600001,-33.044551027499992 151.654832992,-33.044495046500003 151.65473292799999,-33.044414035 151.65468288,-33.0443379815 151.65464905600001,-33.044279040500001 151.65462384,-33.044225039 151.65457705599997,-33.044181027500002 151.65454608,-33.044115963 151.65452089599998,-33.0440640335 151.65446185600001,-33.043971959 151.65443411199999,-33.043890966 151.65442297600001,-33.043805015 151.654428,-33.043703043 151.654435936,-33.043599998 151.65446291200001,-33.043506036499998 151.65448883199997,-33.043434034500002 151.65452592,-33.043364012 151.654536,-33.04328102099999 151.654533856,-33.043213977 151.65453817599999,-33.0431570155 151.65457417600001,-33.043124973499999 151.65463212799997,-33.043110025499999 151.65468611200001,-33.043080962 151.65471888,-33.043055043500004 151.65499283199998,-33.042896017499999 151.655118848,-33.042833006500004 151.655222176,-33.042782964 151.65530208000001,-33.042780984499991 151.65539785600001,-33.042773973 151.65554905600001,-33.042737972 151.65562608,-33.042711961 151.65570313599997,-33.042680011500003 151.65576793599999,-33.042627009 151.65582588800001,-33.042609008500001 151.65588096,-33.042563998 151.655936032,-33.042512975 151.65599113600001,-33.042479046 151.656033952,-33.042430983 151.65605987199999,-33.042399033500004 151.65612108799999,-33.0423720235 151.65617616,-33.042340980500001 151.65623088000001,-33.04230399899999 151.656272992,-33.042247019 151.65630899199999,-33.042204987 151.65635795200001,-33.042165027 151.65641916800001,-33.042108953499998 151.656451936,-33.042063961499998 151.65647209599999,-33.042006981500002 151.65650195200001,-33.041963969 151.65657612800001,-33.041860017499992 151.65663587200001,-33.041732034500001 151.656679072,-33.041631968 151.656707168,-33.041501006499999 151.65672803199999,-33.041399034500003 151.65672697599996,-33.041259008 151.65675683200001,-33.041156037 151.65676188799998,-33.041069993500003 151.65677196799999,-33.040971 151.65677305599999,-33.040914038499999 151.65677411199999,-33.040873986 151.65680003200001,-33.040838965500001 151.65681984,-33.040780024500002 151.65682489599999,-33.040704951500004 151.656828832,-33.04062801 151.65684611200001,-33.040574008500002 151.65684108799999,-33.040482026500001 151.65680688,-33.040377002 151.65683315199999,-33.040341981499999 151.65682489599999,-33.040298969 151.65679212800001,-33.04028502 151.65674099200001,-33.040286999500005 151.656693856,-33.0402359765 151.65664992000001,-33.040184047 151.65660601600001,-33.040137963500001 151.656581152,-33.040094044500002 151.65658188799998,-33.040032032500001 151.65658908799998,-33.039968041 151.65653507199997,-33.039964988500003 151.65648684799999,-33.0399700205 151.65647712000001,-33.040009980500002 151.65647315199996,-33.040052993 151.656459136,-33.040098984 151.656437152,-33.040122035 151.65636012799999,-33.040145974 151.656234848,-33.040142015 151.65603001599999,-33.040132025 151.65580284800001,-33.040124014500002 151.65552889599999,-33.040105015 151.65541008,-33.040089993 151.65535283199998,-33.040052012499999 151.655321888,-33.040013033 151.65531612799998,-33.0399700205 151.65529417600001,-33.03996201 151.65524304,-33.039961011 151.655178976,-33.039961011 151.65512099200001,-33.039960030499998 151.65504505600001,-33.03996201 151.65504793599999,-33.03993204 151.65502307200001,-33.039862017499999 151.65504684799998,-33.039779045 151.65506195199998,-33.039674002 151.65506412799999,-33.039522986500003 151.65507385599997,-33.039483026500001 151.65515411199999,-33.039492036 151.65524304,-33.0395040055 151.655312896,-33.039521007 151.65538992,-33.039556027499998 151.65546192,-33.0396110095 151.65554508799997,-33.039671042 151.65561491199998,-33.039703972 151.65565596799996,-33.039720992 151.65624096,-33.039748982500001 151.65639107199999,-33.039755994 151.65644796800001,-33.039783004 151.65648,-33.039828995 151.656504832,-33.039858965 151.65654912,-33.039860038 151.65660707200001,-33.039844017 151.65664992000001,-33.039801985 151.65669491200001,-33.039774993500004 151.65671113600001,-33.039731962499999 151.65672192,-33.039673021500001 151.656738848,-33.0396110095 151.65677808000001,-33.039547018 151.65678492800001,-33.039501027 151.65680905599999,-33.039406973 151.65682307200001,-33.039302041 151.656834976,-33.039189006 151.65684899199999,-33.039068034499991 151.65685801599997,-33.0389549995 151.65686592,-33.038845017 151.65684505600001,-33.038722972500004 151.65682704,-33.038637021500001 151.656812992,-33.038502027 151.65680185599999,-33.038397002499998 151.65678707199999,-33.038307999 151.65677305599999,-33.038189007 151.65676188799998,-33.038114045 151.65673993599998,-33.0380330335 151.65671904000001,-33.037982010500002 151.65671264,-33.037970799500002 151.65667513599999,-33.037905957 151.65666,-33.037840985 151.65664489599999,-33.037805964500002 151.65660707200001,-33.03771696099999 151.656580096,-33.0376439785 151.65655488,-33.037580967499999 151.65655596799999,-33.0375519965 151.656588,-33.037514016 151.65661392000001,-33.037500955 151.65665209599999,-33.037496015500004 151.65673596799999,-33.037484046 151.65678707199999,-33.037462974500002 151.65682595199999,-33.037442014 151.656894016,-33.037406993499999 151.656926048,-33.037372972 151.65697212800001,-33.037322041499998 151.65701388799999,-33.037281989 151.657056,-33.037228986500004 151.65710208,-33.037158964 151.65714816,-33.037106035500003 151.65719712,-33.037041951500001 151.65724499199999,-33.037011981500001 151.65731305599999,-33.036942958 151.657374976,-33.036886977 151.65741817599996,-33.036818046 151.65745993600001,-33.036747024500002 151.657452,-33.036635969 151.657479008,-33.036596009 151.65751104,-33.036559027500005 151.65752185599996,-33.0364839545 151.657517152,-33.036397023 151.65750601600001,-33.0362870405 151.65749808000001,-33.036183995500004 151.657495936,-33.036094973499999 151.65747792,-33.035993001500003 151.657457056,-33.035912008499999 151.65743292799999,-33.035851976 151.657382176,-33.035811035500004 151.65734112000001,-33.035751983499992 151.65730403200001,-33.035687011500002 151.65727308799998,-33.0356160085 151.65724211200001,-33.035528966 151.65721187199998,-33.035434024 151.65712512,-33.035247988 151.65702793599999,-33.035085003 151.657016032,-33.035028023 151.65701712000001,-33.0349910415 151.656963136,-33.034955040500002 151.65669491200001,-33.0345019755 151.65666108799999,-33.034400003500004 151.65668412799999,-33.034367961500003 151.65668412799999,-33.0343350315 151.65666611199998,-33.034305968 151.65662688,-33.034308021500003 151.65658297600001,-33.034296958500001 151.656558112,-33.034248007500004 151.65653904000001,-33.034202016500004 151.65641916800001,-33.034136045499999 151.65633996799997,-33.034092034 151.65631398400001,-33.034056902499998 151.65627984,-33.034011022500003 151.656220096,-33.033926977 151.656184096,-33.033815995499999 151.65610595199999,-33.033693951 151.65598608,-33.03354402699999 151.65585792,-33.033394972499998 151.65572508799997,-33.033285989 151.65554796800001,-33.033122005 151.65538704,-33.032987991 151.65524809600001,-33.032841027 151.65521769599997,-33.032809947 151.655185824,-33.032777165 151.65513216,-33.032723034 151.65503712,-33.032630978 151.654879072,-33.032500016500002 151.65479411199999,-33.032433953 151.65470195200001,-33.032357992 151.65440892800001,-33.032120045 151.65405683200001,-33.031889997499995 151.65399097599999,-33.03183599599999 151.653859936,-33.031770025 151.65377497599997,-33.031715043 151.65366985599999,-33.031662022 151.65361008,-33.031638009 151.65349488000001,-33.031587966499998 151.653416032,-33.031524955500004 151.65336889599999,-33.031490046 151.65330192,-33.031475005499999 151.653243968,-33.031466995 151.65319500800001,-33.031464035 151.653116896,-33.031458004 151.65301788799999,-33.031423982500002 151.652916,-33.031387981500004 151.65288684800001,-33.031388962 151.65281987200001,-33.031389961 151.652628,-33.031393013500001 151.65240083199998,-33.031383023499998 151.65213913599999,-33.031379971 151.65198217599999,-33.031375013 151.65190512000001,-33.031383023499998 151.65178595200001,-33.031450974 151.651745984,-33.031464775 151.651693088,-33.031483016 151.65160883199999,-33.031501016500002 151.65148787199999,-33.031502015500003 151.651415168,-33.031466014499998 151.65133811199999,-33.031424963 151.65126899200001,-33.031384022499999 151.65117395199999,-33.031340011 151.651077856,-33.031287989 151.65105299199996,-33.031243977500004 151.65105084800001,-33.031185036499998 151.651062016,-33.031123024499998 151.65109801599999,-33.031062992 151.65100691200001,-33.0309729895 151.65092483199999,-33.030882987 151.65086508799996,-33.030810004500005 151.65075097600001,-33.030732952 151.650636832,-33.030666981 151.650545056,-33.030614977500001 151.650447136,-33.030549006500003 151.65037116799999,-33.030495005 151.65024985599996,-33.030433973500003 151.65010691200001,-33.030392034 151.64997696,-33.030329041499996 151.64980489600001,-33.030253987 151.649683936,-33.030206997 151.64956908799999,-33.030173974500002 151.64942617599999,-33.030132035 151.64933004799997,-33.030138954 151.64920188799999,-33.030174955 151.649098912,-33.030198006 151.64899884799996,-33.030232027499999 151.64888617599999,-33.030303030500001 151.64877996800001,-33.030361971499993 151.64864387200001,-33.030432993 151.64855388800001,-33.030479964500003 151.648452,-33.030505975499999 151.64835913600001,-33.0305529655 151.648288928,-33.030551966499999 151.648167968,-33.030604987499999 151.64804304,-33.030675990500001 151.64790083199998,-33.030756983499998 151.64780905599997,-33.030795963 151.64770284799999,-33.030827006 151.647635872,-33.03085301699999 151.647563168,-33.030830965 151.64746812800001,-33.030809005500004 151.64739504,-33.030793983500004 151.64731584,-33.030793983500004 151.647210016,-33.030821974 151.647112096,-33.030820975 151.646991136,-33.030813963500002 151.64689212799999,-33.030808025 151.64681904,-33.030815036500002 151.64677116799999,-33.030854996500004 151.64671283199999,-33.030890997500002 151.64665488,-33.030923039500003 151.64659187199999,-33.030933029499998 151.64652096,-33.030947977499999 151.646451136,-33.030996022 151.64639603200001,-33.031033022 151.64631289600001,-33.031065952 151.64623907199999,-33.031095034 151.64614009600001,-33.031136973500004 151.646092928,-33.03113399499999 151.646004,-33.031122025500004 151.645926976,-33.031126983500002 151.64586611199999,-33.031152994500005 151.64580601599999,-33.031151995500004 151.645732928,-33.031118973 151.645650848,-33.031080992500002 151.64561017599999,-33.031055962 151.645544992,-33.031028970500003 151.64547516799999,-33.03098603199999 151.64541289600001,-33.030981999 151.645349888,-33.030996022 151.64525484800001,-33.030927997500001 151.645110112,-33.030858955500001 151.644998176,-33.030791005 151.644907072,-33.030765993 151.64474905599999,-33.030728993 151.64463996800001,-33.030707033500001 151.64451216,-33.030669959500003 151.64440416,-33.030633958499998 151.64428284799999,-33.030629019 151.64421952,-33.030669201 151.644189952,-33.03068796 151.64413488,-33.030721981500001 151.64404704,-33.030784974 151.64400492799999,-33.030816035500003 151.64393004799999,-33.030752044 151.64384796799999,-33.030716043 151.64373888,-33.030690032 151.64362297599999,-33.030664021 151.64350201599999,-33.03064196899999 151.64335296,-33.030614977500001 151.643176928,-33.030621008499999 151.642996928,-33.030647001 151.642808992,-33.030696951 151.64267904,-33.030741961499999 151.64260704,-33.030800995 151.64256889599997,-33.03085301699999 151.64252604800001,-33.030883986 151.64252496,-33.030946978499991 151.64253216,-33.031032023 151.64249795200001,-33.031077033500004 151.64242704,-33.031082972 151.64232697599996,-33.031071983 151.64225603200001,-33.031088004 151.64223408000001,-33.031148036499999 151.64222003200001,-33.031224996500001 151.64217001599999,-33.031252987 151.64212105600001,-33.031213027 151.642074976,-33.031167036 151.641992896,-33.031086024499999 151.641936,-33.0310179815 151.641932032,-33.030962019 151.641894976,-33.03092997699999 151.64186617600001,-33.03092997699999 151.64182403199999,-33.030926018 151.64182512,-33.030872997 151.64182297599996,-33.030784974 151.64179488,-33.030696951 151.641775072,-33.030635031500005 151.64164297600001,-33.030513986 151.64147088,-33.030412014 151.64125993600001,-33.030290968500005 151.641024832,-33.030188016 151.64073504000001,-33.030072002499992 151.64039808000001,-33.029943039 151.63984188800001,-33.029711012 151.63955209599999,-33.0296010295 151.63940195199999,-33.029593019 151.63919785600001,-33.029550987 151.638969952,-33.029488975 151.63873417600001,-33.029440024 151.63856387199999,-33.029379991500001 151.63849116799997,-33.029384043 151.63827804799999,-33.029368022 151.63799507199997,-33.029312041 151.63776684800001,-33.029270009 151.637562016,-33.029241038 151.63737696000001,-33.029199006 151.63710912,-33.029152016 151.63677683200001,-33.029058961 151.63638803200001,-33.0289749895 151.636033088,-33.028910017500003 151.63579404800001,-33.02887895599999 151.63561584,-33.02883999499999 151.63539913599999,-33.028791025499999 151.63518816000001,-33.028797963 151.635026176,-33.028819016 151.63485804800001,-33.028846026 151.634635936,-33.028838996 151.63442496,-33.028788953499998 151.63425792000001,-33.028749992500003 151.63406387200001,-33.028710032500001 151.63385904,-33.028657011500002 151.63369811199999,-33.028613018500003 151.63365888,-33.028588987 151.63358688,-33.028574039 151.63353107200001,-33.028569007 151.63345907199999,-33.028543976500004 151.63340508799999,-33.028469014500004 151.63335001600001,-33.028397993 151.63332912000001,-33.028317999 151.633340992,-33.02826201799999 151.63335900800001,-33.028215028 151.63336009599999,-33.02813096399999 151.63333884799999,-33.028046012 151.63328988800001,-33.027975009 151.63324092799999,-33.027928019 151.633168928,-33.027856017 151.63318691200001,-33.027791045 151.63321609599998,-33.027706981 151.63331292799998,-33.027577018500004 151.63334713599997,-33.027549028 151.63340508799999,-33.027353002 151.63343209600001,-33.027191996500001 151.63324812799999,-33.027042960500005 151.63311097600001,-33.02693604899999 151.63293708800001,-33.026792045 151.632785888,-33.026649021499992 151.63264908799999,-33.026487035500004 151.63251084799998,-33.026373982 151.63243091199999,-33.026310989500004 151.63235315199998,-33.026174996 151.632252,-33.026063034 151.63217315200001,-33.0259629675 151.632079936,-33.025851005499995 151.63199497599999,-33.025615019500002 151.63195500800001,-33.025356001 151.631907136,-33.025127045 151.63189488,-33.024978989499999 151.63186896,-33.024768034 151.63183584000001,-33.024545997 151.63190604799999,-33.0242940085 151.63199603199999,-33.024104013499993 151.631991008,-33.023937957500003 151.631969056,-33.023771994 151.63199497599999,-33.023626029 151.632020896,-33.023539985500001 151.63208604799999,-33.023387971 151.632111968,-33.023215976499991 151.63213104,-33.023036970500002 151.63210188799999,-33.0228369855 151.632065152,-33.022677959500001 151.63199603199999,-33.022550975499996 151.63188803200001,-33.022416961499999 151.63166089599997,-33.022222027 151.631568,-33.022172965 151.63138009599999,-33.022110953 151.63118387200001,-33.022049033500004 151.630940896,-33.02196003 151.63073712,-33.021891987 151.63047792,-33.021836006 151.630296832,-33.021793974 151.63015609600001,-33.021738992 151.63006211199999,-33.021665010500001 151.63007113599997,-33.021612008 151.63011900800001,-33.021546037 151.63016112,-33.0214339825 151.63020108800001,-33.0213809615 151.630272,-33.021349012 151.63032816,-33.021303021 151.63038505599999,-33.021204027499998 151.63044192000001,-33.021079023 151.63049088,-33.020953019499991 151.63050204800001,-33.020786963500001 151.63050384,-33.020640998499999 151.630507072,-33.020468005 151.63050204800001,-33.020288999 151.63049699199999,-33.02010296299999 151.630499168,-33.019964009500001 151.63045472,-33.0198393565 151.6304368,-33.019772201500004 151.63032889600001,-33.019606978 151.630206848,-33.019290998 151.63023888000001,-33.019172006 151.630238784,-33.019075195500001 151.63022483200001,-33.018994979499993 151.630206848,-33.018867181499999 151.63010208,-33.0186059985 151.62995484800001,-33.018431044 151.62981587199999,-33.018283987499998 151.629667936,-33.018116044500005 151.62954515199999,-33.017941978 151.62942889600001,-33.017775034 151.629368032,-33.017654969 151.62930611199999,-33.017573976 151.62926003199999,-33.017480995 151.629246016,-33.017381002500002 151.62924096,-33.017228007500002 151.62922691200001,-33.017088961500001 151.629246016,-33.016931008500002 151.62923808,-33.01681895399999 151.629186976,-33.016608997500001 151.629149888,-33.016469045 151.62908112,-33.016316031500004 151.62902713599996,-33.016215965 151.62895008000001,-33.016102023500004 151.628834176,-33.016007969500002 151.62867792,-33.015905997499992 151.62856883200001,-33.015806005 151.628491072,-33.015725012 151.628421952,-33.015625019499993 151.62833699199999,-33.015551038 151.62827401600001,-33.015497036500001 151.62827616000001,-33.015398043 151.62830099199999,-33.015285008 151.628311072,-33.015132993499996 151.62831289600001,-33.015033001 151.62829993599999,-33.014867037500004 151.628310016,-33.014694969 151.628280832,-33.014547986499998 151.628250976,-33.014467974 151.62825312,-33.014356012 151.62826211199996,-33.014235965499992 151.62826787199998,-33.014125983 151.62828192000001,-33.013997001 151.62827401600001,-33.013767952499997 151.62820992,-33.013503994499999 151.628184,-33.01332201 151.62814188799999,-33.013131034499999 151.62810985600001,-33.012982979 151.62807203200001,-33.012890997 151.62801804799997,-33.012713970500002 151.62799212799999,-33.012570965500004 151.627943168,-33.012422003499999 151.62794496000001,-33.012278998500001 151.62794784,-33.012120953 151.62796188799999,-33.011906038500001 151.62794892799997,-33.0117820145 151.62796188799999,-33.011610038500002 151.62799897599999,-33.01140500299999 151.62804611199999,-33.011243017 151.628100128,-33.011099993499997 151.62818112,-33.010963019500004 151.628295968,-33.010864026 151.62837696,-33.010812004 151.62852492799999,-33.010770952500003 151.62869017599999,-33.010724961500003 151.628775136,-33.010698969 151.62887808,-33.010670978500002 151.62911100799997,-33.010649999500004 151.62928704000001,-33.010608966500001 151.629486112,-33.010562975500001 151.62969097600001,-33.010507975 151.62982201599996,-33.010461984 151.629930016,-33.010468015 151.63011792,-33.01042202399999 151.63032889600001,-33.0103479685 151.63045993599999,-33.010301977499999 151.63064784,-33.010255986499999 151.63082387200001,-33.010215027500003 151.63114896,-33.010109004 151.631360992,-33.010010991 151.63161193599998,-33.009903987 151.631885888,-33.009777983500001 151.63218899200001,-33.009642008500002 151.632456832,-33.009516005 151.63260176,-33.009448683500004 151.63265699199999,-33.00942302399999 151.63283987200001,-33.009353001499996 151.63298208,-33.009269048500002 151.63317107200001,-33.009165985 151.633325888,-33.009076981500002 151.63352604799999,-33.008974029 151.63371504,-33.008868986 151.63389216,-33.008760983 151.63406387200001,-33.008633999 151.634298976,-33.00845499299999 151.63448291199998,-33.008333041 151.63468307199997,-33.008196955 151.63481484799999,-33.008102993500003 151.634988,-33.007960987499999 151.63516009599999,-33.007833985 151.63533216,-33.007682969499996 151.635447008,-33.007579018 151.63559100800001,-33.007456973499998 151.635723136,-33.007334041 151.63588403200001,-33.007173035500003 151.635993856,-33.007055042499999 151.63609788799999,-33.006956049 151.63620083199999,-33.006837963500004 151.63637401599999,-33.00668199 151.63647696000001,-33.006616019 151.636563008,-33.006545996500002 151.636660928,-33.006465984 151.636871872,-33.006363031500001 151.63699715199999,-33.006317040500001 151.637156992,-33.006279966500003 151.63728192,-33.006258007 151.63736185600001,-33.006205985 151.63745401599996,-33.006144953499998 151.63762499200001,-33.006050992 151.63781904000001,-33.005962987499998 151.63797996799997,-33.005869026 151.63809913599999,-33.005807994500003 151.63827696,-33.005728981 151.63841305599999,-33.005673 151.63856713600001,-33.005631967 151.63871004800001,-33.005590027499998 151.63889795200001,-33.005510995500003 151.639120096,-33.005460953 151.63938793599999,-33.005387970500003 151.639502048,-33.005327031500002 151.63966297600001,-33.005213996500004 151.63982892799999,-33.005077022499997 151.639967872,-33.004926007 151.6401,-33.004770033500002 151.640222048,-33.004590028500004 151.640379008,-33.004377981499999 151.64046611200001,-33.004230037 151.640583136,-33.003987021 151.64065513599999,-33.003758971499998 151.64069184,-33.003564037 151.64070588800001,-33.003362979 151.64070409600001,-33.003138962500003 151.64066700800001,-33.002952038499998 151.64062489599999,-33.002789035 151.64064108799997,-33.002660978 151.64057699200001,-33.002388991 151.640559008,-33.002320855500002</coordinates></LinearRing></outerBoundaryIs></Polygon><Polygon><outerBoundaryIs><LinearRing><coordinates>151.639688896,-33.059570049 151.63966297600001,-33.059520987 151.63959312,-33.059410024 151.63952905599999,-33.059330011500002 151.63950707199999,-33.059213998 151.639449856,-33.059079003500003 151.63938684799999,-33.058908008 151.63929900799999,-33.0588170065 151.63920611200001,-33.0587260235 151.63918489599999,-33.058565018 151.63916796799998,-33.058449985 151.63912297600001,-33.058344960500001 151.63911900799999,-33.058209966 151.639067168,-33.058104035 151.63906896,-33.05799396 151.63911792,-33.057873987500002 151.63921404800001,-33.057780026 151.63928099200001,-33.057705952 151.639352992,-33.057637021 151.639479008,-33.057602999499991 151.63963993600001,-33.057575009 151.63982387199999,-33.057576988500003 151.640020096,-33.057568978 151.640229952,-33.057560967500002 151.64033689600001,-33.057604979 151.640372896,-33.057738993 151.640408896,-33.057873007 151.64039987199999,-33.058027981500004 151.64036713600001,-33.058140036 151.64028396800001,-33.058181975499998 151.64013817599999,-33.058148046499994 151.639974016,-33.058092953500001 151.63979689599998,-33.058016012 151.63966512,-33.057955979500001 151.63959708799996,-33.057858965499996 151.63956611200001,-33.0577569935 151.63947107199999,-33.057739973499999 151.63937497599997,-33.057792994499998 151.63929792,-33.057892987 151.639309088,-33.058006022 151.63940809600001,-33.058140036 151.639489088,-33.058268999500001 151.639486912,-33.058380961499999 151.639548128,-33.058510017499998 151.63968707199999,-33.058608030499997 151.63979292799999,-33.058704952 151.63999488,-33.058819985 151.64016409600001,-33.058950021500003 151.640237888,-33.059111045500003 151.640273888,-33.059223988 151.640251936,-33.059394003 151.64017993600001,-33.059538007 151.64012700800001,-33.059687043 151.64016985599997,-33.059789015 151.64034697599999,-33.059871007 151.64041104,-33.059813046500004 151.640373952,-33.059710982 151.64037612800001,-33.05959902 151.64043516800001,-33.0594869655 151.64051113599999,-33.059499027500003 151.64053488,-33.05957904 151.64050211200001,-33.059669042499998 151.640468992,-33.059764983500003 151.640620928,-33.059804037 151.64076601599999,-33.059800984500001 151.64090604800001,-33.059774973499998 151.64105904,-33.059745003499998 151.64116704,-33.059762005 151.64121708799999,-33.059832027500001 151.64121491200001,-33.059917978500003 151.641137888,-33.060029034 151.64102809600001,-33.0601130055 151.640957888,-33.0601820475 151.640956096,-33.060300022 151.641047872,-33.060337022 151.64117100799999,-33.060297968500002 151.64130816,-33.060283020500002 151.64145107199997,-33.060336023 151.64154505600001,-33.060439974499999 151.64167788799998,-33.060619979500004 151.641750976,-33.060780985 151.641870848,-33.060932019 151.642073888,-33.0610660145 151.64225100799999,-33.061120016 151.64249507199997,-33.061196976 151.64268588799999,-33.06124503899999 151.64277408000001,-33.061246019500004 151.642891072,-33.061212997 151.64300016000001,-33.061179956 151.64309593600001,-33.0611810475 151.64322515200001,-33.061204986500002 151.64328601599999,-33.061235049 151.64326403199999,-33.061302981 151.64318195199999,-33.061343033500002 151.643139136,-33.061451036500003 151.64310995199997,-33.061582978499999 151.64300700800001,-33.06165696 151.642847168,-33.061701952 151.64273593600001,-33.061712034500005 151.64268012799997,-33.061710961500005 151.64264592,-33.061758025499998 151.64262288,-33.06179996499999 151.64253395200001,-33.061826975 151.64250697599996,-33.061794026500003 151.64248499199999,-33.061761004 151.642389952,-33.061782963500001 151.64235001599999,-33.061843976500001 151.64231113599999,-33.061852986 151.64225603200001,-33.061829047 151.642194112,-33.061818964499999 151.64213795200001,-33.061856038500004 151.64209801600001,-33.061924988 151.642036096,-33.061971959499999 151.64192988799999,-33.062025961 151.64184601599999,-33.062076984 151.64177184,-33.062141974499994 151.64167212800001,-33.0621409755 151.64152092800001,-33.062181028 151.64138195199996,-33.062198048 151.64125417599999,-33.062174016500002 151.64117100799999,-33.062139995 151.64107993600001,-33.062057004 151.64102304,-33.061944968 151.64088192,-33.061794026500003 151.64088803199999,-33.061715013 151.640850976,-33.061592968500001 151.64079696,-33.061499007 151.64073792,-33.061376962499999 151.64067888,-33.06126402 151.640574112,-33.061155036500004 151.64054208,-33.061075024 151.64054713600001,-33.060951999 151.64056908800001,-33.060882957 151.64061084799999,-33.0608150065 151.64053811199997,-33.060681991500005 151.64052012799999,-33.060537987499998 151.640507872,-33.060446005499998 151.640425088,-33.060439974499999 151.64034985599997,-33.060462026499998 151.64022816,-33.060443045500001 151.64015292799999,-33.060419014 151.64008489599999,-33.060401013499998 151.64002297600001,-33.060423953499999 151.63995888,-33.060414962499998 151.63990201600001,-33.060353043 151.639868896,-33.060256029 151.63990489599999,-33.060123994500003 151.640028,-33.060119036499998 151.64013097599999,-33.060086014 151.64022096,-33.060024002 151.64011296000001,-33.059907988500001 151.64002512,-33.059843997 151.63992396800001,-33.059790994499998 151.63981488,-33.059737973499999 151.63976195199999,-33.059673982 151.639688896,-33.059570049</coordinates></LinearRing></outerBoundaryIs></Polygon></MultiGeometry>

	</Placemark>
</kml>