<?xml version="1.0" encoding="UTF-8"?>
<kml xmlns="http://www.opengis.net/kml/2.2">
	<Placemark>
		<Style>
			<LineStyle>
				<color>ff0000ff</color>
			</LineStyle>
			<PolyStyle>
				<fill>1</fill>
				<color>330000cc</color>
			</PolyStyle>
		</Style>
			<ExtendedData><SchemaData>
		<SimpleData name="STATE_2006">1</SimpleData>
		<SimpleData name="POA_2006">2226</SimpleData>
	</SchemaData></ExtendedData>
      <Polygon><outerBoundaryIs><LinearRing><coordinates>151.07163264,-34.006028550499998 151.07148912,-34.00601062399999 151.0715016,-34.006150447 151.07154300799999,-34.00661106 151.071230528,-34.007334391500002 151.07071372799999,-34.007690572 151.07038380799997,-34.008067805499998 151.07021065599997,-34.008265792499998 151.07009292800001,-34.008653515500001 151.06937507200001,-34.009210347 151.06936608000001,-34.009217377 151.069157792,-34.0102326015 151.07041376000001,-34.010423595500001 151.071115744,-34.00979158 151.071067712,-34.009663578500003 151.07127049600001,-34.008733176500002 151.07141088,-34.008632018500002 151.07236489600001,-34.008299721500002 151.07242467200001,-34.008338553 151.07275692799999,-34.00882236499999 151.073133856,-34.008953400500005 151.07342688,-34.008795725 151.07369664000001,-34.00842554 151.073813664,-34.008265533500001 151.074354656,-34.008485517 151.07529888,-34.009221965 151.075384192,-34.009306732 151.07540966400001,-34.009331522 151.07537843200001,-34.009362361500003 151.07531766400001,-34.009421524499999 151.07462169600001,-34.010011545 151.07520672000001,-34.010576368500004 151.0757784,-34.011129685 151.07579244799999,-34.011288174499995 151.07588028800001,-34.01229411199999 151.075808704,-34.012707531499998 151.07556745599999,-34.013011949 151.07507209600001,-34.012954987500002 151.07501952000001,-34.012933379499998 151.07454972799999,-34.013714671500004 151.07530976000001,-34.01515354599999 151.07527296000001,-34.015354918500002 151.07502096,-34.015648143499995 151.07419580799998,-34.016609551500004 151.07415948799999,-34.016802839499995 151.0742248,-34.017104574500003 151.07415049599999,-34.017453355 151.074320032,-34.017477127500001 151.07527475200001,-34.017611215500004 151.07614956800001,-34.017789777499999 151.07617212799997,-34.017792978 151.076159776,-34.017884534499998 151.07579180799999,-34.018864553500002 151.07567280000001,-34.019179553 151.07561894400001,-34.0193404105 151.0754888,-34.019379556499999 151.07497184,-34.019471575499999 151.07478192,-34.019479623 151.07471385599996,-34.019482583 151.07462684800001,-34.019509574499999 151.07440384,-34.019506577500003 151.07435184,-34.019519583 151.07409385599999,-34.019530572 151.07378384,-34.019554585 151.07373283199999,-34.019567572 151.07349184,-34.019578598 151.073077888,-34.019629602500004 151.07275388799997,-34.019658592 151.07266486399996,-34.019666602500003 151.07204288,-34.019799617499999 151.07173388800001,-34.019809607500001 151.07144185600001,-34.019833583500002 151.071251776,-34.019873636 151.071199904,-34.019872618500003 151.07114790399999,-34.019885624 151.07081990399999,-34.019967616 151.070646912,-34.020022635 151.07041872,-34.020143773 151.06995635199999,-34.0201847875 151.06695196799998,-34.020387677 151.06708656000001,-34.019765374 151.06622198400001,-34.01963469 151.06601296,-34.019603684 151.06512384,-34.019466025500002 151.064788768,-34.019444787499999 151.064768512,-34.019594101 151.06472208,-34.019867882500002 151.06466700799999,-34.020139148 151.06463929599997,-34.020253071 151.06459897600001,-34.020422827 151.064520832,-34.020704970499999 151.06443299199998,-34.020984709 151.06433616000001,-34.021260803 151.06423004800001,-34.021532716 151.06410704000001,-34.02181473 151.06397184,-34.022092766499995 151.06385161599999,-34.022320298 151.06382704000001,-34.022366733 151.06367664000001,-34.022637277 151.06352307200001,-34.0229057305 151.063344352,-34.023208316499996 151.06315824000001,-34.023507202499999 151.06299276799999,-34.023760708 151.062549088,-34.023702747500003 151.06053744,-34.023408579 151.06092406400001,-34.021634762 151.06120505600001,-34.020341741500005 151.06133161599999,-34.019758806500001 151.061421024,-34.019347736500002 151.06150502400001,-34.018960753500004 151.061567776,-34.018673134 151.06172,-34.017972724 151.061858016,-34.017339728 151.06220748800001,-34.015704217 151.06150896,-34.015594734 151.06146697599999,-34.016170731500004 151.061362016,-34.016154729 151.06058201600001,-34.016039751500003 151.060147008,-34.015976000500004 151.060035008,-34.015961737 151.059743008,-34.015917744 151.058919008,-34.015793757 151.05868102400001,-34.015757756 151.05804003200001,-34.01566077899999 151.05800204799999,-34.015655784 151.05724902399999,-34.015540788 151.05716499199997,-34.015528004499998 151.05688204800001,-34.015483789500003 151.05665904,-34.0154497865 151.05653104000001,-34.0154348015 151.05640099199999,-34.0154150065 151.05596300799999,-34.015348998500002 151.05575100799999,-34.015316993500001 151.05541299199999,-34.015263991 151.05515401599999,-34.015224993 151.054864,-34.015180001 151.05461801600001,-34.015143001 151.054184,-34.015077992 151.051996,-34.014748007500003 151.05157500799999,-34.014683997500001 151.05154300800001,-34.014680001500004 151.051298016,-34.014644000499999 151.051228288,-34.014633881 151.05120697599997,-34.014616028500001 151.05117203200001,-34.014592977500001 151.05113497599999,-34.01457201699999 151.051095008,-34.014553017499999 151.05105395199999,-34.014536996499999 151.05101292800001,-34.014525027 151.05097008000001,-34.014518015500002 151.050924,-34.014516036 151.05087900800001,-34.014516036 151.05083292800001,-34.014518996 151.050786848,-34.014521974499999 151.05075299200001,-34.014526026 151.050719872,-34.014534036500002 151.05068604799999,-34.014540955499996 151.05065292800001,-34.014545007 151.050620896,-34.014544026499998 151.05057084800001,-34.014521974499999 151.05052297599997,-34.014476964 151.05047904,-34.014417024 151.05044195199997,-34.014351959500004 151.05041603199999,-34.01429103899999 151.05040812799999,-34.014260976500005 151.05040416,-34.014231006500005 151.05040092799999,-34.014200037500004 151.05039696,-34.014168994500004 151.050389056,-34.014140005 151.05037104,-34.014097973 151.05034585600001,-34.014056033500005 151.05031811200001,-34.014015981 151.05028787200001,-34.01397702 151.05025907199999,-34.013936967500001 151.05023497600001,-34.013906997500001 151.050210112,-34.013877027500001 151.050186016,-34.01384696499999 151.05016188799999,-34.013816995 151.05014208,-34.01378495299999 151.05012515199999,-34.013751024 151.050111136,-34.013716022 151.05009817600001,-34.013680021 151.05008592,-34.01364402 151.05007008000001,-34.013609018 151.05004992,-34.013566986 151.05002796799999,-34.013526027 151.05000492799996,-34.0134859745 151.04998009600001,-34.013446014499998 151.04995488,-34.013405962 151.04992896,-34.013367001 151.049901952,-34.013327041 151.04987388799998,-34.0132879875 151.049842912,-34.013250007 151.049808,-34.013215985500004 151.049780992,-34.013194026 151.04975184,-34.0131729545 151.049721952,-34.013152974499995 151.049691008,-34.013132994500005 151.04966003199999,-34.013114013500001 151.04962297599999,-34.013088983 151.04958515199996,-34.013064951499999 151.04954592000001,-34.013042011499998 151.04950704000001,-34.013018979 151.04946707199997,-34.012998 151.04941811199998,-34.012973968499999 151.049369152,-34.012952009 151.049318048,-34.0129310485 151.04926585600001,-34.012910976 151.04921401600001,-34.012893956 151.04917296,-34.012883966 151.04912796799999,-34.012877047 151.04908512,-34.0128690365 151.049046976,-34.012857955 151.04901888000001,-34.012839954500002 151.04900483200001,-34.012812963 151.049000896,-34.012779034 151.049001952,-34.012740961 151.04900592000001,-34.012701981500001 151.04900809599999,-34.012665 151.04900700799999,-34.012637009499997 151.04900592000001,-34.012609019 151.04900592000001,-34.012581028500001 151.04900700799999,-34.012554037 151.04901097600001,-34.012527027 151.049017088,-34.012509026499998 151.04902499199997,-34.012492025 151.049032928,-34.012475005 151.04904409599996,-34.012440003 151.049040128,-34.012416952 151.04903184,-34.012391033500002 151.04902211199999,-34.012367002 151.04902896,-34.012338031 151.049046976,-34.012342989 151.04906604799999,-34.01235198 151.049085856,-34.012359990500002 151.04910601599997,-34.0123660215 151.049138048,-34.012368981500003 151.04917296,-34.01237196 151.04920787200001,-34.012370961 151.04923705599998,-34.0123660215 151.049256128,-34.012355032500004 151.04926009600001,-34.012338031 151.049251072,-34.012311021 151.049234176,-34.012278997500005 151.04921507200001,-34.01224704799999 151.04919888000001,-34.012216985500004 151.04918700799999,-34.012187015500004 151.04917584,-34.012155954 151.04916396799999,-34.012125984 151.04914812800001,-34.012098992499993 151.04912688,-34.012078013500002 151.04909808,-34.012062991500002 151.049063168,-34.012053982 151.04902499199997,-34.012047951 151.04898505599999,-34.012043011499998 151.04894796799996,-34.012036980499992 151.04890009600001,-34.012027971 151.04885184,-34.01201898 151.04880396799999,-34.012010969500004 151.04875609600001,-34.012002959 151.04870713599999,-34.011996021500003 151.04865996800001,-34.011990009 151.04861100799999,-34.011984958500001 151.04856313600001,-34.011980999500004 151.04851488,-34.011974968499992 151.04846700799999,-34.011966958 151.04842812800001,-34.01195796699999 151.04838995200001,-34.0119459975 151.04833488,-34.011928977499998 151.04831184,-34.011923039 151.04827296,-34.011914048 151.048229056,-34.011908017 151.04818403199999,-34.011902966500003 151.04813795199999,-34.011900987 151.04809296,-34.011899007499999 151.04804796799999,-34.011898027 151.047983872,-34.011898027 151.04792089599999,-34.011901986 151.04785715200001,-34.011905038500004 151.047794176,-34.011908017 151.04773116800001,-34.011905038500004 151.04766313600001,-34.011899007499999 151.04759401600001,-34.011890997 151.047525952,-34.011879027500001 151.04746115200001,-34.011861027 151.04740211199999,-34.011836995499998 151.04735497600001,-34.011809005 151.04731104000001,-34.011774983500004 151.047270016,-34.011738002 151.04723184,-34.011698042 151.047195136,-34.011658988500002 151.04714905599999,-34.011603988 151.047108,-34.011546027500003 151.04706912,-34.011485995 151.047030976,-34.011425962499999 151.04699100799996,-34.0113670215 151.046961856,-34.011329041 151.046931968,-34.011290968 151.046903168,-34.011252987500001 151.046872928,-34.011215007 151.046844832,-34.0111770265 151.04681497600001,-34.011134994500004 151.04678508800001,-34.011091982 151.04675593600001,-34.011048951 151.04672713599999,-34.011005032 151.04669904,-34.010962019499999 151.04667996799998,-34.010925038 151.04666195199999,-34.010888038 151.04664684799999,-34.010848984500001 151.04663315199997,-34.010811004 151.04662092800001,-34.0107720245 151.04661299200001,-34.010738003 151.04660688000001,-34.010703001 151.046601856,-34.010668979500004 151.04659609599997,-34.0106339775 151.04658995200001,-34.010600048500002 151.04657808,-34.010544955500002 151.04656297599999,-34.010492045499994 151.04654784,-34.010438044 151.046532,-34.0103840425 151.04651616000001,-34.010331021500001 151.046504992,-34.010296019500004 151.04649385600001,-34.010261998 151.04648304,-34.010226996 151.04647187200001,-34.010192974500001 151.04646288000001,-34.010157954 151.04644883200001,-34.010092982 151.04643984000001,-34.010027991500003 151.046431936,-34.009962039 151.046424,-34.009896956 151.04641212799999,-34.009831984 151.04640096,-34.009784013500003 151.046388,-34.009736043 151.04637395200001,-34.00968798 151.04636099199999,-34.009640009500004 151.04634912,-34.009592039 151.046340128,-34.009543976 151.04633184,-34.009496005500004 151.046324992,-34.009448035 151.046318176,-34.009399972 151.04630915199999,-34.009352001499998 151.04629907200001,-34.009309988 151.046288992,-34.009268048500005 151.04627785599999,-34.0092250175 151.04626704,-34.009182985500004 151.04625587199999,-34.009140953500001 151.04624003199999,-34.009083992 151.04622096,-34.009026031499992 151.04620297599996,-34.008968977500004 151.04618892799999,-34.008911017 151.04618208,-34.008852964 151.046183168,-34.008807953500003 151.04618892799999,-34.008761962500003 151.04619612799996,-34.008715971500003 151.04620403199999,-34.008669999 151.04621088,-34.008624008 151.04621593599998,-34.008562976500002 151.04622096,-34.008501963500002 151.04622601599999,-34.008441024499994 151.04623212800001,-34.008380011500002 151.04624003199999,-34.008318998500002 151.04625804799997,-34.0082260175 151.04627891199999,-34.008134035499999 151.04630304,-34.008041961 151.046332928,-34.007950978 151.04636604800001,-34.007861974500003 151.046393056,-34.007797983 151.046422912,-34.007734972 151.04645497600001,-34.007671979500003 151.04648809599999,-34.007609967500002 151.04652192,-34.007549047 151.04655792,-34.007487035 151.04659609599997,-34.007427002500002 151.04663497600001,-34.00736697 151.04667491199996,-34.007306031 151.04671308799999,-34.007246017 151.04674403199996,-34.007192015500003 151.04677392,-34.0071360345 151.04680416,-34.007081034 151.04683801599998,-34.007028031499999 151.04687904,-34.006980967499992 151.04693484800001,-34.006935957 151.04699785599996,-34.006897976499999 151.04706697599997,-34.006862974500002 151.04713715199998,-34.006829045499998 151.04720592,-34.006795024 151.04727683199999,-34.006759023 151.04735100799996,-34.006725982 151.04742409599999,-34.006692959499993 151.047496096,-34.006658031500002 151.04756592000001,-34.006618978 151.047615968,-34.006584956499999 151.04766384000001,-34.006547975 151.04771100799999,-34.0065099945 151.04775996800001,-34.006473993499995 151.047811072,-34.0064409525 151.04786796799999,-34.006411981499994 151.04792809599999,-34.006385970499998 151.047990016,-34.006362031500004 151.04805193600001,-34.006338 151.04811203199998,-34.006311989 151.04816784,-34.006285978 151.04822291199997,-34.006258986500001 151.04827798400001,-34.006231976500004 151.048334176,-34.006205965500001 151.04839104000001,-34.0061830255 151.04845798399998,-34.006156015500004 151.048528928,-34.006127044499998 151.04859913600001,-34.006103013 151.04866608,-34.006088971499999 151.04872585599998,-34.006092024 151.048764,-34.006104992499999 151.04880396799999,-34.006121994 151.04884105599999,-34.006142973 151.04886912000001,-34.006166005499999 151.04888496000001,-34.006191036 151.048875968,-34.00621704699999 151.04884211199999,-34.006247017 151.04879603199998,-34.006280039499991 151.04874816,-34.006314967500003 151.048708928,-34.006349969499993 151.04868300800001,-34.0063810125 151.048658176,-34.00641296199999 151.048634048,-34.006445004 151.048612096,-34.006478045 151.048590112,-34.006510975 151.04856889600001,-34.006545995499998 151.048548,-34.006581996500003 151.04852784,-34.006617997500001 151.04850985600001,-34.006653998499999 151.04849401600001,-34.00669098 151.04847708799997,-34.006743002 151.04846592000001,-34.006797003500004 151.04845692800001,-34.006851005 151.04844611199999,-34.006905006499998 151.04843100799999,-34.006958009 151.048410848,-34.007002020500003 151.04838889600001,-34.007045033 151.04836403199999,-34.007087971499999 151.04834099199999,-34.007131983 151.04832192000001,-34.007175994499995 151.04830716800001,-34.007211995500001 151.048290976,-34.007248977 151.04827798400001,-34.007285977 151.04827008,-34.007322958499998 151.04827187199996,-34.00735698 151.04828016,-34.007380012499993 151.048290976,-34.007401972 151.04830393599997,-34.007424024 151.048320128,-34.007445003 151.04833884799999,-34.0074630035 151.048371968,-34.007462004499999 151.04841193600001,-34.007469034499998 151.04845187199999,-34.007482983500005 151.04848608,-34.007500984 151.04850912000001,-34.007520964 151.04851811200001,-34.0075389645 151.048523872,-34.007558038 151.04852604800001,-34.007579017 151.04852604800001,-34.0075999775 151.048523168,-34.007619957500005 151.048515968,-34.007642009500003 151.04850409599999,-34.007667021499998 151.04848896,-34.00768998 151.04847203200001,-34.007707980500001 151.048454048,-34.007716971500003 151.04843497599998,-34.007712032 151.04841299200001,-34.007696011 151.04838889600001,-34.007672978500004 151.04836297599999,-34.007649021 151.04833705600001,-34.007631039 151.04831795199999,-34.007618977 151.048298176,-34.007607007499999 151.04827692799998,-34.007596018500003 151.04825712,-34.007589007 151.04823587199999,-34.007598997 151.048245952,-34.007627968 151.04826288000001,-34.007667021499998 151.048281952,-34.007707980500001 151.04830105600001,-34.007742002 151.04831795199999,-34.007768993500001 151.04833705600001,-34.007795004500004 151.04835792,-34.007820035 151.04837808,-34.007844954500001 151.04839897599999,-34.007869985 151.04842416,-34.007900047500002 151.048448992,-34.007930017500001 151.04847491199999,-34.0079589885 151.04850192000001,-34.007986979 151.048531072,-34.00801299 151.04857392,-34.008044033 151.048621088,-34.008071043 151.04867004799999,-34.008096961499994 151.04872115200001,-34.00812099299999 151.04877193600001,-34.008143045 151.048820896,-34.008163025 151.04887091200001,-34.008183985500004 151.04892096,-34.008202985 151.048972096,-34.008217026499999 151.049023936,-34.008224038 151.04906496,-34.008221966 151.049107072,-34.008213955499997 151.04914992,-34.008203965500002 151.04919203200001,-34.008195955 151.04923488,-34.008191996 151.04927196799997,-34.008193975499999 151.049309056,-34.008197046500001 151.04934611199999,-34.008202985 151.04938284799996,-34.0082099965 151.04941993599999,-34.008216027499998 151.04946707199997,-34.008227016500001 151.04951497600001,-34.008242038500001 151.04956211199999,-34.008256986500001 151.049608928,-34.008266976500003 151.04965392,-34.008269048500004 151.04969497600001,-34.008263017499999 151.04973385599999,-34.008251048 151.04977308799999,-34.008236007500003 151.049811968,-34.008219006 151.049850112,-34.008201986 151.04988217600001,-34.008186964 151.04991385599999,-34.008172016 151.04994515199999,-34.008155995 151.04997504,-34.008138993500005 151.05000313599999,-34.008119994 151.050035872,-34.008093983 151.050067936,-34.008065012 151.050096,-34.008033969 151.050120832,-34.008002001 151.05014208,-34.007967998 151.05015900800001,-34.0079290185 151.050171968,-34.007886986500004 151.050179872,-34.007842975 151.05018204800001,-34.007799962500002 151.05018073599999,-34.007774562 151.050179872,-34.007758023 151.050171968,-34.007722022 151.05015792,-34.007687001500003 151.050140992,-34.007651999499998 151.05012300800001,-34.007616997500001 151.05010787200001,-34.007581977 151.05009817600001,-34.007552007 151.050088096,-34.007523036 151.05007801599999,-34.0074929735 151.05006899200001,-34.007463984 151.05006108800001,-34.007434014 151.05004704,-34.007358959500003 151.05004092799999,-34.007283997500004 151.050038048,-34.007207037500002 151.05003696,-34.00713098399999 151.050035872,-34.007054042500002 151.050035872,-34.00703397 151.05003516799999,-34.00701399 151.05003408,-34.00699401 151.05003408,-34.006973031 151.05003408,-34.006952977 151.049960992,-34.006379033 151.04998188799999,-34.006193015499996 151.04997001599997,-34.005978008500001 151.050044896,-34.005720951 151.050097088,-34.0056790115 151.050168,-34.005551047 151.05024,-34.005452035 151.05032604799999,-34.005425043500004 151.05053411200001,-34.005327030499998 151.05115513600001,-34.005207964500002 151.051759936,-34.005074043 151.05189817599998,-34.005048032 151.05231107200001,-34.004997009 151.05246588799997,-34.004998988499999 151.05273696,-34.005160974500001 151.05288889600001,-34.005264038 151.05329712,-34.0054419525 151.05345084800001,-34.005486963 151.05358691199999,-34.005546995499998 151.053688096,-34.0056340195 151.05382416,-34.005708001 151.05397609600001,-34.005824995 151.05417696000001,-34.006057022 151.054326016,-34.006302998 151.05437388799999,-34.006446983499998 151.054407008,-34.00649099499999 151.054437952,-34.006634018500002 151.054481888,-34.006780982500004 151.05451104,-34.006834984 151.05454489600001,-34.006887986499997 151.05458195200001,-34.006940008500003 151.05462300799996,-34.006989958499993 151.05466691199999,-34.007037022499993 151.05470508799999,-34.007075003 151.054746112,-34.007112003 151.054790048,-34.007147005 151.05483612800001,-34.007180046 151.054884,-34.007209017 151.05491891200001,-34.007229996 151.054954912,-34.007250956500002 151.054992,-34.007268957 151.055029088,-34.007282998500003 151.05506688,-34.007289029500001 151.05510684799998,-34.007282998500003 151.05514787199999,-34.007266977500002 151.05518892800001,-34.007245018 151.05522995199999,-34.007220986500002 151.05527100800001,-34.00720002599999 151.055316,-34.007180046 151.055360992,-34.007158974500001 151.055404928,-34.00713801399999 151.055448832,-34.007115962 151.05549312,-34.007094983 151.05570012800001,-34.007068972 151.055803072,-34.007070951500005 151.05606012799998,-34.007088952 151.05647088000001,-34.007166985 151.05681107199999,-34.007300999 151.05693097599996,-34.007318019 151.05697417600001,-34.007360032500003 151.05702204799996,-34.007399992499998 151.05707315199999,-34.007436992500004 151.05712716799999,-34.007471994500001 151.05718297600001,-34.007501964500001 151.05723408,-34.007525015500001 151.05728809600001,-34.007543996500004 151.05734316799999,-34.007561016499999 151.057398976,-34.007576038499998 151.05745513599999,-34.007591967 151.05752387199999,-34.007607988 151.05759408,-34.007618977 151.05766499199999,-34.007631039 151.05773305599996,-34.0076459685 151.057796032,-34.007669001 151.05783203199996,-34.007686021 151.05786697600001,-34.007705002 151.05790115199997,-34.007725981 151.05793392000001,-34.007748033 151.05796489599999,-34.007770973 151.05799513599999,-34.0077920445 151.05802499199999,-34.007814004 151.05805308800001,-34.0078370365 151.05807900799996,-34.007860975500002 151.05809987200001,-34.007886986500004 151.05811609599999,-34.007921008 151.058126176,-34.007958008 151.058131936,-34.007996969 151.05813804799999,-34.008036022500001 151.05814704,-34.008074003 151.05816108799999,-34.008125044499998 151.05817404800001,-34.008181025500001 151.05818988799996,-34.008233047499999 151.05821292799999,-34.008276966499999 151.05824496,-34.008303958 151.05828492800001,-34.008311968500003 151.05833209599999,-34.008309989 151.05838393600001,-34.0083019785 151.05843612800001,-34.008290009 151.058485088,-34.0082790385 151.05851712,-34.008272008500001 151.05854809599998,-34.008264997 151.05858012799999,-34.008256986500001 151.05861001599999,-34.008248976 151.05864096,-34.008238986 151.05866617599997,-34.008228996 151.05869100800001,-34.008219006 151.05871513599996,-34.008208017 151.05873888,-34.008195955 151.05876192,-34.00818300499999 151.05878496,-34.008168963500005 151.058809088,-34.008153035 151.05883104,-34.008137014 151.05885011199999,-34.0081190135 151.05886704,-34.008099033500002 151.05887712000001,-34.008053042500002 151.05886201600001,-34.007994989499998 151.05883283200001,-34.007930017500001 151.05880403200001,-34.007861974500003 151.05878784000001,-34.007797983 151.058786048,-34.00774703399999 151.05878659199999,-34.007739708 151.05879001599999,-34.007695012 151.05879504000001,-34.007643989 151.05879792,-34.007591967 151.058793952,-34.007542017 151.058763008,-34.007444004 151.058711872,-34.007348969500001 151.05864601600001,-34.00725500799999 151.05857184000001,-34.007165005499999 151.05849587200001,-34.007079961 151.05843504000001,-34.007018041500004 151.05836915200001,-34.006958009 151.05830112,-34.006901047500001 151.058229856,-34.006844974 151.05815891200001,-34.006789973499998 151.05807683200001,-34.006728960499998 151.057991168,-34.006671999 151.05790512,-34.006615019 151.057819072,-34.006557965 151.057736992,-34.006497026 151.05768192,-34.006453014500003 151.05762684800001,-34.006407023500003 151.05757283200001,-34.006359959500003 151.05751993600001,-34.006312988 151.05746809600001,-34.006265017499999 151.057406176,-34.006209036500003 151.05734208000001,-34.006154036 151.05732588799998,-34.0061370345 151.05731004800001,-34.006118035 151.057294912,-34.006100034500001 151.05728089600001,-34.006080961 151.05726793599999,-34.006060981 151.057248128,-34.006028032499998 151.05723011199998,-34.005993030500001 151.05721609599999,-34.005957029500003 151.057203136,-34.005921028499991 151.05719088000001,-34.005884047 151.057181888,-34.005855964 151.05717504,-34.005826974499996 151.05716892800001,-34.005797004500003 151.05716316799999,-34.005768033500004 151.05715705599999,-34.0057389515 151.05714912,-34.005708001 151.05714192,-34.005677032 151.05713507199999,-34.005645989 151.057127872,-34.005614039500003 151.05712284800001,-34.005582996500003 151.05711888,-34.005547976 151.057114912,-34.005512974 151.05711312,-34.005476973 151.05711097599996,-34.0054419525 151.05710809600001,-34.005407043 151.05710412799999,-34.005355021 151.05709907199997,-34.005302999 151.05709404800001,-34.005251976 151.05708899199999,-34.005200046500001 151.05708396799997,-34.005148024499995 151.05708611200001,-34.005120034 151.05709513599999,-34.005014991 151.05710304,-34.004908986 151.057107008,-34.004802962500001 151.05710915200001,-34.004734013 151.05711312,-34.004664989499993 151.057113856,-34.004595966 151.05710988800001,-34.004527016499999 151.057098016,-34.004460953 151.05707712,-34.004401013 151.05705011199998,-34.004342978499999 151.05701808000001,-34.004285998500002 151.05698387199999,-34.004229037 151.056950048,-34.004172963499997 151.05690288,-34.004097002500004 151.056852128,-34.004022022 151.05679993599998,-34.0039479665 151.05674915200001,-34.003873985 151.056700928,-34.003798024 151.05667104,-34.003744022499994 151.056641888,-34.003689022 151.05661308800001,-34.00363404 151.05658393600001,-34.003578965500004 151.05655296,-34.003524964 151.05651408,-34.00346402499999 151.05647196800001,-34.003403992500004 151.05642985599999,-34.003343978499998 151.05638988800001,-34.003284038499999 151.05635497599999,-34.003222026499998 151.05631500800001,-34.003139035499998 151.056281152,-34.003053991 151.056250912,-34.00296804 151.05622716799996,-34.002881016 151.05620809600001,-34.002792993 151.05616489600001,-34.002738991500003 151.05612204799999,-34.002683991 151.05608099200001,-34.002628028499991 151.056042112,-34.002572047500003 151.05600505599998,-34.002513994499999 151.055975872,-34.002466024 151.05594816000001,-34.0024159815 151.055921152,-34.002367012 151.05589488,-34.002315989 151.055870048,-34.002266039 151.05585312,-34.002228965 151.05583513600001,-34.002190984499997 151.05581891200001,-34.002153004 151.055803072,-34.002115023500004 151.05579011200001,-34.002077043 151.05577609599999,-34.002027981 151.05576384,-34.00197903 151.05575411199999,-34.001928987500001 151.05574585599999,-34.001880036500005 151.05573900799999,-34.001829994 151.055733952,-34.001774013 151.05573216,-34.00171703299999 151.05573107199999,-34.001660978 151.05573107199999,-34.001603998 151.05573107199999,-34.001548017 151.05573107199999,-34.00150598499999 151.05573216,-34.001462972500001 151.05573216,-34.001421033 151.055733952,-34.001379001 151.05573612800001,-34.001336969 151.055741152,-34.001291977 151.05574691199999,-34.001247965499992 151.05575411199999,-34.001202955 151.05576204799999,-34.001159036 151.05576995199999,-34.001114044 151.055780032,-34.001060042499994 151.05579193599999,-34.001006041 151.05580416000001,-34.000952039499992 151.05581712,-34.000899037 151.055831872,-34.000846016 151.05584915200001,-34.000785983500002 151.05586608,-34.00072595099999 151.05588588800001,-34.00066701 151.05590892800001,-34.000608957 151.055936992,-34.000553975 151.055964,-34.000512035500002 151.05599388799999,-34.000470984 151.05602592,-34.000432023 151.05606083199999,-34.000392951 151.05609683200001,-34.0003569685 151.05613609599996,-34.000322040500002 151.05617891199998,-34.000289018 151.056222112,-34.0002579565 151.05626713599997,-34.000227006 151.056312128,-34.000196037 151.05639888,-34.000142035499998 151.05648995199999,-34.0000910125 151.056582112,-34.000041969 151.05664403200001,-34.000007041 151.056672128,-33.999990021 151.056754912,-33.999932967 151.05680998400001,-33.999887975 151.05686291200001,-33.999840004500001 151.05691404800001,-33.999791035 151.056964096,-33.999740992500001 151.05701411199999,-33.999690968499998 151.05706595199999,-33.99963804 151.05711708800001,-33.999582965500004 151.057167136,-33.999528964 151.057218976,-33.999476035500003 151.05727404800001,-33.999425012499998 151.05732012799999,-33.999386033 151.057368,-33.999348959 151.05741696000001,-33.9993119775 151.057467008,-33.999275976500002 151.057518112,-33.999240956 151.057584,-33.999198036 151.05765312,-33.999156984499997 151.057721888,-33.999116044 151.05779209599999,-33.9990759915 151.05786083199999,-33.999035032500004 151.057909088,-33.999004988499998 151.05795587199998,-33.998973039 151.05796742399997,-33.998965602 151.05800412799999,-33.998941977500003 151.05805308800001,-33.998913006500004 151.05810384,-33.998886995500001 151.05816684800001,-33.998862964 151.05823308800001,-33.998844963499991 151.05830003200001,-33.998828036 151.058367008,-33.9988100355 151.05843001599999,-33.998786004 151.05849011199999,-33.998756034 151.05854700800001,-33.998721032 151.05860208,-33.998685031 151.058657888,-33.998648031 151.05871584,-33.998615008500003 151.05877488,-33.998586037500004 151.05883609599999,-33.998560026500002 151.058896928,-33.998534996 151.05895705599997,-33.998508004500003 151.05901500799999,-33.99847901499999 151.05910608,-33.99842403299999 151.05915504000001,-33.998403960499999 151.05920112000001,-33.998379022500004 151.05930409600001,-33.998312977499999 151.059416032,-33.998225047 151.05950713600001,-33.998176984 151.05971305599999,-33.998086981500002 151.05983292799999,-33.998088961 151.06000284800001,-33.998164015500002 151.06019184,-33.998166994 151.06024403199999,-33.998153045 151.06034700800001,-33.998155024500001 151.06058892799996,-33.99805799199999 151.06064185599999,-33.9980159785 151.06072787199997,-33.997988968500003 151.06114512,-33.9977660435 151.06142304,-33.997654988 151.06147488,-33.997627978 151.06156092800001,-33.997614029 151.06182012799999,-33.997533036 151.06214915199999,-33.997452024499999 151.06233888,-33.997411972 151.062527872,-33.997415043 151.06268195199999,-33.997430971500002 151.063075072,-33.997523046 151.06321792,-33.997506266499997 151.06393584,-33.997421962 151.06456908800001,-33.997394970500004 151.064864992,-33.99736698 151.06514796799999,-33.997338009 151.06549788800001,-33.997275997 151.065861856,-33.997226047 151.06618512,-33.997164035 151.06640112,-33.997111014 151.06664412799998,-33.997037032500003 151.06687488,-33.996951007500002 151.06718592,-33.996843985 151.067376,-33.996758034 151.06756499199997,-33.996693968500004 151.067768032,-33.996618988 151.06787712,-33.996554016 151.068080896,-33.996445014 151.06822992,-33.99635799 151.06832604799999,-33.996292019 151.06848912000001,-33.996183035500003 151.06869395199999,-33.996063951 151.06887001600001,-33.995988008499999 151.06893408,-33.995994021 151.069003936,-33.996000958499998 151.069109056,-33.996069982 151.06925593599999,-33.996105983 151.06937904,-33.996017978499999 151.06943411200001,-33.995952007500001 151.069529152,-33.995931028500003 151.06960848,-33.995939612500003 151.069649056,-33.995943997 151.069701952,-33.995968028500002 151.06983408,-33.996080971 151.06984489600001,-33.996193025499991 151.06978908799999,-33.996293018 151.06968,-33.996381022500003 151.06958316800001,-33.996491005 151.069416832,-33.99670098 151.06971097600001,-33.996795034 151.07017788799999,-33.996902038 151.07028409599999,-33.996959998500003 151.07034889600001,-33.997039012 151.07058899200001,-33.997131993 151.07056092799999,-33.997187974 151.07089392,-33.997271039 151.07096988800001,-33.997473984 151.070967008,-33.997618987 151.07091011199998,-33.997773961500002 151.07071609600001,-33.998005988500005 151.070527072,-33.998058991 151.070271136,-33.998111013 151.07002883199999,-33.998129013499998 151.06960009599999,-33.998133953 151.06906188799999,-33.998147994500002 151.06905107199998,-33.998175004499998 151.06907088,-33.998203975500005 151.06924691200001,-33.998382001 151.06930092799999,-33.99842403299999 151.06975705599999,-33.998859005 151.06978403199997,-33.998880964500003 151.069799872,-33.998889955500005 151.06983299199996,-33.998905976499998 151.06987296,-33.998907956 151.06992083200001,-33.998895986500003 151.06997088,-33.998879965500002 151.07001696,-33.998868995 151.07005296,-33.998871955 151.07007097600001,-33.998885016 151.07008608000001,-33.998901037 151.07010012799998,-33.998919037500002 151.070113088,-33.998938018499999 151.070127136,-33.998956019 151.070150176,-33.998978977500002 151.07017392,-33.999003009 151.07019696,-33.999026041500002 151.07021712,-33.999049980500004 151.070234048,-33.9990759915 151.07024592,-33.999111992499998 151.07024988800001,-33.999150953499999 151.07024988800001,-33.999191006 151.07025312,-33.999230966 151.070262848,-33.999267966 151.07029091199999,-33.999314031 151.07033088,-33.999356969499999 151.07037696,-33.999398002500001 151.07042412800001,-33.999438961500005 151.070465888,-33.999480993500001 151.070504032,-33.99952400599999 151.07054185599998,-33.999568017500003 151.070577856,-33.999612029 151.07061385599999,-33.999657021 151.07064803199998,-33.999703012 151.070682976,-33.999749003 151.07072112,-33.999796973499997 151.07075603199999,-33.999845036499998 151.07078304000001,-33.999893007 151.070796,-33.999941976500004 151.07079312,-33.99998498899999 151.070781952,-34.0000290005 151.07076396799997,-34.000073012 151.07074416,-34.000117023500003 151.07072508799999,-34.000160036 151.070706016,-34.0002050465 151.07068512000001,-34.000248965499992 151.07066316800001,-34.000293957499998 151.070637952,-34.000335989500002 151.07060988800001,-34.000377022500004 151.07057891199997,-34.000416002 151.07054508799999,-34.000452983500004 151.070508,-34.000488984500002 151.07046985599999,-34.000523006 151.07043097600001,-34.000557027500001 151.07038812799999,-34.000590956499998 151.07034313599999,-34.000622018 151.07029705599999,-34.000652968499999 151.07025203200001,-34.0006850105 151.07020812799999,-34.00071803299999 151.07015088,-34.000765023 151.07009616,-34.000813974 151.07004288,-34.000865015499997 151.06998995199999,-34.000917037500002 151.069939936,-34.000968967 151.06990896,-34.00100001 151.06987692800001,-34.001031959500004 151.06984704000001,-34.001064001499998 151.06981897599999,-34.001096043499999 151.06979305600001,-34.001130953 151.06976387200001,-34.001180015 151.06973904,-34.00123203699999 151.06971888000001,-34.001285039500004 151.069701952,-34.001339041 151.06968899200001,-34.001394023 151.069678912,-34.00145100299999 151.06967388800001,-34.001510036500001 151.06967209600001,-34.001568996 151.06967497599999,-34.001627049 151.06968217599999,-34.001684991 151.06969187199999,-34.001737013 151.06970483200001,-34.001789035 151.06972105599999,-34.001840964499998 151.06974012800001,-34.001892006 151.06976316800001,-34.001940957 151.06977289599999,-34.001978031 151.069790176,-34.002016011500004 151.069812128,-34.002053011500003 151.06983984,-34.002087033 151.06984595199998,-34.002099983 151.06991260800001,-34.0021725585 151.069992128,-34.002287018 151.06972361599998,-34.002399553499998 151.069725632,-34.002404567 151.06973161600001,-34.002436553499997 151.06975161599999,-34.002490555 151.06980761599999,-34.002585552500001 151.06983462400001,-34.002628565 151.06985862400001,-34.002706561 151.06989660799999,-34.00278156 151.06995260799999,-34.002878555500004 151.06998860799999,-34.002958568 151.07005862400001,-34.003059559500002 151.070131616,-34.003148563 151.07018099199999,-34.00319799499999 151.07025001599996,-34.003267999 151.070336,-34.003324997500002 151.07044860799999,-34.003428560499998 151.070523616,-34.003515566 151.07063161599999,-34.00363256 151.07069862399999,-34.003738565 151.070729632,-34.00378655399999 151.070749632,-34.003859555 151.07075564799999,-34.003917552499999 151.07075366399997,-34.003998564 151.07073564800001,-34.004077559 151.07072364800001,-34.0041395525 151.07069664,-34.004197568500004 151.07068864,-34.004247555500001 151.07067264,-34.004288551500004 151.07064166399999,-34.004341554 151.07061164800001,-34.0043985525 151.07057865600001,-34.004454552 151.070547648,-34.004548550500004 151.07054566400001,-34.004615557500003 151.070561664,-34.004701564 151.070614656,-34.004832562499999 151.07069065600001,-34.004979563500001 151.070750656,-34.005077558 151.070830656,-34.0051615665 151.070954656,-34.005218565 151.07104464,-34.005240561500003 151.07118665600001,-34.005267553 151.07112566399999,-34.005307568500001 151.07136665600001,-34.005579555499999 151.07161664,-34.005861551 151.07163264,-34.006028550499998</coordinates></LinearRing></outerBoundaryIs></Polygon>

	</Placemark>
</kml>