<?xml version="1.0" encoding="UTF-8"?>
<kml xmlns="http://www.opengis.net/kml/2.2">
	<Placemark>
		<Style>
			<LineStyle>
				<color>ff0000ff</color>
			</LineStyle>
			<PolyStyle>
				<fill>1</fill>
				<color>330000cc</color>
			</PolyStyle>
		</Style>
			<ExtendedData><SchemaData>
		<SimpleData name="STATE_2006">1</SimpleData>
		<SimpleData name="POA_2006">2017</SimpleData>
	</SchemaData></ExtendedData>
      <Polygon><outerBoundaryIs><LinearRing><coordinates>151.21503072,-33.900896158500004 151.21487881600001,-33.901497908 151.21481148800001,-33.901766546499999 151.21429036800001,-33.903844707 151.21425779200001,-33.903975150500003 151.21421136000001,-33.904108165499999 151.21412243199998,-33.904257127500003 151.21394857600001,-33.90460317 151.21386252799999,-33.905053885500003 151.21377001600001,-33.905573643 151.21369945599997,-33.905924014500002 151.21366704,-33.9060846685 151.21365875199999,-33.906142351500002 151.21363974400001,-33.906275847499998 151.213587136,-33.906645459 151.21355401599999,-33.907004285 151.213443136,-33.907573345 151.21340892800001,-33.907749391 151.21325017599997,-33.908745875 151.21323971199999,-33.908821651 151.21316953600001,-33.909323408 151.213137472,-33.909817228500003 151.21310291200001,-33.910355708 151.213048192,-33.911101979500003 151.21300105599997,-33.911641347 151.21295532799999,-33.912212756500004 151.212950272,-33.912248406 151.21294272,-33.912301945 151.21278108800001,-33.912233106500004 151.21137456,-33.91202907 151.21117584000001,-33.911961748499998 151.2110736,-33.911947984499996 151.210850752,-33.911953109 151.21015558399998,-33.911852709500003 151.20999756800001,-33.911803444 151.20894528,-33.911478621 151.208784608,-33.911401735 151.20785161599997,-33.910925748499999 151.206479648,-33.910728742 151.20639145600001,-33.910722082 151.20620675200001,-33.910694905500002 151.20589139200001,-33.910648378 151.20537193600001,-33.910571880500001 151.204290496,-33.910439124500002 151.202813056,-33.910245984500001 151.20238176000001,-33.910184694 151.202629696,-33.9094258055 151.20281968,-33.908829809499998 151.20283769599999,-33.908735811 151.20285264,-33.907619798500001 151.20294588799999,-33.906827258500002 151.202979008,-33.906745803 151.202993056,-33.906701699 151.20303696,-33.906506135500003 151.20305785599999,-33.906328295 151.20306828799997,-33.906213983500002 151.20304883199998,-33.90599844 151.203039488,-33.9059556865 151.20301932799998,-33.905863445500003 151.20296604800001,-33.905701163499991 151.20291779199997,-33.9055383635 151.202890432,-33.905453041500003 151.20271584,-33.904937243 151.20265283200001,-33.904649882500003 151.20250992000001,-33.904206548499999 151.202134016,-33.90343900199999 151.20181404799999,-33.902787154500004 151.201590592,-33.902332831500004 151.20155459200001,-33.902260848 151.20117299199998,-33.901483996 151.20054,-33.900373626 151.20050156799999,-33.900305860499998 151.20046403200001,-33.900197487500002 151.19997875199999,-33.898783958 151.19924220799999,-33.896652203 151.20024515200001,-33.89668938799999 151.200035488,-33.896054875 151.20002771199998,-33.8956696865 151.20005328,-33.895656459 151.20018288,-33.895613705500004 151.20039852799999,-33.895563126500001 151.200586816,-33.895539095 151.20065664000001,-33.895526663 151.200820448,-33.895517302 151.20087350399996,-33.895517857 151.20123145599996,-33.895523851 151.201531456,-33.895519855 151.20160147199999,-33.89552285199999 151.201678464,-33.895526866499999 151.202073248,-33.895564643500002 151.20227846399999,-33.895583846500003 151.202554432,-33.895620846500002 151.20321481600001,-33.895707741 151.20332604800001,-33.8957194515 151.2035784,-33.89574644299999 151.20412540800001,-33.895823828499999 151.204717792,-33.895898365 151.20485641600001,-33.895913572 151.20499139200001,-33.895926984500001 151.20592883200001,-33.896041832499996 151.20672636800001,-33.896138809499995 151.20719337599996,-33.896202801 151.20774934399998,-33.8962807785 151.20866556799999,-33.896408576500001 151.20913104,-33.89646798 151.209433088,-33.8965049615 151.20959398400001,-33.896511806500001 151.210137248,-33.896583272 151.21068553599997,-33.896660491 151.211151008,-33.896725463 151.21165356799997,-33.896795763 151.2128016,-33.896955788 151.212949216,-33.896976397 151.21320985599999,-33.897012934500005 151.21310256000001,-33.897128670500003 151.21313353599999,-33.897175290500002 151.21321596799999,-33.897242075500003 151.213279328,-33.897266828500001 151.21372787199999,-33.897357719 151.21567513599999,-33.897619808500004 151.21546345600001,-33.898669295 151.215325568,-33.899353462 151.215281952,-33.899593259 151.21508041600001,-33.900701316500005 151.21503072,-33.900896158500004</coordinates></LinearRing></outerBoundaryIs></Polygon>

	</Placemark>
</kml>