<?xml version="1.0" encoding="UTF-8"?>
<kml xmlns="http://www.opengis.net/kml/2.2">
	<Placemark>
		<Style>
			<LineStyle>
				<color>ff0000ff</color>
			</LineStyle>
			<PolyStyle>
				<fill>1</fill>
				<color>330000cc</color>
			</PolyStyle>
		</Style>
			<ExtendedData><SchemaData>
		<SimpleData name="STATE_2006">1</SimpleData>
		<SimpleData name="POA_2006">2073</SimpleData>
	</SchemaData></ExtendedData>
      <Polygon><outerBoundaryIs><LinearRing><coordinates>151.15302361600001,-33.735579844 151.15292819199999,-33.73568226 151.15271795199999,-33.736086725500002 151.15261392,-33.736393344500001 151.15250448,-33.737947566500004 151.15249404799997,-33.738046745 151.15429798400001,-33.738275886 151.1557992,-33.738466584 151.15626323199996,-33.7384963875 151.156970272,-33.738596639 151.15696921599999,-33.7386606305 151.15696777599999,-33.738771242 151.15697388800001,-33.738813181499999 151.156986848,-33.738854048 151.15749948800001,-33.739744323499998 151.157532256,-33.739783192 151.157557088,-33.739807057 151.1575992,-33.739839099 151.15764563199997,-33.739866368 151.15769603199999,-33.739888327500005 151.15776768000001,-33.739908659 151.15869395199999,-33.740060303500002 151.15859891199997,-33.740611196499998 151.15850320000001,-33.741184419 151.15834825600001,-33.741261416 151.15804624,-33.741357412500001 151.157867232,-33.741483416 151.15772025599998,-33.741768408499993 151.15772825600001,-33.742240417499993 151.157880256,-33.742543410499998 151.15794924799999,-33.742630416 151.15835424,-33.742829420499994 151.157953088,-33.743205266499999 151.15798009599999,-33.743786943499998 151.15799555199999,-33.744116077 151.15776912,-33.745406933 151.15671001599998,-33.744953701500002 151.15606633600001,-33.744678125500002 151.15501980799999,-33.74423037 151.15489596800001,-33.745308032 151.15486355199999,-33.745587659500003 151.15451580800001,-33.746500893499999 151.15445027199999,-33.746673332 151.15426668800001,-33.747156089500002 151.15413529599999,-33.747646857500001 151.15410864,-33.7476603625 151.15376700799999,-33.747655589499999 151.1537544,-33.747670445 151.15285475199997,-33.74751375 151.15278275200001,-33.747489441 151.15248361600001,-33.74743716 151.14983977599999,-33.746975011499998 151.14963312,-33.746877091 151.148665088,-33.748409705 151.14863052800001,-33.74845947 151.148552032,-33.748563051499993 151.14852864,-33.748598516 151.14850992000001,-33.7486352385 151.14848905599999,-33.748695715 151.14847571199999,-33.748758097 151.148412,-33.749372704 151.14840121599997,-33.749438138500004 151.14838428799999,-33.749526143 151.14835980799998,-33.749633609500002 151.148343232,-33.749698137500005 151.14830761600001,-33.7498226055 151.14828745599999,-33.749884432500004 151.14826547199999,-33.749945649 151.14824028800001,-33.750005940500003 151.148207168,-33.750076314499992 151.148170432,-33.750145893 151.14813011199999,-33.75021438 151.148086912,-33.750281331499998 151.14804083199999,-33.750346581 151.14798611200001,-33.750417417500003 151.14792745599999,-33.750486626 151.14786515200001,-33.750553855 151.14772585599999,-33.750673291 151.14739248,-33.750958598 151.14726649599999,-33.75105102399999 151.14706380800001,-33.751199616 151.147001152,-33.751245422 151.14688236800001,-33.751313465 151.146759616,-33.751376735 151.14669696000001,-33.751406427500001 151.14661308800001,-33.75144315 151.14652704,-33.751477171499999 151.14644028800001,-33.7515092135 151.14611376,-33.751622341 151.14596147200001,-33.751671218 151.145807776,-33.751717745500002 151.14565331200001,-33.751762293500001 151.14549852799996,-33.751805047 151.14536172800001,-33.751840141500004 151.14494736,-33.751936434 151.14467052800001,-33.752007270500002 151.144571872,-33.752034095500001 151.14446281599999,-33.752067210500002 151.14438576,-33.752093943 151.14430944,-33.752122377500001 151.14426588800001,-33.752139934 151.144233856,-33.752152625 151.14395123199998,-33.752276464 151.14375216,-33.752370055500002 151.14366217599999,-33.752415861499998 151.143573248,-33.752463480499991 151.14348576,-33.752512431500001 151.143312256,-33.752612701499999 151.14313369599998,-33.752720242 151.14304547199998,-33.752775427499998 151.142871232,-33.752887833500004 151.14277043199999,-33.75295478499999 151.14257171200001,-33.753091777500003 151.14237696000001,-33.753232618 151.14210768000001,-33.753475800499999 151.141069792,-33.754412252 151.14086460799999,-33.754588557 151.140454912,-33.754798347 151.140102848,-33.754954764499999 151.14008412800001,-33.755685292500004 151.13995811199999,-33.756263362 151.14007296,-33.756661981500002 151.14003228799999,-33.75696366099999 151.14005603199999,-33.757049797 151.140222368,-33.757642537 151.14066048000001,-33.758065077 151.141265632,-33.758470615500002 151.141491008,-33.758630918 151.14159078399999,-33.758552515 151.14207974399997,-33.758945529 151.14229676799999,-33.759192504 151.142394752,-33.759437499500002 151.14244176,-33.759652506500004 151.14245676799999,-33.759753498 151.14247174400001,-33.759824501 151.14243574400001,-33.759910507500003 151.1424328,-33.760068497500001 151.1424128,-33.760138501499995 151.142395776,-33.760196499 151.1423888,-33.760511498500001 151.14237078400001,-33.760582501500004 151.14236880000001,-33.760697497500004 151.1423328,-33.760754496 151.14231280000001,-33.760897501 151.14225680000001,-33.761096505499999 151.14213078399999,-33.761410506 151.14191478399999,-33.761893504 151.14189683199999,-33.761923511 151.14177395199997,-33.76212146099999 151.14164796799997,-33.762391468499999 151.14159001600001,-33.7626915385 151.14155472,-33.762762541500003 151.14156985599999,-33.762862534 151.14155184,-33.7629194955 151.141549696,-33.762977548500004 151.14151475200001,-33.763062519 151.14147481599997,-33.763319465500004 151.14145392,-33.763476512 151.14144889600001,-33.763720508500001 151.14156768000001,-33.7645815355 151.141549696,-33.765454532 151.14161376,-33.765684487 151.14160873599999,-33.765913535500005 151.14158784,-33.766099479 151.14158569599996,-33.766214493500001 151.14156371199999,-33.766443542 151.14152483199996,-33.766643527 151.14143593599999,-33.766813523499998 151.14138192,-33.76695654699999 151.14109897599999,-33.767381529 151.14093984,-33.767594464 151.140816,-33.767793542500002 151.140778912,-33.7679215255 151.140744,-33.767992528500002 151.140704032,-33.768249475 151.14071484799996,-33.768550525500004 151.140726016,-33.768823493 151.14074185599998,-33.768880473 151.14077209600001,-33.76909548 151.140799808,-33.769382489 151.14086496,-33.769569505500002 151.14094704,-33.7697285315 151.14102697600001,-33.769987476 151.14107484799996,-33.770174492500004 151.141087072,-33.77041749 151.14111804800001,-33.770575443 151.14120192,-33.770662467 151.141408928,-33.770844451500004 151.14087638399999,-33.771116956500002 151.14054313599999,-33.771168090499998 151.1396712,-33.771274465499999 151.13906425600001,-33.771427553 151.138462688,-33.77180277 151.13845907199999,-33.771805193500001 151.136894528,-33.772871977500003 151.1362656,-33.773092830499998 151.13541564799999,-33.7733912725 151.135238176,-33.773417376 151.13523635199999,-33.773613661 151.13532636799999,-33.77508948 151.13534544000001,-33.775400428 151.13534761599999,-33.775439962500002 151.13508371200001,-33.775316438 151.13476809599999,-33.775168549 151.13458112000001,-33.775122539500003 151.13411910400001,-33.775058548 151.133828096,-33.775054552 151.13369110400001,-33.775081562 151.133502112,-33.775078565 151.13329715200001,-33.775061563500003 151.13290515200001,-33.774983567500001 151.13256412800001,-33.774893565 151.13236214399998,-33.774747563 151.132312128,-33.774646553 151.13231612799999,-33.774460554 151.13235113599998,-33.77441756 151.13235212800001,-33.774360561499996 151.13243913599999,-33.7743185665 151.13250812800001,-33.774276553 151.13259513599999,-33.774220553500001 151.13299209600001,-33.774083561 151.13306112000001,-33.774055552 151.13314809600001,-33.773970563 151.13318512000001,-33.773870552 151.133188096,-33.773742569 151.13313910400001,-33.773626555500002 151.13314112,-33.773526563 151.132906112,-33.773294554499998 151.132838112,-33.773235558 151.13258409599999,-33.773131569500002 151.13217811199999,-33.772868573499991 151.13209315200001,-33.772838585 151.131974144,-33.77277957 151.13178812799998,-33.772690585 151.131702144,-33.772675581499996 151.13167785600001,-33.77266487 151.131634144,-33.772645574500004 151.13132713600001,-33.772626575 151.13030115199999,-33.772483588500002 151.12859116800001,-33.77231559 151.127821216,-33.772290615 151.1274432,-33.772342618499998 151.12715020799999,-33.772438615 151.127100192,-33.7724586135 151.1270112,-33.772493615500004 151.12683820800001,-33.77259161 151.126473248,-33.772858620500003 151.12638924800001,-33.772882615 151.12628323199996,-33.772912622 151.126180224,-33.772911623 151.12609523199998,-33.772895620499995 151.12592524799999,-33.772836642500003 151.12568822399999,-33.772689641499994 151.12565024,-33.772661632500004 151.12548524799999,-33.772543639499993 151.12545222399999,-33.772485642 151.12533424,-33.772397637499992 151.12451024000001,-33.771655639500004 151.12444224000001,-33.771625632500005 151.12418924799999,-33.771450659500005 151.12398924799999,-33.771204646500003 151.123873248,-33.771001646 151.12380822399999,-33.770829651499994 151.12377724800001,-33.770784659500002 151.12375824,-33.770756650500005 151.12367523199998,-33.770626651 151.12360924800001,-33.770539645500001 151.12359324799999,-33.770496651500004 151.12347424000001,-33.770394661 151.12342422399999,-33.770336645 151.12330624000001,-33.770249658 151.12318723199999,-33.770204647500002 151.12310224000001,-33.770188645 151.12306822400001,-33.77017366 151.122622272,-33.770181652 151.12250227199999,-33.770180653 151.12234928000001,-33.770149647 151.12221328000001,-33.77008967 151.12207926400001,-33.769930662499995 151.12199827200001,-33.769743664499998 151.12195225599999,-33.769456674 151.12188726400001,-33.769297666500002 151.12177126399999,-33.769109669500004 151.12148528,-33.768862676 151.12129926399999,-33.768759668 151.12104326400001,-33.76868367 151.120822272,-33.768651665 151.12063225599996,-33.768692679499999 151.12039126400001,-33.7687316775 151.120134272,-33.768742685 151.11992931200001,-33.76869669399999 151.119796288,-33.768551691 151.11976230399998,-33.768493693499998 151.11974729600001,-33.768421691500002 151.11975030399998,-33.768278686499997 151.11980425600001,-33.768164689500004 151.119875264,-33.7680226835 151.11996528,-33.767866691500004 151.12000928,-33.767754692499999 151.120055264,-33.767638697500004 151.12007526400001,-33.767481688 151.12013328,-33.767195696500004 151.12008928,-33.766851689 151.12004128000001,-33.766664691 151.11999625600001,-33.76615668099999 151.11997225600001,-33.765875684500003 151.119931232,-33.765732698 151.11984422399996,-33.765429686499999 151.11969622399999,-33.765127692499995 151.11951424,-33.76485269 151.11938224,-33.764578686500002 151.11935324800001,-33.76433469 151.119356224,-33.764220693 151.119323232,-33.764133687499992 151.119344224,-33.763160717 151.119311232,-33.763073711499999 151.11931222399997,-33.763030717500001 151.11923024000001,-33.76287171 151.119029248,-33.762639701499999 151.11884422399999,-33.762508703 151.11879123200001,-33.762448707499992 151.11935321600001,-33.761980713 151.11958419199999,-33.761788701500002 151.11986419199999,-33.761556711499999 151.12119718400001,-33.760438682500002 151.12158816,-33.760111695 151.12244515200001,-33.759395689500003 151.12242012799999,-33.759122685 151.12248812799999,-33.759066685500002 151.12270313600001,-33.758885681500004 151.122843104,-33.758767688499994 151.12298211199999,-33.758651693499999 151.12312112000001,-33.758534681 151.12347609599999,-33.758236664500004 151.12300931199999,-33.757847091500004 151.12254025599998,-33.758232391 151.12222092799999,-33.758495461 151.12215107200001,-33.758540730500002 151.12205136,-33.758592382499998 151.12197251200001,-33.758624332 151.12189008,-33.758650435500002 151.12177667200001,-33.758675466 151.121660416,-33.758689045 151.121572192,-33.758691561 151.12145520000001,-33.758684642 151.12134,-33.758666271500005 151.121255776,-33.7586452185 151.12114739200001,-33.758607145500001 151.12109555200001,-33.758584372 151.12104515199999,-33.758558823500003 151.12099692800001,-33.758531018 151.12095084799998,-33.758500770499992 151.12088748799999,-33.758458294500002 151.12082736,-33.758409954 151.12077228800001,-33.758356951499998 151.12072368,-33.758300619 151.12068227199998,-33.758242196 151.12065097600001,-33.75818307 151.120626848,-33.758120336499999 151.12060848,-33.758055364499995 151.12059337599999,-33.757989486 151.12056995200001,-33.757872751 151.12055593599999,-33.757769077 151.120551616,-33.757717055 151.12054908799999,-33.757665033 151.12055017599999,-33.756974372500004 151.12053971200001,-33.756712468 151.12071251200001,-33.756034776 151.120724768,-33.755973115499998 151.12073340800001,-33.755910844499994 151.12073808,-33.755848462499998 151.12073952,-33.755786376499998 151.12070604799999,-33.755642631500002 151.12063225599996,-33.75548577 151.12055232,-33.7553356425 151.12050156799998,-33.755211988500001 151.120514112,-33.755134714 151.12043136,-33.755027395500001 151.12033632,-33.754927403 151.11955692800001,-33.754227474 151.11810576,-33.75292833 151.11803833600001,-33.752859602500003 151.118138144,-33.752825729 151.11874,-33.752395992499999 151.11897811200001,-33.752261719499998 151.119206112,-33.752139730499998 151.11934700800001,-33.752065009 151.11939209600001,-33.752000721500004 151.119522112,-33.751818718500004 151.119632,-33.751667 151.11973708799999,-33.751520720500004 151.11981708799999,-33.751410719500001 151.11996508799999,-33.751283735500003 151.120321088,-33.750917731499996 151.120849056,-33.750516707 151.12105305599999,-33.750339717500005 151.12123104,-33.750184706 151.12141305599999,-33.750027715 151.12159404799999,-33.749870705500001 151.12177305599999,-33.749714713499998 151.122489024,-33.749039704 151.122770016,-33.748849709 151.122301024,-33.7484517 151.122287008,-33.748439712 151.12226700799999,-33.748422710500002 151.122130016,-33.748306715499993 151.12173801599999,-33.747974714500003 151.12181001600001,-33.747910704500001 151.121884,-33.747844715 151.12416096000001,-33.745730701500001 151.12615488,-33.743880683 151.12668086400001,-33.743391691 151.126481856,-33.743231684500003 151.12674384,-33.743013699 151.12687184000001,-33.742903698 151.127000864,-33.742792698 151.12725984,-33.742570698 151.12752086399999,-33.742345682500002 151.12774681600001,-33.742151691499998 151.12786182400001,-33.74205169899999 151.127975808,-33.741953686 151.128089824,-33.741856690500001 151.12820582399999,-33.741756698 151.12832083200001,-33.741657686 151.12891878400001,-33.741143663500004 151.12911878400001,-33.740971669 151.12931878399999,-33.740800673500004 151.12898678400001,-33.740530666 151.12926278399999,-33.74029468 151.129538752,-33.740058675500002 151.12979174399996,-33.739842669499993 151.13012176000001,-33.740111678 151.13042076799999,-33.739853677 151.13071875200001,-33.739597674 151.13083376,-33.739498680499999 151.13094771199999,-33.739399668499992 151.13106272,-33.739301674 151.13117673599999,-33.739203679500001 151.13129273600001,-33.739104667500001 151.131405728,-33.739005674 151.13152300799999,-33.738904997 151.13163472,-33.738808667500003 151.13211168000001,-33.738402648 151.133024992,-33.737617008500003 151.13313020800001,-33.737537051499999 151.13317014399999,-33.737502086500001 151.133370848,-33.737725252 151.133775488,-33.738165182 151.13404332799999,-33.738459572499991 151.13444544,-33.738912267499998 151.134661792,-33.739155635 151.134818752,-33.739328166 151.13510352,-33.739632639 151.13539225599999,-33.739934762499999 151.135754752,-33.740309258 151.13608307199999,-33.740643608499994 151.13617129599999,-33.740566371 151.13681603200001,-33.740007652500005 151.13662921599996,-33.739862131500004 151.13646864,-33.739701292500001 151.13655792,-33.739309074 151.136647552,-33.73896708299999 151.13675449600001,-33.738630753 151.13698704000001,-33.737488026500003 151.13743993599999,-33.735263401499999 151.13756592,-33.734644021500003 151.137636128,-33.734291855500004 151.13776371200001,-33.733634143499998 151.137968032,-33.732588782500002 151.13797955199999,-33.732529286500004 151.13833849599999,-33.730717507500003 151.138431008,-33.730358311499998 151.13873555200001,-33.729181915 151.138761472,-33.729052951500002 151.13988540799997,-33.729236545500001 151.140898432,-33.729401787500002 151.141992832,-33.729519503 151.14242016,-33.729608432500001 151.14250585600001,-33.729625804 151.14300947199999,-33.729730199499997 151.14324924799999,-33.729779613 151.1442576,-33.730059240500005 151.14567312,-33.730452458 151.14596544,-33.730590153500003 151.14622499199999,-33.730713363500001 151.14632041599998,-33.730748458 151.1464968,-33.730814614 151.146661696,-33.730851059 151.14691980800001,-33.730829728499998 151.14714697599999,-33.730767624 151.14739321600001,-33.730700487500002 151.14763513599999,-33.730737654 151.14775075200001,-33.730765108 151.14778009599999,-33.730678472500003 151.14806726399999,-33.730749549500004 151.14828300799999,-33.7303710025 151.14851401600001,-33.730449997499996 151.14874601599996,-33.730529991499992 151.14895926400001,-33.730603529 151.14916928,-33.730675531 151.14938425599999,-33.730748532 151.14958624,-33.730818517499998 151.149819232,-33.73089853 151.15002624,-33.730970532 151.15024323200001,-33.731044513499995 151.15053324799999,-33.731161507499998 151.15064924800001,-33.731208497499992 151.15086124800001,-33.731294504 151.15107024,-33.731378512500001 151.15127523199999,-33.7314615035 151.15151222399999,-33.7315575 151.15169420800001,-33.7316315 151.1518992,-33.731714509500001 151.15207222399997,-33.731809488499998 151.15226822400001,-33.7319254835 151.1524632,-33.732041478500001 151.1526592,-33.73215749199999 151.1528512,-33.732273487 151.1530592,-33.732325490500003 151.15325420799999,-33.732379492 151.1534632,-33.732438488500001 151.15367020799999,-33.732496486 151.15387321599999,-33.732553466 151.154085184,-33.732612462500001 151.15426617599999,-33.732663467 151.154492992,-33.732726996 151.15474601599999,-33.732797999 151.154828,-33.732820994500003 151.15485516800001,-33.732797462500002 151.15501017599999,-33.732661469 151.155208192,-33.732488475499991 151.15536601599999,-33.73235100199999 151.15552016000001,-33.732214472 151.15554700800001,-33.732167001 151.15566614400001,-33.731950477 151.15578515199999,-33.73173547 151.15623513599999,-33.731865451 151.15638348799999,-33.731962835 151.15624633600001,-33.732206369 151.15606883199999,-33.732444057 151.15594608000001,-33.732564029500004 151.155682912,-33.732799479 151.154970848,-33.733429108 151.15461660799997,-33.733758149 151.15460652799999,-33.73376751 151.15444777600001,-33.7339470525 151.15364064,-33.734898267 151.15338144,-33.735198244499998 151.15302361600001,-33.735579844</coordinates></LinearRing></outerBoundaryIs></Polygon>

	</Placemark>
</kml>