<?xml version="1.0" encoding="UTF-8"?>
<kml xmlns="http://www.opengis.net/kml/2.2">
	<Placemark>
		<Style>
			<LineStyle>
				<color>ff0000ff</color>
			</LineStyle>
			<PolyStyle>
				<fill>1</fill>
				<color>330000cc</color>
			</PolyStyle>
		</Style>
			<ExtendedData><SchemaData>
		<SimpleData name="STATE_2006">1</SimpleData>
		<SimpleData name="POA_2006">2342</SimpleData>
	</SchemaData></ExtendedData>
      <Polygon><outerBoundaryIs><LinearRing><coordinates>150.78326316799999,-31.273535834 150.78331401599999,-31.273602008499999 150.781748,-31.281103 150.78424099200001,-31.281670006499997 150.783936,-31.2843109925 150.78516201599999,-31.284671002500001 150.78213299199999,-31.300951002499996 150.778552,-31.3004399955 150.777936,-31.303318003499999 150.79434656000001,-31.305582422 150.79415436799999,-31.305731495 150.79382028800001,-31.306017597499999 150.79377024,-31.306175550499997 150.79377024,-31.306347545 150.793886528,-31.306705557 150.793870336,-31.3069065225 150.79377024,-31.307020556499999 150.793592,-31.307114 150.79265424,-31.3073495975 150.792238432,-31.3073635465 150.79203827200001,-31.307434568 150.791838496,-31.307606544 150.79175532799999,-31.307807602 150.79173731199998,-31.308738577500002 150.79167036800001,-31.3088095805 150.79147056,-31.308838551500003 150.790888448,-31.308508622500003 150.79053961599996,-31.308407557 150.79032252799999,-31.308379566500001 150.79023014399999,-31.308388058 150.789906368,-31.308393608 150.78969036800001,-31.308464611 150.78954060800001,-31.308593574499998 150.78940633600001,-31.3087796105 150.78933936000001,-31.309209624499996 150.78935523199999,-31.309496837 150.78937248,-31.309925574499999 150.78948841599998,-31.310513634 150.78955465600001,-31.310714618 150.78953737599997,-31.310842582500001 150.789471488,-31.310914584499997 150.789321376,-31.310943574 150.788938688,-31.310713619 150.78875545599999,-31.310641617 150.78858947200001,-31.310656657499997 150.78850560000001,-31.3107276605 150.788405536,-31.310913604 150.78837241599999,-31.311157582 150.78832272,-31.311271616 150.788172608,-31.31141562 150.78756960000001,-31.311697597 150.78763872,-31.311873624500002 150.7878216,-31.3121456115 150.788503456,-31.312733671 150.78863664,-31.312905665500001 150.78864524799999,-31.312939557499998 150.788669408,-31.313006638500003 150.78866976,-31.3131635925 150.78861971199998,-31.313335679499996 150.78841955199997,-31.313621615499997 150.78830256000001,-31.313879635 150.78831948800001,-31.314094642 150.789118016,-31.315903997499998 150.78984768000001,-31.317549665 150.789846592,-31.317921626 150.78973532800001,-31.318256790500001 150.78966361599998,-31.318550829499998 150.78959699200001,-31.318868992500001 150.78962953600001,-31.319082630499999 150.78976272,-31.319368659 150.78979548800001,-31.319583666 150.78974473599996,-31.319812622 150.789478688,-31.320185674499999 150.7894776,-31.320299616 150.78952732799999,-31.320480472 150.78959459199996,-31.320615688500002 150.78982752,-31.320844644499999 150.78982681599999,-31.321088641 150.78976057599999,-31.321231646 150.789643552,-31.321346679 150.789410656,-31.321460694499997 150.78924361599999,-31.321503633 150.78899376000001,-31.32134568 150.78891059200001,-31.321359629 150.78877776,-31.3214746435 150.788727712,-31.321617667 150.78896601599999,-31.322004002499998 150.78952700799999,-31.322590008499997 150.78969180799999,-31.322750662500003 150.78984985599999,-31.322967667500002 150.78984156799999,-31.323008608 150.78989161600001,-31.323165654499999 150.789898016,-31.323276007 150.78987155199999,-31.323763926 150.7898736,-31.323882696 150.78992364800001,-31.324355648500003 150.79003884799999,-31.324999689 150.79007267200001,-31.325042609 150.79012272,-31.325358607500004 150.790160896,-31.325415661500003 150.79013856,-31.325444632499998 150.79018860799999,-31.325702670500004 150.79018,-31.3261189945 150.790166016,-31.326372000499997 150.79017456,-31.326462632 150.79003776,-31.326819663499997 150.78998665599997,-31.327492675 150.78995388800001,-31.327579625 150.789853792,-31.327679691500002 150.78777500800001,-31.327664003500001 150.787646016,-31.327889000499997 150.78747100800001,-31.328802993 150.78699299199997,-31.329185998500002 150.78704201599999,-31.329573 150.77455699199999,-31.3275490075 150.77318099199999,-31.334288002500003 150.77758300799999,-31.334789001 150.77833900799999,-31.331199002 150.78132099199999,-31.331645999 150.780734016,-31.334602003 150.78539801599999,-31.335299009 150.784256992,-31.340950999500002 150.790595008,-31.341931999 150.78793100799996,-31.355894004500001 150.791698016,-31.356446007500001 150.791248,-31.358766 150.791625504,-31.359028922 150.79154713599999,-31.35943274 150.79149113599996,-31.359723745 150.79121516800001,-31.361146765 150.786090304,-31.360430796500001 150.78543129599998,-31.360153796 150.78156336000001,-31.358526832 150.78154736,-31.358522836 150.78073238399998,-31.358496843499999 150.7800944,-31.358587863500006 150.77967142399996,-31.358778857499999 150.77907443199999,-31.359179863499996 150.77899942400001,-31.359247851 150.778767456,-31.359459861 150.77844544000001,-31.359654851 150.77812246400001,-31.359814876 150.77758448,-31.359933868 150.77698649600001,-31.360058872500002 150.77659552,-31.360156867 150.77609750400001,-31.360263889500001 150.775661504,-31.360425894 150.77512656,-31.360681897 150.77458755200001,-31.361017912500003 150.774415584,-31.361077908 150.77425756799997,-31.3611329085 150.77385958400001,-31.361259911 150.773523584,-31.3614259115 150.773187616,-31.361615906500003 150.772839616,-31.361827935 150.772211648,-31.362107932499999 150.77179465599997,-31.362247922 150.77134464,-31.3623759235 150.77092067199999,-31.362491955500001 150.770397664,-31.362695955 150.769871712,-31.362997949 150.769579712,-31.3630889505 150.76915872000001,-31.363347969 150.76873772799999,-31.36357896 150.76835673599999,-31.363814964500001 150.768003776,-31.364130963 150.767678784,-31.364491972 150.76725481599999,-31.364848985 150.76624681600001,-31.363837978500001 150.765281792,-31.363063994 150.76476681599999,-31.362461985500001 150.76406780799999,-31.361729996 150.76358582399999,-31.361142010499997 150.76327884799997,-31.360845011499997 150.76223884800001,-31.359879996 150.76177283199999,-31.359349009 150.761106848,-31.358804017500002 150.76087484799999,-31.358431020499996 150.76042582400001,-31.357872024500001 150.76025888,-31.357671022 150.760192832,-31.357514031 150.76017683200001,-31.3571700235 150.76022483200001,-31.356793030499997 150.760284832,-31.356523023 150.760261824,-31.356196017 150.76022784,-31.3560950255 150.76011984,-31.355977014 150.75999484799996,-31.355880018500002 150.759662848,-31.355722028500004 150.75954582399999,-31.355622017500004 150.75947984000001,-31.355521026 150.75939683199999,-31.355335027 150.75921382399997,-31.354633026 150.75919782399998,-31.354332031 150.75903184000001,-31.353959015500003 150.75878284800001,-31.353644016 150.758786848,-31.353605018 150.75836684800001,-31.353256015500001 150.758133824,-31.35292703 150.75801782400001,-31.352626016500004 150.757918848,-31.3522100255 150.75768582399999,-31.351880022499998 150.75730384,-31.351478017499996 150.756904832,-31.350833015 150.756836832,-31.350661020499999 150.756738848,-31.350475021499999 150.75670582399999,-31.350317013 150.75667184,-31.3502890225 150.75645683199997,-31.349715023 150.75640684800001,-31.349500016 150.75641782399998,-31.349142022500001 150.756557792,-31.348798015 150.75660880000001,-31.348526028 150.756691808,-31.348354015 150.75687481599999,-31.348197024 150.75715881599999,-31.3480400145 150.757308768,-31.347897028 150.75735878399999,-31.347768027500003 150.75735878399999,-31.347495023 150.75730976,-31.347323028499996 150.75707676799999,-31.346936027 150.75696976,-31.346678026 150.75667776,-31.346348023 150.75667776,-31.34627702 150.75672777599999,-31.3461910135 150.75682777599999,-31.346105025500002 150.75707776,-31.345947997499998 150.757128768,-31.345875995500002 150.757128768,-31.345760999500001 150.757094784,-31.345718005499997 150.75699478399997,-31.345631999 150.756678784,-31.345474027499996 150.75631276799999,-31.345331022500002 150.75612976,-31.345173014 150.75606377599999,-31.345015024 150.756080768,-31.344585028500006 150.756047776,-31.344457027 150.756048768,-31.344141028499998 150.75608176,-31.344041017499997 150.75608176,-31.343912017 150.75561676800001,-31.343224020499999 150.75544678399999,-31.343022019 150.755383776,-31.3429660195 150.75530076800001,-31.34293703 150.75495078399999,-31.342922026500005 150.75475078400001,-31.342822015499998 150.75470176,-31.342721024 150.75468476799998,-31.342506017 150.75470176,-31.342105029500001 150.754652768,-31.341976029 150.75453577600001,-31.341890022500003 150.75438576,-31.341904027 150.75403577599999,-31.342076021500002 150.753919776,-31.342090026 150.7535528,-31.342229016500003 150.7534528,-31.342305033 150.7532848,-31.342383047499997 150.75323881599999,-31.342378034 150.7529528,-31.3423520415 150.75277081600001,-31.342361032500001 150.752570848,-31.342418049499997 150.75221984000001,-31.342848045 150.752086848,-31.342919048 150.75190384000001,-31.342876035500002 150.75160384,-31.342589045 150.75137084799999,-31.342560055500002 150.75125488,-31.342603068 150.751132864,-31.342610061 150.75110585600001,-31.34261106 150.75069187199998,-31.342530067 150.750389856,-31.342454050499999 150.75005686399999,-31.34242606 150.75000688,-31.342397052 150.74934089600001,-31.342298058500003 150.748466912,-31.342298077 150.74810892799999,-31.342227074 150.74747494399998,-31.341970072 150.747058944,-31.341856075 150.74670896000001,-31.341813099499998 150.74642595200001,-31.341842089 150.746226976,-31.341971089499996 150.74617696000001,-31.342057096 150.74617795200001,-31.342644101 150.74557900799999,-31.343175088 150.745428992,-31.343232105 150.74522899199997,-31.343232123499998 150.74484598399999,-31.343147116 150.74466304000001,-31.343161120499996 150.744497024,-31.343219118 150.74429702399996,-31.343419121500006 150.74405904,-31.343565123499999 150.74394704,-31.343563107 150.74371401600001,-31.343477119 150.74304006399998,-31.343041111 150.74269804799999,-31.342920139500002 150.74253107199999,-31.342920139500002 150.74246505599999,-31.3429631335 150.742415072,-31.343077130499996 150.742382048,-31.343550138500003 150.74233209600001,-31.343650131 150.74221609599999,-31.343765127 150.742033088,-31.343823124499998 150.74180009599999,-31.343823124499998 150.741000128,-31.343938157499998 150.740718112,-31.34403815 150.74055411200001,-31.344133147499999 150.74035212800001,-31.344325159 150.74031913600001,-31.344540147500002 150.74046912,-31.344798148500001 150.74066912000001,-31.3449841475 150.74136912,-31.345513155 150.74145212799999,-31.34565616 150.74143513600001,-31.3457851605 150.74139811200001,-31.345825157499998 150.74128611200001,-31.345886152 150.741086112,-31.345929146 150.74075315199997,-31.345929146 150.740370144,-31.346015152500001 150.74023715199996,-31.34607315 150.73975516799999,-31.346488179 150.7395512,-31.346715174 150.73917219200001,-31.347090169 150.7389232,-31.347434176499998 150.738840224,-31.347764161 150.738841216,-31.348437172500002 150.738774208,-31.348652161 150.738658208,-31.348752172 150.73847523200001,-31.348838197 150.73822524799999,-31.348867186499998 150.738131264,-31.348836180500001 150.737875264,-31.348681187499999 150.73762524799997,-31.348481184 150.737345248,-31.348352183500001 150.73715926399998,-31.348353182500002 150.73697625599996,-31.348439189 150.73692624,-31.348539181500001 150.73687625599999,-31.348926183 150.73687728,-31.349183185 150.736827296,-31.349355179499998 150.73661129600001,-31.349671215 150.73621027199999,-31.350012207 150.73591132799999,-31.350155212 150.73561232,-31.350158209 150.73529532799998,-31.349973209 150.734995328,-31.349715208 150.73477932799997,-31.349609203 150.73456230400001,-31.349630200499998 150.73447932799999,-31.349658209499999 150.734398304,-31.3497312105 150.73418035200001,-31.350102228 150.734014336,-31.350489229500003 150.73396435199999,-31.3505322235 150.733598368,-31.351177226 150.73298339199999,-31.3521372465 150.732667424,-31.352252242500001 150.7324344,-31.352252242500001 150.73208441599999,-31.352181239500002 150.731801408,-31.352181239500002 150.73156841599999,-31.3522102475 150.731315456,-31.352288243499999 150.730686432,-31.352454262499997 150.73040243200001,-31.352440258 150.72966947200001,-31.3522402545 150.72937046399997,-31.3522402545 150.72908748799998,-31.352298270499997 150.72885446399997,-31.352370254 150.72832150400001,-31.352613288500002 150.72790550400001,-31.352757274 150.72747251199999,-31.352958276500001 150.727122528,-31.353202273 150.72662355200001,-31.353603297500001 150.72539260799999,-31.354392304 150.72512659199998,-31.354521304499997 150.7245936,-31.354607311 150.72431161599999,-31.354685325499997 150.72418060800001,-31.3546923185 150.72292377599999,-31.362270362499999 150.722390816,-31.365484367500002 150.72235984,-31.3656643725 150.72256883200001,-31.365690365 150.72335379200001,-31.365789358500002 150.72244089599999,-31.371173395 150.71728297600001,-31.37055642 150.715172064,-31.370303451 150.70927014399999,-31.369596510500006 150.70906118400001,-31.369571498499997 150.70585123199999,-31.369186513500001 150.70522230399999,-31.3728725645 150.698703424,-31.372064614 150.69848547199999,-31.373424623 150.69847945599997,-31.373465619 150.69775753600001,-31.377998655500001 150.697726528,-31.378177643 150.70379744,-31.378875574 150.70310451200001,-31.383123618 150.703311488,-31.383148611500001 150.70247158399999,-31.388018625499999 150.70230358399999,-31.3880116325 150.701796672,-31.391127643 150.69736076800001,-31.390586684499997 150.66789833600001,-31.38698997 150.66782032,-31.386977963500001 150.667269344,-31.386890958 150.66371340800001,-31.386450010500006 150.66378739199996,-31.385453008499997 150.65954947199998,-31.384952047 150.65799148799999,-31.384768046 150.64422176,-31.38313716 150.64342275199999,-31.383039184 150.64325273599999,-31.3824241885 150.64319075199998,-31.381945186499998 150.64316374399996,-31.381493194500003 150.64313270400001,-31.381204187499996 150.643003712,-31.380277189499999 150.64245670400001,-31.380180194 150.64177376000001,-31.380057187499997 150.64118473600001,-31.379963189 150.63794480000001,-31.379447224 150.63543785600001,-31.379048234500001 150.630523936,-31.378266295 150.630231936,-31.3782613 150.629917952,-31.378237305500001 150.629657952,-31.378178290499996 150.62781596799999,-31.377765315 150.62668201599999,-31.377627323499997 150.626195008,-31.377546330499996 150.62592700799999,-31.377532344499997 150.62466604799999,-31.377436329500004 150.62420604799999,-31.377392355 150.62374505599999,-31.3773833455 150.62351107200001,-31.377388359 150.62328505599996,-31.377338353499997 150.62301206399999,-31.377306348499999 150.62279107200001,-31.377266351500001 150.62237708800001,-31.377213349 150.622257088,-31.377184378 150.62213011200001,-31.377137369500002 150.621603104,-31.377046368 150.62123609599999,-31.376940381500003 150.61949712000001,-31.3767013985 150.61911312000001,-31.376657387 150.61990006400001,-31.373425381500002 150.619969056,-31.373138372500005 150.62053907199999,-31.373153376 150.62146102400001,-31.373186361499997 150.62148403200001,-31.373194353499997 150.62160604799999,-31.373233351500005 150.62172902399999,-31.373269352499996 150.62185302399999,-31.373303355499999 150.62197702399999,-31.373334361499996 150.62210304000001,-31.373363351 150.622512032,-31.373425363 150.62268003199998,-31.373451355499999 150.62524496,-31.37381131 150.62532198400001,-31.373425326 150.62703782400001,-31.364819274 150.623352864,-31.364370297500002 150.61582304000001,-31.363438378499996 150.61545702399999,-31.363384377 150.61308905600001,-31.3630284 150.612880064,-31.362997394 150.608774176,-31.362381418 150.60830518399996,-31.364745422 150.604150304,-31.364114461 150.60397830400001,-31.363904467499999 150.60187331200001,-31.363584473 150.601113408,-31.367355494500003 150.59944345599999,-31.367104505 150.598673504,-31.371045523 150.59453961599996,-31.370441553499997 150.59433164800001,-31.371523563 150.58533980799996,-31.370122632 150.57804992000001,-31.3686627045 150.579336832,-31.363875663 150.580763808,-31.364107653 150.58247465599999,-31.356430615500003 150.58260464,-31.355847588 150.58273660799998,-31.355255588 150.582762624,-31.355140592 150.583223584,-31.353070571500002 150.583120576,-31.353065576499997 150.582704576,-31.353322597 150.58200460800001,-31.353852603500002 150.5818216,-31.3539385915 150.58165561600001,-31.353981585500001 150.58147161599999,-31.353937592499999 150.58137260800001,-31.353794587499998 150.58122262399999,-31.353035588 150.58112262399999,-31.352892601499999 150.58088960000001,-31.352720588500006 150.58057360000001,-31.35260661 150.57967465600001,-31.352190619 150.579474656,-31.352061618500002 150.57917564799999,-31.351803617499996 150.57885964799999,-31.35145961 150.57859264000001,-31.351230617 150.57849264000001,-31.351230617 150.57824364800001,-31.351130606 150.57811065600001,-31.351130606 150.57807664000001,-31.351101616499996 150.57747766400001,-31.351115639499998 150.57719468799999,-31.351172638 150.57686166399998,-31.351287634 150.57672768,-31.351372623 150.57659468799997,-31.351501623499999 150.57659468799997,-31.35158763 150.576660672,-31.351716630499997 150.57682768000001,-31.351902629499996 150.57719366399999,-31.352232632499998 150.57724368000001,-31.352332625 150.57724368000001,-31.352518624 150.57707670400001,-31.352848627 150.57707670400001,-31.3529056255 150.57689369600001,-31.353077657 150.57662672000001,-31.353177649500005 150.576010752,-31.353177649500005 150.57572774400001,-31.353091643 150.575494752,-31.352990651499997 150.57537875200001,-31.352904645 150.57536172799996,-31.352818657 150.57541174400001,-31.352733649499996 150.57547875200001,-31.352432654499999 150.575512704,-31.351859654 150.57546272,-31.351759643 150.57524569599997,-31.351587648500004 150.57514569599999,-31.351558659 150.57494672000001,-31.351572645 150.57474675200001,-31.351673655 150.57452972799999,-31.351916652499998 150.57449673599999,-31.352016645 150.57446275199999,-31.352030649500001 150.57422972800001,-31.352403665 150.57404678399999,-31.352560674499998 150.573896768,-31.352603668500002 150.57369676799999,-31.352560674499998 150.573163776,-31.352230671500003 150.57288076799998,-31.352130660500002 150.572714784,-31.352130660500002 150.572614784,-31.352201663499997 150.57248176,-31.352387681 150.57249779200001,-31.352860689 150.572547808,-31.352946695499998 150.57253081599998,-31.353505691499997 150.57249779200001,-31.35356269 150.572263808,-31.353662682499998 150.57193084799999,-31.353719681 150.57163184000001,-31.353705695 150.570882848,-31.353475703 150.57064883199999,-31.353447712499996 150.57054982400001,-31.3534047 150.57039884799997,-31.3534047 150.57018288,-31.353432709 150.57003286400001,-31.3534897075 150.56951686400001,-31.353776698 150.569383872,-31.353818711500001 150.56923385600001,-31.353818711500001 150.56906688000001,-31.353761731500001 150.56891785600001,-31.353632731 150.56868387200001,-31.353303727 150.56846787200001,-31.3528877175 150.56825187199999,-31.352729727499998 150.56783590399999,-31.352686715 150.56766889599999,-31.352729727499998 150.56748588799999,-31.352729727499998 150.566886912,-31.352672729 150.56622092800001,-31.352514739 150.56585494399999,-31.352370735 150.565704928,-31.352256738 150.56552192000001,-31.352098748 150.565255936,-31.351797734499996 150.56492294399999,-31.351511743 150.56453993599999,-31.351310740500001 150.56422393599999,-31.351253742 150.56395696000001,-31.351253742 150.56367395199999,-31.351295755499997 150.563107968,-31.351496758 150.562375008,-31.351810758499997 150.562192,-31.351925754500002 150.56130902399997,-31.352669787500005 150.56122502400001,-31.352712781499999 150.56107603199999,-31.352726786 150.56079302399996,-31.352611771500001 150.56042601600001,-31.352225787499997 150.560260032,-31.352096787 150.55979404799999,-31.351881798500003 150.559361056,-31.351737794500004 150.55879507200001,-31.351465789 150.558596064,-31.351336807 150.558279072,-31.351106796500002 150.55768105600001,-31.350490802 150.557581056,-31.350333792500003 150.55698204800001,-31.349645814500001 150.55686604799999,-31.349430807500003 150.55673305600001,-31.348686793 150.55666707200001,-31.347783789499999 150.55663404800001,-31.347740795500002 150.55653504,-31.347211806500002 150.55631904,-31.346723795 150.55611904,-31.346466793 150.55596902400001,-31.346337792500002 150.55585302399999,-31.346279795 150.55558604800001,-31.3462368195 150.555220064,-31.346308821499999 150.55512006399999,-31.346322807499998 150.55453705599999,-31.346321808499997 150.55427107200001,-31.346178822 150.55370508799999,-31.345720817499998 150.55348908799999,-31.3456348295 150.55309008,-31.345533838 150.55272310399999,-31.345476839499998 150.55237408,-31.345389834 150.552191104,-31.345318831 150.55155811200001,-31.344974842 150.55079312000001,-31.344286845500001 150.55054313599999,-31.344128855499996 150.55002812800001,-31.3438708545 150.54986112,-31.343841846500002 150.549659136,-31.343750845 150.549162112,-31.343526847 150.54891315199998,-31.343454845 150.54843014400001,-31.343397865 150.54808016,-31.3434548635 150.54776416000001,-31.343525866500002 150.54718118400001,-31.343768864 150.54668118399999,-31.343883897 150.546082208,-31.3439548815 150.545216224,-31.3439398965 150.54445024,-31.343853908500002 150.54375126399998,-31.343823901499999 150.54274729599999,-31.343651925500001 150.54263728000001,-31.343695918500003 150.542583296,-31.343717933499999 150.54231728,-31.343766921500002 150.54208329599999,-31.3437989265 150.541863296,-31.343775931 150.54163628800001,-31.3437539345 150.54147628800001,-31.343768919500004 150.54127632000001,-31.343737932 150.541135328,-31.343743926 150.54091532800001,-31.343757949 150.54052832,-31.343768938 150.54026832,-31.343790953 150.540042304,-31.343794949 150.53975536,-31.343807954499997 150.53949536,-31.343856942499997 150.53922736,-31.343869948 150.53901536000001,-31.343883971 150.53817939199999,-31.34374696 150.53459145599999,-31.3431600105 150.53561635200001,-31.338101962499998 150.53574432,-31.337474960499996 150.53692822400001,-31.331631939 150.53747414399999,-31.328932918499998 150.53765315199996,-31.328100936499997 150.54167107200001,-31.328711899 150.541712064,-31.328510896500003 150.54192006400001,-31.328542883 150.545952992,-31.329174861500004 150.546298976,-31.327617827500003 150.546772928,-31.325563828 150.54678393599997,-31.325516838 150.54715990400001,-31.323160807500003 150.54719990399997,-31.323007812499998 150.54722585600001,-31.322863808499996 150.54726288000001,-31.32264882 150.54729587200001,-31.322531807500003 150.54735488,-31.322388821 150.547432864,-31.3222278155 150.54748086399999,-31.322156812500001 150.54809081599998,-31.318961807 150.549848768,-31.319228780500001 150.55073072,-31.314653767499998 150.551543616,-31.3104317345 150.551578624,-31.310252747 150.5513696,-31.310223739 150.54677168000001,-31.309565786499999 150.54874448000001,-31.29943872 150.549087456,-31.297678722500002 150.54913046399997,-31.2974587205 150.54918044799999,-31.2972017 150.54925145600001,-31.2968377125 150.54928544000001,-31.296658706499997 150.54908044800001,-31.296629698499999 150.55051433599999,-31.289522664499998 150.55002032,-31.289459690499996 150.550753216,-31.285686671 150.55054425599999,-31.285656664 150.548966272,-31.285434682499996 150.5498072,-31.281145661 150.54985718399999,-31.2808906755 150.55037414399999,-31.278250651499999 150.55040812799996,-31.278071645500003 150.56386886399997,-31.279987524 150.564804864,-31.280120502 150.56501385600001,-31.280150509 150.57365068799996,-31.281379427 150.57508652800001,-31.273768416 150.575294528,-31.273798404500003 150.57673635200001,-31.266150375 150.57679436800001,-31.265845365500002 150.577504288,-31.262078358499998 150.57880713599999,-31.255279331 150.578840128,-31.255100343499997 150.580072,-31.248425303 150.58058499199998,-31.245643291499999 150.58061798400001,-31.245464285500002 150.582374784,-31.235936249 150.58375667199999,-31.228444211499998 150.583719648,-31.228269201499998 150.58367964799999,-31.228160199499996 150.58367164800001,-31.228087198500003 150.583651616,-31.228006205500002 150.58363561600001,-31.227969113 150.58332300800001,-31.2279939955 150.58163500800001,-31.228641995 150.57672099199999,-31.230981005500002 150.56644899200001,-31.234506994499998 150.569044,-31.220815995499997 150.58016700799999,-31.222316993 150.580918016,-31.218317996 150.583666016,-31.218684 150.58393100799998,-31.217382007 150.585536,-31.217611 150.58553603199999,-31.217611 150.58585337599999,-31.215962132 150.58588838399999,-31.215783126 150.58567936,-31.215754155 150.58671824000001,-31.210359111 150.57143059200001,-31.208215275500002 150.57184857600001,-31.2060092615 150.57212454399996,-31.2060472605 150.57375331200001,-31.194170223499999 150.5746312,-31.187762212 150.57630502399999,-31.1755521935 150.57663996799999,-31.1731091945 150.57822076799999,-31.160152164500001 150.57824675200001,-31.159940173 150.57829072000001,-31.159530176 150.57831174399999,-31.159357164 150.57764576,-31.159291174500002 150.57743475199999,-31.159191163500001 150.57793273600001,-31.156561166499998 150.577958688,-31.156420178 150.577967712,-31.156371171500002 150.578192704,-31.155186172500002 150.57972854399998,-31.147056144 150.58145952000001,-31.147287135 150.58166851199999,-31.146311112 150.585332416,-31.146777071500001 150.58953232,-31.147311037 150.59020825600001,-31.143922040500001 150.59049523199999,-31.142482037499999 150.580899456,-31.141223131 150.584310176,-31.125056110500001 150.58445318400001,-31.124293115 150.584616192,-31.123425113499998 150.59066067200001,-31.091237111499996 150.59069468800001,-31.0910581055 150.59234256,-31.082424118499997 150.615017056,-31.0853048275 150.61533408,-31.085847839499998 150.61597408,-31.086658824 150.61631808000001,-31.086926815 150.61735804799997,-31.087043790500001 150.618456,-31.087409776 150.61885699199999,-31.087725774499997 150.618936,-31.087339772 150.62139500800001,-31.091828741500002 150.621298016,-31.092831737499999 150.62150300799999,-31.093249745 150.62128,-31.093400742 150.621856,-31.094173746 150.622016,-31.094787742499996 150.62192102399999,-31.0955317385 150.62211500800001,-31.095847737 150.62267900800001,-31.0960347165 150.62348700800001,-31.096731722499996 150.62388899199999,-31.0973197265 150.62440598399999,-31.0974487085 150.62504998399999,-31.097852711499996 150.625349984,-31.097878704 150.626180928,-31.098546683499997 150.626788928,-31.099431686500001 150.626876928,-31.100218695 150.62736492799999,-31.100896664499999 150.62849193599999,-31.101873668 150.62882892799999,-31.1022976695 150.62940390399999,-31.103019650500002 150.62960489599999,-31.103372649 150.62988691199996,-31.103643655500001 150.63171388800001,-31.105205629 150.63165686400001,-31.105502628 150.63073497600001,-31.110279624 150.63686684800001,-31.111190582499997 150.63679184,-31.111571571499997 150.63721283199999,-31.112710579499996 150.63785785600001,-31.1136865655 150.63819184,-31.113977552 150.63981385599999,-31.115388547 150.63924688,-31.11704056 150.63761193600001,-31.118822572499997 150.638721952,-31.119786552 150.63864694399999,-31.120394554499999 150.63945996800001,-31.122817555 150.63966096,-31.123232565499997 150.63976297599999,-31.123424558500002 150.639781984,-31.1234605595 150.64048198399999,-31.124785566499998 150.64161097600001,-31.125282532 150.64294092799997,-31.126210547499998 150.64420790400001,-31.125768527 150.646833888,-31.126095496 150.648150816,-31.124429478500002 150.64897676800001,-31.124239465 150.649273792,-31.124475469500002 150.649499776,-31.125235468 150.6493248,-31.125756465 150.65011382399999,-31.127001459499997 150.650343808,-31.127996463500001 150.65080281600001,-31.128491468 150.651119808,-31.12900747 150.651774816,-31.1296994625 150.65242182399999,-31.130522453499999 150.65264985600001,-31.131015441499997 150.65274784,-31.13129444 150.65340483200001,-31.131724454 150.6536928,-31.131730448 150.654194816,-31.131968450499997 150.6546168,-31.132157446499999 150.65511382400001,-31.132409435 150.65559881600001,-31.132552421499998 150.65666579199998,-31.132780434 150.65710678400001,-31.133172430499997 150.65695881600001,-31.133977421 150.66049574399997,-31.134505392499999 150.65997180799999,-31.137060409 150.66380070400001,-31.1368463825 150.66503872000001,-31.1382263715 150.66601971200001,-31.138644360499999 150.66660172799999,-31.139323347499996 150.66678371199998,-31.140553357 150.66685772799997,-31.140779353 150.66691571199999,-31.14095736 150.67118768,-31.143986309499997 150.67290768,-31.147012299 150.67608265600001,-31.150256255500004 150.67662966399999,-31.151437258499996 150.67788966399996,-31.154158238500003 150.67813865599999,-31.154695238 150.678314656,-31.155176238 150.67838364799999,-31.155365252500001 150.67930464,-31.15788523 150.68275660800001,-31.159605193500003 150.683101728,-31.168675188499996 150.686297696,-31.172184176 150.68751968000001,-31.17317215 150.68804867200001,-31.173389155 150.68824764799996,-31.17346815 150.688717664,-31.173655148 150.69094761599999,-31.174748128 150.692158624,-31.176047105500004 150.691710656,-31.178357108 150.69237065600001,-31.17817011 150.693218624,-31.178097109 150.69359363199999,-31.177578091499999 150.69418761599997,-31.177950089499998 150.69450262399999,-31.178308101500001 150.69465561600001,-31.179046103499999 150.69510361600001,-31.179551098 150.69528563199998,-31.179756096500004 150.69594361599999,-31.180921078500003 150.69624963199999,-31.181035075500002 150.696618624,-31.181816071499998 150.69680460800001,-31.181940077 150.69734662400001,-31.182728084500003 150.698719584,-31.182996057 150.69957254400001,-31.183551057 150.70105856000001,-31.183637045 150.70236352000001,-31.184542028 150.70266451199998,-31.1848290185 150.70283152,-31.184988026 150.70429648000001,-31.183712007 150.704546464,-31.183534999 150.70501244799999,-31.183202998 150.708598368,-31.182055979500003 150.71877318400001,-31.183277904499999 150.719206176,-31.184116916500003 150.72055216000001,-31.1857059 150.72059817600001,-31.185749893 150.72064518400001,-31.185795884 150.72073216000001,-31.185877894499999 150.72082518400001,-31.185967897 150.72182416000001,-31.186923884500001 150.72210316799996,-31.187190895 150.72273612800001,-31.187715888 150.724052,-31.189005005 150.72518201599999,-31.190439994500004 150.72598601600001,-31.191201991 150.72750099199999,-31.192118 150.72855209599999,-31.192876851499999 150.72931401599999,-31.193269995 150.730359072,-31.192851858 150.730589248,-31.19285541 150.72785500800001,-31.206159000500001 150.73412499199998,-31.207061005 150.734336,-31.2070800045 150.74605699200001,-31.208852008499999 150.75466300799999,-31.210093007 150.75267401599999,-31.219792002 150.74980099199999,-31.234434992499999 150.75301699199997,-31.2348399945 150.753496,-31.232524997 150.76853801599998,-31.234842991500003 150.769408,-31.234649999499997 150.78068099199999,-31.236376993 150.779504992,-31.242113991 150.77668300799999,-31.241722993499998 150.776016,-31.2448550065 150.77193500800001,-31.244231001500001 150.771895392,-31.244208542499997 150.771895968,-31.244225026 150.76779100799999,-31.243596007499999 150.767104,-31.247186006499998 150.768236992,-31.247351156 150.76825296000001,-31.247337503 150.76896300799999,-31.247456994500002 150.76894883200001,-31.2476232725 150.768712032,-31.249116352 150.768392992,-31.251128005 150.772448,-31.251703003500001 150.77177740799999,-31.255283956 150.771746912,-31.255288562500002 150.771726016,-31.255503995 150.77434201599999,-31.255899007 150.77360899199999,-31.2594710055 150.77636,-31.259887995500002 150.77632300799999,-31.260067001499998 150.77771100800001,-31.260276995 150.777659008,-31.260532998 150.77565699199999,-31.270327009 150.77538496,-31.271665317500002 150.775617248,-31.271629594 150.77601612799998,-31.271629594 150.77619936,-31.271729586500001 150.776299072,-31.271873572 150.776449216,-31.271973564499998 150.776515072,-31.271973564499998 150.77661731200001,-31.271917583499999 150.776898112,-31.271630574499998 150.776965088,-31.271486589 150.77699820799998,-31.271314594499998 150.776965088,-31.271042515 150.77674908799997,-31.2706415645 150.77675017600001,-31.270512601 150.776800192,-31.270412516 150.77706624000001,-31.270211550499997 150.77736611200001,-31.270039556 150.77776537599996,-31.269839497 150.778121056,-31.269748495499996 150.778165312,-31.269682524500002 150.77821500799996,-31.269453568500001 150.77819916799999,-31.269137496 150.77813219199999,-31.268922563 150.77813328,-31.268794506 150.77826611200001,-31.268479506499997 150.77839897600001,-31.268321553500002 150.77877408000001,-31.268013565500002 150.77893212800001,-31.26789252 150.77912723200001,-31.267887562 150.77914921600001,-31.268006554 150.77911500799999,-31.268121568499996 150.77889827199999,-31.268436568 150.77889827199999,-31.268551582499999 150.77893212800001,-31.268622511499998 150.779065312,-31.268723577 150.77941417599999,-31.268723577 150.77979721599996,-31.268938491500002 150.78004595199999,-31.268953532 150.78014604800001,-31.268924542499999 150.78032928,-31.268810527 150.78074508799997,-31.268352504 150.781023232,-31.268120680500001 150.78119507199997,-31.267979544 150.78172825600001,-31.267779485 150.78190105600001,-31.267779485 150.78204396799998,-31.267937512 150.78215388800001,-31.268150391499997 150.78217715199997,-31.26819555 150.782475968,-31.2684824665 150.782559136,-31.268597481 150.782559136,-31.268754546 150.78252492799999,-31.268854538499998 150.782275072,-31.269212458 150.782275072,-31.2692564695 150.78232512,-31.269299482 150.78245795199999,-31.269327472500002 150.78275820799999,-31.269327472500002 150.783008032,-31.2692564695 150.78307392,-31.269199508 150.783174016,-31.269012473 150.78319001599999,-31.268956991499998 150.78322403199999,-31.268812506500005 150.783324128,-31.268683524500002 150.78370716800001,-31.2686125215 150.78408985599998,-31.26859848 150.784302784,-31.268643823499996 150.783988032,-31.270094501 150.783528064,-31.27230551 150.78327312,-31.273482517 150.78326316799999,-31.273535834</coordinates></LinearRing></outerBoundaryIs><innerBoundaryIs><LinearRing><coordinates>150.65645388799999,-31.358064406 150.65596912000001,-31.35688899 150.65579808000001,-31.3561739835 150.65569308799999,-31.355846977499997 150.65522307200001,-31.354196962500001 150.65501603199999,-31.351495962500003 150.654403968,-31.3468839495 150.65338198399999,-31.345394958500002 150.65342697599999,-31.345119956 150.65350297599997,-31.344647947 150.653546944,-31.344375941500005 150.653613952,-31.343956953499998 150.65362793599999,-31.343874943 150.65363094400001,-31.343854944499999 150.65393696000001,-31.343572949 150.654019936,-31.34354494 150.65416995199999,-31.34354494 150.65448592000001,-31.343816945499999 150.654535936,-31.34398894 150.65461894399999,-31.344145949500003 150.65475296,-31.344245942 150.65486892800001,-31.3442609455 150.65535190400001,-31.344188925 150.65583491199999,-31.344016930499997 150.656067904,-31.344016930499997 150.656200928,-31.344044921 150.65653388800001,-31.34423092 150.65675088,-31.344417936500001 150.65716688000001,-31.34467492 150.65727788800001,-31.344696916500002 150.65747587199996,-31.3436999145 150.65749635200001,-31.34359637 150.65745388799999,-31.3435859175 150.657304896,-31.3435619045 150.65719388799997,-31.343543904 150.65671289599999,-31.3434639285 150.65676688,-31.343338905500001 150.65698688000001,-31.343062904 150.657101856,-31.3429299075 150.65738985600001,-31.342546902 150.657496864,-31.342422915 150.657582848,-31.3423429025 150.657764864,-31.342102902 150.65787180800001,-31.341879903 150.65792582399999,-31.341546903 150.65797382400001,-31.341060889499996 150.65800883200001,-31.340591896 150.65804281600001,-31.340276896500001 150.658177792,-31.339855892 150.658258784,-31.339496899500006 150.658325792,-31.339307885 150.65836880000001,-31.3393188925 150.65865875200001,-31.337899868500006 150.65889971199999,-31.336702881499999 150.65906873599999,-31.335861871500001 150.65908572800001,-31.335774866 150.65910473599999,-31.335683864500002 150.65912572799999,-31.335578877 150.65574179199999,-31.335086888 150.65565977599999,-31.335164884 150.65553977600001,-31.335162886 150.655386784,-31.335150916500002 150.65511177600001,-31.335109902 150.65487177599999,-31.335086906500003 150.65459177599999,-31.335018919 150.65434377599999,-31.334923903 150.65415580800001,-31.334857913500002 150.65394182399999,-31.334808907 150.65378780799998,-31.334778918499996 150.65340083199999,-31.334744915500004 150.65318780800001,-31.334749929 150.65303283200001,-31.334710931 150.65287283200001,-31.334680924 150.65239881599999,-31.33456393 150.65221884799999,-31.334524932 150.65198486400001,-31.334465935500003 150.651777856,-31.334416929 150.65162284799999,-31.334386922 150.651449856,-31.334356933500001 150.65105584,-31.33433194 150.65089984,-31.334350939500005 150.650876864,-31.334470949 150.650671872,-31.334450950500003 150.650088896,-31.334393952 150.649705888,-31.334250947 150.64948988800001,-31.334093956 150.649256896,-31.3339789415 150.64908988799999,-31.333964955500001 150.64895689599999,-31.334007949500002 150.64879091200001,-31.334007968 150.648623904,-31.33397896 150.648522912,-31.333928973 150.64850492799999,-31.334059971499997 150.64830096,-31.335795974499998 150.64796899199999,-31.338631987500001 150.64764403199996,-31.341061999499999 150.64749705599999,-31.341923008 150.64748604799999,-31.34192101 150.647293056,-31.341885009 150.64664403200001,-31.341598999 150.64618307200001,-31.341488998 150.64599408000001,-31.341454995 150.645661088,-31.341456012500004 150.645345088,-31.341556023500001 150.64521206399999,-31.34164203 150.64477910400001,-31.34208603 150.64442912000001,-31.3423290275 150.644130112,-31.342472032500002 150.64383014399999,-31.342544034500001 150.64364713599997,-31.342544034500001 150.643490144,-31.342508033500003 150.64307916800001,-31.344824067 150.64288521599997,-31.345915049 150.64278620799999,-31.346449051499999 150.642749216,-31.346637067 150.642064256,-31.350072073 150.64173430400001,-31.351678095 150.64164032,-31.352138097499999 150.641804288,-31.352167087 150.641908288,-31.352185087500001 150.641662336,-31.353218090500004 150.641650336,-31.353317102499997 150.64164332799999,-31.353425087 150.64165734400001,-31.35353309 150.64174633599998,-31.353652100500003 150.64282233599999,-31.3539150965 150.64291734400001,-31.3539530955 150.642910336,-31.354206101500001 150.642754336,-31.355069089500002 150.64267235199998,-31.355924104 150.64233740799997,-31.358633114500002 150.6423104,-31.358740118499998 150.64216640000001,-31.3587871085 150.642023392,-31.358798116 150.64118944000001,-31.358774121500002 150.64046841599998,-31.358761134499996 150.64040745599999,-31.3589941235 150.63985148799998,-31.361501151 150.63940652799999,-31.363512156500001 150.63918755200001,-31.36463716 150.63916556800001,-31.364747161 150.64284848,-31.365301125 150.643378496,-31.365217135 150.64353244799997,-31.365266104500002 150.64371945599999,-31.365378122 150.64387846400001,-31.3655161135 150.64432844800001,-31.366148110499999 150.64448444799999,-31.365960113500002 150.644592448,-31.365845117499997 150.64474646400001,-31.365523106499996 150.64482147199996,-31.365127114 150.64493142399999,-31.363921117500002 150.64531737600001,-31.360715086 150.64953129599999,-31.361224058 150.65209424,-31.361534025499999 150.65228723199999,-31.360359016500002 150.65273916800001,-31.357599001499999 150.65327516799999,-31.357666008500004 150.65645388799999,-31.358064406</coordinates></LinearRing></innerBoundaryIs></Polygon>

	</Placemark>
</kml>