<?xml version="1.0" encoding="UTF-8"?>
<kml xmlns="http://www.opengis.net/kml/2.2">
	<Placemark>
		<Style>
			<LineStyle>
				<color>ff0000ff</color>
			</LineStyle>
			<PolyStyle>
				<fill>1</fill>
				<color>330000cc</color>
			</PolyStyle>
		</Style>
			<ExtendedData><SchemaData>
		<SimpleData name="STATE_2006">1</SimpleData>
		<SimpleData name="POA_2006">2807</SimpleData>
	</SchemaData></ExtendedData>
      <Polygon><outerBoundaryIs><LinearRing><coordinates>148.56155875199997,-34.026829303 148.561735744,-34.026995303500001 148.56184374399999,-34.027198304 148.56232774399999,-34.028106302499999 148.56201276799999,-34.028661302499998 148.56177577599999,-34.029179302500005 148.56220979199998,-34.029734302500003 148.56251676799999,-34.030104302499993 148.562535776,-34.030308302 148.562446784,-34.030521292499998 148.562437824,-34.0306803 148.56255680000001,-34.030900302 148.562753824,-34.031196302 148.563069824,-34.032047302 148.563069824,-34.032269302 148.56291481599999,-34.0327042925 148.562674848,-34.033194302 148.562674848,-34.034193302 148.563069856,-34.034453301 148.56354384,-34.034564301 148.56397785599998,-34.034786301 148.56429283200001,-34.035082301 148.56472684799999,-34.035600301 148.56472684799999,-34.035785301 148.565161856,-34.036007301 148.56527980800001,-34.03589630099999 148.56567481600001,-34.036266301 148.56591180800001,-34.03641430099999 148.56567484799999,-34.036932301 148.565477856,-34.037228301 148.56500387200001,-34.037561301 148.56460886400001,-34.037857301 148.56429286400001,-34.0382653 148.56405689600001,-34.0387093 148.564095904,-34.0390793 148.56421392,-34.0393753 148.56455289600001,-34.040010294 148.56478192,-34.040944303499991 148.56448195199999,-34.041183305 148.56443094400001,-34.041221304 148.564309952,-34.041315302500003 148.56393292800001,-34.041592303 148.56343596799999,-34.041958307 148.56337097599996,-34.042006296 148.56282,-34.0424093 148.562252992,-34.042828306499999 148.56169804799998,-34.043236305500002 148.56113904,-34.0436532955 148.55736617599999,-34.0464583025 148.556753184,-34.04691331 148.55502627199999,-34.048246327500003 148.554043296,-34.048836311 148.55385628799999,-34.048909312 148.55358729599999,-34.049016316 148.553164288,-34.049189309500001 148.55290928,-34.049285324499998 148.54852812799999,-34.047132757 148.548497376,-34.047179321500003 148.5482864,-34.047496319 148.54807737600001,-34.047796315 148.54707542400001,-34.047668313500004 148.54701942400001,-34.047660321500004 148.54674940800001,-34.047634310499994 148.54290451200001,-34.047135328499998 148.54288851199996,-34.047220336 148.54059654400001,-34.046935343500003 148.540329536,-34.0469013405 148.540396544,-34.046814335 148.54118652799997,-34.0463143355 148.541837472,-34.045648335500005 148.54211347200001,-34.045426335499997 148.54243148799998,-34.045128337500003 148.54248848,-34.045075335 148.54260646399999,-34.044519336 148.54276444800001,-34.044186336 148.54308044800001,-34.043909335499997 148.543376416,-34.043705336 148.54367241599999,-34.043391335499997 148.54392841599997,-34.0430583355 148.5440864,-34.042743336 148.543869376,-34.041763335500001 148.5435344,-34.041078336 148.54315939200001,-34.040893336 148.54300137600001,-34.04070833599999 148.54315939200001,-34.040153336 148.54333635200001,-34.039819337 148.543869344,-34.039375337 148.54400732799999,-34.039135336500003 148.544219328,-34.03882733 148.54440233599999,-34.038561337 148.54468928,-34.038186342 148.544846304,-34.0375383425 148.54482729599999,-34.036816343 148.54488627200001,-34.036187343 148.54536025600001,-34.0359833435 148.545893216,-34.035410343 148.54583321599998,-34.034929343 148.545656224,-34.034411343 148.54543923200001,-34.033670344 148.5454112,-34.033413342 148.545340192,-34.032745344 148.545281184,-34.032135343500002 148.54534016,-34.031616344500002 148.54522115200001,-34.030710344 148.54504416,-34.030580344500002 148.54427420799999,-34.030525344 148.543820192,-34.030432344499992 148.54320918400001,-34.030155344 148.54285318399999,-34.030025344500004 148.542380224,-34.029877344500001 148.54212323199999,-34.029526344 148.54236019199999,-34.029266345 148.54293219199999,-34.029211344499998 148.54318220799999,-34.029135328 148.54319219199999,-34.029132331 148.54397616,-34.028957339499996 148.54397616,-34.028399342500002 148.54397616,-34.028217339500003 148.544292128,-34.028032339500001 148.54434713599997,-34.02801334 148.54496214400001,-34.0278103395 148.54626505600001,-34.027180340500003 148.54733104,-34.0265143405 148.547133024,-34.026255340500001 148.54685702399999,-34.025441340500002 148.54666003200001,-34.024997340500001 148.547054016,-34.023887340500004 148.547369984,-34.0229613415 148.54772496000001,-34.022147341500002 148.548435936,-34.021259341499999 148.548987904,-34.021074341500004 148.549619904,-34.020815341500004 148.55005388799998,-34.020297341500005 148.550112864,-34.020073343500002 148.55013286400001,-34.020001341499999 148.55020688,-34.019670339500003 148.55036988800001,-34.019520341499998 148.55088284799999,-34.019409341500001 148.551316832,-34.019853341500003 148.55159283199998,-34.020408341500001 148.55190883200001,-34.020556323 148.55222483200001,-34.02040832299999 148.55222483200001,-34.02014932299999 148.55297382399996,-34.020519323 148.553723808,-34.021111323 148.55407980800001,-34.021962323 148.55439481600001,-34.022332323 148.5548288,-34.022332323 148.5548288,-34.022147323 148.55486880000001,-34.021851323 148.554986816,-34.021592323 148.554986816,-34.021481323 148.55518476799998,-34.021370323 148.55561878399999,-34.021481323 148.55605276799997,-34.021629323 148.55648678399999,-34.021814323 148.55680278399998,-34.021814323 148.55723673599999,-34.021703323 148.558065728,-34.021481323 148.55853872,-34.021037323 148.559091712,-34.021037323 148.55960467200001,-34.021333323 148.55956572799997,-34.021703323 148.559328704,-34.022258323 148.559643712,-34.022332323 148.56051267199999,-34.022554323 148.56138067200001,-34.023110322 148.56157872,-34.024146322 148.56157872,-34.024738322 148.56130172799996,-34.025034322 148.56082873599999,-34.025700322 148.56098576,-34.026070322 148.561420736,-34.026699322 148.56155875199997,-34.026829303</coordinates></LinearRing></outerBoundaryIs></Polygon>

	</Placemark>
</kml>