<?xml version="1.0" encoding="UTF-8"?>
<kml xmlns="http://www.opengis.net/kml/2.2">
	<Placemark>
		<Style>
			<LineStyle>
				<color>ff0000ff</color>
			</LineStyle>
			<PolyStyle>
				<fill>1</fill>
				<color>330000cc</color>
			</PolyStyle>
		</Style>
			<ExtendedData><SchemaData>
		<SimpleData name="STATE_2006">1</SimpleData>
		<SimpleData name="POA_2006">2133</SimpleData>
	</SchemaData></ExtendedData>
      <Polygon><outerBoundaryIs><LinearRing><coordinates>151.11535356799999,-33.895724576 151.11533408,-33.895744778 151.11529408000001,-33.895760780499998 151.11527510400001,-33.89576979 151.115256096,-33.895780779 151.115219104,-33.8958007775 151.11520108799996,-33.895811785 151.11518409600001,-33.8958237915 151.11516809599999,-33.895836778499998 151.115152096,-33.895849784 151.11513708800001,-33.895863788500002 151.11512208,-33.895877774500001 151.11508310399998,-33.895922785 151.115061088,-33.895955789 151.11505008,-33.895971791500003 151.11503308799996,-33.896005776 151.11501209599999,-33.896058778499999 151.115007104,-33.896076779 151.11488012800001,-33.897176789 151.114883136,-33.897294782 151.11488713599999,-33.897416789499999 151.11473315200001,-33.899196785500003 151.11446115199999,-33.899175806500004 151.11354816,-33.899101806499999 151.112466176,-33.899014819500003 151.11222601599999,-33.898941004500003 151.11184899200001,-33.8989149935 151.11248217599999,-33.899301828499993 151.112340192,-33.900465811499998 151.11216022400001,-33.901925813 151.11203020799999,-33.902977815500002 151.11201024,-33.903154823499996 151.11190124800001,-33.903145814 151.11188825599999,-33.903144815 151.11143424,-33.903103819 151.111365248,-33.903096826 151.11110624,-33.903073812 151.11106825600001,-33.903069834500002 151.11104726400001,-33.903068835500001 151.111027264,-33.9030678365 151.110848256,-33.903053832 151.11065324800001,-33.903038847 151.10981929600001,-33.902969860500001 151.10893228800001,-33.902417857499991 151.108474272,-33.90215787699999 151.10801529599999,-33.901921872500004 151.10762579199999,-33.901831074499995 151.107594272,-33.901822897500004 151.10718528000001,-33.901810891 151.104929312,-33.901934933500002 151.10484736000001,-33.901944923500004 151.104322336,-33.902008933499992 151.10403734400001,-33.902107927 151.10366995199999,-33.902316163 151.10349235199999,-33.90241795 151.102971392,-33.902677949 151.10209139200001,-33.90299996 151.101732416,-33.903086965500002 151.10133542400001,-33.90307396 151.10095440000001,-33.902952988500004 151.100901408,-33.902937985 151.1005424,-33.902776979500004 151.10008441599999,-33.9027269925 151.09960041599999,-33.902751986 151.09939260799999,-33.902835846499997 151.099137568,-33.902936172 151.098896064,-33.903075199500002 151.09846368000001,-33.903291797500003 151.09792611200001,-33.903543971 151.09739248,-33.903676505 151.09673148799999,-33.903619025499999 151.09652048000001,-33.90353202 151.096212,-33.903367536499999 151.09596352,-33.903235021 151.09534352,-33.902876047 151.09479344,-33.902540235 151.09428780799999,-33.902227881 151.0941832,-33.902180965 151.09401267199996,-33.902108463499999 151.09380752,-33.902059068500002 151.093596512,-33.902022068500003 151.093417888,-33.902004900500003 151.09323072000001,-33.902015260500001 151.092981184,-33.902032521 151.092752416,-33.902053241 151.092614688,-33.902068226 151.092300448,-33.9020607705 151.09195923199997,-33.902034685499999 151.09170054399999,-33.901947069500004 151.09147753600001,-33.901848076 151.09038345600001,-33.901263365 151.089903072,-33.90099507799999 151.0894272,-33.900708143 151.08927456,-33.900533003500001 151.08914435200001,-33.900354145500003 151.08907702400001,-33.900227457500002 151.088996192,-33.899988974 151.08897331200001,-33.899832797 151.08933961599999,-33.899786991 151.089591232,-33.899755226499998 151.08957180799999,-33.899657121 151.08953184000001,-33.899339161500002 151.08950016,-33.899084453500002 151.08948217599999,-33.898921376 151.08948649600001,-33.89872239 151.08951168,-33.898559941500004 151.08973776,-33.897452753499998 151.089813376,-33.8970807 151.08990300799999,-33.896641325 151.09016796799997,-33.895308067 151.09020755200001,-33.895105196 151.09058412799999,-33.893162640500002 151.09167942400001,-33.893317078500004 151.093829376,-33.893619054 151.09400592,-33.893644417499999 151.09430905599996,-33.893698419 151.094313728,-33.893689761 151.094321632,-33.893682657 151.09433136000001,-33.893677625 151.094342528,-33.893675109 151.09435369600001,-33.893675275500001 151.094364832,-33.893678161499992 151.094374208,-33.893683471 151.09438176,-33.89369076 151.09438643199996,-33.893699584499998 151.09438752,-33.893709112 151.094679488,-33.893739711 151.09534236799999,-33.893833043500003 151.09850832,-33.894281002500001 151.10020428799999,-33.894523981500001 151.10036928,-33.893710980500003 151.10065424,-33.892315988 151.100827264,-33.891554972 151.10198921599999,-33.891736975 151.10254220799999,-33.891816950500001 151.10361420800001,-33.891970926 151.1046872,-33.89211493 151.10484819199999,-33.891365920499993 151.10532899199998,-33.89142303 151.10542944,-33.891420329 151.10553996799999,-33.891409525 151.10565084800001,-33.891381997 151.10584668800001,-33.891323407500003 151.10600816,-33.891278896499998 151.10636816,-33.891181901 151.106691168,-33.891093896500003 151.10716112,-33.891028869 151.107667136,-33.890959882499999 151.10795212799999,-33.891038877500002 151.10800112000001,-33.891051883 151.10824611199999,-33.891099872 151.10878012800001,-33.891201862500004 151.108896128,-33.891206857500002 151.10932710399999,-33.891223859 151.11047008,-33.891268832500003 151.11169305600001,-33.891316821499998 151.11275004800001,-33.891358798 151.11374803199999,-33.891397777500003 151.11470902400001,-33.891435776500003 151.11568198399999,-33.891472758 151.11712499199996,-33.891528739 151.11702598400001,-33.892991737500004 151.11700201599999,-33.893359647 151.11680041599999,-33.893401586499998 151.11682304000001,-33.89366375 151.11679897600001,-33.893912075499991 151.11662489599996,-33.895728775500004 151.11610204799996,-33.895730755 151.11535356799999,-33.895724576</coordinates></LinearRing></outerBoundaryIs></Polygon>

	</Placemark>
</kml>