<?xml version="1.0" encoding="UTF-8"?>
<kml xmlns="http://www.opengis.net/kml/2.2">
	<Placemark>
		<Style>
			<LineStyle>
				<color>ff0000ff</color>
			</LineStyle>
			<PolyStyle>
				<fill>1</fill>
				<color>330000cc</color>
			</PolyStyle>
		</Style>
			<ExtendedData><SchemaData>
		<SimpleData name="STATE_2006">1</SimpleData>
		<SimpleData name="POA_2006">2068</SimpleData>
	</SchemaData></ExtendedData>
      <Polygon><outerBoundaryIs><LinearRing><coordinates>151.21472300799999,-33.790236003499999 151.214720992,-33.790295 151.21471801600001,-33.790353996500002 151.21471699200001,-33.790412993 151.21472300799999,-33.790469991500004 151.214740992,-33.79052199499999 151.21477401599998,-33.790568004500003 151.21482,-33.790609999499999 151.21487299200001,-33.7906489975 151.21492601599999,-33.790688994500002 151.214972,-33.790732007 151.215002016,-33.790765991500002 151.21503100800001,-33.7908009935 151.215058016,-33.790836994500005 151.21508499199999,-33.790873994500004 151.21510998400001,-33.790910994500003 151.215144,-33.790972007500002 151.215172,-33.791035999 151.21519801599999,-33.791101008 151.215224992,-33.791164999499991 151.215256,-33.791227992 151.215296,-33.791291003 151.21534099199999,-33.791351997500001 151.215386016,-33.791412992 151.215432,-33.79147400499999 151.21547401599997,-33.791535998500002 151.21551500800001,-33.791610997500001 151.21555100800001,-33.791689992500004 151.215587008,-33.791768007 151.215628,-33.791843006 151.215678016,-33.791911992500005 151.215735008,-33.791967992 151.21579801599998,-33.792018996499998 151.21586601600001,-33.792067004 151.215936,-33.792114993 151.216003008,-33.792163000500004 151.216084,-33.792223995 151.21616499199999,-33.792284009 151.21624700800001,-33.792344004500002 151.216328992,-33.792404 151.216410016,-33.7924639955 151.216512,-33.792548004 151.216611008,-33.792637007499998 151.216711008,-33.792723994499994 151.216816,-33.792802009 151.216932,-33.792865001500004 151.217036992,-33.7929059975 151.217148,-33.792939001500002 151.217263008,-33.792964994 151.21738,-33.792982994499994 151.21749500799999,-33.792991005 151.21762099199998,-33.792990006 151.217750016,-33.792979997499998 151.21787900800001,-33.792959 151.218,-33.792926995 151.218110016,-33.792882003 151.218163008,-33.792847001 151.21821100799997,-33.792803008 151.21825801599999,-33.792757997500004 151.21830700800001,-33.792720997499998 151.218376992,-33.792696004 151.218411008,-33.792694006 151.218444,-33.792689991499998 151.21847699200001,-33.792679002500002 151.21850899200001,-33.792663999 151.21854,-33.792644999499998 151.218570016,-33.792624002 151.21859900800001,-33.792604003500003 151.218692,-33.792530003499998 151.21877699199999,-33.792441 151.218850016,-33.792343005499994 151.218908,-33.792239997499998 151.21894601599996,-33.792137008 151.21896,-33.792116991 151.218976,-33.792099009 151.21899401600001,-33.792082007499999 151.21902899200001,-33.7920599925 151.21907001599999,-33.792041992 151.21911500799999,-33.792028006 151.21916099200001,-33.792016998500003 151.21920601599999,-33.792005991 151.21924201600001,-33.791996001 151.21927801599998,-33.791986991500004 151.219314016,-33.791978999500003 151.21935001599999,-33.791974004499998 151.21938601599999,-33.791973005500004 151.21942099200001,-33.791977001500001 151.21945500800001,-33.791983994500001 151.21949001600001,-33.791993004 151.21952300800001,-33.792005991 151.21955401599999,-33.792018996499998 151.219606016,-33.792055996500004 151.219648,-33.792106002 151.219684992,-33.792163000500004 151.21972099199996,-33.792221997 151.21975900799998,-33.792277996500005 151.21978201599998,-33.792306005500002 151.219804,-33.792334995 151.21982601600001,-33.792364003 151.21984899200001,-33.792391993500004 151.219872,-33.792420002500002 151.21992300799999,-33.792470008 151.21997801599997,-33.792516998 151.220036,-33.792562008499999 151.22009500799999,-33.792607000499991 151.220152,-33.792652991499992 151.220190016,-33.792682998499998 151.22022700799999,-33.792714004499999 151.220264,-33.792743993 151.22030099200001,-33.792774999 151.220339008,-33.792805006 151.220404,-33.792855992 151.22047001600001,-33.792906996500001 151.220536,-33.792958001 151.22060300800001,-33.793007007500002 151.22067100800001,-33.793055995499998 151.22072601599999,-33.793094993499999 151.22078099199999,-33.7931339915 151.22083699199999,-33.793172009 151.22089401599999,-33.793209009 151.220952,-33.793244991500003 151.220970016,-33.793255999 151.220988992,-33.793267006500002 151.221008,-33.793277995499999 151.22102700799999,-33.793288004 151.221046016,-33.793298993 151.221164,-33.793334994 151.221282016,-33.793371994 151.2214,-33.793410992 151.22151699200001,-33.793451007500003 151.22163299199997,-33.793491004499998 151.22171500799999,-33.793521992 151.22179699199998,-33.793552998 151.22187801599998,-33.793584004 151.22196,-33.793616009 151.22204201599999,-33.793645997500001 151.22211900799999,-33.793670991 151.22219900799996,-33.793694005 151.22227801599999,-33.793717000500003 151.222352992,-33.793743992 151.222424,-33.793777995 151.22248499199998,-33.79381499499999 151.22254201600001,-33.793855991 151.22259699200001,-33.793902000499997 151.222648,-33.793949009 151.22269401599999,-33.793998996 151.222752,-33.794079008499999 151.22279900800001,-33.794166994500003 151.222836,-33.794259994 151.22286601600001,-33.794354991500001 151.22289100799998,-33.794449008499996 151.222903008,-33.794508005 151.222912,-33.7945680005 151.22291900799999,-33.794627996 151.22292300800001,-33.794687991499998 151.22292601599997,-33.794748005500004 151.222927008,-33.794840006 151.22292300800001,-33.794932006499998 151.222915008,-33.795025006 151.22289900800001,-33.795116007499999 151.22287500799999,-33.795204992500004 151.222848,-33.795277993500001 151.222815008,-33.795350994499998 151.22277801600001,-33.7954219975 151.222735008,-33.7954910025 151.222688992,-33.795557991 151.222635008,-33.795623 151.222576,-33.795684993500004 151.222512,-33.795745007500003 151.22244601599999,-33.795804004 151.22238,-33.795863000499999 151.222328992,-33.795908991499999 151.222276,-33.795954002 151.22222300799999,-33.795998994 151.22216899200001,-33.796044004500004 151.222115008,-33.796087997500003 151.222036,-33.796153006499999 151.221956,-33.796216998 151.221876,-33.796281008 151.22179401599999,-33.796343001499999 151.22171001599997,-33.796402997 151.22162,-33.796466008 151.221528,-33.7965280015 151.22143401599999,-33.796587997 151.221338016,-33.796643996500002 151.221238016,-33.796694002 151.221135008,-33.796736996 151.221028,-33.796774995 151.22091900800001,-33.796808998 151.220808992,-33.796840004 151.220699008,-33.7968699925 151.220596992,-33.796886994 151.22048700799999,-33.796897002500003 151.22038,-33.796907991499999 151.22029001600001,-33.796928008500004 151.22022899199999,-33.796966007500004 151.22021001600001,-33.797041006500002 151.22007062399999,-33.797039785500004 151.21988464,-33.796907788 151.21983363199999,-33.796907788 151.21969763199999,-33.796847792500003 151.21962963199999,-33.79683278899999 151.21957862400001,-33.79680378099999 151.21937363200001,-33.79675779 151.219065664,-33.796724786 151.21891168,-33.796722788 151.21884368,-33.796707784499993 151.21870665599999,-33.796691782 151.21849968000001,-33.796731779 151.21808467199997,-33.79695477799999 151.217615712,-33.797234794 151.21766668800001,-33.7972788055 151.21770070400001,-33.7972788055 151.217906656,-33.797253775 151.21821766399998,-33.797142775 151.21852768,-33.797089791 151.21881968,-33.797065778 151.21888768,-33.797066777 151.219109664,-33.797097783 151.21938265599999,-33.797158777500002 151.21945168,-33.797159776500003 151.21962262400001,-33.797190782500003 151.21975862400001,-33.797235774500002 151.21986064000001,-33.797251777 151.219962624,-33.797295788500001 151.22001363199999,-33.797324778 151.220235648,-33.7973857725 151.22032064000001,-33.797386771500001 151.22038899200001,-33.797417000499998 151.22074601599999,-33.797579005 151.22081299199999,-33.797622998 151.22115500799998,-33.797684991499999 151.22134300799996,-33.797701993 151.22151500800001,-33.797675001500004 151.221586016,-33.797646992499992 151.221655008,-33.797615006 151.221723008,-33.797581003 151.22178899199997,-33.797544003 151.22185299200001,-33.797505005 151.221880992,-33.797485006500004 151.221908,-33.797464009 151.221935008,-33.797441994 151.22196300799999,-33.797421995500002 151.221992,-33.797403995 151.22203500800001,-33.797383996500002 151.222082016,-33.797367994 151.22213001599999,-33.797354008 151.22217900799998,-33.797341002499998 151.222227008,-33.797326998 151.2223,-33.7973050015 151.222374016,-33.797283005 151.22244899200001,-33.797263006500003 151.222524,-33.797245006 151.2226,-33.7972290035 151.22268601600001,-33.797215998 151.22277401599999,-33.797207007 151.22286300799999,-33.797200994500002 151.222951008,-33.797195999499998 151.22304,-33.797190005499999 151.2231,-33.797185991 151.223160992,-33.797183993 151.22322201599999,-33.797181995 151.22328300800001,-33.797177999 151.223342016,-33.797171006 151.223392,-33.797161996500002 151.22344201599998,-33.797148991 151.223491008,-33.797136004 151.22354099200001,-33.797123997499995 151.22359100799997,-33.797118003500003 151.223658016,-33.797118003500003 151.223727008,-33.797125995500004 151.223795008,-33.797138002 151.223864,-33.797150008500005 151.22393299199999,-33.797157001499997 151.22399900799999,-33.797158000499998 151.224064992,-33.797158000499998 151.224131008,-33.797155003500002 151.224196992,-33.797153005499993 151.22426300799998,-33.797150008500005 151.224344,-33.797150008500005 151.224424992,-33.797151007499998 151.22450601599999,-33.797150008500005 151.22458499199996,-33.797145994 151.224660992,-33.797133007 151.224728,-33.797114007499999 151.224792992,-33.797088995500005 151.224856,-33.797061005 151.224918016,-33.797029999 151.22498,-33.79699999 151.22504899200001,-33.796965008500003 151.225116,-33.796926991 151.22518201599996,-33.796887993 151.225248,-33.796848995 151.225314016,-33.796809997 151.22536300799999,-33.796778991 151.22541100800001,-33.796745006500004 151.22546,-33.796712002500001 151.22551001599999,-33.796683993500004 151.225564,-33.796664994 151.22564201599999,-33.796657002 151.22572601600001,-33.796664994 151.22581299199999,-33.796682994500003 151.22590201599999,-33.796702993 151.225988,-33.796716997499999 151.22607299200001,-33.796725008 151.226159008,-33.796733999 151.226244,-33.796740992 151.22632899199999,-33.796746005500005 151.22641401600001,-33.796746005500005 151.226572,-33.796734998 151.226732992,-33.796712002500001 151.226891008,-33.796677000500004 151.227044,-33.796629992 151.22718601599999,-33.796572993499993 151.22727500799999,-33.7965270025 151.22735900800001,-33.796474 151.22744,-33.796417001500004 151.22752099199997,-33.796359004 151.227604,-33.796305002499992 151.227690016,-33.796252999 151.22777801599997,-33.796202993500003 151.22786499199998,-33.796153006499999 151.22795100799999,-33.796102002 151.22803500800001,-33.7960470015 151.228132,-33.795978995500001 151.228228992,-33.795908991499999 151.22832201599999,-33.795836009 151.228407008,-33.795757994499994 151.22848201599996,-33.795675003500001 151.22852,-33.795621002 151.228552,-33.795563004500004 151.22858300799999,-33.795504008 151.22861500799996,-33.795445992 151.228652,-33.7953909915 151.228704,-33.7953380075 151.22876499200001,-33.795288002 151.228827008,-33.7952389955 151.228880992,-33.795187991 151.22891900799999,-33.7951319915 151.228936,-33.795086999500001 151.228948992,-33.795039991 151.22895699200001,-33.794992002 151.22895900799998,-33.794943994500002 151.22895699200001,-33.794898003500002 151.22904598399998,-33.794698 151.2291,-33.794612992499992 151.229256,-33.794486008500002 151.22942899200001,-33.794431008 151.22950899200001,-33.794435004 151.229591008,-33.794445993 151.22967299199999,-33.794462994500002 151.22975100799999,-33.794486008500002 151.229824,-33.794513999 151.229892992,-33.794550999 151.22995801600001,-33.794594992 151.230019008,-33.794644997500001 151.23007801599999,-33.794696002 151.23013500799999,-33.794748005500004 151.23017500799997,-33.794784006500002 151.23021299199999,-33.7948200075 151.23025100800001,-33.7948580065 151.230288,-33.7948960055 151.230324,-33.794934004499993 151.23037500800001,-33.794992002 151.230424,-33.795051997500003 151.23047100799999,-33.795112992 151.23051801599999,-33.795175004 151.23056499200001,-33.795235998500004 151.23063001599999,-33.795310997500003 151.23070099200001,-33.795384997500001 151.230768,-33.7954599965 151.230824,-33.795536993500001 151.23085900799998,-33.795618005 151.23087100800001,-33.795676002500002 151.230876,-33.79573699699999 151.23087520000001,-33.795785911 151.230875008,-33.795797991500002 151.23086700799996,-33.795858005500001 151.230852992,-33.795916003 151.230812,-33.795996996 151.230748992,-33.796072994 151.230672992,-33.796145995 151.230592,-33.796216998 151.23051500799997,-33.796289 151.230424,-33.796369993 151.230323008,-33.796447008500003 151.230224,-33.796524005500004 151.23013500799999,-33.796604998500001 151.230068,-33.796695001 151.230040992,-33.7967559955 151.23002300799999,-33.796821004500003 151.23000899199999,-33.796886994 151.22999100799998,-33.796953002 151.22996499199999,-33.797013996499999 151.22994700800001,-33.797045002499999 151.229928,-33.797074991 151.229908,-33.797103999 151.22988700799999,-33.797133007 151.22986601599996,-33.797161996500002 151.229826016,-33.797208006 151.229780992,-33.797251 151.22973500800001,-33.797294993 151.229696,-33.797340003500004 151.229668992,-33.797387992499992 151.229652,-33.797449005499999 151.22964700799997,-33.797515994 151.22965100799996,-33.797584 151.22966601599998,-33.797650008 151.22969001600001,-33.797709004499993 151.229716,-33.797752997499998 151.229748992,-33.797795991500003 151.22978700799999,-33.797836007 151.22982899199999,-33.79787200799999 151.229874016,-33.797902995500003 151.22992201599999,-33.797958995 151.229975008,-33.7980139955 151.23003001599997,-33.798065999 151.23008899199999,-33.798115005500001 151.23015100800001,-33.798160996500002 151.230222016,-33.798204009 151.2303,-33.798242008 151.23038,-33.798276991500003 151.230456,-33.798315009 151.23052700799997,-33.798359002 151.230576,-33.798396002 151.230626016,-33.798435 151.230672,-33.798475996 151.23071100799999,-33.798520007500002 151.230739008,-33.798565998500003 151.230756,-33.798625994 151.23075699200001,-33.798691003 151.23074700800001,-33.798759009 151.23073299199999,-33.798826996500004 151.23071900799999,-33.798894003500003 151.23070601599997,-33.798967004499993 151.23069100799998,-33.799041004500005 151.230671008,-33.799114005500002 151.23064300799999,-33.799181993 151.230603008,-33.799243006 151.230580992,-33.799267000500002 151.23055500800001,-33.799287998 151.230528,-33.799309994499993 151.230502016,-33.79933099199999 151.230479008,-33.799355005 151.23044300800001,-33.799404992 151.230414016,-33.799459992499997 151.230390016,-33.799518008499994 151.23037001599997,-33.799577005 151.23035100800001,-33.799636001499998 151.230334016,-33.799682991499999 151.230316,-33.79973 151.230300992,-33.799778007500002 151.230292,-33.799825996500005 151.230292,-33.799873005 151.23029699200001,-33.799902993499998 151.23030598400001,-33.799933000499998 151.23031699200001,-33.799962008500003 151.23032998400001,-33.799991997 151.23034300799998,-33.800021005 151.23037001599997,-33.800075006500002 151.230402016,-33.800129008 151.23043801599999,-33.800180993 151.23047500800001,-33.8002329965 151.230514016,-33.80028300199999 151.230558016,-33.800335005500003 151.230604992,-33.800383993499992 151.23065401599999,-33.800433 151.23069900799996,-33.800483005499999 151.230739008,-33.800536008 151.230788,-33.800619998 151.230828,-33.800710000500004 151.23086,-33.800803 151.230884992,-33.800896998500001 151.23090601600001,-33.800990997 151.23092499200001,-33.801104994 151.23093299199999,-33.801220008500003 151.23093500799999,-33.801337002499999 151.230930016,-33.8014529975 151.23092201599999,-33.801567993500001 151.23091500800001,-33.801657996 151.230907008,-33.801748997499999 151.230896,-33.80183800099999 151.230876,-33.8019260055 151.23084499199999,-33.8020089965 151.23079001599999,-33.802106991 151.23072,-33.802206003 151.23063699199997,-33.802297004499998 151.230544,-33.8023750005 151.23044300800001,-33.802432998 151.23037500800001,-33.802456992499991 151.230302016,-33.802474993 151.23022700800001,-33.802487998499998 151.23014998400001,-33.802498007 151.230075008,-33.802506998 151.229998016,-33.802517006500004 151.22992,-33.802526996499999 151.22984300799999,-33.802534008 151.22976700800001,-33.802534008 151.229694016,-33.802523999500004 151.22965299200001,-33.802511993 151.229612992,-33.802494991499998 151.22957299199999,-33.802476991 151.229532992,-33.802457991499999 151.22949299199999,-33.802442007499998 151.22944,-33.802425006 151.22938601600001,-33.802408004500002 151.229332,-33.802393001 151.22927801599999,-33.802379995500004 151.22922300799999,-33.802370005500002 151.22912,-33.802360996 151.22901299200001,-33.802362994 151.22890700799999,-33.802372003500004 151.22879900800001,-33.80238500899999 151.22869299199999,-33.802396997 151.228632992,-33.802404008499998 151.22857299200001,-33.8024129995 151.22851299199999,-33.802423008 151.22845401599997,-33.802431 151.22839398400001,-33.802437993 151.228352,-33.802442007499998 151.22831001599999,-33.802448001500004 151.228268,-33.8024519975 151.228228,-33.8024519975 151.22818998400001,-33.802446003500002 151.22814700800001,-33.802424007 151.22811001599999,-33.802389005 151.228076,-33.802345992500001 151.22804099199996,-33.802301999500003 151.228004,-33.802262002500001 151.22797401599999,-33.802234992499997 151.227944,-33.802206003 151.227912992,-33.802177994 151.227879008,-33.8021539995 151.22784300800001,-33.802135999 151.22780601599999,-33.80212600899999 151.227764992,-33.802121994499998 151.227723008,-33.802119996500004 151.22768,-33.802117998499995 151.22764,-33.802110006500001 151.227599008,-33.802093005 151.22755900799999,-33.802068992 151.22752099199997,-33.802042999500003 151.22748099200001,-33.802021003 151.227439008,-33.802005000499996 151.22737900799999,-33.801994992 151.227312,-33.801989997 151.22724601599998,-33.801991995 151.22718601599999,-33.802003002500001 151.22714,-33.802024 151.227116,-33.802049992500002 151.227100992,-33.802083995499999 151.22708899200001,-33.802121994499998 151.22707500800001,-33.802158994500004 151.22705500800001,-33.8021919985 151.227014016,-33.802231995500001 151.22696499200001,-33.802267996499999 151.22690899200001,-33.802300001500001 151.22685100800001,-33.8023300085 151.22679398399998,-33.802357999 151.22672899200001,-33.802389005 151.22666201600001,-33.802416995500003 151.226592,-33.802442007499998 151.22652201599999,-33.802466002 151.226452,-33.802488997499999 151.22640899199999,-33.802503002 151.22636499199999,-33.802516007500003 151.22632099200001,-33.802528994500001 151.22627801600001,-33.802541001 151.22623401600001,-33.802554006500003 151.226156992,-33.802579999 151.22608099199999,-33.802609007 151.226004,-33.802636997500002 151.225928,-33.802655997 151.225852,-33.802661991 151.225786016,-33.802653 151.225719008,-33.802635998499994 151.22565299199999,-33.802612004 151.22559001600001,-33.802583995 151.22552899199999,-33.802555005500004 151.22548300799997,-33.802530992500003 151.225439008,-33.802505 151.22539500799999,-33.802475992 151.22535398400001,-33.802447002500003 151.225314016,-33.802415996500002 151.22526601600001,-33.802371004500003 151.225220992,-33.802322997 151.225179008,-33.802271992500003 151.225136,-33.802222005499992 151.22508899199997,-33.802174997 151.22505001600001,-33.802141993 151.225008992,-33.802110006500001 151.22496700799996,-33.802079000500001 151.22492700800001,-33.802046995499992 151.22488899199999,-33.802013991500004 151.22484300799999,-33.801966002500002 151.2248,-33.801915997 151.22475900800001,-33.8018639935 151.224718016,-33.801813007500002 151.22467699200001,-33.801762003 151.22464700800001,-33.801723005 151.224614016,-33.801685006 151.22457900800001,-33.801648006 151.22454099199999,-33.801614003 151.224502016,-33.801580999 151.22447100799999,-33.8015600015 151.22443699199999,-33.801542001 151.224403008,-33.801524000500002 151.224372,-33.801504002 151.224348,-33.801481006499998 151.22433100800001,-33.801454995500002 151.224320992,-33.801428004 151.224312,-33.801397997 151.22430300799999,-33.8013690075 151.22429100799997,-33.801340998500002 151.22428300799996,-33.801323997 151.224276,-33.801305996499998 151.22426700799997,-33.801288995 151.22425699199999,-33.801272992500003 151.224244,-33.801259006500004 151.224223008,-33.801242005 151.224196992,-33.801228999500005 151.224168,-33.801216993 151.22413798400001,-33.801208002 151.224108,-33.801198992499991 151.22407100800001,-33.801189002500003 151.224030016,-33.801179993 151.22399001599999,-33.801173 151.22395299199999,-33.801173 151.22392300799999,-33.801179993 151.22391500799998,-33.801203007 151.22392300799999,-33.801246001 151.223939008,-33.801301001500001 151.22395401599996,-33.801358999 151.22395699200001,-33.801410003500003 151.22395001599997,-33.801454995500002 151.22393801600001,-33.801501005 151.22392099199999,-33.801545997 151.2239,-33.801588991 151.223874016,-33.801629006500001 151.22386,-33.801648006 151.22384499200001,-33.8016660065 151.223828,-33.801684007 151.22381100800001,-33.801701008500004 151.223792992,-33.801717991499999 151.22374099199999,-33.801760005 151.223671008,-33.801817003499991 151.22360601599996,-33.801877998 151.223544992,-33.801944006 151.223492,-33.802011993500003 151.22344899199999,-33.802083995499999 151.223428,-33.802127008 151.22341100799997,-33.802172 151.223396,-33.802216992 151.22338499200001,-33.802263001500002 151.223376,-33.802308992500002 151.223355008,-33.802359997 151.22332700800001,-33.802411001499998 151.22329299200001,-33.802460008 151.223255008,-33.802505999 151.223212,-33.802547994 151.22314300799999,-33.802599997500003 151.223060992,-33.802645008 151.222971008,-33.802683007 151.22287798400001,-33.802711996500001 151.22278499199999,-33.802731995 151.22273699199999,-33.802737008500003 151.222688992,-33.802740005499999 151.22263900799999,-33.802740005499999 151.222590016,-33.8027410045 151.22254099200001,-33.802742003500001 151.22245900799999,-33.802744001500002 151.22237699199999,-33.802745999500004 151.222295008,-33.802747997499999 151.222227008,-33.802729997 151.222138016,-33.80272799899999 151.222044,-33.802740005499999 151.221959008,-33.802763001 151.221900992,-33.802797004 151.22188300799999,-33.802817002499999 151.221867008,-33.802838999 151.22185401600001,-33.802861994499992 151.22184198400001,-33.8028860075 151.221823008,-33.802925005500001 151.221811008,-33.802955993 151.22180099199997,-33.802986999 151.22185900799997,-33.803004999500004 151.221916,-33.80302499799999 151.22197299199996,-33.803048992500003 151.22202700799997,-33.803075003499991 151.22207900800001,-33.803102994 151.22214300799999,-33.8031450075 151.22220300800001,-33.803191997499994 151.22226,-33.803243002 151.222312,-33.803296004499998 151.22236099200001,-33.803351005 151.22240201599996,-33.803409002500004 151.222436,-33.803469997 151.222468,-33.803533008 151.22250300799999,-33.803594002499999 151.22254700799996,-33.803649003 151.222596,-33.803694994 151.22265001599999,-33.803739005499992 151.222708,-33.803779002500001 151.222768992,-33.8038160025 151.222832,-33.803849006500002 151.22286201599999,-33.803881992 151.222912,-33.803941007 151.22295500800001,-33.804002001500002 151.22298601599999,-33.804064994 151.22300300800001,-33.804135997 151.223012,-33.804210996 151.22301001599999,-33.804286994 151.22299900799999,-33.804360994 151.222995328,-33.804374906 151.22297801600001,-33.804431997 151.222948992,-33.804492991499998 151.22291100800001,-33.804553005500004 151.22286601600001,-33.804610004 151.222815008,-33.804664005500001 151.22276099199999,-33.804713992499998 151.222688,-33.804766995 151.22260499199999,-33.8048150025 151.22251699200001,-33.804855998500003 151.22242499199999,-33.804892998500002 151.22233299199999,-33.804925003500003 151.22226601599999,-33.804944003 151.22219801599999,-33.8049600055 151.22212899199999,-33.804973991499999 151.222059008,-33.804986997 151.22199001600001,-33.805001001499996 151.22191100800001,-33.805016005 151.221832,-33.805029991 151.22175299200001,-33.805042996499999 151.22167500799998,-33.805058999 151.221598016,-33.805076999500002 151.22149100799999,-33.805110003499991 151.221384992,-33.805149001499998 151.22128099199998,-33.805190996500002 151.22117801599998,-33.805232991499999 151.22107299199999,-33.805273007 151.22099801599998,-33.805298999500003 151.220922016,-33.805323993 151.22084601599997,-33.805349005 151.22077100800001,-33.805374997500003 151.220696,-33.805403006500001 151.22059299200001,-33.805448997500001 151.220492992,-33.805500002 151.220392992,-33.805552005500004 151.220292,-33.805600993500001 151.22018700800001,-33.805639991500001 151.220104,-33.805664004500002 151.22002,-33.805685002 151.219934016,-33.805702003500002 151.219848,-33.805717007 151.219762016,-33.805728995 151.219660992,-33.805741001500003 151.21956,-33.805750991499998 151.21945801599998,-33.805756005 151.219356,-33.805756005 151.219256992,-33.805748993500004 151.219155008,-33.805731992 151.219052992,-33.805705000499998 151.218954016,-33.805673994499998 151.21885401599999,-33.8056389925 151.21875500799999,-33.805606007 151.21869699199999,-33.805587007500002 151.218639008,-33.805565991500004 151.218580992,-33.805545993 151.21852300800001,-33.805525994500002 151.218464,-33.805506995 151.21839401599999,-33.805483999499998 151.218324,-33.805462003 151.218252992,-33.805441005500001 151.21818099199999,-33.805422006 151.218108,-33.805407002500004 151.218,-33.805391999 151.21789001599998,-33.805386005 151.21777900800001,-33.805385006 151.21766700800001,-33.805385006 151.21754601599997,-33.805385006 151.21752601599999,-33.805385006 151.217636,-33.805453992499999 151.217712992,-33.805462003 151.217792,-33.805478005499999 151.21787001600001,-33.805502 151.21794201599999,-33.805532007 151.218008,-33.805568008 151.21805001599998,-33.805602991500002 151.218076352,-33.805632647 151.21803180799998,-33.805619808 151.21789580800001,-33.805559794 151.21758784,-33.8054987995 151.21753683200001,-33.805483796 151.21729686399999,-33.805473639500001 151.21704083200001,-33.805462798500002 151.21667881599998,-33.805557796 151.21645382400001,-33.80565481 151.216333824,-33.80568182 151.21595385599997,-33.805834815 151.21567587199996,-33.805987828500001 151.21562387200001,-33.806030822499999 151.21536486400001,-33.806126819 151.21519286399999,-33.806167815 151.21491785599997,-33.806206813 151.214848864,-33.806191828 151.214591904,-33.806173827500004 151.214455904,-33.806157825 151.21435289599998,-33.806127818 151.213907904,-33.806092816 151.21365289599999,-33.806017835500001 151.213363904,-33.805884839 151.21299088000001,-33.80569384499999 151.21292614399999,-33.80563779 151.212926528,-33.805621177 151.21294704,-33.805491936 151.21294848,-33.80541912 151.21316339200001,-33.805528825 151.2133704,-33.805588765 151.213568896,-33.8051248405 151.21338688,-33.805076833 151.21335488,-33.805067842 151.21331888,-33.805028844 151.21329788799997,-33.805003832 151.213104896,-33.8047898425 151.21298288,-33.80461984599999 151.21274089600001,-33.804549842 151.21270889600001,-33.804539833500002 151.212576896,-33.804501834500002 151.212385888,-33.804528844499998 151.21194288000001,-33.804750844499999 151.21195888,-33.804682838499993 151.21190688,-33.804686834499996 151.210599968,-33.805343862 151.20949795199999,-33.805350855 151.20926595200001,-33.805352853 151.20908848,-33.80536399 151.20918361599999,-33.804963816499992 151.20919241600001,-33.8049305535 151.20807913599998,-33.804767069 151.20683097599996,-33.804574872499998 151.20557801599998,-33.804382879500004 151.20530099199999,-33.805641323499998 151.20481212799999,-33.807860546500002 151.20437212799999,-33.809884890500001 151.204337632,-33.810010024500002 151.20430992,-33.810137193500005 151.20428905599999,-33.810265620500005 151.204275008,-33.810394325 151.204267456,-33.810522752 151.20426636799999,-33.81061292099999 151.20426816,-33.810703478500002 151.20427321599999,-33.810794017500001 151.20428256,-33.810884094 151.20429625599999,-33.810973467499998 151.20431964799997,-33.811086502500004 151.20435635199999,-33.811291889499998 151.20439379199999,-33.811424275500002 151.20441504,-33.811508876 151.204441696,-33.811592126 151.20447299200001,-33.81167348899999 151.204509376,-33.811748377 151.20455184,-33.811821359499994 151.20469116800001,-33.812037088 151.20488915199999,-33.812369903 151.20502345599999,-33.812590774500002 151.205101216,-33.812711542500004 151.20516,-33.812802414499998 151.20508313600001,-33.812845871 151.20499616000001,-33.812916874 151.20492515199999,-33.813030871 151.20485513599999,-33.813086870500001 151.20474915200001,-33.813213873 151.20469715199999,-33.813227877500005 151.20462816,-33.813269872500001 151.20443814399999,-33.813338877500001 151.20428313599996,-33.81339387799999 151.204198144,-33.813363871 151.20411219199997,-33.813376876500001 151.20378819199996,-33.813286874 151.20370217599998,-33.813270871500002 151.20363417600001,-33.813241882 151.20337817599997,-33.813209877 151.20284716800001,-33.813202902500002 151.202557184,-33.813154895 151.20214720000001,-33.81304889 151.2017392,-33.81290089 151.20158521599998,-33.812855898 151.20134620799999,-33.812809888499999 151.20122720000001,-33.812792887 151.20105520000001,-33.812790889 151.20091820799999,-33.812802895499999 151.2008152,-33.812830886 151.2005912,-33.812884887500005 151.20028124800001,-33.812937908500004 151.20017724799999,-33.812993908 151.19990224,-33.813032906 151.199526112,-33.812988543 151.198944256,-33.812919908 151.19867027199999,-33.812929916500003 151.19854928000001,-33.812970912499999 151.19828828799999,-33.813138911 151.19818428799999,-33.813237904499999 151.197855264,-33.813362909 151.19778726399997,-33.813347905500002 151.19766726399999,-33.813373916499998 151.19763328,-33.8133449085 151.19756528,-33.813315937499993 151.19739728,-33.813126923 151.19729827200001,-33.812953929500004 151.19714828799999,-33.812750929 151.19696227200001,-33.812619930499999 151.19675830400001,-33.812545930500001 151.19658729599999,-33.8125149245 151.19636531200001,-33.812482938 151.19609030399999,-33.812521936 151.19589929599999,-33.812619930499999 151.19574432,-33.812674931 151.19562329600001,-33.812729931500002 151.19538230399999,-33.812726934499992 151.19519532800001,-33.812709933 151.194973344,-33.812635951499999 151.194872352,-33.812576955 151.19465132799999,-33.812458943499998 151.19432732800001,-33.812368941 151.19407033600001,-33.812364945 151.19388732799999,-33.812326946 151.19406835199999,-33.811781954499999 151.19448083200001,-33.809876991 151.194348,-33.809857917500004 151.19346348799999,-33.809340787 151.19344044799999,-33.809313425500001 151.19344547200001,-33.808722036 151.19344729599999,-33.808455969 151.193450528,-33.808184722 151.192739168,-33.808086098499999 151.192937312,-33.807091964 151.19302931199999,-33.806633127 151.19321027199999,-33.805730974500001 151.19329126400001,-33.8053259725 151.19340732800001,-33.804744480499998 151.19349155200001,-33.804323365 151.19360604799999,-33.803752769500001 151.19368624000001,-33.803349969 151.19380441599998,-33.802760078 151.19313696,-33.80267061199999 151.19212659199999,-33.8022797255 151.192292608,-33.80123664 151.19406073600001,-33.801481709500003 151.19422057599999,-33.800690871500002 151.194396256,-33.799820317 151.194463168,-33.799485966500001 151.19483219200001,-33.797676685 151.194920768,-33.797238383 151.195039552,-33.796673374500003 151.19524729599999,-33.795685881499999 151.195714912,-33.793463513500001 151.19579411199999,-33.793087945 151.19550105599998,-33.792432971 151.19803260800001,-33.791643261499999 151.19845273600001,-33.791512226 151.198608992,-33.791530948 151.19873891200001,-33.791547154 151.19964576000001,-33.791268322 151.1999064,-33.791188587 151.20070921600001,-33.790941630500001 151.20299916799996,-33.790238279 151.20261072,-33.789342509 151.20253785599999,-33.7891759165 151.20189324799998,-33.787620455 151.20184931200001,-33.787527751500001 151.20181152000001,-33.7874330685 151.201794976,-33.787385190500004 151.20130393599999,-33.786283238 151.20107964799999,-33.785780574500002 151.20092809600001,-33.785434162 151.20084771200001,-33.785250290500002 151.200957856,-33.785291934 151.20104387200001,-33.785306937500003 151.20111187200001,-33.785336926 151.20131683199997,-33.785339923 151.20157382400001,-33.785357923500001 151.20172883199999,-33.785344936500003 151.20193283200001,-33.785376904499998 151.20234083199998,-33.785553912499999 151.20247584000001,-33.785655921500002 151.20297881599998,-33.786192921 151.203230816,-33.786468904 151.20338182399999,-33.786613907 151.20355184,-33.786702910500004 151.20368784,-33.786760908 151.20380780799999,-33.786762887500004 151.203994784,-33.786808897 151.20404678400001,-33.786794892499991 151.20423478399999,-33.786811894 151.204525792,-33.786801885500005 151.2046968,-33.786817888 151.20497078400001,-33.786850892 151.20510780800001,-33.78685289 151.205739776,-33.786975896500003 151.20585875200001,-33.787020888500003 151.20616576,-33.787081883 151.20686176000001,-33.787391869 151.20694675199999,-33.787450884 151.20703177600001,-33.787480872499991 151.20718377599997,-33.787582881500001 151.20812073600001,-33.78788186 151.20844272,-33.788058849500004 151.208644736,-33.788204851499991 151.209520736,-33.78898986199999 151.20980873599999,-33.789165852499991 151.209960736,-33.789239852500003 151.21030172799999,-33.789329836500002 151.21040470400001,-33.789330835500003 151.21060969600001,-33.789362840500004 151.21117270400001,-33.789470843499998 151.21124169599997,-33.789499833 151.21132668800001,-33.789515835499998 151.211580704,-33.789647833 151.21159769600001,-33.7896628365 151.21174969599997,-33.789779830500002 151.212085696,-33.79008484 151.212289696,-33.790216837500004 151.212391712,-33.790246844500004 151.21252870399999,-33.790219816 151.212614656,-33.7902348195 151.21273568,-33.790179819 151.21285568,-33.790152827500002 151.21325267200001,-33.790028822 151.213682656,-33.789977817500002 151.21402467199999,-33.789982812499993 151.21426364800001,-33.790014817500001 151.21451862399999,-33.790132829 151.21468864,-33.790205793 151.21472300799999,-33.790236003499999</coordinates></LinearRing></outerBoundaryIs></Polygon>

	</Placemark>
</kml>