<?xml version="1.0" encoding="UTF-8"?>
<kml xmlns="http://www.opengis.net/kml/2.2">
	<Placemark>
		<Style>
			<LineStyle>
				<color>ff0000ff</color>
			</LineStyle>
			<PolyStyle>
				<fill>1</fill>
				<color>330000cc</color>
			</PolyStyle>
		</Style>
			<ExtendedData><SchemaData>
		<SimpleData name="STATE_2006">1</SimpleData>
		<SimpleData name="POA_2006">2136</SimpleData>
	</SchemaData></ExtendedData>
      <Polygon><outerBoundaryIs><LinearRing><coordinates>151.10636816,-33.891181901 151.10600816,-33.891278896499998 151.10584668800001,-33.891323407500003 151.10565084800001,-33.891381997 151.10553996799999,-33.891409525 151.10542944,-33.891420329 151.10532899199998,-33.89142303 151.10484819199999,-33.891365920499993 151.1046872,-33.89211493 151.10361420800001,-33.891970926 151.10254220799999,-33.891816950500001 151.10198921599999,-33.891736975 151.100827264,-33.891554972 151.10065424,-33.892315988 151.10036928,-33.893710980500003 151.10020428799999,-33.894523981500001 151.09850832,-33.894281002500001 151.09534236799999,-33.893833043500003 151.094679488,-33.893739711 151.09438752,-33.893709112 151.09438643199996,-33.893699584499998 151.09438176,-33.89369076 151.094374208,-33.893683471 151.094364832,-33.893678161499992 151.09435369600001,-33.893675275500001 151.094342528,-33.893675109 151.09433136000001,-33.893677625 151.094321632,-33.893682657 151.094313728,-33.893689761 151.09430905599996,-33.893698419 151.09400592,-33.893644417499999 151.093829376,-33.893619054 151.09167942400001,-33.893317078500004 151.09058412799999,-33.893162640500002 151.090691392,-33.892609139 151.09091136000001,-33.891473794 151.091120512,-33.890365977 151.09123321600001,-33.889768205 151.09125155199999,-33.88964499499999 151.09131132799999,-33.889243138 151.09133363199999,-33.8890933805 151.09142544,-33.888700977 151.091539552,-33.8880483895 151.09154208000001,-33.8879873765 151.091524448,-33.887828887 151.091508256,-33.887654376500002 151.09149817599999,-33.8875426735 151.09158636800001,-33.8874543915 151.09170048,-33.887361873 151.09233049599999,-33.886878930500004 151.092400032,-33.886818250499999 151.09249465600001,-33.886735925499998 151.092536032,-33.886697945 151.09268867200001,-33.886557992500002 151.092754208,-33.886489764499999 151.0928136,-33.886427937500002 151.09294752,-33.8862980675 151.09308649600001,-33.886160631 151.09324416000001,-33.885996129 151.09335971199999,-33.885890272 151.09351056,-33.885773463 151.093683008,-33.885684533500005 151.09382736000001,-33.885618026 151.09394364799999,-33.885583116500001 151.094035456,-33.885565375 151.09404768,-33.885562859 151.0941672,-33.885550260500004 151.09421939200001,-33.885547911 151.09437312,-33.885548558499998 151.09456499199999,-33.885569889 151.09471404799999,-33.885600395499999 151.09489763199997,-33.885668346 151.095513248,-33.885928345 151.09620012799999,-33.8862183325 151.09721603200001,-33.886664904 151.09740390399998,-33.886741438500003 151.09798608,-33.886991244 151.09807139200001,-33.8870295945 151.09815491200001,-33.887067205 151.09825321599999,-33.887100782499999 151.098526432,-33.88716458899999 151.099171936,-33.887320562499994 151.099417792,-33.887379966 151.09961507200001,-33.8874196485 151.09996032000001,-33.887461680500003 151.10014249599999,-33.887480032500001 151.10027856,-33.887493815 151.10148528,-33.88761351 151.101668512,-33.887629623500004 151.10182332799997,-33.887694965500003 151.10219628799999,-33.8878937665 151.10248825599999,-33.888120669 151.102657088,-33.888228117 151.10276688,-33.888280139 151.102881728,-33.888323873 151.102971712,-33.888346295 151.1031672,-33.888378688499998 151.10331299200001,-33.888389307499992 151.103428576,-33.888381574500002 151.10351497600001,-33.8883630375 151.103631616,-33.888327036500002 151.10372304000001,-33.888290665500001 151.10413811199999,-33.888087628 151.10429724799999,-33.888002768500002 151.10443043199999,-33.887923292499998 151.10453699199999,-33.887850661499996 151.10482752,-33.887649326 151.104997088,-33.887536291 151.105152608,-33.887432524499999 151.1053776,-33.887292202 151.10555110399997,-33.887173894500002 151.105619104,-33.887133897499993 151.105831104,-33.887005896 151.10635408,-33.886815882500002 151.106723104,-33.886755868500003 151.10711907199999,-33.886691877 151.10795212799999,-33.891038877500002 151.107667136,-33.890959882499999 151.10716112,-33.891028869 151.106691168,-33.891093896500003 151.10636816,-33.891181901</coordinates></LinearRing></outerBoundaryIs></Polygon>

	</Placemark>
</kml>