<?xml version="1.0" encoding="UTF-8"?>
<kml xmlns="http://www.opengis.net/kml/2.2">
	<Placemark>
		<Style>
			<LineStyle>
				<color>ff0000ff</color>
			</LineStyle>
			<PolyStyle>
				<fill>1</fill>
				<color>330000cc</color>
			</PolyStyle>
		</Style>
			<ExtendedData><SchemaData>
		<SimpleData name="STATE_2006">1</SimpleData>
		<SimpleData name="POA_2006">2847</SimpleData>
	</SchemaData></ExtendedData>
      <MultiGeometry><Polygon><outerBoundaryIs><LinearRing><coordinates>150.03132985600001,-33.484790791499996 150.030643328,-33.486535082499998 150.03048204800001,-33.486932888 150.03036432,-33.487224022500001 150.03023724799996,-33.487606084500001 150.03006841600001,-33.487930075 150.02981712,-33.488357036499991 150.02958816,-33.488721098 150.02938297599999,-33.48898109699999 150.02926236799996,-33.489134092 150.02882819199996,-33.489578073499999 150.02841635199999,-33.489941136 150.02811936000001,-33.49018304199999 150.027675136,-33.490483112 150.02750736,-33.49058427 150.02723737599999,-33.490747088500001 150.02678915199996,-33.490974157499998 150.026341312,-33.491179082 150.02579017599999,-33.491393108499999 150.02564220799999,-33.491440172499999 150.0248952,-33.491677139 150.02383321600001,-33.491932106 150.023283488,-33.4920420885 150.023071808,-33.4921057285 150.02278128,-33.492193104 150.02231724800001,-33.492362138499999 150.0219072,-33.492576146499999 150.02159833600001,-33.492755152500003 150.02079984,-33.493287231 150.01869168,-33.494691862 150.01710768000001,-33.495747213 150.01658963200001,-33.496102986499999 150.01497936000001,-33.497208990499999 150.01466832,-33.497436337 150.01451315200001,-33.497540196 150.01353792,-33.498194855500003 150.01306092799999,-33.498494814499999 150.01296768,-33.498557455499999 150.012877312,-33.49862289 150.01278985600001,-33.498690840500004 150.012705248,-33.498761048 150.01262387199998,-33.49883438199999 150.01254576,-33.498910620499998 150.01247052799999,-33.498989097499994 150.012464032,-33.498996127499993 150.012397792,-33.499069387500001 150.01232832,-33.499151009500004 150.01225776000001,-33.499239569 150.01219081599999,-33.499330293 150.01212672,-33.499422719 150.01200540799999,-33.499610549499998 150.01189632000001,-33.499790092 150.01184483200001,-33.499881186 150.011796256,-33.499973334499998 150.01175123199999,-33.50006648199999 150.011714528,-33.500150287 150.01167996800001,-33.500235054 150.01164828799998,-33.500320561 150.011618752,-33.500406697 150.01159248,-33.500493184500002 150.011565472,-33.500590291 150.011541376,-33.500688119 150.011520832,-33.500786668499998 150.01150464,-33.5008854955 150.01149385599999,-33.500984396500002 150.011489536,-33.501065852 150.0114888,-33.501078894500004 150.01148809599999,-33.501173577499998 150.011489152,-33.501220826500003 150.01147801600001,-33.50142009 150.01147008000001,-33.502116152500001 150.01145532800001,-33.50236751199999 150.01134588799999,-33.502900941 150.01132716800001,-33.502974922500002 150.011303392,-33.503047646 150.01127676799999,-33.503112636499999 150.01124617599999,-33.503176702 150.01118460799998,-33.503290014500003 150.01117776000001,-33.503302705499998 150.01110467199999,-33.503426008 150.011025472,-33.50354633199999 150.010942688,-33.503665231500001 150.01088112,-33.503749647 150.010687456,-33.503998953 150.01062659199997,-33.504083812499992 150.010529056,-33.504231239 150.01048259199999,-33.5043058495 150.01043724799999,-33.504381181500001 150.010357696,-33.504523742499998 150.01028819199996,-33.504658478 150.01025580800001,-33.504726502499999 150.010186336,-33.504886083499997 150.01015104000001,-33.504978065499998 150.01012044799998,-33.50507643 150.01010099199996,-33.505155092 150.01009091200001,-33.505218621 150.01007689599999,-33.505325736 150.01006825600001,-33.50541005899999 150.01005961600001,-33.5055381345 150.01005456,-33.505666746500005 150.01005529599999,-33.505730904499998 150.01005888,-33.505794896 150.01006643199997,-33.505864012 150.01007724799999,-33.505932961500001 150.010089472,-33.505993715499997 150.01012224,-33.506138515 150.01039081600001,-33.507169834500004 150.0106392,-33.508124545499996 150.01076448000001,-33.508494175500005 150.01085376,-33.508727109 150.010920736,-33.508895403499999 150.01111152,-33.509246219 150.01116227200001,-33.509322901499999 150.01130412800001,-33.509536021499997 150.01153235199996,-33.509796113 150.01166304,-33.5099451675 150.01206336,-33.510328191500001 150.012344512,-33.510640416 150.01251587199999,-33.510835979500001 150.01272323200001,-33.51117366 150.01287913600001,-33.511591445500002 150.012891712,-33.511702501 150.012922688,-33.511972675 150.01292556800001,-33.512359676499997 150.01290755199997,-33.512651107 150.012868672,-33.512843784499999 150.012779392,-33.513316829499999 150.01268435200001,-33.5137218315 150.012608032,-33.513931714 150.01255008000001,-33.514091998 150.012418688,-33.51436713 150.01229088,-33.514547301500002 150.01199568000001,-33.51488994 150.011624512,-33.515301861 150.01135379199999,-33.515690213 150.01131132800001,-33.515754926 150.01126812799998,-33.515829629 150.011250112,-33.515864631 150.01124041599996,-33.515883445500002 150.01121449600001,-33.5159381685 150.01119145599998,-33.515993428 150.01117020800001,-33.516049224 150.0111504,-33.516109164 150.01113385599999,-33.516169918 150.011106848,-33.516292869 150.01107948800001,-33.516442978 150.01106652799999,-33.516532074 150.01105644800001,-33.5166214475 150.01104995200001,-33.516710913499999 150.011047072,-33.516800287 150.01104960000001,-33.516932580500004 150.01106003199999,-33.517064707499998 150.01106832,-33.517130401 150.01107696,-33.517187011 150.011099648,-33.5172999535 150.01112844799999,-33.517411749 150.011363872,-33.518066408500005 150.011393408,-33.518149011 150.01143481599999,-33.518278529500002 150.01146937600001,-33.518401554500002 150.01151651199999,-33.518597395500002 150.01154675199999,-33.518742398500002 150.011557568,-33.518815103500003 150.01156297599999,-33.518887919500003 150.01156259199999,-33.518955426 150.01155865600001,-33.519023191500004 150.011551072,-33.519090957 150.01152947200001,-33.5192256 150.01151507200001,-33.519297232 150.01149779199997,-33.519368697499999 150.01147801600001,-33.519439719 150.01145568000001,-33.519510185500003 150.0114312,-33.519579838 150.01140636799997,-33.519643552 150.01137936,-33.519706822 150.01135020800001,-33.519769463 150.01131888,-33.519831382500001 150.01125913600001,-33.519936684500003 150.01123177599999,-33.519980603500002 150.01117344,-33.520067183500004 150.01111043199998,-33.520155835499999 150.01106256,-33.520220456 150.01097219199997,-33.5203350265 150.01095491199999,-33.520353027 150.01091891199999,-33.52038821399999 150.01084403199999,-33.520456164500004 150.01074576,-33.5205372685 150.01068457599999,-33.520584055 150.010621216,-33.520629065500003 150.01055641599999,-33.520671985500002 150.01048944,-33.520712315499999 150.010409888,-33.520755235500005 150.010327072,-33.520794659 150.01024211199999,-33.520831381500003 150.010156096,-33.520865939499998 150.00997824000001,-33.520932539500002 150.00988572799997,-33.520964304 150.00979212799999,-33.52099383 150.009757568,-33.521003635 150.009697792,-33.521020562499999 150.0096024,-33.521043872500002 150.00950627199998,-33.52106376 150.00940873600001,-33.521080687499996 150.00931043200001,-33.521094636500003 150.009211808,-33.521105514499993 150.009113536,-33.521113525 150.00901308799999,-33.521118575500005 150.008912288,-33.521120462499994 150.00881148799999,-33.521119371 150.00871104,-33.521115245499999 150.008610976,-33.521108123 150.00849324800001,-33.521096061 150.00837587199999,-33.5210798735 150.00825888,-33.52105943099999 150.00814368,-33.52103478899999 150.00803065599999,-33.521005892 150.007921216,-33.520973498499998 150.00781283199998,-33.520936942500001 150.00770627200001,-33.5208963535 150.00760259200001,-33.520851713 150.007502528,-33.520803021 150.00739091199998,-33.5207416565 150.00728256,-33.520674427499998 150.00721523199999,-33.52062753 150.007178528,-33.520601963 150.00707987199999,-33.520525114 150.00698771200001,-33.52044438 150.006901696,-33.520359428 150.00682140800001,-33.520269425499997 150.00674652800001,-33.520175649 150.00667776,-33.520078986500003 150.0066144,-33.519980511 150.00657011199999,-33.519903569499995 150.00652873600001,-33.519824815 150.006490912,-33.5197448025 150.00645673599996,-33.519663809500003 150.00642540800001,-33.519582261499998 150.00639443200001,-33.519489835500003 150.00636780799999,-33.519396151499997 150.00634512,-33.519301561 150.0063264,-33.519206341500002 150.006312,-33.519111122 150.00630336,-33.519033181499999 150.00629760000001,-33.518954797 150.006294368,-33.518876301500001 150.006294016,-33.518797824499998 150.00629651200001,-33.5187195325 150.00630444799998,-33.518666511500001 150.00631523199999,-33.518613694 150.00632028800001,-33.518592456 150.0063408,-33.518509021 150.00637427199999,-33.518398224499997 150.00641532799997,-33.518288963499998 150.006438368,-33.518235239500001 150.00645779199999,-33.518179166 150.00665977599999,-33.517729264499998 150.00681708799999,-33.517393656 150.006908512,-33.5170971935 150.00694416,-33.516772204 150.00695244799999,-33.516555291499998 150.006932288,-33.516419853 150.00691212800001,-33.516284581 150.00689881599996,-33.516216815500002 150.00688259200001,-33.516149216500004 150.006863872,-33.516081987500002 150.006842272,-33.516015387499998 150.006818176,-33.515949694 150.006790432,-33.5158820025 150.00675984,-33.515814866 150.00672636799996,-33.515748636 150.00669036799999,-33.515683553 150.00665148799999,-33.515619839 150.00660864,-33.515556217499999 150.00656291199999,-33.515493743 150.00651468800001,-33.515432545 150.00646393599999,-33.515373067500001 150.00641027200001,-33.515315273500001 150.00634153600001,-33.515247508 150.00626844799999,-33.515182258499998 150.00619212800001,-33.515119432500001 150.00611292799999,-33.515058956 150.006032288,-33.515000736499999 150.005950912,-33.514944755500004 150.005867392,-33.514890569 150.00578137599999,-33.514838824500004 150.005693536,-33.514790317500001 150.00560316799999,-33.514745936 150.00552,-33.514709842500004 150.00543468800001,-33.514676635 150.00542819199998,-33.514674396499998 150.00534755199999,-33.51464622099999 150.00525936,-33.514618323 150.005170432,-33.514592941 150.00509916799999,-33.514575033 150.002832256,-33.514075089 150.00153696000001,-33.513789412 150.001353376,-33.513748915499995 150.00125148799998,-33.513726419500003 150.00116220800001,-33.513706717 149.99855545599996,-33.513136288 149.998266016,-33.513072833 149.99779584,-33.512969603 149.99764896,-33.512932806500004 149.99750352000001,-33.512891311 149.997410656,-33.512862155 149.99731776,-33.512831278500002 149.99722633600001,-33.512798256 149.99713596800001,-33.512763143 149.99704739200001,-33.512725532499999 149.9969448,-33.512677192 149.99684508799999,-33.512624911 149.99674681600001,-33.512569744 149.99645411200001,-33.512396399 149.99635548800001,-33.512336181500004 149.99622227200001,-33.512250323 149.99616323199999,-33.512210289 149.99607180800001,-33.512143134 149.99595372799999,-33.512047914500002 149.99584032000001,-33.511947663 149.995732672,-33.51184299 149.99563043200001,-33.511734543 149.99553539199999,-33.511622932500003 149.99495616,-33.511046583500004 149.994785888,-33.510877105 149.99466275200001,-33.510763885 149.994576736,-33.510691531500001 149.99448275200001,-33.510618179 149.99438483200001,-33.51054762 149.99428368,-33.510480021 149.994180352,-33.510415049 149.994075232,-33.510352685500003 149.993933056,-33.510273561 149.99378688,-33.5101982475 149.99363676799999,-33.5101281325 149.99360256,-33.510113721 149.993483392,-33.510064233500003 149.99332752000001,-33.510007882499998 149.99320259199999,-33.509969365499998 149.99307516799999,-33.509935251500004 149.99294627200001,-33.5099050225 149.99281632,-33.509878382499998 149.99268601599996,-33.509854795 149.99256649599999,-33.509835629 149.99244588799999,-33.509818979 149.99232492799999,-33.509805307500002 149.99220361600001,-33.50979504 149.992082272,-33.509788565 149.99195916799999,-33.50978586399999 149.99183497600001,-33.509786844499992 149.99171113599996,-33.509791432500002 149.99158764799998,-33.509799628 149.991464896,-33.5098114125 149.990564896,-33.509886393 149.99030892799996,-33.5098574035 149.98992803199999,-33.509805381500001 149.989547872,-33.509743462 149.98929696,-33.509696398 149.98904604800001,-33.5096454675 149.98882105600001,-33.509569136499998 149.98788793599999,-33.509252435 149.98663404800001,-33.508827453 149.986405088,-33.5087224285 149.98628700800001,-33.5086764375 149.986166752,-33.508634498 149.98591980800001,-33.508564475500002 149.98579379200001,-33.508535486 149.98553891200001,-33.50849049399999 149.98537225599998,-33.508473751499999 149.985280096,-33.508464483 149.98514976000001,-33.508458452 149.985019072,-33.508456472500001 149.98475881600001,-33.508466462500003 149.984628832,-33.508478432 149.98449996799999,-33.508494453 149.98437180799999,-33.508515413499993 149.98424508799999,-33.508541424500002 149.984119808,-33.508571487 149.98399596799999,-33.508605508500004 149.98311900799999,-33.508681377 149.98234499200001,-33.508748513499995 149.98181292800001,-33.508804494499998 149.98141296,-33.508762462500002 149.98114908799997,-33.508721522 149.980887008,-33.5086695 149.98062816000001,-33.508608487 149.980467232,-33.50856294 149.98037398400001,-33.508536485 149.980123072,-33.5084554735 149.97999996799999,-33.5084104815 149.979457088,-33.508186465 149.97921084800001,-33.508084493 149.979089888,-33.508045532 149.97896713599999,-33.508010511500004 149.978842912,-33.507979468500004 149.97858985600001,-33.507932497 149.97846204800001,-33.507915477 149.978333152,-33.507903507500004 149.97820393599997,-33.507895497 149.97807395199999,-33.507892537 149.977944,-33.507894516500002 149.97768588799997,-33.507910537500003 149.97755808,-33.507926558500003 149.97742992,-33.507946538500001 149.977303936,-33.507970477500002 149.97717900800001,-33.507999541 149.97693420799999,-33.508070451500004 149.976854656,-33.508098368 149.97681395199999,-33.5081124835 149.976216,-33.508363491499999 149.97566521600001,-33.508550526500002 149.97553705600001,-33.508572486 149.97528,-33.508605508500004 149.97502009600001,-33.508624508 149.97476016,-33.50862954 149.974500256,-33.508620549 149.97436992,-33.508610559 149.97428675200001,-33.5086004765 149.97411216,-33.508579497500001 149.973856928,-33.508534505500002 149.973732,-33.508507495499991 149.97348323200001,-33.508442523500001 149.973361216,-33.508404543 149.97324025599997,-33.508363491499999 149.973121088,-33.5083184995 149.972889248,-33.508220486500001 149.97242195199999,-33.507926558500003 149.97202307200001,-33.507683542500004 149.97190320000001,-33.5076335185 149.97189888,-33.507631983 149.97178115200001,-33.5075875275 149.97165696,-33.507546568499997 149.971530976,-33.507509587 149.97127321599999,-33.507449554499999 149.971142176,-33.507425523 149.97101113599999,-33.507407522500003 149.97087827199996,-33.507392574500003 149.97074508799997,-33.507383583500001 149.970611168,-33.507378533 149.97034403200001,-33.5073825845 149.9702112,-33.507391594 149.970078016,-33.507405543 149.9698152,-33.507446576 149.96955708799996,-33.507505535500002 149.96943107199999,-33.5075415365 149.969306176,-33.507582569500002 149.96928384,-33.507591209 149.969064256,-33.507676531 149.96883203199997,-33.507787586500001 149.968720096,-33.507849598500002 149.96763433599997,-33.508514525500004 149.96725308800001,-33.508677603 149.966990272,-33.508751843500001 149.966524096,-33.508883619 149.96626633599999,-33.50891259 149.96609315200001,-33.508921858500003 149.96587500800001,-33.508924559500002 149.96561507199999,-33.50891259 149.96548620799999,-33.5088995475 149.96522915200001,-33.508862547500001 149.96510208000001,-33.508837628 149.96497715199999,-33.508808546 149.964852256,-33.508775616 149.96473020799999,-33.508738616 149.96460924799999,-33.508697583 149.96449008,-33.508652572500004 149.964373088,-33.508604602 149.964259328,-33.508552598499996 149.96393136,-33.508374573 149.96365379199997,-33.508142638500004 149.96318617599999,-33.507751493 149.96238227200001,-33.507080553500003 149.962018336,-33.506837648500003 149.96192003199999,-33.506762575499998 149.961817088,-33.506691572500003 149.96171123199997,-33.506625601499998 149.96160108800001,-33.506563589499997 149.961487328,-33.506506628 149.96137033599999,-33.506453607 149.96125008000001,-33.506406635499999 149.961128032,-33.506363604500002 149.961097792,-33.506354336 149.96100313599999,-33.506325624 149.96087603199999,-33.506293582 149.96074716800001,-33.506266590500005 149.96061721599997,-33.506244631 149.96048617599996,-33.506227611 149.960354048,-33.5062166405 149.96022227200001,-33.506211608499996 149.96008908799999,-33.506211608499996 149.959956256,-33.5062166405 149.9584248,-33.506209536500002 149.95714931200001,-33.506203598 149.95445545600001,-33.506190629500004 149.95403712,-33.506188557500003 149.953201216,-33.506184691 149.952520096,-33.506181453499991 149.95239625599999,-33.5062064655 149.95227312,-33.506236528 149.952033376,-33.506308437500003 149.95180224000001,-33.50639844 149.95158121599999,-33.506504556 149.95147500799999,-33.506562609 149.95137132799999,-33.506625694 149.95117513599996,-33.506762575499998 149.95108332800001,-33.506835669 149.95099440000001,-33.506912610500002 149.95084608,-33.507057965 149.95082915200001,-33.507074522499998 149.95075321600001,-33.507160658499998 149.950039328,-33.508184578 149.94996624,-33.508278447 149.94988704,-33.508368449500004 149.94980137600001,-33.508454585500004 149.949710272,-33.508537650499996 149.94951228799999,-33.508687593 149.94940537599996,-33.508755728499992 149.94929449599996,-33.508818443499997 149.94924841599999,-33.508841402 149.94917929600001,-33.508875682499998 149.94906012800001,-33.508927612 149.94893843200001,-33.5089734365 149.94881315200001,-33.509013489 149.94868537599999,-33.509047584500003 149.94855504,-33.509075667499999 149.94842435199999,-33.509097627 149.948291168,-33.509112667499998 149.94815833600001,-33.509121473500002 149.94802441600001,-33.50912345299999 149.94789011200001,-33.509119586499999 149.946656768,-33.508852021 149.946440416,-33.508805123500004 149.946179392,-33.508748513499995 149.94604944,-33.508730698 149.94591731200001,-33.508718451 149.94578521599999,-33.508712605 149.94565344,-33.508712605 149.94552131199998,-33.508719635 149.94538956799997,-33.508731512 149.94525923199998,-33.508749605 149.94513036800001,-33.508774617 149.94500329600001,-33.508804587 149.94487836799996,-33.508840680500001 149.94475523200001,-33.50888262 149.94463644800001,-33.508929591499999 149.94451945599999,-33.508982705 149.94440713599997,-33.509040758 149.94392688,-33.50930238499999 149.94166825600001,-33.510532505500002 149.9394096,-33.511762718500002 149.93840736,-33.512308561 149.93829539199999,-33.512360768 149.93818057600001,-33.512409626500002 149.93806355199996,-33.512454637 149.93794547199997,-33.512495762500002 149.93770249600001,-33.512566599 149.937579712,-33.512596569 149.93745443199998,-33.512621581 149.93732844799999,-33.512643540500001 149.93720137599999,-33.512661633500002 149.93698931200001,-33.512680799500004 149.93694649599999,-33.512684666 149.93681724799998,-33.512689624 149.93656057599998,-33.512688532499993 149.936304608,-33.512670809500001 149.936177536,-33.512655787499995 149.93592553600001,-33.512613570500001 149.935801696,-33.512586579 149.93567856000001,-33.512555795 149.93455139199997,-33.5122027225 149.93439552000001,-33.5121625775 149.93417052800001,-33.512104709500001 149.93378243199999,-33.512026584 149.93352144,-33.511986624 149.93325721599996,-33.511954674499997 149.93312544,-33.511941632 149.93286048,-33.51192353899999 149.93246233599996,-33.511914714500001 149.93232947199999,-33.511915806 149.93206345600001,-33.511927775499998 149.93173369600001,-33.511951807 149.93166672000001,-33.511956654 149.93140355200001,-33.511989695 149.93114256,-33.512031634499998 149.931012256,-33.512055832500003 149.93062739199999,-33.512141617 149.930248672,-33.512247714499999 149.92987968,-33.512372737500002 149.92975836799999,-33.512418636 149.92951968,-33.512516649 149.92940160000001,-33.512568578500002 149.92919856,-33.512665685 149.9286816,-33.512888887500004 149.92821971199996,-33.513194877499998 149.92763651199999,-33.51366783 149.92753680000001,-33.513734874 149.92743276799999,-33.5137988655 149.927217856,-33.513914879 149.92704288,-33.513994614 149.92699177599999,-33.514017831499999 149.92675776,-33.514104874 149.92663788799999,-33.514142854500001 149.92651657599998,-33.514177856499998 149.92639379199997,-33.514207826499998 149.92626889600001,-33.514233837500001 149.92614361599996,-33.514255889499992 149.92601689599999,-33.51427389 149.92555283199999,-33.51425391 149.924765888,-33.514127906500001 149.92463772799999,-33.514102894499999 149.92450777600001,-33.514083895 149.92442748799999,-33.514075255500003 149.924376736,-33.514069853500004 149.92424569600001,-33.514060862500003 149.92411392,-33.514057884 149.92398179199998,-33.514060862500003 149.92371971200001,-33.5140819155 149.9234616,-33.514125927 149.92333488,-33.514155897 149.92320960000001,-33.514190917500002 149.923086848,-33.514231950499997 149.92296659199999,-33.514276942500004 149.92284960000001,-33.514327891500002 149.92262569600001,-33.514443905 149.922518752,-33.5145078965 149.92241580800001,-33.514577919 149.92231788800001,-33.514650901499998 149.92222393599997,-33.514727935499998 149.92211881599999,-33.514825948500004 149.92205075199999,-33.514894805499999 149.921971552,-33.514982902500002 149.92189740800001,-33.515074792 149.92182972800001,-33.515168661 149.92176745599997,-33.515266766499998 149.92171164800001,-33.515366759 149.9216616,-33.515468731 149.92161660799997,-33.515572867499998 149.921579872,-33.515677892 149.92154748799996,-33.515785895 149.92153344,-33.515850145500004 149.92152371200001,-33.515893713 149.92150464,-33.516002881499993 149.921446688,-33.516409863 149.92144272,-33.517308685499998 149.92140492799999,-33.517556733500001 149.92136569600001,-33.517663737500001 149.92132176000001,-33.517769853499999 149.92127065599999,-33.517872898500002 149.92121376,-33.517974778 149.921161216,-33.518058934500004 149.92115184,-33.5180736975 149.92108380799996,-33.518169805 149.92101072,-33.518262878500003 149.92093187200001,-33.518353676499999 149.92084764800001,-33.518440626500002 149.920665856,-33.518603704 149.92056755199999,-33.518679831499995 149.92046496,-33.518751741 149.920358752,-33.518819876499997 149.92024860800001,-33.518882887499998 149.920134848,-33.518941828500004 149.92001747200001,-33.518995922500004 149.91989760000001,-33.5190448735 149.919774848,-33.519089884 149.91952249600001,-33.519162866499997 149.919263648,-33.519215961500002 149.91913187200001,-33.519233703 149.91899868799999,-33.519246838 149.91899580799998,-33.519247023 149.918865856,-33.519254848500005 149.918731936,-33.519256828 149.91859872000001,-33.519253775500005 149.91846588799999,-33.519245672499999 149.91833267199999,-33.519231816 149.91820201600001,-33.519211836 149.916611872,-33.518616025 149.916461408,-33.518585888499999 149.916056768,-33.518504877 149.91593004800001,-33.51848382399999 149.9158008,-33.51846798799999 149.915671936,-33.518456814 149.91554195200001,-33.518450968 149.915412,-33.518450968 149.915282752,-33.518454927 149.91502393600001,-33.518481030499998 149.91489683200001,-33.518501824499999 149.91477084799999,-33.518526836500001 149.91452281599999,-33.5185938065 149.91440256000001,-33.518634932 149.91428483199999,-33.5186810155 149.91417001599999,-33.5187318535 149.91405769599999,-33.518786854 149.91389388799999,-33.5188817035 149.91384384,-33.518910785500005 149.91374268800001,-33.518978828500003 149.91364585599996,-33.519050997 149.913552608,-33.519126865499999 149.91346368000001,-33.519206878 149.91338089600001,-33.519290757 149.91330204799999,-33.519376893 149.91322896,-33.519466895500003 149.913160928,-33.519559950499996 149.91309756800001,-33.519654892499993 149.91304067199999,-33.519752998 149.912988832,-33.519852990499999 149.912659072,-33.520822557 149.91237072000001,-33.521671078 149.91232393600001,-33.521773864 149.91221881600001,-33.521975828500004 149.91216192,-33.522074914500003 149.912035936,-33.522268054500003 149.911895872,-33.522453813 149.911820992,-33.522544981 149.9116608,-33.5227188625 149.91153337599999,-33.522843608 149.911490176,-33.522886084 149.91139907199999,-33.522966096499999 149.91121008,-33.523118999 149.91111072000001,-33.523191093500003 149.91100992,-33.523261116 149.910905888,-33.523328881499992 149.910800032,-33.523393853500004 149.91069203199999,-33.523455773 149.9105808,-33.523514991500001 149.91046777599999,-33.523571879 149.91023699199999,-33.523675830500004 149.909997952,-33.523767997500002 149.90975280000001,-33.523847991499998 149.909502976,-33.523916127 149.909249152,-33.523970036 149.909119936,-33.52399208799999 149.909082848,-33.523995066499999 149.90905008,-33.523804072499999 149.90900300800001,-33.523660993500002 149.90829804800001,-33.522218012 149.90771305600001,-33.520969169499999 149.90765580799999,-33.520706099500003 149.90764860799999,-33.520542208 149.90763817600001,-33.520311087499998 149.907660832,-33.519825 149.90772096000001,-33.51921002299999 149.90780665599999,-33.518342613500003 149.90789737599999,-33.517471041500002 149.90792256,-33.517168011500004 149.90798736,-33.516881095 149.908093568,-33.516532166499999 149.90816051199999,-33.516291056 149.9082336,-33.516123483 149.908280416,-33.516016109 149.908408576,-33.515780215500001 149.90858352000001,-33.515516072499999 149.90880457599999,-33.515068058 149.909232608,-33.514031799 149.909667136,-33.512980222 149.90977008,-33.512704017 149.91009372799999,-33.511893569 149.91070499200001,-33.510364026 149.91079104,-33.510100049500004 149.91082272,-33.509899084 149.91076332799997,-33.509739244 149.91075289599999,-33.509711068500003 149.91060096000001,-33.509528991499998 149.91040873599999,-33.509393016499999 149.91014195199998,-33.509326046499993 149.90979276799999,-33.5092650335 149.90938992,-33.509268086 149.90869980799999,-33.509255043499998 149.90837904,-33.509149112499998 149.908326112,-33.50911239 149.908248,-33.509058037 149.90808995200001,-33.50890404299999 149.90796505599999,-33.508751048 149.90790204800001,-33.508568064500004 149.907830752,-33.508271065500004 149.90791104,-33.508087101500003 149.90797801599999,-33.507915033 149.9081328,-33.507668076500003 149.90821379199997,-33.507502020499999 149.908177792,-33.507319055499998 149.908100768,-33.50710206899999 149.908078816,-33.507063441 149.90793372799999,-33.506811082500001 149.90781203199998,-33.506679547499999 149.90782288,-33.506620051500001 149.909223776,-33.499010964500002 149.90749779199999,-33.498768984500003 149.90663379199998,-33.498678001500004 149.90667379199999,-33.498435984499999 149.907132768,-33.495916969 149.90777574399999,-33.495336975500003 149.90785974399998,-33.495167978 149.90797673599999,-33.494932954 149.90800172799996,-33.494811945500004 149.90796572799999,-33.494480962 149.907861728,-33.494162947 149.907772736,-33.493860953 149.90779260799999,-33.493562992 149.90790272000001,-33.493354959500003 149.90826384,-33.493039923 149.90872569599998,-33.492676934500004 149.90889888000001,-33.492495967499998 149.90904361599999,-33.492276983 149.90934768,-33.491595942499991 149.909614656,-33.491204926500004 149.91004566399999,-33.490587914500004 149.91038467199996,-33.490204909 149.91058963199998,-33.4900729115 149.911232,-33.490158992 149.91403062399999,-33.490533876 149.91420060799999,-33.490556871500004 149.91516960000001,-33.489896884 149.91547161599999,-33.489662877500002 149.91583459199998,-33.489444855 149.91621257599999,-33.489265867500002 149.91690956799999,-33.489001854 149.91756457599999,-33.4887218565 149.91771856,-33.48861587 149.917851584,-33.4884708485 149.91796854399999,-33.488250846500002 149.91808153599996,-33.487853836500001 149.91829155199997,-33.487226834499999 149.91883353599999,-33.485996843500004 149.91900451199999,-33.485608824499991 149.91923401599999,-33.485391005499999 149.919392512,-33.485164824500004 149.91949952,-33.484790828500003 149.91961699199999,-33.483326997499994 149.91970348800001,-33.482612805 149.91977148800001,-33.482314807 149.91997948799997,-33.481354805 149.92011846400001,-33.480911804 149.92043244800001,-33.4803978 149.92199740800001,-33.478017793500001 149.92216342399999,-33.477837788500004 149.92217340799999,-33.477815792 149.92176940799999,-33.477737796 149.921325408,-33.477652788500002 149.920371456,-33.477445792 149.91985744,-33.477351793499999 149.91948044799997,-33.477290799 149.918919456,-33.477265805500004 149.918626432,-33.477270800500001 149.91856745600001,-33.477308799500001 149.91840345599999,-33.477284805 149.915239488,-33.476816810500004 149.91412448,-33.4766518275 149.912895488,-33.476469824500001 149.91366345599999,-33.47237583 149.914023456,-33.47045582599999 149.91435244799999,-33.468703820500004 149.914663424,-33.467044833 149.91495142400001,-33.465513828500001 149.91529836800001,-33.463664809 149.91562636800001,-33.461914801500001 149.91594835199999,-33.460203810499998 149.91625136,-33.458591813 149.91660032,-33.4567367995 149.91699632000001,-33.454628798500003 149.918045248,-33.449049790499998 149.91822326400001,-33.448035787 149.91825526400001,-33.447856781 149.91900518400001,-33.443576769 149.919426144,-33.440566763499994 149.901915008,-33.438071002500003 149.90192,-33.438040995500003 149.90263724799999,-33.433524849500003 149.90265424,-33.433416846500002 149.90272624,-33.432965835 149.902756256,-33.43277584 149.903238176,-33.429742820500003 149.903241184,-33.429723821 149.90397312,-33.42614581 149.90400812799996,-33.425977811500005 149.90404512000001,-33.425799804500002 149.902323008,-33.425549 149.90213212800001,-33.42552080599999 149.90214707199999,-33.425506801499999 149.90231811199999,-33.425252815 149.90249113600001,-33.424791813500001 149.90258809599999,-33.424303802 149.90268009600001,-33.423610810500001 149.90460310399999,-33.42387978199999 149.90544099199997,-33.419366762500005 149.90547699199999,-33.419188774 149.903652,-33.418926777 149.903557984,-33.418913771500002 149.90361900799999,-33.418632775 149.90365900800001,-33.418322770499991 149.90374499199999,-33.418081771 149.90378700799999,-33.417965776 149.903967008,-33.417807767500001 149.90420198399997,-33.417637771 149.90453500800001,-33.417317776499999 149.90488195200001,-33.417025772500004 149.90511395199999,-33.416757763 149.905190976,-33.416533765 149.90522995200001,-33.416189776 149.90524896,-33.415982742499999 149.90526195199999,-33.415839756 149.90531196800001,-33.415525755499999 149.90532096,-33.415472753 149.90540112,-33.415127728 149.90554195199999,-33.414764758 149.90554697599998,-33.414750753500002 149.90560633600001,-33.414607175 149.90568300800001,-33.414419992 149.906044928,-33.413903749500001 149.90611792000001,-33.413524758500003 149.90607292799999,-33.413019745500002 149.90582694400001,-33.41298676 149.90567392,-33.412561759500001 149.90562092799999,-33.412412742 149.905078944,-33.412340758500001 149.90297593599999,-33.412060742500003 149.90085296000001,-33.411778765500003 149.90185190400001,-33.406359745499991 149.90191990400001,-33.406368755 149.90216489599996,-33.40500475 149.90255987200001,-33.402802732 149.90683484799999,-33.403363707499999 149.90717280000001,-33.401570706 149.90750601600001,-33.399797999 149.907526816,-33.399684686500002 149.909134784,-33.399768695 149.90973376,-33.399706701500001 149.91018176,-33.399618678499998 149.91052774400001,-33.399526678 149.91075875199999,-33.399505680499999 149.91108675199999,-33.399533671 149.91144172799997,-33.399580679499998 149.91151174399997,-33.399589670499999 149.912194752,-33.39964567 149.91246873599999,-33.399686684500004 149.91270972800001,-33.399762682500004 149.91294473599999,-33.399901673 149.914204,-33.400864006 149.91457475199999,-33.401223664500002 149.914828736,-33.401622654 149.91485900800001,-33.401670994500002 149.91576073600001,-33.403505658 149.91646873600001,-33.40331866 149.91668300800001,-33.403214005500004 149.91678572800001,-33.403156655499998 149.91688572800001,-33.403095661 149.916982752,-33.403031651 149.91716771200001,-33.402893659500002 149.917339008,-33.4027439945 149.91749472000001,-33.402582656 149.91756672,-33.40249766699999 149.91831100799996,-33.401801993 149.91921968,-33.400952639499991 149.919410016,-33.400800995 149.919512672,-33.400730639500004 149.91972966399996,-33.400607633 149.91984368000001,-33.400552632500002 149.919961664,-33.400503644499999 149.92008268800001,-33.400460613499995 149.92020601600001,-33.400423003 149.920331648,-33.400390628 149.92058864000001,-33.400343619499992 149.92071865599999,-33.400329615 149.920849632,-33.400320624 149.92098163199998,-33.400318626 149.92111264,-33.400322622 149.921243648,-33.400332630500003 149.92137363200001,-33.400347615499996 149.92463462399999,-33.400890609 149.92476361600001,-33.400906611499998 149.92494160000001,-33.400919598500003 149.925023616,-33.400929607 149.9252856,-33.4009235945 149.9255456,-33.400905594 149.92567561600001,-33.400890609 149.92593062399999,-33.400846597499999 149.92605760000001,-33.400817608 149.92630460800001,-33.400748603 149.9264256,-33.40070760699999 149.92654556799999,-33.400662596499998 149.92666156799999,-33.40061259099999 149.926776,-33.400559995499997 149.92688758399999,-33.400503589 149.92699657599999,-33.400442576 149.92889056,-33.399166557 149.92899948799996,-33.399100623 149.929231552,-33.3989865705 149.92947856000001,-33.398899565 149.929608,-33.398867005 149.92972755199997,-33.398841567499993 149.92987056000001,-33.39882057 149.93000352000001,-33.398809562499999 149.93013750399999,-33.398805566500002 149.930272,-33.398809007499992 149.93040550399999,-33.398818572 149.930538528,-33.398836572500002 149.93079798400001,-33.3988939965 149.932502016,-33.399347006 149.93467801599999,-33.399928997499998 149.93496601599998,-33.3999920085 149.93522649600001,-33.400010527 149.93568300800001,-33.399974008 149.93597545599997,-33.399956525500002 149.93754246399999,-33.400426536499999 149.93768044799998,-33.400475524500003 149.93771744,-33.400502534499999 149.937944448,-33.400665538 149.93812044800001,-33.400885521500001 149.93827244799999,-33.401249527499999 149.93843846399997,-33.402407535 149.938568992,-33.402697004499998 149.93877347200001,-33.4029505285 149.93903548799997,-33.403346521 149.93927948800001,-33.403799530500002 149.939519488,-33.404390531499999 149.93961747200001,-33.404760531500003 149.93967648,-33.404954522499999 149.93977049599997,-33.405152528 149.93991948799996,-33.4053905305 149.940752992,-33.406246007500002 149.94107747199996,-33.406359579 149.941140128,-33.406361096 149.94135049600001,-33.4063665165 149.942189536,-33.406168418500002 149.94224531200001,-33.406155542499995 149.942428992,-33.406124 149.94264044799999,-33.406137505 149.94329846400001,-33.406257514499991 149.94346345599999,-33.406311516 149.94364345599999,-33.4064115085 149.94474156800001,-33.407203493499999 149.944797376,-33.40723248299999 149.944976,-33.407326000499999 149.945293408,-33.407462493499999 149.945699424,-33.407581485500003 149.94604243200001,-33.407655485500001 149.94645942400001,-33.407682495499998 149.94692140800001,-33.407628494 149.94805539199999,-33.407424476 149.94861939200001,-33.407323466 149.94880038400001,-33.407211467 149.94898240000001,-33.4071054805 149.94917100800001,-33.407049999 149.94940435199999,-33.407063467 149.94993136,-33.407128457500001 149.950210368,-33.407128457500001 149.950407232,-33.407079488 149.952302336,-33.4064794405 149.95266832,-33.406409436499999 149.95308428800001,-33.406384443 149.95437625599999,-33.406516440499999 149.954508288,-33.40652841 149.95464028799998,-33.406534422500002 149.95477328,-33.4065324245 149.95490528,-33.406525413 149.955036288,-33.406510409500001 149.95516627200001,-33.406489412 149.955294272,-33.406461421499998 149.955420256,-33.406427418500002 149.955543264,-33.406386422499999 149.95566326400001,-33.406339414 149.955780256,-33.406286411499998 149.955892256,-33.406228414 149.95600025600001,-33.406163423500004 149.95610326399998,-33.406094418499997 149.95620099199999,-33.406018994 149.95629299199999,-33.405939999 149.95638025599999,-33.405855417 149.95646025600001,-33.405767412499998 149.956534272,-33.405675393500005 149.956600224,-33.405579397 149.95666022399999,-33.4054804035 149.956713216,-33.405378394499998 149.95675801600001,-33.405273999 149.95679523199999,-33.405167402 149.956825216,-33.405059399 149.956847232,-33.404949398 149.95726620799999,-33.402413399499999 149.95864012800001,-33.398023368 149.95883308800001,-33.397310359500004 149.95888710400001,-33.396765368 149.95888310399999,-33.395266368500003 149.95886310399996,-33.395157366500001 149.95884806399999,-33.395046366500004 149.95883808,-33.3949353665 149.95883408,-33.394824366500004 149.958835072,-33.3947133665 149.95884105599998,-33.394602366500003 149.95885305599998,-33.394491366499999 149.95887008,-33.394381365500003 149.958892,-33.394270994499998 149.95895206399999,-33.39405434099999 149.95899008000001,-33.393948336 149.95903321599999,-33.393843367 149.959081056,-33.393739341500002 149.95916806400001,-33.393577337 149.95925408,-33.393439345499999 149.95939206399999,-33.3932493505 149.95946806399999,-33.393158349 149.95954899200001,-33.393068994 149.959633024,-33.392984338 149.959722048,-33.392901347 149.959814048,-33.392821353 149.95991004800001,-33.392745336499999 149.96001004799999,-33.392671336499994 149.96011302400001,-33.392601351 149.960220128,-33.392535398500002 149.96032921599999,-33.3924723875 149.96044115199999,-33.392414334500003 149.960557024,-33.392358335 149.96067404799999,-33.39230734899999 149.96079401599997,-33.392260007499999 149.960917024,-33.392217328 149.961041024,-33.39217833 149.96345097599999,-33.391488317 149.96358096,-33.391467301 149.96370896,-33.391441308499999 149.96383497599999,-33.391410302499999 149.96395996800001,-33.391373302499993 149.96408198399999,-33.391332306500004 149.964201984,-33.391285298 149.96431897599996,-33.391234312 149.96443296000001,-33.391178312500003 149.96454297599999,-33.391118298499997 149.964649984,-33.391053308 149.96475296,-33.390984303 149.964851968,-33.390911302 149.96494009599999,-33.3908381715 149.965035968,-33.390753312 149.965120928,-33.390668304500004 149.965201952,-33.3905803 149.96527699200001,-33.390489002500004 149.96612892799999,-33.389283283499999 149.971682816,-33.380640231500003 149.97269676799999,-33.378196233499999 149.972704736,-33.377978229500002 149.97263974399999,-33.377642232500001 149.97221273599999,-33.375270218 149.97219776,-33.375166211 149.97219273600001,-33.3750632215 149.97219900799999,-33.374958992499998 149.97221376,-33.374856206499999 149.97223974400001,-33.374754216 149.972274752,-33.374655222500003 149.97231974399998,-33.374558208499998 149.97237376,-33.37446421 149.97243673599999,-33.374375206499998 149.97250774399998,-33.374290217500004 149.97262976,-33.374170208 149.97333347200001,-33.373456108 149.973353632,-33.373435221500003 149.973537728,-33.373215219500004 149.97395072,-33.373029220500001 149.97442867199999,-33.372916204 149.97499267200001,-33.372808201 149.97546569599996,-33.372731204 149.97579369599998,-33.37269420399999 149.97615267200001,-33.372690189499998 149.97652364800001,-33.372739196 149.97686265600001,-33.372775197 149.97714166399999,-33.372797175 149.97765164800001,-33.372756179 149.97780764800001,-33.372702177500003 149.97804899199997,-33.372534993 149.978247616,-33.372413170500003 149.97837660799999,-33.372417185 149.97855961600001,-33.372480177500002 149.97936060800001,-33.372773180499998 149.979849632,-33.372935185 149.98001062399999,-33.372925158 149.9804136,-33.372763153499996 149.98080057600001,-33.372614154499999 149.980950592,-33.372537157499998 149.98115958400001,-33.372343166500002 149.981411584,-33.37207216 149.98164758399997,-33.371847163 149.98186256,-33.371630158 149.98232300800001,-33.371016994 149.98257056,-33.370769149499999 149.982704544,-33.370674133500003 149.98303251199999,-33.370566149 149.98366553599999,-33.37035314 149.98393952000001,-33.370267133500001 149.98418153599999,-33.370164144 149.98458950400001,-33.369983121499999 149.98502448,-33.369780121 149.985899488,-33.36929212799999 149.986248,-33.369049001 149.98668841599999,-33.368724085499998 149.98698540800001,-33.368491078 149.98721046399999,-33.368655099 149.98752345599999,-33.368864112 149.98763046400001,-33.368931100499999 149.98773846399999,-33.368996109500003 149.988071424,-33.369184106499993 149.988530432,-33.3694121005 149.98876643200001,-33.369517106499998 149.989128,-33.3696619985 149.98937344000001,-33.369750095500002 149.98962243199998,-33.369831107 149.98987443199999,-33.369906106 149.99009833599999,-33.369966009 149.99056339200001,-33.370072088 149.9909504,-33.370135080499999 149.99273936,-33.370384090499996 149.99522233600001,-33.370730059 149.99541033599999,-33.370748059500002 149.99570032,-33.370816065500001 149.99758131199999,-33.371364054 150.00116726399997,-33.372396021 150.00153225599999,-33.37249803 150.00160227200001,-33.372511035500004 150.00169126399996,-33.372528037 150.00209625599999,-33.372641016499998 150.00222563200001,-33.372673558 150.00262822400001,-33.372797008500001 150.00289724800001,-33.3728650145 150.00336822400001,-33.373052012500004 150.004110016,-33.373316007500001 150.00444224,-33.373435018 150.0053792,-33.373762986 150.00630620800001,-33.3741379995 150.00642576000001,-33.374188079 150.00670819199999,-33.374306997 150.00704019200001,-33.374457994 150.00739820800001,-33.374626991500001 150.007838048,-33.374826902500004 150.00852313599998,-33.375182768500004 150.00874716800001,-33.37533297 150.00905232,-33.375550770499999 150.00922297599999,-33.375682805 150.009405184,-33.375809974 150.00988105600001,-33.376055765 150.01003008000001,-33.376191832499998 150.01020118400001,-33.376318983 150.01038918399999,-33.37643298 150.01054316799997,-33.376573968500004 150.01067123199999,-33.376713847 150.01085318400001,-33.376840979 150.01138188799999,-33.377247905 150.012995136,-33.378489958 150.014448128,-33.3796339425 150.01496112000001,-33.380055946 150.01554912,-33.380514931 150.01586425599999,-33.380772747 150.01643510400001,-33.381249936 150.01661376000001,-33.381412736 150.01691609599999,-33.381693936 150.017124096,-33.381870944 150.01734809600001,-33.382070929 150.01781312,-33.382429921499998 150.01794112,-33.38253391 150.018102368,-33.382676785500003 150.01821312000001,-33.3827749095 150.01871507199996,-33.383223923 150.019414912,-33.383822934500003 150.01982108799999,-33.3841629275 150.02011404800001,-33.384421890499993 150.02017379200001,-33.3844732835 150.020424064,-33.3846889195 150.02094707199998,-33.385110904499996 150.02132108800001,-33.385433896 150.02186112000001,-33.385882854 150.022945056,-33.386790908 150.02306204800001,-33.386912897 150.02321603199999,-33.387116896499997 150.02337603199999,-33.387346907 150.02352505600001,-33.387591902499999 150.02368905599999,-33.3878719 150.023789056,-33.388102891 150.02394304000001,-33.388441903500002 150.02405904,-33.388716906 150.024138048,-33.388929896500002 150.02429203200001,-33.389218903499994 150.024408032,-33.389422903 150.02448803199999,-33.389571902 150.024621056,-33.389757901 150.02483904,-33.390051903 150.02498304,-33.390205897 150.025084032,-33.390327904499998 150.02536204799998,-33.390550903499999 150.02564003200001,-33.390763875499999 150.02595504000001,-33.390981879500004 150.02633004800001,-33.391227874 150.02688105600001,-33.39155488 150.02714905600001,-33.391695887 150.027984,-33.392097873499999 150.028552,-33.392339890500004 150.02885702399999,-33.392485874 150.02943001599996,-33.39281288 150.029644,-33.392953868500001 150.02991702400001,-33.393148858499998 150.03021100800001,-33.3933718575 150.030306016,-33.393502856 150.030498016,-33.393688855 150.03077075199997,-33.393942638 150.03098902400001,-33.39416486 150.03131996799999,-33.394473865500004 150.03158198400001,-33.394704856499999 150.03199801599999,-33.395054007 150.03206796800001,-33.395112855499995 150.032656,-33.395572007 150.03286396799999,-33.395725871499998 150.03300899199999,-33.395839868499991 150.033265984,-33.395993862499999 150.033489984,-33.396148855500002 150.03371996800001,-33.3962848675 150.03393996799997,-33.396403859499998 150.03418099199999,-33.396512861499993 150.034560992,-33.39669085 150.03500595200001,-33.396891852499998 150.03521459199999,-33.396991734 150.03534294400001,-33.397078850500002 150.03558896000001,-33.397210848 150.036022944,-33.397473844 150.03652595200001,-33.397756838500001 150.03691696000001,-33.397979837500003 150.03732896,-33.398234841499999 150.03771193599999,-33.398448849499999 150.03796032,-33.398573391500001 150.038057952,-33.398621843 150.03867392000001,-33.398859827 150.04047091199999,-33.399375829 150.04092089599999,-33.399504829500003 150.04197587199999,-33.399855811500004 150.04272489600001,-33.400299811499998 150.04320624,-33.400716209500004 150.04375056000001,-33.401288063 150.04547497600001,-33.403099046500003 150.04632566399999,-33.403992726 150.04622700799999,-33.404116768500003 150.04605689600001,-33.404231801500003 150.04576688,-33.404274814 150.04547689599997,-33.4043038035 150.045272896,-33.4044038145 150.04498291199999,-33.404633806500001 150.04466291199998,-33.4048458165 150.04465884800001,-33.404862781 150.04448892799999,-33.4053648155 150.04433593600001,-33.405708786 150.04419894399999,-33.405937816 150.04397795200001,-33.406295809500001 150.04358595199997,-33.406640834500003 150.04329596799997,-33.407041822 150.04317699200001,-33.40741382 150.04310899199999,-33.407686824500004 150.04288697600001,-33.40811682 150.04281897600001,-33.408173818499996 150.04278502399998,-33.408245820499999 150.042529024,-33.408460827500001 150.04220601599999,-33.408675834500002 150.041625856,-33.408961826 150.04135305599996,-33.409134838 150.04068905599999,-33.409678849 150.04046704000001,-33.40982285299999 150.04022806399999,-33.409994847500002 150.03999008,-33.410223840500002 150.03918912,-33.41125586299999 150.03913811199999,-33.41128487099999 150.03905328,-33.411398849500003 150.03886512,-33.41162886 150.03855814400001,-33.4123028705 150.03832012800001,-33.412717862500003 150.03787715199996,-33.413190870500003 150.03786012800001,-33.413190870500003 150.03768918399999,-33.413391854499991 150.03768918399999,-33.413878867 150.03755318399999,-33.414710867499998 150.03755321599999,-33.415485888 150.03753625599998,-33.416114851 150.03743420800001,-33.416430886500002 150.03733219200001,-33.41663089 150.03716121599999,-33.416874886500004 150.03697424000001,-33.417118883 150.03643123200001,-33.417575888500004 150.039182208,-33.417876865 150.04077318399999,-33.418050857499999 150.043671136,-33.418367836500003 150.04595910399999,-33.418617827 150.04938105599999,-33.418992803500004 150.049625056,-33.419018814499999 150.05038204799999,-33.419101805499999 150.050534016,-33.418363785 150.05182601600001,-33.418550783 150.05445798400001,-33.418932771 150.05661523200001,-33.419244884499996 150.055808,-33.421935765 150.05576,-33.422097769499999 150.05439888000001,-33.426651729500001 150.05426611199999,-33.427092788 150.053994144,-33.42798878 150.053352128,-33.43012812 150.05269548800001,-33.432316744 150.05208825599996,-33.434342808499991 150.05131228799999,-33.436927832 150.051038336,-33.437842823499999 150.05100134399999,-33.4379508265 150.05091433600001,-33.438163817 150.05081132800001,-33.438371831 150.05075436800001,-33.438473729 150.05063033599998,-33.438673825 150.05033836800001,-33.439051835500003 150.05017235199998,-33.439228843500004 150.049993376,-33.439396842 150.04980336,-33.439555849499996 150.04970336,-33.439630848500002 150.04960128,-33.439703757 150.04949635200001,-33.439774852500001 150.04927945599999,-33.439906702 150.04916739199999,-33.439968843500004 150.048936384,-33.440084838499999 150.0488184,-33.440137841 150.048697312,-33.440187698500004 150.048575296,-33.440234855 150.04850544000001,-33.440259515500003 150.048451392,-33.440278848 150.04819945599999,-33.440356807 150.04807129599996,-33.440390643500002 150.04794240000001,-33.440421779 150.047812448,-33.44044878899999 150.04754944000001,-33.440493855 150.047283424,-33.44052486099999 150.04714944,-33.4405358685 150.04688144,-33.440546857500003 150.04661241599999,-33.4405438605 150.04634441600001,-33.440526859 150.046078432,-33.440496870499999 150.04581443199999,-33.440452655500003 150.045684416,-33.440425867500004 150.045427456,-33.440361857500001 150.044108448,-33.439976872499997 150.043366464,-33.439863874499999 150.04246105600001,-33.4398717925 150.04196950400001,-33.439952896500003 150.04148649599998,-33.440081897 150.04109849599999,-33.440235891 150.040728,-33.440421779 150.04072512,-33.440423407 150.04049552000001,-33.440542898499999 150.040262528,-33.440712895 150.03971065600001,-33.44123825799999 150.03951254399999,-33.441480922499998 150.03937456,-33.441715909500004 150.03916755200001,-33.442127923 150.03910691199999,-33.442354178 150.03905555200001,-33.442636913499996 150.03903859199997,-33.442830923 150.03903859199997,-33.443040916500003 150.03902057600001,-33.443235925 150.03908960000001,-33.44354391299999 150.03918857599999,-33.443917927500003 150.03931459200001,-33.444356914 150.0393776,-33.444515921499999 150.03949459200001,-33.444812920499999 150.03957360000001,-33.444997920499993 150.03968457600001,-33.44520192 150.039723584,-33.445310922 150.0397696,-33.445436925500005 150.039826624,-33.445693927500002 150.03986761600001,-33.445964915499999 150.03991363200001,-33.446302910500002 150.039911168,-33.446597301 150.039910432,-33.446685786499998 150.03991945600001,-33.446906917 150.039791616,-33.447424917 150.03968764800001,-33.447730925500004 150.039545664,-33.448077911499993 150.03940864,-33.448320946 150.03909366400001,-33.448751940500003 150.03891964799999,-33.449043944499998 150.03828969599999,-33.449869932499993 150.038049696,-33.4502659435 150.03782067200001,-33.450706928 150.03763472,-33.45116595 150.03751372799999,-33.4515169505 150.03740272,-33.451917956500004 150.037329728,-33.452367950500005 150.03729372800001,-33.452886949499998 150.03729475200001,-33.453354962500001 150.03731376,-33.453738948500003 150.03737475200001,-33.454212955500005 150.03747376000001,-33.454686962499991 150.03759875200001,-33.455254949500002 150.037771744,-33.455796962500003 150.03802473600001,-33.456497964500002 150.03831574399999,-33.457179948499999 150.03881379200001,-33.458183962 150.03884476799999,-33.458292964 150.038898784,-33.458512947500004 150.038940768,-33.458734947499998 150.03897177599998,-33.4589579465 150.03899078399999,-33.459181963 150.038998784,-33.45940696 150.03899577600001,-33.459631957 150.03898076799996,-33.459855955 150.038953792,-33.460078954 150.03891676800001,-33.460301953 150.03886777599999,-33.460522954 150.03654592,-33.469692997 150.03509616,-33.475419635 150.03486899199999,-33.476317014500005 150.03478,-33.476646018499999 150.034592992,-33.477195006 150.034494048,-33.477465013500002 150.032594112,-33.481847053 150.03181212800001,-33.483565055500002 150.03132985600001,-33.484790791499996</coordinates></LinearRing></outerBoundaryIs></Polygon><Polygon><outerBoundaryIs><LinearRing><coordinates>149.992176352,-33.361512064 149.991848256,-33.36146907 149.99172428799997,-33.361453067500001 149.98355177600001,-33.360389169500003 149.98353408,-33.360285144 149.98269347199999,-33.360169593 149.98123043199999,-33.359979413 149.98009068799999,-33.3598323565 149.97882275200001,-33.359667928500002 149.97873420799999,-33.36012900399999 149.97868057599996,-33.360171665 149.97866652799999,-33.360183135 149.975548992,-33.3597810005 149.97467699200001,-33.359668206 149.97455401600001,-33.359651001 149.97341808,-33.35950548 149.97322361600001,-33.359480172 149.973188,-33.359617997 149.973024608,-33.359598183499998 149.97122899199999,-33.359366008500004 149.970909664,-33.359324198499998 149.97116601600001,-33.357968000500001 149.97135561599998,-33.3579921985 149.97138588799999,-33.35785217199999 149.97160300799999,-33.356828992499999 149.971732608,-33.3562311835 149.97181558400001,-33.355757176499999 149.9720456,-33.355603182499998 149.97195001599999,-33.355331991 149.971931584,-33.355167174500004 149.972036,-33.354492997500003 149.970956992,-33.352555992 149.97088256000001,-33.352439183 149.970872,-33.352236996500004 149.97088441599999,-33.351172913500001 149.970910016,-33.348916006 149.97091552000001,-33.34843915 149.97099900799998,-33.348199001499999 149.971085504,-33.347971155499998 149.971290848,-33.347428476499992 149.97155648,-33.346726142500003 149.972174016,-33.346848002 149.972304,-33.346879008 149.97237372800001,-33.346907905 149.97246768,-33.346952101500001 149.972568448,-33.346995132499998 149.97266137599999,-33.347039033 149.97277980800001,-33.34711680699999 149.97280246400001,-33.347144131500002 149.97281148799999,-33.347171252499997 149.97284745600001,-33.347808133500003 149.97297347200001,-33.348128146500002 149.97298499199999,-33.348173767500001 149.97298860800001,-33.348216872499997 149.97298345600001,-33.348259145 149.972963456,-33.348331147 149.97255372800001,-33.349498478500003 149.973173632,-33.349580637 149.974014592,-33.349689898 149.97402288,-33.349611772499998 149.97402288,-33.349541842500003 149.97401856,-33.349512964 149.97397177600001,-33.349322876500004 149.97394403199999,-33.349209841499999 149.974149952,-33.347914915499999 149.97415788800001,-33.347864965500001 149.97423635199999,-33.347835088 149.97525299200001,-33.347447901500004 149.97540563199999,-33.3473904035 149.97656700799999,-33.34695237899999 149.97744300799999,-33.347079992 149.9781688,-33.347176451 149.97742336,-33.34656410099999 149.976993376,-33.346022106500001 149.97663145600001,-33.345416065 149.97636336,-33.344823103 149.97615337600001,-33.344108096500001 149.97612336,-33.343680099 149.97612832,-33.3429761 149.97622032,-33.342854111 149.97621932800001,-33.342711106 149.97604732799999,-33.342427112500005 149.97576732799999,-33.341455104 149.97607532799998,-33.34159511199999 149.97649334399998,-33.341701098500003 149.97758329600001,-33.341731087 149.978102304,-33.341706093500001 149.97861328,-33.341626081 149.97914128,-33.341651093 149.979431264,-33.3416360895 149.97946528,-33.341650094 149.97996825600001,-33.3415830685 149.98033424,-33.341548066500003 149.98091155200001,-33.341605657 149.98092300799999,-33.341729755 149.981015168,-33.341733991499993 149.981098336,-33.341741465499993 149.98416553600001,-33.342119365 149.984434432,-33.34215285 149.984517952,-33.342166706500002 149.985181184,-33.342245054 149.986306144,-33.342383027 149.98870332800001,-33.342679267500003 149.98872816,-33.342973288 149.989288864,-33.342645061 149.989207104,-33.3430460115 149.996147936,-33.338932962 149.99724793599998,-33.339561943500001 149.996462976,-33.341068953499999 149.99618697599996,-33.341570951 149.99594099199999,-33.341996950500004 149.99567001599999,-33.342456971499999 149.995519008,-33.342730975 149.99541401600001,-33.3430829745 149.995362016,-33.343361973 149.99533100799999,-33.343704981500004 149.99533596800001,-33.343964721500001 149.995404,-33.344306971500004 149.995477056,-33.344605968499998 149.995663936,-33.345562955 149.99571216000001,-33.345756983 149.99575753600001,-33.346033465499993 149.99578604800001,-33.34628797 149.99579404799999,-33.346549967 149.99577660799997,-33.346816644500002 149.995708928,-33.347108963 149.995634048,-33.347331999 149.995548,-33.347565543 149.99484211199999,-33.34933099799999 149.99476211199996,-33.349610995499994 149.99468211199999,-33.349963013500002 149.99453209599997,-33.350793016 149.994444128,-33.352255015499999 149.994794528,-33.3523175455 149.99544828800001,-33.352435538500004 149.99613840000001,-33.352560099 149.99641308799997,-33.35260949399999 149.99684256,-33.352578081 149.99700672,-33.3525658525 149.9975424,-33.3525342545 149.99787504,-33.352411673500001 149.99831008000001,-33.352162996499999 149.999832736,-33.351066353500002 150.000125056,-33.350919667 150.00038998400001,-33.350849459500004 150.00073667199999,-33.350830293499996 150.00116700800001,-33.350865961499998 150.00127699199996,-33.350871992500004 150.0014736,-33.350894451500004 150.00208499199999,-33.350989005 150.00235100799998,-33.351018956499999 150.00255900799999,-33.35107096 150.00309299200001,-33.351162960499998 150.003287008,-33.351187991 150.00349097599999,-33.351204955499995 150.00361801599996,-33.351210006 150.00391584,-33.3512811015 150.003866528,-33.351525264500005 150.003821536,-33.351698609499998 150.00341472,-33.353419146500002 150.00340902400001,-33.353444954 150.00335353599999,-33.353618225 150.003294496,-33.353783282 150.00321456,-33.354174964 150.003178048,-33.354396964 150.00315696000001,-33.354571863 150.00305580799997,-33.354911338 150.00301305599999,-33.3550309775 150.00293504000001,-33.355153965500001 150.00281004799999,-33.355267981 150.00263568,-33.355489315 150.002605792,-33.3555291825 150.00238403200001,-33.355826977 150.00231564799998,-33.355936793 150.00216006400001,-33.356163973 150.002064064,-33.356329973500003 150.00198806399999,-33.356445968500005 150.00182307200001,-33.356778968499995 150.00175408000001,-33.356944969 150.001644064,-33.357280984500001 150.00160464,-33.357446004499998 150.001547104,-33.358189001500001 150.001500096,-33.358417994500002 150.00140880000001,-33.358760559 150.00125292800001,-33.359425837499998 150.001167232,-33.359647504500003 150.00110281600001,-33.359805994 150.00109212800001,-33.359954993 149.998650016,-33.362168 149.99847120000001,-33.362331003499996 149.992422272,-33.361544050500001 149.99230928,-33.361529047 149.992176352,-33.361512064</coordinates></LinearRing></outerBoundaryIs></Polygon></MultiGeometry>

	</Placemark>
</kml>