<?xml version="1.0" encoding="UTF-8"?>
<kml xmlns="http://www.opengis.net/kml/2.2">
	<Placemark>
		<Style>
			<LineStyle>
				<color>ff0000ff</color>
			</LineStyle>
			<PolyStyle>
				<fill>1</fill>
				<color>330000cc</color>
			</PolyStyle>
		</Style>
			<ExtendedData><SchemaData>
		<SimpleData name="STATE_2006">1</SimpleData>
		<SimpleData name="POA_2006">2077</SimpleData>
	</SchemaData></ExtendedData>
      <Polygon><outerBoundaryIs><LinearRing><coordinates>151.11746928,-33.696422836499998 151.11730928,-33.696477837 151.11699126400001,-33.696501831500001 151.11663929599999,-33.696467847 151.11655129600001,-33.696466829500004 151.11616531199996,-33.696375846500004 151.11604329599999,-33.696329837 151.11595529600001,-33.696314833500004 151.11576230399999,-33.696254838 151.11550032,-33.696136845 151.11532032,-33.69610683799999 151.11538729599999,-33.696667832 151.11540329599998,-33.696794834500004 151.11546934399999,-33.697344839499998 151.115509344,-33.697678838500003 151.11539532800001,-33.697643836499999 151.11457763199999,-33.698287803 151.11475136,-33.698774834 151.11516937600001,-33.699831831499999 151.11487340799999,-33.701280844 151.11401241600001,-33.701158855 151.11338448000001,-33.704303855 151.11326048,-33.7042858545 151.11326048,-33.704285928499999 151.11107049599997,-33.703981862500001 151.11085852799999,-33.705003858 151.11044355199999,-33.707012884 151.11066857599997,-33.707050864500005 151.110688576,-33.707276860500002 151.110665568,-33.707383864500002 151.110185632,-33.709743872499999 151.11017763199999,-33.709784868500002 151.109688672,-33.712168871 151.10960870400001,-33.712506866 151.10956169599999,-33.712752879 151.10934169599997,-33.713924872500002 151.10895875200001,-33.715791874 151.108903744,-33.716075867500003 151.10868275199999,-33.716023882500004 151.107994752,-33.715861878 151.10795475199998,-33.715855884 151.107914752,-33.715854866499996 151.10787574400001,-33.715860879 151.10783776,-33.715872867 151.10780374399999,-33.7158898685 151.10777376,-33.715912882499993 151.10774876799999,-33.715938875 151.107736768,-33.7159588735 151.10771376,-33.716019868 151.10770476799999,-33.716036869500002 151.10767574400001,-33.716064878499999 151.10764876799999,-33.716080881 151.10761676800001,-33.716090871 151.10759475200001,-33.716093868 151.10756275200001,-33.71609187 151.10757875199999,-33.716198874 151.1073008,-33.716631866500002 151.107261792,-33.716676877 151.107227776,-33.716706884 151.10720179200001,-33.716723867 151.107173792,-33.716738870500002 151.1071288,-33.716756871 151.107081792,-33.716768877500002 151.10703280000001,-33.7167748715 151.106982784,-33.716773872499999 151.10693379200001,-33.7167668795 151.10690179199997,-33.716758869 151.1068568,-33.716741867499998 151.105630784,-33.716096902 151.10559177600001,-33.716069892 151.10554777600001,-33.716027897 151.10551478400001,-33.715978890499997 151.105495776,-33.71592488899999 151.10549078400001,-33.715882894 151.10549280000001,-33.71584089899999 151.10555379199999,-33.71573889 151.10545680000001,-33.7156919 151.10537779200001,-33.715787896500004 151.104980832,-33.716249897 151.10484883199999,-33.71618289 151.10459881599999,-33.716518887 151.104459808,-33.716446885 151.10444182399999,-33.716436895 151.104000832,-33.716211916499994 151.10404182400001,-33.716157915 151.10390182399996,-33.71608891 151.104111808,-33.7158029 151.10392780800001,-33.71570892 151.10374380799999,-33.715613904 151.10355782400001,-33.715517907500001 151.10337283199999,-33.71542291 151.103187808,-33.7153269135 151.10300483200001,-33.715232915 151.10281980799999,-33.715137917499995 151.102009856,-33.714720909 151.10222982400001,-33.713493915 151.10001984,-33.713196934500004 151.099205856,-33.713086952 151.099157152,-33.713012341499997 151.098915232,-33.7131341085 151.09898684800001,-33.713212955499998 151.09911286400001,-33.713430941 151.09923088,-33.713651942 151.099305888,-33.713800941 151.09941187199999,-33.714025938 151.09947888,-33.714176935 151.09960188799997,-33.714482925 151.09968588800001,-33.714714933499998 151.099736896,-33.7148699265 151.09982889599999,-33.71518392699999 151.09990787199996,-33.715499925499998 151.099913888,-33.71562193299999 151.09991888,-33.715727938 151.09992188800001,-33.715956931 151.09991888,-33.716108927 151.09990889599999,-33.716337938500004 151.09988992,-33.716565932500004 151.09986390399999,-33.716792927500002 151.099847904,-33.716898932500001 151.09982992,-33.7170199225 151.09978892800001,-33.717245937 151.09973891199999,-33.717470934 151.09968192,-33.717693933 151.09961692799999,-33.717915933 151.09951795200001,-33.718209935 151.099434944,-33.718427939 151.09934496,-33.718595937499998 151.09924793599998,-33.718761938 151.09914393599999,-33.718923924 151.09903296,-33.719083930499998 151.098913952,-33.719238942 151.09878995199998,-33.719391955500001 151.098658976,-33.719539955500004 151.098521984,-33.719683941 151.09832899200001,-33.719870957499992 151.09817798399999,-33.72000495299999 151.09802099199999,-33.720134952500004 151.09798998400001,-33.720158947 151.097893984,-33.720231948 151.09800198400001,-33.719723956500005 151.0984728,-33.717501533 151.09856928,-33.717044879 151.09844390399996,-33.716855957 151.09841692800001,-33.716822953 151.09835792000001,-33.7167759445 151.09828793599999,-33.716743958 151.09825696,-33.716734948500005 151.09820995199999,-33.716727955499998 151.09685193600001,-33.716436969 151.09668096,-33.716449974500001 151.09657296,-33.716456967500001 151.09619296,-33.716470972 151.09580396800001,-33.716530967499999 151.09540198400001,-33.716460963499991 151.09536796799998,-33.716454969499999 151.09502796799998,-33.716479981500001 151.094941984,-33.716513984499997 151.09490499200001,-33.71653498199999 151.09466396799999,-33.716673991 151.09438796800001,-33.716412993 151.09433596799997,-33.716436987500003 151.09370902399999,-33.716900986 151.09360201600001,-33.716941982 151.093513024,-33.716983977 151.09331702399999,-33.717066986500001 151.09287603199999,-33.717117010500004 151.09276905600001,-33.717144002 151.092558048,-33.717112996 151.09231203199997,-33.717081009499999 151.09182105599999,-33.716930012500001 151.091332032,-33.7167080125 151.09100204800001,-33.71646002 151.09082905599996,-33.716314018 151.09069203199999,-33.71615403 151.09060604800001,-33.716024030500002 151.09047104000001,-33.715779016500001 151.09047203200001,-33.715693028499992 151.09041305599999,-33.715191031 151.09040304000001,-33.714818015500001 151.09030505599998,-33.714430015 151.090136032,-33.714084028 151.09001603199999,-33.713953029500004 151.08984304000001,-33.713787029 151.08977404800001,-33.713720022 151.08955104,-33.713417029 151.08920604799999,-33.71303903699999 151.08912204800001,-33.712880048 151.089037056,-33.712736044 151.089022048,-33.712578035500002 151.08892403199999,-33.712247033499999 151.088854048,-33.712189036 151.08876803199999,-33.712087045499999 151.088257056,-33.712109042 151.08771104,-33.7120580375 151.087413056,-33.711982058 151.086872032,-33.711730051 151.08666307199999,-33.711598053499998 151.08657708800001,-33.711511066500002 151.086108064,-33.711161065 151.08583107199999,-33.710927058499998 151.085537088,-33.710651075500003 151.08543408,-33.710520077 151.08526006400001,-33.710417087499998 151.08508608,-33.71032908299999 151.08465206400001,-33.709979081500002 151.08392006399998,-33.709567086500002 151.08364208,-33.709406099500001 151.08329408,-33.709157089500003 151.08305110399999,-33.709010088500001 151.082948096,-33.708865104 151.082879104,-33.708778098499991 151.082811104,-33.708663102500005 151.08274512,-33.708476104500001 151.082575104,-33.708158089500003 151.08252608000001,-33.708000099499998 151.08240806399999,-33.707755104 151.082169088,-33.707379091500002 151.08217107199999,-33.7072931035 151.082137088,-33.707221101500004 151.08207206399999,-33.706976106 151.08190208,-33.70665909 151.08186806399999,-33.706587106500002 151.08183507199999,-33.706500119499999 151.081784064,-33.706428117499996 151.081717088,-33.70626911 151.08164806400001,-33.706182123 151.08161408000001,-33.706110121 151.081459072,-33.70593611 151.08118208,-33.705703121 151.080940064,-33.70548411799999 151.080662112,-33.705265115 151.08057510399999,-33.705221122 151.08050611199999,-33.705177110500003 151.080234112,-33.704701124 151.08016809599999,-33.704470114499998 151.08017008,-33.704385107 151.08015408,-33.7043131235 151.08015708799999,-33.704170118500002 151.080141088,-33.704098116499999 151.08014608,-33.703883109499998 151.080312064,-33.702697111499994 151.08034908799999,-33.702640113 151.08035107200001,-33.702540120500004 151.08040908800001,-33.702312108 151.08041008000001,-33.702240124500001 151.080431936,-33.7021444425 151.08044905599996,-33.702069110499998 151.08048505599999,-33.701935115 151.08050704,-33.701855121 151.08050803199998,-33.701769114499996 151.08056604799998,-33.701555106500003 151.080568032,-33.7014691185 151.08060704,-33.701298123 151.080736032,-33.700999107500003 151.08104403199997,-33.700631124 151.081064032,-33.7005461165 151.08112,-33.700374122 151.081228,-33.700261124 151.08124902399999,-33.700133122499999 151.08132700799999,-33.699790114 151.08133001599998,-33.699619118500003 151.08131702399999,-33.699432120499999 151.08128300800001,-33.699345115 151.081268,-33.699245122500002 151.08113401599999,-33.698885112500001 151.08108300800001,-33.698813110499998 151.08106700799999,-33.698741108500002 151.08099900799999,-33.6986251135 151.08096601599999,-33.698525121 151.08091401600001,-33.69845212 151.08081302400001,-33.698279108 151.080796,-33.698207124500001 151.08071100800001,-33.698091111 151.08066201599999,-33.697890108500005 151.08068700800001,-33.697561123 151.08093196799999,-33.69683411 151.080950976,-33.696749121 151.080872992,-33.696303123 151.08089596799999,-33.6960321165 151.080973984,-33.695675122 151.081139968,-33.695334111500003 151.08137696,-33.694950107 151.08173993599999,-33.694497116 151.081813952,-33.694341124 151.08184294399999,-33.694303106500001 151.08186793600001,-33.694270121 151.08190496,-33.694185113499998 151.08189392,-33.693884118500002 151.08184492800001,-33.69372511099999 151.08218291199998,-33.693559110500004 151.08239792000001,-33.693419121 151.08279987200001,-33.6927371 151.08296188799997,-33.692568102500005 151.08308787199996,-33.692484094 151.083300896,-33.692415089 151.08360089600001,-33.692391094500003 151.08384787200001,-33.6923950905 151.084019872,-33.692449092 151.08403987200001,-33.692455104499992 151.08414585599999,-33.6924561035 151.08437584000001,-33.692431091499998 151.08451785599999,-33.692361106 151.084750848,-33.692207075 151.084648864,-33.691991106 151.08450985600001,-33.691903101499996 151.083264896,-33.691598092 151.08303788800001,-33.691495102499999 151.08282988799999,-33.691348101500004 151.082725888,-33.69124711 151.082465888,-33.691071119500002 151.08208688,-33.690650115 151.08191788799999,-33.690289124499998 151.081959872,-33.689975124 151.08208787199999,-33.689791123 151.082624864,-33.689383124 151.08269686399998,-33.689299115499999 151.08273884799999,-33.68902711 151.08263686399999,-33.688839113 151.082308864,-33.68850511399999 151.08199584,-33.688300115499999 151.081666848,-33.688023115 151.08157084800001,-33.687910117 151.08113388800001,-33.68739911 151.08111788799999,-33.68732710799999 151.08065984000001,-33.686476126500004 151.08061084799999,-33.6862891285 151.08059984,-33.686017141500002 151.08070784,-33.685059137499998 151.080766848,-33.684787132 151.08074384,-33.684214131499999 151.08063283199999,-33.683668141 151.08060380799998,-33.683324133500001 151.080653824,-33.682637136 151.080720832,-33.682493132 151.08085782399996,-33.682197132 151.08092982400001,-33.682112143 151.0810208,-33.682013131 151.08130678399999,-33.681788115499998 151.08141379199998,-33.681732116 151.08150377600001,-33.681662112 151.08165478399999,-33.681578122 151.08180678400001,-33.681494113500001 151.08202080000001,-33.68139711799999 151.08234076799999,-33.681273112500001 151.08255376,-33.681205106499995 151.082980768,-33.680996112 151.08319571199999,-33.680856122500003 151.083676736,-33.680591091499998 151.084104736,-33.680368092500004 151.08453168,-33.6801741015 151.08463769599999,-33.68016109599999 151.08492268800001,-33.680037090500001 151.08499468799999,-33.679966106 151.08513968,-33.679796091 151.08519568,-33.679667090500004 151.08521369600001,-33.6796250955 151.08528966399999,-33.679355088 151.08529366400001,-33.679183093499994 151.08531267199999,-33.679097105499999 151.08533465599999,-33.678925092500002 151.08541065599999,-33.678655103499999 151.085430656,-33.678555092499998 151.085575648,-33.678342083499999 151.08568265599999,-33.678286084 151.08580764800001,-33.67821608 151.086037632,-33.678177082 151.086477632,-33.678212084 151.086565632,-33.678228086499999 151.087129632,-33.678222074 151.08741260799999,-33.678183076 151.08776659200001,-33.67808806 151.08785558400001,-33.6780610685 151.087962592,-33.677991064499999 151.08810560000001,-33.67793506499999 151.088195584,-33.677850057500002 151.08833958400001,-33.67768106 151.08844956799996,-33.67749606 151.08841856,-33.677281053 151.088263552,-33.677092057 151.088073568,-33.676947054 151.0877416,-33.676813058500002 151.08758560000001,-33.676682078500001 151.08748259199999,-33.676537075500001 151.0873976,-33.676407076 151.0873816,-33.676335074 151.087330592,-33.676234082500002 151.08731459199998,-33.676162080499999 151.08728060799999,-33.676090078500003 151.0872656,-33.67600407199999 151.08723158399999,-33.67593207 151.0871656,-33.675687074500004 151.0871336,-33.675544069499999 151.08711856,-33.67541407 151.08708755200001,-33.67525608 151.08708857599999,-33.675185077 151.087072576,-33.675113075 151.087115552,-33.674756080500003 151.08711856,-33.674612076499997 151.08710256000001,-33.674540074500001 151.08710755199999,-33.674326085 151.08712656,-33.674254083 151.08716956800001,-33.673868080499993 151.08715555200001,-33.673725075500002 151.087193568,-33.673582070500004 151.08717756799999,-33.673511086 151.08717856000001,-33.673439084 151.08716256,-33.673367082 151.08715254399996,-33.67300907 151.08696156799999,-33.672892076 151.08671657599999,-33.67277308399999 151.08636656,-33.672697086 151.08627856000001,-33.672652075499997 151.08615657600001,-33.672622087 151.086069568,-33.672578075499999 151.08594656,-33.672547069499998 151.08573657599999,-33.672458103 151.08563257599999,-33.672385102 151.084438592,-33.671336096499999 151.08435660800001,-33.671049106 151.084503552,-33.670807089 151.08461056,-33.670709094499998 151.08514556799997,-33.670430096 151.08576752,-33.670210094 151.085945536,-33.67012710299999 151.08603552,-33.670057099 151.08614352000001,-33.669915074499997 151.08623452799998,-33.669787073 151.08630854399999,-33.669617076500003 151.08631353600001,-33.66937308 151.08628054399998,-33.669301078 151.08626454399999,-33.669215071499998 151.08602352,-33.668939088500004 151.08585052800001,-33.66880809 151.08551952,-33.668617096 151.08543254400001,-33.668587089 151.08536252799996,-33.668543096 151.08527452800001,-33.668513089 151.08511852800001,-33.668425103 151.08489254399998,-33.6682640975 151.08480752,-33.668134098 151.08475753600001,-33.667975090500001 151.08476054400001,-33.667832104 151.08480054399999,-33.667604091500003 151.08496953599999,-33.667148103500004 151.08512051199997,-33.666663089 151.08512451199999,-33.666491094500003 151.08509251199999,-33.6663050955 151.08499049599999,-33.666131103 151.08483548800001,-33.66595709199999 151.08464550400001,-33.66581109 151.08445350400001,-33.665708100499998 151.08405152,-33.665559101500001 151.083928544,-33.6655431175 151.08382352000001,-33.665498107 151.08348953599997,-33.665451117 151.08306752,-33.665416115 151.08262755199999,-33.665409122 151.08231056,-33.6653901225 151.0814656,-33.665320118499999 151.08071158399997,-33.665166143 151.08048358400001,-33.665091125499998 151.08037958400001,-33.665032129 151.0802856,-33.6650091335 151.08025660799998,-33.665002140499993 151.08019232000001,-33.664976647499998 151.0800296,-33.664912138 151.07998563199999,-33.664921129 151.07988761600001,-33.664939129499999 151.079787616,-33.664708138500004 151.07965161600001,-33.664449138500004 151.07953462399999,-33.664175135 151.079483616,-33.664074125 151.0794216,-33.663657135 151.07938960000001,-33.663542139 151.07941059199999,-33.663371125 151.0794856,-33.663172139 151.0796856,-33.662888127 151.079828768,-33.6627751475 151.07982860800001,-33.662761143 151.0800936,-33.66273713 151.08030556799997,-33.662725142 151.08064156799998,-33.662673138500004 151.08087155199999,-33.662634140500003 151.08110156800001,-33.662565135500003 151.081263552,-33.662424128499993 151.08128156800001,-33.662382133499996 151.08137152,-33.662311130499994 151.081552544,-33.66212811 151.08160752000001,-33.662029116500001 151.08167952,-33.661944109 151.081734528,-33.661844116499992 151.08198854400001,-33.661504123500002 151.082025536,-33.6614331205 151.08216950400001,-33.661263124 151.08240348800001,-33.661023123500001 151.08254851199996,-33.660839122500001 151.08376848,-33.659826118 151.08387644800001,-33.659756114 151.08432444799999,-33.659405095 151.08452144,-33.659236097499999 151.08520441600001,-33.658601103500004 151.085704416,-33.658308100500001 151.08597136,-33.658183096 151.08621936,-33.65811509 151.08650336,-33.658019093500002 151.08676838399998,-33.6580091035 151.08740732800001,-33.6578030875 151.08745932799999,-33.657804086499993 151.08753235200001,-33.657705074500001 151.08764134399999,-33.657534079 151.087647328,-33.6572620735 151.08761734399999,-33.657004072500001 151.08760432,-33.656818073499998 151.087570304,-33.656731086500002 151.08734832,-33.655611078 151.087334304,-33.655439083499992 151.08733529599996,-33.655353077 151.08736432000001,-33.654838074 151.08751129599997,-33.654554080499999 151.087691264,-33.654370079499998 151.087839264,-33.654072081500004 151.08796528,-33.6539300755 151.088108288,-33.653832081 151.08826726399997,-33.653834079 151.08861728,-33.653940084 151.08919424000001,-33.654134075 151.08940425599999,-33.654209074 151.08963324800001,-33.654198085 151.089739232,-33.654200083 151.089953248,-33.654088065499998 151.0901672,-33.653948057500003 151.09038220799999,-33.65377906 151.09059920000001,-33.653539059499991 151.09065420799999,-33.653440066 151.090762208,-33.653341054 151.09156518399999,-33.652866066500003 151.091618176,-33.652852062 151.09169017599999,-33.652796062500002 151.091796192,-33.652741062 151.091976192,-33.652585051500004 151.09204819199999,-33.652501061500004 151.09214016000001,-33.652330066 151.092506144,-33.651691039 151.09276214400001,-33.651265039500004 151.09327011199997,-33.650571049 151.09345312,-33.650244043 151.09360208000001,-33.649874043 151.09385808,-33.649448043500001 151.09400508799999,-33.649178036 151.09438704,-33.648611048 151.09471206399999,-33.648243027500001 151.09481904,-33.6481730235 151.09490806400001,-33.648131028500003 151.09494304,-33.648103019499999 151.095068064,-33.648062023499996 151.09519104,-33.648064021499998 151.09540105599999,-33.648124017 151.095541024,-33.648169027500003 151.095869024,-33.648504025500003 151.09626700800001,-33.64882402 151.09687603200001,-33.649206026500003 151.09699801599999,-33.649250019500002 151.097103008,-33.649309016 151.097436,-33.649399999 151.097628,-33.649446008499993 151.09768297599999,-33.64938901 151.097824992,-33.649305001500004 151.098056,-33.649236995500004 151.098128,-33.64916701 151.0982,-33.649066999 151.098184,-33.64902400499999 151.09840099199997,-33.648754996500003 151.09861795200001,-33.64850101 151.09879894400001,-33.648273996500002 151.098869952,-33.648217997 151.09892496000001,-33.648161997500004 151.09899696,-33.648062005 151.099139968,-33.647964010500004 151.099299968,-33.647895005500004 151.09952592,-33.647673986 151.09996393599999,-33.647307982 151.10026192000001,-33.646956981500004 151.10034793599999,-33.646789982 151.10041990400001,-33.646649992500002 151.10059590399999,-33.646240994499998 151.10063190400001,-33.645932988 151.10052688,-33.645581987500002 151.10047488000001,-33.645259995 151.10041510400001,-33.644968416499992 151.10038777599999,-33.644683960499997 151.100490272,-33.644427939 151.10064742399999,-33.644086577 151.10080886399999,-33.643693988500004 151.10096684800001,-33.6432849905 151.10133753599996,-33.642470842500003 151.10148784,-33.6418621 151.10159718400001,-33.641344377499998 151.10159036799999,-33.641020091 151.10161769600001,-33.640729937 151.10159718400001,-33.640411348500002 151.10154937600001,-33.640047231499999 151.10148102400001,-33.63970019 151.10145577599999,-33.639304956 151.1014448,-33.639011971500004 151.101497792,-33.638835962500004 151.10163779199999,-33.638660971 151.101813792,-33.638514969 151.10212780800001,-33.638388965499999 151.10237280000001,-33.638330968 151.102574304,-33.638340458500004 151.10284076799996,-33.638391666499992 151.103196096,-33.638448554 151.10359238399997,-33.63850546 151.103906688,-33.63855097 151.10438499200001,-33.638562347499999 151.104911136,-33.63850546 151.10536892799999,-33.638357534 151.10557872000001,-33.638171942 151.10575472,-33.638054948 151.10583356800001,-33.6378682645 151.10606588799999,-33.637578110500002 151.10635068799999,-33.637191923 151.10656169599997,-33.636738932 151.106754688,-33.6362849235 151.106964672,-33.635868932500003 151.10714067200001,-33.635546921500001 151.10735065599999,-33.63529793 151.10780825599997,-33.634892798500005 151.108689664,-33.634653852500001 151.10940713599999,-33.634460416499998 151.10974876799997,-33.634358000500001 151.10999475200001,-33.634261282499999 151.11025961599998,-33.634084903499996 151.1104184,-33.633863033 151.11035689600001,-33.633470481499998 151.11016556800001,-33.633277045500002 151.10989910399996,-33.633021024 151.10939347199999,-33.632622793 151.10910649600001,-33.6323610735 151.10858060800001,-33.6319619175 151.10814259200001,-33.631551920499994 151.10770563200001,-33.631141905 151.10754864,-33.6308489205 151.107548608,-33.630483915500001 151.10767161599998,-33.630058915 151.10773561600001,-33.6299259185 151.10774336,-33.629909897499999 151.10781260799999,-33.629766911 151.10804060800001,-33.629356914 151.10835561599998,-33.628815918500003 151.10858457599997,-33.628478904 151.10900556799999,-33.627937908500002 151.10925049599999,-33.627698907 151.109460544,-33.627425902500001 151.109899552,-33.626957889499998 151.11023254400001,-33.626621892499998 151.11054854400001,-33.626328889500002 151.11095152,-33.626065893499998 151.111810496,-33.625671899 151.112125472,-33.625569871499991 151.11271347199997,-33.625354883 151.113081472,-33.625208881 151.11384614400001,-33.624987269499997 151.11428700799999,-33.625396600500004 151.11435945599999,-33.625970859 151.114411488,-33.626409864 151.11442848,-33.627053849 151.11442748799999,-33.627609848 151.11456748800001,-33.628179851500001 151.114794464,-33.6285758625 151.11533747199999,-33.628912858500001 151.115775488,-33.629044856 151.11619545600001,-33.629029852500004 151.116458432,-33.628927862 151.11661644799997,-33.628810849499999 151.11682345599996,-33.628597822 151.117440448,-33.627947843 151.1182824,-33.627128829500002 151.11908838400001,-33.626324838 151.11971939199998,-33.625739812499994 151.12043833600001,-33.625081823 151.12047936,-33.625732819500001 151.12045433599999,-33.626189825 151.12038038399999,-33.626565819 151.12027139200001,-33.626869811 151.12010038400001,-33.6272558135 151.11993036800001,-33.627570813 151.119726816,-33.627797789500001 151.119711392,-33.628017828499999 151.11971056,-33.62819282 151.11975664,-33.628409510499999 151.119873216,-33.628745840500002 151.11994099200001,-33.628924162 151.120079264,-33.629240179 151.12023379199999,-33.629617135 151.12041814399998,-33.63003246 151.12051302399999,-33.63033493499999 151.12041814399998,-33.6306193355 151.1202064,-33.630963824 151.120060416,-33.631166824499999 151.11988406399999,-33.631380037 151.11963462400001,-33.6316012415 151.11926944000001,-33.631918831 151.11898944000001,-33.632212833 151.11875843199999,-33.632435832 151.11861244799999,-33.632608844 151.118566464,-33.632781782 151.11854476799999,-33.633012033 151.11855833600001,-33.633486058500004 151.11860982399998,-33.633919439499998 151.11853936,-33.634314451499996 151.11840384000001,-33.634409042 151.11832931199999,-33.634436847499998 151.118329472,-33.634464838 151.11798048,-33.635147858 151.11785347200001,-33.635317854500002 151.11761449599999,-33.635772862 151.117577504,-33.6358718555 151.11757350400001,-33.63604385 151.11760352,-33.636120865500004 151.11760752000001,-33.636130855499992 151.117812512,-33.636405858 151.11815849600001,-33.6367258525 151.118295488,-33.636885859 151.11827948800001,-33.636841847500001 151.11843347199999,-33.637058852500004 151.11855148800001,-33.637303848 151.11860246399996,-33.637376830499996 151.11866947199999,-33.6375498425 151.11869750400001,-33.6379078545 151.11889750399996,-33.638454844 151.11889350399997,-33.638626838500002 151.11894150399999,-33.638885838500002 151.11895552,-33.639056852499998 151.11898649599999,-33.639243850500002 151.119017504,-33.639473861 151.11903251199999,-33.639588857 151.11913152,-33.63991886 151.11918249600001,-33.639976839 151.11949449599999,-33.640224831499999 151.11955350400001,-33.640290839500004 151.11964950399999,-33.640398842499998 151.11978649599999,-33.640587838500004 151.11981952,-33.640673845 151.12014550399999,-33.64112284 151.12027952,-33.641439837500002 151.12037449600001,-33.641956838499993 151.12034950399999,-33.642313833 151.12035849599999,-33.642715838 151.120020512,-33.64289684199999 151.11960950400001,-33.643162853500002 151.119377536,-33.643273853499998 151.11903753600001,-33.643540864 151.11864252800001,-33.643907848499992 151.11846054399999,-33.644162852500003 151.11833353599999,-33.644332849 151.11809356800001,-33.644859858499998 151.11803657600001,-33.6450448585 151.11794556800001,-33.645214855 151.11774656,-33.645455873 151.11761056,-33.645695873500003 151.117544576,-33.645810869500004 151.11738358400001,-33.64596688 151.117240608,-33.646064874499999 151.11722460799999,-33.646071867499991 151.1168136,-33.646258884 151.11649561600001,-33.64629688299999 151.11614259199999,-33.646291869500004 151.11605561600001,-33.646247876499999 151.11570460799999,-33.646185883 151.11540464000001,-33.646209877499999 151.11515564800001,-33.646306891500004 151.11481564799999,-33.646558898499997 151.11470764799998,-33.6466869 151.11452464000001,-33.646984898 151.11447164800001,-33.647040897499998 151.11430966399999,-33.6471679 151.11386368000001,-33.647447897500001 151.11331267200001,-33.647654894 151.11297366400001,-33.6478509015 151.112640704,-33.648121908 151.11250771199997,-33.64822991099999 151.112145696,-33.648697905500001 151.112053696,-33.64889691 151.111604736,-33.649262914 151.11142172800001,-33.649603906 151.11132774399999,-33.64985990899999 151.111255744,-33.649973906 151.11123574399997,-33.650044909 151.111052736,-33.650414909 151.11094272,-33.650570919499998 151.11079875199999,-33.650740916 151.11068876799999,-33.650924935500001 151.11050976000001,-33.651079928500003 151.11041977599999,-33.651192926500002 151.110378752,-33.6514499285 151.11022976000001,-33.651834932 151.11024777599999,-33.652622939499999 151.110191808,-33.652793935 151.11015280000001,-33.652964930499998 151.11016979199999,-33.653008923500003 151.1101328,-33.653093931 151.1100928,-33.653307939 151.1098288,-33.654134926 151.10982678400001,-33.654234937 151.10984179199997,-33.654320925 151.1098448,-33.654342921500003 151.109887808,-33.654665931499999 151.10990179199999,-33.654837926 151.10989980799997,-33.654923932500004 151.10992780800001,-33.655267921499998 151.10995980800001,-33.655439934500002 151.10994083200001,-33.656327934499991 151.11006982399999,-33.656916937499993 151.110169824,-33.657189923499999 151.11027184,-33.657363934499998 151.11051184,-33.657667926500004 151.11070182399999,-33.657842936500003 151.11087283200001,-33.658088931 151.11079584000001,-33.658387928 151.110560832,-33.658670922500001 151.11014982399999,-33.658965923499998 151.10940185600001,-33.659312928 151.10924086399996,-33.659424927 151.10884790399996,-33.659705942 151.10873888,-33.659847948 151.108628896,-33.660046952500004 151.10835190399999,-33.660672955500004 151.10818691200001,-33.660970953499998 151.108111936,-33.661184943 151.10801993600001,-33.661355957 151.10776793599999,-33.661580954 151.10762393600001,-33.6617509505 151.10738694400001,-33.662119951500003 151.107222944,-33.6623459475 151.10718694400001,-33.662416950500003 151.10713296,-33.662473949 151.10684096,-33.662913953 151.10667795200001,-33.663139949 151.10665897599998,-33.663211951 151.106376,-33.6637869495 151.10630899200001,-33.663922943 151.10625299200001,-33.664064949 151.105997024,-33.664519956500001 151.105794016,-33.664945956 151.105685024,-33.665101948 151.105504032,-33.665342947500001 151.10543203200001,-33.665413950500003 151.10519305599999,-33.66583995 151.10472006399996,-33.66654894399999 151.104628064,-33.666733944 151.104336096,-33.667216942 151.10422608,-33.667429951 151.104153088,-33.66751494 151.10408208,-33.667570958 151.10393609600001,-33.6678119575 151.10388208000001,-33.66786895599999 151.10366211199999,-33.668266946500005 151.10362310400001,-33.668423956 151.10355011199999,-33.668565943499999 151.10326112000001,-33.668876947 151.10317212800001,-33.668946969499999 151.10311212799999,-33.66903397499999 151.10302611200001,-33.66915996 151.10291814399997,-33.669243968499998 151.10257315199999,-33.6697259675 151.10238816,-33.670152966 151.10233216,-33.670294972 151.10229014399999,-33.670609971499999 151.102287168,-33.670752976500005 151.102268192,-33.670823961 151.102266176,-33.670923972 151.102344192,-33.671397960500002 151.10234118400001,-33.6715409655 151.10235718399997,-33.671612949 151.10244019199999,-33.67184394 151.10245619200001,-33.671929946500001 151.102490176,-33.672001948499997 151.10252217600001,-33.672159957 151.10252019199999,-33.672245945 151.10256819199998,-33.672460952 151.10266918400001,-33.672691943 151.10275417599999,-33.672835947 151.10276918400001,-33.672964947499999 151.10283718400001,-33.673066956500001 151.102853184,-33.673166949 151.102887168,-33.673210942 151.10322716799999,-33.673802942 151.103312192,-33.673975954 151.10330620799999,-33.674247941 151.1032872,-33.674318944 151.10327721600001,-33.674762944 151.103293216,-33.674834946 151.103325216,-33.675021944 151.103316224,-33.675407946499995 151.10329721599999,-33.675573947 151.10327420799999,-33.675764941 151.1033032,-33.67605195 151.103282208,-33.676223944500002 151.10329625599999,-33.676352945 151.10327523199999,-33.676567952 151.10330825599996,-33.677455952 151.10334124799999,-33.677556943500001 151.10345724800001,-33.6779449255 151.103539232,-33.678232933499999 151.10358624,-33.678490934500005 151.10363724800001,-33.678591926 151.10371523200001,-33.679051928500002 151.10374928,-33.679137935 151.10377881599999,-33.679306248 151.10651820800001,-33.679649904 151.10841017600001,-33.679941908 151.10961219199999,-33.680127888500003 151.11087014399999,-33.680322897 151.110875136,-33.680176895 151.110934144,-33.67970089 151.11101910400001,-33.679372885 151.111291104,-33.678971897499999 151.11222835199999,-33.679110055500004 151.11249907199999,-33.679146889 151.11810102399997,-33.67995885399999 151.11825587199999,-33.6786047095 151.11844416,-33.678623339 151.11856979199999,-33.6786336065 151.11869545600001,-33.678643411499998 151.118819648,-33.678655732500005 151.11929017599999,-33.678713249 151.11987155200001,-33.678741424499997 151.11997561599998,-33.678746456500001 151.12011347200001,-33.678761663499998 151.12025136,-33.678776963 151.12044217600001,-33.678794963500003 151.12082665599996,-33.6788305205 151.121039392,-33.678851407 151.12120752,-33.678865985 151.12134828800001,-33.678876955500002 151.12147859199999,-33.678886057500002 151.12165571200001,-33.67889577 151.1220024,-33.678908646 151.12249849599999,-33.678933306499999 151.12268352000001,-33.6789514735 151.12281961599999,-33.678957060500004 151.12295388800001,-33.678954988500003 151.12308816000001,-33.678947792 151.12322243200001,-33.678936544 151.123356352,-33.678922317500003 151.12348992,-33.678906296499996 151.123610176,-33.678889295 151.12373004799997,-33.678869481500001 151.123849568,-33.678847892 151.124029216,-33.678814407 151.124308192,-33.678762385 151.124637952,-33.678700021499999 151.12477692799999,-33.67867599 151.12506851200001,-33.678626576500001 151.125416992,-33.678558626 151.125537248,-33.678532892500002 151.125656768,-33.678504717 151.12577449599999,-33.678473304 151.12592928000001,-33.678426425 151.12608192,-33.678374754499998 151.12615715199999,-33.678347226500001 151.12635769600001,-33.678257316500002 151.1264448,-33.678221315500004 151.12665971199999,-33.678138787 151.12679833599998,-33.678084785499998 151.12700208000001,-33.678002608500002 151.12713529600001,-33.677943834 151.12722816,-33.677897769 151.12731961599999,-33.677848984500002 151.1274096,-33.677798035499997 151.12758528000001,-33.6776918455 151.12765584,-33.677646113500003 151.127861408,-33.677503386 151.12793196800001,-33.677458116499999 151.12808892800001,-33.677364969 151.12816883199997,-33.677320402500001 151.12825056,-33.677278019 151.12833408,-33.677238503 151.128407168,-33.677207016 151.12848169599999,-33.677177212499998 151.128551168,-33.677151479 151.12855728,-33.677149222 151.12871027200001,-33.677098199 151.12878912,-33.677075259 151.128948608,-33.677035114 151.129203488,-33.676977061 151.12929744,-33.6769571735 151.12972656,-33.676869687 151.130019232,-33.676812984500003 151.13016396800001,-33.6767811275 151.13030688000001,-33.676744053500002 151.13045052800001,-33.676703631 151.130521792,-33.676681949 151.13059164800001,-33.676657732500004 151.130658592,-33.676629927 151.13072665600001,-33.676595017499999 151.130791456,-33.676555594 151.1309808,-33.676429054 151.131056032,-33.676380806 151.13133539199998,-33.676202077500001 151.13176163200001,-33.675933698 151.13186675200001,-33.675864933500002 151.131967936,-33.675795984 151.132366816,-33.6755140255 151.13255257599999,-33.675387485500003 151.132832992,-33.675199747499995 151.13289564799999,-33.67514952 151.1330256,-33.675052672499994 151.133092928,-33.675006145 151.13315593600001,-33.674964834500003 151.13324521600001,-33.6749067075 151.13333123199999,-33.674852965 151.13341907200001,-33.674801942 151.13350979200001,-33.67475550699999 151.133603392,-33.674715454500003 151.133685856,-33.67468539199999 151.13377116800001,-33.674657494 151.13385792,-33.674633999 151.13394540799999,-33.674617071500002 151.134032512,-33.674608894500004 151.13411100799999,-33.674611225500001 151.13418985600001,-33.674621752 151.13434787200001,-33.674653165 151.13442707199999,-33.674667021499999 151.134751456,-33.674711310500001 151.13483171199999,-33.674725352 151.13493468799999,-33.674746146 151.13503763200001,-33.674769271 151.13513952,-33.674794912 151.13523996799998,-33.674823365 151.13533897600001,-33.674854778 151.13542716800001,-33.674887708 151.135666208,-33.674992566 151.13577859200001,-33.675174754 151.13614761599999,-33.675774746 151.137954592,-33.678182724500004 151.13792764799999,-33.678213730499991 151.13790864,-33.678313723 151.13790464,-33.678470732500003 151.137989632,-33.678629721500002 151.13804064000001,-33.678730731500004 151.13807264,-33.678902726 151.13808662400001,-33.679060734499998 151.137991648,-33.679402725500005 151.13771763199998,-33.679871719 151.137640672,-33.680142725499998 151.137586656,-33.680241719 151.13711667199999,-33.680765731500003 151.13702665599999,-33.680849721500003 151.13684566399999,-33.681104725499999 151.13662668800001,-33.68148873 151.13644169599999,-33.68185873 151.13638569599996,-33.682029725500001 151.13631171200001,-33.68220072099999 151.136292704,-33.682285728499998 151.13630771199999,-33.682371735 151.13630668799999,-33.682457723 151.13640870399996,-33.682631734 151.13647670399999,-33.68271872099999 151.13661571200001,-33.682806725500001 151.13673868800001,-33.682850718499999 151.13695068800001,-33.682853734 151.13758569599997,-33.682834734499998 151.137778688,-33.682836714 151.137866688,-33.682881706 151.137969696,-33.682983715 151.13801971199999,-33.683141705 151.138015712,-33.683313699500005 151.13790268799997,-33.683683699500001 151.137900704,-33.683769706 151.13788169599999,-33.683841708 151.13776473600001,-33.684397707 151.13758672,-33.684481715499999 151.136327776,-33.684792719 151.135675776,-33.684826722 151.13525075199999,-33.684906753 151.135055776,-33.684960754500004 151.13487776,-33.685043745500003 151.134697792,-33.685213742 151.13437580799999,-33.68543774 151.13425180799999,-33.685493739500004 151.13389379200001,-33.685745746500004 151.1336608,-33.685885754499999 151.13355481599999,-33.685927749500003 151.133233824,-33.686080744500003 151.132929824,-33.686290738 151.13282281599996,-33.6863897685 151.13269782399999,-33.686459772500001 151.13204787199999,-33.687194759 151.13195785600001,-33.687279766499998 151.13140288,-33.687672762 151.13120688000001,-33.687769757499993 151.13095990400001,-33.687808755500001 151.13046688,-33.687759767500005 151.13025590399999,-33.687755771500001 151.130007904,-33.687795787 151.12989990400001,-33.687894780500002 151.12975491200001,-33.688092786 151.12968291199996,-33.688134781 151.12953891199999,-33.688304777500001 151.12933792,-33.688645788 151.12927891199999,-33.688916776 151.12918396800001,-33.689258785500002 151.12905494399999,-33.689543778 151.12896496,-33.689613782 151.12876995199997,-33.689696791499998 151.12855696,-33.689736788499999 151.128239968,-33.68973277399999 151.128083968,-33.68961578 151.12792796799999,-33.689469778 151.12761795200001,-33.689136778 151.12753094399997,-33.689077781500004 151.127284992,-33.689016787 151.127056,-33.68901379 151.126968,-33.6889977875 151.126632992,-33.6890357865 151.12640198400001,-33.6891047915 151.12618899200001,-33.689186802 151.125869024,-33.689296803 151.12578102399999,-33.689281799500002 151.12565801599999,-33.6892798015 151.12555302399997,-33.689220805 151.12538102399998,-33.689032808 151.12533001599999,-33.688931798 151.12526201599999,-33.688844792499999 151.125092032,-33.68851281 151.12497100799999,-33.688424805499999 151.12468803199999,-33.688434795500001 151.124440032,-33.688517805 151.124136032,-33.688699808 151.12372604799998,-33.6889517965 151.12352704,-33.689177792500004 151.123437056,-33.689261801 151.123346048,-33.689389802500003 151.123292064,-33.689431797499999 151.123056064,-33.689757804500005 151.12287308800001,-33.690098796500003 151.12283609599999,-33.690198807500003 151.12278009600001,-33.690326809 151.12263308799999,-33.690639810500002 151.12250009599998,-33.691095817 151.12229612799999,-33.69153682 151.12215212800001,-33.691706816500002 151.12180912,-33.692088823 151.12145216,-33.692312821 151.121383968,-33.69235037599999 151.120863136,-33.692618811 151.12066614400001,-33.692788826 151.12050019200001,-33.693115813499993 151.12042716799999,-33.693257819499991 151.120336192,-33.693399825500002 151.120299168,-33.693484814500003 151.120245184,-33.693540814 151.120153184,-33.693711828 151.12000617599998,-33.693995821500003 151.11996918400001,-33.694081828 151.119927168,-33.694125821 151.1199152,-33.694137827500001 151.11982320000001,-33.694308823 151.11976720000001,-33.694450810500001 151.1196752,-33.694621824500004 151.11965622399998,-33.694692827499999 151.11962022399999,-33.694749826 151.11960022400001,-33.694834815 151.1195272,-33.694991824499994 151.11938121599999,-33.695204815 151.11932521599999,-33.695346821 151.119324256,-33.695389815 151.11925324800001,-33.695445814500005 151.11921523199999,-33.695531821 151.11905324799997,-33.695715822 151.11885523199999,-33.695898824 151.11823328,-33.696161838500004 151.11798428799997,-33.696229844500003 151.11779027200001,-33.696269841499991 151.117647264,-33.696324842 151.11746928,-33.696422836499998</coordinates></LinearRing></outerBoundaryIs></Polygon>

	</Placemark>
</kml>