<?xml version="1.0" encoding="UTF-8"?>
<kml xmlns="http://www.opengis.net/kml/2.2">
	<Placemark>
		<Style>
			<LineStyle>
				<color>ff0000ff</color>
			</LineStyle>
			<PolyStyle>
				<fill>1</fill>
				<color>330000cc</color>
			</PolyStyle>
		</Style>
			<ExtendedData><SchemaData>
		<SimpleData name="STATE_2006">1</SimpleData>
		<SimpleData name="POA_2006">2782</SimpleData>
	</SchemaData></ExtendedData>
      <Polygon><outerBoundaryIs><LinearRing><coordinates>150.393674688,-33.727033528500002 150.39353168,-33.727796246499999 150.39333379199999,-33.728854983 150.39340972799999,-33.728872262 150.39365072000001,-33.728986259 150.39387472,-33.729172239500002 150.39413372800001,-33.729444245 150.39435772799999,-33.729730236500004 150.39459872,-33.72993024 150.39471971199998,-33.730073245 150.394960704,-33.730259244 150.39514972800001,-33.730344214500001 150.39556672000001,-33.73046921899999 150.39582172799996,-33.730445224500002 150.39620067199999,-33.73033021 150.39644,-33.730190997500003 150.396063712,-33.732166224 150.39544576,-33.732084213500002 150.39499078399999,-33.734490212499999 150.3949688,-33.734595218500004 150.39463484800001,-33.736397211 150.394109856,-33.736330222500001 150.39409283199998,-33.736419226 150.39364691200001,-33.738780214500004 150.39330419199999,-33.740522655500001 150.392850944,-33.740309239499993 150.392683936,-33.740176243 150.39250595199999,-33.739923237 150.39248892800001,-33.739795235499997 150.392436928,-33.739723233500001 150.39236793599997,-33.739294237 150.39231593599999,-33.739208230500005 150.392298944,-33.7390512395 150.392177952,-33.738908234500002 150.391838944,-33.7387232345 150.39150595199999,-33.738522250500004 150.391264928,-33.738222254500002 150.391040928,-33.738036255499999 150.39019692799999,-33.737593273 150.38967993599999,-33.737164276500003 150.389472928,-33.736836271500003 150.38930092800001,-33.736378267 150.38930089600001,-33.73626427 150.389248896,-33.736135269500004 150.389247904,-33.735463294 150.38919689599999,-33.735263290499994 150.389058912,-33.73513429 150.38864592,-33.734991285 150.38797392,-33.734920319 150.38750892799996,-33.734834312499999 150.387165952,-33.734851314 150.38681993599999,-33.734948309499998 150.38637292799999,-33.735235337 150.385838976,-33.735663334500003 150.38535696,-33.736106335500004 150.38518601600001,-33.736321324 150.384847584,-33.736634177500001 150.38477500799999,-33.737047005 150.3842,-33.737585003500001 150.38415900800001,-33.737931009 150.38407388799996,-33.738662147500001 150.384044,-33.738698999499995 150.38385840000001,-33.738902018499999 150.38354412800001,-33.739252371500001 150.38353836799999,-33.739447953500004 150.38352,-33.739597267 150.383556352,-33.739759253 150.383592,-33.7399443085 150.38362009599999,-33.740047076 150.38370035200001,-33.740015663 150.38398944,-33.740033312 150.384291488,-33.740074252500001 150.38451107200001,-33.740113491 150.38477280000001,-33.740130603499999 150.38502227199999,-33.740089737 150.38523001600001,-33.740059674500003 150.3854928,-33.740042136500001 150.38553456,-33.7400476125 150.38571456,-33.740101984 150.38589024000001,-33.740232668 150.386023808,-33.740385570500003 150.38605692799999,-33.740468913 150.38608825599999,-33.740548463 150.38619264,-33.740746912500001 150.38628336,-33.740945103 150.38641692799999,-33.741097913 150.38652300800001,-33.741262008 150.38665561600001,-33.741437665500001 150.386868736,-33.741707673 150.38689104,-33.741881277 150.386870528,-33.742100169 150.38682083200001,-33.742376096499996 150.38677728,-33.742535844 150.38675900800001,-33.742605996 150.38673875200001,-33.742801356 150.38667792000001,-33.742984765 150.386576,-33.743133005499999 150.386373728,-33.743439994500001 150.38635859199999,-33.743485800500004 150.38631216,-33.743646454500002 150.38626681599999,-33.743772458 150.386276,-33.743934 150.38632700799999,-33.744084997 150.386419072,-33.744225782 150.38657964800001,-33.744402272 150.38667251199999,-33.744531235499998 150.386690176,-33.744610989 150.386708992,-33.744693998500004 150.38671712,-33.744812269 150.38662812799998,-33.744884271 150.38660214399999,-33.744964265 150.38656313600001,-33.745274269500001 150.38638915199999,-33.745721266499999 150.38608816000001,-33.745792288 150.38577315200001,-33.745816282500002 150.38566416,-33.745943285 150.38565216000001,-33.746138293500003 150.38569516800001,-33.746355298499999 150.3855592,-33.746459287 150.3853392,-33.746414295 150.38499619199999,-33.746336299 150.38468118399999,-33.746304294 150.384462208,-33.746408282499999 150.3843272,-33.746603291 150.384205184,-33.746856297 150.38404323199998,-33.747143287500002 150.38394822399999,-33.747235288 150.38378422400001,-33.747236305500003 150.38367424,-33.7471563115 150.38356224,-33.7469743085 150.383384224,-33.746860311500001 150.38326121599999,-33.746907301500002 150.38312521599997,-33.747056319 150.38297523200001,-33.747172314 150.38278323200001,-33.747184302 150.382495264,-33.747163304499999 150.38227625600001,-33.747210313 150.38208524800001,-33.747303312500001 150.38174326399997,-33.747373335 150.38126425600001,-33.74738832 150.380962272,-33.7473323205 150.38057929600001,-33.74738032799999 150.38019628800001,-33.747474345 150.379840288,-33.747487350500002 150.37956528000001,-33.747431351 150.37929030399999,-33.747330341 150.37919328000001,-33.747170371500005 150.37913728000001,-33.747056374499991 150.37906828800001,-33.746873372499998 150.37894428800001,-33.746794359 150.37879968,-33.746886896 150.37869564799999,-33.746979692 150.37862976,-33.747062757 150.378540832,-33.747082015499998 150.37847929599999,-33.747027921499999 150.37846848000001,-33.7469643 150.37842096,-33.74685774 150.37838675199998,-33.746740838500003 150.37832844799999,-33.746581257500004 150.378192,-33.746412519 150.37822115199998,-33.746357167 150.378224768,-33.746241153500002 150.37826796799999,-33.746073118 150.37827228800001,-33.745930927 150.37827264000001,-33.745914813500001 150.37829100799999,-33.745725188500003 150.37828300800001,-33.745587992499999 150.37834032000001,-33.745356631500002 150.37835868799996,-33.745166914 150.37843788800001,-33.745063055 150.37858188800001,-33.744897184 150.37867728000001,-33.744677404 150.378797152,-33.744479306 150.37899299200001,-33.743860555 150.379020352,-33.743802594500004 150.37910099199999,-33.743630526 150.37917228800001,-33.743368085 150.379216,-33.743127992 150.37932707199997,-33.742954443500004 150.37933251199999,-33.742827237500002 150.379204192,-33.742809385 150.3786,-33.7427300015 150.378588992,-33.742728003499998 150.37685900799997,-33.742498992 150.37392816,-33.742125458499991 150.37228329600001,-33.741891470500001 150.37211628799997,-33.741868475 150.37145830399999,-33.74178148799999 150.37093030399998,-33.741711502500003 150.37093228800001,-33.741693502 150.37093328,-33.741625496 150.37093328,-33.741527501500002 150.370934304,-33.741453501500004 150.370934304,-33.741384496500004 150.370935296,-33.741304502499993 150.370935296,-33.7412354975 150.370936288,-33.741155503500003 150.37090928000001,-33.741069497 150.37089628799998,-33.740989503 150.37084928,-33.740909490500002 150.37079430399996,-33.740829496499998 150.37076128000001,-33.740754497499999 150.37072028799997,-33.740691486499998 150.37064528,-33.740651508 150.37057728,-33.740588515500001 150.37052230399999,-33.740525504499999 150.37044128,-33.740457517 150.37038630399999,-33.740400518500003 150.37034128,-33.740327517499999 150.37033430400001,-33.740312514 150.370328288,-33.7402975105 150.37032329600001,-33.740281508 150.37032128000001,-33.740267522 150.37032025600001,-33.740253517500001 150.37031926399999,-33.740239513 150.37031926399999,-33.740225508500004 150.37031827199996,-33.740211522500005 150.370316256,-33.740196519 150.370313248,-33.740182514499999 150.37031027199998,-33.740167511 150.37030825599999,-33.7401535065 150.37030726399996,-33.740139520500001 150.37030924800001,-33.740123518 150.37031427199997,-33.7401075155 150.37032025600001,-33.740092512 150.370325248,-33.7400765095 150.37032924799999,-33.740060507 150.37033126399999,-33.740039509500001 150.37033225600001,-33.740017513 150.37033126399999,-33.739995516499995 150.37033027199996,-33.739974519 150.37032924799999,-33.739952522499998 150.37032924799999,-33.739932505500001 150.37032924799999,-33.739911508 150.37032924799999,-33.739891509499998 150.37032825599999,-33.739871511 150.37032627199997,-33.739851512500003 150.37032124800001,-33.73982851699999 150.370315264,-33.739805521500003 150.37030825599999,-33.739782507500003 150.370301248,-33.739759512 150.370293248,-33.739736516499995 150.370281248,-33.739702513499999 150.37026825599997,-33.739668510500003 150.37025526400001,-33.7396345075 150.37024425600001,-33.739600504500004 150.370236256,-33.73956652 150.37023324799998,-33.739533516 150.370234272,-33.739499513 150.370236256,-33.739466509 150.37024025599999,-33.739432506 150.37024425600001,-33.7393985215 150.37024924799996,-33.739363519500003 150.37025625599998,-33.739328517499999 150.37026425599998,-33.739292516500001 150.370271264,-33.739257514500004 150.37027724800001,-33.7392225125 150.37028326399999,-33.739186511500002 150.37028825600001,-33.739150510500004 150.370293248,-33.739114509499991 150.37029625599999,-33.739079507500001 150.37029724800001,-33.739043506499996 150.37029625599999,-33.739010521 150.370293248,-33.738977517 150.37028825600001,-33.738944513 150.37028425599999,-33.738911509 150.37027926399998,-33.7388795225 150.37027526399999,-33.738843521500002 150.370270272,-33.738806521500003 150.37026627200001,-33.738770520500005 150.37026124799999,-33.738734519499999 150.370257248,-33.738698518500001 150.37025427200001,-33.738665514499999 150.37025225599999,-33.738632510500004 150.37024924799996,-33.738599506500002 150.370247264,-33.738566521 150.370245248,-33.738533517 150.370245248,-33.738498515 150.370245216,-33.738463513 150.37024624,-33.738428511 150.370245216,-33.738393509 150.37024323200001,-33.738358507 150.37023923199999,-33.738327519500004 150.37023222400001,-33.738296513500003 150.37022624,-33.738265507500003 150.37022022400001,-33.738235519 150.37021622399999,-33.73820351399999 150.37021523199999,-33.738181517500003 150.37021523199999,-33.738159521 150.37021523199999,-33.73813650699999 150.37021622399999,-33.738114510500004 150.37021923200001,-33.738092514 150.37022022400001,-33.73808652 150.370221216,-33.7380795085 150.37022224,-33.738072515500001 150.370223232,-33.738065522500001 150.37022521599999,-33.738058511 150.37022921600001,-33.738046504499998 150.370235232,-33.738035515500002 150.37024224000001,-33.738024508 150.37024921599999,-33.73801252 150.37025824,-33.737997516500002 150.37026323200001,-33.737989506 150.370267232,-33.737982513 150.37027123199999,-33.73797552 150.37027523200001,-33.737968508500003 150.370279232,-33.737951507 150.370280224,-33.73793852 150.37027824,-33.737924515499998 150.37027622400001,-33.737909512 150.37027424,-33.7378965065 150.37027222399999,-33.737884518500003 150.370269216,-33.737872512 150.37026624000001,-33.737860505500002 150.37026323200001,-33.737849516499999 150.37026022399999,-33.73783751 150.37025523200001,-33.737818510499999 150.37024921599999,-33.737799511 150.37024224000001,-33.737780511499999 150.370236224,-33.737761512 150.37023024000001,-33.737742512499999 150.37022723199999,-33.737729507 150.370224224,-33.73771652 150.370221216,-33.737703514499998 150.37021824000001,-33.73768951 150.37021622399999,-33.737676504500001 150.37021424,-33.7376605205 150.370212224,-33.737644518 150.370211232,-33.737627516499998 150.370211232,-33.737611514 150.370213216,-33.737595511500004 150.37021424,-33.737583505 150.37021721599999,-33.737571517 150.37022022400001,-33.737559510499999 150.370224224,-33.737548521500003 150.37023024000001,-33.737537514 150.37023721599999,-33.737527505500005 150.370247232,-33.737518514500003 150.370257216,-33.737510522500003 150.370268224,-33.73750151299999 150.37027721600001,-33.737492522 150.37028422399999,-33.737485510500001 150.37029024,-33.7374775185 150.37029721599998,-33.737469508 150.370303232,-33.737461516 150.37031024000001,-33.7374545045 150.37031824,-33.737445513499999 150.37032723199999,-33.737436522499998 150.37033622399997,-33.737427513 150.370345216,-33.737418522 150.37035424000001,-33.737409512500001 150.37035923199997,-33.737404517499996 150.37036521600001,-33.737399522499999 150.37037024,-33.73739351 150.37037523199999,-33.73738851499999 150.370380224,-33.737382521 150.37038422399999,-33.737375509499998 150.37038921600001,-33.737369515499999 150.370392224,-33.7373625225 150.37039622399999,-33.737354512 150.37040022400001,-33.737347519 150.37040921600001,-33.737324505 150.37041024000001,-33.737312517 150.370416224,-33.737291519499998 150.37042224000001,-33.737269504499999 150.37042822399999,-33.737251522500003 150.37043123199999,-33.73724551 150.37043523200001,-33.737239516 150.37043824,-33.7372325045 150.37044121599999,-33.737226510500001 150.37044323200001,-33.737220516500003 150.37044422400001,-33.737214522500004 150.37044422400001,-33.737209509 150.37044422400001,-33.737203515 150.37044422400001,-33.73719852 150.37044323200001,-33.737193506499999 150.37044323200001,-33.737186513499999 150.37044323200001,-33.737180519500001 150.37044121599999,-33.737172509 150.37044022399999,-33.737167514 150.370437216,-33.737159522 150.37043523200001,-33.737154508499991 150.37042921599999,-33.737130514 150.370425216,-33.737106519500003 150.37042224000001,-33.737081507500001 150.37042022399999,-33.737056514 150.37041721599999,-33.737031520500004 150.37041222400001,-33.736992522500003 150.37040921600001,-33.736953506 150.37040521599999,-33.736913509 150.37039923200001,-33.736874511 150.37039024000001,-33.736836512 150.37038720000001,-33.736826522 150.37038419199999,-33.736817512500004 150.370381184,-33.736808521500002 150.37037820800001,-33.736798513 150.37037619199998,-33.736789522 150.37037520000001,-33.736780512500005 150.37037520000001,-33.736772520500004 150.37037619199998,-33.736763511 150.37037718400001,-33.736755519 150.37037718400001,-33.736747508500002 150.37037820800001,-33.7367375185 150.37037820800001,-33.736728509 150.3703792,-33.73671951799999 150.3703792,-33.736710508500003 150.37038019199997,-33.736701517500002 150.370382208,-33.73669051 150.37038419199999,-33.736679521 150.37038620800001,-33.7366685135 150.370389184,-33.73665750599999 150.37039219199997,-33.736646517 150.3703952,-33.736637507499999 150.3703992,-33.736629515499999 150.370402208,-33.736621505 150.37040620799999,-33.736612514 150.37041020800001,-33.736604522 150.370414208,-33.736594513500002 150.37041820799999,-33.736584505 150.37042220800001,-33.736574515 150.370426208,-33.736564506500002 150.37043020799999,-33.736555515500001 150.37043420799998,-33.736547505 150.370437184,-33.736539513 150.37044118399999,-33.73653252 150.370445184,-33.736524509500001 150.37044918399999,-33.736517516500001 150.37045318400001,-33.736511522500003 150.370458208,-33.73650551 150.37046220799999,-33.736500515 150.37046720000001,-33.736494521 150.37047219199999,-33.736488508500003 150.37047920000001,-33.7364785185 150.37048518399999,-33.736467511 150.370492192,-33.736457521 150.37049920000001,-33.7364475125 150.37050620799999,-33.736437522500005 150.37051120000001,-33.73643151 150.37051718399999,-33.736425516 150.37052220800001,-33.736419522 150.3705272,-33.736412510500003 150.37053219200001,-33.736406516500004 150.37053420800001,-33.736401521499999 150.37053520000001,-33.736396508 150.37053718399997,-33.736391513 150.3705392,-33.736386518 150.37054118399996,-33.736381504499995 150.3705432,-33.736377508499992 150.37054620800001,-33.736373512500002 150.37055318399996,-33.73636050699999 150.37056419199996,-33.7363335155 150.37057318399999,-33.736305506500003 150.370582208,-33.73627651699999 150.37058918400001,-33.736248508 150.3705952,-33.736220517500001 150.37060019200001,-33.736191509500003 150.37060320000001,-33.73616252 150.370606208,-33.736133512 150.3706072,-33.7361045225 150.3706072,-33.736075514500001 150.370606208,-33.736046506500003 150.37060320000001,-33.73601751699999 150.3705992,-33.735988509 150.3705952,-33.735960518500001 150.37058918400001,-33.735931510500002 150.370581184,-33.73590352 150.37057318399999,-33.735874512 150.37056419199996,-33.73584654 150.37055318399996,-33.73581953 150.37054118399996,-33.7357925385 150.37052819199999,-33.735765528500004 150.370514208,-33.735738537 150.3705032,-33.735646536499999 150.370494208,-33.735553537 150.37048620799999,-33.735460537499996 150.370480192,-33.735366539 150.3704752,-33.7352735395 150.3704712,-33.735165536499998 150.370470176,-33.735058532499998 150.370470176,-33.734949530500003 150.37047216,-33.734841527500002 150.37047516799998,-33.734734523500002 150.37048316799996,-33.734592536 150.37049516799996,-33.73445053 150.37050915200001,-33.734308524 150.37052416,-33.734166536499998 150.370537152,-33.734025529500002 150.370547168,-33.7338705365 150.37055315200001,-33.733715525 150.37056115199999,-33.733560532 150.37057513600001,-33.733406538 150.37059913600001,-33.733254523500001 150.37063913599999,-33.733090539500004 150.37069014400001,-33.732929534 150.37074912,-33.732769527500004 150.37081312000001,-33.732610538499998 150.37087612799996,-33.732453529 150.37093312,-33.732311523 150.37099113599999,-33.732171533500001 150.371052096,-33.732032524499999 150.37111609600001,-33.731894533 150.371185088,-33.7317595385 150.37124710399999,-33.731644524 150.371311104,-33.731531526 150.371378112,-33.731418528 150.37144908799999,-33.731309526 150.371524096,-33.731204538500002 150.37160710399999,-33.7311035285 150.37169609599999,-33.731007532 150.37178806399999,-33.730913533500001 150.37188105600001,-33.730820534 150.371972064,-33.730726535500004 150.371996064,-33.730701505 150.372019072,-33.7306765115 150.372043072,-33.730651518 150.37206707199996,-33.730626506 150.37209008,-33.730600513500001 150.37209507200001,-33.73058950599999 150.37210006399999,-33.730578517 150.37210707200001,-33.730568508499992 150.37211408,-33.730558518500004 150.37212307199999,-33.73054851 150.37213705600001,-33.730537521 150.372155072,-33.730527512500004 150.372175072,-33.730518521500002 150.37219408000001,-33.730509512 150.37221305599999,-33.73050152 150.37222905600001,-33.7304925105 150.372245056,-33.730483519499998 150.37226105600001,-33.73047451 150.372277056,-33.730466518 150.37229408,-33.730459506500004 150.37231606399999,-33.730452513499998 150.37234006400001,-33.730448517500001 150.37236307200001,-33.730444521500004 150.37238707199998,-33.730439508 150.37240905600001,-33.730433514 150.37242806399999,-33.730425522 150.37244608,-33.730417511500001 150.37246406400001,-33.730409519499993 150.37248208,-33.730399511 150.37249705599999,-33.73038852199999 150.37251408,-33.730375516500004 150.37252806399999,-33.730360513 150.37254105599999,-33.730345509500005 150.37255408,-33.730329507 150.37256707199998,-33.730313504499996 150.37258905600001,-33.730286513 150.37261008,-33.730257505 150.37263008,-33.730229514499996 150.37265008,-33.730201505499998 150.372672064,-33.730173515 150.37268707199999,-33.730155514499998 150.37270208000001,-33.730136515 150.37271808,-33.730118514499999 150.37273408,-33.730101513 150.37275305599999,-33.730086509499998 150.37277107200001,-33.730076519500003 150.37279008,-33.730068509 150.37281008,-33.730060517 150.37283008,-33.730053505500003 150.37285008000001,-33.730045513500002 150.37287206400001,-33.730036522500001 150.37289408000001,-33.730027513 150.37291504000001,-33.730018522 150.37293603199998,-33.730007514500002 150.37295504,-33.729996507 150.37297702399999,-33.729978506500004 150.372996032,-33.729958508 150.37301404799996,-33.7299365115 150.37303302399999,-33.729915514 150.373054048,-33.729896514499998 150.37308204799999,-33.729877515 150.37311302399996,-33.7298605135 150.373145024,-33.729844511 150.373176032,-33.729827509499998 150.37320304,-33.729807511 150.37322304,-33.729786513500002 150.37324003200001,-33.72976152 150.373256032,-33.729736508 150.37327404800001,-33.729713512499998 150.37329504,-33.729693514 150.37330902400001,-33.7296845045 150.373324032,-33.729674514500005 150.37333904,-33.729666522500004 150.37335404799998,-33.729659511 150.373370048,-33.729654516 150.37338704000001,-33.729653517 150.37340604799999,-33.729655515 150.373424032,-33.729658512 150.37344102399999,-33.729659511 150.373457024,-33.72965751299999 150.37346604800001,-33.729653517 150.37347504,-33.729648522 150.37348304,-33.729642509500003 150.37349104,-33.729636515500005 150.37349904,-33.729630521499999 150.373513024,-33.729620513 150.37352704,-33.729609505500001 150.37354003199999,-33.729598516499998 150.37355104,-33.72958651 150.373561024,-33.729573504500003 150.37356803200001,-33.729558519500003 150.37357404799999,-33.729543516 150.37357702400001,-33.729526514500002 150.37358003200001,-33.729509513 150.373582048,-33.729493510499999 150.37358304,-33.72947351199999 150.37358304,-33.729453513500005 150.373582048,-33.729432516 150.373581024,-33.729412517500002 150.37358003200001,-33.72939152 150.37357904000001,-33.729359515 150.37357904000001,-33.729326511 150.37357702400001,-33.729293507 150.37357504,-33.729260521500002 150.373570048,-33.729228516500001 150.37356604799999,-33.729212514 150.373561024,-33.7291965115 150.37355504000001,-33.729180509 150.37355104,-33.729164506499998 150.37355104,-33.729149521499998 150.37355203199999,-33.729140512 150.37355504000001,-33.729131521 150.37355804800001,-33.729121512500001 150.373562048,-33.729112521499999 150.37356604799999,-33.729103512 150.373570048,-33.729093522 150.37357504,-33.729084512500002 150.373581024,-33.729074522499999 150.37358502399999,-33.729064514 150.37358902400001,-33.729054505500002 150.373592032,-33.729041518500004 150.37359504,-33.729028513 150.37359603199999,-33.729014508500001 150.37359702399999,-33.729001521500003 150.37359702399999,-33.728987517 150.37359504,-33.728974511499999 150.373594048,-33.728962505 150.37359104000001,-33.728949518 150.37358902400001,-33.728936512499999 150.37358704,-33.728924506 150.37358704,-33.728913517 150.37358604799999,-33.728901510500002 150.37358604799999,-33.728890521499999 150.37358604799999,-33.728878515 150.37358704,-33.728867507499999 150.37358803199999,-33.728856518500002 150.37359004800001,-33.728844512 150.373592032,-33.728833504500003 150.373592992,-33.728822515499999 150.37359401599997,-33.728811508 150.37359401599997,-33.728800519 150.37359401599997,-33.728789511500004 150.37359401599997,-33.728778522500001 150.373592992,-33.728767515 150.373592992,-33.728756507500002 150.37359100800001,-33.728744519500005 150.37358899200001,-33.728731514 150.37358700799999,-33.728719507500003 150.37358700799999,-33.728707519499999 150.373588,-33.728695513 150.373592,-33.728684505499999 150.37359699199999,-33.728673516500002 150.373604,-33.728662509 150.373612,-33.72865152 150.37362099200001,-33.728642510500002 150.373636,-33.728627507 150.37365401599999,-33.72861452 150.373674016,-33.728601514499999 150.373694016,-33.728590507 150.37371401600001,-33.728578519 150.37375401599999,-33.7285565225 150.373795008,-33.728536505500003 150.37383699200001,-33.728517506 150.37388,-33.728499505500004 150.37392300799996,-33.728482522499995 150.37396099200001,-33.728467519 150.373999008,-33.728453514499996 150.37403699199996,-33.728440509 150.374076,-33.72842852099999 150.37411500799999,-33.728416496 150.37412700799999,-33.728413499 150.37413900799999,-33.728410502 150.37415100800001,-33.72840850399999 150.37416300800001,-33.728404489500001 150.37417500800001,-33.728400493500004 150.374191008,-33.728393500500005 150.37420601599999,-33.72838549 150.374222016,-33.728376499 150.37423699199999,-33.728367489500002 150.37425299200001,-33.728360496500002 150.374272,-33.728354502500004 150.37429299199999,-33.728351487 150.374314016,-33.728347491 150.37433401600001,-33.728343495 150.37435299200001,-33.7283385 150.37436899199997,-33.728331488500004 150.374384,-33.728324495500004 150.37439801599999,-33.728316503500004 150.374412,-33.72830849299999 150.374424992,-33.728299502 150.37443900799997,-33.728286496500004 150.37445001599997,-33.728272492 150.37446201599997,-33.728257488499999 150.37447299199999,-33.728242503499999 150.37448700799999,-33.728230497 150.37450201600001,-33.7282204885 150.37451900799999,-33.728211497499998 150.374536,-33.728204486 150.37455401599999,-33.728196494 150.374571008,-33.728188502 150.374592992,-33.728178493500003 150.37461500800001,-33.728168503500001 150.37463801600001,-33.728158495 150.37466,-33.728148486500004 150.37468099200001,-33.728137497500001 150.37471001599999,-33.728120496 150.37473801600001,-33.728103494499997 150.374766016,-33.728084495 150.374792,-33.728064496500004 150.37481699200001,-33.728044498 150.374748,-33.727998488499999 150.37462099199999,-33.727906488 150.37459801599999,-33.727879496500002 150.374584992,-33.727866491 150.37455792,-33.727828307 150.374514976,-33.727774490500003 150.37447398399999,-33.727742504 150.37441798399999,-33.727716493 150.37436896,-33.727686486 150.37434496,-33.727660493499997 150.37429696000001,-33.727628507 150.37425696,-33.727605511499995 150.37424198400001,-33.727591507 150.37419401599999,-33.727573506500001 150.37413001600001,-33.727555506 150.37405100800001,-33.727523519500004 150.374010016,-33.727480507 150.373987008,-33.727423508500003 150.373963968,-33.727375519499994 150.37394496,-33.727322517 150.37392096,-33.727262521499995 150.37390496,-33.7271995105 150.37389996799999,-33.727142512 150.373883968,-33.727090508499998 150.37388496,-33.727034509 150.37388198400001,-33.7269785095 150.37387996800001,-33.72691252 150.373861984,-33.726879516 150.37384796800001,-33.726824515499999 150.37385497599999,-33.726790512499996 150.37385798400001,-33.726745520500003 150.37382598399998,-33.726740507 150.37377696,-33.726740507 150.37373497600001,-33.726738509 150.37366697600001,-33.726724504499991 150.373623968,-33.726729518 150.373590976,-33.726740507 150.37354998399999,-33.726756509499999 150.37349497599999,-33.726789513500002 150.37343596799997,-33.726849509 150.37340396799999,-33.726892521499998 150.373365984,-33.726905508500003 150.373264992,-33.72692051199999 150.37322499199999,-33.726917515 150.37321299199999,-33.726900513499999 150.373198016,-33.726866510500003 150.37318099199999,-33.7268185215 150.373155008,-33.72680152 150.373130016,-33.726789532 150.37310499200001,-33.726766536500001 150.373084992,-33.726735530499994 150.37305798400001,-33.72670754 150.373028992,-33.726687523 150.37300396800001,-33.726653538500003 150.372976,-33.726655536499997 150.372939008,-33.726666525500001 150.37289699199999,-33.726699529500003 150.37284700800001,-33.726759525 150.372795008,-33.7268035365 150.372750016,-33.72682753099999 150.37270300799997,-33.726852524499996 150.37265500800001,-33.726843533500002 150.3726,-33.726831527 150.37256499200001,-33.726794527 150.37254899199999,-33.726736529500002 150.372544,-33.7266885405 150.372535008,-33.726609527 150.37251001600001,-33.726573526 150.37248099199996,-33.726574525 150.37245100800001,-33.726585532500003 150.372404,-33.726604532 150.37237401599998,-33.726630524500003 150.372323008,-33.726699529500003 150.37228899199997,-33.726737528500003 150.37221001599997,-33.726763539499999 150.37212601600001,-33.72678553599999 150.37209900799999,-33.7268105295 150.372062016,-33.726840536499999 150.37202201599999,-33.72686553 150.371974016,-33.7268865275 150.371912,-33.726895537 150.371848,-33.726910540499993 150.371812,-33.726926524500001 150.37176899199997,-33.726946523 150.37168700800001,-33.726990534500004 150.371658016,-33.727018525 150.37164300799998,-33.727047533 150.371632,-33.727076541 150.371622016,-33.727113541 150.37159801600001,-33.727143529500005 150.37157001599999,-33.727163546500002 150.37151500799999,-33.727173555 150.371476992,-33.727169559 150.371444,-33.727175553 150.371432,-33.727191555499999 150.37142899199998,-33.727197549499998 150.37141904,-33.727214551 150.37141804800001,-33.727234549500004 150.371433024,-33.727245557 150.37145203200001,-33.727269551499994 150.371477024,-33.727271549500003 150.37149404799999,-33.727285554 150.371468032,-33.727316541500002 150.371422048,-33.727340554500003 150.37140704,-33.727358555 150.37137904,-33.727382549499993 150.37134604799999,-33.727391559 150.37133603199999,-33.72739455599999 150.371310048,-33.727391559 150.37128704,-33.727368545 150.37126902399999,-33.727333543 150.37124502399999,-33.727317559 150.37121603199998,-33.727309548500003 150.37119004799999,-33.7273065515 150.371141024,-33.727318558 150.37109804799996,-33.727325551 150.37106403199999,-33.727333543 150.37102403200001,-33.727351543499999 150.37097504,-33.727373558499991 150.37094003199999,-33.727387544500004 150.37089904,-33.727386545499996 150.370857024,-33.727368545 150.37078304,-33.727341553500004 150.37071904,-33.727318558 150.37068502400001,-33.727284555 150.37065203200001,-33.727236547499992 150.37062003200001,-33.72717855 150.37060204799999,-33.727133558 150.37058704,-33.727089546500004 150.37055203200001,-33.727061556 150.370510048,-33.727045553499998 150.37044704,-33.727026554 150.37038803199999,-33.727020541500004 150.37035702399999,-33.727031549 150.37031404800001,-33.727046552499999 150.37023804799998,-33.727070547 150.37018502399999,-33.727080555500002 150.370136032,-33.727078576 150.37008902400001,-33.727075560499998 150.370048032,-33.727069566499999 150.37001004800001,-33.727048569 150.36995904,-33.727034564499995 150.36992902399999,-33.727048569 150.36989702400001,-33.727053564 150.36988704000001,-33.727034564499995 150.36987504000001,-33.727005575 150.36987904,-33.726982561 150.369892032,-33.726950574499995 150.36989603200001,-33.7269185695 150.36989404799996,-33.726890560500003 150.36988403199999,-33.726836577500002 150.36986204799999,-33.7268035735 150.36983004800001,-33.726777562500004 150.36978403200001,-33.726757564 150.36974304,-33.726744577 150.36970604799998,-33.7267345685 150.36966704,-33.726722562 150.36961504000001,-33.72672156299999 150.36956003200001,-33.726717567 150.36950003199996,-33.726716568 150.36940003199999,-33.726716568 150.36931004799999,-33.726720564 150.36924102399999,-33.726730572500003 150.369216032,-33.726745576 150.36918403199999,-33.726768571500003 150.36915004799999,-33.726778561499998 150.369137024,-33.726796562 150.369125024,-33.726836577500002 150.36909104,-33.726869563 150.369057024,-33.726873577500001 150.36903504,-33.726871561 150.36902102400001,-33.726846567499997 150.36902204799998,-33.726823572 150.369046048,-33.72678357499999 150.369069024,-33.72676156 150.36908304,-33.726719565 150.369080032,-33.726630561500002 150.369069024,-33.726578576499996 150.36904102400001,-33.726537562 150.36902102400001,-33.726511569499998 150.36898102399999,-33.726478565500003 150.36894304,-33.726457568 150.36888102399999,-33.726438568500001 150.36884902400001,-33.726421585499999 150.36881504,-33.726401587 150.36876902399996,-33.726388581500004 150.36871302399999,-33.7263845855 150.368654048,-33.726383586499999 150.36859302399998,-33.726385584500001 150.36847702399999,-33.726401587 150.368406048,-33.726428578499991 150.368336032,-33.7264535905 150.36811008000001,-33.726416590500001 150.36793907200001,-33.726391578499999 150.36776806399999,-33.726357594 150.36760006399999,-33.726314581499999 150.367436064,-33.726263614 150.36733305600001,-33.726219602500002 150.367233056,-33.726167599 150.36713305599997,-33.726114615 150.367032064,-33.726068605500004 150.36692806400001,-33.726037599500003 150.36677705599999,-33.726029607499996 150.36662006399999,-33.726051604 150.36646006399999,-33.726088604 150.366299072,-33.726126603 150.36613907200001,-33.726150597500002 150.36595705600001,-33.726166618500002 150.36577305599999,-33.726181622 150.36558905599998,-33.726189632500002 150.36541011200001,-33.726181622 150.36523609599999,-33.726150616 150.36507110400001,-33.726088622500001 150.36491308800001,-33.726000618 150.364759104,-33.725898627500001 150.36460409599999,-33.72579463899999 150.36444710399999,-33.7256996415 150.36425811199999,-33.725614634 150.36405811200001,-33.725540634 150.36386211199999,-33.725463637 150.36368508800001,-33.7253716365 150.363545088,-33.725248648499999 150.36345308799997,-33.7250976515 150.36339209600001,-33.724920643499999 150.36334908800001,-33.724729668 150.36331011199999,-33.724534659500002 150.363263072,-33.724346662500004 150.36321907199996,-33.724199661500002 150.36317705600001,-33.724051661499999 150.36313408000001,-33.723904660500004 150.36308905600001,-33.723758658500003 150.363037056,-33.723613655500003 150.363001056,-33.723504653500001 150.36296608000001,-33.7233896575 150.36292707199999,-33.723278657500003 150.36287808,-33.723180663 150.362812064,-33.723106663 150.36273408,-33.723068664 150.36264105599997,-33.723051662499998 150.36254208,-33.723041654 150.36244608000001,-33.72302666899999 150.362361056,-33.722993665 150.36224105599999,-33.722864683 150.36216006399997,-33.722661682500004 150.36210505599999,-33.722417686 150.36206406400001,-33.722160684 150.36202208,-33.721923680499998 150.36199907199997,-33.721752685 150.36199008,-33.72157667599999 150.36198102399999,-33.721402683500003 150.36195904,-33.721233686 150.361909024,-33.721077675499998 150.361842048,-33.720952671 150.36176003200001,-33.72083268 150.36166604799999,-33.720718683 150.36156403199999,-33.720612678 150.361458048,-33.720513684499998 150.36130902399998,-33.720400705 150.361144032,-33.720303691 150.36096902399998,-33.720217703 150.36079004800001,-33.720138689500004 150.36061203200001,-33.720062691499997 150.360400032,-33.719995703 150.36016902399999,-33.719949693499998 150.35994307199999,-33.719903721 150.35974505600001,-33.719835715 150.35959705600001,-33.719724715 150.35953808,-33.7196237235 150.359500064,-33.719504713 150.359468032,-33.719381725 150.35943004800001,-33.719263713499991 150.35937203200001,-33.719161723 150.35928403200001,-33.719064709 150.35917702399999,-33.718966714499999 150.35906304,-33.718883723499999 150.35895504000001,-33.718830721 150.35886403200001,-33.7188227105 150.35878707200001,-33.718871717 150.35871606399999,-33.718964716500004 150.358655072,-33.719084726 150.35860905600001,-33.71921171 150.35858208,-33.719330720500004 150.35859408,-33.719479719500001 150.35865808,-33.719634712500003 150.35866105599996,-33.719640725 150.35874905599999,-33.719794719 150.35884505600001,-33.719957722499998 150.35892006399999,-33.7201197085 150.35899305599997,-33.720318713 150.35900806399999,-33.720364722500001 150.35888707199996,-33.720328721499996 150.35876707200001,-33.720292720499998 150.35854307199997,-33.720164719 150.35835408,-33.71992174 150.35826806399999,-33.719749727 150.358216064,-33.719535737500003 150.35816406399996,-33.71947774 150.35816406399996,-33.719406737 150.358061056,-33.71929174099999 150.358061056,-33.719220738 150.35792307200001,-33.718991726500001 150.357889056,-33.71856273 150.35794006399999,-33.718391734500003 150.357949056,-33.718250727499999 150.35804304000001,-33.718048744500003 150.35804304000001,-33.71793373 150.35809504,-33.717833737500001 150.35808803200001,-33.717753743499991 150.357957024,-33.717605743500002 150.35756102400001,-33.717533741499999 150.35707904,-33.717204737499998 150.35664902400001,-33.716789727 150.356304032,-33.716389738499998 150.35618304,-33.7160177405 150.356046048,-33.715774743 150.35580403200001,-33.71554575 150.35561504,-33.7154457575 150.35546003199997,-33.715402745 150.35530604799999,-33.715416749500001 150.355202048,-33.715460761 150.35508204800001,-33.715531745500002 150.35478905599999,-33.715774761500001 150.354411072,-33.715934768 150.354187072,-33.715974765 150.353860064,-33.715960779 150.353705056,-33.715902781499999 150.35344608,-33.715745772 150.353240064,-33.71567377 150.353085056,-33.71567377 150.353083072,-33.715669774 150.35201388799996,-33.713757188500004 150.352166528,-33.713620011 150.35225868800001,-33.713506347 150.352416,-33.713212419 150.35253084799999,-33.713016652 150.35262048000001,-33.713002074 150.352684576,-33.712846563 150.35279113600001,-33.712613907 150.35329100800001,-33.711424745500004 150.353644,-33.710950757 150.35417097600001,-33.710241744500003 150.35420496,-33.710198732 150.354355328,-33.709919308 150.35414041600001,-33.70981149 150.353785088,-33.709621328499999 150.35314787199999,-33.709329898 150.35305500800001,-33.709289679 150.35278211199997,-33.709171316 150.35272595199999,-33.709153223 150.35235900800001,-33.709035008 150.35208732800001,-33.708910410500003 150.35181443199997,-33.708808161 150.35204556799999,-33.708710333 150.35207113600001,-33.708702877500002 150.35229504,-33.70863707299999 150.35256252799999,-33.708587215500003 150.35279148800001,-33.708560409 150.35302009599999,-33.708541502 150.353210176,-33.708537635500001 150.35349456,-33.708559595 150.353712,-33.70859604 150.353929088,-33.708640329 150.35426857600001,-33.708726983 150.35451193599999,-33.7088512845 150.35462704,-33.708915553499999 150.35470252799999,-33.708806736499994 150.35479273600001,-33.708674702 150.354860992,-33.708629007 150.355009792,-33.708385177 150.35599190400001,-33.707023706499996 150.356196,-33.706433334499998 150.35619852799999,-33.70638114599999 150.35622876799999,-33.705792087500001 150.35630867200001,-33.705668433500001 150.35649084799999,-33.705385679500004 150.35696784000001,-33.705151673 150.35722784000001,-33.7049536675 150.35738112000001,-33.704837543 150.356643136,-33.704738827 150.355832768,-33.704610215 150.35522112,-33.704516697499997 150.355044,-33.704500491499999 150.35480688000001,-33.7045117025 150.35256787200001,-33.703618726 150.34846787199999,-33.701948731 150.34917779200001,-33.701308742 150.34934588799999,-33.70116274 150.34952988800001,-33.700882742499999 150.34974086400001,-33.700476741500005 150.35003388800001,-33.700218740499999 150.350274848,-33.699904721499998 150.35037785599999,-33.699818715 150.350773696,-33.699618711499994 150.35095443200001,-33.699468806 150.354591008,-33.699989007500001 150.35460899199998,-33.699899005 150.354759008,-33.699145999500004 150.354907008,-33.698402003499993 150.35494300799999,-33.698222997500004 150.355007008,-33.697902004 150.35504899200001,-33.697687996 150.355232992,-33.696760998 150.35652371200001,-33.696942649499995 150.35710899200001,-33.6940710055 150.35971363199999,-33.694436584 150.35975001599999,-33.694258003500003 150.36047056000001,-33.690702544 150.362090016,-33.690932998500003 150.364672,-33.69128999299999 150.36488249600001,-33.691319186 150.365087488,-33.691347509499998 150.365171008,-33.690942008 150.36554147199999,-33.689131487 150.366782016,-33.6893059975 150.36802544,-33.6894804525 150.36922,-33.689655 150.36944601600001,-33.689688004 150.3719768,-33.690048976 150.37170944,-33.691359423500003 150.37165443200001,-33.691349433500001 150.37158601600001,-33.691681009 150.371490016,-33.692145007500002 150.371470432,-33.692243446 150.37152700799999,-33.692248996 150.37163344000001,-33.692264443500001 150.37184742400001,-33.692294432 150.37206041600001,-33.692324439 150.372275008,-33.692355001 150.372488992,-33.692386007 150.37270144,-33.692416421 150.37291542399998,-33.692446428 150.37320700799998,-33.692488996499996 150.37372499200001,-33.6925619975 150.37421040000001,-33.692630410500001 150.37469638399998,-33.69270039599999 150.37524140799999,-33.692778410500004 150.37577299200001,-33.692854001500002 150.37626438399997,-33.692924375499999 150.3761824,-33.6933293775 150.37607299199999,-33.693872001 150.37590899200001,-33.694684003 150.37586099200001,-33.694924003499999 150.375790016,-33.695275004 150.37568300800001,-33.695805991 150.37566041599999,-33.695914401 150.375612416,-33.696146409500003 150.375577472,-33.696324398 150.37623401600001,-33.696419007 150.37715542399999,-33.69654939499999 150.37713641600001,-33.696643393500004 150.37708144000001,-33.6969144 150.37707542399997,-33.696943408 150.37702643200001,-33.697185406500004 150.37698243200001,-33.697401394 150.37694646400001,-33.6975804 150.37690899200001,-33.697758999 150.376873472,-33.697937394500002 150.37683699199999,-33.698115993500004 150.37680044800001,-33.698294407500001 150.37676444799999,-33.698473395 150.376728,-33.698651994 150.37669100799997,-33.698831 150.376655008,-33.699009007 150.376608,-33.699240997 150.37844044799999,-33.69950340099999 150.37848300799999,-33.699296996500003 150.378518464,-33.699118379 150.37855446399999,-33.698939391499998 150.37859100799997,-33.698759997 150.37867542399999,-33.698336384 150.37942342400001,-33.698442389 150.38212339200001,-33.698825339 150.38233299199999,-33.698855993500004 150.38272140800001,-33.6989103465 150.382916384,-33.698937338 150.38311136,-33.698964348 150.38330601600001,-33.698992005500003 150.383500352,-33.69901933 150.38434700799999,-33.699139006499998 150.38462336000001,-33.69917732 150.384884352,-33.69921432 150.385471008,-33.699295997500002 150.38564201599999,-33.698448993500001 150.385696,-33.698177006500003 150.385750336,-33.697906314500003 150.385806016,-33.697635992500004 150.38586,-33.6973650045 150.38591500800001,-33.69709399799999 150.38596931199999,-33.696823306 150.38602428799999,-33.696552299499999 150.38607830399999,-33.696281293 150.38612700799999,-33.696039997500002 150.386163264,-33.695861287500001 150.38655100799997,-33.693944003 150.38833123200001,-33.694196269 150.389656,-33.694384007 150.39134108799996,-33.68691922 150.397154976,-33.687767186 150.39657603200001,-33.690464171500004 150.398450016,-33.690729165500002 150.398258336,-33.691640549499994 150.398124032,-33.692349173499998 150.39981497599999,-33.691043166 150.40056,-33.6910370055 150.40230896,-33.69102215 150.402376,-33.691022002 150.402692992,-33.691554006499999 150.403941952,-33.691313118 150.40546499199999,-33.691021003 150.404841952,-33.694098108 150.40680601599999,-33.694670997499998 150.407332,-33.695357995 150.40884592,-33.696081067500003 150.408498944,-33.697891070499999 150.40500300799999,-33.696895104500001 150.40492601599999,-33.697071002500003 150.40411801600001,-33.701014999 150.40411900800001,-33.701015998 150.403996,-33.701610995 150.40282611200001,-33.700945143 150.40202499200001,-33.700373992499998 150.40187011200001,-33.700489136499996 150.40139328000001,-33.702880132 150.40123216000001,-33.703653154500003 150.39909321600001,-33.703354176 150.3975712,-33.703140205 150.39599622399999,-33.702920221500001 150.39513100799999,-33.707249998500004 150.394322176,-33.707141274 150.392976,-33.706957994500002 150.390827008,-33.706667008 150.39055536,-33.706628287500003 150.39032838399999,-33.706596282499994 150.39010140799999,-33.706564296 150.389939392,-33.706541300499993 150.38977740799999,-33.7065182865 150.389616,-33.706495994 150.38945340800001,-33.706472295499999 150.389128992,-33.706427007500004 150.38880540799997,-33.7063813125 150.38848140799996,-33.706336302 150.38815699200001,-33.706290995499998 150.38785043199996,-33.706247317 150.38750899199999,-33.706198995 150.38718499199999,-33.706154003 150.38686041599999,-33.706108326500001 150.386536,-33.706062002499991 150.386252,-33.706022005500003 150.386212,-33.706016992 150.385888448,-33.705971352500001 150.385564,-33.705926009 150.384592,-33.705788998 150.384380448,-33.705759361 150.38417001600001,-33.705730001500001 150.38449500799996,-33.704123998 150.38391145599999,-33.704043338 150.38374899199999,-33.7040210085 150.38358745599999,-33.703998364500002 150.383425472,-33.703975369 150.38326246400001,-33.703953372500003 150.382768,-33.703885995500002 150.38257347199999,-33.7038583565 150.382378464,-33.703831365 150.38218499199996,-33.703805002499998 150.38198947199999,-33.703777382 150.38186547199999,-33.703761379500001 150.38173836799999,-33.704325352 150.381377536,-33.706159405 150.38130451200001,-33.706332398500003 150.378143008,-33.705390008500004 150.37795955199999,-33.705654447500002 150.378524992,-33.705955997499998 150.37898854400001,-33.706074416 150.379139552,-33.706113414 150.37928256,-33.706150414 150.37941900800001,-33.706228003 150.37959955199997,-33.706367419 150.38006256,-33.706725412499999 150.38059756800001,-33.706807404500005 150.380586016,-33.706922992499997 150.382233536,-33.707638387499998 150.38260352,-33.707720379500003 150.38305552,-33.707829381499998 150.38493801600001,-33.70830200099999 150.385743488,-33.708503355 150.38623350399999,-33.708626343 150.386566464,-33.708709352500001 150.38661846400001,-33.7087223395 150.38720547200001,-33.708869322 150.38737347200001,-33.708909337500003 150.38902947199998,-33.709396313 150.38886,-33.710234992 150.38808051199999,-33.713833353 150.39045900799999,-33.714174992499998 150.392223008,-33.714427998499993 150.39221801599999,-33.714451993 150.39945737599996,-33.715464183499996 150.39941996799996,-33.715647740500003 150.399090016,-33.715779997 150.39901225599999,-33.715800809500003 150.398748,-33.715872996500003 150.3982824,-33.7159331955 150.39742038399999,-33.7159492165 150.39677641599999,-33.7159872155 150.39633888,-33.716047507 150.39607942399999,-33.7161172335 150.39579312000001,-33.716269525500003 150.395751424,-33.716291244499999 150.39531644799999,-33.716568263500001 150.39459347199997,-33.716927256 150.39423849600001,-33.717124281 150.393883488,-33.717275278 150.39360950400001,-33.7172992725 150.39344665600001,-33.717310557499999 150.39324048,-33.71732426599999 150.39303548800001,-33.717382300499999 150.39266652800001,-33.717499294500001 150.39212051199996,-33.717662298 150.391669312,-33.717814386500002 150.39092195200001,-33.718088427 150.390903232,-33.718095364500002 150.39056016000001,-33.718119396 150.39032291199999,-33.718174193 150.390146176,-33.7182645655 150.38996976000001,-33.71834628 150.38961011200001,-33.718390014 150.38935452800001,-33.718384612 150.389028,-33.718343486500004 150.38874288,-33.71829470199999 150.38847936,-33.7182121735 150.38832707199998,-33.718174748 150.38836380800001,-33.718303804 150.38844121599999,-33.718450768 150.388377472,-33.718534924499998 150.38820937599999,-33.718676671499992 150.38807328,-33.718776386500004 150.38783459199999,-33.718882502500001 150.387574336,-33.719022362499999 150.387357248,-33.719094623499998 150.38730217599999,-33.719221718499995 150.38728704,-33.719392344 150.387221536,-33.719527801 150.38702387199999,-33.719626165500003 150.3868464,-33.719742086499998 150.38667065600001,-33.719840358500001 150.38637913599999,-33.719992021499998 150.38630243200001,-33.720300361 150.38625923199999,-33.7206093295 150.38617968,-33.721016218499997 150.38614009599999,-33.721319156 150.386135392,-33.721353362500004 150.38613792000001,-33.721832438500002 150.38618473599999,-33.722186843 150.38625923199999,-33.722512461500003 150.3863352,-33.722781747500001 150.38644428800001,-33.723079912 150.386569568,-33.723406529500004 150.38661059200001,-33.723525244 150.38667792000001,-33.723718828 150.38675641599997,-33.723917647499995 150.38689824,-33.724244709 150.38695801599999,-33.724499583499998 150.38706889599999,-33.724741415499999 150.387244928,-33.725055064500005 150.38745625600001,-33.725313084 150.38761824,-33.725527832 150.38766793600001,-33.725579225 150.38779824,-33.725714756 150.38801209600001,-33.725902494 150.38853948799999,-33.726308125 150.3891648,-33.726653279499999 150.38943264,-33.726833821 150.38977571199999,-33.726953793500002 150.38998668799999,-33.727054322499995 150.39024768,-33.727139015500001 150.39050905600001,-33.727206152 150.39077075200001,-33.727264556500003 150.39104329599999,-33.727314247500004 150.39136944000001,-33.727338815499998 150.39175968000001,-33.727329454500001 150.39229897600001,-33.727270402500004 150.392387168,-33.727246741 150.39251136,-33.727213256 150.39276588800001,-33.727165822 150.39296857599999,-33.72709086 150.39322489599999,-33.726973052 150.39350243199999,-33.726855688 150.393732704,-33.726722506500003 150.393674688,-33.727033528500002</coordinates></LinearRing></outerBoundaryIs></Polygon>

	</Placemark>
</kml>