<?xml version="1.0" encoding="UTF-8"?>
<kml xmlns="http://www.opengis.net/kml/2.2">
	<Placemark>
		<Style>
			<LineStyle>
				<color>ff0000ff</color>
			</LineStyle>
			<PolyStyle>
				<fill>1</fill>
				<color>330000cc</color>
			</PolyStyle>
		</Style>
			<ExtendedData><SchemaData>
		<SimpleData name="STATE_2006">1</SimpleData>
		<SimpleData name="POA_2006">2410</SimpleData>
	</SchemaData></ExtendedData>
      <Polygon><outerBoundaryIs><LinearRing><coordinates>150.78183651200001,-28.901553635 150.78213267199999,-28.901694771500001 150.782599648,-28.901929777 150.783354624,-28.902196787499996 150.78407264000001,-28.902493786500003 150.78407062400001,-28.902503776500005 150.78392099199999,-28.903319996500002 150.782678688,-28.910074772 150.78248169599999,-28.911146773 150.78246768,-28.911222771 150.78244870399999,-28.911327777 150.782434688,-28.911400778 150.78144576,-28.916809771 150.78014777600001,-28.916621792500003 150.77989401599999,-28.916009997500002 150.77983001600001,-28.915854005499998 150.779079776,-28.9143587985 150.77825779200001,-28.913042819499996 150.77707977599999,-28.910981808500001 150.776412,-28.909988007 150.77510700799996,-28.908048004499999 150.774556,-28.907228991 150.77045481600001,-28.893862852 150.77066780800001,-28.893902849 150.77220979200001,-28.894120853 150.77448076799999,-28.894442827 150.774790752,-28.894486838499997 150.77741968,-28.894858818 150.77757468799999,-28.895237809 150.77775670400001,-28.896046814 150.77822672,-28.897820816 150.77924470400001,-28.900011789499999 150.780393696,-28.900976805 150.781228672,-28.901263795499997 150.78183651200001,-28.901553635</coordinates></LinearRing></outerBoundaryIs></Polygon>

	</Placemark>
</kml>