<?xml version="1.0" encoding="UTF-8"?>
<kml xmlns="http://www.opengis.net/kml/2.2">
	<Placemark>
		<Style>
			<LineStyle>
				<color>ff0000ff</color>
			</LineStyle>
			<PolyStyle>
				<fill>1</fill>
				<color>330000cc</color>
			</PolyStyle>
		</Style>
			<ExtendedData><SchemaData>
		<SimpleData name="STATE_2006">1</SimpleData>
		<SimpleData name="POA_2006">2473</SimpleData>
	</SchemaData></ExtendedData>
      <Polygon><outerBoundaryIs><LinearRing><coordinates>153.451311648,-29.118745799500001 153.45139465599999,-29.1188748 153.45139500799999,-29.118946006499996 153.45133065600001,-29.119089788499998 153.45115168000001,-29.119305794499997 153.45092467200001,-29.119449817 153.45077766399999,-29.119478806500005 153.45061568,-29.119579816499996 153.45058368,-29.119737806500005 153.45060067200001,-29.119837817500002 153.45063366399998,-29.119894816 153.45071568,-29.119951814500002 153.450829664,-29.119980822500001 153.45096067200001,-29.120079797499997 153.451009664,-29.120208798 153.45094668799999,-29.120581795 153.450849664,-29.120725799 153.45070368,-29.120897793499996 153.45050966400001,-29.121098814500002 153.45046067199999,-29.121156812 153.45039667200001,-29.12134381 153.450413664,-29.1215008195 153.45052768,-29.121600812 153.45064268799999,-29.121628802500002 153.45074067199999,-29.1217147905 153.450692672,-29.121872799 153.450434016,-29.122173997500003 153.450368704,-29.12223181 153.449896704,-29.122476805499996 153.44983171199999,-29.122520817 153.44980070400001,-29.122692811499999 153.44975171199999,-29.122806808499998 153.44967072,-29.122864806 153.44960569599999,-29.122950812500001 153.449589696,-29.123051822499999 153.449623712,-29.123237821499998 153.44964070399999,-29.123323809499997 153.449703712,-29.123409816 153.44977171199997,-29.123739819 153.45008169600001,-29.123867802 153.45022969599998,-29.1240817915 153.450377696,-29.124338793500002 153.450200704,-29.1247407985 153.45016969599999,-29.125099791 153.45017100800001,-29.125156993 153.45013769600001,-29.125242796 153.45007475199998,-29.125558794500002 153.44997772799999,-29.125730789 153.449896736,-29.1258308 153.44984873599998,-29.1259607995 153.449783744,-29.1260898 153.44971974399999,-29.126175788 153.44963900799999,-29.1262770015 153.449524736,-29.126434806500001 153.44946172799999,-29.126706812 153.44936473600001,-29.126879805500003 153.449299744,-29.127065823 153.44928473600001,-29.127252821 153.44913977600001,-29.127610814500002 153.44896176,-29.127883819 153.44891276799999,-29.127912808499996 153.44892976,-29.127984810499999 153.44886576,-29.128099806500003 153.448512768,-29.129332813 153.44851401599999,-29.1294910065 153.44849776000001,-29.129576809500005 153.44849878400001,-29.129633808 153.44849878400001,-29.129691805500002 153.44842080000001,-29.130336808 153.448421792,-29.130436819 153.44837379200001,-29.130709786500002 153.448358816,-29.130895804 153.448343808,-29.131167791 153.4483448,-29.131425792 153.44836179199999,-29.131597786500002 153.430210496,-29.129356567 153.420541152,-29.128162003500002 153.42062614400001,-29.1281369915 153.42074016000001,-29.128108002 153.420935168,-29.128078994 153.42124515200001,-29.127933972499999 153.42150416,-29.127746974500003 153.42158515200001,-29.127660986499997 153.421845152,-29.127429977 153.42207312,-29.127285973 153.42218713599999,-29.127256983500001 153.42226812800001,-29.127198986 153.42248012799999,-29.127126984 153.42257712,-29.1271119805 153.423847104,-29.126648981 153.42415609599999,-29.126475987499997 153.42435110400001,-29.126374977499999 153.42464409600001,-29.126244959499999 153.42535910399999,-29.125797962500002 153.425570048,-29.125638955 153.42587907199999,-29.125480965 153.42641606399999,-29.125334963 153.42690406400001,-29.125103953500002 153.42708307199999,-29.125002962 153.42749001600001,-29.124915956499997 153.42758803199999,-29.124900953 153.427686016,-29.124871963500002 153.42776704,-29.124799961500003 153.42791203199999,-29.124540943 153.42807401600001,-29.124339940500001 153.42848003200001,-29.123979949 153.42869104,-29.123864934500006 153.429407008,-29.123575946 153.4297,-29.123473937 153.429964,-29.123409945499997 153.430057984,-29.12338695 153.430076,-29.123309934499996 153.430239008,-29.123223946499998 153.43110195200001,-29.1229629485 153.431150976,-29.1229629485 153.43119996799999,-29.122933940500001 153.43128108799999,-29.122934033 153.43137097600001,-29.122893925 153.43124496,-29.1224559375 153.43120995199999,-29.122320943 153.431091968,-29.121867952 153.43104297599999,-29.121502947 153.43107296,-29.121117943499996 153.43114896,-29.120760949 153.42986195200001,-29.120929946499999 153.42917699200001,-29.121041002 153.42901798400001,-29.121062943 153.42898,-29.121060945 153.428928,-29.121046940500001 153.42886598399997,-29.121025943 153.428797984,-29.120996935 153.42872598400001,-29.120966946499998 153.427288992,-29.120271957 153.427144032,-29.12019496 153.42704704,-29.120143955499998 153.42703104,-29.120137961499996 153.42656601600001,-29.119877962500002 153.426570016,-29.119668968 153.42627302400001,-29.119357964499997 153.42614803199999,-29.119226966 153.42600099200001,-29.119073009 153.42586704000001,-29.118932982500002 153.42572803199999,-29.118787979499999 153.42569401599997,-29.118751978500001 153.42559801600001,-29.118648989 153.42546403200001,-29.118506983 153.42533104,-29.118365976 153.42519504000001,-29.118221972 153.42556803199997,-29.117952982 153.42549702400001,-29.117823981500003 153.42565001599999,-29.1177139805 153.42605699200001,-29.117428988 153.426188,-29.117346977499999 153.42620700800001,-29.115870992 153.42580899199999,-29.115338987499999 153.426185984,-29.115120983500002 153.42665196799999,-29.1148669785 153.426638016,-29.114788002 153.42659296,-29.114498976499998 153.42631596800001,-29.1128239865 153.42630195199999,-29.112654989 153.42629696,-29.112507988 153.42631497599999,-29.112398986 153.42635696,-29.112285988 153.426267008,-29.112221996500001 153.42502099199999,-29.111324006499999 153.42428300799997,-29.110790004 153.42392998400001,-29.110534001 153.42280499200001,-29.109718003 153.42259001599996,-29.109551003500005 153.42169801599997,-29.108925000500001 153.42064300800001,-29.108150997500001 153.42010467200001,-29.107755708 153.42027548799999,-29.107538296 153.42034768,-29.107437397 153.420492,-29.1073112825 153.42066521599997,-29.107223019 153.42078070399998,-29.107147335500002 153.42095388800001,-29.107084287499998 153.4211704,-29.107033838 153.422815904,-29.106983388500002 153.423364384,-29.106958173 153.42362300799999,-29.106974009 153.423992,-29.106875996 153.424088,-29.106843991 153.424256,-29.106779999500002 153.424507936,-29.106602991499997 153.42455993600001,-29.106566990499996 153.42412992,-29.106118994500001 153.422817952,-29.104777004500001 153.42271596800001,-29.104659011499997 153.42170496,-29.103630023 153.42133100799998,-29.1022679975 153.42139980799999,-29.101718880500002 153.42180128000001,-29.099219808 153.42474889599998,-29.099510998 153.427529824,-29.099136983499999 153.42894899199999,-29.099345996500002 153.42908784,-29.099981989500005 153.42959184,-29.099954979499998 153.429694848,-29.099948985500003 153.42980182400001,-29.099942973 153.43104780799996,-29.099874967 153.43100380800001,-29.099663956 153.432551776,-29.0998959645 153.43290377599999,-29.099947968 153.43290976,-29.099948967 153.43290976,-29.100055971 153.43282976,-29.1004149635 153.432830784,-29.100586958 153.432799776,-29.100829955500004 153.432784768,-29.101087956500002 153.43288579199998,-29.101789957499996 153.4329208,-29.102219953 153.43293980799996,-29.102835947499997 153.4329248,-29.103093948499996 153.432910816,-29.103437937499997 153.432910816,-29.103523944 153.432945792,-29.1038679515 153.43296179199999,-29.103953939499998 153.432979808,-29.104125952499999 153.43301299199999,-29.104211996 153.43301299199999,-29.104282999 153.433047808,-29.104463947500005 153.433079808,-29.104626951 153.43313081599999,-29.10497094 153.433148,-29.105143008500001 153.433147808,-29.105228941 153.43325001599999,-29.1059309975 153.433282816,-29.106202947500002 153.43333382399999,-29.106545937500002 153.43333584000001,-29.106975951499997 153.43337084800001,-29.107319940499998 153.433386848,-29.107405947 153.433420832,-29.107677952499998 153.43345584,-29.108121952499999 153.43347283200001,-29.108207940499998 153.43359084799999,-29.108995948 153.433690848,-29.109367946 153.43390582399999,-29.109983940499998 153.43402182399998,-29.110441945 153.43438483200001,-29.111313924 153.43448483200001,-29.111657931499998 153.43463283200001,-29.112043934 153.434880832,-29.112558918499996 153.43497884799999,-29.112730931499996 153.435060832,-29.112816919500002 153.43511084799999,-29.112916930500003 153.43527484800001,-29.113102929500002 153.43548684800001,-29.113258921499998 153.43568284799997,-29.113344928 153.43594483199999,-29.113414932 153.43597084800001,-29.113413933 153.435997824,-29.113410917500001 153.43602384,-29.113406921499998 153.43604982400001,-29.113400927500003 153.43607584,-29.113393916 153.43612883199998,-29.113369921499999 153.43617984,-29.113334919500005 153.436322848,-29.113206918 153.43648684799999,-29.113078916500001 153.43656684800001,-29.113010929 153.43663382399998,-29.112937928 153.43667984,-29.112857934 153.43669084800001,-29.112820934 153.43671084799999,-29.112706918500002 153.43672284799996,-29.112669918499996 153.436761792,-29.112582913 153.43678579199999,-29.112540899499997 153.43681280000001,-29.112507914 153.436841792,-29.1124909125 153.43687180800001,-29.112488914500002 153.436906816,-29.112492910499999 153.436941792,-29.112502900499997 153.43696979200001,-29.112516905 153.43738380799999,-29.112620912 153.43791580800001,-29.112755906500002 153.43793779200001,-29.112773907 153.4379568,-29.112802915 153.43797180799996,-29.112838897500001 153.43798179199999,-29.112875897499997 153.437984,-29.112908994 153.437975808,-29.1129409065 153.43795798400001,-29.112972005 153.43784,-29.113107998499999 153.437651808,-29.113274905500003 153.43755580800001,-29.113370902 153.43746380799996,-29.113469914 153.43737881600001,-29.113577898499997 153.43729884800001,-29.11369591 153.43726582400001,-29.113756904500001 153.43724284800001,-29.1138209145 153.437222848,-29.11391791 153.43721884799999,-29.113983899500003 153.43733401599999,-29.114126997 153.43752982399999,-29.114240901499997 153.43764380799999,-29.114282915 153.43774179199997,-29.114282915 153.43796979199999,-29.114267911499997 153.43826380799999,-29.1142669125 153.438573792,-29.114307908500002 153.4387688,-29.114307908500002 153.439045792,-29.1142779015 153.43914380800001,-29.1142779015 153.43946979199998,-29.1142478945 153.43958380800001,-29.114275885 153.43971481599999,-29.114332883500001 153.44048278399998,-29.114745896 153.44074499199999,-29.115003009 153.441056992,-29.1152450075 153.441432,-29.1154009995 153.441692768,-29.115485896 153.442052768,-29.115685862500001 153.44216678399999,-29.115727876 153.44239577600001,-29.115855877499996 153.442559776,-29.115926862 153.44260876800001,-29.115926862 153.44267376,-29.115969874500003 153.44286976000001,-29.116040877500001 153.44311475200001,-29.116096877 153.443669728,-29.116323872 153.44376774400001,-29.116323872 153.44388275200001,-29.116380870499999 153.444077728,-29.116365867 153.444256736,-29.116336877499997 153.444922752,-29.115846849499999 153.445134752,-29.115773848499998 153.445199712,-29.115802856499997 153.445281696,-29.115930858 153.445347712,-29.116145846499997 153.44539769599996,-29.116188859 153.44551171200001,-29.116245857499997 153.445593696,-29.116316842 153.44574070399997,-29.116402848499998 153.44603472,-29.116444843500002 153.446181696,-29.116443844500001 153.44629472,-29.1164008505 153.44640969599999,-29.116399851499999 153.44650672,-29.116356857500005 153.446686016,-29.116299008 153.44699472,-29.116024838 153.447172704,-29.115880834 153.44726969599998,-29.115823835500002 153.44738368,-29.115779824 153.44746566399999,-29.115765838 153.44759568000001,-29.115793828499999 153.44766166400001,-29.115836841 153.44772768,-29.115979827499999 153.447776672,-29.11602284 153.44785900799997,-29.116137003500004 153.44808768,-29.116221826 153.44828268799998,-29.116192836500005 153.44841299199999,-29.116148991500001 153.448544,-29.116219994499996 153.44864201600001,-29.116348995 153.448690688,-29.116362833 153.44874099200001,-29.116419998 153.44870867200001,-29.116563835500003 153.448676672,-29.116663828 153.448676672,-29.116749834500002 153.44875968,-29.1168928395 153.448858016,-29.116977995 153.44898867200001,-29.117063835 153.449152672,-29.117234812 153.44926768,-29.117492813 153.44933366399999,-29.1175788195 153.44941568,-29.117821817 153.44951468799997,-29.11789282 153.44967766400001,-29.117949818499998 153.45000368,-29.117905807 153.45013468799999,-29.11797681 153.45046166399999,-29.118233812 153.45082201599996,-29.118417998 153.45087068800001,-29.118460807 153.45109964799997,-29.118545814500003 153.451311648,-29.118745799500001</coordinates></LinearRing></outerBoundaryIs></Polygon>

	</Placemark>
</kml>