<?xml version="1.0" encoding="UTF-8"?>
<kml xmlns="http://www.opengis.net/kml/2.2">
	<Placemark>
		<Style>
			<LineStyle>
				<color>ff0000ff</color>
			</LineStyle>
			<PolyStyle>
				<fill>1</fill>
				<color>330000cc</color>
			</PolyStyle>
		</Style>
			<ExtendedData><SchemaData>
		<SimpleData name="STATE_2006">1</SimpleData>
		<SimpleData name="POA_2006">2299</SimpleData>
	</SchemaData></ExtendedData>
      <Polygon><outerBoundaryIs><LinearRing><coordinates>151.725619712,-32.91524278 151.72498675200001,-32.915668779500002 151.72461475200001,-32.915838794499997 151.724221728,-32.916032785500001 151.72343875199999,-32.916418788 151.722976,-32.916645006 151.72276377599999,-32.916741779500001 151.72237801599999,-32.916912997 151.722072768,-32.917028788499998 151.721856992,-32.917101993 151.72176377599999,-32.917131796500001 151.72099878399999,-32.917353796500002 151.719936,-32.917543995 151.71988681600001,-32.917548768 151.71931980799999,-32.9175947775 151.71921500799996,-32.917602991500004 151.719,-32.917615997 151.717276,-32.917631999500003 151.71472700800001,-32.91765599399999 151.71465491199999,-32.91775175 151.71350889600001,-32.918393755499999 151.71351900799999,-32.918419008 151.71262201600001,-32.918668998500003 151.71260899200001,-32.918661006500002 151.71203494400001,-32.918082752 151.712026944,-32.918075759 151.71181692799999,-32.917578756499999 151.711552928,-32.916957748500003 151.71120294400001,-32.91704875 151.711126944,-32.917063753500003 151.71106592000001,-32.917072744500004 151.71102294399998,-32.917073743499998 151.71085500800001,-32.917055003 151.710689952,-32.917028751499998 151.71003296,-32.916921729 151.70911596799999,-32.91677273 151.70863798400001,-32.916694734 151.70841299199998,-32.916658733 151.70827798400001,-32.916644728500003 151.708257984,-32.916642730500001 151.70808099199996,-32.916628726 151.70765798400001,-32.916606008 151.707539008,-32.916591726 151.70742099200001,-32.916570728499998 151.707212992,-32.916517726 151.706808,-32.916407003499998 151.70671302400001,-32.916368727 151.70637500799998,-32.916225000499999 151.70631504,-32.916273729499999 151.70627504000001,-32.916301738500003 151.70620601600001,-32.916339737500003 151.70617001599999,-32.916358737 151.70615801599999,-32.916364731 151.70607504,-32.916405727 151.70604704,-32.9164197315 151.70602864,-32.916397809 151.705984032,-32.916344732500001 151.70591500800001,-32.916262000499998 151.70590403200001,-32.916253731 151.705805024,-32.916201727500003 151.70575100799999,-32.916185003500004 151.705716,-32.916178991 151.70562902399999,-32.916172719499997 151.70502806399998,-32.916195715 151.704950048,-32.916203707 151.70487606399999,-32.9162217075 151.70486505599999,-32.916226721 151.70480806399999,-32.916249716499998 151.704746048,-32.916287715500005 151.704692064,-32.916333706499998 151.70464505599998,-32.916389706 151.70461606399999,-32.916444706499995 151.70459507199999,-32.916507717500004 151.70445107200001,-32.917117718 151.70444006400001,-32.917186704500004 151.704435072,-32.917256708499998 151.704434048,-32.9172967055 151.70425606399999,-32.917291710500002 151.70417107199998,-32.917284717500003 151.70345804799999,-32.917201708 151.70342806400001,-32.91745171699999 151.703386048,-32.918232713 151.703374048,-32.918374719 151.70335606399999,-32.918502720500001 151.70332604800001,-32.91864271 151.703285056,-32.918794706 151.703172064,-32.919154716 151.703072064,-32.919414715 151.70294105599999,-32.919664705500004 151.70278006399997,-32.919899711 151.702487072,-32.920287711500002 151.70236707199999,-32.92045670899999 151.702261056,-32.920626705499998 151.70202707199999,-32.92107472 151.701969056,-32.921192713 151.70182406399999,-32.921161707 151.70132108799999,-32.920958706500002 151.69008329600001,-32.917451754 151.69007228800001,-32.917447758 151.69022201600001,-32.916677991500002 151.690740288,-32.914015730499997 151.69154128,-32.909900738499999 151.69154329599999,-32.909888732 151.69188928,-32.908113731 151.69202828799999,-32.907395727500003 151.69203827199999,-32.907346739499999 151.692079296,-32.907153729 151.69210128,-32.907042729 151.69210627199999,-32.907016736500005 151.692158272,-32.906757736499998 151.69215228799999,-32.906579729500002 151.692176,-32.906507006 151.69212201600001,-32.906463734500001 151.69206499200001,-32.906418002500004 151.692016,-32.906365 151.691976,-32.906309999499996 151.691948,-32.906253001 151.691935008,-32.906210007 151.691926016,-32.906164996500003 151.69192201600001,-32.906119005500003 151.691923008,-32.906073995 151.69192899199999,-32.906029003 151.691936992,-32.905995 151.691948,-32.905959998 151.69196201599999,-32.905925995 151.69197801600001,-32.905892991 151.69199801600001,-32.905862003499998 151.69201801599999,-32.905835992500002 151.69204099199999,-32.90581 151.69206601600001,-32.905786005499998 151.692092992,-32.905762991499998 151.69212099199999,-32.905741994 151.692151008,-32.905724992499998 151.692184,-32.905710007499998 151.692218016,-32.905697002 151.69225299199999,-32.905686993499998 151.692288,-32.905679001499998 151.692306272,-32.905688732500003 151.69234899200001,-32.905670991 151.692144,-32.905472005 151.691934016,-32.905298993 151.691818176,-32.905209878500003 151.691644,-32.905180001 151.69153401599999,-32.905121004500003 151.69143699200001,-32.905072997 151.69133801599997,-32.905028005 151.691236992,-32.904987009 151.69113299200001,-32.904951008 151.691028,-32.904920002 151.69092601599999,-32.904895008499999 151.69082201599997,-32.904874991500002 151.69071699200001,-32.9048580085 151.69061100799999,-32.904847001 151.690505312,-32.9048387315 151.69039932800001,-32.904825726 151.68991936,-32.904764731500002 151.68940633599999,-32.904688733500002 151.68909936,-32.904644740500004 151.68902233599999,-32.904524731 151.688909344,-32.904348740499998 151.68887936,-32.904268728 151.68852134400001,-32.903654731499998 151.688210336,-32.903120729 151.68816934399999,-32.903066727500004 151.688097376,-32.902958724499996 151.68802438399999,-32.902835736500002 151.68799337600001,-32.902740739 151.68797036800001,-32.902692731500004 151.68796739199996,-32.902660726500002 151.68796937600001,-32.902631737 151.688087392,-32.90204673 151.68838336,-32.901924741 151.68798208000001,-32.901229307500003 151.68791203199999,-32.901108003 151.68787436799997,-32.901042735 151.687713376,-32.900763736500004 151.687511392,-32.900464739500002 151.68741638399996,-32.900329726500004 151.68740236799999,-32.900309728 151.68721638400001,-32.900062734500004 151.68597840000001,-32.89855774099999 151.685961408,-32.898536725 151.68590841599999,-32.898471734499999 151.68586198400001,-32.8984160125 151.685803424,-32.898345731 151.68570540799999,-32.898226739 151.684813088,-32.897120217 151.684572608,-32.89695345799999 151.684344,-32.896786773 151.68411504,-32.896650964500004 151.68393683199997,-32.896581756 151.68378889600001,-32.896524332 151.69221500800001,-32.896798002499999 151.692182016,-32.896829008499999 151.692160992,-32.896867007499999 151.69215299199999,-32.896908003500002 151.69216,-32.896949998499998 151.69218,-32.896987997499998 151.692212,-32.8970200025 151.692236,-32.897033008 151.69225299199999,-32.897042998 151.69230099200001,-32.897055004500004 151.69235001600001,-32.897056003499998 151.692398016,-32.897043997 151.69244,-32.897022000500002 151.692472,-32.896990994500001 151.69249401600001,-32.896952995500001 151.69249500800001,-32.8969440045 151.69250099199999,-32.896911999499991 151.692556,-32.896933996 151.692688,-32.896964003 151.69287401599999,-32.896973993 151.69309900799999,-32.896988996499999 151.693304,-32.896953994499995 151.693792992,-32.896842994499998 151.693852,-32.896819999 151.69399100800001,-32.896819 151.69418,-32.896824994 151.69427401599998,-32.896833004500003 151.694388992,-32.896848008 151.694416,-32.896855001 151.69444198400001,-32.896863992 151.694467008,-32.896878995500003 151.69454300800001,-32.89693 151.694583008,-32.896968998 151.69467900800001,-32.897022999500003 151.69471900799999,-32.897033008 151.694788,-32.8970510085 151.69481100799999,-32.8970510085 151.69490201599999,-32.897052007500001 151.69493299199999,-32.897044996 151.695012,-32.897025996499998 151.69507900799999,-32.896990994500001 151.695108992,-32.896974992 151.69512700799996,-32.896958009 151.69523100800001,-32.896904007499998 151.69526,-32.896887006 151.695316,-32.896850006 151.695344,-32.896834003500004 151.69537401599999,-32.896820998 151.69539801600001,-32.896815004 151.69542201600001,-32.896811008 151.69549801599996,-32.896801998500003 151.69559100800001,-32.896783998 151.695663008,-32.896776006 151.69588198400001,-32.89677800399999 151.69610099199997,-32.896793007500001 151.69644899199997,-32.896839997500003 151.69673299199999,-32.896855001 151.697052,-32.896876997500001 151.69724099199999,-32.896896996 151.697250016,-32.896950997499999 151.697276,-32.897000004 151.69731699199997,-32.897041999 151.69737100799998,-32.897072006 151.697432,-32.897086991 151.697496,-32.897088008499999 151.69755801599999,-32.897074004 151.69761299199999,-32.897044996 151.697655008,-32.897004 151.69768300800001,-32.896954993500003 151.697872,-32.897032009 151.698248992,-32.89715899299999 151.69850323199998,-32.8972666815 151.698528224,-32.897270677500003 151.69886822399999,-32.897322681 151.698967232,-32.89733367 151.69912121599998,-32.8973436785 151.69935619200001,-32.897345676500002 151.69957817599999,-32.897329674 151.69968019199999,-32.897318685 151.69983619199999,-32.897292674 151.700958176,-32.897021649 151.70111219200001,-32.896985666499994 151.70112419199998,-32.896981652 151.703199168,-32.896481671 151.70335814399999,-32.896447668 151.70351913599998,-32.896422674500002 151.70368412799996,-32.896406672 151.703850112,-32.896400678 151.70401513600001,-32.896404674 151.70418012799999,-32.896417679500004 151.70434313600001,-32.896440675 151.704504128,-32.896473679 151.70457513599996,-32.896638680500004 151.70465612800001,-32.897616683 151.70466912000001,-32.897712679500003 151.70515808,-32.898702688500002 151.70542108800001,-32.899123693 151.70548409599996,-32.899233694 151.705537088,-32.899347691 151.70558009600001,-32.899464703500001 151.70561308799998,-32.899583695499992 151.70563008,-32.899674697 151.70563510400001,-32.899704704 151.70564608000001,-32.899826693 151.70564710400001,-32.899948700499998 151.705637088,-32.900070689499998 151.70561708799997,-32.900191698 151.70558608,-32.900311689 151.70549299199999,-32.9005429945 151.70531801600001,-32.900853998 151.705264992,-32.900987993500003 151.70517510400001,-32.901472693500004 151.70520310399999,-32.901660690499995 151.70521008,-32.901700687500004 151.70520710400001,-32.901736688500002 151.70530374399996,-32.9020286 151.7063,-32.902343007500001 151.70637299200001,-32.902366003 151.70777907199999,-32.902801715 151.70870102399996,-32.903307708500002 151.70917299199999,-32.903565006500003 151.70932102399999,-32.903619711 151.70936704,-32.903631717499998 151.70944,-32.903646998500001 151.70951302399999,-32.903653714 151.71058198399999,-32.903554720500004 151.71073900799999,-32.903594717499992 151.710803008,-32.90361072 151.71072300799997,-32.904063729500002 151.710676,-32.904300733 151.71062598399999,-32.904479739 151.710608,-32.904538994500001 151.71058598400001,-32.904615732499998 151.710576992,-32.904662741 151.710536,-32.904936726 151.71053900799998,-32.905048725 151.710531008,-32.905085725 151.71052598399999,-32.905234724 151.71052598399999,-32.905381725 151.71053398399999,-32.905605723 151.71054,-32.905674728 151.71054598399999,-32.905735741 151.710552992,-32.905770724500002 151.710564992,-32.905809926 151.71058099199999,-32.905862003499998 151.710676992,-32.906028004 151.71078598400001,-32.906164996500003 151.71080499199999,-32.906200997500001 151.710904992,-32.906304005500004 151.710968,-32.906372992 151.711039008,-32.906445993 151.71115401599999,-32.906564004499998 151.712954016,-32.908021009 151.71411699199999,-32.908962992 151.714596,-32.909322003 151.71493900799999,-32.909530997499999 151.71474700799999,-32.909835008 151.71496393599998,-32.909859742500004 151.71520892800001,-32.909894744499994 151.715438912,-32.909935759 151.715686912,-32.909998751499998 151.71593491199997,-32.910072751500003 151.71639990400001,-32.91016675 151.71664691199999,-32.910226745500005 151.716955904,-32.910288776 151.71729686399999,-32.910353766500002 151.718131008,-32.910521006499998 151.71833888,-32.910571770499999 151.71875888,-32.910699772 151.71904182399999,-32.910802761500001 151.719194848,-32.910860777499998 151.71930182400001,-32.910910764500002 151.71936499200001,-32.910939994499998 151.719826848,-32.911184768 151.71988684799996,-32.91122276699999 151.71994182399999,-32.911252774 151.72020182399999,-32.9114267665 151.72035884799999,-32.911539764499999 151.72038483200001,-32.911561761 151.720454848,-32.911616761499999 151.720532832,-32.911697773 151.720723808,-32.911916776 151.72077180799997,-32.911973774499998 151.72094099200001,-32.912221008499998 151.72111699199999,-32.912465005 151.72141398400001,-32.912859998500004 151.72152099199999,-32.912994993 151.721632992,-32.913125991500003 151.721755008,-32.913248998 151.7219,-32.9133750015 151.72205500800001,-32.913492994500004 151.722218016,-32.913604993500002 151.722384992,-32.913712996500003 151.722412,-32.913728999 151.722554016,-32.9138170035 151.722868992,-32.913989997 151.72320099199999,-32.914142992 151.72354201600001,-32.914285997 151.723884992,-32.914427004 151.724222016,-32.914575004 151.72474700799998,-32.914824994500002 151.72479699199999,-32.914849007500003 151.725084,-32.914987998 151.725619712,-32.91524278</coordinates></LinearRing></outerBoundaryIs></Polygon>

	</Placemark>
</kml>