<?xml version="1.0" encoding="UTF-8"?>
<kml xmlns="http://www.opengis.net/kml/2.2">
	<Placemark>
		<Style>
			<LineStyle>
				<color>ff0000ff</color>
			</LineStyle>
			<PolyStyle>
				<fill>1</fill>
				<color>330000cc</color>
			</PolyStyle>
		</Style>
			<ExtendedData><SchemaData>
		<SimpleData name="STATE_2006">1</SimpleData>
		<SimpleData name="POA_2006">2323</SimpleData>
	</SchemaData></ExtendedData>
      <MultiGeometry><Polygon><outerBoundaryIs><LinearRing><coordinates>151.4878688,-32.865405741 151.48800780799999,-32.865906758 151.48808579199999,-32.866070742 151.4887728,-32.867104744 151.48901180799999,-32.867360747 151.4897328,-32.867991745 151.489950816,-32.868106741 151.4901208,-32.868120745500001 151.490527808,-32.868075753500001 151.490582816,-32.868026747 151.490785792,-32.867942757 151.49108179199999,-32.867709749500001 151.491459776,-32.867397747 151.49163078399999,-32.867281752 151.49180976,-32.867073756499998 151.491976768,-32.866793722 151.49262073599999,-32.865522735 151.492728704,-32.865228733 151.49285472,-32.865063731500001 151.49309872,-32.864868723 151.49326672,-32.8645817325 151.49326672,-32.864552724500001 151.49331670399999,-32.864509730500004 151.49360070399999,-32.864343711499998 151.49381568,-32.864321715 151.49396067199999,-32.864334720500004 151.49403667199999,-32.864376715500001 151.49433568,-32.864632718499998 151.49445468799999,-32.8647037215 151.49491366399999,-32.8647877115 151.49501667199996,-32.864872719 151.495102688,-32.865057719 151.49523968,-32.865171716 151.49553667199996,-32.865234708500005 151.49634265599997,-32.865265714499998 151.49681763199999,-32.865220704 151.49694464000001,-32.86514071 151.49710464,-32.864960686499998 151.49710364800001,-32.864932696 151.49739062399999,-32.864644688 151.49744761599999,-32.864465700499998 151.497488608,-32.864171698499995 151.4975216,-32.864142690499996 151.4975216,-32.8641147 151.49780761599999,-32.8638116885 151.49799859199999,-32.863259685500005 151.49824956800001,-32.862786696 151.498365568,-32.862413699 151.49847257600001,-32.861827674499999 151.49853555199999,-32.861388669500002 151.49875353600001,-32.8610586665 151.498845536,-32.860807677 151.49890256,-32.860527679500002 151.49907056000001,-32.860276671500003 151.49939052799999,-32.859974677499999 151.49950752,-32.859809676 151.49960752000001,-32.859536671500003 151.49984252799999,-32.859241670499998 151.500106528,-32.859016655 151.500433472,-32.858815652499999 151.50062748799996,-32.858779651500001 151.50076348799999,-32.858778652499993 151.50095347199999,-32.858830656 151.501050496,-32.858860663 151.50114048,-32.85890066 151.50117148800001,-32.858914664499999 151.50139449599999,-32.859081664 151.50160448,-32.859313654 151.50167747200001,-32.859385656 151.502246496,-32.859806660499991 151.502449472,-32.859837648 151.50251744,-32.859824661 151.50270544,-32.859725649 151.502774464,-32.859641659 151.50277545599999,-32.859583661500004 151.50287846399999,-32.859470663499998 151.503020448,-32.85908566 151.50315846399999,-32.85890066 151.50319446399999,-32.8587866445 151.50321344,-32.858700638 151.50345740799997,-32.858216641 151.50363142399999,-32.8579326475 151.503842432,-32.857462636500003 151.50391142399999,-32.857405638 151.504235424,-32.857237639499992 151.50435542400001,-32.857167635499998 151.5044424,-32.857011643499995 151.50451139200001,-32.856968631 151.5045984,-32.856797635500001 151.5046864,-32.856584645 151.504979392,-32.856272642500002 151.50522038400001,-32.856046628 151.50556236799997,-32.855806627500002 151.50556336,-32.855778618500004 151.50566636799999,-32.855707615500002 151.50573436799999,-32.8556366125 151.50580435200001,-32.855537619 151.50582336,-32.855380628 151.50587536,-32.855309625 151.50632035199999,-32.855027611 151.50632134400001,-32.854999620500003 151.50635734399998,-32.854856615500005 151.50635836800001,-32.854799617 151.506326368,-32.854684621 151.506293344,-32.854626623500003 151.506248352,-32.854239622 151.50630131200001,-32.854082612500001 151.50635331199999,-32.854025614 151.50647632,-32.853726617 151.50647731199999,-32.853655614 151.50659932799999,-32.853470614 151.50680332799999,-32.853386624 151.50685433599998,-32.8533726195 151.50710931199998,-32.853347626 151.50717833599998,-32.853290627500002 151.50729632,-32.853277603500004 151.50739932799999,-32.8532505935 151.50746633599999,-32.8532505935 151.50749932799999,-32.853337599 151.50754931200001,-32.853409601 151.50759632,-32.853639593 151.50762432,-32.854025595499998 151.507654336,-32.854212612 151.507653312,-32.854298618500003 151.50770032,-32.854527611500004 151.507765312,-32.854729613 151.50789833600001,-32.8548596125 151.50796633600001,-32.854889619499993 151.50801632,-32.854946618 151.50809731199999,-32.8551486195 151.508298336,-32.855322593499999 151.508397312,-32.855452593 151.50856233599998,-32.855754605500003 151.50874633599997,-32.855900607500004 151.508881312,-32.855959604 151.50916828800001,-32.856005595 151.509454304,-32.856122607499998 151.50952128,-32.856166600500003 151.50958928,-32.856167599500004 151.50989030400001,-32.856399608 151.51012428799999,-32.856588604 151.51030928,-32.856690594500002 151.51039430399996,-32.856720601500001 151.51049430399999,-32.856779598 151.51069728,-32.856838594500005 151.51091728,-32.85684161 151.511119296,-32.856914592500004 151.51123728,-32.856930595 151.51130528,-32.856945598499998 151.511423264,-32.85698961 151.51160924800001,-32.857006593 151.511762272,-32.856936607500003 151.51189926399999,-32.856837595500004 151.51200524800001,-32.856595597 151.51210825599998,-32.856511607 151.51219526400001,-32.856354597500001 151.51218124799999,-32.856182584499997 151.51221827200001,-32.855982581 151.512202272,-32.855910579 151.51222025600001,-32.855867585 151.512221248,-32.855810586499992 151.512122272,-32.855580576 151.51209126399999,-32.855408581500001 151.51205827199999,-32.855350584 151.51205926399999,-32.8552935855 151.51202726400001,-32.855178589499999 151.51194425599996,-32.855062576 151.51171225600001,-32.8547745865 151.51166627200001,-32.854472574 151.51155027199999,-32.854299580500005 151.51150025600001,-32.854213574 151.51143827199999,-32.8538975755 151.51138924799997,-32.853767576 151.51139225599999,-32.853567591 151.51151523199997,-32.85328258 151.51161824,-32.853169582 151.51192723200001,-32.852957590500004 151.51226921599999,-32.852761583 151.51271123199999,-32.852637577499998 151.5131192,-32.8525565845 151.5132552,-32.852514589500004 151.51337420799999,-32.85245859 151.51351219200001,-32.852360577 151.51354620800001,-32.852317583 151.5136152,-32.85224658 151.513753184,-32.852076583500001 151.51375420799999,-32.852047575500002 151.51378918399996,-32.851990577 151.51382518400001,-32.851805577 151.5137792,-32.851532572499998 151.51371318400001,-32.851417558 151.51358019200001,-32.851258587499998 151.513513184,-32.85120059 151.51349820799999,-32.851085575500001 151.51351820799997,-32.850885572 151.51350220799998,-32.850842559500002 151.513369184,-32.850669566 151.5133352,-32.850668585500003 151.51325120000001,-32.8505965835 151.51315219200001,-32.8504515805 151.513054208,-32.850235574500005 151.51289420800001,-32.849589573 151.512784192,-32.849044563 151.5127192,-32.848900559 151.51265318399999,-32.848813572 151.5125352,-32.84874157 151.512502208,-32.848683572500001 151.51250419199999,-32.848582562499992 151.512491168,-32.848339565 151.51235817599996,-32.848123577500004 151.51209417600001,-32.847719574500005 151.51184217599996,-32.847559586500005 151.511793152,-32.847472581 151.51173116800001,-32.847070576 151.51173315200001,-32.846927589499998 151.51163516799997,-32.846711583500003 151.51163715199999,-32.846611591 151.511655168,-32.846526583500001 151.511914176,-32.846199577499995 151.512241152,-32.845888574 151.51239513599998,-32.845789580499996 151.51255014399999,-32.845619584 151.51261913600001,-32.8455345765 151.51270713599999,-32.8453355905 151.512759136,-32.845249584 151.51294912,-32.845065583 151.51308713599997,-32.844881582 151.51310512000001,-32.844824583499992 151.513243136,-32.844625560499999 151.513399104,-32.844440560500004 151.51360710399999,-32.844142562500004 151.513693088,-32.84404356899999 151.514018112,-32.843832558 151.51410409600001,-32.843761573500004 151.51417209600001,-32.843747569 151.51424108800001,-32.843634571 151.51436307200001,-32.843449571 151.51448406399999,-32.843321569499999 151.51487808,-32.842997560500002 151.51491408000001,-32.8429115725 151.51494806400001,-32.842883563500003 151.51496707199999,-32.842754563 151.51495408,-32.842453568 151.51490608,-32.842295559500002 151.51491305600001,-32.841880567499999 151.51493302399999,-32.841680564 151.515020032,-32.841523573 151.51521004799997,-32.841282573500003 151.515264032,-32.841054561 151.51526803199999,-32.840839572500002 151.51534003200001,-32.840582570500004 151.51547904,-32.840340572 151.51563401600001,-32.840141567499998 151.51590899199999,-32.839916570500002 151.51601299199999,-32.839745556499999 151.51601401600001,-32.839687559 151.516032,-32.839630560499998 151.516016,-32.839587566500001 151.516018016,-32.839430557 151.51603699199998,-32.839344569 151.516088,-32.83931656 151.51626,-32.839132559 151.51638,-32.83904757 151.51636300800001,-32.839033565500003 151.51653897599999,-32.838662566499998 151.51657296,-32.838620571500002 151.51677897600001,-32.838422566 151.517018976,-32.838238565 151.51741398399997,-32.837885566499999 151.517500928,-32.837800559 151.517523936,-32.837790569 151.51756892799997,-32.8377725685 151.517807936,-32.837632560499998 151.51794393599997,-32.837576561 151.51809795200001,-32.837549569499998 151.51819795200001,-32.837593562500004 151.518381952,-32.83775257 151.51856694400001,-32.837869564 151.51856492799999,-32.837998564499998 151.51854694400001,-32.838041558500002 151.51854393599999,-32.838241562 151.51850793599999,-32.838341573 151.51847395199999,-32.838384567 151.51828595200001,-32.838467558 151.51830294399997,-32.838482561500001 151.51813097600001,-32.838623568499997 151.51800896,-32.838851562500004 151.51800796800001,-32.838951573500005 151.517989984,-32.838994567500002 151.517987968,-32.839123568 151.51803696,-32.839238564 151.51810396799999,-32.839324570500004 151.51832198400001,-32.839456568 151.518405984,-32.839471553 151.518541984,-32.839472552 151.51865996800001,-32.839502540499993 151.51882796800001,-32.839576540499998 151.519013984,-32.839607546499998 151.51921795199996,-32.839537542500004 151.51935395199999,-32.839539540499999 151.51945494399999,-32.839569547499998 151.51970595200001,-32.83974354 151.519956928,-32.839961544 151.520124928,-32.840049548499998 151.52046195200001,-32.840167541500001 151.520528928,-32.840211553 151.52064694399999,-32.840255546 151.52089993600001,-32.840287551 151.52120492799997,-32.840319537500001 151.521272928,-32.840305551500002 151.52149292799999,-32.840307549500004 151.52156092800001,-32.8402805395 151.52174790399999,-32.840253548 151.522070912,-32.840142548 151.522174912,-32.84002955 151.52204192,-32.839855539 151.521790912,-32.839681546500003 151.521722912,-32.839666543 151.52163990399998,-32.839593542 151.521419904,-32.839562554499999 151.521182912,-32.839560538 151.52101392,-32.839529550500004 151.52089692800001,-32.839442545 151.52088192,-32.839313544500001 151.52095392000001,-32.839042538 151.52110691199999,-32.838986538500002 151.52131190399996,-32.838902548500002 151.521430912,-32.838875538499998 151.521566912,-32.838819539 151.52211187200001,-32.838639552499998 151.52245088000001,-32.838614540500004 151.52261987200001,-32.838631523499998 151.522925888,-32.83860653 151.523197888,-32.838523520500004 151.52335088000001,-32.838438531500003 151.52341987199998,-32.838368527500002 151.523488864,-32.838326532499998 151.523445856,-32.837795527 151.52329683199997,-32.837593525500004 151.523229856,-32.837535528 151.52316384,-32.837448522500004 151.523081856,-32.83724752 151.523173856,-32.836761525 151.523161856,-32.8364755335 151.52318083200001,-32.836317525 151.52323385599999,-32.836204527 151.52330384000001,-32.836018528 151.523206848,-32.83573052 151.52307484799999,-32.835543540499998 151.52307584,-32.83548654199999 151.52294284800001,-32.83529854499999 151.52282883199999,-32.835039545 151.52283081600001,-32.834853546 151.522901824,-32.834696555 151.522970816,-32.834582539499998 151.52303980799996,-32.834540544500001 151.52315881600001,-32.834484545 151.52331081599999,-32.8345015465 151.52341180799999,-32.834544522 151.52359782400001,-32.834604536 151.5239168,-32.834750519499998 151.52440582400001,-32.834914522 151.52482380800001,-32.83527653 151.52509379200001,-32.835337524499998 151.52517878399999,-32.835266521500003 151.525196768,-32.835223527499998 151.52524876800001,-32.835166529 151.525265792,-32.835124534 151.52530179199999,-32.835010518499999 151.525354784,-32.834895522499998 151.52535676799999,-32.834767521 151.52532476799996,-32.83460953099999 151.52532876799998,-32.834394524 151.52536377600001,-32.834280527 151.52545177600001,-32.834080523499999 151.52550377599999,-32.834009520500004 151.52550476799996,-32.8339675255 151.52553977599996,-32.833881519 151.52555878399997,-32.8337385325 151.52559376,-32.833638521499999 151.52559475199999,-32.833581523 151.52568176,-32.833410527499993 151.52573673599997,-32.833210524 151.52574275200001,-32.832767523 151.52588576,-32.832281528 151.52592073599996,-32.832210525 151.52599075200001,-32.832111531500004 151.52597475199997,-32.832039529499994 151.52600976,-32.8319395185 151.526097728,-32.831768523 151.52611571200001,-32.831711524500001 151.52616672,-32.831640521499999 151.52620272,-32.831555532499998 151.52623971200001,-32.831340525500003 151.526208704,-32.831125518500002 151.52622672000001,-32.831054534 151.52619472,-32.830967528500004 151.52617872,-32.83091053 151.52616371199997,-32.830738535500004 151.526149344,-32.830653565 151.526420992,-32.830644000500001 151.526814016,-32.830632993 151.526964,-32.830628997 151.527116992,-32.830625001 151.52772099200001,-32.830607000500002 151.528004,-32.830595993 151.52876,-32.830554997 151.529468,-32.8304520075 151.529516,-32.830438003 151.52977801599999,-32.830382003499999 151.53005500800001,-32.830306005499999 151.53033801599997,-32.830235002500004 151.530344,-32.830233004500002 151.53060201599999,-32.830147997 151.53132700800001,-32.829881005 151.5326,-32.829405999 151.53435996799999,-32.828702703 151.534332992,-32.829197004499996 151.534331552,-32.829267489499998 151.53433056,-32.829296497500003 151.53432700799999,-32.8293919945 151.53438700800001,-32.829583007 151.534606016,-32.829983994500004 151.53478201600001,-32.830385000500002 151.535012,-32.830714004500003 151.535168992,-32.831024009 151.535328,-32.831374991 151.53533401600001,-32.831387996499998 151.53547401599999,-32.8320149985 151.53556601599999,-32.832314994500003 151.53580601600001,-32.832753000499999 151.536024,-32.833187991 151.536202016,-32.833493000499992 151.536306016,-32.833672006500002 151.53657900799999,-32.834028002 151.536768,-32.834339005499999 151.537026016,-32.834777992 151.53747801599999,-32.835366995 151.53753299199997,-32.835447007500001 151.538002592,-32.83611247099999 151.53925555199999,-32.837559448499995 151.539508544,-32.837896444500004 151.539745568,-32.838297450500001 151.53978700799999,-32.838392004 151.54004,-32.838263003500003 151.54006,-32.838546997 151.54018201599999,-32.838965004500004 151.54019500799998,-32.839464005 151.54019900799997,-32.8398979965 151.5403,-32.840280003 151.54035299200001,-32.840492993499993 151.54037100799997,-32.8405619985 151.54036601600001,-32.840842995 151.540476,-32.841300000499999 151.54052099200001,-32.841861993500004 151.540674016,-32.842343992499998 151.54076,-32.842713992500002 151.540804,-32.84290800199999 151.540978016,-32.843452993500001 151.541079008,-32.843826009 151.54119299199996,-32.844090004 151.54146499199999,-32.844889999499998 151.54148,-32.844934991499997 151.541687008,-32.845408998499998 151.541810016,-32.845763995 151.54191299199999,-32.846036999500001 151.54194099200001,-32.846291004500003 151.54198512,-32.846429125499995 151.54239660799999,-32.847640431500004 151.543531616,-32.848737426 151.54454761599999,-32.849625426 151.54519158400001,-32.850113437499992 151.54542857600001,-32.850356435 151.54541158399999,-32.850406440500002 151.54547859199999,-32.850628440500003 151.54649459199999,-32.851810442500003 151.5467656,-32.852197425500002 151.54725654399996,-32.852799415500002 151.54771356800001,-32.853250408500003 151.54813654399996,-32.853773422 151.549167552,-32.854850418 151.54909254399999,-32.856308421500003 151.54921056,-32.856637425500004 151.54925254400001,-32.857060409500001 151.54922656,-32.857196421499999 151.549056544,-32.8576394225 151.549056544,-32.857926413 151.54912454399999,-32.858226409 151.54938656,-32.858964411 151.54945100800001,-32.859050991 151.54954451200001,-32.8591333715 151.549796,-32.859857998 151.549924,-32.859923007 151.55010601599997,-32.859933996 151.550268,-32.859927003 151.550536,-32.859921009 151.55079401599997,-32.859924006 151.55095500799996,-32.859944004500001 151.55102153599998,-32.859939416499998 151.55112876799998,-32.860004129499998 151.55125852800001,-32.860082421500003 151.5514936,-32.860267181 151.55184252800001,-32.860541406499991 151.55185952,-32.860584400500002 151.55276550400001,-32.861344399 151.553419488,-32.861828396 151.55368950399998,-32.862196398 151.55390048000001,-32.862390389 151.55425648,-32.862598403 151.55436649599997,-32.8627124 151.55463747199997,-32.863071392500004 151.55490844799999,-32.8633574025 151.55501244800001,-32.863574389 151.55502240000001,-32.863792004499999 151.55502646400001,-32.863880397500004 151.55511145599999,-32.863973397 151.55529747200001,-32.864109390499998 151.55558646399999,-32.864224386499998 151.55614745599996,-32.864385373499999 151.55613747199999,-32.864464387 151.556088448,-32.864839382 151.55618646400001,-32.865363376 151.55637244799999,-32.866007379500005 151.55662201600001,-32.867102006 151.556968,-32.867314996499999 151.557264992,-32.867581008 151.55774099199999,-32.868012002500002 151.558016,-32.868287005 151.55818499200001,-32.868460997500001 151.558311008,-32.868680000499999 151.558347008,-32.868789002500002 151.55838300799999,-32.868899003500005 151.5584,-32.869143 151.55840700799996,-32.869379004500004 151.55828544,-32.869788372500004 151.557911456,-32.870832383 151.55787088,-32.870977978 151.557843456,-32.871076379500003 151.55779244799999,-32.871419388 151.55779145599999,-32.8717053795 151.55785945599999,-32.872092381 151.55801945599998,-32.872514384499993 151.558138464,-32.872708375500004 151.558232608,-32.872821503 151.55653452799999,-32.881649407 151.54948966399999,-32.880659435 151.55084857599999,-32.8736274185 151.54943862399998,-32.873430412 151.549349632,-32.873418424 151.547042656,-32.873096431500002 151.54612467199999,-32.872969429 151.54386672,-32.872656446 151.541114784,-32.872275475500004 151.54089379199999,-32.873418479500003 151.540891776,-32.873429468499999 151.53938688,-32.881214490499993 151.53838892799999,-32.886419484 151.53769395200001,-32.886325485500002 151.53766195200001,-32.886507488500001 151.535573056,-32.896936512 151.53553808000001,-32.897113501500002 151.53289113599999,-32.896744519 151.53225616,-32.899873535 151.53659308799999,-32.900429515500001 151.53680764800001,-32.900457080500004 151.53669401600001,-32.9004970035 151.53650300800001,-32.900556 151.53630899199999,-32.90059799499999 151.53626601600001,-32.9006040075 151.53616201599999,-32.900617993499999 151.53604700799997,-32.900625005 151.53585801599999,-32.900569005500003 151.535544,-32.90058500799999 151.535391008,-32.900558997 151.53520201599997,-32.900578995499998 151.53500499200001,-32.900619991500001 151.534863008,-32.900646002500004 151.53460700799999,-32.900691993500004 151.53447299199999,-32.900741999 151.534335008,-32.90078199599999 151.534088,-32.900841991500002 151.53383401599999,-32.900895993 151.533588,-32.900962001 151.533334016,-32.9010160025 151.53306499199999,-32.901069005 151.53277401599996,-32.9011220075 151.53227801599999,-32.90121600599999 151.53199699199996,-32.901270007499996 151.531788,-32.901293003 151.53159398400001,-32.901328005 151.531384,-32.901425999499999 151.53127900800001,-32.901462000500004 151.531196,-32.901549006 151.53109001600001,-32.901648998500001 151.53099900799998,-32.901754004499999 151.530855008,-32.901909996499995 151.53055900800001,-32.902221999 151.53051500800001,-32.902276000500002 151.53041500800001,-32.902401005 151.530226016,-32.902573998499996 151.530020992,-32.9027920025 151.52981299199999,-32.903008008500002 151.529604992,-32.903233005499999 151.529403008,-32.903459001500003 151.529196,-32.903675007499999 151.52906099200001,-32.9038359945 151.528872,-32.904054997499998 151.528819008,-32.904116991 151.528672992,-32.90425000599999 151.528527008,-32.904406997 151.52839798400001,-32.904549003 151.528258016,-32.904678003500003 151.528108,-32.904778995 151.52803900800001,-32.904922 151.52801398400001,-32.905080008500001 151.52798,-32.905167994500005 151.52792,-32.905236999499998 151.527828,-32.905366 151.527546016,-32.905749005499999 151.52746201599999,-32.905894008499999 151.52744201600001,-32.905918003 151.527332992,-32.906029003 151.527196,-32.906118006500002 151.527144,-32.906164996500003 151.52712099199999,-32.906218998 151.527118016,-32.9062759965 151.52712099199999,-32.906326002 151.5271,-32.906387995499998 151.52685100799997,-32.906705992 151.526564992,-32.907008004499993 151.52634499199999,-32.907215001 151.52616700799996,-32.907376006500002 151.525844,-32.9076410005 151.52568099199999,-32.907783006500004 151.52556899199999,-32.907906993499992 151.52551500800001,-32.907962993 151.52548,-32.907998994 151.52541401600001,-32.908138003 151.525372,-32.908259992 151.52528300799997,-32.9083879935 151.525188,-32.908513997 151.52494899199999,-32.908733 151.524844,-32.908842002 151.524723008,-32.909105997 151.52448201600001,-32.909428008 151.524224992,-32.909723009 151.52408,-32.909839004 151.52393401599997,-32.909955998 151.52349100800001,-32.910312992500003 151.523224992,-32.91054799799999 151.52304700799996,-32.910755993500004 151.52280099199999,-32.910932002500005 151.52210499199998,-32.911343997499998 151.522075008,-32.911361998 151.52191299200001,-32.911494994500003 151.52175801600001,-32.911704007499999 151.52152,-32.911962008499998 151.521088,-32.912267998499999 151.52070700799999,-32.912524001499996 151.52040201599999,-32.912740007499998 151.52019299200001,-32.9129019935 151.520071008,-32.91299699099999 151.519835008,-32.913231996500002 151.519588,-32.913517007499998 151.51927001600001,-32.91387400199999 151.51904201599999,-32.914164008 151.51883699199996,-32.914449000499999 151.518644,-32.914733993 151.51853299199999,-32.914896996499998 151.518248,-32.915287994 151.51793699199999,-32.915616998 151.51769100800001,-32.915863991500004 151.517462016,-32.916025996 151.51744099199996,-32.916198009 151.51742099199998,-32.916337998499998 151.51738,-32.916425004 151.51711500799999,-32.916695992 151.516916,-32.916913996 151.516804992,-32.917044994500003 151.51668601599999,-32.917191995499998 151.51654201599999,-32.917432995 151.51645900799997,-32.917662006500002 151.51640899200001,-32.917785993500004 151.51637401599999,-32.917927000500001 151.516352,-32.918024995 151.516335008,-32.918099994 151.516312992,-32.918186999500001 151.516268,-32.918242999 151.516216,-32.918283995 151.51620601600001,-32.918331003500001 151.51623699199996,-32.9184139945 151.51633699199999,-32.918542995 151.516432,-32.918900008 151.516508,-32.919270008 151.51656,-32.919596995500001 151.51656700800001,-32.919911995 151.51655500800001,-32.920092999 151.51655065599999,-32.920255669500001 151.51652,-32.920540995 151.51651699199999,-32.92057699599999 151.51646700800001,-32.920818994500003 151.51639900800001,-32.921033002500003 151.51629500799996,-32.921261995500004 151.516222016,-32.921392994 151.51619299199999,-32.921530005 151.516155008,-32.921653992 151.515919008,-32.922175007500002 151.51585401599999,-32.9222949985 151.51577699200001,-32.922476002499998 151.51567500799999,-32.92261699099999 151.51563401600001,-32.922651993 151.51544201599998,-32.922819991499999 151.515208,-32.9229659935 151.5149,-32.923137007500003 151.51459801600001,-32.923235002 151.514148,-32.923297994500004 151.513956992,-32.923340008 151.51381500799999,-32.923413009 151.51387801599998,-32.923497998 151.51398,-32.923582006499998 151.514188,-32.923639005 151.514396992,-32.923677004 151.51465500800001,-32.923680001 151.51502300799999,-32.923632992500004 151.515275008,-32.923611995 151.515490016,-32.923604003 151.51568899199998,-32.923620005499998 151.515886016,-32.923670991500003 151.51604,-32.923733003500004 151.516210016,-32.923854992500004 151.516255008,-32.923916005500004 151.51631500799999,-32.923996998500002 151.516424992,-32.924183996499998 151.516524,-32.924439000500001 151.51662,-32.924734001499999 151.51675401599999,-32.925124 151.51683747199999,-32.925323929500003 151.51694499199999,-32.925515996500003 151.517031008,-32.925637005 151.51707299200001,-32.925739994499999 151.51708601600001,-32.925867996 151.51708,-32.926036993499999 151.517076992,-32.926120003 151.51702499199999,-32.926341004 151.516952992,-32.926549998500001 151.516786016,-32.926891009 151.51653001599999,-32.927366995500002 151.516502016,-32.927429007500002 151.51649500799999,-32.927506004500003 151.516524,-32.927610992 151.51655699199998,-32.928025003500004 151.51658099199997,-32.928181994500001 151.516604,-32.928277991 151.516624,-32.928376004 151.51660700799999,-32.928514994499999 151.516570016,-32.928581002500003 151.51656201599999,-32.9286540035 151.51659699199999,-32.928727004500004 151.51664774400001,-32.928790718500004 151.516668,-32.929047998 151.51666201599997,-32.929419996 151.516548,-32.929654002500001 151.516246016,-32.929992996500005 151.515995008,-32.930242006500002 151.51594867200001,-32.930281300499999 151.515612992,-32.930541003500004 151.51519100799999,-32.930751996 151.51432499200001,-32.930988999500002 151.514036,-32.931134002500002 151.513916,-32.931280004500003 151.51383699199999,-32.931440991500004 151.513812992,-32.931607991 151.513870016,-32.931723005500004 151.513970016,-32.931817004 151.51411299200001,-32.931890005 151.514392,-32.931943007499996 151.51454300799998,-32.932038005 151.51462499199999,-32.93223199599999 151.51470700799999,-32.932376 151.51490099200001,-32.932615001500004 151.51510899199999,-32.932857999 151.51541500799996,-32.933056004500003 151.51543100800001,-32.933064995500004 151.515784,-32.933281001499992 151.51587801599999,-32.9332820005 151.51600601600001,-32.933190999 151.51611401599999,-32.933066993499999 151.51619299199999,-32.933035007 151.516276,-32.933044997 151.516464,-32.933132002500002 151.516624,-32.933259005 151.516696,-32.933488997 151.51670681600001,-32.933824735 151.516648,-32.934252991500003 151.51664,-32.934314004500003 151.51653299200001,-32.934644007500005 151.516282848,-32.934998745 151.515918016,-32.935385006499999 151.515570016,-32.935773007 151.515503008,-32.935907002500002 151.515467008,-32.9360570005 151.51539401599999,-32.936206998499998 151.515256,-32.936489993 151.51516,-32.936674993 151.515148,-32.936895994 151.51523699200001,-32.937175991499991 151.515369088,-32.937437822 151.515432,-32.937652995500002 151.515468992,-32.93796100199999 151.51542899200001,-32.938289007 151.515428,-32.938382006499999 151.51542700799996,-32.938439005 151.515408,-32.9385809925 151.51539699200001,-32.938717004499999 151.51540300799999,-32.938852998 151.51544300800001,-32.938996003 151.51551801599999,-32.939104006 151.515895008,-32.939351998500001 151.516112,-32.939511006 151.51629299199999,-32.939661004 151.51642,-32.93987900799999 151.51649699199999,-32.9400830075 151.51649699199999,-32.940279995499999 151.51649699199999,-32.940384002500004 151.516416,-32.940587003 151.51627900799997,-32.940714005499999 151.51614201599998,-32.940775999 151.515895008,-32.940851997 151.51548601600001,-32.940967992 151.51528201599996,-32.941072998 151.51511001599997,-32.941170992499991 151.51495500799999,-32.9413480005 151.51486700800001,-32.941547005 151.514812,-32.941784008500001 151.514803008,-32.941825004500004 151.51476300799999,-32.942160002500003 151.514776,-32.942417004500001 151.51483401600001,-32.942511003 151.514951008,-32.942590997 151.51509401599998,-32.942643000499999 151.515508,-32.942712005499999 151.515635008,-32.942741994 151.515868896,-32.942911787 151.516086016,-32.943107998 151.51624,-32.943334993 151.516300992,-32.943424995500003 151.51649001600001,-32.943806003 151.516694016,-32.944236997499999 151.51681001599999,-32.944402998 151.51701001599997,-32.944598006500001 151.517084,-32.944734999 151.517191008,-32.944950006 151.51722201600001,-32.945107996 151.517280992,-32.945382998499994 151.517232,-32.945530998500004 151.51751801599997,-32.945900998499994 151.51763401599999,-32.946107995 151.517768,-32.946444991 151.517820992,-32.946728004 151.51778201600001,-32.947672003500003 151.51777900799999,-32.947760008 151.517756,-32.948071992 151.517728992,-32.948475995 151.517571008,-32.949463007 151.51749001600001,-32.949914 151.517447008,-32.950158995500004 151.51740899199999,-32.9504589915 151.517392992,-32.950721007 151.517426016,-32.951035007500003 151.517412,-32.951209 151.51736700800001,-32.951358998 151.51729900800001,-32.951474993 151.51718300799999,-32.951635998500002 151.51708201599999,-32.951761003 151.51704,-32.951866009 151.51703900800001,-32.951972994499997 151.517090016,-32.952057003 151.517112,-32.952062997 151.51726201599999,-32.952103993 151.51755900800001,-32.952171 151.518152,-32.9524110005 151.51829699199999,-32.952490994499996 151.51842099199999,-32.952586991 151.518610016,-32.952813005499991 151.518778016,-32.953044995500001 151.518956992,-32.953244999 151.519112,-32.953427002 151.51914099199999,-32.953461005 151.51940300800001,-32.953750992499998 151.51958300800001,-32.953988995 151.519712992,-32.954224000499998 151.51982,-32.954458007 151.51993100799996,-32.954725998 151.51999100800001,-32.954876995 151.520108,-32.955322993 151.520136,-32.955480002500003 151.520152,-32.95557100399999 151.52020198400001,-32.955778000500004 151.520228,-32.955915992 151.52028300800001,-32.956066008500002 151.52035900800001,-32.956427998 151.52038099199999,-32.956561993500003 151.52040688,-32.956796869499996 151.520378016,-32.957112997499998 151.52035001600001,-32.957388999 151.52026998400001,-32.957704997500002 151.520157856,-32.958003865 151.51983001599999,-32.958432991 151.51952300799999,-32.958788006 151.519476,-32.9588539955 151.51923001599999,-32.959193008 151.51903900799999,-32.959544008500004 151.518843008,-32.959853994500001 151.51874099200001,-32.960062008500003 151.51857001600001,-32.960424997 151.518504992,-32.960703995499998 151.518496,-32.960925995499998 151.51849299200001,-32.961010004 151.51850201600001,-32.961328000500004 151.51850099200001,-32.961592994499995 151.518483008,-32.961750004 151.51834601600001,-32.962174005500003 151.518282016,-32.962353992 151.51821100800001,-32.9625139985 151.51812499199997,-32.9626970005 151.518092,-32.962887994500001 151.518068992,-32.963062005499999 151.518055008,-32.963129993 151.517996,-32.963402997499998 151.51793001600001,-32.963723991 151.517852992,-32.964071994500003 151.517811008,-32.964294993499998 151.51772598400001,-32.964521008 151.517630016,-32.964757993 151.51756,-32.964957996500004 151.51744300799999,-32.965108993500003 151.51738,-32.965300006 151.51731801599999,-32.9654720005 151.51731500799997,-32.965639999 151.51730700799999,-32.965843998499999 151.51718700800001,-32.966047998 151.517044,-32.966205007500001 151.516896,-32.966345996 151.516756,-32.966456996 151.51637100799999,-32.966744005 151.51614201599998,-32.96686 151.51586700799999,-32.966981008499999 151.515570016,-32.96708399799999 151.515256,-32.967205006500002 151.51505500799999,-32.967263004 151.514868992,-32.967314008500004 151.51466201599999,-32.967360998499998 151.514472,-32.967412003 151.514354016,-32.967466004500004 151.51421299200001,-32.9675529915 151.513956992,-32.967587993500004 151.513756,-32.967653002500001 151.51356,-32.967726003500005 151.513418016,-32.967810992499999 151.51310998400001,-32.967994993499993 151.512516,-32.968269996 151.512264,-32.968356002500002 151.512024,-32.968382994 151.511799008,-32.968372005 151.511556,-32.968237991 151.51125401600001,-32.9680570055 151.51108499200001,-32.967933999 151.51098201600001,-32.967859999 151.510719008,-32.967760006500001 151.51049001600001,-32.967731997500003 151.51015001600001,-32.9676979945 151.50986499199999,-32.967708003 151.509544992,-32.967708003 151.50937100799999,-32.9676599955 151.509172,-32.967585995500002 151.5089,-32.967404991500004 151.508668,-32.967221009 151.508436,-32.967049995 151.508128992,-32.966878000500003 151.507796,-32.966755993 151.507449184,-32.9666160405 151.507116,-32.966435998499996 151.50671401599999,-32.9662499995 151.506462016,-32.966061003500002 151.50641001599999,-32.966020007499999 151.50624,-32.965885993500002 151.505999008,-32.965668008 151.50570201599999,-32.965511997500002 151.50537900800001,-32.965381998 151.505066016,-32.965269 151.50470300800001,-32.965162995 151.50431001600001,-32.965024004500002 151.504098016,-32.964943992 151.50385699200001,-32.964853009 151.503582016,-32.964734997500003 151.50337001599999,-32.964608994 151.50321699199998,-32.964418 151.503028,-32.964160998 151.502906016,-32.963893007 151.50287401599999,-32.963833992 151.50281100800001,-32.963714001 151.50266224000001,-32.963538066 151.502508,-32.963419999 151.50236899199996,-32.963276994 151.502148992,-32.9630240065 151.50208428799999,-32.962932061499998 151.50114128000001,-32.963915077499998 151.50053232,-32.964778084 151.50026230399999,-32.964763080499999 151.50000732800001,-32.964784096500004 151.49936233599999,-32.964898093499997 151.49873433600001,-32.965055103 151.49847699200001,-32.965122998 151.49794201599997,-32.965250000499999 151.497852,-32.965269999 151.497816992,-32.965276992 151.49742499199999,-32.965403994499994 151.49701100799999,-32.9655859975 151.49654899199999,-32.965899998 151.49594099199999,-32.966342 151.495688,-32.966556008 151.495208,-32.966962009 151.49488099199999,-32.967211000500001 151.49451001599999,-32.967488001 151.493768,-32.968128008499995 151.49320246400001,-32.968615169 151.49296099200001,-32.968916996499999 151.492784992,-32.969172999499996 151.49268998400001,-32.969380995 151.492628,-32.969582996499994 151.4926,-32.969666006 151.49252300800001,-32.969789993 151.492444992,-32.969879995500001 151.49232899200001,-32.969988997500003 151.492243008,-32.970070009 151.49075699199997,-32.971816002 151.49045900799996,-32.9721660035 151.48903900799999,-32.973544993499999 151.488495008,-32.973138992499997 151.48843500800001,-32.973094000499998 151.48814,-32.9728369985 151.487876992,-32.972602992 151.487459008,-32.9722040025 151.48700700800001,-32.971825992 151.486650016,-32.971503999500001 151.486332992,-32.971248995499998 151.485987008,-32.971037004 151.48559900799998,-32.970807992499999 151.48528601599998,-32.970599997 151.48505401599999,-32.970505998500002 151.4847,-32.970290991500001 151.48450300799999,-32.970166005499998 151.484452,-32.970134000499996 151.48418899200001,-32.96993399699999 151.48386,-32.969690999500003 151.48371100799997,-32.96959100699999 151.48357100800001,-32.96953299099999 151.483454016,-32.969509995500005 151.483362016,-32.969508996500004 151.48317900799998,-32.969521003 151.48298700800001,-32.969554007 151.48282,-32.969559002 151.48269500800001,-32.9695429995 151.48246262399999,-32.9695007085 151.48214272000001,-32.969766239 151.48036777600001,-32.968313230500002 151.47997075200001,-32.967875224499998 151.47987276800001,-32.9673512305 151.47986876799999,-32.967331232 151.47977676799999,-32.966844238 151.47951177600001,-32.966854228 151.47951075199998,-32.966849233 151.47948700800001,-32.96644400899999 151.47942,-32.965692002499999 151.479404,-32.965343999 151.479356,-32.965196998 151.47930099199999,-32.965062003500002 151.479116,-32.964700994499999 151.478950016,-32.964381 151.47883299200001,-32.96404999799999 151.47879500799999,-32.963732001499999 151.47886,-32.963343002 151.478974016,-32.962966009 151.479060992,-32.962753999 151.479264,-32.962255997500002 151.479656,-32.961349997 151.47981401600001,-32.960937003 151.47995699200001,-32.960626998500004 151.480028992,-32.960471006500001 151.48007100800001,-32.9603709955 151.48032700799999,-32.959764991 151.48060521599999,-32.958985401 151.480738016,-32.958498 151.48079801599999,-32.958202 151.48085001600001,-32.957944998 151.480895008,-32.957630997499997 151.480952992,-32.957049006 151.48095401599997,-32.956493007 151.48094499199999,-32.956347005 151.480916992,-32.955916991 151.48079699199999,-32.955044993500003 151.48065299199999,-32.954395995 151.480568,-32.954115997500004 151.480544,-32.954036003500001 151.480376992,-32.953585991 151.48013299199999,-32.952973992499999 151.47984,-32.952151001499999 151.47980700799999,-32.952059001 151.479708,-32.951760004 151.47968,-32.951677993499999 151.47954300799998,-32.951263001500003 151.479331008,-32.950651003 151.479172,-32.9501540005 151.479063008,-32.949610008 151.479,-32.949081000499994 151.47899900799999,-32.948845995 151.478996,-32.9483710075 151.47903100799996,-32.947735995 151.479062016,-32.9473410015 151.47915798400001,-32.9468230015 151.479179776,-32.946767113 151.479186016,-32.946693002 151.479216,-32.946565000500001 151.479310016,-32.946171006 151.479464,-32.94565400499999 151.479615744,-32.945285096500001 151.479671008,-32.945141 151.47993401599996,-32.944628994 151.48019100799999,-32.944185993 151.48026300800001,-32.944069998 151.480796,-32.943212005 151.48118700800001,-32.9425759935 151.481438016,-32.942045006500003 151.48154700800001,-32.941796995499999 151.48173801600001,-32.941359008 151.48193500799999,-32.940831998499995 151.482016,-32.940613994499998 151.48221900799999,-32.940011005500004 151.48225100799999,-32.939918006 151.482324992,-32.9397170035 151.48275801599999,-32.938489991 151.48281500799999,-32.938328005 151.482856,-32.938208994500002 151.48323398400001,-32.937124006499999 151.483416992,-32.936553004 151.48346899199998,-32.936311005500002 151.483543008,-32.935912996500001 151.483596,-32.935496006500003 151.48360700800001,-32.935353001499998 151.48362601599999,-32.935078998 151.483598016,-32.934708998 151.48357100800001,-32.934291009 151.483463008,-32.933861994 151.48335699200001,-32.933326992499993 151.48334300799999,-32.933115001 151.483338016,-32.933044997 151.48339100800001,-32.932686004499999 151.48345001600001,-32.932252993499993 151.48349100799999,-32.931894001 151.483496,-32.931554008 151.48347001600001,-32.931097002500003 151.483436,-32.930866992 151.483428,-32.93081500699999 151.48333299199999,-32.930357002500003 151.48324601600001,-32.9300260005 151.483082016,-32.929432002499993 151.48247500799999,-32.927233999 151.48186899199999,-32.925034996500003 151.48176998400001,-32.924677003 151.481606016,-32.924130994 151.48145299199999,-32.923672009 151.48124201600001,-32.923183997500004 151.48106201600001,-32.922890994500001 151.480984,-32.92276299299999 151.48085900800001,-32.922603005 151.480792992,-32.922517997500002 151.48067401599999,-32.92235299599999 151.48054099199996,-32.922204996 151.48020499200001,-32.921831999 151.479962016,-32.921561991499999 151.479732,-32.921241997 151.47969900799998,-32.921197005 151.47942601599999,-32.920671993500001 151.479156,-32.919978003 151.47894601600001,-32.919145003499999 151.47892899199999,-32.919080993499996 151.478756,-32.918194991500002 151.47866,-32.917559997499993 151.47862700799999,-32.916907003 151.47878,-32.916874998 151.47891801599999,-32.916855998500004 151.479048,-32.916790009 151.479154016,-32.916695992 151.479254016,-32.916521000499998 151.479428,-32.916258004500001 151.47986601599999,-32.915623991 151.48020201599999,-32.9151890005 151.48036,-32.914985001 151.480648,-32.914634999500002 151.48080899199999,-32.914462006 151.480972,-32.914327992 151.48125299200001,-32.914134001 151.48160201600001,-32.913950999 151.48171401600001,-32.913899994499999 151.481885568,-32.913824459 151.48187929599999,-32.91381495 151.48183932800001,-32.913753937 151.48126643200001,-32.912656924 151.48099644800001,-32.912396925 151.48084544,-32.912337928500001 151.48033744,-32.912260931500001 151.480102432,-32.912099926 151.48000144,-32.912041928500003 151.47986745599999,-32.911996936500003 151.47978345600001,-32.911938939 151.47964944,-32.911822925500005 151.47948144,-32.911734939500001 151.47927744,-32.911717938 151.478954464,-32.91179993 151.478886464,-32.911798931 151.47876748799999,-32.91182694 151.47839446399999,-32.911778932499999 151.47822448,-32.911819928500002 151.47820748800001,-32.911819928500002 151.47813948800001,-32.911847937499999 151.47793548800001,-32.91187393 151.477714464,-32.911856947 151.47747350399999,-32.91178294699999 151.47746249599999,-32.911710945 151.47734848,-32.911465949499998 151.47708848,-32.910760933 151.47689148800001,-32.91035693 151.47643952000001,-32.910050958500001 151.47637251200001,-32.909934945 151.476240512,-32.909761951500002 151.47619049599999,-32.909717958500003 151.476037504,-32.909687951500004 151.475872512,-32.909669951 151.47574249600001,-32.909677961500002 151.475645504,-32.909742952 151.47554851199999,-32.909887955 151.47542752,-32.910000953 151.47529849599999,-32.910097948500002 151.47517750399999,-32.910130952499998 151.47500752,-32.910130952499998 151.47486249599999,-32.910097948500002 151.47472451199999,-32.910017954499999 151.47461955200001,-32.909879944499998 151.47457952,-32.9097669465 151.47458752,-32.909637946 151.47464352,-32.909508945500001 151.47472451199999,-32.909346959499999 151.474789504,-32.909177962 151.47482752,-32.908956961 151.47491651199999,-32.908799951500001 151.47529552,-32.908446953 151.47550147199999,-32.908305927500002 151.47581148800001,-32.908022933 151.475881472,-32.907865942 151.475935488,-32.907722937 151.47593648,-32.907637929499998 151.47594147199999,-32.907626940500002 151.47598947200001,-32.907522933500005 151.47609446399997,-32.907337933500003 151.47626547199999,-32.907210931 151.476399488,-32.907047927500003 151.476466432,-32.906922941499992 151.47646044800001,-32.906921942499999 151.47502848,-32.906706935500004 151.47447100799999,-32.906346000500001 151.47422601599999,-32.906175005 151.47382899199999,-32.9066879915 151.473151008,-32.907561006500003 151.473074016,-32.907668991 151.473044,-32.907710005499993 151.47289801599999,-32.907953003 151.47276700800001,-32.908209006 151.47226700799996,-32.909144995 151.47198262399996,-32.909728929 151.47196499200001,-32.909764005 151.47163001600001,-32.910389009 151.47137699199999,-32.910841001 151.47123500800001,-32.911144993 151.47108201599997,-32.911457994500005 151.47094899199999,-32.911753994500003 151.47092700799999,-32.911802002 151.47082700799999,-32.912008998499999 151.470676,-32.9122309985 151.470636,-32.912289995 151.47054499199999,-32.912428005 151.47039401599997,-32.912640995499999 151.470215008,-32.912804998 151.469976,-32.912967002499997 151.46966899200001,-32.913154000500001 151.469371008,-32.913357001 151.46915699199999,-32.913530993500004 151.468916,-32.913739007499998 151.46878531199999,-32.913889098 151.46867500799999,-32.914013991499999 151.468426016,-32.914313007 151.468178016,-32.914599997499998 151.46792300799999,-32.914838999 151.46770499199997,-32.915023 151.46742899200001,-32.915230995500004 151.46710201600001,-32.915486998499993 151.46700300800001,-32.915559999500005 151.466859008,-32.915671998500002 151.466690016,-32.915781000500004 151.466440992,-32.915907004 151.46634,-32.915962004500003 151.466206016,-32.916051008 151.46608700799999,-32.916121992500003 151.46595699199997,-32.916178991 151.465744,-32.916249994 151.46526899199998,-32.916370003499999 151.46498300799996,-32.9164549925 151.464788,-32.916484000499999 151.46463900799998,-32.916477007499992 151.46462099199999,-32.916473992 151.464496,-32.916453993499999 151.464382016,-32.916441006500001 151.46434601600001,-32.916446001499999 151.46428700799999,-32.916449997500003 151.464148,-32.916501002 151.464036,-32.9165609975 151.463910016,-32.916634997500005 151.463842016,-32.916669999500002 151.463787008,-32.916698008499999 151.463751008,-32.916714991500001 151.463707008,-32.916735008499998 151.46364700800001,-32.916754008 151.463616,-32.916762999 151.46354,-32.916770991 151.46346499200001,-32.916728996 151.463370016,-32.91661100299999 151.46325500799998,-32.916448998500002 151.46311900800001,-32.916310008 151.46299299200001,-32.916191996500004 151.462836,-32.916018004 151.46270099200001,-32.915822995500001 151.46260700799999,-32.915664006500002 151.46245401600001,-32.915467 151.46225900799999,-32.915326992 151.462036,-32.915219007499999 151.46189801599996,-32.915165006 151.46186700799998,-32.915152999500002 151.461712992,-32.915101995 151.461584,-32.915080997499999 151.46143900800001,-32.915085992499996 151.461240992,-32.915101995 151.46108899199999,-32.915088009 151.46093699199997,-32.915027995 151.460756,-32.914942007 151.46052899200001,-32.914856000499995 151.46005100799999,-32.91477299099999 151.45945798400001,-32.914656996 151.45933500800001,-32.914632002499999 151.459056,-32.914575004 151.458731008,-32.914442007499993 151.45846601599999,-32.914309991499998 151.45830899200001,-32.914187003499997 151.45818201599999,-32.914037005499992 151.458076992,-32.913946004 151.457948,-32.913879996 151.45781100799999,-32.913872004 151.45758899200001,-32.913939991500001 151.45744099199999,-32.913989997 151.457335008,-32.913987999 151.457228,-32.913987999 151.45678099199998,-32.913993993 151.45638499200001,-32.913988998 151.455950016,-32.914028995 151.455544992,-32.914119996499998 151.45505500799999,-32.914254991 151.454764,-32.914322997 151.45460700800001,-32.914341996499999 151.45451801600001,-32.914353004 151.454250016,-32.914375999500002 151.453822016,-32.914422009 151.45354700799996,-32.914437993 151.453356,-32.914473994 151.45321801599999,-32.914491994500004 151.45298300799999,-32.914431 151.45276300800001,-32.914332006500004 151.452572992,-32.914316004 151.45237401599996,-32.914326993 151.45223001599999,-32.914274009 151.45214,-32.914175996 151.452068,-32.914136998 151.45188300800001,-32.9140380045 151.45149699199999,-32.913872004 151.45119500800001,-32.913713995500004 151.45091401600001,-32.913587992 151.450672,-32.91351499099999 151.45046499200001,-32.913518006499999 151.45011500800001,-32.913469 151.44974201599999,-32.913426006 151.449588,-32.9134199935 151.44949801600001,-32.913415997500003 151.44921500799998,-32.913438993 151.44903299200001,-32.913435996 151.44891900799999,-32.913390005 151.448784,-32.913233994500004 151.448620992,-32.912968001499998 151.44848099199996,-32.912695996 151.44829100800001,-32.91235700199999 151.448095008,-32.912153002499998 151.44788700800001,-32.911969001500005 151.44778099199996,-32.911875003 151.44733401599999,-32.911408007499993 151.44681299199999,-32.910882996 151.446188992,-32.910380998500003 151.44608601600001,-32.910305000499996 151.445922016,-32.910183992 151.44547299199999,-32.909954999 151.44525299200001,-32.909850992 151.445146016,-32.909763006 151.444998016,-32.909658999 151.44494294399999,-32.909625107 151.44454496,-32.909280100499998 151.444442944,-32.909166103499999 151.44425696,-32.908900092 151.44395296,-32.908227099 151.44380569599997,-32.908001066 151.44368195199999,-32.907811108 151.44348896,-32.907159094 151.443319968,-32.906772092499999 151.443252,-32.90651499799999 151.443240992,-32.906422997499995 151.44326499199997,-32.906251003 151.44328,-32.905990005 151.44326099199998,-32.905860005500003 151.44323500799999,-32.905817992 151.443142016,-32.9056740065 151.443008,-32.905434006 151.44277699200001,-32.90521100699999 151.442567008,-32.904978998499999 151.442396,-32.904774 151.44216,-32.904493003500001 151.44189299199996,-32.904183998 151.441648,-32.903884002 151.44148201600001,-32.903705995 151.44136,-32.903557995 151.44106499200001,-32.903230008499996 151.440984,-32.903046007499995 151.440976,-32.902894992 151.440972,-32.902806007 151.44084499199997,-32.902381006500001 151.44053699200001,-32.901854996 151.44002499199999,-32.901425999499999 151.43954300799999,-32.901078995 151.439447008,-32.901008991 151.438964992,-32.900806009 151.43893744,-32.900788693 151.438684,-32.900618992499993 151.43852201600001,-32.900320994499999 151.438444,-32.899995006 151.438332,-32.899754006500004 151.43793900799997,-32.899413995 151.43790300800001,-32.899382008499998 151.43742300799997,-32.899108005 151.43704,-32.898976007500004 151.43691491199999,-32.898858107 151.43677891199999,-32.89867910099999 151.436652928,-32.898328100499995 151.43647491199999,-32.897998097499993 151.436000928,-32.897482095500003 151.435730912,-32.897216102499996 151.43545091199999,-32.897044126499992 151.43486592,-32.8967861255 151.43471392000001,-32.896742114 151.43451891199999,-32.896628117 151.43375596800001,-32.896139125 151.43267196799999,-32.895579111499998 151.43225696,-32.895392113500002 151.43220595199998,-32.895392113500002 151.43197696,-32.895292121 151.431451968,-32.894976122500005 151.43101094400001,-32.894639145 151.43043500799999,-32.894120997 151.43033801599998,-32.894072009 151.430424,-32.893876001500004 151.430587008,-32.893565997 151.43069500799999,-32.893151005 151.43077299199999,-32.892576006500001 151.43075001599999,-32.891941993 151.430744,-32.891871008500004 151.430712992,-32.891507002499999 151.43070700800001,-32.891164993 151.430663936,-32.890815121 151.43063891200001,-32.89052111899999 151.43068192000001,-32.890056121500002 151.430732992,-32.889768002499999 151.430916,-32.889367995500002 151.431242016,-32.888896005 151.43152,-32.888490004 151.431826016,-32.888232003 151.432264,-32.887977998 151.432412992,-32.887890992500004 151.432996288,-32.887648735 151.43375699200001,-32.887418003 151.434156992,-32.887295995500004 151.43437500799999,-32.887273 151.43535801600001,-32.887338009 151.436204992,-32.887348998 151.43704601600001,-32.887308002 151.43707500799999,-32.887307003 151.43749500800001,-32.887205993 151.43787401599999,-32.887051999 151.43821299199999,-32.886845002500003 151.43834201600001,-32.886635009 151.43843100800001,-32.886352995 151.438488992,-32.886035997500002 151.43849401599996,-32.88576299299999 151.4385,-32.885729008499993 151.438528,-32.885595993500004 151.43869900799999,-32.885394991 151.43888,-32.885203997 151.43905001600001,-32.885012004 151.43933699199999,-32.8847680075 151.43964499200001,-32.88454299199999 151.43985801599999,-32.8843329985 151.44003801599999,-32.884230009 151.44032,-32.8841810025 151.440584992,-32.8840429925 151.440755008,-32.883868001 151.44091500799999,-32.883728992 151.441146016,-32.88364400299999 151.441428,-32.883700002499999 151.44167900799999,-32.883702999500002 151.44191001600001,-32.883634993500003 151.44212300800001,-32.883418007 151.442336928,-32.883261571 151.442464,-32.883122007 151.44253699199999,-32.882965996499998 151.442610016,-32.882828005 151.442704,-32.8826709955 151.44281001600001,-32.882400007500003 151.44296601600001,-32.881926999500003 151.44323900800001,-32.881319996 151.443320992,-32.881174993 151.443375008,-32.881078996500001 151.44357100799999,-32.880786992499999 151.44372899199999,-32.880461004 151.44384700799998,-32.880244998 151.443972,-32.880015006 151.444075008,-32.879798001 151.444104,-32.879700006500002 151.444116992,-32.879585991 151.44410499200001,-32.879451995499998 151.444051008,-32.879110004499999 151.444012,-32.878932996499998 151.44395401599999,-32.878806993 151.443880992,-32.878725001 151.443796,-32.878673996499998 151.443715008,-32.878652 151.44360601599999,-32.878640992500003 151.443520992,-32.878615999 151.44348300799999,-32.878567991499999 151.44347299200001,-32.878502002 151.44350300799996,-32.878448999500002 151.443632,-32.878327991 151.443768,-32.878299001499997 151.44405500799999,-32.878421009 151.44478099200001,-32.878644008 151.44490601599998,-32.878682007 151.44586700799999,-32.878993991 151.447128,-32.879331005499992 151.44731001599999,-32.879375997499999 151.448195008,-32.879595999499998 151.44893001599999,-32.8797050015 151.44987500799999,-32.879755007 151.44993398400001,-32.879754008 151.45114,-32.87973299199999 151.45209299199999,-32.879725999 151.45260899199999,-32.879733991 151.45273900800001,-32.879740003500004 151.452900992,-32.879749993499999 151.45306201599996,-32.879762999 151.453224,-32.879780000499998 151.453328,-32.879793006 151.453384,-32.879800998 151.45354300799997,-32.879824992499991 151.45371900799998,-32.879857996499993 151.45389401599999,-32.8798959955 151.454068,-32.879939008 151.45424,-32.879985998 151.45441100799997,-32.880035004500002 151.45454998400001,-32.880077998499999 151.454688,-32.880123009 151.454826016,-32.880169999 151.45509900799999,-32.880269991500001 151.45533798400001,-32.880360993 151.455456,-32.880409000500002 151.45557299199996,-32.880458007 151.455688,-32.880510991 151.45582300800001,-32.88057699899999 151.45583398400001,-32.880581994 151.45597699199999,-32.880657992 151.45611699200001,-32.880738004500003 151.45625299199997,-32.880820995500002 151.45638700800001,-32.880907002 151.45644099200001,-32.880954991 151.456479008,-32.880987995 151.456876,-32.8812679925 151.45733699199999,-32.881594998499999 151.45755801599998,-32.881747993499999 151.45779500800001,-32.881905003 151.45815299200001,-32.882135994 151.458468,-32.882351001 151.45857500799997,-32.882421005 151.458686016,-32.882485995499998 151.45879401600001,-32.882542994 151.45890601599999,-32.882596995500002 151.45899699200001,-32.882639009 151.45901900800001,-32.882648999 151.459248,-32.882745994499992 151.45938700799999,-32.882802993 151.459528,-32.882856994500003 151.45967001599999,-32.882907999 151.45981401599997,-32.882957005500003 151.45995900799997,-32.883000998500002 151.460083008,-32.883036000499999 151.460207008,-32.8830680055 151.46028899199999,-32.883087005 151.46062,-32.883152994500001 151.460952,-32.883216005500003 151.46143801599999,-32.883299995500003 151.46151900799998,-32.883313001 151.46176,-32.883351 151.46192099199999,-32.883373995500001 151.46207900799999,-32.883394993 151.462556,-32.883450992500002 151.462715008,-32.883474006500002 151.46285401599999,-32.883497002 151.46299398399998,-32.883521995500004 151.46341100799998,-32.883601009 151.46404236800001,-32.88371693 151.464212,-32.883742996500004 151.46438,-32.883770006500001 151.464548992,-32.883799995 151.464716,-32.883832999 151.46488304,-32.883866928 151.465135008,-32.883923001500001 151.46526,-32.883951991 151.465384,-32.883983996 151.465508,-32.884017 151.46559500800001,-32.884041993499999 151.465752,-32.884088003 151.46587401599999,-32.884126002 151.465992992,-32.884166998 151.46611100800001,-32.884212008499993 151.46626499199999,-32.884278997 151.46641699200001,-32.884352997 151.466564992,-32.884432991 151.46671001600001,-32.8845160005 151.466852,-32.884602007 151.46699001600001,-32.884690992 151.46712300799999,-32.884786008 151.46738499200001,-32.884979999 151.46751798400001,-32.885075995500003 151.46766099199999,-32.885177005499997 151.46780700799999,-32.885277997 151.469582016,-32.886507007500001 151.46969900799999,-32.886610996 151.470168,-32.887031001499999 151.47030700799999,-32.887209008500001 151.47036601599999,-32.887369995500002 151.470371008,-32.887587000499998 151.470436992,-32.887444994500001 151.47047801599999,-32.887269004 151.47055699200001,-32.886966991500003 151.470608,-32.886778994499998 151.470672,-32.886570999 151.47076201600001,-32.886300991500001 151.470810016,-32.886166996 151.47086201600001,-32.886033000499999 151.47091798400001,-32.885901003 151.471148992,-32.885393992 151.47142201599996,-32.884833997 151.471530016,-32.884611997 151.471900992,-32.883813999499999 151.472396992,-32.8829230025 151.47248300800001,-32.882763995 151.47257401600001,-32.882595996500001 151.47286300799999,-32.882062993 151.47328198400001,-32.881225997500003 151.47357401599999,-32.880503998 151.473646016,-32.880325991 151.47393699199998,-32.879404006500003 151.47416201600001,-32.878709997500003 151.47422499199999,-32.878512991 151.474268,-32.878381992500003 151.474628,-32.877267996500002 151.47488601599997,-32.876471997 151.47493401599999,-32.876331008500003 151.475020992,-32.876090009 151.47507001599996,-32.875963006499994 151.475178016,-32.875697994 151.47523801599996,-32.875559003500001 151.4753,-32.875419994499993 151.47536499200001,-32.875283002 151.47543401600001,-32.875148007499995 151.47550700799999,-32.8750159915 151.475584,-32.874884993 151.475664,-32.874754993499998 151.47574700800001,-32.874626992 151.475832,-32.874500008 151.47592700800001,-32.874365994 151.475999008,-32.8742689985 151.47602700799999,-32.874232997499995 151.47612899200001,-32.874101999 151.476339008,-32.873842999 151.47647001600001,-32.873691003 151.476604,-32.873541005 151.476796,-32.873327996 151.477592,-32.872455998500001 151.47964899199999,-32.872989002 151.47992102399999,-32.873057822 151.47995904000001,-32.872971815500001 151.48015900799999,-32.872512812 151.480376992,-32.872188803 151.480637984,-32.871886809 151.48108499200001,-32.8715628 151.48145596800001,-32.871209801500001 151.48180896,-32.870778807 151.482110976,-32.870340782500001 151.48245392000001,-32.86965878 151.48268694399999,-32.869041786499999 151.482820928,-32.86879779 151.48292790400001,-32.868417781499993 151.48304588799999,-32.86825278 151.48319689600001,-32.868101783 151.48357689599999,-32.867805783 151.483854912,-32.867532778499999 151.48413987199999,-32.867122763 151.484289856,-32.866764769500001 151.484323872,-32.866706772 151.48439088000001,-32.866649773500001 151.48461088,-32.86653376 151.48467785599999,-32.866461776500003 151.48471088,-32.866260774 151.48492982400001,-32.866023770499993 151.48501884800001,-32.865852775 151.48503884799999,-32.865710769 151.48510784000001,-32.865197764 151.48514982399996,-32.864930772 151.48518083199997,-32.864823768 151.48520784,-32.864697764500001 151.485324832,-32.86452577 151.485324832,-32.864482776 151.4854928,-32.864259758499998 151.485753792,-32.864036741 151.4861008,-32.863848744 151.48625379200001,-32.863833740499999 151.48643180799999,-32.863853757500003 151.4866408,-32.863912754 151.48695180799999,-32.864230750499999 151.48719081599998,-32.864357753 151.48732681600001,-32.86450775099999 151.48741379200001,-32.864671753499998 151.4877568,-32.865141746 151.4878688,-32.865405741</coordinates></LinearRing></outerBoundaryIs></Polygon><Polygon><outerBoundaryIs><LinearRing><coordinates>151.615128736,-32.777907086500001 151.614778688,-32.778065206 151.61466470400001,-32.778117209499996 151.614443712,-32.778243213 151.61379670400001,-32.7784802165 151.61359174399999,-32.778592215499998 151.613540736,-32.77860622 151.61318272,-32.778774218500004 151.61308057599999,-32.778801173 151.61260672,-32.778825204500002 151.61253872,-32.778810219500002 151.61240374399998,-32.778809220500001 151.61201472,-32.778776235 151.61187974399999,-32.778775236 151.61174275199997,-32.77884524 151.61162275199999,-32.778958238 151.61150275200001,-32.779086239500003 151.611314752,-32.779184234 151.61107776,-32.779210226499998 151.61075676799999,-32.779149232 151.61018377600001,-32.779000233 151.6097448,-32.778867236499998 151.60930678400001,-32.778776235 151.609187808,-32.778775236 151.60910278399996,-32.778788223 151.60899980799996,-32.778930229 151.608997792,-32.779045225 151.60901379200001,-32.779088237499998 151.6090288,-32.779246227500003 151.60912777600001,-32.779447193 151.60922579199999,-32.779663236 151.609322784,-32.779994238 151.60932080000001,-32.780108235 151.60928579199998,-32.780194223 151.60923478399999,-32.780207228500004 151.6092008,-32.780236236500002 151.6089968,-32.780305223 151.608690784,-32.780345238500004 151.60838678399998,-32.780327238 151.60825081600001,-32.780326239 151.60799782399999,-32.780266225 151.60759382399999,-32.780119224 151.607005824,-32.779826239500004 151.60695584000001,-32.779782228 151.60672083200001,-32.779637225 151.60650384,-32.779463232499999 151.60610384,-32.7790292225 151.60590384,-32.778755237499993 151.60572281599997,-32.778409232 151.60560582400001,-32.778293237 151.60550483200001,-32.778249225499998 151.60547081600001,-32.778277234500003 151.60547081600001,-32.77826323 151.605385856,-32.778334233 151.605350848,-32.778391231500002 151.60533187199999,-32.7785482225 151.605294848,-32.778777234 151.60525884800001,-32.778906234499992 151.60525587199999,-32.779092233500002 151.60518585599996,-32.77926223 151.60509884800001,-32.779405235 151.60487587199998,-32.77963223 151.60470585600001,-32.779687230500002 151.60450185600001,-32.779742231 151.60417987199997,-32.779767243 151.60404387200001,-32.77976624399999 151.60385788799999,-32.779778250500001 151.60372390399999,-32.779691245 151.603673888,-32.779633247500001 151.60367488,-32.779576249 151.603641888,-32.779518251500001 151.60361190399996,-32.779246246 151.60357990399999,-32.77913125 151.603529888,-32.779073252499998 151.60347888000001,-32.779058249 151.60341190400001,-32.779015255 151.60327689600001,-32.779013257 151.60291990399998,-32.7790672585 151.60273388799999,-32.779065242 151.60239590399996,-32.77901825199999 151.60227888,-32.778974259 151.60217888,-32.778873249 151.602144896,-32.778815251499999 151.60212988800001,-32.778715259 151.60209689600001,-32.778672246500001 151.602097888,-32.778614249 151.60191088,-32.778612251 151.60152089600001,-32.778680257 151.60146988799997,-32.778708247499999 151.60138390399999,-32.778779250500001 151.60138288,-32.778879243 151.60146291199999,-32.779166252 151.601478912,-32.779252258500001 151.60125692799997,-32.779407251500004 151.60113692799999,-32.7794492465 151.60108592,-32.779491241500004 151.60101792,-32.779490242500003 151.60086793599999,-32.779374247500002 151.60074992,-32.779302245499998 151.600411936,-32.779312254 151.600107936,-32.779252258500001 151.599939936,-32.779150249499999 151.59978992000001,-32.778976257 151.59970793599999,-32.778818248500002 151.59967593600001,-32.778717257 151.59965993599999,-32.778617246 151.59969792000001,-32.77831725 151.599634912,-32.778001251500001 151.59955292800001,-32.777857247500002 151.59950592,-32.777807242 151.59940291199999,-32.777698258500003 151.59920192000001,-32.777553255500003 151.598982912,-32.777464252 151.598948928,-32.777464252 151.598779936,-32.777419241499999 151.598543936,-32.777388254 151.59791996799999,-32.777210247 151.59768396800001,-32.777179241 151.59742896,-32.777190248499998 151.59674995200001,-32.777340246500003 151.596427968,-32.777366257499999 151.59630995199998,-32.777364241 151.596224992,-32.777335251499998 151.59617497599999,-32.777334252500005 151.59614099199999,-32.777312996 151.596108,-32.7772912585 151.59600697600001,-32.777261251500001 151.595872,-32.777202255 151.59575497599999,-32.777129254 151.59484598399999,-32.776733243 151.59336502400001,-32.776159243500004 151.59297702399999,-32.7760402515 151.59274201599996,-32.775981255 151.59242102399998,-32.775920242 151.59208201600001,-32.775916246 151.59191302400001,-32.775943256 151.59184502400001,-32.775942257 151.59174300800001,-32.77598425199999 151.59140201599999,-32.776152250500004 151.59073504,-32.7765892575 151.59010304,-32.776969247499999 151.59011904,-32.777012241500003 151.589914048,-32.7771392625 151.58962307199999,-32.777365277 151.58940208000001,-32.777477276 151.58899408,-32.777544264500001 151.58879107199999,-32.777571274499991 151.58831408,-32.777723270500005 151.58807609600001,-32.777807260499998 151.58797408000001,-32.77786326 151.58771712,-32.778060266499999 151.58761212799999,-32.778317268500004 151.58760912,-32.778532275499991 151.587639104,-32.778761268499998 151.58760211200001,-32.778961272 151.58746412799999,-32.779146272 151.58734412800001,-32.779216276 151.58707212799996,-32.779328275 151.58674912000001,-32.779453261 151.586290144,-32.779563262 151.58551014400001,-32.779626273 151.58444419200001,-32.779600262 151.58419017599999,-32.779583260500004 151.58392019199999,-32.779509260499999 151.583736192,-32.779392266500004 151.58368617599999,-32.779335268 151.58365318400001,-32.779277270500003 151.58358716800001,-32.779190265 151.58357017599999,-32.779162274500003 151.58347017599999,-32.779103259499998 151.58338518400001,-32.77907427 151.58304716800001,-32.779070274 151.582928192,-32.779097265499999 151.582758176,-32.779153265 151.58221321600001,-32.779390268500002 151.58202521600001,-32.779489262 151.581665216,-32.779771276 151.58159622400001,-32.779871268500003 151.5815112,-32.779941272500004 151.58123721600001,-32.78011027 151.58081024000001,-32.7803492715 151.58069123199999,-32.780434260499995 151.580551232,-32.780690263499999 151.58050025599999,-32.780747262 151.58041523200001,-32.7807602675 151.580296256,-32.780759268499999 151.58006025599997,-32.780685287 151.57990825600001,-32.780683289 151.57960224000001,-32.780809292500003 151.57951625599998,-32.780836284 151.57936425599996,-32.780849289500004 151.57931328000001,-32.78087728 151.579160288,-32.780918294500005 151.578954272,-32.781059283 151.57790128,-32.780851287499999 151.577924,-32.780748002 151.57801001600001,-32.780528 151.578067008,-32.780309996 151.578108,-32.780153005 151.57822928,-32.77968928399999 151.57839923199998,-32.778801284 151.57850624,-32.777707286500004 151.578616256,-32.776877284 151.57883321599999,-32.775755296 151.57884700799997,-32.775685995 151.5790792,-32.774565265 151.579099168,-32.774298273 151.57924617599997,-32.77374627 151.57990313600001,-32.770479262500004 151.58010614400001,-32.770207275499999 151.580200128,-32.769971271 151.580267104,-32.769699265500002 151.58028512000001,-32.769593260500002 151.58040422400001,-32.768899769500003 151.58105929600001,-32.765085902 151.58087388800001,-32.765275175500001 151.580616096,-32.765501264 151.58041907200001,-32.765637276 151.57941712,-32.766374260500001 151.57919411199998,-32.766514268500003 151.577779136,-32.76721429 151.57744668800001,-32.767434181 151.57734697599997,-32.767500244499999 151.57709315199997,-32.767778281 151.57687299199998,-32.768129004 151.57676316800001,-32.768494286500001 151.576650016,-32.769156993500005 151.57654057600001,-32.769500483 151.57639692800001,-32.770067212 151.57623900799999,-32.770475007499996 151.576064992,-32.770818904 151.57582883200001,-32.771170626 151.57558259199999,-32.771460243500002 151.57549728000001,-32.771548266499998 151.57516681600001,-32.771889628499999 151.57458217600001,-32.772343674 151.57414835200001,-32.772586856499998 151.57406412799997,-32.772638064500001 151.57373507200001,-32.772839048500003 151.57348812800001,-32.773007158 151.57329984,-32.773135326 151.57277065599996,-32.773421706 151.57246896000001,-32.773582341500003 151.572167296,-32.773742644 151.571881792,-32.7738811535 151.57145916799999,-32.774080139500001 151.570836,-32.774356992 151.57027500800001,-32.774589000500001 151.57012249599998,-32.774659911 151.56985932800001,-32.774618304500002 151.56958534399999,-32.774801306500002 151.56934838399999,-32.774856307 151.56926438400001,-32.774783306 151.56921536,-32.774682314499998 151.56918236800001,-32.774582303500004 151.569065376,-32.77448131199999 151.56906736,-32.77440931 151.56908438400001,-32.774366297500002 151.56910336000001,-32.774266305 151.56900438400001,-32.774107297500002 151.56880236800001,-32.774019311499998 151.56868438399999,-32.774004308 151.56868636799999,-32.773832313500002 151.56891033599999,-32.773562306 151.568963328,-32.7734343045 151.56883635200001,-32.772889313 151.568736352,-32.772730305499998 151.56867235199999,-32.772529303 151.56860534399999,-32.772428311500001 151.56857433600001,-32.7723133155 151.568524352,-32.772227327499998 151.56839235199999,-32.772025326 151.568342336,-32.771938320499999 151.56829235199999,-32.771880323 151.568276352,-32.77180932 151.56824435199997,-32.771751304 151.568164352,-32.771407315 151.56813635200001,-32.771005328500003 151.567970336,-32.770817331499998 151.56780035200001,-32.770816332500004 151.56764835199999,-32.770842325 151.56747932799996,-32.770841326 151.56736134399998,-32.770754320500004 151.56729532799997,-32.7706813195 151.567229344,-32.770566323499999 151.56712934399999,-32.770436324 151.566980352,-32.770219319 151.56694934399999,-32.770062328 151.56695033599999,-32.769947332 151.56688633600001,-32.769689331 151.56676934399999,-32.76958732199999 151.56668534400001,-32.769572318500003 151.566312256,-32.769596331500004 151.56624537599998,-32.769582327 151.566128384,-32.769451328500004 151.56606438399999,-32.769193327499998 151.56599936000001,-32.769049323499999 151.56591638399999,-32.768934327499998 151.565868384,-32.768888318 151.565732384,-32.768760316499993 151.56551536000001,-32.7686003285 151.56522937599996,-32.768482317 151.56485737599999,-32.768421322500004 151.56479036799999,-32.768392333 151.56479136,-32.768363325 151.56472438399996,-32.768305327500002 151.56469136000001,-32.768219321 151.56446636800001,-32.767414349 151.56446838400001,-32.767329341500002 151.564538368,-32.767143342499999 151.564797344,-32.766817317 151.56486732799999,-32.766645322500004 151.56487132799998,-32.766374316 151.564840352,-32.766230349 151.564807328,-32.766158347 151.564775328,-32.766029346499998 151.56477734399999,-32.765900346 151.56467734399999,-32.765827345 151.56310163200001,-32.765216993 151.56312220800001,-32.76511602 151.56347977599998,-32.763415592500003 151.56373334400001,-32.762209337 151.56375833600001,-32.762088347 151.56376534399999,-32.762056342 151.56400531200001,-32.761031349500001 151.56411430399996,-32.761001342500002 151.56423248,-32.760975942 151.56434304000001,-32.761301283 151.56442723200001,-32.761577747 151.56477136000001,-32.761870620499998 151.565178944,-32.762027482 151.56566944,-32.762068145 151.56620137600001,-32.762021654500003 151.56696601600001,-32.7619009975 151.56758998399999,-32.761888029 151.56806668799999,-32.761934519500002 151.56848809600001,-32.761975182500002 151.56886806399999,-32.761980991500003 151.56938924799999,-32.761915316500001 151.56989744000001,-32.761835748 151.5704472,-32.761559302500004 151.57096518399996,-32.761213297 151.571434176,-32.760796307 151.571859424,-32.760261361 151.571973152,-32.759870308 151.57207014400001,-32.759421313 151.572681536,-32.758425532 151.57308912,-32.757902666500001 151.57339033599996,-32.757576493 151.57365283199999,-32.757332496499998 151.573860064,-32.757129163 151.57404656,-32.756908384 151.57415017599999,-32.756780586 151.57432288000001,-32.756292574500002 151.574426496,-32.7557116005 151.57453008,-32.755188753500001 151.57464752000001,-32.754700742 151.57471657599999,-32.754375419500001 151.57479801599999,-32.754019997500002 151.57479312000001,-32.753708994 151.574758016,-32.75342846 151.574675136,-32.753190254 151.57460608,-32.753021774499999 151.57447481599999,-32.752882358499996 151.57426067200001,-32.752632534500002 151.57412944000001,-32.752469864 151.57402099199999,-32.7523169985 151.57382,-32.752145004 151.57356300800001,-32.751895994 151.573275008,-32.751593001 151.57318499199999,-32.751485997 151.573108,-32.751352001500003 151.57302099200001,-32.751171996499998 151.572904128,-32.750599236500001 151.57294825599996,-32.7503029035 151.573107136,-32.749814892 151.57343868800001,-32.749187464499997 151.57375411199999,-32.748800222500002 151.57387712,-32.748665209500004 151.57396368,-32.748519355500001 151.57406038400001,-32.748420602499998 151.574184704,-32.748281168 151.57436432,-32.7480255535 151.57444393599997,-32.747949981 151.574612992,-32.747711830500002 151.5748064,-32.747485261 151.57489619200001,-32.747316781500004 151.57511033599999,-32.746927541499993 151.57522086399996,-32.746718399 151.575386624,-32.746346586 151.57543497599997,-32.7461955335 151.575560096,-32.7458442 151.575605088,-32.745586199 151.57560960000001,-32.745293196 151.57569984,-32.744424103 151.57549846399999,-32.7437726255 151.57522598400001,-32.743290053 151.57511548799999,-32.743127382499999 151.57483228800001,-32.742784614500003 151.57469414400001,-32.742633580499998 151.573008864,-32.740820987500001 151.572366496,-32.740269077 151.57177248,-32.740088979500001 151.57144153600001,-32.739981568499999 151.57204515199999,-32.739771149500001 151.573400128,-32.739386164500004 151.57409312,-32.739240162500003 151.575212096,-32.739030132 151.57575408,-32.738974132500005 151.57643209599999,-32.738931138499993 151.57696508800001,-32.738925144500001 151.57773606399999,-32.738947122500001 151.578497056,-32.739034128 151.579276064,-32.739178113500003 151.580309024,-32.73940812399999 151.58057100799996,-32.739487119 151.58060502399999,-32.739516127 151.58075702400001,-32.739545116500004 151.580859008,-32.739602115 151.58093500800001,-32.7396091265 151.58148502399999,-32.739803117500003 151.58158601599999,-32.739861115 151.58215302400001,-32.740076122 151.582664,-32.740331126 151.583189984,-32.737621098 151.583416992,-32.736390108 151.58507299199999,-32.735256076500001 151.585368,-32.735140081499999 151.585392,-32.735135086500001 151.58541497600001,-32.735129092500003 151.58543798400001,-32.735122081 151.58546099200001,-32.735115088 151.585484992,-32.735108076499998 151.585532,-32.7350950895 151.585577984,-32.735082084 151.58562499199999,-32.735069078500004 151.58567097599996,-32.735055092499991 151.58571699199996,-32.735040089 151.58578297599999,-32.735015077 151.585846976,-32.7349890845 151.58591097600001,-32.734960076500002 151.58597398399999,-32.734931087 151.58603696,-32.734900081 151.58609894400001,-32.73486807599999 151.58615996799998,-32.734834091499998 151.58628096,-32.734765086499998 151.586341952,-32.734731083500002 151.58641296,-32.734693084500002 151.58648496000001,-32.734656084500003 151.58662796799999,-32.734583083499999 151.58669894400001,-32.7345460835 151.58676595200001,-32.734510082500002 151.58683296000001,-32.734474081500004 151.58689996800001,-32.7344390795 151.58696595199999,-32.734402079500001 151.58703296,-32.734366078499995 151.58707596799999,-32.734342084 151.587117952,-32.734319088500001 151.58715894400001,-32.734296074500001 151.58720396800001,-32.734271081 151.58724595199999,-32.734247086499998 151.58730496000001,-32.734213083500002 151.58736496,-32.734179080499999 151.587423968,-32.734144078500002 151.58748195199996,-32.734110075499999 151.58754096000001,-32.734075092 151.58759296,-32.734043087 151.58764496000001,-32.734011082 151.58769696,-32.733979077 151.58774896,-32.733946091500002 151.58779795199999,-32.7339130875 151.597149024,-32.738657412500004 151.59808483200001,-32.738000126 151.59848681599999,-32.7377261225 151.598628832,-32.737634122 151.59960179199999,-32.737146129 151.60158278399999,-32.736154122 151.60178601600001,-32.736018998 151.601872,-32.735961000499998 151.60229577599998,-32.735676119 151.60274476800001,-32.735293113499999 151.60327875199999,-32.734720113 151.604038016,-32.734113997500003 151.60470499199999,-32.733612999 151.604761728,-32.7335710965 151.604872992,-32.7336990055 151.604988736,-32.733854109500001 151.60503974400001,-32.734099123500002 151.60509174399999,-32.734330114500004 151.605143744,-32.734524124 151.60520774400001,-32.734627113500004 151.60531072000001,-32.734769119500001 151.60545273599996,-32.734859122 151.60569699199999,-32.734937007 151.60585174400001,-32.734988122499999 151.60597072,-32.735013116 151.606032,-32.735026991 151.606212736,-32.735129129500002 151.60634198400001,-32.735220001500004 151.60651974399997,-32.735440114500001 151.60656073600001,-32.73549012 151.60668972799999,-32.735658118499998 151.60679273599999,-32.735787119 151.60693472,-32.735902115 151.60707571200001,-32.7359801295 151.60691910400001,-32.736402947 151.60814268799999,-32.736576125500001 151.608316704,-32.73660012 151.60856870399999,-32.736635122 151.60875868799997,-32.736662113500003 151.608947712,-32.736688124499999 151.609138688,-32.736714117 151.60932668800001,-32.736741127 151.60951571199999,-32.736767119499994 151.60975465600001,-32.736801141 151.61001168000001,-32.73683714199999 151.61020467200001,-32.736864133499999 151.61042867199998,-32.736896138500001 151.61067168,-32.736930141500004 151.61097865599999,-32.736974134500002 151.61122566399999,-32.737009136499999 151.61161568,-32.737064118500001 151.61199267200001,-32.737117121 151.61299664000001,-32.737260126 151.61313862399999,-32.737279125500002 151.613023008,-32.737349999 151.61272364800001,-32.737531114 151.612695648,-32.737550113499999 151.61262864,-32.737602117 151.61255699200001,-32.737666996499996 151.612490624,-32.737735113500001 151.612436992,-32.737796996 151.612394016,-32.737854993500001 151.612312992,-32.738077992500003 151.61224899199996,-32.738383002 151.612768,-32.738454005 151.612843008,-32.738454005 151.61297664,-32.7384351165 151.61310563200001,-32.738400114500003 151.61317164799999,-32.738370126 151.61374764799999,-32.7380241205 151.61407862399997,-32.7388091125 151.614257632,-32.7387941275 151.61473161599997,-32.7387631215 151.61481500799999,-32.738772001500003 151.61672,-32.739040991499998 151.61751958400001,-32.739154100499995 151.61760700799999,-32.739025007500004 151.61772156800001,-32.738795108 151.61858358399999,-32.739107110500001 151.61842656,-32.739431101 151.618400576,-32.739478109499998 151.61717299200001,-32.741015996 151.616780992,-32.741507004499994 151.6166616,-32.741646124500001 151.616623616,-32.741689118499998 151.61649161599996,-32.741847127 151.61637859199999,-32.742021119500002 151.61579459199999,-32.743143126 151.614944,-32.744766001500004 151.61420099200001,-32.746135001500001 151.61362300799999,-32.7472020075 151.61327401599999,-32.747824995 151.61319664000001,-32.747964152 151.613116,-32.748071008 151.61296899199999,-32.748218009 151.61254300799999,-32.748662009 151.61160201600001,-32.749577999499998 151.61127267200001,-32.749899178 151.61093366399996,-32.750299185 151.61012,-32.751512008 151.60997699199999,-32.751705999 151.60989001599998,-32.751811005 151.609792,-32.751969994 151.609724992,-32.752092001500003 151.609670016,-32.752153995 151.609624,-32.752217006 151.609536,-32.75233499899999 151.609468,-32.752426999500003 151.609328,-32.752599993 151.609227008,-32.752779998 151.60914,-32.7529050025 151.60909100800001,-32.752976005500003 151.609004,-32.753139009 151.608788,-32.753495004500003 151.60804201600001,-32.7545739985 151.608002016,-32.754551003 151.607936,-32.754534001499998 151.607868,-32.754533002500004 151.60780201599999,-32.754549005 151.607744,-32.754579992499998 151.607698016,-32.754624004 151.60766899199999,-32.754675008500001 151.60765900800001,-32.754732007 151.607668,-32.754789005500001 151.60769500800001,-32.754842008 151.60774601599999,-32.754889997 151.6077,-32.754924 151.607008992,-32.755582008 151.60707369599999,-32.755626204500004 151.607326688,-32.755854217 151.61061568,-32.758614213499996 151.61271664,-32.760500196 151.614620288,-32.762108882 151.61564761599999,-32.762976199 151.6168856,-32.7640231695 151.61839523200001,-32.765304331499998 151.61845475199999,-32.765345827 151.618984576,-32.765804738 151.619643008,-32.766416736499998 151.62026220800001,-32.766968517500004 151.62056243200001,-32.767236009 151.62061603199999,-32.767282795500002 151.62038857600001,-32.767423155 151.61994656,-32.767604159 151.61987843200001,-32.767647116 151.61974156799999,-32.767702153500004 151.61958857600001,-32.767772157499998 151.619501568,-32.767915162500003 151.61950057600001,-32.767958156500001 151.61946556800001,-32.768058149 151.61946457600001,-32.768129152 151.619480576,-32.768172164500001 151.61961456,-32.768331116500001 151.61969756799999,-32.768389151 151.620032576,-32.768665152499999 151.620267584,-32.768810155499999 151.62070457600001,-32.768973159 151.62089052799999,-32.7690321555 151.62104153599998,-32.769119161 151.621324544,-32.769394163500003 151.62144252799999,-32.769496154 151.62155955200001,-32.769554151500003 151.62166054400001,-32.769584158500003 151.622013536,-32.76974516399999 151.622250528,-32.769819164 151.622350528,-32.769877143 151.622450528,-32.769993138 151.622449536,-32.770093130499994 151.62241452800001,-32.770136143 151.62231254400001,-32.770192161 151.622295552,-32.770206165499999 151.62198755200001,-32.770389149 151.62197052799999,-32.770446166 151.621865536,-32.770646151 151.621830528,-32.770760166499997 151.621811552,-32.770860159 151.62170652799998,-32.771131165500002 151.62163654400001,-32.7712591485 151.62160153599999,-32.771330151500003 151.62151555200001,-32.771444148500002 151.62146460799997,-32.771501184 151.62142953599999,-32.771557165 151.62134355200001,-32.771628149500003 151.62107056,-32.771812150500004 151.620675584,-32.77219415699999 151.62039958400001,-32.772506159500004 151.620296416,-32.7726771365 151.620244576,-32.772734153500004 151.62010358399999,-32.773076163 151.620064576,-32.773448161 151.62001056,-32.7736911585 151.61992256,-32.7739041675 151.61980259200001,-32.774046173500004 151.6195296,-32.774172177 151.61941059200001,-32.774214172 151.61934259200001,-32.774256167 151.61878160000001,-32.7744081815 151.61830460799999,-32.774589167 151.61811664,-32.77473017399999 151.617771648,-32.775142169 151.61722064,-32.77582419 151.61711664000001,-32.7759941865 151.617063648,-32.776137191499998 151.61702364800001,-32.776580192499992 151.616950624,-32.776938186 151.61689862399999,-32.776994185499994 151.61686364799999,-32.777080192 151.61670966400001,-32.777207194499994 151.61655568,-32.777291203 151.61631568000001,-32.7775041935 151.616162656,-32.777588202 151.61578867199998,-32.777699202 151.61573766399999,-32.777698203 151.61568665600001,-32.777726193500001 151.61558467200001,-32.777725194499993 151.61544867199999,-32.777795198500002 151.61534665600001,-32.777809203 151.615128736,-32.777907086500001</coordinates></LinearRing></outerBoundaryIs></Polygon></MultiGeometry>

	</Placemark>
</kml>