<?xml version="1.0" encoding="UTF-8"?>
<kml xmlns="http://www.opengis.net/kml/2.2">
	<Placemark>
		<Style>
			<LineStyle>
				<color>ff0000ff</color>
			</LineStyle>
			<PolyStyle>
				<fill>1</fill>
				<color>330000cc</color>
			</PolyStyle>
		</Style>
			<ExtendedData><SchemaData>
		<SimpleData name="STATE_2006">1</SimpleData>
		<SimpleData name="POA_2006">2776</SimpleData>
	</SchemaData></ExtendedData>
      <Polygon><outerBoundaryIs><LinearRing><coordinates>150.55911913599999,-33.688082740500001 150.55911814399997,-33.688086736500004 150.55846499200001,-33.691674996499998 150.558251232,-33.691645766500002 150.55815824000001,-33.692107767 150.55807824,-33.692503778 150.55806521599999,-33.692569767500004 150.557980224,-33.692988774 150.55793427200001,-33.693022777 150.5578712,-33.693094779 150.55782048,-33.693113427 150.55778326399999,-33.693109782500002 150.557488256,-33.693118792 150.557104256,-33.693117793 150.557027264,-33.693123787 150.55634528,-33.693188814500004 150.55614729600001,-33.693202819 150.55504528,-33.693301831 150.55475939199999,-33.693322329 150.554539328,-33.693319831499991 150.554512,-33.693496007 150.55454332799999,-33.693707832 150.55449587199999,-33.693712105499998 150.55438432,-33.693733824499994 150.554326336,-33.693741835 150.55420633599999,-33.693705852500003 150.55412131200001,-33.693675845500003 150.55404803199997,-33.693639030500002 150.55398633600001,-33.693597849500001 150.55394832,-33.693561848500003 150.553866016,-33.693463003 150.55378931199999,-33.693361845 150.55364032,-33.69320185699999 150.55359632,-33.693157845500004 150.55356419199998,-33.693130169500002 150.55349232,-33.6930778515 150.55337376,-33.693022351499998 150.55332931199999,-33.693006848499998 150.55324380799999,-33.692986258 150.553152,-33.692974566 150.55303212800001,-33.692975454 150.5514744,-33.693107858499999 150.55122636799996,-33.693130891 150.551071936,-33.693139623 150.55098934399996,-33.693133888 150.55093334399999,-33.693125877500002 150.55088147199999,-33.693114592500002 150.550804352,-33.693090894 150.5507112,-33.693049343 150.5506824,-33.69303088 150.550616512,-33.692977711 150.55055139199999,-33.69290989 150.550367392,-33.69298389 150.55030332800001,-33.69302577399999 150.550288384,-33.69303791 150.55025900800001,-33.693066992 150.55022304,-33.693113242 150.550196384,-33.693162896 150.55018339200001,-33.6932009135 150.550176384,-33.693236896 150.550173376,-33.693275912499999 150.5501784,-33.693329914 150.550187392,-33.693366914 150.55021337599996,-33.693435900499999 150.55032636799999,-33.693696269500002 150.550398016,-33.693791859 150.55056396800001,-33.69412637599999 150.55049196799999,-33.69448494299999 150.55047648,-33.694573058499998 150.55026342400001,-33.694541904499999 150.549805792,-33.694476303499997 150.549542016,-33.694448997500004 150.54949225600001,-33.694724610500003 150.54949081599997,-33.694769972499998 150.54950201599996,-33.694863009 150.54936345600001,-33.695565916500001 150.54924256000001,-33.696179413499998 150.54911712000001,-33.696076313 150.549039712,-33.695972639 150.548567456,-33.695339939 150.548013376,-33.694815963499998 150.547059456,-33.694159953499998 150.54622812799997,-33.693646948500003 150.54583545599999,-33.693381954499998 150.54555750399999,-33.693205686500001 150.545403712,-33.693109745500003 150.54512905600001,-33.692976897 150.54509376,-33.692963040499997 150.544979488,-33.692917974499998 150.544762496,-33.692852984 150.54448649599999,-33.692811988 150.544257472,-33.692784978 150.54386547199999,-33.692792988500003 150.54340947200001,-33.692880993 150.54299350400001,-33.693065012499993 150.54277235199999,-33.69320885 150.54277750399999,-33.693213012500003 150.54310150399999,-33.693497024500004 150.54325152,-33.693628023 150.54342051200001,-33.693717988499991 150.543640512,-33.693794005 150.54374352,-33.693796003 150.54391251199999,-33.693871002 150.54428352,-33.694063994 150.54438451199999,-33.6941239895 150.54538048,-33.694629983 150.54549747199999,-33.694703983 150.545730496,-33.694951975500004 150.546026496,-33.6953589755 150.546274528,-33.69567897 150.54637052800001,-33.69592498299999 150.54638252800001,-33.696082973 150.546286528,-33.696452973 150.54622652799998,-33.696766973500004 150.54615651200001,-33.696909978500003 150.54613552000001,-33.696951973499999 150.54609852799999,-33.697065970499999 150.54602054399999,-33.697378990499999 150.54597955200001,-33.697622006499998 150.545904544,-33.697849001500003 150.54573955199999,-33.698246992 150.54560659200001,-33.698702998500004 150.54556857599999,-33.698816995500003 150.54543859200001,-33.699187014 150.545228608,-33.699970008 150.54519260800001,-33.700027025 150.544912608,-33.700838028 150.54471664,-33.701121041 150.54438064000001,-33.701501031 150.544275648,-33.701584040500002 150.54404864,-33.701738053 150.54392764799999,-33.70177805 150.54380566399999,-33.701862058499998 150.54375366399998,-33.701875045500003 150.54345766399999,-33.702069055 150.54328166400001,-33.702224048 150.543212928,-33.702259679 150.54255568,-33.702083078 150.540043712,-33.701408105500001 150.53836476800001,-33.701973132499994 150.53726876799999,-33.702343151 150.53302499200001,-33.70412299899999 150.53013696,-33.705334268 150.530043968,-33.7053442765 150.52951945599997,-33.705405622500002 150.52910796800001,-33.705868862500004 150.529091776,-33.705883792 150.52903561599999,-33.705936276499997 150.52895964799998,-33.706001526 150.528880448,-33.706064426 150.528799072,-33.706124643500004 150.52871484799999,-33.70618179 150.528612256,-33.706245504 150.52850531199996,-33.706305444 150.528394816,-33.706361332500002 150.528282112,-33.706413354499993 150.52816729599999,-33.706461158499998 150.52804272,-33.70650668699999 150.527914912,-33.706546924500003 150.52778496,-33.706582925500001 150.52765356799998,-33.706615855499997 150.52752217599996,-33.706646824499991 150.52739257600001,-33.706673816 150.52726224,-33.706696867 150.526999808,-33.70673952799999 150.52693859199999,-33.706750868500002 150.52686947199999,-33.706763633500003 150.52652496,-33.706833841 150.52641120000001,-33.7068602035 150.52629888,-33.706889729499999 150.526227968,-33.706910153500004 150.52608720000001,-33.706954165 150.52594860799999,-33.707001969 150.52585753599999,-33.707036157 150.52576825599999,-33.707075303 150.525681472,-33.707118056500001 150.52559616,-33.707163418500002 150.52551264,-33.707210038500001 150.525424448,-33.707261709 150.5253384,-33.707315877 150.52525452799998,-33.70737248699999 150.5251728,-33.707431261499998 150.52509395199999,-33.707492108 150.52506697600001,-33.707513882500002 150.52501801599999,-33.707562038 150.5248992,-33.707684970500004 150.52479552,-33.707797025 150.52470227200001,-33.707895667 150.52465801599999,-33.70794236099999 150.524533088,-33.708123994 150.52441712000001,-33.708321389 150.52427113600001,-33.708603403 150.52413312,-33.708829399 150.52402115199999,-33.709047403 150.52390016000001,-33.709265407 150.523634144,-33.709798429 150.52339619199998,-33.710227425500001 150.52323920000001,-33.710458416500003 150.52304419199999,-33.710691424 150.52271920000001,-33.710982447500001 150.52234643200001,-33.711234029 150.52203523200001,-33.711463466 150.52187420800001,-33.711578462 150.521835232,-33.711632463500003 150.52168620800001,-33.71179946299999 150.52094819199999,-33.712357774499999 150.52081609599998,-33.712444613500004 150.52067747199999,-33.712526254 150.52053385599999,-33.712602122500002 150.52038624,-33.712671608500003 150.52023577599996,-33.712734231 150.520118048,-33.7127723965 150.519989888,-33.712814151 150.51973104000001,-33.712873203 150.519464992,-33.712917843500001 150.51892931200001,-33.712990197 150.518701088,-33.713017836 150.51847212800001,-33.713039166500003 150.51801203199997,-33.713075704 150.51745872000001,-33.71312916899999 150.51734243199999,-33.713140417 150.51712284800001,-33.713163449500001 150.51690432,-33.713191532499998 150.51668761600001,-33.713227256 150.516550432,-33.713254432500001 150.51641328,-33.713284051 150.51627721599999,-33.713316000500001 150.51614185599999,-33.713350466 150.51600755199996,-33.713387281 150.51587616,-33.713426075500003 150.51574547199999,-33.713467293500003 150.51561552000001,-33.7135108425 150.51548736,-33.713556667 150.51536038399999,-33.713604563499999 150.51505737599999,-33.713692586500002 150.51493529599998,-33.713718098 150.514868896,-33.713731973 150.51472937599999,-33.713760592500002 150.514188416,-33.7138886125 150.514017408,-33.7139266115 150.51376700799997,-33.714108004 150.51344940800001,-33.7143503725 150.51340742400001,-33.714375625 150.51335292799999,-33.714404374 150.513336,-33.714412995 150.51301299199997,-33.714570004500004 150.51278089600001,-33.714672291 150.51243059199999,-33.714758334500004 150.51231145599999,-33.714774263 150.51212201600001,-33.714810005 150.511930912,-33.714843305 150.51183552000001,-33.714859048500003 150.51160764799999,-33.714892626 150.51155113600001,-33.714902246 150.51143411199999,-33.714924834500003 150.51131820800001,-33.714950845499999 150.51122208,-33.714976597499998 150.511143968,-33.714999278500002 150.51110579199997,-33.715012321 150.511069088,-33.715027176500001 150.51102121599996,-33.715050024 150.51097513600001,-33.715075776 150.51093049599999,-33.715104025500004 150.510888736,-33.715134532 150.51084947199999,-33.715166851500001 150.51057408,-33.715366115 150.51046140799997,-33.7154590775 150.51022272,-33.7156559915 150.50983609599999,-33.715873440500005 150.50947609599999,-33.716040292 150.50920393600001,-33.716116715499993 150.50890835199999,-33.716161985 150.50858905600001,-33.7161862755 150.50819808,-33.716137417 150.50802025599998,-33.716098881500002 150.50783267200001,-33.716058292500001 150.507395648,-33.715916379 150.50683728000001,-33.715720797 150.50664323199999,-33.715645206 150.50632716799998,-33.715556905500002 150.50575187199999,-33.715478798500001 150.50544985600001,-33.715483553 150.505332,-33.715485995 150.50502,-33.715524956 150.504603008,-33.7155720015 150.50421500799999,-33.715599992 150.50357500800001,-33.7156030075 150.50264473600001,-33.715583730500001 150.50256265600001,-33.715586246500003 150.50218681600001,-33.715598123500001 150.50187395200001,-33.715632052499998 150.501873792,-33.715632071 150.50187363199998,-33.715631830500001 150.50134163199999,-33.715699836500001 150.50104198400001,-33.715709993 150.50005168000001,-33.715918839499992 150.49991766399998,-33.715662855 150.49927513599999,-33.715668682500002 150.49908649599999,-33.715675083500003 150.49878336,-33.7156586925 150.49852272000001,-33.715638268500001 150.49794601599999,-33.7156265765 150.49781065599998,-33.715684703500003 150.497695456,-33.715677322 150.497581696,-33.715614052 150.497479072,-33.715591741 150.49737504000001,-33.715620083 150.497724672,-33.71402486499999 150.497926656,-33.713066861 150.49796172800001,-33.712877402499998 150.49796867200001,-33.7128398475 150.497985664,-33.712745849 150.49801968,-33.712556853 150.49802166399996,-33.712547843499998 150.49834041599999,-33.710816909500004 150.49847305599999,-33.710818593 150.49870489599999,-33.710766293499994 150.49888595199999,-33.710691609 150.49902780799997,-33.710666393499999 150.499065952,-33.710659641 150.499112064,-33.710635905499998 150.499266592,-33.710660825 150.501165568,-33.710931794499999 150.50160358400001,-33.710993788 150.50207952,-33.7087067625 150.50211449599996,-33.708526757500003 150.502210496,-33.708031753 150.496945568,-33.707275824500002 150.49743555199998,-33.704920793 150.494456576,-33.704481954500004 150.49446876799999,-33.704455943500001 150.49458611200001,-33.704282524499995 150.49466064000001,-33.704131675500001 150.49451449599999,-33.703847552500001 150.49436544,-33.703668713 150.49420992,-33.70347783 150.49390320000001,-33.703268317500005 150.49375379200001,-33.703088664 150.49369043199999,-33.7030123515 150.493429088,-33.702832809 150.493250176,-33.702606535500003 150.49300681599996,-33.702214409500002 150.49277532799999,-33.701803117499999 150.49254131199999,-33.701488654500004 150.49228608000001,-33.701219905 150.49226016,-33.701192543499999 150.491908448,-33.70093371 150.49156681599999,-33.700733188499996 150.49131769600001,-33.700534461499998 150.491068192,-33.700345558 150.49076256000001,-33.700189862 150.49048758399999,-33.699974873499997 150.490319392,-33.699831036 150.49024812799999,-33.699812758 150.48989641599999,-33.699966123 150.48973907199999,-33.7000800645 150.489484576,-33.700145221500001 150.48931788799999,-33.700094901499995 150.48912457599999,-33.699985566500004 150.48891756800001,-33.699864151 150.48872208,-33.699836789500004 150.48834409599999,-33.699876213 150.48817344,-33.699791427500003 150.48813491199996,-33.699673527 150.48813961599998,-33.699509635499993 150.48817561600001,-33.699486788 150.48828252800001,-33.699418837499998 150.48852227200001,-33.699365095 150.48866521599996,-33.699274371 150.48854208,-33.699166479 150.48833292800001,-33.6991270555 150.48816624,-33.699076828 150.48797004799999,-33.699072776500003 150.48774576,-33.699079973 150.48745129599999,-33.699073942 150.48724067200001,-33.699081416 150.48715897599999,-33.699009414 150.48720540799999,-33.698858121 150.48736272,-33.698744198 150.487478272,-33.698698928500001 150.48750457599999,-33.698688476 150.48764604799999,-33.698644557 150.48763488,-33.698550595500002 150.48751033599999,-33.69848949 150.48745740800001,-33.698383022500003 150.48754236799999,-33.69834963 150.48771337599999,-33.698259368499997 150.48784259199999,-33.698156582500005 150.48781632000001,-33.698097549 150.48771948800001,-33.698048672 150.48755027199999,-33.698080344 150.48735264,-33.698134882 150.48718236799999,-33.698201759500002 150.48701353600001,-33.698221739499992 150.486973216,-33.698162336 150.48704592000001,-33.698070095 150.48703619200001,-33.697929328500003 150.48695340800001,-33.6978808215 150.486786368,-33.6978423045 150.48672227200001,-33.697836902500001 150.48660457599999,-33.697826912499998 150.486488608,-33.697667923499999 150.486364608,-33.697623930499994 150.48619961599999,-33.69757892 150.48600761599999,-33.697556923499995 150.48529059200001,-33.697488936 150.48529859199996,-33.697333943 150.485376608,-33.697102933499998 150.48539260800001,-33.696888944 150.48542761600001,-33.69684595 150.48544256,-33.695801921 150.485476576,-33.695773930500003 150.48544256,-33.695744922499998 150.48542358399999,-33.695001925500002 150.48537158400001,-33.694715915499991 150.48538755199999,-33.694214917 150.485439552,-33.694043921500004 150.48545555199999,-33.693814928500004 150.48549052800001,-33.693771916 150.48557452799997,-33.693171905500002 150.48566051200001,-33.692870910499998 150.48566051200001,-33.692770899500005 150.48571152,-33.692656902499998 150.48578051199999,-33.692341903 150.48591750400001,-33.692084901 150.485968512,-33.691869912499996 150.48600352,-33.691826881499999 150.48600249599997,-33.691754879500003 150.486037504,-33.691712884499992 150.48603651199997,-33.691640882500003 150.48613948799996,-33.691397885 150.48615648000001,-33.6911118935 150.486190464,-33.691079888499999 150.48613948799996,-33.6910118825 150.48613846399999,-33.69091189 150.48600048,-33.69062588 150.485811488,-33.690454884499992 150.48519046399997,-33.690011902 150.48477747199999,-33.689668912 150.484639488,-33.689511902500001 150.48451846399999,-33.689268905 150.48446646400001,-33.689083905 150.48422448,-33.688682899 150.48372448000001,-33.688297895499993 150.483466464,-33.6881689135 150.483379488,-33.688097929 150.48300147200001,-33.687968928499998 150.48274348800001,-33.687954924 150.48202051199999,-33.688041948 150.481981504,-33.688036934499998 150.48191750399999,-33.688026944500002 150.48160752000001,-33.6879559415 150.48150352,-33.687869935 150.48140051199999,-33.687684935 150.48139952,-33.687326941500004 150.48143350399999,-33.687255938500002 150.48143350399999,-33.687169932 150.48148448000001,-33.687055935 150.481519488,-33.686869936 150.48157046399999,-33.686797934 150.481621472,-33.686554936500002 150.48168646400001,-33.686426935 150.48170646399998,-33.685839948500004 150.48163747199999,-33.685582946499999 150.481464448,-33.685310941 150.48125843199998,-33.685167936 150.48093046400001,-33.685054938 150.48070646400001,-33.684925937500005 150.480327488,-33.684654968 150.47968947199999,-33.6840829665 150.47952147199999,-33.683794958500002 150.47955148799997,-33.683725953500002 150.479517472,-33.683625961 150.479516448,-33.683496960500001 150.47958544,-33.683325965 150.47989443200001,-33.6829389635 150.48020342399997,-33.682352939 150.48058041600001,-33.681808946499999 150.48090739200001,-33.681451915 150.48154236799999,-33.680549929 150.48174736000001,-33.6801349 150.48178134400001,-33.679934896500001 150.481764352,-33.679663908500004 150.48164336,-33.6793209 150.48159136000001,-33.679262902499993 150.48153936,-33.679062899 150.48131536,-33.678777906499995 150.48074633599998,-33.678277925499998 150.48022934400001,-33.678006919 150.48000534400001,-33.677948921500004 150.47969635199999,-33.677949939 150.47954134400001,-33.677992933 150.478905376,-33.678321937 150.478802368,-33.678336940500003 150.47862937599999,-33.678321955500003 150.47852739199996,-33.678239963499998 150.47844038400001,-33.678107966 150.478491392,-33.677793965500001 150.47859436799999,-33.677606949 150.478748352,-33.677192937500003 150.47917734399999,-33.676491935500003 150.47943430399997,-33.675861918 150.47943443200001,-33.6756339055 150.47938131199999,-33.675461929500003 150.47936432,-33.675247921500002 150.47922630400001,-33.674975916 150.47889830399998,-33.67467592 150.47834732800001,-33.674404932 150.47805430400001,-33.674319943 150.477934304,-33.674247941 150.47721132800001,-33.674047956 150.476889312,-33.673891964 150.476539328,-33.673605954 150.47645532799999,-33.67341396099999 150.47646931200001,-33.673119959 150.47650432,-33.673033952499999 150.47677830399999,-33.672661954499993 150.47760329600001,-33.67191794 150.47770627200001,-33.671788939500004 150.47782624,-33.671545942 150.47823824,-33.670887915499996 150.47851222400001,-33.670572916 150.478650208,-33.670458919 150.47892521599999,-33.670300910500004 150.47897622399998,-33.670300910500004 150.47942323199999,-33.670085903499995 150.479956192,-33.669785889 150.48030019199999,-33.669499879 150.48048918399999,-33.669298876500001 150.48069516799998,-33.669126863500004 150.481159168,-33.668626864 150.48165712,-33.668239844 150.48261913600001,-33.667638834500003 150.48277408000001,-33.667495829499998 150.48299708799999,-33.66720983799999 150.48320310400001,-33.667051829500004 150.483444096,-33.666937832500004 150.48382307199998,-33.666965804500002 150.48451107199998,-33.667121815 150.48459606399999,-33.6671768155 150.484941056,-33.6670927885 150.48518204800001,-33.666992796 150.48557702400001,-33.666763784499999 150.487123008,-33.665561747 150.48733398399997,-33.665342762500003 150.48751795199999,-33.665017754499999 150.48758595199996,-33.664517755 150.48749897600001,-33.664288762 150.48739596799999,-33.664145757 150.487153952,-33.663931749 150.48691296000001,-33.663802748500004 150.48658595200001,-33.663717759500003 150.486241952,-33.663660779499992 150.48548499200001,-33.663618766 150.48522700800001,-33.663547781499993 150.485105984,-33.663504769 150.484824,-33.663272797499999 150.484779008,-33.663175802 150.484779008,-33.663089795499999 150.48482995200001,-33.662832793500002 150.485069952,-33.662518774500001 150.48529296000001,-33.662288782499999 150.48544796799999,-33.6620457665 150.485566944,-33.661745770499998 150.485600928,-33.661502773 150.48554992,-33.661359768 150.48544592,-33.661216781500002 150.484980928,-33.66080277 150.48463593599999,-33.660359769 150.48458393600001,-33.66017377 150.48461792000001,-33.659730769 150.48473692799999,-33.659401783499995 150.484797888,-33.659313779 150.48481891199998,-33.6592167835 150.48490889600001,-33.659000777499998 150.48497590399998,-33.658486755 150.48497488000001,-33.657728754499999 150.48505987199999,-33.656984758500002 150.48509385599999,-33.656941764500004 150.48512787199999,-33.656684762499999 150.48519587199999,-33.656469755499991 150.485247872,-33.656398752499996 150.485281824,-33.656269752 150.48542982399999,-33.65605674299999 150.48541884799999,-33.6557547305 150.485348832,-33.655626729 150.48521184000001,-33.655512732 150.48497084799996,-33.655454753 150.484660832,-33.655426762499999 150.484626848,-33.655398753500002 150.48421379199999,-33.655326751499999 150.48371385600001,-33.655155774500003 150.48354185599999,-33.655028772 150.483403872,-33.654927780500003 150.48312787199998,-33.654541778 150.483041856,-33.654141771 150.48302384,-33.653726779 150.48297184,-33.653569769500002 150.48293683200001,-33.653240765500001 150.48290182400001,-33.653169781 150.482918848,-33.65306977 150.482780832,-33.652597779499999 150.48277984000001,-33.652411780500003 150.482848832,-33.652268757 150.482848832,-33.652211758500002 150.48298579199999,-33.65203976399999 150.48315779199999,-33.651896759 150.48367379199999,-33.651681752 150.48415481599997,-33.651581741 150.48465376,-33.651409746500001 150.484807776,-33.651380738500002 150.485615744,-33.650993718500004 150.487471712,-33.649834675 150.48806966399999,-33.649373673499994 150.488381664,-33.649132655500004 150.48869068799999,-33.648932670500002 150.488707648,-33.648889658 150.489034656,-33.648603666500001 150.48979062399999,-33.64808764599999 150.49011660799999,-33.647744637500004 150.4903736,-33.64740063 150.490665568,-33.646928621 150.49081958400001,-33.646513629 150.49087059199999,-33.646270631499995 150.49090457599999,-33.646227619 150.49100656,-33.645713615 150.49110953600001,-33.645541602 150.49126454399999,-33.645455614 150.491384544,-33.645426606 150.491745536,-33.645426606 150.493397504,-33.645682590500002 150.49479148799998,-33.645752557500003 150.49513548799999,-33.64585255 150.49582448000001,-33.645897560499996 150.496580448,-33.645793535 150.49761145599999,-33.645478517 150.49768044800001,-33.645478517 150.498178432,-33.645291519 150.498539424,-33.645105501499998 150.49902041600001,-33.644933488500001 150.49937939200001,-33.644729489 150.499519392,-33.644661483 150.49972537599999,-33.64448947 150.49994838399999,-33.64421748299999 150.50001737599999,-33.644074478 150.50008534400001,-33.6440174795 150.50023936,-33.643659486 150.50030736,-33.643288487 150.50034236799999,-33.64324445699999 150.50040934399999,-33.642744457500001 150.50049532799997,-33.642429458 150.50054531200001,-33.641943463 150.50068233599998,-33.641443463500003 150.50080230399999,-33.641199467 150.50104230400001,-33.6409134385 150.50116428800001,-33.640786436 150.50124230399999,-33.64070444399999 150.501295296,-33.640663448 150.50145628800001,-33.6403944395 150.501755264,-33.640113443 150.50177427200001,-33.640042421499999 150.501797248,-33.639842418 150.501785248,-33.639684428 150.50180524800001,-33.639570431 150.50171126399999,-33.639253415 150.50163225599997,-33.639051432 150.501550272,-33.638934419500004 150.50131724799999,-33.638701449 150.50116425600001,-33.638519446 150.50103724799999,-33.63836844899999 150.500571264,-33.637940433 150.50055427199999,-33.637883434500004 150.50015827199999,-33.637426447500005 150.50003724800001,-33.637211440500003 150.500019264,-33.637097443500004 150.49993324799999,-33.636940434 150.499898272,-33.636754435 150.49991523200001,-33.636411445 150.49996624,-33.636211441500002 150.49995424,-33.636081442 150.50000022399999,-33.635953440500003 150.49999923199999,-33.635753437 150.50008521599997,-33.6354384375 150.50008422400001,-33.635338445 150.50013622399996,-33.63519544 150.50016918399996,-33.63483842699999 150.500221184,-33.634766425 150.5002712,-33.634380422500001 150.50030620800001,-33.634323424 150.50034019200001,-33.634108417 150.50040819200001,-33.634008424500003 150.50044220800001,-33.633794416500002 150.500457152,-33.632750424500003 150.500491168,-33.632621424 150.50066316799999,-33.632364403499999 150.50081817599997,-33.632235403 150.500918144,-33.632189412 150.50099312,-33.632176406500001 150.50107014400001,-33.632171411500003 150.50115814399999,-33.632174408499999 150.50116713599999,-33.632174408499999 150.50129414400001,-33.632187395500004 150.501366144,-33.632184398500002 150.50143712,-33.632171411500003 150.50171113599998,-33.632148379 150.501916128,-33.6321523935 150.50207014399999,-33.63216939499999 150.50217312000001,-33.632157388499991 150.50258409599999,-33.632123385500002 150.50301308799999,-33.6320603745 150.50315110400001,-33.632034363500004 150.503168096,-33.632034363500004 150.50327110399999,-33.632008371 150.50337510400001,-33.631981361 150.50383708800001,-33.631962361500001 150.50429907200001,-33.631971352500003 150.50460608,-33.6320063545 150.50497808,-33.6321283435 150.50526806400001,-33.632162328 150.50567808,-33.632171337500004 150.505867072,-33.632146325500003 150.50607507199999,-33.632064333500004 150.506337024,-33.631854303 150.506552032,-33.631515309 150.506608032,-33.631373303 150.50670204799999,-33.63106032 150.506711008,-33.630730317 150.50668,-33.630629307 150.506684,-33.630486320500005 150.50670300799999,-33.630444307 150.50670601600001,-33.630329311 150.50676201600001,-33.630158315499997 150.50683500799997,-33.630002286500002 150.507082016,-33.6297643025 150.507168,-33.629722289 150.50744496,-33.629613287 150.50768496000001,-33.62957528799999 150.50770297599999,-33.629576287 150.50787296,-33.62959327 150.50797497600001,-33.629624276 150.50807696000001,-33.629641277499999 150.508126976,-33.629684271499997 150.508194976,-33.629714278500003 150.50837897599999,-33.629847275 150.50888598399999,-33.630044281499998 150.51086793600001,-33.630714240499998 150.510985952,-33.630745246499998 150.511019936,-33.630760231499991 150.51129494400001,-33.630722232499998 150.51134793599999,-33.630680237499995 150.511546944,-33.630297213499993 150.511602912,-33.630127217 150.51171091200001,-33.629914226499999 150.51217190399998,-33.629365220499992 150.512223904,-33.629337211500001 150.51241686399999,-33.629155208500002 150.51283388799996,-33.628934207500002 150.51292188799999,-33.628864203499994 150.51297286400001,-33.628865202500002 150.51311187199997,-33.628782193 150.51344188799999,-33.628617191499998 150.51359785599996,-33.628519178499999 150.51418684800001,-33.628288187499997 150.51486182400001,-33.6279861565 150.514965824,-33.627960164 150.51522780799999,-33.627736147500002 150.5153688,-33.627624148500004 150.515854816,-33.627347148 150.5159248,-33.627306152 150.51599481599999,-33.627250152500004 150.516069792,-33.627216149499993 150.51611577599999,-33.62719515199999 150.51620476799999,-33.627096121499996 150.51675977599999,-33.626807133 150.517227776,-33.626601117 150.517418752,-33.626505102 150.51790576,-33.626214115499998 150.51806176,-33.6261171015 150.51816774400001,-33.626004103500001 150.51836272,-33.625764084499998 150.51849072,-33.625495094500003 150.51857971199999,-33.6253540875 150.518599712,-33.625254095 150.51867372799998,-33.625054091500004 150.518732704,-33.624812093 150.51880572799999,-33.624613088499999 150.518812704,-33.624398081499997 150.51884268800001,-33.624255095 150.51884268800001,-33.624211083500001 150.51886569600001,-33.624103080499999 150.518888672,-33.624003069499999 150.51889068799997,-33.623878065 150.51887267199999,-33.623765067 150.51883667199996,-33.6237070695 150.51874067200001,-33.623563065500001 150.51870067199999,-33.623500073 150.51867968,-33.62346706899999 150.518642688,-33.623430069 150.51847968000001,-33.623263088 150.51841369600001,-33.623190087 150.51829968000001,-33.622973082 150.51827267199999,-33.622729085499998 150.51829168,-33.622643097500003 150.518350688,-33.622386095499998 150.51847968000001,-33.622059071 150.518639648,-33.62183307499999 150.51869264000001,-33.621763071 150.518731648,-33.621591076500003 150.51876764799999,-33.621521072500002 150.51873564799999,-33.621434067 150.51873766400001,-33.621377068500003 150.51865865600001,-33.621146077500001 150.518609664,-33.621045067499999 150.51859465599998,-33.62098707 150.51838064,-33.62069706399999 150.51804864,-33.620332077500002 150.51729366399999,-33.619802089499998 150.51705964799999,-33.619611095499998 150.51699264000001,-33.619581088499999 150.516939648,-33.619539093500002 150.51667465599999,-33.619331098 150.51657564800001,-33.6192010985 150.51639564800001,-33.618896089 150.51630364799999,-33.618522093 150.516309664,-33.618293081499992 150.51634864,-33.618136090500002 150.51651065599998,-33.617838092500001 150.51667660800001,-33.617397089500002 150.51667862400001,-33.6173260865 150.51673260800001,-33.617227093 150.516986624,-33.616701064 150.51730758399998,-33.616249072 150.51744857599999,-33.616080074500005 150.51780457599997,-33.615586050499999 150.51782457600001,-33.615486058 150.51784857600001,-33.615405046500001 150.51787059200001,-33.615313046 150.51792560000001,-33.615142050499998 150.51801856,-33.614926044500002 150.51805254399997,-33.614816062 150.518084544,-33.614731054499998 150.51806956799999,-33.614659052500002 150.518077568,-33.614402050500004 150.51809856,-33.614244060499999 150.51828956799997,-33.613532032500004 150.51834656,-33.61347903 150.51839452799999,-33.613434038 150.51853353599998,-33.613365033 150.51854451200001,-33.613348031500003 150.51863452800001,-33.613277028500001 150.51871353599998,-33.613196035500003 150.51888953599996,-33.613028037 150.51909052799999,-33.6128570415 150.51918252799999,-33.612790034500001 150.51925052799999,-33.612791015 150.51926752,-33.612777010500004 150.51935452800001,-33.612750019 150.519424512,-33.612694019500005 150.519582496,-33.612554011500002 150.519965504,-33.612289017500004 150.52003449599999,-33.612262007499993 150.52020848000001,-33.612151007500003 150.52067644799999,-33.611930006500003 150.520919456,-33.611806001 150.521247456,-33.611697998 150.52181644800001,-33.611536974 150.522572416,-33.611393969 150.52315443200001,-33.611347959500002 150.52354739200001,-33.6113689385 150.52371740800001,-33.611400943500001 150.5238704,-33.611418944 150.52427740799999,-33.611540933 150.5245984,-33.611690949500002 150.52488438399999,-33.611881925 150.52491638399999,-33.6119399225 150.52499939200001,-33.612055917500001 150.52501340799998,-33.612103925 150.52507638399999,-33.612301930500003 150.5251304,-33.612635929500001 150.5251304,-33.61288592 150.52512540800001,-33.613032939500002 150.525119424,-33.613261951 150.52504441599999,-33.6135039495 150.524972416,-33.6136179465 150.52495443199999,-33.613659941500003 150.524882432,-33.613787943 150.524746432,-33.61400295 150.52473744,-33.61401294 150.524724416,-33.614035935499999 150.52468944,-33.614126937 150.52463043200001,-33.614333933499999 150.52458544000001,-33.614550938499995 150.52458444800001,-33.614649950500002 150.52458345599999,-33.61489095 150.52455046399999,-33.615090935 150.524554464,-33.615113949 150.52458147199999,-33.6153719685 150.52456345600001,-33.615414962499997 150.52458745600001,-33.615786960499996 150.524646464,-33.616117962499999 150.52466246399999,-33.616161955500004 150.52466044799999,-33.616218954 150.52467945599997,-33.616275952500004 150.52474345600001,-33.616383955499998 150.52478844800001,-33.616473958 150.524836448,-33.616603957500004 150.52485446399999,-33.616754954500003 150.524882464,-33.616867952500002 150.524939488,-33.617255953 150.52493148799999,-33.61754196299999 150.524874496,-33.617769957 150.52483350399999,-33.617998968500004 150.52482950399997,-33.618155959500001 150.52481049599996,-33.618198953499991 150.52480748799999,-33.618326955 150.52477148799997,-33.618369967500001 150.52475248,-33.618381955499999 150.52472950399999,-33.618425967 150.52469648,-33.618488959499999 150.52465248,-33.618638957500004 150.52460553599997,-33.618889965500003 150.52455552000001,-33.619136959 150.52452451199997,-33.619329969500001 150.524525536,-33.619399955 150.52452153600001,-33.619521981 150.52451952000001,-33.619537983500003 150.524513536,-33.619552987 150.52447952,-33.619681987500002 150.524489536,-33.619911979500003 150.524580512,-33.620342974 150.524658528,-33.620587988 150.52475753599998,-33.620718986500002 150.52477353599997,-33.620761980499999 150.52485753600001,-33.620872980500003 150.524907552,-33.620997985 150.52496256000001,-33.62109696 150.525052544,-33.621231954500004 150.525132544,-33.621336960500003 150.52520854400001,-33.6214029685 150.52526556800001,-33.621427962 150.52531056000001,-33.621450957500002 150.52533251200001,-33.621465961 150.525572512,-33.621565953500003 150.52568953599999,-33.621667962499998 150.52573852800001,-33.621740963500002 150.52580553599998,-33.621798961 150.52582652800001,-33.621825952499997 150.52594851200001,-33.621883968499994 150.526156512,-33.621967958499994 150.52637651200001,-33.622010934 150.526572512,-33.622023939500004 150.52669952,-33.622017945499998 150.52704051200001,-33.621984941500003 150.52714051199999,-33.621965942 150.52732153599999,-33.621910941499998 150.52744851199998,-33.621865931 150.52749350400001,-33.621856921500004 150.52767049600001,-33.621762923 150.52846448,-33.621463926 150.52920646399997,-33.621248900499999 150.52925846400001,-33.62122091 150.52937846399996,-33.6211939 150.529826464,-33.6210738905 150.52996444799999,-33.621047879499997 150.53020547200001,-33.6209668865 150.53034342399999,-33.620926889499998 150.530498432,-33.620900878500002 150.53089542399999,-33.620778871 150.53110144,-33.620754876500001 150.53197840000001,-33.620570857 150.532323392,-33.620448849500001 150.53243139200001,-33.620436843 150.53251539199999,-33.6204028585 150.53259638399999,-33.620384858 150.532671392,-33.620321847 150.5327704,-33.620229846500003 150.5328384,-33.620110854499998 150.5329104,-33.619977858 150.53293436800001,-33.619854851500001 150.53297737599999,-33.619654848 150.53300035199999,-33.619465833500001 150.53299136,-33.619392832500004 150.53297836799999,-33.619305827 150.532940352,-33.619198823 150.53288937600001,-33.619141824499998 150.53289136000001,-33.619083827 150.53277836800001,-33.618852836 150.532512352,-33.618560850500003 150.53176236799999,-33.617873853 150.53176236799999,-33.617858849500003 150.53152835200001,-33.617668854500003 150.53129337600001,-33.6175208545 150.53080435199999,-33.6172538625 150.530149376,-33.616839869499998 150.52917740799998,-33.616118887500001 150.528796384,-33.615696884 150.5287904,-33.615683878500001 150.5287064,-33.615586883 150.52859939199999,-33.615429892 150.52851440000001,-33.615272882500001 150.5284824,-33.615158885500001 150.52845638400001,-33.615016879500004 150.52844236799999,-33.614901883500004 150.52845536000001,-33.614414889500004 150.52844035199999,-33.614342887500001 150.52844435200001,-33.614199882500003 150.52838435199999,-33.613897888499999 150.528224352,-33.613521894500003 150.528176352,-33.613462879499998 150.528200352,-33.613353877500003 150.52821936000001,-33.6130458895 150.52823737599999,-33.612874894 150.52823433599997,-33.612771886 150.52818534400001,-33.612661885 150.52818134399999,-33.61258988299999 150.52819033599999,-33.6122748835 150.528175328,-33.6121608865 150.52821132799997,-33.61203788 150.52823632,-33.611934890500002 150.52825334399998,-33.611763895 150.52828832,-33.611563891499998 150.52831632,-33.611416835 150.52867344000001,-33.610854879 150.52910147200001,-33.610628883 150.52931244799998,-33.610583872500001 150.52955228799999,-33.6105748445 150.52958729599999,-33.610582855 150.52999728,-33.610618856 150.53044227199999,-33.610584834500003 150.53083926400001,-33.610495831 150.53144124799999,-33.610331828500001 150.53217024,-33.609958813 150.53223824,-33.609960811 150.53263824000001,-33.609724806500004 150.53272620800001,-33.60962581299999 150.53279721600001,-33.609512815 150.53297520000001,-33.609286800500001 150.53304921599999,-33.609087796 150.53305219200001,-33.6089728 150.53304019199999,-33.608786801 150.533012192,-33.608556790499996 150.53291920000001,-33.6082257885 150.53283619199999,-33.608109793499992 150.53283820799996,-33.608037791500003 150.53277219200001,-33.607950786 150.53255721599999,-33.607702793500003 150.53210419199999,-33.607407811 150.5320032,-33.6073488145 150.53191820800001,-33.607303804 150.5318352,-33.607244807500003 150.53180019199999,-33.607243808500002 150.531740192,-33.6072118035 150.5316432,-33.607132808499998 150.53152220800001,-33.60702882 150.531369216,-33.6069068125 150.53120019199997,-33.606788819500004 150.53091321599999,-33.606492819499998 150.53075219199999,-33.606329816 150.530718208,-33.606255816 150.53070220800001,-33.606175803500001 150.530682208,-33.606120821499999 150.53064019199999,-33.606084820500001 150.5305752,-33.606043806 150.530569216,-33.60603181799999 150.5304592,-33.605671808 150.5304592,-33.605656804500001 150.53046320000001,-33.605527804 150.53044819199999,-33.605470805499998 150.530457184,-33.605423815500004 150.530516288,-33.60525282 150.53055116799999,-33.605126816500004 150.53062816,-33.604995818 150.53065318399999,-33.604894808 150.53067718400001,-33.604779812 150.53070918399999,-33.604729806500004 150.53074217599999,-33.604683815500003 150.530817184,-33.604488807 150.53096118400001,-33.604233821500003 150.53098118400001,-33.604133810500002 150.53110515200001,-33.60395079 150.531177152,-33.603836793 150.531231136,-33.603723795 150.531221152,-33.603650794 150.531384256,-33.603464795 150.53145414400001,-33.603338791500001 150.531663968,-33.602973749500002 150.53171689600001,-33.602841992500004 150.53175107199999,-33.602708977500001 150.53182211199999,-33.602528787499999 150.53184710400001,-33.6024608 150.531883104,-33.602417787500002 150.53211609600001,-33.602035799500001 150.53229312,-33.601809766500004 150.53232912,-33.601738782 150.532435104,-33.601611779500004 150.53297907199999,-33.601106766500003 150.533345088,-33.600869781500002 150.533468064,-33.600757782500004 150.53365804799998,-33.60066075 150.53450905599999,-33.600204762 150.535148,-33.599958749 150.53534102399999,-33.599776746 150.53548102399998,-33.599664747 150.535539008,-33.599642732 150.535673024,-33.599583735499991 150.53581500799999,-33.599520743 150.53593702399999,-33.599466741500002 150.536036,-33.599427743500001 150.53614201599999,-33.599409743 150.536237024,-33.599409743 150.53639302400001,-33.599421731 150.53661699200001,-33.59938573 150.536684992,-33.599386747499992 150.53677196800001,-33.599359737500002 150.53694297600001,-33.599334744 150.53703097599998,-33.5993117115 150.53747699199999,-33.599186725499997 150.537857984,-33.5990367275 150.538081984,-33.598969720499994 150.53847993599996,-33.598790714499991 150.53865296000001,-33.598707723499999 150.538858944,-33.598668707 150.53887494400001,-33.598664692500002 150.53915193599997,-33.598588694500002 150.53927193600001,-33.598590692499997 150.53958496,-33.598471700499999 150.539703936,-33.598427707500001 150.53970496,-33.598398699500002 150.539983904,-33.598203709499998 150.54005590400001,-33.598075708 150.54014390399999,-33.597976696 150.54030592,-33.597679697 150.54041891200001,-33.597280707499998 150.54042787200001,-33.596951703500004 150.54035587199999,-33.596476697500002 150.540340896,-33.596419699 150.540340896,-33.5964056945 150.54034288,-33.596333692500004 150.54025488,-33.595815692499997 150.54026787199999,-33.595329697499999 150.54025897599999,-33.595234737 150.54027292800001,-33.595177572 150.54037948799999,-33.594889841499992 150.54055884799999,-33.594637686499993 150.54059785600001,-33.594533679499996 150.54059785600001,-33.594518676 150.54070985600001,-33.594177684 150.540712864,-33.594077691500004 150.540802848,-33.593921681 150.54087286399999,-33.593850678 150.541016864,-33.593581688 150.54109286400001,-33.593411691500002 150.54135299199999,-33.592983657 150.541522912,-33.592652729 150.54183180799998,-33.591900685499994 150.542428672,-33.591164663 150.54299568,-33.590744639 150.54338665599997,-33.5906416865 150.54405660800001,-33.590611624 150.544535776,-33.590685605499999 150.54513984,-33.590862632 150.545802592,-33.591142611 150.54634764799999,-33.591473631500001 150.54665571199999,-33.591793626 150.546701888,-33.591820673 150.54690780799999,-33.5921666415 150.54700355199998,-33.5926006145 150.54694489600001,-33.59296160499999 150.54676092799997,-33.593352658 150.54659065600001,-33.593691596500001 150.546338752,-33.594012627 150.546338752,-33.5940266315 150.54600777600001,-33.594249630500002 150.5459888,-33.594291625499999 150.5459368,-33.594319634500003 150.54563577600001,-33.594700642 150.545225792,-33.595308644500001 150.54513180799998,-33.595608640500004 150.54512780799996,-33.5957806535 150.54517382399999,-33.595967651500004 150.54523881599999,-33.596082647499998 150.545305824,-33.596141644 150.54540083200001,-33.596415647499995 150.54546582399999,-33.596545647 150.54548681599999,-33.596571639499999 150.54551980799999,-33.596627639 150.54557683199999,-33.596725652 150.545652832,-33.596839649 150.54573881600001,-33.596945654 150.54591683199996,-33.59713465 150.54602182400001,-33.597235641499999 150.546273824,-33.597386638499998 150.546495808,-33.597507647 150.54671580799999,-33.597592636 150.54699683199999,-33.597692628499999 150.54726582399996,-33.597754622 150.54757881599997,-33.5978006315 150.5480048,-33.597848620500002 150.54842579199999,-33.597902622 150.548882784,-33.597972607500004 150.549018784,-33.597991607 150.54928377600001,-33.598048605500004 150.549434784,-33.598065607 150.54959478399999,-33.598077613500003 150.54990278400001,-33.5981276005 150.55005878399999,-33.598141605 150.55023676799999,-33.598141605 150.55040374399999,-33.5981206075 150.55071174400001,-33.598076596 150.55093676800001,-33.598051584 150.55126476800001,-33.597989590499992 150.55143276800001,-33.597938586 150.55161174400001,-33.597863587 150.551920736,-33.597715587 150.552099712,-33.597600591 150.55230873599999,-33.597459584 150.55244172799999,-33.597340573499999 150.55255187200001,-33.597230572500003 150.55290361600001,-33.5969306135 150.55291673599999,-33.596837577 150.55291868800001,-33.596819576500003 150.55294668799999,-33.596773567 150.55301769600001,-33.596675572500004 150.55301968000001,-33.596617575 150.55307369600001,-33.596532567499999 150.553169088,-33.596267795500005 150.55317683199996,-33.596264965 150.553215008,-33.596238954 150.55329312000001,-33.596036009 150.55343891199999,-33.5957619685 150.553711808,-33.595369565 150.55398576,-33.594965543500003 150.5543256,-33.594633542499999 150.55445555199998,-33.594459568499992 150.55485264000001,-33.594141516500002 150.55524972799998,-33.593983563500004 150.55601868799999,-33.593539508 150.556513696,-33.5932534795 150.557286592,-33.592950542 150.55792163199999,-33.592675502500001 150.55847856,-33.592560488 150.5589336,-33.592523488 150.559236736,-33.592560488 150.55951859199999,-33.592661461 150.55987248,-33.592877467 150.56009641599999,-33.593116505499999 150.56016156800001,-33.593419443 150.56011763199996,-33.5936584815 150.56008156799996,-33.593853471499997 150.559951552,-33.594163494500002 150.55994556799999,-33.594195499500003 150.55991456000001,-33.59436249899999 150.55985657599999,-33.5943904895 150.55978755199999,-33.594521506500001 150.55970857599999,-33.594567497500002 150.55967356799999,-33.594609492499991 150.559433568,-33.594736495 150.55924060800001,-33.595001489 150.558884608,-33.595356522499998 150.55867558400001,-33.595727521499995 150.558546592,-33.596163511 150.558433632,-33.596599519 150.55836864,-33.597228519 150.55840064,-33.597971534500005 150.558513664,-33.59869753 150.55875564799999,-33.5995525075 150.55894966400001,-33.600133518500002 150.55904665599999,-33.600618514499999 150.55922368,-33.601118514 150.55946668799999,-33.601893516 150.55964368,-33.602361510500003 150.559853696,-33.603200522500003 150.56011168,-33.603765494 150.56035369599999,-33.60460450599999 150.56045072000001,-33.6049274975 150.560676736,-33.605266491500004 150.560837728,-33.605588502499998 150.56107971199998,-33.606105503500004 150.56125772799999,-33.606573498 150.56140272,-33.607073479 150.56148371200001,-33.607687475500001 150.56163273600001,-33.608134472499998 150.56164473600001,-33.608171472500004 150.56178972800001,-33.608461478500004 150.561881728,-33.608655488 150.56205776,-33.609037476 150.56220976,-33.6092874665 150.562423744,-33.60953446 150.56275475199999,-33.609847461500003 150.563100736,-33.610154469 150.56338672000001,-33.610342447500003 150.56410572799999,-33.6107204395 150.56464371199999,-33.610945418 150.56571273599999,-33.611363407 150.56614672000001,-33.611515403 150.56690969599998,-33.611765393500001 150.56780969600001,-33.612013367499998 150.56846070399999,-33.612142368 150.56930467199999,-33.612255347500003 150.569963648,-33.612327331 150.57074265599999,-33.612480326 150.57128064,-33.612584314499998 150.57156262399999,-33.612640314 150.57218064,-33.612769296 150.57272761600001,-33.612865292500004 150.57299264,-33.612865292500004 150.57344259199999,-33.612938275 150.57376358400001,-33.613034271499998 150.5740376,-33.6130662765 150.57433459200001,-33.613106273500001 150.5749616,-33.613179256 150.57562857600001,-33.613163235 150.57702656000001,-33.613010221499998 150.577894528,-33.612946193 150.57902748799998,-33.612857189499998 150.579640512,-33.612987189 150.579943488,-33.6130501815 150.58003948800001,-33.613661181 150.58012851199999,-33.613982174500002 150.58002352,-33.614456181499996 150.57993552,-33.614915185 150.57991952,-33.615220176 150.57995254400001,-33.615485188500003 150.58007452800001,-33.616013178499998 150.57997056,-33.616940176500002 150.58016256,-33.618482188500003 150.5803296,-33.619808157500003 150.580386592,-33.620303162 150.58058560000001,-33.621086156 150.5807136,-33.621669165 150.5809696,-33.62234016 150.58125660799999,-33.62263616 150.58164860799999,-33.622796148 150.582063584,-33.6227401485 150.58235158400001,-33.622652144 150.58327756799997,-33.62238012 150.58379756799999,-33.622165131500005 150.58439654399999,-33.621789100500003 150.58463552000001,-33.621493100499997 150.58494054399998,-33.621140102 150.58516348800001,-33.620743092 150.585426496,-33.620231086 150.585762496,-33.619624082500003 150.585929472,-33.6193920925 150.58630547199999,-33.618961079500004 150.58661648,-33.618697066 150.58674448,-33.618601069500002 150.58715244800001,-33.618386081 150.58747942400001,-33.618218045500001 150.587943424,-33.618058057500001 150.588765408,-33.617962042500004 150.58919740799999,-33.617930037500003 150.590331392,-33.617955012499998 150.59147337600001,-33.618002002499999 150.59256035199999,-33.617961987 150.59360633599999,-33.617746961499996 150.59446131199999,-33.617410946 150.595899264,-33.6164849285 150.59629824000001,-33.6163169115 150.597113248,-33.615940880499998 150.59801622399999,-33.615541872500003 150.59901516799999,-33.615133855 150.599901184,-33.614854856500003 150.60024515200001,-33.614782836 150.60046614399999,-33.614681826 150.60088214399997,-33.614535824 150.60091715199997,-33.614507833499999 150.601467136,-33.614403808 150.60151913600001,-33.614390821 150.601656128,-33.6143788145 150.60186211199999,-33.614353821 150.60223811200001,-33.614360795499998 150.60235712,-33.614391801499998 150.60242512,-33.614392800499999 150.602680128,-33.614469797499993 150.60322412799999,-33.614716772500003 150.60330512,-33.614752773500001 150.60337212799999,-33.614797784 150.603524128,-33.614871784 150.60374108799999,-33.615061779 150.603873088,-33.615235771499997 150.60400809599997,-33.615324775 150.60402809600001,-33.615331768 150.60467408,-33.615652761500002 150.60491408,-33.615764760499999 150.60534508800001,-33.616035767 150.60601609599999,-33.616403732 150.606384096,-33.616611746 150.60715004799999,-33.617202728500004 150.60785305599998,-33.617521705500003 150.60845904000001,-33.617377701500004 150.60898700800001,-33.617042685 150.609658016,-33.616690685500004 150.610376992,-33.616323664 150.610808,-33.616163639 150.611048,-33.615971646 150.611590944,-33.615716623499999 150.61237392000001,-33.615253624 150.61405088000001,-33.614694591 150.61559987199999,-33.614294547 150.61595344,-33.614152208 150.61588387200001,-33.614494550499998 150.614084064,-33.623428626 150.60778371200001,-33.654678807499991 150.60683184000001,-33.659401839 150.60681286400001,-33.659494838500002 150.60670585599999,-33.660014836500004 150.60619990399999,-33.662411844499999 150.60618192000001,-33.662492856 150.60617792,-33.662497851 150.606063904,-33.66261284699999 150.605678912,-33.662906849 150.60525795199996,-33.663270855 150.60497494399999,-33.6636098675 150.604723936,-33.664048872499997 150.60458096,-33.664245860499996 150.60440697600001,-33.664444865 150.60433398399999,-33.664527874500003 150.60426396799997,-33.66459786 150.60408697599999,-33.664795884 150.60399798399999,-33.664922886500001 150.603959968,-33.665050888 150.603923968,-33.665107886500003 150.60390396799997,-33.665221883500003 150.603864,-33.665421887 150.603864,-33.665435891500003 150.60384601600001,-33.665463882 150.603792,-33.665548889500002 150.603716,-33.665819896 150.60368601600001,-33.665877893500003 150.60345702399999,-33.665928879500001 150.60304102399999,-33.666121908500003 150.60286604800001,-33.666261898 150.60277104,-33.666588904 150.60271804800001,-33.666645902500001 150.60259705600001,-33.666714907500001 150.60244204799997,-33.666739901 150.60211904,-33.666676908500001 150.60193004799999,-33.666672931 150.60177507200001,-33.666712928 150.601723072,-33.66675492299999 150.60167206400001,-33.666753924 150.60163408,-33.666778917500004 150.60156707199999,-33.666823928 150.60139408000001,-33.666891915500003 150.60127408,-33.666917926499998 150.60099606399999,-33.667055936499999 150.600856064,-33.667167935500004 150.60031712,-33.667486949500002 150.59993712,-33.667622961500001 150.59966112000001,-33.667688969499999 150.59935008,-33.667811994499999 150.59903715199999,-33.667963953499999 150.59900313599999,-33.667962954499998 150.59895113600001,-33.667990982 150.59866012800001,-33.668013977499996 150.59846915199998,-33.668095988 150.59840115200001,-33.668094989 150.59826214399999,-33.66817798 150.59822915199999,-33.668182975 150.59803817599999,-33.668215979 150.59778118400001,-33.66822600599999 150.597662176,-33.6682090045 150.59725216000001,-33.668186989500001 150.596482208,-33.668172023 150.595661216,-33.668170043499991 150.59504819200001,-33.6680580445 150.59491222399998,-33.6680270385 150.594792224,-33.668025040499998 150.59467222399999,-33.668051033 150.59463824,-33.668050034 150.594387232,-33.668475053 150.59429222399999,-33.668788054499991 150.59421126399999,-33.669260045 150.59410227199999,-33.669472055 150.593940352,-33.669770034500004 150.59374326400001,-33.670067070500004 150.593603264,-33.6702080775 150.59335830399999,-33.670403067500004 150.592993312,-33.670582092 150.59271830399999,-33.670634095499999 150.592546304,-33.670674092500001 150.59246131200001,-33.67065809 150.592307296,-33.670669097500003 150.592017344,-33.670635113 150.589893792,-33.6703450515 150.590001376,-33.670575136 150.59030937599999,-33.671088122500002 150.59056137600001,-33.671615132 150.58986540800001,-33.672584143500004 150.5898224,-33.672639144 150.58937539199999,-33.672491144 150.58893638399999,-33.672400161 150.58861238399999,-33.672406173500001 150.587944416,-33.672350192499998 150.584062464,-33.67202524 150.583824448,-33.671736233 150.583374464,-33.67131225 150.58325945600001,-33.671152262 150.58317846400001,-33.670978251 150.58304646400001,-33.670493255 150.583037472,-33.670503263500002 150.582587456,-33.67070926099999 150.58234646400001,-33.67074726 150.58202147200001,-33.670741284499996 150.58193648,-33.670754271499995 150.58173049600001,-33.670750275499991 150.58164448,-33.670777267 150.581055488,-33.67103730299999 150.58088249599999,-33.671120294 150.58053449600001,-33.6712993 150.579784512,-33.671829306500001 150.57969552,-33.6719423045 150.57958953599999,-33.67206930699999 150.57949753599999,-33.672296320500003 150.57947856000001,-33.672367305 150.579439552,-33.672524314499995 150.579416544,-33.67273934 150.57943056,-33.672839332500004 150.579459552,-33.672963338 150.57947654399999,-33.673041334 150.57947456,-33.673126323 150.57947056,-33.673241337500002 150.579484544,-33.673385323 150.57956656,-33.673487332 150.57975056000001,-33.673633334 150.58003756799999,-33.673797318 150.58018854400001,-33.673900307499999 150.580371552,-33.674090321 150.58047056,-33.674220320499998 150.58051756799998,-33.674365305 150.58061155199999,-33.674682321 150.58063756799999,-33.674954308 150.5805896,-33.675455306499998 150.58055059200001,-33.675626320500001 150.58042259199996,-33.675924337 150.58034960000001,-33.676080329 150.58027558399999,-33.676279333499998 150.580214592,-33.67632834 150.5802056,-33.676335333 150.58011859199999,-33.676391332500003 150.58003158399998,-33.676432328499999 150.579856608,-33.676572336500001 150.579596608,-33.676724332500001 150.579351616,-33.676892349500001 150.57870364799999,-33.677423355 150.57819865600001,-33.677757372500004 150.57807664000001,-33.677826377500004 150.578043648,-33.677831372500002 150.577200672,-33.677952381 150.57608169599999,-33.678203407499993 150.575942688,-33.678257409 150.575874688,-33.67825641 150.57566572799999,-33.67836741 150.57547670400001,-33.678420431 150.575424704,-33.678419432 150.57475472,-33.678520423500004 150.57460972800001,-33.678586431500001 150.57449072,-33.678773448 150.574469728,-33.678930439 150.57439475199996,-33.6791724375 150.57421376,-33.67951344799999 150.57412675200001,-33.6795684485 150.57403776000001,-33.679695451 150.57386176,-33.679850444 150.573511744,-33.680129461 150.57331977600001,-33.68026847 150.57323276799997,-33.680310465 150.57277878400001,-33.680630478 150.572457824,-33.681111478 150.57229481600001,-33.681437485 150.57225580799999,-33.681608480500003 150.5722528,-33.681695486 150.57225081600001,-33.681780475 150.57229580800001,-33.681996481 150.57228582400001,-33.682340507 150.57222582399996,-33.68265448899999 150.5722248,-33.682711506 150.57220185599999,-33.682730505500004 150.57213683200001,-33.682795496 150.57208284800001,-33.682880503500002 150.57195884800001,-33.683035496500004 150.57167785600001,-33.683291499500001 150.571466848,-33.68348451 150.57135785599999,-33.683711523500001 150.57133884800001,-33.683782508 150.57121286399999,-33.683995517 150.57112499199999,-33.684093548500002 150.57048489600001,-33.684940534 150.57027289600001,-33.685165531 150.570150912,-33.685249539499999 150.57002592000001,-33.685298527500002 150.56970089599997,-33.685426547499993 150.56937392,-33.68550656 150.569218912,-33.685545558 150.569149952,-33.685558545 150.56901094400001,-33.68562755 150.568442944,-33.68574558 150.56825292799996,-33.685799563 150.56807894400001,-33.68591056299999 150.568025952,-33.685966581 150.567956928,-33.686008576 150.567901952,-33.686121574 150.56781408000001,-33.686220604500001 150.56772598399999,-33.686304594500001 150.56767097599999,-33.686432596 150.567609984,-33.686774587 150.56746598399999,-33.687001582 150.56735897599998,-33.687185583 150.56728496,-33.687355598 150.56721001599999,-33.687612581499998 150.567136,-33.687796601 150.566852,-33.688163604 150.56674499199997,-33.688319614500003 150.566551008,-33.688530607 150.56642704000001,-33.688656610500004 150.56639302400001,-33.688656610500004 150.565908544,-33.689051678 150.56469705599997,-33.688879646499998 150.56366406399999,-33.688731665 150.562131104,-33.688512680499997 150.55911913599999,-33.688082740500001</coordinates></LinearRing></outerBoundaryIs></Polygon>

	</Placemark>
</kml>