<?xml version="1.0" encoding="UTF-8"?>
<kml xmlns="http://www.opengis.net/kml/2.2">
	<Placemark>
		<Style>
			<LineStyle>
				<color>ff0000ff</color>
			</LineStyle>
			<PolyStyle>
				<fill>1</fill>
				<color>330000cc</color>
			</PolyStyle>
		</Style>
			<ExtendedData><SchemaData>
		<SimpleData name="STATE_2006">1</SimpleData>
		<SimpleData name="POA_2006">2103</SimpleData>
	</SchemaData></ExtendedData>
      <Polygon><outerBoundaryIs><LinearRing><coordinates>151.301063744,-33.667138927499991 151.301052,-33.667210004499999 151.30104899200001,-33.667227006 151.30104611199999,-33.667283172 151.301052992,-33.667281007500002 151.30109001599996,-33.66727 151.30112300799999,-33.667266004 151.30118198400001,-33.667246005500004 151.30124,-33.667226007 151.301299008,-33.667204991 151.301356992,-33.667183993500004 151.30141401599997,-33.667161997 151.301444992,-33.667151008 151.301476,-33.667139001500004 151.30150700799999,-33.667127994 151.30153801599999,-33.667115007 151.30156601600001,-33.667101002500004 151.30160201599998,-33.667078007 151.301636,-33.667051996 151.301668,-33.667025004500005 151.30169900800001,-33.6669969955 151.30173001599999,-33.666969005 151.301768,-33.666937 151.301806016,-33.666905994 151.301844,-33.666874007499999 151.30187699199999,-33.666841003500004 151.301904,-33.666805002499999 151.301916,-33.666781008 151.30192598400001,-33.666754997 151.30193401599999,-33.666729004499999 151.30194300799999,-33.666703992500004 151.30195401599997,-33.666678999 151.30196700799999,-33.6666540055 151.30198201600001,-33.6666309915 151.301998016,-33.666606997 151.30201500800001,-33.666584001499992 151.302032,-33.666561006 151.30205699199999,-33.666527003 151.302084,-33.666493999 151.302112,-33.666461994 151.30214,-33.666430007500004 151.302168,-33.666397003500002 151.30219500800001,-33.666360003500003 151.302222016,-33.666322004500003 151.30224899199999,-33.666284005500003 151.302279008,-33.666248004499998 151.302312992,-33.666216998499998 151.302346016,-33.66619100599999 151.30238099199997,-33.666164995 151.30241801599999,-33.666141999499999 151.302456,-33.666124998 151.30249500799999,-33.666116007 151.302514016,-33.666115008 151.30253500800001,-33.666115008 151.30255500800001,-33.666116007 151.30257401599999,-33.666119004 151.30260201600001,-33.6661360055 151.30261900799997,-33.666165994 151.30263500800001,-33.666197 151.30265500799999,-33.666228006 151.302676,-33.6662579945 151.30269699199999,-33.6662880015 151.30272,-33.666315992 151.30274601599999,-33.666341004 151.30276700799999,-33.666358005499994 151.30278899199999,-33.666374008 151.302812,-33.666388993 151.302836,-33.666402997500001 151.302863008,-33.666417002 151.30286,-33.666398002500003 151.302856,-33.666378004 151.302851008,-33.666358005499994 151.30284499199999,-33.666339006 151.30283299199999,-33.666307001 151.30282,-33.666279991 151.302807008,-33.666252999500003 151.302792,-33.666231003 151.302772992,-33.666210005499998 151.30275500799999,-33.666188009 151.302742016,-33.666166993 151.302744,-33.666134007499998 151.30276499199999,-33.666109994500005 151.30278,-33.666084002 151.302776,-33.666062005500002 151.30275798400001,-33.666036993499993 151.30273500800001,-33.666011001 151.30271398400001,-33.665985008500002 151.30270300800001,-33.665958997499999 151.302704,-33.665938999 151.302707008,-33.665918001500003 151.30269801599999,-33.665901 151.30267801599999,-33.665885996499995 151.30265900800001,-33.66586999399999 151.30264700800001,-33.665843002500004 151.302644,-33.665808999500001 151.302648,-33.665772998499996 151.30265801600001,-33.6657389955 151.30267500799999,-33.665713003 151.302694016,-33.665697999500004 151.302712,-33.665692005499999 151.30273100799999,-33.665681997 151.30274899200001,-33.665668991499999 151.30277100799998,-33.665640002 151.30277100799998,-33.665618005500001 151.30276601599999,-33.665593992499993 151.30277001600001,-33.66557299499999 151.30278,-33.665552996500004 151.30279401599998,-33.665534996 151.30281500800001,-33.665519992500002 151.30283900800001,-33.665509003499999 151.30286,-33.665499994 151.30288300800001,-33.665495998 151.30290700800001,-33.665494999 151.30293500799999,-33.665495998 151.302964,-33.665501992 151.302992,-33.665511001500001 151.30302,-33.665519992500002 151.30304899199999,-33.665527004 151.30308601600001,-33.665532998 151.303124,-33.665536994 151.30316201599996,-33.6655410085 151.3032,-33.665544005500003 151.30323699199997,-33.6655490005 151.30326300799999,-33.665552996500004 151.30329001600001,-33.665557991500002 151.303316,-33.665562006 151.30334300800001,-33.665567001 151.303368992,-33.665569998 151.303403008,-33.66557299499999 151.303438016,-33.665574993 151.303472,-33.665575992 151.30350601599997,-33.665578008499999 151.30354099199999,-33.665581005500002 151.303584,-33.6655869995 151.30362700800001,-33.665594991500001 151.30366899200001,-33.665604001 151.303712,-33.665611993 151.303755008,-33.665620003500003 151.303796992,-33.6656249985 151.30383798400001,-33.665629993499998 151.30388,-33.665634008 151.303922016,-33.665639003 151.30396300800001,-33.665644997 151.303988,-33.665647994 151.30401401599997,-33.665650991 151.30403900799999,-33.665654006499999 151.304064,-33.665659001500003 151.30408499200001,-33.665664995500002 151.30410700799999,-33.665670009 151.30413001599999,-33.665673006 151.304152,-33.665676003 151.304192,-33.665676003 151.304228,-33.665672007 151.304264,-33.665668991499999 151.304283008,-33.665670009 151.30430099200001,-33.665671008 151.30432,-33.665673006 151.30433900799997,-33.665674005 151.30435801599998,-33.665675004 151.304384,-33.665674005 151.30441001599999,-33.665672007 151.304436,-33.665668991499999 151.30446099199997,-33.665665994500003 151.304486016,-33.665660999499998 151.304516992,-33.665645996 151.30454700799999,-33.665630992499999 151.30457699199999,-33.665616007499999 151.304608,-33.665604001 151.304631008,-33.665597008 151.304654016,-33.665590995500004 151.304676992,-33.665585001499998 151.3047,-33.6655790075 151.304720992,-33.665571996 151.30474700799999,-33.665563005 151.304772,-33.665551997500003 151.30479699199998,-33.6655410085 151.30481900800001,-33.665528003 151.30483801599999,-33.665512999500002 151.30485500799998,-33.665494999 151.30487100799996,-33.665474001500002 151.30488201599997,-33.665452005 151.304891008,-33.665428991 151.30491001600001,-33.665407993500004 151.30493900799999,-33.665407993500004 151.30496499199998,-33.665401999499998 151.304988,-33.665379004 151.30499699200001,-33.665363001499998 151.30500601599999,-33.66534699899999 151.305028,-33.665323004500003 151.30505500800001,-33.665304005 151.30508,-33.665284006499995 151.30512,-33.665213003499993 151.305128,-33.66511700699999 151.305115008,-33.665005008 151.305092992,-33.664890992499998 151.305070016,-33.664786005 151.305059008,-33.664724992 151.305048,-33.664662998499999 151.30503299200001,-33.664601005 151.30501100800001,-33.664544006500002 151.30496899199997,-33.664478997499998 151.304944992,-33.664455003 151.304924992,-33.664429991 151.30491801599999,-33.664410991499999 151.304916,-33.664389994 151.30491500799999,-33.664369995500003 151.304912992,-33.664348998 151.30490700799999,-33.664329998500001 151.30489500799999,-33.664309001 151.30488099199999,-33.664289002499999 151.304864,-33.664270003 151.30483900799999,-33.664240995 151.304856992,-33.664240995 151.304876,-33.664238997 151.30490499199999,-33.664227009 151.30492,-33.664210007499996 151.304936,-33.664193006 151.304916,-33.664179001500003 151.304896,-33.664169992 151.304876,-33.664158004 151.30485500799998,-33.664131993 151.304844992,-33.664099007499999 151.30484899199999,-33.6640690005 151.304868,-33.6640620075 151.30490499199999,-33.664061008499999 151.30494899199999,-33.6640620075 151.30499699200001,-33.664056994 151.30498499199996,-33.6640389935 151.30497401599999,-33.664019994 151.30497299199999,-33.663985991 151.304976,-33.663968009 151.304982016,-33.663932008 151.30498499199996,-33.663909993 151.30498601599999,-33.663887996500002 151.30497699199998,-33.663871994 151.304959008,-33.663861005 151.304944992,-33.663848998500001 151.30495001599999,-33.663829 151.30496499199998,-33.663807003500004 151.30498099199997,-33.663783009 151.305002016,-33.663759995 151.30501801599999,-33.663735001500001 151.305024992,-33.663715003 151.30502899199999,-33.663695004499999 151.30502700799997,-33.663676005 151.30502,-33.663659003500001 151.305012992,-33.663642002 151.30500899200001,-33.663624001500004 151.30500499199999,-33.663605002 151.305002016,-33.663587001499998 151.305000992,-33.663569001 151.305002016,-33.6635510005 151.30500998400001,-33.663526007 151.305024,-33.663498997 151.30503900799997,-33.663473004499998 151.305052,-33.663444995500001 151.30503100799996,-33.663438002500001 151.305008,-33.663437003499993 151.304990016,-33.6634439965 151.30497699199998,-33.663462996 151.30495401600001,-33.663467991 151.30494,-33.66345400499999 151.30495100799999,-33.663430991 151.30496601600001,-33.66341600599999 151.304982016,-33.663400003500001 151.304996,-33.663385 151.30501699199999,-33.663362004500001 151.30503900799997,-33.66334100699999 151.30506601600001,-33.663325004500003 151.30509900800001,-33.663312998 151.305132,-33.663310001 151.30515814399996,-33.663323062 151.305162016,-33.663325004500003 151.30517011200001,-33.663330943 151.30517699200001,-33.663335993499999 151.30520700799997,-33.663352995 151.305228992,-33.663356991 151.305256,-33.663355992 151.30528201600001,-33.663350997 151.305308,-33.663337991500001 151.305332,-33.663312998 151.30535900800001,-33.663291001499992 151.305376,-33.663279994 151.305392,-33.663268006 151.305408992,-33.663255999500002 151.30542499200001,-33.663243993 151.305440992,-33.663232005 151.30545699199999,-33.663219998500004 151.30547299200001,-33.663206993 151.30548899199999,-33.663194006 151.305504,-33.663181999499997 151.305531008,-33.663158005 151.305554016,-33.663136008500004 151.305579008,-33.663115991499993 151.30559500800001,-33.663104003500003 151.305612,-33.663092996 151.30562899200001,-33.663082007 151.30564700799999,-33.663071998500001 151.305666016,-33.6630630075 151.30569699200001,-33.663047005 151.30572899200001,-33.6630330005 151.30576300800001,-33.663026007500001 151.30579798400001,-33.663027006500002 151.305832,-33.663027006500002 151.30586201599999,-33.663019995 151.305892992,-33.66301100399999 151.30592201599998,-33.662998997500004 151.305947008,-33.662983994 151.30597299199999,-33.662954005499998 151.30598,-33.662924997499999 151.305992,-33.66289800599999 151.30600700799999,-33.662883002500003 151.306026016,-33.66286899799999 151.306048,-33.662856991499993 151.30607100799998,-33.662848000499991 151.306108,-33.662852995500003 151.306124,-33.662861006 151.306140992,-33.662867999 151.30617699199999,-33.662874992 151.30620099199996,-33.662869997 151.30622598400001,-33.662855992499999 151.30625100799998,-33.662836993 151.30627699199999,-33.662816994499998 151.30631500800001,-33.662791002 151.30633699200001,-33.662768006499995 151.30635801599999,-33.662743993499994 151.30637001599999,-33.662730007500002 151.306384,-33.662716003 151.306396992,-33.662702997499999 151.306396,-33.662675007 151.30637299200001,-33.662674008 151.306344,-33.662675007 151.30631299199999,-33.662678004 151.306288,-33.662682999 151.30625801599999,-33.662699001500002 151.306228,-33.662718001 151.306204992,-33.662725993 151.30618099199998,-33.662730007500002 151.306163008,-33.66272299599999 151.30614700800001,-33.662696004499999 151.306140992,-33.662679003 151.30613100799999,-33.662652992 151.30612300799999,-33.662631994500003 151.30612201599999,-33.662611996 151.30614700800001,-33.662596992499999 151.306168,-33.662590998500001 151.30618899199996,-33.662585004500002 151.306208,-33.662577993 151.306228992,-33.662566005 151.30625001600001,-33.662552999500001 151.30626998400001,-33.662539994 151.30629001599996,-33.662528006 151.30631299199999,-33.662519995499999 151.306332,-33.662515000500001 151.306352,-33.662512003499998 151.306372,-33.662510005500003 151.30639299200001,-33.662509006499995 151.306412,-33.662509006499995 151.30643001599998,-33.662510005500003 151.30644899200001,-33.662510005500003 151.30648300799999,-33.662515999500002 151.3065,-33.662530004 151.30650601599999,-33.662551001499999 151.30650700800001,-33.662572998 151.30650300799999,-33.662604004 151.306496,-33.662634991499999 151.306496,-33.662661002500002 151.3065,-33.662683998 151.30651798400001,-33.662700000500003 151.30654201600001,-33.662696004499999 151.30655900799999,-33.662685996 151.30657001599999,-33.662657006499998 151.30659299199999,-33.662631994500003 151.306608,-33.6626210055 151.306623008,-33.66260999799999 151.30663900799999,-33.662602006 151.30666201599999,-33.662590998500001 151.306688,-33.6625830065 151.306715008,-33.662577993 151.30674201599999,-33.662574996 151.30676700799998,-33.66257699399999 151.30678899200001,-33.662582007499999 151.30680998400001,-33.6625899995 151.30683100799999,-33.662602006 151.306851008,-33.662613994 151.306870016,-33.662626000499998 151.306888,-33.662640005 151.306906016,-33.662657006499998 151.30692300799998,-33.662673009 151.30693900799997,-33.662684997 151.306968,-33.662682 151.30698,-33.662667995500001 151.306992,-33.662649995 151.307019008,-33.662625001500004 151.30704,-33.662625001500004 151.30706499199997,-33.662633992499998 151.30709100799999,-33.662647997 151.307116992,-33.662663999499998 151.30714,-33.662680002 151.30715699199999,-33.662694006500004 151.30717299200001,-33.662711008 151.30718899199999,-33.662727991 151.307204,-33.662744992500002 151.30722,-33.662760995 151.307264992,-33.662803008499999 151.307312,-33.662843005500001 151.30736,-33.662882003500002 151.30740899199998,-33.662920002500002 151.307458016,-33.662958001500002 151.30751001600001,-33.662994002499993 151.30756499199998,-33.663029004500004 151.30761801599999,-33.6630630075 151.30766700800001,-33.6631010065 151.307704,-33.663143001500003 151.30772099199999,-33.6631770045 151.30773299199998,-33.663212006500004 151.30774201599999,-33.663249006500003 151.307752,-33.663286006500002 151.30777801599999,-33.663334994499998 151.30779699199999,-33.663364002500003 151.307808,-33.663378007 151.30782,-33.66339199299999 151.30783401599996,-33.663406996500001 151.307850016,-33.663421001 151.30786601599999,-33.663434006500005 151.307883008,-33.663446993500003 151.30790099199999,-33.663459 151.30793401599999,-33.663478998499997 151.307964992,-33.663503992 151.30799401599998,-33.663532001 151.30801801600001,-33.663562008 151.30803801600001,-33.663591996499996 151.30804700799999,-33.663615991 151.308052,-33.663642002 151.308055008,-33.663666995499995 151.30806099200001,-33.663692007500003 151.308072,-33.663715003 151.30808899199997,-33.663733003499999 151.308108992,-33.663749006 151.308132,-33.663763991 151.308154016,-33.663779993499993 151.30817500800001,-33.663795996 151.30821699200001,-33.663845002500004 151.308252,-33.663901002 151.30828601600001,-33.663957001500002 151.30832300799997,-33.664008006 151.30837100799999,-33.664047004 151.30839699200001,-33.664061008499999 151.308424,-33.664072996500003 151.308456,-33.664082006 151.30847401599999,-33.664084004 151.308492,-33.664086002 151.308524992,-33.664093994 151.30854601600001,-33.664113992499999 151.308559008,-33.664144998499999 151.308568,-33.664180999499997 151.308576,-33.664219997499998 151.30858601599999,-33.664254999500002 151.308592992,-33.664277995 151.3086,-33.66430200799999 151.308607008,-33.664325003500004 151.308615008,-33.664347999 151.30862499200001,-33.664369995500003 151.30863500800001,-33.664388995 151.308648,-33.664406995499995 151.308660992,-33.664424996 151.308672,-33.6644429965 151.30868201600001,-33.664461996 151.30868700799996,-33.664495999 151.308684,-33.664532999 151.30868,-33.664569 151.30868,-33.664602004 151.308692,-33.6646259985 151.30872201599999,-33.664642001 151.308752992,-33.664656005499999 151.30876998400001,-33.664681998 151.30876700799999,-33.6647019965 151.308760992,-33.664723993 151.30875500799999,-33.664747007 151.308752992,-33.664768004500004 151.308762016,-33.664803006500001 151.30877699199999,-33.664836991 151.30879699199997,-33.664869995 151.308818016,-33.66490399799999 151.30883699200001,-33.664937002 151.30884601599999,-33.664956001500002 151.308856,-33.664974002 151.30886601599997,-33.6649920025 151.308876,-33.665011002 151.308884992,-33.665029002499999 151.30889401600001,-33.66505499499999 151.30890201599999,-33.665081006 151.308910016,-33.665107997500002 151.30891801600001,-33.665134008500004 151.30892601599999,-33.665160001 151.308932992,-33.665198999 151.30894,-33.665243991 151.30894700799999,-33.665285005500003 151.30895699199999,-33.665316992 151.308976,-33.665332994499998 151.308996992,-33.665334992499993 151.309016,-33.665326001499992 151.309034016,-33.66531399499999 151.309056992,-33.665315993 151.30907100799999,-33.6653270005 151.30908499200001,-33.665341005 151.30909401599999,-33.665370993499998 151.30907299200001,-33.665387995 151.30907001599999,-33.665406994500003 151.30908300799999,-33.665423996 151.309100992,-33.665442995500001 151.309120992,-33.665462994 151.30913900799999,-33.665481993500002 151.309152,-33.665501992 151.30916499200001,-33.665524007 151.309178016,-33.665546003499998 151.30919299199999,-33.665565003 151.309212,-33.6655790075 151.309236992,-33.665586000499999 151.30926700800001,-33.665586000499999 151.30929900800001,-33.665584002500005 151.30933001599999,-33.665584002500005 151.309356,-33.665590995500004 151.309380992,-33.665609995 151.309404992,-33.665633009 151.309427008,-33.665645996 151.30944601600001,-33.665652008500004 151.309464,-33.665660000499997 151.30947900800001,-33.665673006 151.30948899200001,-33.665691006499998 151.30949699199996,-33.665711005 151.309504,-33.6657320025 151.30951100799999,-33.665752001 151.309518016,-33.665772998499996 151.309524,-33.665794995 151.309528,-33.665816991500002 151.30953401599999,-33.6658380075 151.309540992,-33.665859005 151.309552,-33.665880002500003 151.30956499199999,-33.665901 151.30957900799999,-33.665920998499999 151.30959401600001,-33.665940997 151.309608,-33.665960995500001 151.30962,-33.665976998 151.309632,-33.665992001500001 151.309644,-33.666008004 151.309656,-33.666023007500002 151.309668,-33.666038991500002 151.30968,-33.6660590085 151.30969299200001,-33.666080006 151.30970499200001,-33.666101003500003 151.309716,-33.666122001 151.30972601599998,-33.666143997500001 151.30973401599996,-33.666166993 151.30973900800001,-33.66619100599999 151.309744,-33.666215000500003 151.30975100800001,-33.666237996 151.30976099200001,-33.666259992500002 151.30977401600001,-33.666277993 151.30979001599999,-33.666295993499993 151.3098,-33.666316991 151.30981299199999,-33.666339006 151.309832,-33.666362001499998 151.309866016,-33.666386995 151.30988601600001,-33.666377005 151.30990499200001,-33.666361002500004 151.30992899200001,-33.666363000499999 151.30995100800001,-33.666384997 151.30997500800001,-33.666415004 151.30999500799999,-33.666448008 151.31000601599999,-33.666493 151.30999801600001,-33.666526004 151.30999801600001,-33.666556991500002 151.31000899200001,-33.666572994 151.310028,-33.666587997499995 151.31004899199999,-33.666601003 151.310068992,-33.6666160065 151.31008300799999,-33.666639002 151.31008601599999,-33.666659999499998 151.31009798400001,-33.666676002 151.310126016,-33.6666920045 151.310147008,-33.666711004 151.31015100799999,-33.666734998500004 151.310146016,-33.666758993 151.31013001599999,-33.666770999500002 151.31010601599999,-33.666770999500002 151.31008201599997,-33.666773996499998 151.31006201599999,-33.666788001 151.310047008,-33.6668070005 151.310044,-33.666831994 151.310052,-33.666849994499998 151.31006499200001,-33.666866996 151.31008,-33.6668829985 151.31010899200001,-33.666899001 151.310138016,-33.666905994 151.31016598400001,-33.666905994 151.31024201599999,-33.666900999 151.31027401599997,-33.666907992 151.31023900799997,-33.666969005 151.310282016,-33.666988004499999 151.31033001599999,-33.666903996 151.31041500800001,-33.666912006499999 151.310519008,-33.666898002 151.310543008,-33.666804003500005 151.31059299200001,-33.666754997 151.31067100800001,-33.6667379955 151.310668,-33.666715999 151.310572992,-33.666647993 151.31056700799999,-33.6665780075 151.31051100799999,-33.666471003499993 151.3105424,-33.666447083 151.31057500799997,-33.666475998500005 151.310632,-33.666541007500001 151.310761536,-33.666655171 151.310864544,-33.666718182 151.311281536,-33.666980160500003 151.31130752,-33.666997162 151.31131654399999,-33.667002157 151.311393536,-33.667051163499998 151.31149152,-33.667113157 151.31149152,-33.667115155 151.311492544,-33.66712015 151.311492544,-33.667125163500003 151.311494528,-33.6671291595 151.31149552,-33.667134154500005 151.31149753599999,-33.667138150500001 151.31149952000001,-33.667143145499999 151.31150153600001,-33.66714716 151.311504544,-33.667151156 151.31150652799997,-33.667155152 151.31150953599999,-33.667159148 151.31151353600001,-33.667163162500003 151.311516544,-33.6671671585 151.31152054399999,-33.667170155499996 151.31152454400001,-33.667173152499998 151.311528544,-33.667177148500002 151.31153254399999,-33.667180145499998 151.31153753599997,-33.667183161 151.31154252799999,-33.667185159 151.31154752,-33.667188156 151.31155254399999,-33.667190154 151.31155753600001,-33.667192152 151.311562528,-33.667193151 151.31156854399998,-33.667195149 151.311573536,-33.667196148 151.31157852800001,-33.667197147 151.311584544,-33.667198146 151.31159052800001,-33.667198146 151.31159552,-33.667198146 151.31160153600001,-33.667198146 151.311606528,-33.667198146 151.31161254400001,-33.667198146 151.311618528,-33.667197147 151.31162352000001,-33.667196148 151.31163654400001,-33.667204158499999 151.31172854399998,-33.66726215599999 151.31200652800001,-33.667438146500004 151.31207251199999,-33.667479161 151.31227651200001,-33.6676091605 151.31235100800001,-33.667656002500003 151.31248851199999,-33.667743137499997 151.312695488,-33.667874136 151.312732512,-33.667897131499998 151.313125504,-33.668146141500003 151.313199008,-33.668193002 151.31330649599997,-33.668271127499999 151.31331596800001,-33.668280266499998 151.31294499199998,-33.668279008500001 151.312748992,-33.668362998500001 151.313143008,-33.66861099099999 151.314904,-33.669719992 151.31525500799998,-33.67001099699999 151.31536598400001,-33.669976994 151.315471008,-33.669936997 151.31558,-33.669888009 151.315778016,-33.669789996 151.31586899199999,-33.669737992500004 151.31595500799997,-33.669682992 151.316079008,-33.669580002499998 151.31617801600001,-33.6696579985 151.31622300800001,-33.669692001500003 151.316248,-33.66971399799999 151.31626300799999,-33.669730000500003 151.31627699200001,-33.669746003 151.31628700799999,-33.669764003499992 151.31629100799998,-33.669779007 151.31629100799998,-33.669796008500001 151.31628998400001,-33.669802002499999 151.31616201599996,-33.670012995 151.316128,-33.67004400099999 151.31605001599999,-33.670114005 151.31596899199999,-33.670182991499999 151.315831008,-33.670291993500001 151.31591449599998,-33.6705050765 151.31657849600001,-33.670810086 151.31708950399999,-33.671096059 151.31743251200001,-33.672361070500003 151.317612,-33.672606991 151.31854201600001,-33.673147006 151.31894499200001,-33.673785996 151.31895081600001,-33.673797244 151.31908451199996,-33.67376202 151.31966611199999,-33.6735797025 151.319668992,-33.673582995499999 151.31968998400001,-33.673609006500001 151.31971100800001,-33.673642991 151.319728,-33.67367999099999 151.31974300799999,-33.673716991 151.31976,-33.673752992 151.31978,-33.673787994 151.31979900799999,-33.673813006 151.31982,-33.673837999500002 151.319842016,-33.673861994 151.319864,-33.673886007 151.319884,-33.673911000499999 151.319907008,-33.673946002500003 151.319928,-33.6739810045 151.319948,-33.674017005499998 151.319968,-33.674054005500004 151.319986016,-33.674090006500002 151.319996,-33.674113002 151.32000601600001,-33.674134998499994 151.32001500800001,-33.674157994 151.32002499199999,-33.674180009 151.32003699199998,-33.674202005499993 151.32006099200001,-33.674232993 151.320088992,-33.674262001 151.32012,-33.674291009 151.32015100800001,-33.674318999499995 151.32018,-33.674348007499994 151.320204,-33.674374999 151.32022700799999,-33.674400991500001 151.32025100800001,-33.674429000499998 151.32027398400001,-33.674455992 151.32029699200001,-33.674483002 151.32031699199999,-33.674505997499999 151.32033801599999,-33.674528993 151.320358016,-33.674552007 151.32037801600001,-33.674575002499999 151.32039900800001,-33.674597998 151.32040998400001,-33.674622991500001 151.32041900799999,-33.674648003500003 151.320426016,-33.674673996 151.32043100800001,-33.674700007 151.32043401600001,-33.674726998499999 151.32043401600001,-33.674750993 151.320432,-33.674775006 151.320428,-33.674799999500003 151.32042201600001,-33.674823994 151.32041699199996,-33.674848007 151.32041100800001,-33.674878994499998 151.32040499199996,-33.674910000499999 151.320396,-33.674941006499999 151.320384,-33.674967998 151.32036499200001,-33.674989994500002 151.320348,-33.67500000299999 151.32032899199999,-33.675007995 151.320308,-33.675014007500003 151.32028700799998,-33.675021000499996 151.320267008,-33.675028992500003 151.320246016,-33.675040999 151.32022700799999,-33.675054004499998 151.32020700800001,-33.675069008 151.320188,-33.675082994 151.32016899199999,-33.675096998500003 151.320154016,-33.675107007 151.32013801599996,-33.675116997 151.32012300799997,-33.675127005500002 151.32009500799998,-33.675149002 151.32008,-33.675165004500002 151.320067008,-33.675183005 151.320056,-33.675203003500002 151.32004499199999,-33.675222003 151.32003500799999,-33.675241002500002 151.320020992,-33.675264997 151.320007008,-33.675288991500004 151.31999401600001,-33.675313004499998 151.31998300800001,-33.675336999 151.319974016,-33.675361992500001 151.31997100800001,-33.6753840075 151.31997100800001,-33.675407003 151.31997100800001,-33.6754299985 151.31996899200001,-33.675451995 151.31996201599998,-33.675471993500004 151.31994899200001,-33.675487996 151.31993401599999,-33.675503998499998 151.319916992,-33.675525995 151.31990300800001,-33.675546992500003 151.319884,-33.675565992 151.31986601599999,-33.675584991500003 151.319851008,-33.675603991 151.319839008,-33.675623009 151.319824,-33.675637994 151.319792,-33.675642008499999 151.319772,-33.67563999199999 151.31975299199999,-33.675638993 151.319718016,-33.675645005500002 151.31968601599999,-33.6756579925 151.31965401599999,-33.675670998 151.31962,-33.675682005500001 151.31958601599999,-33.675690996500002 151.319558016,-33.675693993499998 151.319535008,-33.675691995500003 151.319512,-33.675691995500003 151.31948201599999,-33.675700006 151.319452,-33.675710995 151.319422016,-33.675717007499998 151.319391008,-33.675719005499992 151.31936099199996,-33.675722002500002 151.31934201600001,-33.675725998499999 151.319323008,-33.675729994500003 151.319304,-33.675735008 151.31928499200001,-33.675741002 151.319267008,-33.675747995 151.319244,-33.675759002500001 151.31922300799999,-33.675773007 151.31920201599999,-33.675786993 151.31918099199999,-33.675799998500004 151.31914,-33.675814003 151.31912201599999,-33.675817999 151.319104,-33.675819997 151.319084992,-33.675820996 151.319052,-33.675816001 151.31902,-33.675802995499993 151.31898899199999,-33.675791007500003 151.31896899200001,-33.675787992 151.318948992,-33.675784995 151.318928992,-33.675782997 151.318908,-33.675782997 151.31887500799999,-33.675792006500004 151.318848,-33.675810007 151.31881801599999,-33.675824992 151.31879900800001,-33.675827008499994 151.31877801600001,-33.675824992 151.318756992,-33.675821995 151.318736,-33.675818998 151.3187,-33.675820996 151.318670016,-33.675828007500002 151.31864,-33.6758340015 151.31861500799999,-33.675833002499999 151.318588992,-33.675828007500002 151.31856300800001,-33.675822994 151.31853900799999,-33.675820996 151.31851699200001,-33.675823993 151.318492,-33.675843991500003 151.31846899199999,-33.675869003499997 151.31844099200001,-33.675884007 151.318411008,-33.675891 151.31838,-33.675892998 151.318356,-33.675891 151.31833299199997,-33.675885006 151.318310016,-33.675876995499998 151.318286016,-33.675868004500003 151.318263008,-33.675859994 151.31824201599997,-33.675854 151.31822099199999,-33.675847007 151.318196992,-33.675837997500004 151.31816899200001,-33.675827008499994 151.318142016,-33.67581500199999 151.31812499200001,-33.675808009 151.318108,-33.675800997499998 151.31809100800001,-33.675794004499991 151.318074016,-33.675785994 151.31805801599998,-33.675779001 151.31804099199999,-33.675771009 151.318024,-33.675762998499998 151.318007008,-33.675755006500005 151.31799001600001,-33.675745997 151.317959008,-33.675729994500003 151.31793001599999,-33.675713992 151.31789900800001,-33.67570200399999 151.31787699200001,-33.675701005 151.31785401600001,-33.675704002 151.31782899199999,-33.675709996 151.31780499199996,-33.675716008500004 151.317780992,-33.6757200045 151.317746016,-33.675723001499996 151.317728,-33.675724000500004 151.31771001599998,-33.675724999499998 151.317676,-33.675728995500002 151.317644,-33.675737006 151.317612,-33.675741002 151.31759299199999,-33.675742001 151.31757299200001,-33.675741002 151.317554016,-33.675740003 151.31753500799999,-33.675737006 151.31750201599999,-33.675725998499999 151.317472,-33.675709996 151.317443008,-33.675691995500003 151.317428,-33.675679008499998 151.31741401599999,-33.675666003 151.3174,-33.6756509995 151.317386016,-33.675637994 151.31736899200001,-33.675628004 151.317351008,-33.6756199935 151.317332,-33.6756130005 151.31731100799999,-33.675608005500003 151.31729100800001,-33.675603991 151.31727100800001,-33.675602992 151.317244,-33.675607006500002 151.317218016,-33.6756130005 151.31718998400001,-33.675612001499999 151.31715900799998,-33.675603991 151.31713001599999,-33.675593002 151.317103008,-33.675580995499999 151.31707798399998,-33.675564993 151.31703900799999,-33.675534005499998 151.31701900799999,-33.675505996499993 151.31699001600001,-33.675484 151.31694,-33.675488995 151.31687398400001,-33.675506995500001 151.31683699199999,-33.675516005 151.31678499200001,-33.675526994 151.31665699199999,-33.675574002499999 151.31653401599999,-33.675633998 151.31642700800001,-33.675697009 151.316338016,-33.675763997499999 151.316259008,-33.675842992500002 151.316188,-33.675929998 151.31612201600001,-33.676020000500003 151.316058016,-33.676110003 151.316000992,-33.676188998 151.315946016,-33.676269991 151.31589500800001,-33.676353000500001 151.31585001600001,-33.676438008 151.31581299199999,-33.676523996 151.315784992,-33.676613998500002 151.315764,-33.676705999 151.31574998400001,-33.676799997499998 151.315740992,-33.676893996 151.31573500799999,-33.676986995500002 151.315731008,-33.677071004 151.315731008,-33.677154994 151.31573401599999,-33.677239002500002 151.315742016,-33.677322992500002 151.315754016,-33.677406002 151.315772,-33.677485996 151.31579500800001,-33.677567007500002 151.31580502400001,-33.677597477 151.315820992,-33.677646002499998 151.315852,-33.677724997499993 151.31588499199998,-33.677801994500001 151.31591299199999,-33.677868002499999 151.31594099200001,-33.677936008499998 151.315972,-33.678001998 151.31601001600001,-33.6780599955 151.31606,-33.678106005 151.31609900800001,-33.6781290005 151.31614201599999,-33.678148999 151.31618700800001,-33.678165001499998 151.31623401600001,-33.678179006 151.316280992,-33.678190994 151.31630300799998,-33.678183002 151.31632499200001,-33.678177008 151.31634700800001,-33.678170995500004 151.31637001600001,-33.678166000499999 151.316392992,-33.678163003500003 151.31642499200001,-33.678160006500001 151.31645801600001,-33.678161005500002 151.31649100800001,-33.678163003500003 151.316524,-33.678165001499998 151.31655699199999,-33.678165001499998 151.316587008,-33.678162004500003 151.31661801600001,-33.678158008499999 151.316648,-33.678153994 151.316676992,-33.678151996 151.31670601600001,-33.678154993 151.31672899200001,-33.678162004500003 151.31675100800001,-33.6781739925 151.316772,-33.678187997 151.31679401599999,-33.678199004500001 151.316816,-33.678205997500001 151.31684601599997,-33.6782049985 151.316876992,-33.678198005500001 151.31690899200001,-33.678186998 151.31694099200001,-33.678177008 151.31697299199999,-33.678170995500004 151.31699500799996,-33.678169996500003 151.31701801599996,-33.678168997500002 151.31704,-33.678169996500003 151.31706201599999,-33.678170995500004 151.31708499199999,-33.678171994499998 151.317116,-33.678174991500001 151.31714700800001,-33.678178007 151.31717801599999,-33.678182003 151.31721001599999,-33.678185 151.31724,-33.678186998 151.31726601599999,-33.678185999 151.317292,-33.678183002 151.317318016,-33.67818000499999 151.31734300799997,-33.678179006 151.31736700799999,-33.678182003 151.317387008,-33.678190994 151.31740601600001,-33.678203999499999 151.317424,-33.678219003 151.317442016,-33.678232008500004 151.317463008,-33.678239001500003 151.317484992,-33.678240000500004 151.317508,-33.6782360045 151.317532,-33.678229992 151.317555008,-33.678225996 151.31757401600001,-33.678228993 151.31759401599999,-33.678241998499999 151.317610016,-33.678264994 151.317623008,-33.67829300299999 151.31763100800001,-33.678321992500003 151.31763100800001,-33.678347004499997 151.31762499199996,-33.678368002 151.31761299199999,-33.6783880005 151.31759699200001,-33.678407999 151.31758,-33.678426998499994 151.31756300800001,-33.678445998 151.31754,-33.678467994500004 151.31751801600001,-33.678488992 151.317504,-33.678516002 151.3175,-33.678549006 151.3175,-33.678581991500003 151.317504,-33.678605005500003 151.317512,-33.678628001 151.317519008,-33.678651995500005 151.317524,-33.67867399199999 151.317520992,-33.678694009 151.317508,-33.678713008500004 151.31748899199999,-33.678731009 151.317466016,-33.678746993 151.31744,-33.6787619965 151.31741500800001,-33.678773004 151.31739001599999,-33.678780996 151.317363008,-33.678784992 151.317336,-33.678788007500003 151.317308,-33.678791004499999 151.31728099199998,-33.678795999500004 151.317256,-33.678801993500002 151.317232,-33.678809005 151.317208,-33.678815998 151.31718499199999,-33.678824008500001 151.317160992,-33.678832000499995 151.31713500800001,-33.678843008 151.31711001599999,-33.678855995 151.31708499199999,-33.678869000500001 151.31706,-33.678880008 151.31703299200001,-33.678886002 151.317002016,-33.678884004 151.316970016,-33.678873995499998 151.31693699199997,-33.678861008499993 151.316904,-33.678851 151.31687100799999,-33.678847004 151.316848,-33.67884900199999 151.31682601599999,-33.678852998 151.31680300799999,-33.678857993 151.31678099199999,-33.678864005500003 151.31675900799999,-33.678869999499994 151.31674099200001,-33.678873995499998 151.316723008,-33.678876992500001 151.31670499200001,-33.678880008 151.316676992,-33.678893994 151.316668,-33.678924001 151.316667008,-33.678958004 151.31664601599999,-33.678969992 151.31662601599999,-33.678964997 151.316604,-33.678959003 151.31658198400001,-33.678953009 151.31655001600001,-33.678965996 151.316540992,-33.678985994500003 151.31653299199999,-33.679007991 151.316524,-33.679028008 151.31651001599997,-33.679039996 151.31647801599999,-33.679040995 151.31644300799999,-33.679036999 151.316418016,-33.679050004499999 151.31641100799999,-33.679067006 151.316407008,-33.679086005500004 151.3164,-33.679103007 151.316372992,-33.679115994 151.31635299199999,-33.679112997 151.31633100799999,-33.679107003 151.316308,-33.679099991499996 151.31628601599999,-33.679092998500003 151.316262016,-33.679087004499991 151.316239008,-33.679080992 151.316215008,-33.679073999 151.316191008,-33.679067006 151.316168,-33.679060993500002 151.31614499200001,-33.679053001500002 151.31612300799998,-33.679043992 151.3161,-33.679035001 151.31607801600001,-33.679029007 151.31604198399998,-33.679032004 151.316012,-33.679046008500002 151.31598201599996,-33.679057996499992 151.315958016,-33.679059994500001 151.315932992,-33.679057996499992 151.31590700800001,-33.679054000500003 151.31588099199999,-33.679049005499998 151.31583900800001,-33.679040995 151.31580700800001,-33.679034002 151.31577401600001,-33.679030006 151.315756,-33.679032004 151.31573801600001,-33.679036 151.31572,-33.679041994 151.31570201599999,-33.679048006500004 151.315684992,-33.679054000500003 151.31566700799999,-33.679061992500003 151.31565001600001,-33.679072001 151.315618016,-33.6790890025 151.315586016,-33.679087004499991 151.31556499199999,-33.679076996 151.315568,-33.679054999500003 151.315576,-33.679036999 151.31558899199999,-33.679002996 151.31558899199999,-33.678976004500001 151.315586016,-33.678947995500003 151.31557699199999,-33.678918007 151.31556899200001,-33.678902004500003 151.315552,-33.678869999499994 151.31554598400001,-33.6788379945 151.31554700800001,-33.678806008 151.31555401599999,-33.678775002 151.31551299200001,-33.678763994500002 151.31547798400001,-33.67874899099999 151.315426016,-33.678742997 151.315364,-33.678757001499996 151.315296,-33.678781995 151.315224992,-33.678808006 151.315156992,-33.678825007500002 151.315088,-33.678832999500003 151.31501699199998,-33.678835996499998 151.31494601599996,-33.6788379945 151.314876,-33.678843008 151.314808992,-33.678855995 151.31473500799999,-33.678879009 151.314663008,-33.678909996500003 151.314592992,-33.678945997500001 151.314524992,-33.678984995500002 151.314458016,-33.679024992500004 151.31436,-33.6790890025 151.31426499200001,-33.679158007499993 151.31417500800001,-33.679233006499999 151.31408899199999,-33.6793110025 151.314007008,-33.679389997500003 151.31393401599999,-33.679465995500003 151.31386499199999,-33.679543991500005 151.31379900799999,-33.679625003 151.313736992,-33.679707994 151.31367900800001,-33.679792002500001 151.313516,-33.679900005500002 151.31337488,-33.680014520500002 151.31336198400001,-33.680024991499998 151.313220992,-33.680163001499999 151.313098016,-33.6803090035 151.31299500799997,-33.680460999499999 151.31294099199999,-33.680563008500002 151.312895008,-33.680668995 151.312856,-33.680776998 151.31282300799998,-33.680886999 151.31279500799999,-33.680997 151.31278700799999,-33.681045007500003 151.312783008,-33.6810949945 151.31277798400001,-33.68114300199999 151.31276899199997,-33.681190991 151.312752,-33.681235002499996 151.312702016,-33.681292001 151.312628,-33.681340008500001 151.31257260800001,-33.6813689795 151.31254201600001,-33.681385000500001 151.31245801599999,-33.6814299925 151.312387008,-33.681483994 151.31231299199999,-33.6815670035 151.312251008,-33.681660003 151.312196,-33.6817579975 151.31214499199999,-33.681856991 151.312092,-33.681956003 151.31205401599999,-33.682032001 151.312018016,-33.682108998 151.31198201599997,-33.682186994 151.31194300799999,-33.682261993 151.31189500799999,-33.682333995 151.31183900799999,-33.682396007 151.31177500799998,-33.682454004500002 151.311708,-33.682511003 151.311644,-33.682569000500003 151.31158601600001,-33.68263099399999 151.31151699200001,-33.682727009 151.31145900800001,-33.682829998500004 151.311407008,-33.682936003500004 151.31135900800001,-33.683044006499998 151.31131001599996,-33.683150992 151.31128,-33.683213004 151.311248992,-33.683275996500001 151.31122,-33.683338008500002 151.311194016,-33.683402 151.311171008,-33.6834659915 151.311156,-33.68355 151.31115401599999,-33.683638004500004 151.31115299199999,-33.683726009 151.31114,-33.683808001 151.311106016,-33.683878005 151.311059008,-33.683920999 151.311000992,-33.683957 151.310936,-33.683990004 151.31087299199996,-33.684024007 151.31081798400001,-33.68406400399999 151.310752,-33.684129993500001 151.31069401600001,-33.684202994499998 151.310642016,-33.684279991499999 151.310599008,-33.684360004 151.310563008,-33.684440997 151.31054601599999,-33.684496996500002 151.31053299199996,-33.684553995 151.31052300799999,-33.684610993500002 151.31051299199999,-33.684668991 151.31050099199999,-33.684726008 151.31046601599999,-33.684852992 151.310427008,-33.684979994500004 151.310384,-33.685105998 151.31034099199999,-33.685232001500005 151.31029900799999,-33.685358005 151.31026499199999,-33.685466008 151.31023299200001,-33.685574991500005 151.31019900800001,-33.685682994499999 151.31016201599999,-33.685789998499999 151.31011699199999,-33.685895004500004 151.310096,-33.685939996500004 151.31007401599999,-33.685985007 151.31005100799999,-33.686029 151.31002601599999,-33.686072993 151.30999900800001,-33.686115006500003 151.30995900799999,-33.686163994499999 151.309912,-33.686209005 151.309864,-33.68625399699999 151.30982,-33.686301005499999 151.309786016,-33.686349993500002 151.30975801599999,-33.686439996 151.309754016,-33.686538009 151.309763008,-33.686639999500002 151.309768,-33.686743007499999 151.30975699199999,-33.686842001 151.30973500799999,-33.686912005 151.309708,-33.686982009 151.30967699199999,-33.687050995500002 151.309652,-33.687125994500001 151.30966601599999,-33.687147991 151.309672,-33.687168008 151.30967100800001,-33.687194999500001 151.309663008,-33.687218994 151.30963699200001,-33.687236994500005 151.30962,-33.687245005 151.309592,-33.687262006499999 151.309584,-33.687280007 151.309583008,-33.6873010045 151.309584,-33.687323001 151.309584992,-33.687344997499991 151.30957401599997,-33.687380998500004 151.30956201599997,-33.687402995 151.30955798400001,-33.687421994499999 151.30955900800001,-33.687441993 151.30956,-33.687463009 151.30956,-33.687483007499999 151.309556,-33.687502007 151.30954201599999,-33.687525002500003 151.30952499200001,-33.687546 151.309516,-33.6875679965 151.30951401600001,-33.687588994 151.30950899199999,-33.687608992500003 151.309494016,-33.687638999500003 151.309471008,-33.6876670085 151.309464,-33.687688006 151.30947699199999,-33.687707005500002 151.30948998400001,-33.687725006 151.309504,-33.68773799299999 151.30952,-33.6877509985 151.309548,-33.687775992 151.309552,-33.687802003 151.30953699200001,-33.687827995500001 151.309516992,-33.687854006499997 151.309495008,-33.687874005 151.309472992,-33.687894003499999 151.30945401599999,-33.687916999 151.30943401600001,-33.687945008 151.309418016,-33.687973997500002 151.309412,-33.687993996 151.30941001599996,-33.688013994500004 151.30940899199999,-33.688034992 151.309395008,-33.688049995500002 151.309380992,-33.688063001 151.30936300799996,-33.688077005499999 151.30934499200001,-33.688096005 151.309332,-33.688119000500002 151.309327008,-33.688138 151.309326016,-33.688157998500003 151.309332,-33.688178996 151.30934201599999,-33.6881999935 151.30935100799999,-33.688217994 151.30936499200001,-33.688240009 151.30937401599999,-33.688260007499998 151.309380992,-33.688281005 151.30938601599999,-33.688301003500001 151.30939100800001,-33.688322001 151.30939801599996,-33.688345995500001 151.30941001599996,-33.688371007500002 151.30941401600001,-33.688396001 151.30941001599996,-33.6884140015 151.3094,-33.688434999 151.30938601599999,-33.688452999500001 151.309368,-33.688470001 151.309348992,-33.6884899995 151.30933001599999,-33.688509998 151.30930998400001,-33.688531994500003 151.30928899200001,-33.688557006499998 151.30926601600001,-33.688580002 151.309247008,-33.688593007500003 151.309228,-33.6886049955 151.30920499199999,-33.688620998 151.309188992,-33.688636001499994 151.309202016,-33.688655001 151.309216,-33.688667007500001 151.30923100800001,-33.688679994499999 151.30925001599999,-33.688708003500004 151.30926099199999,-33.688738991 151.30926499200001,-33.688771995 151.30926499200001,-33.688790994500003 151.30926300799999,-33.688810993 151.309256992,-33.688830991499998 151.30925001599999,-33.688848992 151.30923801599999,-33.6888639955 151.30922201599998,-33.688877001 151.309200992,-33.688888008500001 151.309178016,-33.688896000500002 151.30915299200001,-33.6889019945 151.30912998400001,-33.688904991500003 151.309104,-33.688903992500002 151.309078016,-33.688899996499998 151.309056,-33.688896000500002 151.30903801599999,-33.688893003499999 151.30901900799998,-33.688889007500002 151.30899500800001,-33.688897998500003 151.30897299200001,-33.688909006 151.30892499199999,-33.688955996 151.30889500800001,-33.689026 151.308875008,-33.689107992 151.30886099200001,-33.689194997500003 151.30884601599999,-33.6892749915 151.308828992,-33.6893439965 151.30881299199999,-33.689414000500001 151.30880099199996,-33.689483005500001 151.308795008,-33.689552991 151.30879900799999,-33.689620997 151.308808992,-33.689666007500001 151.308824,-33.689710999500001 151.308842016,-33.689754992499999 151.30886,-33.689800003 151.30887401599998,-33.689844995 151.308884,-33.689876001 151.30889401600001,-33.689907007 151.308904,-33.6899389935 151.308910016,-33.689969999500001 151.308912,-33.690001005500001 151.30890099199999,-33.6900459975 151.30887801599997,-33.690090009 151.30884899200001,-33.690133003 151.30882099199999,-33.690176996 151.3088,-33.690223005500002 151.308786016,-33.690283001 151.30877801599999,-33.690344994500002 151.308774016,-33.690408005500004 151.30877100800001,-33.690471997 151.308768,-33.690534009 151.308760992,-33.690608009 151.308756,-33.690680991500003 151.308752,-33.690754991499993 151.308748,-33.690828991499998 151.30874700800001,-33.690901992500002 151.30874700800001,-33.690955994 151.30874700800001,-33.691008996500003 151.308748,-33.691062998 151.308751008,-33.691116999500004 151.30875500799999,-33.691170002 151.308757856,-33.691189334500002 151.30767488000001,-33.691405044500002 151.30728435200001,-33.691482948 151.307266016,-33.691419992500002 151.306682016,-33.69154899299999 151.30622499200001,-33.691650003 151.30622,-33.691610006 151.306212,-33.691568991499999 151.30620201599999,-33.691528994500004 151.30618899199996,-33.691488997500002 151.306174016,-33.691449999500001 151.306156,-33.691412999500002 151.30613500800001,-33.691376998499997 151.30611299200001,-33.691340997499999 151.306063008,-33.691271992499999 151.306016,-33.691217991 151.30589801599999,-33.691091007 151.30576201599996,-33.690949001 151.30571900799998,-33.690899994500001 151.305624,-33.690783000499998 151.305563904,-33.690703062 151.305162016,-33.690270994500004 151.30499587200001,-33.69007728099999 151.30489401599996,-33.689630006499996 151.30480499199996,-33.689060003 151.30388592,-33.688832083 151.30373900800001,-33.688791993500004 151.30326601600001,-33.688101999 151.303323904,-33.68706810799999 151.30326499200001,-33.686774994 151.30326099199996,-33.686756993499998 151.30311990399997,-33.686440107 151.30263100799999,-33.684674004499996 151.302562016,-33.684607996499999 151.302527008,-33.684574992500004 151.30236601600001,-33.684422996500004 151.30121801600001,-33.684050998499998 151.30099001599999,-33.683868995499999 151.30088998400001,-33.683967008499998 151.30066201599999,-33.684142 151.30064300800001,-33.684154006500002 151.300623008,-33.684163996500004 151.300588,-33.684173006 151.30054099200001,-33.684175004 151.30029990400001,-33.684143128500004 151.300182944,-33.684114139 151.30013801600001,-33.684098007 151.300093952,-33.68407913699999 151.299306016,-33.683691007 151.29926294399996,-33.683667160500001 151.299171008,-33.683627996 151.29907401599999,-33.683600005499997 151.29897299199999,-33.683584003 151.29889593600001,-33.683579156 151.29874896000001,-33.68358515 151.298608,-33.683583004 151.298604,-33.683583004 151.29852201599999,-33.683573994500001 151.29841299200001,-33.683551998 151.298308,-33.683518994 151.29818601599999,-33.683462994500005 151.29807699200001,-33.683390992500001 151.298000992,-33.683324004 151.29714,-33.682494001500004 151.29705900799996,-33.682478998 151.296504,-33.6826730075 151.29632499199997,-33.682339193499999 151.29626899199999,-33.682278199 151.29595798400001,-33.681938187500002 151.29558198399999,-33.681545210499998 151.29511398400001,-33.681088205 151.29414796799998,-33.680559234500002 151.29332502400001,-33.681167237 151.29323302399999,-33.681231228500003 151.29223500800001,-33.680002995 151.29220499199999,-33.679976003500002 151.292191008,-33.679961999 151.292158016,-33.679910254500001 151.29215001599999,-33.679873254500002 151.29215001599999,-33.679838252499998 151.29216700800001,-33.679727252499994 151.29218300799999,-33.679571242 151.29219900799998,-33.679446256 151.29224300800001,-33.679198245 151.29230099200001,-33.678954008 151.29231900799999,-33.678848243499999 151.29441296,-33.677840252500005 151.29434601599999,-33.6778310025 151.29381494399999,-33.677605247 151.29257900799999,-33.676762997499999 151.292531008,-33.676734008 151.292436,-33.676671996 151.29224099199999,-33.676534004499999 151.292164,-33.676484998 151.29211001600001,-33.676451994 151.29205299200001,-33.6764210065 151.29199299199996,-33.676390999500001 151.29193100800001,-33.676365007 151.29185900799996,-33.676335999 151.291776992,-33.676306991 151.291692,-33.676281997499999 151.29028,-33.676125006500001 151.28982601600001,-33.67611200099999 151.28982300800001,-33.676091003499991 151.289812,-33.676071005 151.289796,-33.676054003499999 151.28977500799999,-33.676041997 151.289750016,-33.676036003 151.289724,-33.676036003 151.28969900800001,-33.676041997 151.28967699200001,-33.676053004499998 151.28966,-33.676069007 151.289648992,-33.676088006500002 151.289648,-33.676096997500004 151.28714201599999,-33.675703003 151.28686499200001,-33.675673995 151.28509401599999,-33.675445002 151.28446601600001,-33.675431996500002 151.28420700800001,-33.675426002499997 151.284048,-33.675443004 151.28388912,-33.675464334499999 151.28365699199998,-33.675510991499998 151.283580992,-33.675528992 151.283212,-33.675609004500004 151.281914016,-33.675967997 151.281395008,-33.676116996 151.27955100799997,-33.676645004500003 151.27947900800001,-33.676668999 151.27940601599997,-33.6766949915 151.279335008,-33.676722001500004 151.27926499200001,-33.676752008500003 151.279196,-33.676782996 151.27909500800001,-33.6768330015 151.279044,-33.676858994 151.278996,-33.676887003 151.27894899200001,-33.6769159925 151.278899008,-33.676949995500003 151.278872992,-33.676921006 151.278830016,-33.676861991 151.27878899199999,-33.676793004499991 151.27876700799999,-33.676750991 151.278748992,-33.676708996 151.27873801600001,-33.676668 151.27873801600001,-33.676628003 151.278750016,-33.676591003 151.278772992,-33.676554003 151.27880300800001,-33.676519001 151.27886700799996,-33.676450995 151.278922016,-33.676401008 151.278984,-33.676355997500004 151.27924899199999,-33.676186001 151.27938601599999,-33.676101992500001 151.27945299199999,-33.676058998500004 151.27962201599999,-33.675940006499999 151.27967299199997,-33.675901008499999 151.279718016,-33.675859994 151.27975401599997,-33.67581500199999 151.27977299200001,-33.675778002 151.279788,-33.675740003 151.2798,-33.675701005 151.279816,-33.675620992500001 151.279820992,-33.675546992500003 151.27981401599999,-33.675472992499991 151.279786016,-33.675321995499999 151.27976601599997,-33.675186002 151.279752992,-33.675115998 151.27974300799997,-33.675064993500001 151.27973699200001,-33.675004998 151.279742016,-33.674946001500004 151.279752992,-33.674905005500001 151.27976899199999,-33.674865008499999 151.279824,-33.674744 151.27985801599999,-33.674657993499991 151.27986300800001,-33.674630003 151.279864992,-33.674600995 151.27986300800001,-33.674572005500004 151.27985801599999,-33.674543996499999 151.27984899199998,-33.674517005 151.279836,-33.674487997 151.28009913599999,-33.674324401500002 151.28063315200001,-33.674268383499999 151.28068915200001,-33.673989385 151.28083212799999,-33.673288401500002 151.28095411199999,-33.672691388 151.28123312,-33.671322388 151.28134208,-33.6707924 151.281443072,-33.6702963965 151.28149107199999,-33.670061391 151.28164006399999,-33.669330419 151.28178905599998,-33.668598411 151.28184105599999,-33.668361407500001 151.281972,-33.667675002 151.28187801600001,-33.667529999 151.28191100800001,-33.667520009 151.28197798400001,-33.6675080025 151.282048,-33.667500991 151.28212,-33.667497994 151.282262016,-33.667500991 151.282352992,-33.667507003499999 151.282444,-33.667517992500002 151.28253401599997,-33.66753299599999 151.28271401599997,-33.667567998 151.28281699199999,-33.667590993499999 151.28292,-33.667617004500002 151.28302201599999,-33.667644995 151.28306601599996,-33.667658999499999 151.28312300799999,-33.667676001 151.283288,-33.667732000500003 151.28341798400001,-33.667780008 151.28348099199999,-33.667806000500001 151.28354201600001,-33.6678360075 151.28361900799999,-33.667882997500001 151.283692,-33.667936999 151.283984992,-33.6681789975 151.284234016,-33.668388991 151.284494016,-33.668600002 151.28455500800001,-33.668642996 151.28470499199997,-33.668690004499993 151.28477100800001,-33.668707006 151.28490601600001,-33.668737993500002 151.285148,-33.668787 151.285256,-33.668805000500001 151.285303008,-33.6688119935 151.28566998400001,-33.66886999099999 151.28657900799999,-33.669008001 151.28716700799998,-33.669093008499999 151.28764099199998,-33.669169006499999 151.28795699200001,-33.669222009 151.28912601600001,-33.669386992 151.29123801599999,-33.66963899899999 151.29138288,-33.669302317499991 151.29149088,-33.669105329499992 151.291803872,-33.668629324500003 151.29360384,-33.668484303 151.29412886399999,-33.668505300500001 151.294303808,-33.668515309 151.29525683200001,-33.668568293 151.29551283199999,-33.668533291 151.29608678400001,-33.668375282500001 151.29697001599999,-33.6673709915 151.297192768,-33.667115284499999 151.29800675199999,-33.667197276499998 151.298192992,-33.667144995500003 151.29893472000001,-33.666931265 151.299988,-33.666643997 151.300172992,-33.6665929925 151.30085801600001,-33.666493 151.30119001599999,-33.666495997 151.30115900800001,-33.666618004500002 151.30113500799999,-33.666703992500004 151.301063744,-33.667138927499991</coordinates></LinearRing></outerBoundaryIs></Polygon>

	</Placemark>
</kml>