<?xml version="1.0" encoding="UTF-8"?>
<kml xmlns="http://www.opengis.net/kml/2.2">
	<Placemark>
		<Style>
			<LineStyle>
				<color>ff0000ff</color>
			</LineStyle>
			<PolyStyle>
				<fill>1</fill>
				<color>330000cc</color>
			</PolyStyle>
		</Style>
			<ExtendedData><SchemaData>
		<SimpleData name="STATE_2006">1</SimpleData>
		<SimpleData name="POA_2006">2466</SimpleData>
	</SchemaData></ExtendedData>
      <Polygon><outerBoundaryIs><LinearRing><coordinates>153.357284448,-29.401728052500001 153.36563328,-29.409618968499998 153.365534336,-29.409926956499998 153.36540531200001,-29.410270964 153.36535632,-29.410371955499997 153.365308,-29.410572995 153.36524332799999,-29.410672969 153.36524332799999,-29.410715963 153.36506531200001,-29.411203956 153.36503398400001,-29.411404995499996 153.36490531199999,-29.4117629705 153.36490531199999,-29.411805964500001 153.36484032000001,-29.411992962500001 153.36482435199997,-29.412092955 153.36475936,-29.412264968 153.364712352,-29.412508964500002 153.36469635200001,-29.4125519585 153.36469635200001,-29.412594971 153.36453536,-29.413154966 153.36453536,-29.41319796 153.36450336,-29.413283966499996 153.364408352,-29.414028961500001 153.36437699199999,-29.414200993 153.36437734399999,-29.4143019845 153.364360992,-29.414374005 153.36434601600001,-29.414560004 153.3642824,-29.415104977 153.364283008,-29.415233996 153.36426739199996,-29.415276971499999 153.36426739199996,-29.415362978 153.36420339200001,-29.415692981 153.364204384,-29.4157929735 153.364172384,-29.415964986500004 153.364139392,-29.416036988499997 153.36410838399999,-29.416208983 153.36410838399999,-29.416308975500002 153.36404438399998,-29.4167109805 153.36404537600001,-29.416796987 153.364013376,-29.416896979500006 153.36396640000001,-29.4174129815 153.363901376,-29.417656978 153.363869408,-29.417742984500002 153.36382243200001,-29.418100978 153.36377443200001,-29.4183739825 153.363758432,-29.418545977 153.363711424,-29.418817982499998 153.363711424,-29.418918974 153.36368,-29.4190910055 153.36368041599999,-29.419190979499998 153.36358441600001,-29.419678972499998 153.36355142400001,-29.419764979 153.36348940799999,-29.420337979499998 153.36340944,-29.420796983 153.36337801600001,-29.420883008 153.36336144000001,-29.421054984 153.36329846399997,-29.421413976500002 153.36329846399997,-29.421499983 153.363282016,-29.4215720035 153.36341344,-29.421699986500002 153.363430464,-29.421771988500002 153.36356144,-29.421842973 153.36359446399999,-29.421885985500001 153.363612,-29.4220150045 153.36367744,-29.422128983 153.36384144,-29.422156973499998 153.3639968,-29.422281164 153.36348345600001,-29.422587986500002 153.36237449599997,-29.423251008 153.36224348799999,-29.423309005499998 153.36203148800001,-29.423367003 153.361802496,-29.423353997500001 153.36145849600001,-29.423312002499998 153.36136048,-29.423312002499998 153.36100048,-29.423256003 153.36034652800001,-29.423186998 153.36024752,-29.423186998 153.35996950399996,-29.423073019500002 153.35990352,-29.423059015 153.359854528,-29.423031024499998 153.35954352,-29.422917009 153.35918352,-29.422775021500001 153.35911750400001,-29.422732009 153.35901952,-29.422732009 153.35892144,-29.422674992 153.35869152000001,-29.422691013 153.357940544,-29.422851019500001 153.35789155200001,-29.422851019500001 153.35782656000001,-29.422880009 153.356927552,-29.423055019 153.356534592,-29.423113035 153.35637158399999,-29.4231280385 153.35594556800001,-29.422857032 153.35597756799999,-29.422814038 153.35609148799998,-29.422756077499997 153.356173568,-29.422742036 153.35651654399999,-29.422698043 153.35663155200001,-29.422712029 153.35681155200001,-29.422654013 153.35700656,-29.422467015 153.35721865599996,-29.422308063 153.35728355200001,-29.422251009 153.35734854399996,-29.422151016499999 153.35734854399996,-29.422093019 153.35731456,-29.421964018500002 153.35719955199997,-29.421793023 153.357084544,-29.421678008500002 153.35675654400001,-29.42143601 153.35665856,-29.421379011499997 153.35636256000001,-29.421151036 153.35631353599999,-29.4210930385 153.35555856,-29.420551044 153.355542496,-29.420522017500002 153.35524656000001,-29.420294042 153.35519753599999,-29.420266033 153.35518054400001,-29.420237043500006 153.354869568,-29.420009031 153.354672736,-29.419809027500001 153.35437657599999,-29.419609042499996 153.35439059199996,-29.419079036 153.35447257600001,-29.419079036 153.35455456,-29.419121031 153.354799552,-29.419006035 153.35488,-29.418876997500004 153.35496153599999,-29.418633038 153.354991552,-29.418246036500001 153.354991552,-29.418031029499996 153.355071552,-29.417701045 153.35511955199996,-29.417486038 153.35510256000001,-29.417386027 153.35513353600001,-29.417041039 153.35516553599999,-29.416884029499997 153.35516553599999,-29.416712035 153.35521299199999,-29.416510995500001 153.35534252799999,-29.4161670435 153.355373504,-29.415837040500005 153.35525852800001,-29.415680031 153.35502950399999,-29.415709039 153.35491452799999,-29.415666045 153.354848992,-29.415667007 153.35475152000001,-29.415638036 153.35460499199999,-29.415739009 153.354473536,-29.415768035500001 153.35437555199999,-29.415826033 153.35427753600001,-29.415769034499998 153.354113536,-29.415540041499998 153.35421056000001,-29.415425027 153.35424355199999,-29.415353043499998 153.35437353599997,-29.415324035499999 153.35455299199998,-29.415224006 153.35460252799999,-29.415209039500002 153.35470051199999,-29.415209039500002 153.35481452799999,-29.415108029499997 153.354977504,-29.41507904 153.35509152,-29.41497803 153.35530352000001,-29.414934018500002 153.35535241599999,-29.414834007500001 153.35530352000001,-29.4147910135 153.35505552000001,-29.414290033499999 153.35499001599996,-29.414133005500002 153.354956512,-29.414076044 153.354956512,-29.4140320325 153.35480851200001,-29.413732036500001 153.354742528,-29.413661033499999 153.35446451199996,-29.413791033 153.35446550399999,-29.413819042 153.354416512,-29.413848031500006 153.354416512,-29.4139480425 153.35433452799998,-29.413992035500002 153.35422150400001,-29.414178034500001 153.354336512,-29.414336043 153.35443452800001,-29.414393041500006 153.35443452800001,-29.414421032 153.35440252800001,-29.414464044500001 153.354418528,-29.414507038500002 153.35437100799999,-29.414637001 153.35437100799999,-29.414693999500003 153.35422352000001,-29.414751035 153.35417452799996,-29.414752034 153.354059552,-29.414680032 153.353945536,-29.414666027500001 153.35392854400001,-29.414624032499997 153.353912544,-29.414638037 153.35384656,-29.414552030499998 153.35381353599999,-29.414366031499998 153.35364899199999,-29.414237993 153.35368153600001,-29.414051032 153.353712992,-29.413936998 153.35381052799997,-29.413764041500006 153.35381052799997,-29.413664030499998 153.35382652800001,-29.4136210365 153.353989504,-29.413563039 153.35407152,-29.413519027500001 153.35415251200001,-29.413462029 153.35425052799999,-29.413419035 153.35438051200001,-29.4132890355 153.354511008,-29.413246004499999 153.35449452799998,-29.413203029 153.35454352,-29.413174039499996 153.35454352,-29.413145031499997 153.35444451199999,-29.412974036 153.35437952000001,-29.412917037500002 153.35428051199997,-29.412802041499997 153.35378851199999,-29.412474036500001 153.353493504,-29.412318044500001 153.35329651199999,-29.412146031499997 153.35318150399999,-29.4120610425 153.35293452799999,-29.411818045 153.35288601599999,-29.411703992500001 153.35288451199997,-29.411503027 153.35294950400001,-29.411388031 153.352932512,-29.411273035 153.352752,-29.411159001 153.352637504,-29.411117043 153.352456512,-29.410974038 153.35237452800001,-29.410931044 153.35232550399999,-29.410874027 153.35229350399999,-29.410860041 153.352227008,-29.410803005500004 153.35176652800001,-29.410217036500001 153.35143856,-29.4099880435 153.35116,-29.409817991499999 153.35109456000001,-29.409760031 153.35106153599997,-29.409760031 153.35068454399999,-29.4095040465 153.350487552,-29.409404054 153.35032355199999,-29.409304061499999 153.35027456,-29.409261049 153.350241536,-29.409261049 153.35009456,-29.409147052 153.35007753599999,-29.409119061499997 153.349913536,-29.408990061 153.34989654399996,-29.408962052 153.34955856,-29.408689047500001 153.34947056,-29.408619062 153.34932256,-29.408476057 153.34924099200001,-29.408434006500002 153.349207552,-29.408434062 153.34899456,-29.408305061499998 153.34892953600001,-29.408291057 153.348847552,-29.408234058499996 153.348552576,-29.408178059 153.34842156799996,-29.408164054500002 153.348307584,-29.408136045500001 153.34807859200001,-29.408136045500001 153.347980576,-29.4081510675 153.347948,-29.408194006 153.347948,-29.408252003500003 153.34804700800001,-29.408380005 153.34798156799999,-29.408466067 153.347984,-29.408867998 153.34801657599999,-29.408896081 153.34803257600001,-29.408939075 153.34809859200001,-29.408982069 153.34806659200001,-29.409097065 153.34806659200001,-29.409197076 153.34809958399998,-29.409268079 153.34816556800001,-29.409354067 153.34818265599998,-29.409426087500002 153.348149568,-29.4095120755 153.34815059199997,-29.409569074 153.34797059199997,-29.409656079499996 153.34790556799996,-29.409713078 153.34783958400001,-29.409714077 153.347823584,-29.409656079499996 153.34779059199997,-29.409656079499996 153.34772457599999,-29.409413082 153.34772358399999,-29.409284081499997 153.34769059199999,-29.409213078500002 153.347625728,-29.409127109 153.347608576,-29.40905507 153.347607584,-29.408969082 153.34752556799998,-29.408869071 153.347508576,-29.408740070500002 153.34745958400001,-29.40871208 153.34737756800001,-29.4085970655 153.347393152,-29.408497017499997 153.34731059200001,-29.4083680725 153.347326592,-29.408325078500003 153.347326592,-29.408282066 153.34731059200001,-29.408211081499999 153.34721158400001,-29.408125075 153.34721059200001,-29.408010079 153.34716156799999,-29.40798207 153.34716156799999,-29.407924072499998 153.34706358399998,-29.407839065 153.34707958399997,-29.407767081499998 153.34716057599999,-29.407709065500001 153.34724259199999,-29.4076660715 153.347158592,-29.407294073500001 153.34707558399998,-29.407050077 153.34702659199999,-29.406893067500004 153.34695958399999,-29.4066640745 153.346910592,-29.406564082 153.346843584,-29.406306081 153.34676057600001,-29.406062066 153.34671158399999,-29.405905075 153.346561568,-29.405332074500002 153.346561568,-29.405246031 153.346527584,-29.405117067500001 153.34652771200001,-29.404988104 153.34644457600001,-29.404817071499998 153.34644457600001,-29.404745069500002 153.346278592,-29.404230066500002 153.34622857599999,-29.404058072 153.34618857599997,-29.403953066 153.346063552,-29.403629075500003 153.34598054400001,-29.403356071 153.34587955200001,-29.402826064500001 153.34587955200001,-29.402784069499997 153.34586256,-29.402712067500005 153.345829536,-29.402612075 153.34582656000001,-29.401952069 153.34577753600001,-29.401824067500002 153.34571052800001,-29.401508069 153.345692544,-29.401251067 153.34567654400001,-29.4011930695 153.34565856,-29.400950072 153.34565856,-29.400806068 153.34564153599999,-29.400764073 153.34560755199999,-29.400420065500004 153.34560656,-29.400262075500002 153.34558953600001,-29.400076076499996 153.34558553599999,-29.399187077500002 153.34563251200001,-29.398714069499999 153.34574652800001,-29.3985710645 153.34584550400001,-29.39868508 153.34587852799999,-29.398799077 153.34601292799996,-29.399587029 153.34601350400001,-29.399759079 153.34613056,-29.40046108 153.346131552,-29.400719081 153.34619856,-29.400891075500002 153.34624755199999,-29.4009340695 153.346345536,-29.400948074 153.34657353599997,-29.400846065 153.34662252800001,-29.400789066499996 153.34662252800001,-29.400732068 153.34670352000001,-29.400617072 153.34673651200001,-29.400531065500001 153.346785504,-29.400487054 153.34683350399999,-29.4004730495 153.34701350399999,-29.400501058499998 153.34712851200001,-29.400544052500003 153.347243392,-29.400514027 153.34730752,-29.400342051 153.34735552000001,-29.40008405 153.34738851200001,-29.400070045500001 153.34748550399999,-29.399969054 153.34771350400001,-29.399739062 153.34785948800001,-29.399366046500003 153.347874496,-29.3991800475 153.347873472,-29.398936051 153.34779049599999,-29.398578057499996 153.34772348800001,-29.398392058499997 153.34772348800001,-29.3982920475 153.347739488,-29.398220045499997 153.34782048,-29.398062055500002 153.34786947200001,-29.397990053500003 153.34795049600001,-29.397976049 153.34798348800001,-29.397961045499997 153.34813049600001,-29.397932056 153.348033472,-29.398219046499996 153.348034496,-29.398305053 153.348067488,-29.398362051500001 153.348099488,-29.3983910595 153.348181568,-29.398390023499996 153.348426496,-29.398333062 153.34870448000001,-29.398203062500002 153.34876947199996,-29.398188059 153.348965472,-29.398101053499996 153.34909548799999,-29.398015047 153.349144448,-29.397943063500001 153.34912745599999,-29.397871061500002 153.34899644800001,-29.397714052 153.34878348800001,-29.397586050499999 153.34837248,-29.397200048 153.34802748800001,-29.396843053499996 153.34787948799999,-29.396743061 153.347618496,-29.396658053500001 153.34755248,-29.396501062500001 153.34755148799999,-29.396415056 153.347436,-29.3961570365 153.34730348799999,-29.395900053 153.34720448,-29.395528073499996 153.34720348799999,-29.395441068 153.347154496,-29.395255050500001 153.347119488,-29.39491108 153.34716848,-29.394739067 153.34718348800001,-29.394553068 153.34721545599999,-29.394381073500004 153.347214592,-29.394037084500003 153.34722844800001,-29.393507078 153.34725945599999,-29.393334066 153.34725945599999,-29.393234073500004 153.34729145599999,-29.393148067 153.34729145599999,-29.393048074500005 153.34732345599997,-29.39287608 153.347322464,-29.392804078 153.34735446399998,-29.392603075500002 153.34741846399999,-29.392245082 153.34741846399999,-29.392216074 153.347434464,-29.392073069 153.347482464,-29.392015071500001 153.34756345599999,-29.391743066 153.347612416,-29.391642093 153.34762844799999,-29.391556068 153.347692416,-29.3914270675 153.34774140799999,-29.391269077499999 153.34787043200001,-29.39092507 153.347886432,-29.3908240785 153.34798342400001,-29.390595067 153.34798342400001,-29.390566077499997 153.34801542400001,-29.390509079 153.34807942399996,-29.390251078 153.348111424,-29.389964069 153.348143424,-29.389878081 153.34819142399999,-29.38962008 153.34823942399998,-29.3895050655 153.34823942399998,-29.389419077499998 153.34827142399996,-29.389247064499997 153.348302432,-29.38891708 153.348299392,-29.388286082 153.34821638400001,-29.387843081 153.348016384,-29.386969067 153.34790038400001,-29.38669708 153.3477984,-29.386495078500001 153.34804838400001,-29.386520072 153.348240992,-29.386539996500002 153.34871801599999,-29.386609001499998 153.34892640000001,-29.386639064 153.35609126400001,-29.38771902 153.356333248,-29.387751025 153.35819100800001,-29.387998 153.36073718399999,-29.388335976500002 153.358823296,-29.395944989500002 153.35868528,-29.3965029865 153.35748336,-29.401312006 153.35731235200001,-29.401688 153.357284448,-29.401728052500001</coordinates></LinearRing></outerBoundaryIs></Polygon>

	</Placemark>
</kml>