<?xml version="1.0" encoding="UTF-8"?>
<kml xmlns="http://www.opengis.net/kml/2.2">
	<Placemark>
		<Style>
			<LineStyle>
				<color>ff0000ff</color>
			</LineStyle>
			<PolyStyle>
				<fill>1</fill>
				<color>330000cc</color>
			</PolyStyle>
		</Style>
			<ExtendedData><SchemaData>
		<SimpleData name="STATE_2006">1</SimpleData>
		<SimpleData name="POA_2006">2151</SimpleData>
	</SchemaData></ExtendedData>
      <Polygon><outerBoundaryIs><LinearRing><coordinates>151.03128384,-33.778279527500004 151.03132982400001,-33.7785805225 151.03134864,-33.778675594 151.03106883199999,-33.778596525 151.03071283200001,-33.778433521499998 151.03062784,-33.778418518 151.030355872,-33.778328534 151.03013385599999,-33.778296547499998 151.02903385600001,-33.778437536 151.02884387199998,-33.778491537500003 151.028756864,-33.778561541499997 151.02856489600001,-33.778730557499998 151.02845891199999,-33.77885756 151.028421888,-33.778972556 151.028208896,-33.779312567499993 151.02810390400001,-33.779425565499992 151.02793091199999,-33.779508556499998 151.02774089600001,-33.7795485535 151.02760390399999,-33.779546555499998 151.027484896,-33.779516567 151.02724694400001,-33.779441568 151.02710992,-33.779410562 151.02678592000001,-33.779333583499998 151.02651193599999,-33.779344572500001 151.02639193600001,-33.779356579 151.026183936,-33.779467579 151.02602694399999,-33.7795945815 151.025956928,-33.779664585500001 151.02591894400001,-33.779807572 151.02591792000001,-33.779879574 151.02594793599997,-33.7800375825 151.025979968,-33.780180569 151.02600896000001,-33.780396575 151.02600595199996,-33.78053958 151.02596496000001,-33.780825571500003 151.02590896000001,-33.781039579500003 151.02574995200001,-33.781265575500001 151.025363008,-33.781703581500004 151.02525817599999,-33.781788533499999 151.02520691199999,-33.781814433500003 151.025068,-33.781885584500003 151.025016,-33.781884604 151.024964,-33.7819125945 151.024792,-33.781938605500002 151.02467299200001,-33.781937588 151.024655008,-33.781936589 151.02446700799996,-33.781919587499992 151.024313984,-33.781859592 151.02383798400001,-33.781695589500004 151.023581984,-33.781662604 151.02323801599999,-33.7817146075 151.02303104000001,-33.781754623 151.02247702400001,-33.782046608500004 151.02213104,-33.782184618500004 151.02199302400001,-33.7822256145 151.021941024,-33.782267609500003 151.021683072,-33.782320612 151.02147404799999,-33.7824466155 151.02142204800001,-33.782460638499991 151.021300064,-33.782573636500004 151.020827072,-33.783038634 151.02072307200001,-33.783065625500001 151.020671104,-33.783107639 151.02049609599999,-33.783172629500001 151.02044608,-33.78319063 151.02022409599999,-33.783201637499999 151.02010409600001,-33.783184636 151.019984096,-33.783183637 151.01983110399999,-33.783152631 151.01943808,-33.783103643 151.01914908800001,-33.782998655499995 151.01902908799997,-33.782982653 151.01891008000001,-33.782937661 151.01850108799997,-33.782845660500001 151.018038112,-33.782838649 151.01733411199999,-33.782913666500001 151.01671712000001,-33.782918661499998 151.01599916799998,-33.782850692499991 151.01565916799998,-33.782730683 151.015473152,-33.782613689 151.01491814400001,-33.782146693500003 151.01458115200001,-33.781869693 151.01435616000001,-33.781736696499998 151.014259168,-33.781735716 151.01417414400001,-33.781719713500003 151.01395116800001,-33.781701713 151.013729152,-33.781698716 151.01370816,-33.781701713 151.014484224,-33.785086695 151.01298121599999,-33.785407707 151.01311926400001,-33.786019705500003 151.01334326400001,-33.787010713500003 151.01382528,-33.789145706 151.01384528,-33.789238705500004 151.013866272,-33.7893367 151.014215296,-33.790951713 151.01425430399999,-33.79113971 151.01428032,-33.791274704500005 151.014431328,-33.79205768 151.01446732799999,-33.792240682 151.01453731199999,-33.792601691 151.014610304,-33.792969693 151.01475635200001,-33.793735685500003 151.01478534399999,-33.793887681500003 151.01472736,-33.793888680500004 151.014734336,-33.793920685499998 151.01502947200001,-33.795396097500003 151.015052736,-33.795469968 151.01509100799998,-33.795452226500004 151.01510336,-33.795522693 151.015130336,-33.795643683 151.01521033599997,-33.795985692500004 151.015220352,-33.796033681499999 151.01524035200001,-33.796119688 151.01539737600001,-33.796807684500003 151.01568038400001,-33.798102684500002 151.01582137599999,-33.7987566965 151.0159544,-33.799332675499997 151.01584953599999,-33.799330751500001 151.01586972799998,-33.799424935 151.01609401600001,-33.800552288 151.01609904,-33.800565238 151.01610192000001,-33.800579279499999 151.01610192000001,-33.800607899 151.016121408,-33.800701675500001 151.01635100799999,-33.800693998 151.01651699199999,-33.800665008500005 151.017376,-33.800567994499993 151.01752438400001,-33.800549679500001 151.01984412799999,-33.800220897499997 151.019870048,-33.800213886 151.019913952,-33.800204247499998 151.020416896,-33.800139368 151.020597952,-33.800114337499998 151.0210368,-33.800056025499998 151.02211283199998,-33.799903197 151.02227411199999,-33.7998691755 151.02450899199999,-33.799397851 151.024583264,-33.799473571500002 151.02465824000001,-33.799589585 151.02470124800001,-33.799656573500002 151.02467625599999,-33.799785574 151.02464524800001,-33.799945580500001 151.02461424000001,-33.800107585 151.024581248,-33.80027057 151.024550272,-33.800430576499998 151.02451929599999,-33.800591582 151.024495296,-33.800716586500002 151.02448627199999,-33.800759580499999 151.02445529600001,-33.800918569499999 151.024382272,-33.801294582 151.024370272,-33.801353578499999 151.02432227200001,-33.8015995915 151.02427228799999,-33.801843588 151.02425529599998,-33.801921602500002 151.02416230399999,-33.802339591500001 151.02401331199999,-33.803011604 151.02392732800001,-33.803396589 151.02388931199999,-33.803587601499999 151.02376528,-33.804198915500002 151.02374220799999,-33.804207906500004 151.023639616,-33.80425029 151.02355609599996,-33.8042884555 151.02309168,-33.804521185500001 151.022927872,-33.804602733499998 151.02221436799999,-33.805010436499991 151.022134816,-33.805060645499999 151.02205993600001,-33.805116275 151.02202464000001,-33.805145782499999 151.02198035200001,-33.805186834 151.021938592,-33.8052302165 151.02189971199999,-33.805275578499995 151.02186336,-33.8053222725 151.02182988800001,-33.805370076500004 151.02179856000001,-33.805419841500004 151.02176147200001,-33.805489586500002 151.02174528,-33.805523885500001 151.02172297600001,-33.805577332 151.021706752,-33.805606136500003 151.02081900799999,-33.807105802 151.02075961599999,-33.807205887 151.020603712,-33.807446183499991 151.02033913599999,-33.807747955499998 151.02021456,-33.807880341500002 151.02012816,-33.807971972 151.01953056,-33.808160339 151.019179552,-33.808268064499998 151.019016128,-33.808376252500004 151.01898768,-33.808398471 151.01896428800001,-33.808423779 151.01894627199999,-33.808452472500001 151.01893728,-33.808474894500002 151.01893116799999,-33.808510081500003 151.018647488,-33.80846795699999 151.018415648,-33.808441058 151.018228096,-33.808427460499999 151.018159328,-33.808422428500002 151.018003072,-33.808428626 151.01748828800001,-33.808473359 151.017215072,-33.808497242500003 151.01623872,-33.80858387799999 151.01470764799998,-33.808721222 151.01366723199999,-33.808814462 151.01221897599999,-33.808949012500001 151.01173296,-33.808994189499998 151.00969392,-33.809151513499998 151.00955964799999,-33.809139803 151.00973171199999,-33.808220723 151.009914976,-33.807251526500004 151.01011008,-33.806223185500002 151.01030736000001,-33.805212382500002 151.01050563199999,-33.804193939 151.007928,-33.8038550005 151.008137632,-33.802785182500003 151.00658028800001,-33.802573857 151.00576236800001,-33.80355432 151.00423056,-33.803342199 151.003198432,-33.803199175499998 151.00188121599999,-33.803016654499999 151.00147116799999,-33.802937826 151.001825056,-33.801279116 151.00184521599999,-33.801171927 151.0011576,-33.800071676500004 151.001046016,-33.79989339199999 151.00200720000001,-33.799466079 151.001936992,-33.7993463655 151.001682848,-33.798957754500002 151.00130195200001,-33.798344942 151.0011576,-33.798098614499999 151.00107011199998,-33.797949116 151.00098083199998,-33.797807998 151.00089840000001,-33.797676962499999 151.00079580799999,-33.797530794 151.00006896,-33.796357746 150.99944963199999,-33.795354898 150.99943964799999,-33.795337896500001 150.999433568,-33.795182885 150.99945264,-33.795111863499997 150.99945948800001,-33.7948109055 150.99947856,-33.794739902499998 150.99946272,-33.794667900500002 150.99948252799999,-33.7945968975 150.99952464,-33.794310869 150.99954371199999,-33.794239866 150.999545536,-33.794153915 150.99959696,-33.793947769500001 150.99966144000001,-33.793697871500001 150.99969852800001,-33.793626868499999 150.99970067199999,-33.793540917500003 150.99975648,-33.793426883499997 150.999812128,-33.7933410435 150.99986659199999,-33.793256868500002 151.00001158399999,-33.793087871 151.00017257600001,-33.792960868500003 151.00040956799998,-33.792650882499998 151.00051958399999,-33.79242486799999 151.000524576,-33.792265879 151.00047456,-33.792121875 151.00007756799997,-33.791743883 150.999961568,-33.79141288099999 150.99987558399999,-33.791310872 150.99981254399998,-33.790965865499999 150.99983555199998,-33.790751876 150.999837536,-33.790651865 150.99996652799999,-33.790438874499998 151.000038528,-33.790368870500004 151.00018054399999,-33.790327874500001 151.000322528,-33.790301882 151.000515552,-33.790332869499998 151.00069052800001,-33.790393882499998 151.000796544,-33.790394881499999 151.000885536,-33.790381876 151.00099251200001,-33.7903268755 151.00115750399999,-33.79025985 151.001165504,-33.790255854 151.001290496,-33.790057848499998 151.001344512,-33.789886853 151.00134851199999,-33.789743848 151.00129952,-33.789627853 151.001313504,-33.788997854 151.00144448,-33.788512858 151.00144646399997,-33.788441855 151.001466464,-33.788312854499999 151.001423488,-33.7879398575 151.00139248,-33.787767863 151.00135948799996,-33.787709847 151.00134448,-33.787637863500002 151.001310464,-33.78759485099999 151.00115747199999,-33.787473861 151.00112547200001,-33.787448849 151.00026448,-33.786679878 150.999969472,-33.786488865500004 150.99971046399997,-33.7862558765 150.99960547200001,-33.786196898499995 150.99953648,-33.786123897499998 150.99943148799997,-33.786064901 150.99929347200001,-33.785947888500004 150.99919148800001,-33.785760890500001 150.999193472,-33.785688888500005 150.99917747200001,-33.785616886500001 150.99925347199999,-33.785389891500003 150.999307488,-33.785332893 150.99936246399997,-33.7852338995 150.99947148800001,-33.785106897 150.99977648000001,-33.784896866499999 151.00004444800001,-33.784757876 151.000240448,-33.784660880499999 151.00032944,-33.784647875 151.00075043199999,-33.784725871 151.00083843199999,-33.784770881500002 151.00101344000001,-33.784815873500001 151.00111744,-33.784889855 151.00115744,-33.784907855500002 151.00165744,-33.785136848500002 151.00180944,-33.785239856499999 151.00211440000001,-33.785372853 151.002421408,-33.785463854500001 151.00298540799997,-33.785500836 151.00312342399999,-33.785502834 151.003583424,-33.785595833500004 151.00371942399997,-33.785641843 151.00377040000001,-33.785655829 151.00382140799999,-33.78568583599999 151.00390640000001,-33.78570182 151.0041104,-33.78577582 151.004347392,-33.785908816500005 151.00453337600001,-33.786040814 151.004583392,-33.786098811500004 151.00476838399999,-33.786244813499998 151.00500236799999,-33.786519816 151.005539392,-33.787029805499998 151.005674368,-33.787102806500002 151.00579436800001,-33.787119808 151.00587939199997,-33.787120807 151.00600038399998,-33.787079792500002 151.00610537599999,-33.786966794500003 151.006193376,-33.786867801 151.00623139199996,-33.786724796 151.00628537599999,-33.786611798 151.006293376,-33.786267809 151.00627836800001,-33.78616779799999 151.00627936,-33.786095796 151.00626435199996,-33.786023794 151.00625033599999,-33.785851799500001 151.006361344,-33.785524793500002 151.00659235199998,-33.785155792499999 151.00670336,-33.784755785499996 151.006777312,-33.784513787 151.00687030399999,-33.784228776 151.00699532799999,-33.784001781 151.007540288,-33.783365788 151.007576288,-33.783294785 151.00813228800001,-33.782930760500001 151.00820128000001,-33.78290277 151.00825427199999,-33.7828607565 151.00861728000001,-33.782722765 151.00868524800001,-33.782709759499994 151.00903126399999,-33.782571768 151.00929424,-33.782332766499998 151.00940025599999,-33.782176756 151.00943724800001,-33.782062759 151.00956822399999,-33.78156374 151.00962620799999,-33.781249739499998 151.00964822399999,-33.781048737 151.00959020799999,-33.780575747500002 151.00955820799999,-33.780460751500001 151.00956022400001,-33.780388749499998 151.00951123199999,-33.780259749 151.00951222399999,-33.780216736500002 151.00933123199999,-33.77988475399999 151.009149216,-33.779623756 151.009015232,-33.779492757500002 151.00891523199999,-33.77936275799999 151.00883020800001,-33.779303761499996 151.00874723199999,-33.779201771 151.008630208,-33.779085757499999 151.00833020799999,-33.77869476 151.008214208,-33.778506763 151.00794620799999,-33.778215776499998 151.00791321599999,-33.778186787 151.00777820799999,-33.778069774500004 151.00764723200001,-33.777810774499997 151.00762121599999,-33.777466785500003 151.00757622399999,-33.777136782500001 151.007460224,-33.776976776 151.00734220800001,-33.776889789 151.00713721599999,-33.776885774500002 151.00682723200001,-33.776938777 151.00655420800001,-33.776905791499999 151.00636422400001,-33.776931802500002 151.00570924799999,-33.7771508055 151.005467264,-33.777218793 151.00515824,-33.7772428245 151.00502124799996,-33.777225823 151.00481926399999,-33.777079821 151.004769248,-33.7770218235 151.00473824,-33.776863815 151.00474124799999,-33.776734814500003 151.00481424,-33.776563819 151.00486624000001,-33.776507819500004 151.00518326400001,-33.776139817500002 151.00528822399997,-33.776041823 151.005465216,-33.775786800500001 151.00559523199999,-33.775329795 151.00560022400001,-33.775129791499999 151.00557020799997,-33.774942793500003 151.005488224,-33.774755795499992 151.00539321599999,-33.774438798 151.005343232,-33.774366814499999 151.005343232,-33.774337825 151.005263232,-33.774121819 151.005232224,-33.77393582 151.00528118400001,-33.773277812 151.00535619199997,-33.773006824 151.005498176,-33.77280780099999 151.00576118399999,-33.772525805500003 151.006074176,-33.772315793499999 151.00617916799999,-33.7722168 151.006321152,-33.771989805 151.00637414400001,-33.771919801 151.00672416,-33.771609796500002 151.00677516799999,-33.771610795500003 151.00691616,-33.771425777 151.006986144,-33.771369777499999 151.00698716799999,-33.771326783500001 151.00702316799999,-33.771241776 151.00702614400001,-33.771098789500002 151.00704614399999,-33.770998778500001 151.007062144,-33.770985773 151.00694614400001,-33.77086778 151.00689616,-33.770795778 151.00674416000001,-33.770692807 151.00638816,-33.770544807 151.006286144,-33.770499796500005 151.00626716799999,-33.770485792 151.00603315199999,-33.770309801499998 151.00589916800001,-33.770178803 151.00571814400001,-33.769832797499994 151.00563916799999,-33.769559793 151.00560614400001,-33.769501795499998 151.00559216,-33.769357791499999 151.00557616,-33.769314797500002 151.00558115199999,-33.7690718 151.00565612799997,-33.7687868075 151.00572713599999,-33.768672792 151.00578211199999,-33.768515801 151.00578313599999,-33.7684588025 151.00580512,-33.768258799 151.00572713599999,-33.767927797 151.005496128,-33.767508827500002 151.005214112,-33.767103825500001 151.00516611200001,-33.766974825 151.005171456,-33.766949813 151.00518512,-33.7668888185 151.00522112,-33.766817815499998 151.00522211200001,-33.766759818 151.00524313599999,-33.766733825500005 151.005263136,-33.766706815500001 151.00531011199999,-33.76664682 151.005451136,-33.766477822500001 151.00573008000001,-33.766252807 151.00616409599999,-33.765986795499998 151.006320096,-33.765917809 151.00645910399999,-33.765847805 151.00671808000001,-33.765751808499999 151.00678608000001,-33.7657528075 151.00683808,-33.765724798499996 151.006993088,-33.765684801500001 151.007273056,-33.765667781499999 151.007748064,-33.765638773500001 151.00785107199999,-33.76564079 151.008041056,-33.765586788500002 151.008197056,-33.765487776500002 151.00858771200001,-33.765096187 151.008670016,-33.765008756 151.00877603199999,-33.764880754499998 151.008881024,-33.764796764499998 151.00891702399997,-33.76469777099999 151.00895203199997,-33.764654758500001 151.00916601599999,-33.764314765500004 151.009256032,-33.764072767 151.00929203199999,-33.764015768500002 151.00934899200001,-33.76378775599999 151.00936899199999,-33.763658755500003 151.00940499199999,-33.763558763 151.00941398399999,-33.763157757 151.009367008,-33.762970759 151.00933500799999,-33.762855763 151.00922198399999,-33.762539764499998 151.009176,-33.762323758500003 151.009196992,-33.762152763 151.00918099200001,-33.762094765499995 151.0092,-33.762009758 151.009236,-33.761937756 151.00923699200001,-33.761895761 151.00927299200001,-33.761824758 151.00960896000001,-33.76134275899999 151.00981996799999,-33.761073769 151.00994595200001,-33.760831770499998 151.01000096000001,-33.760646770500003 151.01002297599999,-33.760446767 151.01006195199997,-33.760232740500001 151.01008297600001,-33.76006074599999 151.01015792000001,-33.7597897395 151.01017593599997,-33.759732741 151.01021094399997,-33.759690746 151.01028294400001,-33.759519750500004 151.010388928,-33.759392748 151.01038492800001,-33.759378743500001 151.01097792,-33.759085740499998 151.011446912,-33.758806742 151.011533888,-33.758750742499998 151.01177590399999,-33.758640723 151.01199990399999,-33.758600726 151.01220489599999,-33.758617727500003 151.01251190400001,-33.758694724499996 151.012918912,-33.7588437235 151.01317289599996,-33.759005728 151.01327289599999,-33.759106719500004 151.01340790399999,-33.759223713499999 151.013525888,-33.75928271 151.01367788799999,-33.759413708499999 151.01393088,-33.759589699 151.01399888,-33.759604702499999 151.01404886399999,-33.759648714 151.01411686399999,-33.759678702500004 151.014303872,-33.759738716500003 151.01464486399999,-33.759815713500004 151.01479888,-33.759817711499998 151.01485088000001,-33.759804706 151.01524585600001,-33.759767687500002 151.01610284799997,-33.759722695500002 151.016429824,-33.759684696500003 151.01677184,-33.759690672 151.016890848,-33.759706674500002 151.01702883199999,-33.759708672499997 151.01740384,-33.759771665 151.01754083200001,-33.759773663 151.01757484800001,-33.759788666499993 151.01777984,-33.759820671500002 151.01808780799999,-33.759824667499998 151.01834579199996,-33.759771665 151.01841481599999,-33.759744673500002 151.018466816,-33.759727672 151.0185008,-33.759716646 151.01850681600001,-33.759715647 151.01863881599999,-33.759690653500002 151.018690816,-33.759647659500004 151.0187608,-33.7596206495 151.01879580799999,-33.759577655500003 151.018882816,-33.759507651500002 151.01893481599998,-33.75947966099999 151.0192528,-33.759069645499999 151.019378784,-33.758770648500004 151.01943776,-33.758427658500004 151.01942576,-33.758198647 151.019364768,-33.757853659 151.01934876799999,-33.757810646499998 151.019187776,-33.757335659 151.01919276800001,-33.75714966 151.01921078399999,-33.757106647500002 151.01921078399999,-33.757063653499998 151.01924777599999,-33.756978646 151.01926278400001,-33.756960645500001 151.02446272,-33.75973758799999 151.02586169599999,-33.76048558 151.027501664,-33.76136055599999 151.02885872,-33.763653538500002 151.02945216000001,-33.764657034 151.02962371199999,-33.764946540499999 151.030025696,-33.765585549 151.03163971199999,-33.76835252 151.031611712,-33.768365525500002 151.03171872,-33.76857951499999 151.031307712,-33.769104526500001 151.031252704,-33.769069524500004 151.02964675199996,-33.769414549499999 151.02959075199999,-33.7694305335 151.02953574399999,-33.769446536 151.02945577599999,-33.769477542 151.02937977599998,-33.769514542 151.02933276799999,-33.769542532500004 151.02930876799999,-33.76955653699999 151.02924278399996,-33.769605543499999 151.02922076799999,-33.769621546 151.02916176,-33.7696755475 151.029091776,-33.769753543500002 151.02906176,-33.769795538499999 151.029047776,-33.769817535 151.02902076800001,-33.769860547500002 151.02879177599999,-33.77014554 151.02806905599999,-33.7710438075 151.02828505599996,-33.771161874499995 151.02838441599999,-33.771186091 151.0284096,-33.771189957499999 151.02844451199999,-33.771192658499999 151.02847980799999,-33.771193195 151.02851545600001,-33.771191678 151.02855072,-33.771188070500003 151.02858528,-33.771182317 151.02921456000001,-33.771108502 151.02937331199999,-33.771737872 151.02965881599999,-33.772397304500004 151.02966780799997,-33.772412067499999 151.029757792,-33.772564082 151.02985571199997,-33.7727737795 151.02994896000001,-33.773236557 151.029960832,-33.773295609 151.03014336000001,-33.774302157 151.03016784,-33.774328353 151.03018297599999,-33.774367314 151.03019484800001,-33.774410437500002 151.03020995200001,-33.774449121 151.03023443199999,-33.774474965499998 151.03026540799999,-33.774487027500001 151.03030140800001,-33.774494760499998 151.03033993599999,-33.774498090500003 151.03037737599999,-33.774496555 151.030410112,-33.774489987500004 151.0311768,-33.774398523500004 151.03155180799999,-33.776690525500001 151.031569792,-33.7767735165 151.03157881600001,-33.776801525499998 151.03160579199999,-33.776882518499995 151.03165481600001,-33.776987524500001 151.0317168,-33.777087517 151.03175180799997,-33.777134525500003 151.03179081600001,-33.777180516500003 151.03181081599999,-33.777203530500003 151.03183180799999,-33.777225527 151.0318528,-33.777247523500002 151.031875808,-33.777268521 151.03189881599999,-33.777289518499998 151.03194681599996,-33.777328516499999 151.03197180800001,-33.777347516 151.03202281599999,-33.77738451599999 151.0320488,-33.777401517500003 151.0320768,-33.777418519 151.032131808,-33.777450524 151.032189792,-33.777479513499998 151.0322488,-33.777506523500001 151.03214499200001,-33.777563004 151.03191500799997,-33.777762008499998 151.03128384,-33.778279527500004</coordinates></LinearRing></outerBoundaryIs></Polygon>

	</Placemark>
</kml>