<?xml version="1.0" encoding="UTF-8"?>
<kml xmlns="http://www.opengis.net/kml/2.2">
	<Placemark>
		<Style>
			<LineStyle>
				<color>ff0000ff</color>
			</LineStyle>
			<PolyStyle>
				<fill>1</fill>
				<color>330000cc</color>
			</PolyStyle>
		</Style>
			<ExtendedData><SchemaData>
		<SimpleData name="STATE_2006">1</SimpleData>
		<SimpleData name="POA_2006">2104</SimpleData>
	</SchemaData></ExtendedData>
      <Polygon><outerBoundaryIs><LinearRing><coordinates>151.288968,-33.653183008500001 151.28919500800001,-33.653426006 151.289694016,-33.653796006 151.28986601599999,-33.653951998 151.28991401600001,-33.653975992500001 151.28996300799997,-33.654000005500002 151.29001299199999,-33.654024 151.29006201600001,-33.654046995500003 151.290112,-33.654068992 151.290168,-33.654094004 151.29022499199999,-33.654118997499999 151.29028201599999,-33.654142992 151.29034,-33.654165007 151.29039798400001,-33.654186004499998 151.29044300800001,-33.654196993500001 151.290494016,-33.65420600299999 151.29054201599999,-33.654213995 151.29058099199997,-33.654227000499993 151.29060300800001,-33.654245001 151.29062899199999,-33.654259005500002 151.29065900800001,-33.654268995500004 151.29069100800001,-33.65427700599999 151.290724,-33.654281002 151.29075500799999,-33.654281002 151.290784992,-33.654275008 151.29081401600001,-33.654262002499998 151.290843008,-33.654246 151.290872992,-33.654229997500003 151.29090300799999,-33.654216992 151.290931008,-33.654208001 151.29095900799999,-33.654200009 151.290988,-33.654191998500004 151.29101699200001,-33.654184006500003 151.291055008,-33.654169003 151.291076992,-33.654158994500001 151.29109801600001,-33.654147006499997 151.29111699200001,-33.654117998499999 151.29112499199996,-33.654101996 151.291146016,-33.654075004500001 151.29116499200001,-33.654067993 151.291188,-33.654065995 151.291212992,-33.654065995 151.29123801599999,-33.654064996 151.29126,-33.65406000099999 151.291276,-33.654049992499999 151.291290016,-33.6540360065 151.291304,-33.654022002 151.29133401600001,-33.6540050005 151.291352,-33.654011993499999 151.291371008,-33.65403099299999 151.29139100800001,-33.654054007 151.291412,-33.654075004500001 151.29143299200001,-33.654083995500002 151.29145500800001,-33.654080998499992 151.29147699200001,-33.654068992 151.29150099200001,-33.654052009 151.291524,-33.654034008499998 151.29154700800001,-33.654019005 151.29156601599999,-33.654007997500003 151.291584992,-33.653995991 151.29160300800001,-33.653985002 151.29162300799999,-33.653973994499999 151.291642016,-33.653964004500004 151.291662016,-33.653954995 151.291684,-33.65394700299999 151.29170499200001,-33.653938992499995 151.29172700800001,-33.653932998500004 151.29175001600001,-33.653927004499998 151.291812,-33.653919993 151.291879008,-33.653921991 151.291948,-33.653931999500003 151.292016,-33.653946004 151.29208300799999,-33.653958991 151.292124,-33.653968000499994 151.29216601600001,-33.653979008 151.29220700799996,-33.653989997 151.292247008,-33.654001004499996 151.29228899200001,-33.654011993499999 151.29232499199998,-33.654021003 151.292362016,-33.654027996 151.29239900799996,-33.654037005500001 151.29243500800001,-33.654045996500003 151.292468,-33.65406000099999 151.292496,-33.654076003500002 151.29252201599999,-33.654096002 151.29254700799999,-33.654116999500005 151.292572992,-33.654137997 151.2926,-33.654155997499991 151.29262598399998,-33.654172 151.292652992,-33.654187003499999 151.29268099199996,-33.654201008 151.292708992,-33.654213995 151.29273900800001,-33.654225002499999 151.29276899199999,-33.6542339935 151.292802016,-33.654240006 151.292835008,-33.654246 151.292867008,-33.654251994 151.29289801600001,-33.654261003500004 151.29292601599997,-33.654270993499999 151.29295299200001,-33.654283 151.292979008,-33.654296005500001 151.29300499199999,-33.654308992499999 151.29303001599999,-33.654323996 151.293056,-33.654338999499998 151.293084,-33.654355002 151.29311001600001,-33.654372003500001 151.29312899199999,-33.654389005 151.293128,-33.6544169955 151.293112,-33.654430001 151.293092,-33.654442007500002 151.29307299199999,-33.6544549945 151.29306099199999,-33.654469998 151.29307401599999,-33.654488997500003 151.293116,-33.654518005500002 151.29317401599999,-33.654552008499998 151.293230016,-33.654590007499998 151.293271008,-33.654629005499999 151.293283008,-33.654648005 151.293292,-33.6546690025 151.2933,-33.654690999 151.29331001599999,-33.654710997500004 151.29332300799999,-33.654729997 151.293342016,-33.654746998500002 151.29336700799999,-33.654763001 151.29339100799999,-33.654779003500003 151.293408992,-33.654792009 151.293410016,-33.654812007499991 151.29339401600001,-33.654826992499999 151.29338,-33.654841996 151.293384,-33.654859996500001 151.29340099199999,-33.654882992 151.293428,-33.65490800399999 151.29345801599996,-33.654932997499998 151.293484992,-33.654954994 151.29351299199999,-33.654971995499999 151.29354499199997,-33.654986999 151.293576,-33.655001003500004 151.29360201599999,-33.655017006 151.29361699200001,-33.6550350065 151.293620992,-33.65505400599999 151.29362201599997,-33.655074004500001 151.29361798400001,-33.655094003 151.293612,-33.655114001500003 151.29360201599999,-33.655130004 151.29364201600001,-33.655157994500001 151.29368300799999,-33.655185004499998 151.293724,-33.655210997 151.29376700799997,-33.655236009 151.29381001600001,-33.655261002499998 151.29386598400001,-33.655293007499999 151.293924,-33.655325993 151.293983008,-33.655356999 151.29404300799999,-33.655381992500004 151.294104992,-33.655398994 151.29414300799999,-33.655403008500002 151.29418201600001,-33.655404007500003 151.29422099199999,-33.655403008500002 151.29426,-33.655404007500003 151.294296992,-33.6554080035 151.294336,-33.655419991500004 151.29437401600001,-33.655436993 151.294411008,-33.655455992499995 151.294448,-33.655473993 151.294487008,-33.655487997500003 151.29451900800001,-33.65549700699999 151.29455299200001,-33.655506997 151.29458700800001,-33.655516006500001 151.29461801599999,-33.655519003500004 151.294647008,-33.655516006500001 151.294664,-33.655506997 151.294679008,-33.655495009 151.29469401599999,-33.655482003499998 151.294724992,-33.655465002 151.294746016,-33.655468998 151.294768,-33.655480005499996 151.294791008,-33.655492992500001 151.294812,-33.655504 151.29483100799999,-33.655504999 151.29484601600001,-33.655495009 151.29485699200001,-33.655474992 151.294868,-33.655452995499999 151.29487900800001,-33.655433996 151.294894016,-33.655423007 151.294915008,-33.655422008 151.29494,-33.655428002 151.29496601599999,-33.655436993 151.29498700799996,-33.655449998500004 151.294996,-33.655479006500002 151.294976,-33.655501003 151.294950016,-33.655524997500002 151.29492899199997,-33.655548992 151.29492201599999,-33.655571007 151.294938016,-33.655588008500004 151.294974016,-33.655606009 151.29502201599996,-33.655620994 151.29507100800001,-33.655631002499995 151.295130016,-33.655626007500004 151.29514700799999,-33.655617997 151.29516300799997,-33.65561000499999 151.295196992,-33.655599996500001 151.29521801600001,-33.655603992499998 151.29523900800001,-33.655614001 151.29526,-33.655627006499998 151.29528099199996,-33.655638994500002 151.295304,-33.655646006 151.29533001600001,-33.655649003 151.29535801599997,-33.655646006 151.29538601600001,-33.655643009 151.295414016,-33.655639993500003 151.29544099199998,-33.655641991499998 151.295488,-33.655659992 151.29553100800001,-33.655692996 151.295572,-33.655733992 151.295612,-33.655778003500004 151.295652,-33.655818000499998 151.295732,-33.655881992 151.29582201599999,-33.655953994 151.295904992,-33.656022999 151.295963008,-33.656080996500002 151.295976,-33.6561169975 151.29596099199998,-33.656133 151.29594,-33.6561480035 151.295919008,-33.656161009 151.29590099200001,-33.656175994 151.29589001599996,-33.656191996499999 151.295892,-33.656215991 151.295907008,-33.656242002 151.295930016,-33.6562699925 151.295954016,-33.656299000499999 151.295972,-33.656328008500005 151.295988,-33.6563759975 151.295998016,-33.656426003 151.29600700799998,-33.6564760085 151.29602,-33.656523997500003 151.296044,-33.656565992499999 151.29605801599996,-33.656580996 151.296075008,-33.656594001500004 151.296092,-33.656608006 151.29610700800001,-33.65662199199999 151.29611900800001,-33.656636995500001 151.29612601599999,-33.656669000500003 151.296123008,-33.656708997499997 151.296116,-33.656748994499999 151.29611699200001,-33.656790009 151.296136,-33.656782997500002 151.296155008,-33.656779001499999 151.29617100799999,-33.656788991499994 151.29619100799997,-33.656814003500003 151.29621001599997,-33.656846008500004 151.29622201599997,-33.656877995 151.296220992,-33.656901009 151.29620700800001,-33.656915994 151.296184,-33.656930997499991 151.29616,-33.656944003 151.29613500799999,-33.656958007500002 151.296164,-33.656957008500001 151.29618300799999,-33.656950996 151.29622,-33.656946001 151.296244992,-33.656962003499999 151.29627001599999,-33.6569940085 151.296291008,-33.6570320075 151.296303008,-33.657066991 151.29629699199998,-33.657092003 151.29628201599999,-33.657102992 151.296279008,-33.657124008 151.29629500799999,-33.657149001500002 151.29631801599999,-33.657180007500003 151.29634198400001,-33.657211994 151.29636,-33.657243 151.29637100799997,-33.657277003 151.296379008,-33.657313004 151.29638499199999,-33.657350004 151.29639001599998,-33.65738600499999 151.29639500799999,-33.657422006 151.296404,-33.657471993 151.29641699199999,-33.657526993499999 151.29642700799999,-33.657578997 151.29643001599999,-33.657619993 151.29642099200001,-33.657641009 151.29638700800001,-33.657646004 151.296368992,-33.657646004 151.296336,-33.657651998 151.29632601599999,-33.6576729955 151.296324,-33.657713991500003 151.29633001600001,-33.657761999 151.29634300800001,-33.657805992 151.296364,-33.657832003 151.29638598400001,-33.657838996 151.296412992,-33.657840994 151.29644099199999,-33.657839995 151.296468992,-33.657840994 151.296494016,-33.657847006499999 151.296524992,-33.657867005 151.29655299199999,-33.657897992500004 151.296576,-33.657934992500003 151.296592,-33.657972991500003 151.29659801599999,-33.6580079935 151.296595008,-33.658033005500002 151.296588,-33.65805899799999 151.29657699200001,-33.658085009 151.29656201599997,-33.658108004500001 151.29654604800001,-33.658127707 151.29654467200001,-33.658128336 151.29654499200001,-33.658129002 151.29655699200001,-33.658146003500001 151.296568,-33.658164004 151.29657699200001,-33.658182004499999 151.296584,-33.65820100399999 151.29658998400001,-33.658220003499999 151.29659100800001,-33.658246995 151.296584,-33.658277002 151.29657801600001,-33.658305991499994 151.29657500799999,-33.658330004500002 151.29659801599999,-33.658349004 151.29661900799999,-33.658349004 151.29664201599999,-33.65834700599999 151.296663008,-33.658346007 151.29669001600001,-33.658360992 151.29670198400001,-33.658390999 151.296712,-33.658423004 151.296724,-33.658452992500003 151.296736,-33.658482999500002 151.29674598400001,-33.658514005499995 151.296751008,-33.65854399399999 151.296750016,-33.658573002 151.29673500800001,-33.658600992499998 151.29672,-33.658627003499994 151.29673100799999,-33.658649 151.29675500799999,-33.658656992 151.296787008,-33.658663004499999 151.29682099199999,-33.658667999500004 151.296851008,-33.658669997499999 151.296876,-33.658667999500004 151.29690300799996,-33.658663004499999 151.29692899200001,-33.658656992 151.296952992,-33.658653995 151.29698300800001,-33.6586640035 151.29700300799999,-33.658684002 151.29701699200001,-33.658705998500004 151.297020992,-33.658730992 151.297023008,-33.65875700299999 151.29704,-33.658779998500002 151.29705801599999,-33.658789008 151.297079008,-33.658796001 151.2971,-33.658803993 151.29711801600001,-33.658813002500004 151.297146016,-33.658832002 151.29717398400001,-33.658852999499992 151.2972,-33.658875995 151.29722,-33.658900008 151.29723100799998,-33.658942003 151.29722700799999,-33.658960003499999 151.29722201600001,-33.658978004 151.297224,-33.6590069935 151.297246016,-33.659021997 151.29727699200001,-33.6590300075 151.297303008,-33.659031006500001 151.297324992,-33.659023995 151.297344,-33.659022996 151.297336992,-33.659040996499996 151.29732899199999,-33.659056999 151.29732,-33.659090003 151.29734099199999,-33.659105006499999 151.297394016,-33.659124006 151.29746,-33.659140008500003 151.29752099199999,-33.659148000500004 151.29756,-33.659141007500004 151.29758099200001,-33.659117993500004 151.297596992,-33.659091002 151.297616992,-33.659070004499995 151.29763699200001,-33.659052004 151.29766,-33.659037000499993 151.29768300800001,-33.659027991 151.29770899199997,-33.659022996 151.29773699200001,-33.659020998 151.297764992,-33.659019999 151.297792,-33.659019 151.297855008,-33.659025993 151.29791900799998,-33.659042994499998 151.29798201599999,-33.659063992 151.29804499199997,-33.659080993499998 151.29810700799996,-33.659086007 151.298136992,-33.6590829915 151.29816700800001,-33.659077996500002 151.29819699199999,-33.659071003500003 151.298227008,-33.659064991 151.29825699200001,-33.659058997 151.29827500799996,-33.659056999 151.29829401599997,-33.659054002 151.298312,-33.659051005 151.29833100799999,-33.65904900699999 151.298348992,-33.659045991500001 151.29839900799999,-33.6590449925 151.298450016,-33.659048008 151.29850099199999,-33.659052004 151.29854899199998,-33.659050006 151.29860700799998,-33.659032005500002 151.298636,-33.659012007 151.298666016,-33.658993007500001 151.29873801599999,-33.658985996 151.29882700799999,-33.659008991500002 151.29892700799999,-33.659048008 151.29903100799999,-33.659086007 151.29913001599999,-33.659110001500004 151.29916601599999,-33.659111000499998 151.299204992,-33.659110001500004 151.29924300799999,-33.659109002500003 151.299275008,-33.659111999499999 151.299296,-33.659122008 151.29930099200001,-33.659142006499998 151.299294016,-33.65917099599999 151.29928201600001,-33.659204 151.299272992,-33.659235006 151.299276,-33.659260998500002 151.299288,-33.659277001 151.299304992,-33.659292004500003 151.29932499200001,-33.659306009 151.29934601599996,-33.659317997 151.29936700799999,-33.659329004499995 151.29938899199999,-33.659339993499998 151.299412,-33.659350002 151.299436,-33.659357994 151.29944310400001,-33.65936006599999 151.29946,-33.6593650055 151.299484992,-33.659370999499998 151.29950601599998,-33.659384005 151.29952601599996,-33.659401006499998 151.29954899200001,-33.659412994499995 151.29957001599999,-33.659419007 151.29959401599999,-33.65942100499999 151.29961900800001,-33.659420006 151.299644992,-33.659418008 151.29967001599999,-33.659414992500004 151.29971001600001,-33.659409997499999 151.29975001599999,-33.659402005499999 151.299790016,-33.65939199699999 151.29982899199999,-33.659378991499999 151.29986601600001,-33.6593650055 151.29988601599999,-33.659354997 151.29990499199999,-33.659343009 151.299924,-33.659331002500004 151.299944,-33.659320994 151.29996499200001,-33.659314001 151.300004992,-33.659313002 151.300050016,-33.659325008499991 151.30009801599999,-33.659343009 151.30014598400001,-33.659359992 151.30019299200001,-33.659370000500004 151.300230016,-33.659369001500004 151.300268,-33.659364006499999 151.30030499200001,-33.65935899299999 151.300342016,-33.659355996 151.30037801599997,-33.659357994 151.30043900800001,-33.659377992499998 151.300499008,-33.659414992500004 151.300556,-33.659462001 151.30060700799999,-33.659515003500005 151.30065001599999,-33.659568006 151.30068300799999,-33.659651996 151.30069100799997,-33.659754005 151.30069100799997,-33.659857993500005 151.300702016,-33.659949994 151.300744,-33.660016002 151.30076700800001,-33.660030006500001 151.300791008,-33.660041994499998 151.30081699199997,-33.660054001 151.30084099199999,-33.660066007499999 151.30086300799999,-33.660079993499998 151.30089699199999,-33.660109001500004 151.300928,-33.660142005499999 151.30095500799999,-33.660179005499998 151.300976,-33.660217004499998 151.300992,-33.660255003499998 151.30102,-33.660252006500002 151.301052,-33.660254004500004 151.30108300800001,-33.660259998500003 151.301112,-33.660269008 151.30114899199998,-33.660290005499995 151.301163008,-33.660305009 151.30114601599999,-33.660324008499998 151.301128,-33.660335996500002 151.30111398400001,-33.660348003 151.30111398400001,-33.660369999499991 151.301130016,-33.660382006 151.30116201600001,-33.660403003499994 151.301156,-33.660422003 151.30113900800001,-33.660438005499998 151.30115500799999,-33.660450992500003 151.30117100800001,-33.660459003 151.301204,-33.660476004499998 151.30122,-33.660483996499998 151.30123699200001,-33.660491008 151.30126899199999,-33.660506992 151.30128499200001,-33.660527009 151.301290016,-33.660548006500001 151.30129500800001,-33.660569004 151.30133100800001,-33.660624004500001 151.30138700799998,-33.660673991499998 151.301456,-33.660721 151.30152899199996,-33.660764993 151.30159801600001,-33.660807006500001 151.30162201600001,-33.660821991500001 151.30164499200001,-33.660836995 151.301668992,-33.660850999499999 151.30169299199997,-33.660865004 151.301718016,-33.660877991 151.30179900799999,-33.660912993 151.30189299200001,-33.66094699599999 151.301987008,-33.660973007 151.302064,-33.660984995 151.30210598400001,-33.660983996 151.30212700800001,-33.660985994 151.30214899200001,-33.660988991 151.30217001599999,-33.660994004500004 151.302190016,-33.661000997499997 151.30222,-33.661014003 151.30223900799999,-33.6610270085 151.30225900799996,-33.661036998500002 151.30227401599998,-33.661022994 151.30229699200001,-33.660987992 151.302324,-33.660944998 151.30234899199999,-33.660909996 151.30238700800001,-33.660899007 151.30241001600001,-33.660905001 151.302438016,-33.660893993500004 151.30247001599997,-33.660864005 151.302503008,-33.660827005 151.30253299199998,-33.660796998 151.30256499199996,-33.660792003 151.302584,-33.660805008499999 151.302604,-33.660815997500002 151.302628,-33.660815997500002 151.30265699200001,-33.660807006500001 151.30268700799999,-33.660791004 151.302718016,-33.660774002499998 151.302748,-33.660758999 151.30280601599998,-33.660721999 151.30286,-33.660676008 151.302912,-33.660628999499991 151.302966016,-33.660588003500003 151.30304099200001,-33.660555998500001 151.30307299199998,-33.660550004500003 151.30310300799999,-33.660542993 151.30312601599999,-33.66053300299999 151.303148,-33.660519997500003 151.303170016,-33.660506992 151.303191008,-33.660494005 151.303215008,-33.660484995499999 151.303236,-33.660480000500002 151.30326,-33.660476004499998 151.30328300799999,-33.660474006499996 151.30330700799996,-33.660473007500002 151.30333001599996,-33.660473007500002 151.303356,-33.660474006499996 151.303383008,-33.660476004499998 151.30340899199999,-33.660480000500002 151.303436,-33.660482997500004 151.303462016,-33.660483996499998 151.303495008,-33.660480999500002 151.303528,-33.660477003499999 151.303560992,-33.660469992 151.30359401600001,-33.660463998 151.30362700800001,-33.660458004 151.303663008,-33.66045300899999 151.303699008,-33.6604479955 151.303736,-33.660442001500002 151.303772,-33.660438005499998 151.303808992,-33.660432992 151.30385100800001,-33.660428996 151.30389500800001,-33.660425999 151.30393699199996,-33.660423002 151.30398,-33.66042000499999 151.304023008,-33.660418007 151.30407401599999,-33.660416009 151.304124992,-33.660416009 151.30417500799996,-33.660416009 151.304226016,-33.660414991499998 151.304276,-33.660411994499995 151.304296,-33.660408997499999 151.304316,-33.660405001500003 151.304336992,-33.660401005499999 151.304356,-33.660399007500004 151.30437500799999,-33.660400006499998 151.30440099200001,-33.6604099965 151.30442300799999,-33.660428996 151.30444598400001,-33.660451991500004 151.30446899200001,-33.660475005500004 151.30449401600001,-33.660493006 151.304516,-33.660501997 151.30454,-33.660507991 151.304564992,-33.660513004500004 151.304586016,-33.660519997500003 151.30460300799999,-33.660531005 151.304598016,-33.660549005500002 151.30457100800001,-33.660580992 151.30453299199999,-33.660622006499999 151.304492,-33.660665000500003 151.30445699199998,-33.660703998499997 151.30443500800001,-33.660732007500002 151.30441401600001,-33.660759998 151.304392992,-33.660788007 151.304372,-33.660816996499996 151.304350016,-33.660845005500001 151.30434,-33.660861008 151.30433001599999,-33.660877991 151.30432,-33.660893993500004 151.304294016,-33.660918006500005 151.30427699199998,-33.660907998 151.30425100799999,-33.660880007499998 151.30422099200001,-33.660846004499994 151.30419001599998,-33.660816996499996 151.304164,-33.660805008499999 151.30414099199999,-33.660817995500004 151.304116,-33.660848002500003 151.30409500799999,-33.660887000500004 151.304080992,-33.660926997499999 151.304079008,-33.660960001500001 151.304088992,-33.660981998 151.304108,-33.661001996499998 151.30413001599999,-33.661020996 151.30414899199999,-33.661040994499999 151.30415900799997,-33.661062991 151.30415299200001,-33.661095995 151.30412700799999,-33.661133994 151.304088992,-33.661172992 151.304044992,-33.661207994 151.304002016,-33.66123500399999 151.30397500799998,-33.661244994 151.303944,-33.661252005500003 151.30391401599999,-33.661257999500002 151.303887008,-33.661265991500002 151.30386899199999,-33.661278997 151.303864,-33.661300993499999 151.30387401600001,-33.6613319995 151.30389100799999,-33.661366002500003 151.303911008,-33.661402003499994 151.30392700799999,-33.661436006500004 151.30394,-33.661471008500001 151.30395299200001,-33.661505992 151.303966016,-33.661540994 151.303978016,-33.661575996 151.303988992,-33.66161099799999 151.303996,-33.661637009 151.30400300799997,-33.661663001500003 151.30400899200001,-33.661687995 151.30401401599997,-33.661714006 151.30401900800001,-33.661739998500003 151.304000992,-33.661764992 151.30399401599999,-33.661795998 151.304008,-33.6618199925 151.304028,-33.661828003 151.304052,-33.661834996 151.304088,-33.661854994500004 151.304088992,-33.66187499299999 151.304079008,-33.661904001 151.30406099199999,-33.661934008 151.30404,-33.661958002499993 151.30401900800001,-33.661968991500004 151.30399100799997,-33.6619649955 151.30396099199999,-33.6619570035 151.30393801599999,-33.661967992500003 151.303932,-33.661990007500002 151.30392899199998,-33.662019996 151.30392700799999,-33.662051002 151.30392499199999,-33.662077993499999 151.303924,-33.662110997500001 151.30392700799999,-33.662145000500004 151.30392899199998,-33.662178004499999 151.30393100800001,-33.662211008500002 151.303928,-33.662243994 151.303920992,-33.662278996 151.303910016,-33.662314997 151.303896,-33.662349999 151.30388099199999,-33.662385001 151.303866016,-33.662419004 151.303855008,-33.6624449965 151.303844,-33.662471007500002 151.303832,-33.662496001 151.30381900799998,-33.662520994499999 151.303804,-33.6625450075 151.30379100799999,-33.662560991500001 151.30377699199997,-33.662575995 151.30376201600001,-33.6625899995 151.303748,-33.662605003 151.30373699200001,-33.6626210055 151.303716,-33.662662001500003 151.303699008,-33.662711008 151.303688,-33.662759996 151.303688,-33.662800992 151.303710016,-33.66283 151.30373401599999,-33.662836993 151.303756,-33.662854993499998 151.30375699199999,-33.662874992 151.303743008,-33.662892992499998 151.303712,-33.662885999499998 151.30367900799999,-33.6628800055 151.303648,-33.662895009 151.303616,-33.662935006 151.30358499199997,-33.662988008500001 151.30355900800001,-33.663046006 151.30354201599999,-33.663097991 151.30353401599999,-33.6631390055 151.303527008,-33.663183997499999 151.30352601600001,-33.663229008 151.30353100799999,-33.663265009 151.30356,-33.663290002499998 151.30359401600001,-33.663293998500002 151.303618016,-33.66330300799999 151.30362201599999,-33.663325004500003 151.303616,-33.663349998 151.30360099200001,-33.663361005500001 151.303576,-33.663358008499998 151.303551008,-33.663356991 151.303524,-33.663376009 151.303496,-33.663418004 151.303474016,-33.663467991 151.30346300799999,-33.663514000500001 151.30345900799998,-33.663553997499996 151.303450016,-33.663573996 151.303456,-33.663590997500002 151.30346700799998,-33.663608998 151.30346700799998,-33.663627997500001 151.303456,-33.663647996 151.30344099199999,-33.663665996500001 151.30341900799999,-33.663678003 151.303392992,-33.663688992 151.30337500799999,-33.663707991500004 151.30336499200001,-33.663736999500003 151.30335500800001,-33.663766007500001 151.30334300800001,-33.663786006 151.303328,-33.663806004500003 151.303312,-33.663824005 151.30329500799996,-33.663843004500002 151.30327801600001,-33.663860006 151.30325398400001,-33.663880004499994 151.303228,-33.663899004 151.303202016,-33.6639170045 151.303179008,-33.663936004 151.30316201599996,-33.663957001500002 151.30314899199999,-33.663987008500001 151.30314300800001,-33.664020993 151.30314201599998,-33.66405599499999 151.30314601599997,-33.664089998 151.30315900799999,-33.664135008500004 151.30317299199999,-33.664159003 151.303184,-33.664182997499999 151.303188992,-33.664202996 151.303191008,-33.6642219955 151.303184,-33.664247007500002 151.30317299199999,-33.664262991500003 151.30315801599997,-33.664277995 151.303144,-33.664293997499996 151.303132,-33.66431 151.30312,-33.664333994499998 151.30311001600001,-33.6643590065 151.30310300799999,-33.664384999 151.30309500800001,-33.664410991499999 151.30308700800001,-33.664436003499993 151.30308201599999,-33.664457001 151.30307699199997,-33.664476999500003 151.303072,-33.664497997 151.30306499199997,-33.664516996499998 151.303055008,-33.664534997 151.30304099200001,-33.6645500005 151.30302499199999,-33.664566003 151.30300598400001,-33.664579008499999 151.302987008,-33.664590996500003 151.302966016,-33.664600006 151.30293798400001,-33.664606 151.30290700800001,-33.664606999 151.302875008,-33.664605001 151.302842016,-33.664601005 151.302796992,-33.664595991500001 151.302768,-33.664589997500002 151.30274601599999,-33.664590996500003 151.302740992,-33.664614991 151.302744,-33.664635008 151.30275900800001,-33.664666994500003 151.30277699199999,-33.664673007 151.30280201599999,-33.66467400599999 151.302830016,-33.664672008 151.30285500799999,-33.664672008 151.302875008,-33.664686993 151.30288099199998,-33.664708009 151.30288,-33.664729006500004 151.30286998399998,-33.66474500899999 151.302851008,-33.664759994 151.30282598400001,-33.664773998500003 151.30280099199999,-33.664783008 151.30278,-33.664785006 151.302798016,-33.664787004 151.30283401599999,-33.664791 151.30286899199999,-33.664797993 151.30290201599999,-33.664805004500003 151.302932992,-33.664814994499999 151.302952,-33.664830997 151.30296099200001,-33.664851994500005 151.302968,-33.664872992 151.302975008,-33.664897005 151.30298099199999,-33.664921998499999 151.302984,-33.664946992 151.302987008,-33.664972004 151.30299001599997,-33.664996997499998 151.30299100799999,-33.665020992 151.302992,-33.665045005 151.30299100799999,-33.665069998500002 151.30299100799999,-33.665093993 151.30299100799999,-33.665118006 151.30299299199999,-33.6651439985 151.30299500800001,-33.665168992 151.302996992,-33.665195003 151.302996992,-33.6652209955 151.30299299199999,-33.665245008500001 151.302984,-33.665269003 151.30297299200001,-33.665293996500004 151.30295900799996,-33.665316992 151.302942016,-33.665339007 151.302922016,-33.6653580065 151.30290099199996,-33.6653729915 151.302876,-33.665384998 151.30284899200001,-33.6653960055 151.30282099199999,-33.665404996500001 151.30279299200001,-33.665413007 151.30277001600001,-33.665418002 151.30274700800001,-33.665420999 151.30272300799999,-33.665422997 151.30269900799999,-33.665425994 151.30267699199999,-33.665432006499998 151.302651008,-33.665439998499998 151.30262601599998,-33.665451006 151.30260099200001,-33.665463993 151.30257900800001,-33.665477997499998 151.302559008,-33.665494 151.302544,-33.665509003499999 151.30253100799999,-33.665527004 151.30252,-33.665545004500004 151.30250899200001,-33.665564004 151.30249699199999,-33.665583003500004 151.30248700800001,-33.665602003 151.30247699200001,-33.665622001500005 151.30246700800001,-33.665642 151.302456,-33.665660999499998 151.30244300800001,-33.665679 151.30243001599999,-33.6656930045 151.302416,-33.665707009 151.302400992,-33.665719996 151.30238499199996,-33.665733001500001 151.302370016,-33.665745008 151.302352,-33.665759993 151.302334016,-33.665774996499998 151.30231500799999,-33.66579 151.302296,-33.665804004500004 151.30226300800001,-33.665824003 151.302236,-33.665834992 151.302210016,-33.665847997500002 151.302188,-33.665862002 151.302167008,-33.665878004500001 151.30214700799999,-33.665895006 151.30212700800001,-33.665912007500005 151.30210598400001,-33.665929009 151.30208300799998,-33.665945992 151.30205900799999,-33.665962993500003 151.30203401599999,-33.665978996 151.302010016,-33.665995997499998 151.301984992,-33.666012999 151.30196099200001,-33.666028002499992 151.30193699200001,-33.666043006 151.30191299200001,-33.6660590085 151.30189001599999,-33.6660749925 151.301868,-33.666092993 151.30185299199997,-33.666108995500004 151.301838016,-33.666126996 151.30182499200001,-33.666143997500001 151.30181100799999,-33.666162997 151.30179900799999,-33.6661809975 151.30178601599999,-33.666201995 151.30177500799999,-33.666222992500003 151.301764,-33.666245007499995 151.301752,-33.666265006 151.301736992,-33.666284005500003 151.30172099200001,-33.666297991500002 151.301704,-33.666310997 151.30168601599999,-33.666323003500004 151.30166601600001,-33.6663339925 151.30164601600001,-33.666343002 151.301627008,-33.666347997 151.30160601599997,-33.666350994 151.30158601599999,-33.666352992 151.30156601600001,-33.6663570065 151.301548,-33.666363000499999 151.30152899199996,-33.666376006 151.30151100800001,-33.666392008500004 151.30149699199998,-33.666411008 151.301484,-33.666431006499998 151.30147398399998,-33.666451005 151.30146201599999,-33.666482991500004 151.301456992,-33.666515995499999 151.30145401600001,-33.666549998500003 151.30145401600001,-33.666575991 151.301446016,-33.666609994 151.301435008,-33.666643997 151.301428,-33.666676002 151.301423008,-33.666706009 151.301420992,-33.666735997499998 151.301424,-33.666754997 151.30143100800001,-33.6667759945 151.30143801599999,-33.666795993 151.30144,-33.666813993499993 151.301428,-33.666836008499999 151.301404,-33.666847996500003 151.30138,-33.666860003 151.301356992,-33.666877004500002 151.301335008,-33.666895005 151.30131401599999,-33.666915003500002 151.30129500800001,-33.666936001 151.30127299200001,-33.666970004 151.30126201600001,-33.666993998500004 151.301252992,-33.667017993 151.301208992,-33.667060006499995 151.301152992,-33.667097006500001 151.30109100799999,-33.667128993 151.301063744,-33.667138927499991 151.30113500799999,-33.666703992500004 151.30115900800001,-33.666618004500002 151.30119001599999,-33.666495997 151.30085801600001,-33.666493 151.300172992,-33.6665929925 151.299988,-33.666643997 151.29893472000001,-33.666931265 151.298192992,-33.667144995500003 151.29800675199999,-33.667197276499998 151.297192768,-33.667115284499999 151.29697001599999,-33.6673709915 151.29608678400001,-33.668375282500001 151.29551283199999,-33.668533291 151.29525683200001,-33.668568293 151.294303808,-33.668515309 151.29412886399999,-33.668505300500001 151.29360384,-33.668484303 151.291803872,-33.668629324500003 151.29149088,-33.669105329499992 151.29138288,-33.669302317499991 151.29123801599999,-33.66963899899999 151.28912601600001,-33.669386992 151.28795699200001,-33.669222009 151.28764099199998,-33.669169006499999 151.28716700799998,-33.669093008499999 151.28657900799999,-33.669008001 151.28566998400001,-33.66886999099999 151.285303008,-33.6688119935 151.285256,-33.668805000500001 151.285148,-33.668787 151.28490601600001,-33.668737993500002 151.28477100800001,-33.668707006 151.28470499199997,-33.668690004499993 151.28455500800001,-33.668642996 151.284494016,-33.668600002 151.284234016,-33.668388991 151.283984992,-33.6681789975 151.283692,-33.667936999 151.28361900799999,-33.667882997500001 151.28354201600001,-33.6678360075 151.28348099199999,-33.667806000500001 151.28341798400001,-33.667780008 151.283288,-33.667732000500003 151.28312300799999,-33.667676001 151.28306601599996,-33.667658999499999 151.28302201599999,-33.667644995 151.28292,-33.667617004500002 151.28281699199999,-33.667590993499999 151.28271401599997,-33.667567998 151.28253401599997,-33.66753299599999 151.282444,-33.667517992500002 151.282352992,-33.667507003499999 151.282262016,-33.667500991 151.28212,-33.667497994 151.282048,-33.667500991 151.28197798400001,-33.6675080025 151.28191100800001,-33.667520009 151.28187801600001,-33.667529999 151.28201302400001,-33.666854416 151.28228099200001,-33.665475999500003 151.282308,-33.665384998 151.28233500799996,-33.665307002 151.28235401599997,-33.665250003499999 151.282376992,-33.665176003500001 151.282386016,-33.665152009 151.282399008,-33.665129994 151.28242499199999,-33.665098007499999 151.28245699199996,-33.6650680005 151.28249299199999,-33.665039991500002 151.28257100799999,-33.664990004499998 151.282608,-33.664970006 151.282647008,-33.664951006500004 151.28281699199999,-33.664881002500003 151.283098016,-33.664774997500004 151.283344992,-33.664686993 151.283428,-33.664659002500002 151.28390300800001,-33.664513000500001 151.284342944,-33.664175412500001 151.28440499199999,-33.664028004500004 151.28442694399999,-33.663972412 151.284051936,-33.663415414 151.28406995200001,-33.662896433500002 151.28441900799996,-33.662374992499998 151.28444592,-33.662328428 151.284470016,-33.662263992500002 151.28448,-33.662214005500005 151.28448092799997,-33.662145426 151.284468992,-33.6620789925 151.28445100799999,-33.662030004500004 151.28443491199997,-33.661998425 151.28440601599999,-33.661954006500004 151.28438300799999,-33.661925997499999 151.28434300800001,-33.661886999499991 151.284099008,-33.661701000500003 151.28374092799999,-33.661273428499996 151.28328592,-33.660055444 151.283546016,-33.6585949985 151.28368188799999,-33.65782045899999 151.28374787199999,-33.657535448 151.28382688,-33.6574734545 151.283924,-33.657393997 151.284024,-33.657317999 151.284108992,-33.657255006500002 151.284246016,-33.657158991500005 151.284368,-33.657071005500001 151.28448,-33.656983001 151.284580992,-33.656896994500002 151.284636992,-33.656842993 151.284706016,-33.656768993 151.284730016,-33.656745997500003 151.284852,-33.656642009 151.284910016,-33.656589006499999 151.28499100799999,-33.65650899399999 151.285054016,-33.6564450025 151.285072,-33.656358996 151.28509699200001,-33.656250993 151.28510300799996,-33.656214992 151.28510499199999,-33.656178991 151.285102016,-33.656138994 151.28509500799998,-33.65609899699999 151.285064992,-33.655979006 151.285031008,-33.655780001499998 151.284999008,-33.655555004500002 151.284944,-33.655304995499996 151.28491401599999,-33.655110005499999 151.284904,-33.655061998 151.284887008,-33.655004999500001 151.284824,-33.654837001 151.28480499200001,-33.654780002500004 151.28479299200001,-33.654734992 151.284750016,-33.654555005500001 151.28472201599999,-33.654461007 151.28471401600001,-33.654430001 151.28470899199996,-33.654398995 151.284708,-33.654363993 151.28471299200001,-33.6543099915 151.284719008,-33.654259005500002 151.28472,-33.654225002499999 151.28471401600001,-33.65417699499999 151.28470499199997,-33.654129006 151.284682016,-33.654035007499999 151.28465401599999,-33.653893001500002 151.284638016,-33.653798004 151.284632,-33.653749996500004 151.28462300800001,-33.653622994 151.28462300800001,-33.653495991499994 151.284626016,-33.653432999 151.284604,-33.653242005 151.283972992,-33.652597002499995 151.283676,-33.652353006 151.28288601599996,-33.651705006500002 151.28328601600001,-33.65135600399999 151.283296,-33.651327995 151.28318582399999,-33.650867474500004 151.28299699199999,-33.650073991 151.28290681600001,-33.650020470500003 151.28334998400001,-33.648735997 151.283624,-33.647863999500004 151.283727744,-33.64744947 151.283815008,-33.647030001 151.284070816,-33.645745712500002 151.28526201599999,-33.647652008 151.28528,-33.6476770015 151.2853,-33.647701995 151.28533900799999,-33.647741992 151.28536099199999,-33.647759992499999 151.28540899199996,-33.647792996500002 151.285436,-33.647808 151.28546499199999,-33.647821005499999 151.28552499200001,-33.647843002 151.28558700799999,-33.6478600035 151.28562,-33.647865997499999 151.28578700799997,-33.64788799399999 151.285887008,-33.647899001500001 151.28592899200001,-33.647985008 151.28595401600001,-33.6480430055 151.28598201599999,-33.648123998500004 151.28599500799999,-33.648178999 151.28600201599997,-33.648236996500003 151.28600300799999,-33.648266004500002 151.286,-33.648324002 151.285992,-33.648392008 151.28598499200001,-33.648424993500001 151.28597500800001,-33.648457997500003 151.28596099200001,-33.648489003499996 151.28594201600001,-33.648516994 151.28592,-33.648544004 151.285868,-33.648593991 151.28580499200001,-33.648651008 151.28576700799999,-33.648681995499992 151.285688,-33.648740992 151.28564601599999,-33.648768002 151.28539500799999,-33.648992 151.285371744,-33.649013441500003 151.28523776,-33.649058452 151.28495174400001,-33.649288444 151.28469577600001,-33.649679441499998 151.28466278399998,-33.649730446 151.28483078399998,-33.650202455 151.28475977599999,-33.650233442500003 151.284767776,-33.65024445 151.28479478400001,-33.650279452 151.28489478399999,-33.650407453499994 151.2849288,-33.6504514465 151.28506377599999,-33.6506274555 151.285023776,-33.65065145 151.2849928,-33.650670449499998 151.28507100799999,-33.650770997 151.28526777600001,-33.650828458 151.28539878399999,-33.650927451500003 151.285723776,-33.651136446 151.28625875200001,-33.651118427 151.28712300800001,-33.651843997 151.28722374399999,-33.651928431 151.28721174399999,-33.65255843 151.287455744,-33.652634428 151.287251008,-33.653059003 151.2869728,-33.653361441 151.28688080000001,-33.65373443799999 151.28707779199999,-33.653925432 151.2877048,-33.65429743 151.28785584,-33.654170242500001 151.28893801599997,-33.653354004 151.288968,-33.653183008500001</coordinates></LinearRing></outerBoundaryIs></Polygon>

	</Placemark>
</kml>