<?xml version="1.0" encoding="UTF-8"?>
<kml xmlns="http://www.opengis.net/kml/2.2">
	<Placemark>
		<Style>
			<LineStyle>
				<color>ff0000ff</color>
			</LineStyle>
			<PolyStyle>
				<fill>1</fill>
				<color>330000cc</color>
			</PolyStyle>
		</Style>
			<ExtendedData><SchemaData>
		<SimpleData name="STATE_2006">1</SimpleData>
		<SimpleData name="POA_2006">2009</SimpleData>
	</SchemaData></ExtendedData>
      <Polygon><outerBoundaryIs><LinearRing><coordinates>151.19928300800001,-33.870285004 151.19926201600001,-33.870475998 151.199216,-33.870728005 151.19920300800001,-33.870953002 151.199535008,-33.871162995500001 151.19946300800001,-33.872227004500004 151.199636,-33.872161995500001 151.19996099199997,-33.872706006500003 151.19988700799999,-33.872746003499998 151.20031900800001,-33.873421993500003 151.200434016,-33.873544001 151.200796,-33.873421993500003 151.20118275199999,-33.873293252 151.20126406399996,-33.87340181 151.20127907199998,-33.873421808499998 151.20166355200001,-33.874014141499998 151.20204515200001,-33.874007481500001 151.20232777599998,-33.874002542 151.2026424,-33.874018822 151.20268416,-33.8740209865 151.203296032,-33.874054786 151.20342099199996,-33.874058005 151.20342601600001,-33.874077004500002 151.20341500800001,-33.874222007500002 151.203362016,-33.874346993499998 151.20327699200001,-33.874486002499999 151.20323500800001,-33.874540004 151.20327699200001,-33.874576005 151.203332,-33.874628008500004 151.203371008,-33.874668005499998 151.203416,-33.874743004500004 151.203484,-33.874841998 151.20357001599999,-33.875002004500004 151.20363001600001,-33.875190001500002 151.203642016,-33.875376999499998 151.203632992,-33.875446004499999 151.20354899200001,-33.875943007 151.20353772799999,-33.876004593499999 151.20352368,-33.876086844500001 151.20348192,-33.876331285 151.20343187200001,-33.8765979625 151.203367456,-33.8769981915 151.203317056,-33.87721895199999 151.20330300799998,-33.877309768499998 151.20329939199999,-33.877333985 151.20324035199999,-33.877321830500001 151.203203648,-33.877314264 151.2030312,-33.877297355 151.202978656,-33.877289511 151.20274969600001,-33.877254879 151.20259993600001,-33.877242983500004 151.20246707199999,-33.877250735 151.202333888,-33.877277634 151.20219456000001,-33.877328398 151.202071808,-33.877381585499997 151.201900096,-33.877348119 151.20170137599999,-33.877434699 151.20158003200001,-33.877497247500003 151.20132480000001,-33.877580035 151.20112176000001,-33.877622973499996 151.201059488,-33.877631076499995 151.20093347199997,-33.877640974 151.20080675200001,-33.877644489 151.20068003200001,-33.877641418 151.200554176,-33.877631816499999 151.20042876799999,-33.877616221 151.200305184,-33.877593817499999 151.200182176,-33.877564828 151.20008217599997,-33.877539816 151.20006227199997,-33.877536208500004 151.20003923199999,-33.877531972 151.199994592,-33.877523795 151.199904608,-33.8775135275 151.19981353599999,-33.877510012500004 151.19975052800001,-33.877407411500002 151.19971561599999,-33.877349913499998 151.19944739199997,-33.876942303 151.199102528,-33.876346140500004 151.198779968,-33.875681842499993 151.19862659200001,-33.875358037 151.19847971199997,-33.875047792 151.19846208000001,-33.875005057 151.198422112,-33.874935478499999 151.19838576000001,-33.874864383 151.198369216,-33.874828289500002 151.19834256,-33.874759525 151.19832816,-33.874715883500002 151.19831411199999,-33.8746684495 151.19828028800001,-33.874538764500002 151.19825292799999,-33.87442671 151.19817769599999,-33.874452536 151.19792208000001,-33.874547848 151.19776368000001,-33.8746068815 151.19775001599999,-33.874611932 151.19722368000001,-33.874860683 151.19709228799999,-33.874898941 151.196945056,-33.874928189500004 151.19661673600001,-33.875086864 151.19645184000001,-33.875132226 151.196074912,-33.875271272 151.19601084799996,-33.875297283 151.19557622400001,-33.875469869500002 151.195083264,-33.87566288 151.19432326399996,-33.875964874 151.1939952,-33.876093338 151.193368096,-33.875012438500001 151.19310636799997,-33.874567476500005 151.192969312,-33.874337891499998 151.192857248,-33.8742130535 151.192739168,-33.874139331 151.19259443199999,-33.874065183 151.19241011199998,-33.873967984 151.19230131200001,-33.873890025 151.19232201599999,-33.873876002 151.19213001599999,-33.873680993500003 151.19208899200001,-33.873691002 151.19193299200001,-33.873421993500003 151.19160499200001,-33.872865994500003 151.191622016,-33.872768999 151.19136499199999,-33.872374005499999 151.1911,-33.872305000499999 151.190935008,-33.871995995 151.19100601599999,-33.87195100299999 151.19097299200001,-33.871897001500002 151.190935008,-33.871843 151.19089299199999,-33.871790996500003 151.190848,-33.871740991 151.19080099199999,-33.871694001 151.19074700799999,-33.871650008 151.19068899199999,-33.871609992499998 151.190628,-33.871570994499997 151.19056700799999,-33.871532995500004 151.190508,-33.871493997500004 151.19042099199999,-33.871434002 151.190336,-33.871373007500004 151.19025001599999,-33.871312993499998 151.190164,-33.871252998 151.19013036800001,-33.8712304465 151.190076,-33.871194001500001 151.190032992,-33.871166991500004 151.18999001599997,-33.87114 151.18994700799999,-33.871114007500005 151.18990300799999,-33.871086997500001 151.18986,-33.87106100499999 151.18892099199999,-33.87070199399999 151.18885699199998,-33.870667991 151.188794016,-33.870633007500004 151.188732,-33.870597006499992 151.188672,-33.8705600065 151.188612,-33.870521008499999 151.18857401599999,-33.870494997500003 151.188536,-33.870469005 151.18849900800001,-33.87044299399999 151.18846300800001,-33.870416002500001 151.18842700799999,-33.870387993500003 151.18839401599999,-33.870360003 151.18836099200001,-33.870331994 151.188328,-33.870304003500003 151.18829699200001,-33.870274995500004 151.18826601599997,-33.870245007 151.188174016,-33.870171007 151.188084992,-33.870095009 151.18799900799999,-33.870015995500005 151.187916,-33.869936001500001 151.18783500800001,-33.869852992 151.187732,-33.869739994 151.187634016,-33.869623 151.18754099200001,-33.869503009 151.18745699199999,-33.869379003500001 151.187384,-33.869252001 151.187372,-33.869230004500004 151.18736099200001,-33.869207009 151.18734998400001,-33.86918499399999 151.18733900800001,-33.869161998500005 151.187328992,-33.869139003 151.18731401599999,-33.868927992 151.187312,-33.868899002500001 151.187304,-33.868869994500002 151.18729100799999,-33.868841005 151.187275008,-33.868813995 151.18725500799999,-33.8687909995 151.18723500799999,-33.868774997 151.187212,-33.8687609925 151.187188,-33.868749004500003 151.187162016,-33.868738996 151.18713100799999,-33.868728007 151.187108,-33.868720995499999 151.18598499199999,-33.868381002500001 151.18602300800001,-33.868303191500004 151.186070016,-33.868206991499996 151.18728300800001,-33.868591995 151.18724601599999,-33.868528003500003 151.18694099199999,-33.868255998 151.187052,-33.8681580035 151.187084992,-33.868186993 151.187196992,-33.868080007499998 151.187230016,-33.868068001 151.187264,-33.868060009 151.18728300800001,-33.868057992499999 151.187304,-33.868056993499991 151.187324,-33.868057992499999 151.18734499199999,-33.8680589915 151.187378016,-33.868064005 151.187399008,-33.868068001 151.18837001599999,-33.867209009 151.188124,-33.867001994 151.18907299200001,-33.865923 151.18924,-33.866032002 151.18950899199999,-33.865766009 151.189988992,-33.865406998 151.190034016,-33.865420003499999 151.190078016,-33.865433009 151.190122016,-33.865445996 151.190167008,-33.8654590015 151.19021100800001,-33.865472007 151.19031500799997,-33.8655049925 151.19042,-33.865539994500004 151.19052499200001,-33.865572998499999 151.190630016,-33.865597992 151.190736,-33.865608999500004 151.19079001599999,-33.865608999500004 151.190844,-33.865607001500003 151.190899008,-33.865602006499998 151.19095401600001,-33.865594995 151.19100601599999,-33.865585005 151.19125100799999,-33.865522993 151.19123500800001,-33.865454006500002 151.19140300800001,-33.865413991 151.191368,-33.865320991499999 151.191472,-33.865291003 151.191440992,-33.8652380005 151.19128099199997,-33.865281993499991 151.19127401599999,-33.865263993 151.191014016,-33.864660005 151.19097398400001,-33.864424999499995 151.19081401599999,-33.864019997499994 151.19080300799999,-33.863997002 151.190796992,-33.863974006500001 151.19079398400001,-33.8639499935 151.19079500800001,-33.863926998 151.19080601600001,-33.8639040025 151.19083100799998,-33.863882006 151.19085900799999,-33.863862007500003 151.190876992,-33.863850001 151.19089500800001,-33.863839992499997 151.19091299199999,-33.863830002500002 151.190932992,-33.863821992 151.190952,-33.863814 151.19160099199999,-33.863519998 151.191766016,-33.863568005499999 151.192080992,-33.863256003 151.19401100799999,-33.862375995 151.19404499199999,-33.862371 151.19408198400001,-33.862371 151.19411900799997,-33.862375995 151.19415401599997,-33.862385004499998 151.194184992,-33.862397991500004 151.194210016,-33.862415992 151.19423299199997,-33.862440005 151.194252,-33.862467995499998 151.194267008,-33.862496004500002 151.194279008,-33.862536001499997 151.19428300799999,-33.862559996 151.19428300799999,-33.862584009 151.193444,-33.8637969985 151.193411008,-33.863882006 151.19339100799999,-33.864039996 151.193590016,-33.864365004 151.193758016,-33.864281994500004 151.19521699200001,-33.862479003 151.19613900799999,-33.862591002 151.19420700800001,-33.865091998499999 151.19415801599996,-33.865177006 151.194164,-33.865230008499999 151.19443699199999,-33.865405 151.194692,-33.865323008 151.196643008,-33.863447996 151.19737001600001,-33.863781995 151.197519008,-33.863487993 151.197668,-33.863536999499999 151.19625510399999,-33.866860487499999 151.19608099199999,-33.867270003500003 151.19616300800001,-33.867350996500001 151.196112,-33.867489006500001 151.19715500800001,-33.867762991500001 151.197508,-33.866813997 151.197272,-33.866751004500003 151.19783801599999,-33.865298995 151.198988,-33.865584006 151.198332,-33.867682997500005 151.198227008,-33.8680139995 151.198286016,-33.868467009 151.19862,-33.868459997500004 151.198620992,-33.868414006500004 151.19888499199999,-33.868394008 151.198884,-33.868452005500004 151.19918899199999,-33.868468008 151.19920201599999,-33.868537993499999 151.19927100800001,-33.868550999 151.19922300799999,-33.868839007 151.19908099199998,-33.868988006 151.199072992,-33.869393008 151.199252992,-33.869419000500002 151.19925699199999,-33.8695610065 151.19928256,-33.870272590500001 151.19928300800001,-33.870285004</coordinates></LinearRing></outerBoundaryIs></Polygon>

	</Placemark>
</kml>