<?xml version="1.0" encoding="UTF-8"?>
<kml xmlns="http://www.opengis.net/kml/2.2">
	<Placemark>
		<Style>
			<LineStyle>
				<color>ff0000ff</color>
			</LineStyle>
			<PolyStyle>
				<fill>1</fill>
				<color>330000cc</color>
			</PolyStyle>
		</Style>
			<ExtendedData><SchemaData>
		<SimpleData name="STATE_2006">1</SimpleData>
		<SimpleData name="POA_2006">2094</SimpleData>
	</SchemaData></ExtendedData>
      <Polygon><outerBoundaryIs><LinearRing><coordinates>151.27906099200001,-33.795887994 151.27904592,-33.796261435 151.27894,-33.796696 151.27892851199999,-33.796692189 151.27872544,-33.7976126935 151.27846099199996,-33.797549997 151.278302016,-33.797481991 151.27821900800001,-33.797465008 151.277954016,-33.7987919945 151.27791001599999,-33.798799006 151.27747299200001,-33.798955997 151.27740057599999,-33.798988205500002 151.27713699200001,-33.799189004500001 151.27677059199999,-33.799431225 151.27673299199998,-33.799457994500003 151.2765856,-33.800073230500004 151.27647577600001,-33.800483727 151.27637699199997,-33.800525000500002 151.276307008,-33.800572009 151.276236,-33.800615003 151.27621299200001,-33.800615003 151.27617900800001,-33.800599999500001 151.276115008,-33.800594005500002 151.276074016,-33.800618 151.276038016,-33.800651004 151.27600899199999,-33.800670003500002 151.275956992,-33.800678994500004 151.275916,-33.800669004500001 151.27589900800001,-33.800654001 151.275888,-33.800624993 151.27587699200001,-33.800599999500001 151.27585500800001,-33.8005610015 151.275826016,-33.800531993500002 151.275816,-33.800483005499999 151.27580499199999,-33.800449002500002 151.2758,-33.800385991500001 151.275800992,-33.800338002499998 151.27576201599999,-33.800299004500005 151.275710016,-33.800279006 151.275676,-33.800214996 151.27563699199999,-33.800122995500004 151.27562700799999,-33.800079002499999 151.275599008,-33.800029996 151.27558201599999,-33.800006001500002 151.275564992,-33.799982007 151.27550700800001,-33.799952 151.275444,-33.799940992499991 151.275374016,-33.799950002 151.27532201599999,-33.799953998 151.27526601599996,-33.799925008500004 151.27520300800001,-33.799908007 151.27514,-33.799892004500002 151.27507699200001,-33.799877001 151.275012992,-33.799864994499998 151.27494899199999,-33.799855004500003 151.274900992,-33.799847993 151.27485299200001,-33.799841 151.27480499199999,-33.799836005 151.27475699199999,-33.799834007 151.27471100799997,-33.799838003 151.274655008,-33.799849991 151.2746,-33.799869009 151.27454601599999,-33.799893003500003 151.274496992,-33.799921993 151.27445401599999,-33.799953998 151.27442,-33.799989999 151.27439401599997,-33.800031994 151.274371008,-33.800076005500003 151.274348,-33.800120997500002 151.27432198400001,-33.8001639915 151.27429801599999,-33.800198993500004 151.274271008,-33.8002329965 151.27424499200001,-33.800266999500003 151.27421801599996,-33.800301002499999 151.274192,-33.800335005500003 151.274159008,-33.800378998500001 151.274126016,-33.800424009 151.27409401599999,-33.800469001 151.27406099199999,-33.800513993 151.274028,-33.800558004500004 151.274,-33.800598001499999 151.273972,-33.800638997500002 151.273944,-33.800678994500004 151.27391401599999,-33.800717992499997 151.27388099199999,-33.800754992500003 151.27384700799996,-33.800784999500003 151.273810016,-33.8008130085 151.27377100800001,-33.80084 151.27373500799999,-33.80086800899999 151.273704,-33.800898996500003 151.273684992,-33.800924008500004 151.27366899200001,-33.800950001 151.27365401599999,-33.800977991499998 151.273639008,-33.801004002500001 151.27362099199996,-33.801029995 151.273607008,-33.801050992500002 151.273592992,-33.801073007500001 151.27357699199999,-33.801094005 151.27356,-33.801111006500001 151.27354,-33.801121995500004 151.273516992,-33.801125991500001 151.273492,-33.801123993499999 151.27346601599999,-33.801119997500003 151.273439008,-33.801113004500003 151.273412992,-33.80110699199999 151.27336700800001,-33.801092007 151.27332300799998,-33.801069992 151.27328,-33.801044998500004 151.27323699199999,-33.801020005 151.27319299199999,-33.800998008500002 151.27313699199999,-33.800974994500002 151.273079008,-33.800953997 151.273020992,-33.800932999499999 151.272964,-33.800912002 151.27290899199997,-33.800888007499999 151.27284,-33.800850008499999 151.272775008,-33.800807995 151.27271100799999,-33.800765001 151.27264700800001,-33.800722007 151.27257900800001,-33.800684008 151.272514016,-33.800654001 151.27244899199999,-33.800625992 151.27238201599999,-33.800599999500001 151.27231401599997,-33.800574007 151.272248,-33.80054699699999 151.27219100799999,-33.800521004499998 151.27213500799999,-33.800494993500003 151.27207900799999,-33.800469001 151.27202201599999,-33.800444007499998 151.271964,-33.8004229915 151.271932,-33.800414000499998 151.2719,-33.800407007499999 151.271868,-33.800399996 151.271836,-33.800392004 151.271806016,-33.800380996500003 151.271771008,-33.800363995 151.271738016,-33.800343996500004 151.271706016,-33.800322 151.271676,-33.800298005500004 151.271648992,-33.800272993500002 151.271616,-33.8002329965 151.271588,-33.800189003500002 151.27156499200001,-33.800141995 151.271544992,-33.800093007 151.271526016,-33.800045998500003 151.271512,-33.8000040035 151.2715,-33.799960991 151.271490016,-33.799917997 151.271479008,-33.799875003 151.271467008,-33.799832009 151.27145100800001,-33.799786998500004 151.27143401599997,-33.799741007500003 151.27141500799996,-33.799695997 151.271396,-33.799651005 151.271376,-33.799605994499998 151.27136,-33.799567995499999 151.271343008,-33.799528997499998 151.27132499199999,-33.799491997499999 151.27130598400001,-33.799453998499999 151.27128499200001,-33.799418996500002 151.27126300800001,-33.799388009 151.27123900799998,-33.799357003 151.27121401599999,-33.799327995 151.271187008,-33.799299005500004 151.27116,-33.799270996499999 151.271132,-33.799242007 151.27110201599996,-33.799212999 151.27107100799998,-33.799186007499998 151.27103801600001,-33.799159996500002 151.271004,-33.799136002 151.27096899200001,-33.799117002499997 151.270932,-33.799100001 151.270892992,-33.799083998499995 151.27085299199996,-33.799068995 151.270815008,-33.799053991500003 151.27077500799999,-33.799035991 151.27073401599998,-33.799018009 151.27069401599999,-33.799000008499995 151.270652,-33.798984006 151.27061001600001,-33.798971000499996 151.27057299200001,-33.798963008500003 151.270535008,-33.798955997 151.27049699199998,-33.798950003 151.27045801599999,-33.79894600699999 151.27042,-33.798941992499998 151.27038099200001,-33.798940993500004 151.270343008,-33.798941992499998 151.270304,-33.798942991499999 151.27026601599999,-33.798942991499999 151.270228992,-33.798938995500002 151.270206016,-33.798934999499998 151.270184,-33.798930004500001 151.270160992,-33.798924991 151.27014,-33.798917998 151.270118016,-33.798911005 151.270084,-33.7988989985 151.270051008,-33.798883995 151.27001900799999,-33.7988679925 151.26998899200001,-33.798848993 151.26996099199999,-33.7988299935 151.269956192,-33.798825942 151.269935008,-33.798807997 151.26991100800001,-33.798785001500001 151.26988899200001,-33.798761007 151.269868992,-33.798734996 151.269852,-33.798709003500001 151.26983900799999,-33.798680994500003 151.26983001599999,-33.798652005 151.26982201600001,-33.798621998 151.26981500799999,-33.798591991 151.26980700799999,-33.798562002499999 151.2698,-33.798531995499999 151.26979401599999,-33.798501008 151.26978601600001,-33.798471001 151.269776992,-33.798441993 151.26976201599999,-33.798416000499998 151.26974099200001,-33.79839000799999 151.26971401599997,-33.798367993 151.269684,-33.798346995500005 151.269652,-33.798326997 151.26962099199997,-33.798306998500003 151.269592,-33.798288998 151.26956099200001,-33.798270997499998 151.26953001599998,-33.798253996 151.269496992,-33.798238992500004 151.269464,-33.798226005499998 151.269424,-33.79821499799999 151.26938099200001,-33.798209004 151.26933801600001,-33.798202991499998 151.269296,-33.798195998499999 151.26925801600001,-33.798182993 151.26923100799999,-33.798167009 151.269206016,-33.798147991 151.26918201599997,-33.7981279925 151.26915801600001,-33.798106995 151.26913299200001,-33.798087995499998 151.26911100800001,-33.7980750085 151.26908700800001,-33.798062003 151.26906300799999,-33.798049996499998 151.26904201599999,-33.798035992 151.269023008,-33.798020008 151.26900700799999,-33.797998992 151.26899401599999,-33.797974997499999 151.268984,-33.797950004 151.26897401599999,-33.797923993 151.26896201599999,-33.7978999985 151.26895100799999,-33.79788 151.26894,-33.797860001499998 151.26892899199999,-33.797841002 151.268916,-33.797822002499991 151.2689,-33.797806 151.268879008,-33.797791995499999 151.268855008,-33.797779008500001 151.268828,-33.797769 151.268800992,-33.797760009 151.26877401600001,-33.797750999500003 151.26874601599999,-33.797743007500003 151.26871801600001,-33.797734997 151.26868899199999,-33.797729003 151.26866,-33.797724008 151.26863100799997,-33.797723009 151.268596,-33.797727005 151.268560992,-33.797735996 151.26852499200001,-33.797748002500001 151.26849001599999,-33.797761008 151.26845500799999,-33.797773995 151.268404,-33.797791995499999 151.268352,-33.797812993 151.26830201600001,-33.797835008 151.268261056,-33.7978518615 151.268296736,-33.797690319499992 151.26827475199997,-33.797650322500004 151.268296736,-33.79755033 151.26835772799998,-33.797272312 151.26835772799998,-33.797185325 151.26836016,-33.797178998 151.26767900799999,-33.797083001499999 151.26736,-33.797037991 151.26641177600001,-33.79690334799999 151.26655500799998,-33.796835009 151.26683900800001,-33.795499993500002 151.26700300799999,-33.794728007 151.268078016,-33.794882001 151.269032,-33.795017994499993 151.269156,-33.795020991500003 151.269628,-33.7927989935 151.26963801599999,-33.792755000500001 151.26962,-33.792750005500004 151.2696,-33.792738998 151.269584,-33.792723994499994 151.269575008,-33.792705994 151.269572,-33.792685995500001 151.269575008,-33.792673008499996 151.269576,-33.792665997 151.26958601600001,-33.792647996500001 151.26960201599999,-33.792632993 151.269622016,-33.792623003 151.269644992,-33.792618008 151.26966899199999,-33.792618008 151.26992099200001,-33.791408996 151.270036,-33.790857992 151.26928499199997,-33.790757000500001 151.26960060799999,-33.789304325 151.26979699199998,-33.788401007 151.26982489599996,-33.7882715995 151.26985980800001,-33.788111130499999 151.26994499200001,-33.787716007500002 151.27009900799999,-33.787008993 151.27240700799999,-33.787322993499998 151.27459001599999,-33.787620991499999 151.274712,-33.787636994 151.275204992,-33.787823992 151.27628198400001,-33.788233008500001 151.27681833599999,-33.78831294699999 151.27676201599999,-33.788575998500001 151.27631500800001,-33.790671993 151.27624300799999,-33.791004993 151.27621852799999,-33.7910952545 151.276216,-33.7911980035 151.27631699200001,-33.791172991499998 151.277008,-33.790821991 151.277208992,-33.790720000500002 151.27769699199999,-33.791397008 151.27768201599997,-33.791472007 151.27863299199998,-33.791476003 151.27862198400001,-33.791587003 151.279888,-33.791762993499994 151.27998300799999,-33.791791002499998 151.281192992,-33.79196 151.28120201600001,-33.792050002499998 151.281139424,-33.79235519699999 151.28039446400001,-33.792253188 151.28030700799999,-33.7922429945 151.280148,-33.792935005499999 151.279764,-33.792871994500004 151.27964499199999,-33.793395008 151.28025100799996,-33.793489006500003 151.279991008,-33.794716999499997 151.279815488,-33.795568184499999 151.27918352,-33.795484213 151.27910601599999,-33.79588299899999 151.27906099200001,-33.795887994</coordinates></LinearRing></outerBoundaryIs></Polygon>

	</Placemark>
</kml>