<?xml version="1.0" encoding="UTF-8"?>
<kml xmlns="http://www.opengis.net/kml/2.2">
	<Placemark>
		<Style>
			<LineStyle>
				<color>ff0000ff</color>
			</LineStyle>
			<PolyStyle>
				<fill>1</fill>
				<color>330000cc</color>
			</PolyStyle>
		</Style>
			<ExtendedData><SchemaData>
		<SimpleData name="STATE_2006">1</SimpleData>
		<SimpleData name="POA_2006">2263</SimpleData>
	</SchemaData></ExtendedData>
      <MultiGeometry><Polygon><outerBoundaryIs><LinearRing><coordinates>151.55762073599996,-33.252116347 151.55764924799999,-33.252248788500005 151.55769872,-33.25234127 151.55777628800001,-33.252529433500001 151.557966368,-33.2526981165 151.55829609599999,-33.252938172500002 151.558509472,-33.2531068555 151.55863360000001,-33.253246345499996 151.55843795199999,-33.253506992 151.55830576,-33.2535831565 151.5581048,-33.253823157 151.557909792,-33.254095162499993 151.55781577600001,-33.254302159 151.55776979199999,-33.254623152500002 151.557893632,-33.255125187 151.5579008,-33.255154158 151.558660992,-33.255267008 151.558772992,-33.255283991 151.55901408,-33.255310964 151.559016,-33.2551899925 151.559072,-33.254972007 151.559315008,-33.254535 151.559527008,-33.254339991500004 151.55981699200001,-33.254124004 151.560248,-33.253905001 151.560338016,-33.253860009 151.56044700800001,-33.253800994 151.56144499199999,-33.253269008 151.56139401600001,-33.253347004 151.56125801600001,-33.253590001500001 151.561168,-33.253828004 151.56110499199997,-33.253983996 151.561048992,-33.254208993 151.560958016,-33.254535999 151.56094300800001,-33.254624003499998 151.560908,-33.254830001 151.56084,-33.256002993500005 151.56085401600001,-33.256877007499995 151.560878016,-33.258375008 151.560890016,-33.258705991500001 151.56088201599999,-33.258940997 151.56088704000001,-33.259133970500002 151.56126035200001,-33.259180775499999 151.56193676800001,-33.259288112500002 151.562556992,-33.259414005 151.562702272,-33.259441995499998 151.56255900799997,-33.259634007 151.56238201599999,-33.259874007500002 151.56226201600001,-33.260227006 151.562248,-33.260476996500003 151.56217699199999,-33.260726006500001 151.56212499200001,-33.260902996 151.562004,-33.261273995 151.56188201599997,-33.2617240075 151.561838016,-33.262053992 151.56181299199997,-33.2624330015 151.56181699199996,-33.262780006 151.561868,-33.263151005 151.56191100800001,-33.263457994 151.56194601600001,-33.263669005 151.56206899200001,-33.2637669995 151.562048,-33.2639199945 151.562015008,-33.264160994 151.562088,-33.264372005 151.56213299199999,-33.264621995500001 151.56214700800001,-33.264912001500001 151.562160992,-33.265210998500002 151.562128,-33.265501004500003 151.56219100799999,-33.265734992500001 151.562263008,-33.266050991 151.562392,-33.266367008 151.562520992,-33.266699009 151.56253900799999,-33.266747997 151.56262201600001,-33.266831006499991 151.56267299199996,-33.266890003 151.56269401599999,-33.266985999499994 151.56272099200001,-33.267135997499999 151.562747008,-33.267257006 151.56280201600001,-33.267426003499999 151.56287401599999,-33.267552007 151.56295798400001,-33.267707 151.56307100799998,-33.267789991 151.56321299199999,-33.267843992499998 151.56336198400001,-33.267874998499998 151.56347699200001,-33.267891001 151.56348700800001,-33.267847008 151.563612992,-33.267817001 151.563668992,-33.267818999 151.56376899200001,-33.267891001 151.56385401599999,-33.268013008499999 151.56387100800001,-33.268133998499998 151.563812,-33.268222003 151.56378201599998,-33.268294005 151.563694016,-33.268366007 151.56361699199999,-33.268412997 151.56359801599999,-33.268429998500004 151.56357401599999,-33.268466998500003 151.563568992,-33.268508993499999 151.56356,-33.268574002500003 151.563547008,-33.268637994 151.56353900799999,-33.268697009 151.56353699199997,-33.268732991499995 151.56354099199996,-33.268766994499998 151.563580992,-33.268848006 151.56362601599997,-33.269018002500005 151.56360499199999,-33.26915499499999 151.56358300799999,-33.269299998 151.56354300800001,-33.269395994500002 151.56348300799999,-33.269533005500001 151.56345100799999,-33.269742 151.56341001600001,-33.269894995 151.56340601599999,-33.270119992 151.563412,-33.270321993499998 151.56344099200001,-33.2705449925 151.563468992,-33.270584009 151.56352899199999,-33.270656991500005 151.56355500800001,-33.2707279945 151.56356499200001,-33.270830003500002 151.56357299199999,-33.270933992 151.56357900799998,-33.270999001 151.563568,-33.271038998 151.56355100799999,-33.271088004500001 151.563536,-33.271126003500001 151.563528,-33.271172993500002 151.56353299199998,-33.271202001500001 151.563556992,-33.271500998500002 151.56359100799997,-33.2717269945 151.56372300800001,-33.271922003 151.56388201600001,-33.272173991500004 151.56393699200001,-33.272201001499994 151.564,-33.272213008 151.564076992,-33.272255003 151.56414,-33.272309004500002 151.56419401599999,-33.272361008 151.564248,-33.272398008 151.564356992,-33.272429994500001 151.56443401600001,-33.272473007 151.56452300800001,-33.272506991500002 151.564615008,-33.272537997500002 151.564692,-33.272570002500004 151.564775008,-33.272602007499998 151.56485001600001,-33.272634993 151.56491500800001,-33.272664001 151.564967008,-33.272703998 151.56501801600001,-33.272738001 151.565032,-33.272779996 151.565044992,-33.272848002 151.565048,-33.272886001 151.565054016,-33.272919005 151.56512499199999,-33.273020995499998 151.565223008,-33.273159005499998 151.56540700799999,-33.273384002500002 151.56556700799999,-33.273574996500002 151.56568899199999,-33.273734004 151.56569801599997,-33.273934007500003 151.56567001600001,-33.274123003500002 151.56570499200001,-33.274301991 151.565816,-33.274429992500004 151.566014016,-33.274569001499998 151.56615001599999,-33.274706993 151.566247008,-33.274886998 151.56637001600001,-33.275014000500001 151.566544,-33.27510100599999 151.56657900799999,-33.275217001 151.56655001599998,-33.275478998 151.566620992,-33.275550001 151.566667008,-33.275572996500003 151.566736,-33.275598008499998 151.56679299199999,-33.275618007 151.56681900800001,-33.275632992 151.566848,-33.275678002499994 151.566870016,-33.275699 151.56689100799997,-33.275724992500002 151.56691801599996,-33.275746008500001 151.56696,-33.275773 151.567008,-33.275802008 151.567036992,-33.275826002500004 151.56705500799998,-33.275845002 151.56706099199999,-33.275869995500003 151.56706499200001,-33.275887996 151.56707401599999,-33.275915006 151.56714300799999,-33.275958999 151.56726700799999,-33.276034997 151.56734099199997,-33.27615099199999 151.56740201599999,-33.27624600799999 151.56733801600001,-33.276319009 151.567174016,-33.276412008500003 151.56699699199999,-33.276514998 151.56684300800001,-33.276713003499999 151.566804,-33.2767969935 151.566728,-33.276828998500001 151.566724,-33.2770869995 151.56670499200001,-33.277230004499998 151.56672,-33.2773010075 151.56680300799999,-33.277459996499999 151.56688601600001,-33.277589996 151.56706601599998,-33.278065002 151.567182016,-33.278209006 151.5673,-33.278325001 151.567508992,-33.278539009 151.567768992,-33.278689007 151.56804300799999,-33.278754996499998 151.568230016,-33.278800007 151.56843001600001,-33.278844 151.56861801599999,-33.278857005500001 151.568780992,-33.278806001 151.569184,-33.278695001 151.569323008,-33.278633007499998 151.569424,-33.278582003 151.56958700800001,-33.278593991 151.569712,-33.278626995 151.569898016,-33.278702993 151.569998016,-33.278735997 151.57004899200001,-33.278694002 151.57000099199999,-33.278566999500001 151.569992,-33.278325001 151.57009299200001,-33.278273996499998 151.57029401599999,-33.278254997 151.57053001599999,-33.278383997500001 151.570616,-33.2784900025 151.570752,-33.2785970065 151.57096201600001,-33.278788999500001 151.571148,-33.278917001 151.571296,-33.279045002499998 151.57140700799999,-33.279152006499999 151.57143100799999,-33.279214999 151.571519008,-33.279215998 151.57168300800001,-33.279143996 151.571772,-33.279029999 151.571912,-33.278936000500003 151.57196300800001,-33.278874007 151.571964,-33.278790997500003 151.57205299200001,-33.278738994 151.572228,-33.278740992 151.57236499199999,-33.278815991 151.57262601599999,-33.278946009 151.57283699199999,-33.279064002 151.57292201600001,-33.279201993500003 151.57305699199998,-33.279392007 151.57314099199999,-33.279603998500001 151.57314,-33.279666991 151.57316300799999,-33.279783004500004 151.57311100799998,-33.279898000499998 151.573072,-33.279991999 151.57315801600001,-33.280119001500005 151.573268,-33.280268000500001 151.573416,-33.280396002 151.573564992,-33.280512996 151.573776,-33.280600001499998 151.573976,-33.280664992 151.57415100799997,-33.2806779975 151.57435100800001,-33.280679995500002 151.574452,-33.280659997 151.574616,-33.280578005 151.574668,-33.280463009 151.57472,-33.280368992 151.57483299200001,-33.280327996 151.57495900800001,-33.280287 151.575084992,-33.280256993 151.575186016,-33.280215997 151.575311008,-33.280217995 151.57535001599999,-33.280134005 151.57541500799999,-33.280008001500001 151.575516,-33.279935999499997 151.57564201599999,-33.279936998499998 151.575842016,-33.279950004 151.576040992,-33.280046999500001 151.576166016,-33.2800380085 151.57624201600001,-33.279975996499999 151.57629401599999,-33.27988199799999 151.576347008,-33.279703991 151.57634899199999,-33.279566998500002 151.576326016,-33.279439996 151.57641500799997,-33.279367994 151.57654,-33.279390009 151.57671299200001,-33.279518991 151.576812,-33.279592991 151.57702499199999,-33.279617004 151.57714899199999,-33.279659998 151.57727299199999,-33.279776992 151.577371008,-33.279883996 151.57752099199999,-33.279937997499999 151.57758201600001,-33.28003299499999 151.577592,-33.2801599975 151.57757801599999,-33.280244006 151.577651008,-33.280392006 151.577736,-33.280540006 151.57784700799999,-33.280645992499998 151.57792099199997,-33.280742007500002 151.578044992,-33.280848993 151.578180992,-33.280945008 151.578292,-33.281050994499999 151.578492,-33.281096005 151.57874201600001,-33.281098003 151.578879008,-33.281174001 151.57906499200001,-33.281260007500002 151.57920201599998,-33.281345995500004 151.57932598400001,-33.281420994500003 151.57936099200001,-33.281567995499998 151.57922099199999,-33.281693 151.57913100799999,-33.281818004500003 151.57898,-33.281890006499999 151.57899001600001,-33.282026999 151.579064,-33.2821120065 151.579024992,-33.282227002500001 151.57889798400001,-33.282288996 151.57876099200001,-33.282277008 151.578699008,-33.282192000500004 151.578588,-33.282117001499998 151.57848899199999,-33.282063 151.57843801600001,-33.282104995 151.578374016,-33.282167007 151.57846,-33.282263003499999 151.57844700800001,-33.282325996 151.57833398400001,-33.28231400799999 151.57823500800001,-33.282229000500003 151.57811100800001,-33.282154001500004 151.578,-33.282079002499998 151.577888,-33.282013993500001 151.57780099199999,-33.281960991 151.57776300800001,-33.282012994500001 151.57787401600001,-33.282087993499999 151.578023008,-33.282152003500002 151.57812201600001,-33.282259007500002 151.578159008,-33.282311991500002 151.57817001599997,-33.2823859915 151.578132,-33.282437995 151.578068,-33.282500007 151.57797900799997,-33.282582998 151.577952,-33.282667006499999 151.57801401599997,-33.282730998 151.578088,-33.282795008 151.57803699199999,-33.2828890065 151.577948,-33.282951 151.577796992,-33.282981007 151.577672,-33.282957993 151.577586016,-33.282894001500004 151.577472992,-33.2828510075 151.577360992,-33.282850008499999 151.57722201600001,-33.282900994500004 151.57714601599997,-33.2829729965 151.57710700799998,-33.283046996499998 151.577043008,-33.283130006 151.57691699200001,-33.283159994500004 151.57686700799999,-33.2831490055 151.57678,-33.283136999 151.576706016,-33.283062 151.576556,-33.283018007 151.57629500799999,-33.2828890065 151.576184,-33.282803 151.576111008,-33.2826759975 151.57596099200001,-33.282611007 151.575836,-33.282640995500003 151.575683008,-33.282754992500003 151.575556,-33.282870007 151.57542899200001,-33.283014991500004 151.5754,-33.2831939975 151.57536099199999,-33.283299003499998 151.57524700799999,-33.283371005499994 151.57529401599999,-33.283581998 151.575467008,-33.283721007 151.575515008,-33.283868008 151.57543801599999,-33.283972995500001 151.57538598400001,-33.284098 151.575408,-33.284287995 151.575468992,-33.284394 151.575467008,-33.284520003499999 151.57535299200001,-33.284602994499998 151.57521401599999,-33.284664007499998 151.575063008,-33.284693996 151.57491299200001,-33.284682008 151.57479900800001,-33.284723004 151.57470998400001,-33.284805995 151.574658016,-33.284942007 151.57451801599998,-33.285045995499999 151.57435401599997,-33.285137996 151.574228992,-33.2851159995 151.57414300799999,-33.285009994500001 151.57413299199999,-33.284893999499999 151.57413401599999,-33.284778004499998 151.57402201599996,-33.284756008 151.573947008,-33.284712995499994 151.57389900800001,-33.284607009 151.57376201599999,-33.284553007500001 151.573599008,-33.284561998500003 151.573172992,-33.284587991 151.573072,-33.284650003 151.572932,-33.284753991500004 151.572792,-33.284889004500002 151.57253900800001,-33.285054006 151.572374016,-33.285189000499997 151.57212099200001,-33.285333004500004 151.57193001599998,-33.285500004 151.57171401599999,-33.285654997 151.57149801599999,-33.285852003500004 151.571358016,-33.285998005499998 151.57115500800001,-33.286143008499998 151.57102499199999,-33.286425004 151.57094700799999,-33.286624008499999 151.57087001599999,-33.286749993500003 151.570819008,-33.286801997 151.570768,-33.286905005 151.570524992,-33.287197009 151.57039401599999,-33.287532007 151.57033801599999,-33.287868004 151.57027001599999,-33.288203002 151.570390016,-33.28854099699999 151.570624,-33.288754006 151.570608,-33.28897500699999 151.570278016,-33.289255004499992 151.570276992,-33.289296999499996 151.57046300799999,-33.289405002500004 151.570336,-33.289529008 151.570072,-33.289590002499999 151.569794016,-33.289755004 151.56964201599999,-33.289826007 151.569632,-33.289679006 151.569583008,-33.289626003500004 151.56944300800001,-33.289751008 151.569278016,-33.289864006 151.569076,-33.289978003 151.568888,-33.289997002500002 151.56875100799999,-33.289910996 151.568716,-33.289795001 151.568756,-33.289627002499998 151.56870601599999,-33.289615995 151.56856899199997,-33.289582991 151.568398016,-33.289589003499998 151.56830300799999,-33.289611999 151.567703008,-33.289854996500004 151.56710099200001,-33.290169996 151.56628700799999,-33.290517999500004 151.56542899199999,-33.290937006 151.56474,-33.291392994 151.56418,-33.291815996499999 151.56374499200001,-33.292347002 151.56326,-33.292874992 151.56302,-33.293107000500001 151.562894016,-33.293399004500003 151.562768,-33.293664997500002 151.562656,-33.294009005 151.56255900799997,-33.294351995 151.562568,-33.294721995 151.562624992,-33.294939999 151.562714016,-33.295068000499995 151.56288998400001,-33.295196002 151.56360998400001,-33.295383 151.563863008,-33.295564004 151.56419801600001,-33.295889992500001 151.56429699200001,-33.295878004500004 151.56441699199996,-33.295980994 151.564416,-33.296057991 151.56433801599999,-33.296183994499998 151.564244992,-33.296272998 151.56410700799998,-33.296399001499999 151.564012,-33.296575991 151.563828992,-33.296624997500004 151.56366201599999,-33.296622999500002 151.563464,-33.296672006 151.563128992,-33.296680997 151.56287001600001,-33.296715999 151.56271699199999,-33.296777992500004 151.562364992,-33.296914004500003 151.56219900799996,-33.29682300299999 151.56215500799999,-33.296708007 151.562232,-33.296670008 151.56223401599996,-33.296555992499997 151.56184700799997,-33.296470004500001 151.561552,-33.2963240025 151.560744,-33.29624299099999 151.559934016,-33.296269002 151.558996,-33.296400999499994 151.557884992,-33.296603001 151.557028,-33.296950005500001 151.55622185600001,-33.297320468 151.55604201599999,-33.297402996500004 151.55509900799998,-33.297821004 151.55419801599999,-33.298238993 151.55303900800001,-33.298762006499992 151.55222499199999,-33.299074009 151.551148,-33.298078006 151.55098099200001,-33.297912005500002 151.55090099200001,-33.297843999500003 151.55085699200001,-33.297793994 151.550804992,-33.297772996500001 151.550690016,-33.297783005 151.550596,-33.297761008500004 151.55054201600001,-33.297712002 151.55053801599999,-33.297708006 151.55047100799999,-33.297616005500004 151.550186016,-33.297679997 151.55013699200001,-33.297574991 151.55010099200001,-33.297497994 151.54993801599997,-33.297235997 151.54977699200001,-33.296866996 151.549655008,-33.2965450035 151.54955801599999,-33.296197 151.54952700800001,-33.296014997 151.54948499199998,-33.295769002500002 151.54938899199999,-33.295327000499995 151.54929100800001,-33.294928991500001 151.54923801599998,-33.2946989995 151.54923500800001,-33.294660001499999 151.54916899200001,-33.294183996500003 151.54918899200001,-33.293951007499999 151.54923001599997,-33.293788004 151.549232,-33.293777995500001 151.54931398400001,-33.293619006500002 151.549444,-33.293433007499999 151.54955100799998,-33.293228009 151.54961801600001,-33.293048004 151.54963699199999,-33.292882003499997 151.549592,-33.292706993499998 151.54953001600001,-33.292587002499999 151.54933801600001,-33.292412991500001 151.549292,-33.2923739935 151.54918499199999,-33.292324006500003 151.548575008,-33.292065006500003 151.54852,-33.292040993500002 151.548268,-33.291940002 151.548724,-33.29127799799999 151.549103008,-33.290707994500004 151.549623008,-33.289991008500003 151.54978499200001,-33.289766992 151.549800992,-33.289747992500004 151.549992,-33.289469993 151.550160992,-33.289187997500001 151.55034700799999,-33.288871999 151.55042499199999,-33.288717006 151.550567008,-33.288382008 151.55064099200001,-33.288115996500004 151.55070499199999,-33.287939007 151.55076300799996,-33.287778001500001 151.55094700800001,-33.287240003 151.551131008,-33.286668001500004 151.551320992,-33.286148003500003 151.55136300800001,-33.285972993500003 151.55142899200001,-33.28576599699999 151.55144099200001,-33.285727998 151.551576,-33.285415995500003 151.55172198399998,-33.285110005500002 151.55196700799999,-33.284661991 151.552148,-33.284308992500002 151.55238,-33.283937993500004 151.552508,-33.283702007500004 151.552789408,-33.283187134 151.55255113600001,-33.283155221500003 151.552302016,-33.283118998500001 151.550901184,-33.282913241500005 151.550859264,-33.282907118 151.55068300799999,-33.282880996 151.548660224,-33.282587253 151.54383929599999,-33.281885289 151.54348099200001,-33.281834007 151.54316230399999,-33.281787424 151.54317216000001,-33.281731979500002 151.54327513600001,-33.281588974500004 151.54345116799999,-33.281372968500001 151.543700992,-33.281037989 151.54389289599999,-33.28075098 151.54409699199999,-33.280524984 151.54426009599999,-33.280262006499996 151.54443792000001,-33.279938016 151.54468812799999,-33.279554973499998 151.54492499200001,-33.279123960500002 151.54509996799996,-33.278792033500004 151.545133088,-33.278729041 151.54538291200001,-33.278334029 151.54563708800001,-33.277745969500003 151.54573788799999,-33.2768670345 151.54574688,-33.276348997500001 151.54567705599999,-33.275736 151.54563385599999,-33.27563502699999 151.54553305600001,-33.27538302 151.54543187199999,-33.275162962499998 151.54534691200001,-33.274917005 151.54524,-33.274627017500002 151.54510896,-33.274359988500002 151.54501500800001,-33.274184035 151.54493507199996,-33.274032039 151.544811968,-33.273824043499999 151.54473312,-33.273647017 151.544646016,-33.273439021500003 151.54455203200001,-33.273275037499999 151.54442784,-33.273109980500003 151.54426691200001,-33.272913954499991 151.544165056,-33.272730989499998 151.54406316800001,-33.272597974500002 151.54385904,-33.272300975500002 151.54372585600001,-33.272173973 151.54358003199997,-33.271997039 151.54346304000001,-33.271831982 151.54333091199996,-33.271685998500004 151.54317001599998,-33.2714899725 151.54301196799997,-33.271328967 151.54290899199998,-33.271208014 151.54282908799999,-33.271118992 151.542681856,-33.270966996 151.54253497600001,-33.270814981500003 151.542388096,-33.270668998 151.54218899200001,-33.270528953 151.54201187199999,-33.270356977 151.54184988799997,-33.270236005500003 151.54170912000001,-33.270121971500004 151.54152588799997,-33.269968976500003 151.541363168,-33.2698670045 151.54121593599999,-33.269739021499994 151.54106003199999,-33.269636975499999 151.540882912,-33.269516004 151.540668,-33.26941899 151.54051212799999,-33.2693420485 151.540409152,-33.269253026500003 151.54032096,-33.26917697299999 151.54021008000001,-33.269094000500004 151.54017299200001,-33.269068988500003 151.54008515199999,-33.268998966 151.539951968,-33.26890302499999 151.53964201599999,-33.268667039 151.53946489599997,-33.268545993499998 151.53932483200001,-33.268412978500002 151.53923699200001,-33.268313966500003 151.53908905599999,-33.268218025499998 151.53892704,-33.2680910415 151.53872688000001,-33.268006977500001 151.53855696,-33.267860994 151.53839497600001,-33.267726998500002 151.53830604800001,-33.267707018499998 151.53822492800001,-33.267706445 151.53817897599998,-33.267706019500004 151.538112,-33.267673977500003 151.53806195199999,-33.267528993 151.537996096,-33.267453032 151.53787116800001,-33.2673440485 151.53768611199999,-33.2671979725 151.537493888,-33.267069989499994 151.53733907200001,-33.2669619865 151.53711696,-33.266834003500001 151.53687289600001,-33.266692978 151.53668784000001,-33.266577963499998 151.536422176,-33.266418031 151.53625187199998,-33.2663219975 151.53608195199999,-33.26621904499999 151.53591817599997,-33.266174034500004 151.53571008,-33.266070989500001 151.53552611199999,-33.265962006 151.53532595199997,-33.265859035 151.535162176,-33.26580701299999 151.53498396800001,-33.265710998 151.53476905599999,-33.265605955 151.53458508799997,-33.265496971499999 151.53434713600001,-33.2654059885 151.534044,-33.265240025 151.533821152,-33.265130042500004 151.53362099200001,-33.26504004 151.533324,-33.264917995499999 151.533093952,-33.264809012 151.532965088,-33.264758969500001 151.53269795200001,-33.264642956 151.532424,-33.264495992 151.532187136,-33.26437404 151.53192684800001,-33.264277026 151.53177203199999,-33.264192962 151.531630912,-33.264109971 151.53137209600001,-33.263982006500001 151.53120108799999,-33.263917016 151.53103801599997,-33.263858963 151.530904096,-33.263800022 151.530696,-33.263710019500003 151.53050304000001,-33.263645047499992 151.53031008,-33.263574026 151.530042976,-33.263495993 151.52981904000001,-33.263442990500003 151.52961203199999,-33.263364957500002 151.52942412799999,-33.263297007 151.529336992,-33.2632639845 151.529262112,-33.263218974 151.529120992,-33.263172983 151.52897916800001,-33.263183972 151.52883696000001,-33.263207004500003 151.52870988800001,-33.263236974500003 151.528596128,-33.2632800055 151.528498912,-33.2633099755 151.52840208000001,-33.263327976 151.52834195200001,-33.263288996500002 151.52822387200001,-33.263206024 151.52812092799999,-33.2631489515 151.52800105599999,-33.26314697199999 151.52790384,-33.263152022500002 151.52785091199999,-33.263233015499999 151.52775193599999,-33.263300966 151.52767705599999,-33.263351008500003 151.52754204799999,-33.263368028500004 151.52744592,-33.2633099755 151.527372128,-33.263259026500002 151.527215872,-33.263200973499998 151.526976832,-33.263179014 151.52684185599998,-33.263208984 151.52665500800001,-33.263256954500001 151.52651891199997,-33.263305017500002 151.526332096,-33.263366049 151.52613696,-33.26342003199999 151.525963072,-33.263517952500003 151.525865888,-33.263628027499998 151.52582700799996,-33.2636840085 151.52575212799999,-33.2637139785 151.52564016,-33.263744041 151.52555808,-33.263730998500002 151.525483936,-33.263679957 151.525402912,-33.263634965 151.52528304000001,-33.263639997 151.52517900800001,-33.263620017 151.52508288000001,-33.263567995 151.52498784,-33.263486003 151.524898912,-33.263427968500004 151.52480316799998,-33.263396019 151.52467715200001,-33.263351008500003 151.52452092799999,-33.263298986500004 151.52435785599999,-33.263246964499999 151.524172096,-33.263193962 151.523964,-33.26315400199999 151.52376313600001,-33.263138961500005 151.52354604799999,-33.2631489515 151.52341897599999,-33.263191982499997 151.52322384000001,-33.263264965 151.52307984000001,-33.263362978 151.522950976,-33.263505002500004 151.522889056,-33.263616964500002 151.522769152,-33.263672039 151.52270003199999,-33.263784001 151.52263811200001,-33.263902974499999 151.52252508800001,-33.264014048500002 151.522448032,-33.264132023 151.522424992,-33.264207003500005 151.52238611199999,-33.264269015499991 151.52230908799999,-33.2644310015 151.52228496000001,-33.264518044 151.52226083199997,-33.2646059745 151.522215136,-33.264686967499998 151.522184896,-33.264723967500004 151.52209488,-33.264722968500003 151.522057088,-33.264779042 151.52204089599999,-33.264821962 151.52200416,-33.264834024 151.52193792,-33.264783981500003 151.52188608,-33.26472702 151.52187312000001,-33.264631985500003 151.52182992,-33.264531993 151.52176512,-33.264398978 151.52169996800001,-33.2642480365 151.52164307199999,-33.2641410325 151.52154697599997,-33.264083978500004 151.521486848,-33.264063998499999 151.52142889599997,-33.263975975500003 151.52141593600001,-33.263875983 151.521372,-33.26382503399999 151.52132809599999,-33.263762041499994 151.52129315199997,-33.263623976 151.52124995200001,-33.263559984499992 151.52113116800001,-33.263503023 151.52101993599999,-33.263495012500002 151.52085612799996,-33.263474033499996 151.52075209599997,-33.263423010499999 151.520730848,-33.263348048499992 151.52076288000001,-33.263234995 151.52071897600001,-33.263165971500001 151.52065993599999,-33.263088031 151.52064947199997,-33.262990388 151.52064588799999,-33.262963026500003 151.52063904,-33.262944027 151.52063004799999,-33.262918016 151.52061385600001,-33.262894983500004 151.52056812800001,-33.262856004 151.52049612799999,-33.262811012 151.520430976,-33.262765021 151.52041187200001,-33.262721009499998 151.52041907200001,-33.262676017499999 151.52045494399999,-33.2626154485 151.52048713600001,-33.262560984499999 151.52054003200001,-33.262544963499998 151.52060089599999,-33.262500952 151.52064192,-33.26244597 151.52070096,-33.262430041500004 151.52079996800001,-33.262452981500005 151.520919136,-33.262477013 151.52101811200001,-33.262506002499997 151.521149888,-33.2625020435 151.52122403199996,-33.262463970500001 151.52123088,-33.26239701899999 151.52126508800001,-33.26238603 151.521324128,-33.262397999500003 151.52142995200001,-33.262422031 151.52150915199999,-33.262399979 151.52160889599998,-33.262368029500003 151.521689888,-33.262302965 151.52174892799999,-33.262291976 151.52185584,-33.262265965 151.521968896,-33.262210983 151.522028992,-33.262167952 151.52210208,-33.262145992500002 151.522221952,-33.262137001500001 151.52234112,-33.262116022500003 151.522387936,-33.262077968 151.52243507200001,-33.262034049 151.52250313600001,-33.261933964 151.52254416,-33.26187402399999 151.522643872,-33.261807960500001 151.52273100799999,-33.261765022 151.52283792,-33.26171004 151.52292396799999,-33.261695018 151.52303017599999,-33.261706987499998 151.52309603200001,-33.2617020295 151.52318208,-33.261687007499994 151.52333401600001,-33.261739011 151.52342617599999,-33.261773032500003 151.52354496000001,-33.261807960500001 151.523676,-33.261837024 151.52382217600001,-33.261849992500004 151.52398092799996,-33.261851972 151.52411987199997,-33.261858983499998 151.52423795199996,-33.261872044500002 151.52438412800001,-33.261867993 151.52448995200001,-33.261863035 151.52460300800001,-33.261842962499998 151.52470307199999,-33.261827034 151.52499900800001,-33.261828033 151.52511888000001,-33.261807960500001 151.52522508800001,-33.261830993 151.525364032,-33.261815971 151.52551091199999,-33.26181201199999 151.525663936,-33.261741989499995 151.52580505599997,-33.261681957 151.52594508799999,-33.261605996 151.52611212799999,-33.261569014499997 151.52627808,-33.261548035499999 151.526444032,-33.261539044500005 151.52658985599999,-33.261573954 151.526729152,-33.261587015 151.526862016,-33.261577025 151.52700096000001,-33.261573954 151.52716691200001,-33.261608974499993 151.52729184,-33.261638038 151.52743801599999,-33.261645956 151.52764393599998,-33.261653966499999 151.52780988799998,-33.261650007500002 151.527994912,-33.261651987 151.52811984,-33.26167196699999 151.528272832,-33.261711039 151.52841792000001,-33.261751979499998 151.52857705599996,-33.261780969 151.52874300799999,-33.261783022499998 151.52885497599999,-33.2618069615 151.52903315200001,-33.261920995499999 151.52909401599999,-33.261984987 151.52916889599999,-33.262074009 151.52928083200001,-33.262158961 151.529398912,-33.262221953500003 151.529577856,-33.262252016 151.52978988800001,-33.262277046500003 151.53000912,-33.262279026 151.53019488000001,-33.2622810055 151.53031404800001,-33.262293955499999 151.53045913599999,-33.262340039 151.53063696000001,-33.26238099799999 151.53074316799999,-33.262409969 151.53083497599999,-33.262495013500001 151.53090697600001,-33.262551993500004 151.531106048,-33.262560004 151.53123203199999,-33.262571973500002 151.531443008,-33.262614005499998 151.53168204799996,-33.262622016 151.531787872,-33.262650987 151.53198012799999,-33.262686988 151.53214499200001,-33.262728021 151.532357056,-33.262752959 151.53254892800001,-33.262755031 151.532682112,-33.262733978 151.53286896,-33.262713998 151.53300108799999,-33.262704988499998 151.53310691199997,-33.262716958 151.53324012799999,-33.26271803099999 151.53347305599999,-33.262686007500001 151.53367212799998,-33.262687987 151.53377113600001,-33.262677997 151.53390505600001,-33.262629027500004 151.53403212799998,-33.262580964500003 151.53413113600001,-33.26257602499999 151.53430393599999,-33.262550994500003 151.53444396800001,-33.262541004500001 151.53448608,-33.262523004 151.53461712000001,-33.262514993499991 151.53480288,-33.262500952 151.534936096,-33.262496993 151.53506892799996,-33.262487003 151.53520787199997,-33.262499971499999 151.53536016000001,-33.262518952500002 151.53554700800001,-33.262481971 151.53566617600001,-33.262466042500002 151.53578604800001,-33.262434000500001 151.53591312,-33.262418978500001 151.53605209599999,-33.262415001 151.53618492800001,-33.262399979 151.53627817599997,-33.262412041 151.53635017600001,-33.262458032 151.53641603200001,-33.2625089625 151.536467168,-33.262586995500001 151.536526912,-33.262604996 151.53661404799999,-33.2625549535 151.536700096,-33.262540024 151.536773888,-33.2625020435 151.536880096,-33.262496993 151.53702588799996,-33.262493034 151.53710688000001,-33.26245596 151.53717312000001,-33.262416999 151.53722713600001,-33.262368029500003 151.53728796799996,-33.262317987 151.53732505599999,-33.262279026 151.53745500799999,-33.262241045499991 151.53759504000001,-33.262219974 151.53776208,-33.262166971500001 151.53794892799999,-33.262095968499999 151.53820992000001,-33.261971038 151.53839603200001,-33.261906954 151.538617088,-33.261803002500002 151.538790976,-33.261698977 151.53899904,-33.261600964 151.53920604800001,-33.261536972500004 151.539366976,-33.261438959499998 151.539486848,-33.2613729885 151.53960816,-33.261290996500001 151.53970211199996,-33.261185972 151.53978313600001,-33.261120001 151.53990300800001,-33.261072030500003 151.54003116800001,-33.260984007499999 151.54017913600001,-33.260862962 151.54030691200001,-33.260752979499998 151.54044192000001,-33.260632026499998 151.54055603200001,-33.260522044 151.540664032,-33.260456961 151.540748992,-33.260357967499999 151.54135817599999,-33.259911266499998 151.54157616,-33.25975126 151.54168787200001,-33.259694039499998 151.54203888000001,-33.2595129615 151.54214412799999,-33.2593572655 151.54218012800001,-33.259243268500001 151.54221385599999,-33.259242954 151.54238515200001,-33.259202272499998 151.54241913600001,-33.2591742635 151.54264633599999,-33.258847313 151.54323910400001,-33.257994259500002 151.543310112,-33.257866276500003 151.54344912,-33.25766727199999 151.54360710399999,-33.257368275 151.54400608,-33.256943274500003 151.544007072,-33.256914266500004 151.54405811199999,-33.256857952499999 151.54409408000001,-33.256743271 151.544153088,-33.25630027 151.54416006400001,-33.255899264 151.54424908799999,-33.255656266500004 151.54437107199999,-33.255486251500002 151.54437305600001,-33.25535725099999 151.54436105600001,-33.255320251 151.54434105599998,-33.255256241 151.54435008,-33.255234004 151.544376,-33.255170993 151.54451603199999,-33.254957965500004 151.54465500800001,-33.254773021 151.544706848,-33.254745030500004 151.54490016,-33.254403021 151.54503913600001,-33.254246973500003 151.54521011200001,-33.254117991500003 151.54535593599999,-33.254006048 151.54542217599999,-33.253919005500002 151.54548300799999,-33.253802992 151.545530176,-33.253698966500004 151.54560108800001,-33.253577995 151.54562412799999,-33.253436969500001 151.54567091199999,-33.253290986 151.54571808,-33.253165981500004 151.54578396799997,-33.25306203 151.54586496,-33.252980038 151.54599888000001,-33.2528810445 151.54603596800001,-33.2528490025 151.54622208000001,-33.252741998499999 151.546323968,-33.252626965499999 151.546452128,-33.2525060125 151.54658604799997,-33.252411958499991 151.546714912,-33.252263015 151.54681609599999,-33.252181023 151.546896,-33.252120990500003 151.547045056,-33.251988956 151.54719299199999,-33.251833981499999 151.547321888,-33.251690976500001 151.54743708800001,-33.251542014500004 151.547645152,-33.251400008499999 151.54776,-33.251273006 151.547907968,-33.251163023499998 151.54806995199999,-33.251003017 151.548192,-33.250832003 151.548280928,-33.250682967 151.548416992,-33.250476951 151.548559936,-33.250245035 151.54868988800001,-33.250022998 151.54887996799999,-33.249774968499999 151.54913017600001,-33.2494880335 151.54931305599999,-33.249266995500001 151.54945596799999,-33.249034987 151.549625152,-33.248831043 151.54984403200001,-33.248615037 151.54990307200001,-33.2485720245 151.54998012799996,-33.2484890335 151.55005283200001,-33.248440989 151.55007193599999,-33.248419011 151.55010793599999,-33.248383028500001 151.55028611200001,-33.248244963 151.550381888,-33.24806703 151.550496,-33.247905025500003 151.550710912,-33.247767959 151.55094601600001,-33.247553044500002 151.55123795200001,-33.247298965500001 151.55154684799999,-33.247100978500001 151.55177292799999,-33.246878035 151.55192195199999,-33.246801981499999 151.55206416,-33.246639995500004 151.55217683199999,-33.246548013500004 151.55237196799996,-33.246495991499998 151.55275392,-33.246351987499999 151.55301491200001,-33.246231034499999 151.55331299199997,-33.24608397799999 151.55321292799999,-33.246030957 151.553094112,-33.245974976 151.55293788799997,-33.245864013 151.55286588800001,-33.245730998 151.55273916799999,-33.245588973499999 151.552546912,-33.2454470415 151.55242489599999,-33.245233015 151.55244793599999,-33.244953036 151.552554112,-33.244712998499999 151.55268588800001,-33.244567015 151.55308908800001,-33.244299005500004 151.55323884800001,-33.244191983 151.55339689600001,-33.244163012 151.553657888,-33.244088031499999 151.553805856,-33.244065998 151.553888992,-33.24409101 151.553980096,-33.244208004 151.55411795200001,-33.244288016500001 151.55425513599999,-33.244367048500003 151.554392992,-33.24445398 151.55454096,-33.24446397 151.55481888,-33.24444399 151.55498700800001,-33.244390987499997 151.55512704,-33.244291975499991 151.55533187200001,-33.244232035499998 151.555554016,-33.2442420255 151.55574697599999,-33.244353007 151.55593091200001,-33.244425989500002 151.55615987199999,-33.244630026 151.556424832,-33.244812991 151.55656307199999,-33.244892004499995 151.55669987199997,-33.245018008 151.55691913599998,-33.245175961 151.55700912,-33.245324997 151.55706995200001,-33.245583035 151.55706601599999,-33.245816042500003 151.557008032,-33.245963006499998 151.55683811199998,-33.246147951 151.55662284799996,-33.246300964500001 151.55658396800001,-33.246394019500002 151.55652707199997,-33.246478971500004 151.55651484800001,-33.2466499855 151.55652204800001,-33.246828991500003 151.556558048,-33.246917014499999 151.55660016,-33.247094041 151.556604128,-33.247373039500005 151.55660809599999,-33.247730977499991 151.55651916799997,-33.248063977500003 151.55649612799999,-33.248421009 151.55650188800001,-33.24843999 151.556508,-33.248460969 151.55651593600001,-33.248592004500004 151.55643385600001,-33.248797021500003 151.55640288000001,-33.248871003 151.556430976,-33.248961986 151.55647811200001,-33.249060998 151.55647705599998,-33.249176993 151.55644608,-33.249258985 151.556356096,-33.249373019 151.55632403199999,-33.2494880335 151.556342048,-33.24960297399999 151.55636905599999,-33.24975201 151.55637696,-33.249867024499999 151.55640396800001,-33.25002399699999 151.55637299200001,-33.250139011500004 151.55636003199999,-33.250271046 151.55634816,-33.250419009 151.55633699200001,-33.250542034 151.55633411199997,-33.250665965499998 151.556342048,-33.250788990499991 151.55634995200001,-33.250895994499999 151.55635897599998,-33.250995006499998 151.55637696,-33.2511110015 151.556438176,-33.251220984 151.55648496,-33.251353018499998 151.556542912,-33.251435991 151.55666892799999,-33.251511952 151.556804992,-33.251579014500003 151.55700912,-33.251705018 151.557105952,-33.25177998 151.55722115200001,-33.251896974 151.55732700799999,-33.251996966500002 151.557414112,-33.252064029 151.55749187200001,-33.252105968499997 151.55751203200001,-33.252111981 151.557552,-33.25211298 151.55762073599996,-33.252116347</coordinates></LinearRing></outerBoundaryIs></Polygon><Polygon><outerBoundaryIs><LinearRing><coordinates>151.513190272,-33.220850496 151.512822016,-33.221243972499998 151.51263193599999,-33.22139498799999 151.512288832,-33.221534034 151.51181292800001,-33.221671026500005 151.51149683199998,-33.221753999 151.511105152,-33.221824021499991 151.51059504,-33.221936964 151.51009500800001,-33.2220850195 151.50952188799999,-33.222205972499999 151.509080896,-33.222400019 151.50858409599999,-33.222659037500001 151.50826115199999,-33.222905013500004 151.50813193600001,-33.223005006 151.50792204799998,-33.223231982500003 151.50773484799998,-33.223460032 151.50761100799997,-33.223617004499999 151.50750409599999,-33.223844961499992 151.507386016,-33.223976015499993 151.50726793600001,-33.224168970500003 151.50711097600001,-33.224462991 151.507035008,-33.224680976500004 151.506960832,-33.224986985 151.50692592,-33.225327995500002 151.50687408,-33.225557044 151.50688416,-33.225641996 151.506833056,-33.225784020500001 151.50684816,-33.225963026500004 151.50686508800001,-33.226049976500001 151.506862912,-33.226173001500001 151.50684816,-33.226309975500001 151.506816832,-33.226351027 151.506792,-33.226416998 151.506771136,-33.226560003 151.506786976,-33.226686987 151.50685212799999,-33.226785 151.50688092799999,-33.226876982 151.506831968,-33.226943045500001 151.50673584,-33.227000007 151.506727936,-33.227097021 151.50673296,-33.227218973 151.50679811200001,-33.227291974 151.50688812800001,-33.227359018 151.50690505599999,-33.227420031 151.50686112,-33.227522003 151.50681612799997,-33.227629025500001 151.50680784,-33.227765999500001 151.50689712,-33.2278800335 151.506944992,-33.227972015500001 151.50704003199999,-33.228039966 151.50710700799996,-33.22808703 151.507153088,-33.2281839515 151.507170016,-33.228302037 151.50718585600001,-33.228413999 151.50721788800001,-33.228504001499999 151.507222912,-33.228608045500003 151.50727008000001,-33.228690037500002 151.50726793600001,-33.228782001 151.50721104,-33.228893963 151.507123936,-33.229019966500005 151.50710412800001,-33.229148042 151.50709692800001,-33.229224003 151.507095136,-33.229335965 151.50703104,-33.22947897 151.50698604799999,-33.229672017499993 151.50697596800001,-33.229880993500004 151.50691187199999,-33.230079998 151.506944992,-33.230278984 151.50698713599999,-33.230336038 151.50699107200001,-33.230442968 151.506929888,-33.230498042499995 151.506892096,-33.230554023499998 151.50687299200001,-33.230607026 151.50687193600001,-33.2306780475 151.50684492799999,-33.2308310425 151.50684889600001,-33.230937954 151.50685283199999,-33.231066029499999 151.506862912,-33.231230013500003 151.506861856,-33.231269973499998 151.506920896,-33.2313939975 151.50693097600001,-33.231520981500005 151.50693203200001,-33.231582993499991 151.50693385599996,-33.231663986500003 151.50692483200001,-33.231827970499999 151.506952928,-33.231966036 151.506960128,-33.232068988500004 151.507019168,-33.2321869815 151.50705984000001,-33.232274005500003 151.50711312000001,-33.232412977500005 151.507117088,-33.232494951 151.50717612799997,-33.232587025500003 151.50726,-33.232699986500002 151.507379872,-33.232784032 151.50742092799999,-33.232876014 151.507491136,-33.232998965 151.50754512,-33.233086988 151.50757897599999,-33.233199024 151.50757897599999,-33.233256004 151.507656,-33.233322955499993 151.50767904,-33.233394957500003 151.50778812799999,-33.233436989499999 151.50785507200001,-33.233447978500003 151.50794003199999,-33.233448959 151.50795984000001,-33.233504033500004 151.50799491199996,-33.233524957 151.508037952,-33.233550024499998 151.50814092799999,-33.233597995 151.50821184,-33.233689977 151.50828492799999,-33.233726977 151.508369152,-33.233769009 151.50844691200001,-33.233804991500001 151.50845808,-33.233867003500002 151.508487968,-33.233912994500002 151.508548096,-33.233965016500001 151.50861395199999,-33.234027028500002 151.50873385599999,-33.234110001 151.50880512000001,-33.234182003 151.50885299199999,-33.234234025 151.508900896,-33.234285954500002 151.50897289599996,-33.234347966500003 151.509020032,-33.234440041 151.50903408,-33.234472971 151.509066848,-33.234548044 151.50916908799999,-33.234625984499999 151.50928896,-33.234698967 151.50937897599999,-33.234750989 151.50953699199999,-33.234794001499999 151.50968784,-33.234815961 151.509747968,-33.234877973 151.50969001600001,-33.234921984499998 151.50966409599997,-33.234993006 151.50965904,-33.235305027 151.509727072,-33.235556035 151.50984300799999,-33.235899025 151.509966848,-33.236109999 151.51011696,-33.236264973499999 151.51012992,-33.236361007 151.51015907199999,-33.236438041 151.510205888,-33.236535961499996 151.51033116799999,-33.236695986500003 151.51044313599999,-33.236917024500002 151.510542112,-33.237136971 151.51058784,-33.237322026500003 151.51071312,-33.237485992 151.51087296,-33.237693007 151.51102883199999,-33.2378369925 151.51119011200001,-33.238037976500003 151.51133593599999,-33.238196003500001 151.51151484799999,-33.238407958 151.51163401599996,-33.238541972 151.511869088,-33.238682017 151.51209084800001,-33.23881296 151.512260032,-33.238896025 151.51236083199998,-33.239034997 151.51246704,-33.239204993499996 151.51248899199999,-33.239332976500002 151.51259411199999,-33.239408031 151.512694912,-33.23957201499999 151.51272985599999,-33.239654007 151.512783136,-33.23974203 151.51289113600001,-33.239850033 151.512950176,-33.239942995500002 151.51311216,-33.240067019500003 151.51330512000001,-33.240150991 151.51342499200001,-33.240243953499998 151.51353299199999,-33.240296974499991 151.51364784,-33.240354028500001 151.51376915200001,-33.240371048500002 151.51390307199998,-33.240373028 151.51401792,-33.240368976500001 151.51418892800001,-33.240375988 151.51428505600001,-33.240402998 151.51438691199996,-33.240500992500003 151.514561888,-33.240580024499998 151.51467888,-33.240654006 151.514763136,-33.240742029 151.51485817599999,-33.240880982499995 151.51497084799999,-33.241024986500001 151.515101888,-33.2412000335 151.51515408,-33.24130298599999 151.51518288,-33.241410008500004 151.51530889599999,-33.241509002 151.51536793599999,-33.241611954500002 151.515402112,-33.241744988 151.51550905600001,-33.241914004 151.51558499199999,-33.24206304 151.51564297599998,-33.242088958499998 151.51581107199996,-33.242222972499995 151.515972,-33.242403958 151.51613292799999,-33.242538952499999 151.51616713600001,-33.242712038500002 151.516150912,-33.242916963 151.51612393600001,-33.243084998500002 151.516060928,-33.243246984500004 151.51602816,-33.24340503 151.51600403199998,-33.243559024 151.51599612799998,-33.24363498499999 151.515843136,-33.243720029500004 151.51570704,-33.243830992499994 151.51559004800001,-33.243947006 151.51547808,-33.244073009499992 151.515446048,-33.244200992499998 151.515399968,-33.244430041 151.515415072,-33.244572953500004 151.515567008,-33.244625974500003 151.515624,-33.244714996500001 151.51566096,-33.244779968499998 151.515641152,-33.244872024500005 151.515612,-33.244999027 151.515641152,-33.245075968500004 151.51550112000001,-33.245084978 151.51543811199997,-33.245226984 151.51536288,-33.245369008499999 151.51525091199997,-33.245489961499999 151.51510297600001,-33.245651966 151.514965088,-33.2458949635 151.51483513599996,-33.246046978 151.51481891200001,-33.246241024500002 151.51477715199999,-33.24639204 151.51470803199999,-33.246539004 151.51463785600001,-33.246701008499997 151.51466089600001,-33.246792990499998 151.514660096,-33.24683474499999 151.514659072,-33.246884972499998 151.51454892800001,-33.24693501499999 151.51449203199999,-33.247067031 151.51444092799997,-33.247229035499998 151.51437900799996,-33.247299964500002 151.51430592,-33.247308955500003 151.51428684800001,-33.247340017 151.51435417600001,-33.247346048 151.51445603199997,-33.247443968500001 151.514343008,-33.247650965 151.51429513599999,-33.247946965 151.514283968,-33.248231994500003 151.51431203199999,-33.248391039 151.514316,-33.248419011 151.514314912,-33.248446021 151.514322112,-33.248553025 151.51434012799999,-33.248604954499996 151.51434192,-33.248657975500002 151.51433292799999,-33.248718988500002 151.51432608,-33.248775968499992 151.51432499200001,-33.248820960499998 151.51434588800001,-33.248867044 151.514358112,-33.248964964500004 151.51436208000001,-33.249077999500003 151.51437900799996,-33.249176012500001 151.51439305599999,-33.249276005 151.51441104,-33.249366988 151.51442617599997,-33.249445021 151.51446899199999,-33.249605046 151.514487008,-33.249696029 151.514523008,-33.24979197 151.514546048,-33.249877014499994 151.51457987199998,-33.249936954500001 151.51459609599999,-33.249996006499998 151.51460291199999,-33.250061977500003 151.51461587200001,-33.250098959 151.51464684800001,-33.250149001499999 151.514703008,-33.250240983499999 151.51475017600001,-33.250337017 151.514784,-33.250403968500002 151.51482108799996,-33.250476951 151.51484195200001,-33.250518002500002 151.51489993600001,-33.250589005500004 151.51494204799999,-33.250673976 151.51497011199999,-33.25076603199999 151.51497984,-33.250852982 151.51498416000001,-33.250934974 151.51498595199999,-33.251010028499998 151.51499712,-33.251105969500003 151.51500899199996,-33.251216044499998 151.51501584,-33.251293985 151.51503312,-33.251403967500003 151.51506192,-33.251489012 151.51510403200001,-33.251551024 151.51512492799998,-33.2515829735 151.51517388799996,-33.25163201699999 151.51525417600001,-33.251698987 151.515296992,-33.251759001 151.51532796800001,-33.251812022 151.515332992,-33.251856033500005 151.51533193599997,-33.251907963 151.515317888,-33.251960965500004 151.515281152,-33.252014967 151.51526099200001,-33.252059977499997 151.515236896,-33.252075998500004 151.51526784000001,-33.252158971 151.515302048,-33.252291005499998 151.515289088,-33.252381988499998 151.51525091199997,-33.252471991 151.51525488,-33.252584045500001 151.51531392000001,-33.252675028500001 151.51535388799996,-33.252771968499999 151.51538809600001,-33.2528190325 151.51538809600001,-33.252947015499998 151.51542803199999,-33.25309803099999 151.51544316799999,-33.2531620225 151.51545107199999,-33.2532379835 151.515452896,-33.253295037500003 151.515429856,-33.253345986500001 151.51539312,-33.253389998 151.515363968,-33.253416009 151.51534307200001,-33.25344498 151.51533193599997,-33.25355198399999 151.51532905600001,-33.253697967500003 151.51535388799996,-33.253858973 151.51535100800001,-33.25405104 151.51534348799998,-33.254138415500002 151.51533913599997,-33.254189013 151.51535712,-33.254250026 151.51541904000001,-33.254351017499999 151.515482048,-33.254405019 151.51552595199999,-33.254505992 151.515551168,-33.254643965 151.515559072,-33.254704978 151.515612,-33.254790022500003 151.51566601600001,-33.254883003499998 151.51575491200001,-33.255014039 151.51581683200001,-33.255123022500001 151.515888128,-33.255215004500002 151.51596012799999,-33.255300955500005 151.51600512,-33.255347039 151.51608505599998,-33.25546296 151.51615488,-33.255624964500001 151.51618188800001,-33.255678966 151.516217152,-33.255756 151.51628700799998,-33.255926015 151.51635792,-33.256064968499999 151.516382048,-33.256257035499992 151.51642595199999,-33.256387978500001 151.51646016,-33.256494982500001 151.516540096,-33.256664997500003 151.51660992000001,-33.25682700199999 151.516661056,-33.256950027 151.51675609599997,-33.257199962 151.51681404799999,-33.257386978500001 151.51688387199999,-33.257626017 151.51694185599999,-33.2578130335 151.51700089600001,-33.257969007 151.51706099200001,-33.258062968499999 151.51714595199999,-33.258157022500001 151.51721904,-33.258220015 151.51724099200001,-33.258354029 151.51723884800001,-33.2584679705 151.51729897600001,-33.258562024500002 151.51734684799999,-33.258665976 151.517381056,-33.258822023500002 151.51742892799999,-33.258915004500004 151.51748796800001,-33.259070978 151.517528992,-33.259111012 151.51758803199996,-33.259160962 151.51769891199996,-33.259166012500003 151.51784291199999,-33.259200034 151.517934016,-33.259246025 151.51800492800001,-33.259307038 151.51808089599999,-33.259373009 151.51814316799999,-33.259430969500002 151.51819500799996,-33.259503952 151.51825513599999,-33.259643016499993 151.518248992,-33.259707988500004 151.51824288,-33.259800951 151.51823712000001,-33.259886014 151.51825404799999,-33.259970966 151.51829292799999,-33.260012017500003 151.51832496,-33.260068979 151.518339008,-33.2601380025 151.51836601599999,-33.260199034 151.51843296000001,-33.260273015500005 151.518475072,-33.260354008500002 151.51851216,-33.2604360005 151.518549952,-33.260505024 151.51858704,-33.260598985500003 151.51860505600001,-33.260660017 151.518618016,-33.260713019500002 151.51862195199999,-33.260757031 151.518636,-33.260834971500003 151.51865795200001,-33.260920016 151.51870512,-33.260977976499994 151.51877603199998,-33.261063021 151.51882896000001,-33.261125033 151.51886099199999,-33.261201993 151.51885488,-33.261258954499993 151.51892112,-33.261361019 151.51897801600001,-33.26144697 151.51903993600001,-33.261488003 151.51906297599999,-33.261533013499999 151.51907593600001,-33.261614006500004 151.51903705599997,-33.261667027500003 151.51895891199999,-33.261677998 151.51892944,-33.261700438499993 151.51889593600001,-33.261725968499995 151.51883689599998,-33.261749001 151.51876489599999,-33.261748020500001 151.51869792,-33.261714998 151.518616928,-33.261657037500001 151.51857804799999,-33.261636965 151.51855500799999,-33.261623996499999 151.51847795200001,-33.261611046500001 151.518444128,-33.261598984500004 151.51836707199999,-33.261572973500002 151.51831884799998,-33.2615490345 151.518276,-33.261551994500003 151.51825116800001,-33.261587995500001 151.51825008,-33.261633006 151.518234976,-33.261665048 151.51820112,-33.261701049 151.51815683199999,-33.261713018500004 151.518123008,-33.2617159785 151.51806505600001,-33.261723989 151.51801212800001,-33.261756031 151.51795308800001,-33.261791033 151.51788,-33.261814972 151.517837152,-33.261813991499999 151.51780297600001,-33.261794011500001 151.51776588799999,-33.261741009 151.51773312,-33.261683048500004 151.51767984,-33.261650007500002 151.517598112,-33.261633006 151.51755097599997,-33.261607975499999 151.51747500799999,-33.261501952 151.51743683199999,-33.26145696 151.51744297600001,-33.2614040315 151.51745808000001,-33.261368049 151.51743001599999,-33.261338967 151.51738608,-33.261336007 151.51733785600001,-33.261302966 151.51728492800001,-33.261319986 151.51722588800001,-33.261327996499993 151.51717296000001,-33.261309996 151.51713084799999,-33.261264005 151.517088,-33.261249963499992 151.51704012799996,-33.261249963499992 151.51698611199998,-33.261257974 151.51690585599999,-33.2612980265 151.51685184,-33.261336987500002 151.51677084799996,-33.261368049 151.51666393599999,-33.261401978 151.51656707199999,-33.261441031499999 151.51645513599999,-33.261440032499998 151.516337056,-33.2614340015 151.51627404800001,-33.2613890095 151.516189088,-33.261361019 151.516119968,-33.26132897699999 151.51607209599996,-33.261327996499993 151.51601305599999,-33.261326997499999 151.515918016,-33.261281006499999 151.51584384,-33.261239973500004 151.515790912,-33.261194963 151.515759968,-33.26117202299999 151.51568508799997,-33.261147991500003 151.51564297599998,-33.261125033 151.51558499199999,-33.261102000499996 151.515558016,-33.261075009 151.515505088,-33.261065999499998 151.515446048,-33.261068978 151.51539312,-33.261081021500004 151.51532796800001,-33.2611070325 151.51526387199999,-33.261128011499999 151.51517785600001,-33.261149971 151.51508208000001,-33.261144032499999 151.51497516800001,-33.261143033499998 151.51489993600001,-33.261141960499998 151.51479408,-33.261109012 151.51473504000001,-33.261076988500001 151.514704096,-33.261027038500004 151.51464108799999,-33.260991037499998 151.514597888,-33.260990038500005 151.51451292799999,-33.260985006499993 151.51444812799997,-33.260970965 151.51433184000001,-33.260932984500002 151.514283968,-33.260887974 151.514268832,-33.26082903299999 151.51428611200001,-33.26077098 151.51427100800001,-33.2607169785 151.51421808000001,-33.260685029 151.51413888,-33.2606570385 151.514096032,-33.260639038 151.51401107199999,-33.260601964 151.51394195200001,-33.260606015500002 151.51388796799998,-33.260653986 151.51385017600001,-33.260680977499995 151.513773856,-33.26071104 151.513683136,-33.260718958 151.51355497599999,-33.260717977500001 151.51346387199999,-33.260707987499998 151.513385056,-33.260684048500003 151.51328387199999,-33.260664956500001 151.51321907199997,-33.260660017 151.51313987200001,-33.260635985500002 151.51304412799999,-33.260598985500003 151.51298508799999,-33.260603037 151.51294691199999,-33.260616005500005 151.51282992,-33.260619964500002 151.51272300799999,-33.260614026 151.51263193599999,-33.260595026499999 151.512516,-33.260556953499993 151.512393952,-33.260474961500002 151.51232592,-33.260416020500003 151.51222009599999,-33.260302985500005 151.51216896,-33.260211984 151.51212108799999,-33.260157982500004 151.51206313599999,-33.260129992 151.511982848,-33.26012000199999 151.511907968,-33.26011497 151.511787008,-33.260050978500004 151.51173408,-33.260004987500004 151.51166496,-33.259955037499999 151.511586112,-33.259917963500001 151.51150009599999,-33.259898964 151.511420896,-33.259888974 151.51128192,-33.259878984 151.511148,-33.259895005 151.51103603199999,-33.259894024499999 151.51087008,-33.259892045 151.510753088,-33.259886014 151.51062384,-33.259888974 151.51053888000001,-33.259901036 151.51045788799999,-33.259904995 151.51038912000001,-33.259904014500002 151.51029804800001,-33.259903015500001 151.51014288,-33.259901036 151.51002012800001,-33.259907973499999 151.50993984,-33.259921016 151.50984300799999,-33.259932985500001 151.50974688,-33.259940996 151.50955715200001,-33.259938036 151.509417856,-33.259958996500004 151.50930012800001,-33.259961975 151.509192832,-33.25998698699999 151.50910211199999,-33.260004007 151.50899484799999,-33.2600159765 151.50885516799997,-33.260041987500003 151.50872700799999,-33.2600630405 151.508608928,-33.260096969500005 151.50848508799999,-33.26012703199999 151.50841488,-33.260175983 151.508279872,-33.260240973500004 151.50819491199999,-33.260301986500004 151.50809305600001,-33.260347977500004 151.508016,-33.260399999499995 151.50799907199999,-33.260416020500003 151.50796201599999,-33.260453002 151.50789216000001,-33.260509982 151.50783203200001,-33.260567036 151.507784896,-33.260576045500002 151.50772009600001,-33.260633007 151.50767616,-33.2607169785 151.507626848,-33.260787981500002 151.507582912,-33.260889953499998 151.50754512,-33.260965026500003 151.50751596800001,-33.2611070325 151.50751417599997,-33.261218014 151.50751705600001,-33.261329976 151.50753216000001,-33.261427989 151.507567072,-33.26153103399999 151.50758688,-33.261633006 151.50761712,-33.261741009 151.50768912000001,-33.261825961 151.50774096000001,-33.261911005500004 151.50783491199999,-33.262039987500003 151.50785904,-33.26212296 151.50791593599999,-33.262248963499992 151.50791411200001,-33.262360019 151.50787993599997,-33.262484043 151.50782412800001,-33.262640016500001 151.50775897599999,-33.26275899 151.50772009600001,-33.262803001500004 151.50764592,-33.262838003500001 151.50758688,-33.262864014500003 151.50752208,-33.2629520375 151.50748896,-33.263019007499999 151.50745116799999,-33.26307201 151.50740688,-33.263128971500002 151.507332,-33.263186044 151.50724704000001,-33.263207004500003 151.50718908799999,-33.263206024 151.507131136,-33.263183972 151.50702995200001,-33.263172983 151.50697705600001,-33.263181992500002 151.506929152,-33.263208003499997 151.50690108800001,-33.263279006499992 151.50685788800001,-33.263341018499993 151.50684128,-33.263359259499993 151.50681395199999,-33.263388989 151.506764992,-33.263469001499999 151.50668508800001,-33.263480971 151.50661705600001,-33.263449021500001 151.50658608000001,-33.263399978 151.50660300800001,-33.2633549675 151.50663504,-33.2633249975 151.50666816,-33.263267037 151.50666889600001,-33.263199993 151.50666492799999,-33.263128971500002 151.50663395199999,-33.263044019500001 151.50658716800001,-33.2630119775 151.50649788799998,-33.2629669855 151.50642409599999,-33.262929985500001 151.50630816,-33.262911004499998 151.50618108800001,-33.262883014 151.50610188799999,-33.262855023500002 151.50597516799999,-33.262836024 151.50583692800001,-33.262806960500001 151.505748,-33.262775011 151.50569507200001,-33.262756011500002 151.505556832,-33.262749999 151.50543516799999,-33.262749 151.50531203200001,-33.262822981500001 151.505273888,-33.262884993500002 151.505272096,-33.262973997 151.505265952,-33.263027018 151.50525408,-33.263107012 151.50521699199999,-33.263128971500002 151.505152928,-33.263142032499999 151.50508416,-33.263123033 151.50505283199999,-33.2630739895 151.50503808,-33.262993977 151.505039872,-33.262900015500001 151.50499811200001,-33.262858982499999 151.50492505599999,-33.262786980499996 151.50487897599999,-33.262720029 151.50479004799999,-33.262660977 151.50470003199999,-33.262629027500004 151.50459996800001,-33.262604996 151.50445705600001,-33.262621017 151.50439296,-33.262620036500003 151.50428713599999,-33.262619037500002 151.50417011199997,-33.262622016 151.50405385600001,-33.262615985 151.50391091200001,-33.262601037 151.50376297599999,-33.262590954499998 151.50365100799999,-33.26257602499999 151.50350809599999,-33.262560984499999 151.503408,-33.2625549535 151.50330684799999,-33.26257602499999 151.503211072,-33.262614986 151.50309408000001,-33.262632006 151.502972032,-33.262634966 151.50283993599999,-33.262620036500003 151.502685856,-33.262590954499998 151.502522048,-33.262561983499999 151.50240611199999,-33.262533993 151.50230099199999,-33.262514993499991 151.50223801600001,-33.262473960500003 151.502205952,-33.262436979 151.502168896,-33.262451002 151.50212604800001,-33.262472961500002 151.50207312000001,-33.262486022499999 151.502004,-33.262497992 151.50190393599999,-33.2624789925 151.50179808,-33.262460011500004 151.50164905599999,-33.2624490225 151.50149603200001,-33.262434000500001 151.50137904,-33.2624330015 151.50127897600001,-33.262432021 151.50114396800001,-33.262419959 151.50096611199999,-33.26239701899999 151.500812032,-33.2623880095 151.50065689600001,-33.26238603 151.50041209599999,-33.262382977500003 151.50010284800001,-33.262379018499999 151.49990304,-33.262383958 151.49961107199999,-33.262418978500001 151.49936592,-33.262416 151.49909305599999,-33.26243598 151.49888316799999,-33.26245596 151.49866393600001,-33.26250698299999 151.49846304,-33.262542003500002 151.498263968,-33.262540024 151.497916928,-33.262581963500004 151.49747088,-33.262659996499998 151.497176032,-33.2626989575 151.49703708800001,-33.262730019 151.49685888,-33.262810013 151.49664217599999,-33.262874004499992 151.496404928,-33.262911985 151.49624688,-33.262984986 151.495998848,-33.2631050325 151.495810912,-33.263218974 151.49570905600001,-33.263390968499998 151.495652896,-33.263537044499998 151.49554416000001,-33.263602016500002 151.49542499199998,-33.263632985500003 151.495316992,-33.263639997 151.49512009599999,-33.2636540385 151.49488393599998,-33.263701028500002 151.49457792000001,-33.263795970499999 151.494408,-33.26391801499999 151.49421900799999,-33.264055988 151.494050176,-33.264186024499999 151.49386697599999,-33.26432224 151.493716992,-33.264299004 151.49339900799998,-33.264251995500004 151.492942016,-33.264184008 151.492806016,-33.264163991 151.492638016,-33.264313008500004 151.492392,-33.264336004 151.492424992,-33.264185007 151.492432992,-33.26408199899999 151.49242,-33.263921992500002 151.49234099200001,-33.263752995 151.49227001599999,-33.263643993 151.492155008,-33.263495993 151.49214499199996,-33.263475994499991 151.4921,-33.263382995 151.492108992,-33.26315400199999 151.492120992,-33.262937996 151.49220201599999,-33.262586995500001 151.49222899200001,-33.262461991 151.492308,-33.262343998 151.49240700799999,-33.262144993500002 151.492504,-33.261976995 151.49262,-33.261782005 151.49363401599999,-33.259930007 151.494112992,-33.259055993 151.49420601599999,-33.258902998 151.49478099199999,-33.259060007500004 151.49481500799999,-33.259057991 151.49484099200001,-33.259029001499997 151.49492899200001,-33.258890991500003 151.49569801600001,-33.257481994500004 151.49597401599999,-33.256963994499998 151.495952,-33.256854992500003 151.495915008,-33.256699000499999 151.49559699199997,-33.255478000499998 151.495531008,-33.255222996500002 151.49543900800001,-33.254869998 151.49527500799999,-33.254142004500004 151.495884,-33.254368999500002 151.49588598400001,-33.254365003499998 151.496192,-33.254475004500001 151.49646300800001,-33.254559993500003 151.49654601599997,-33.254578993 151.49663699199999,-33.254592997499998 151.49673001599996,-33.254612996 151.496724992,-33.254575996 151.496724992,-33.254552001500002 151.496728,-33.254533002 151.49673299200001,-33.254513003500001 151.49674198400001,-33.25449100699999 151.49675401600001,-33.254466994 151.496768,-33.2544499925 151.49679900800001,-33.254415009 151.49682499199997,-33.254404001499999 151.496856,-33.254392994 151.496884,-33.254387 151.496916,-33.254385002 151.496924992,-33.254386001 151.49692899199999,-33.254270006 151.49692099200001,-33.254129998 151.496908,-33.254021995 151.49690899199999,-33.253996002500003 151.49673100800001,-33.253377991500003 151.49637401599998,-33.252136993 151.49618099200001,-33.251469994 151.49596032,-33.2507042975 151.49586099199999,-33.250749992499998 151.494820992,-33.250683004 151.4946,-33.250601992500002 151.49434099199999,-33.251825009 151.49433260800001,-33.251865209499996 151.49424601600001,-33.251775577 151.49402806399999,-33.251601566 151.49382806400001,-33.251369557499999 151.49361107199999,-33.251051561 151.49356105599998,-33.251008567 151.49347808,-33.250892572 151.49297510400001,-33.250399584 151.49289209599999,-33.25029857399999 151.492630112,-33.249664579 151.49243308800001,-33.24924659 151.49233411200001,-33.249016579500001 151.49230108799998,-33.248973585500003 151.49220736000001,-33.248782166 151.49239699200001,-33.2484199915 151.492536992,-33.248177993 151.49333555199999,-33.246796949500002 151.493688,-33.24613896 151.49400985599999,-33.245537932 151.49409228799999,-33.245389895 151.494335968,-33.245063240500002 151.494888256,-33.244322944499999 151.494916,-33.244289996 151.49506032,-33.244114597500001 151.496418592,-33.242419072499992 151.49652691199998,-33.24228356 151.49802700800001,-33.240412007499998 151.49859001600001,-33.239709007500004 151.49862201599998,-33.239664996 151.498956,-33.239254 151.49924713600001,-33.238745102 151.49925612800001,-33.238750134 151.49930147200001,-33.238761937 151.49934864,-33.238762473500003 151.499394368,-33.238751854499995 151.49943433600001,-33.238730783 151.49946598400001,-33.238701183 151.499486176,-33.238665274500001 151.499493376,-33.238625943500004 151.49948761599998,-33.23858652 151.49946851199999,-33.238550167500001 151.49943792,-33.238519735 151.49939868799999,-33.238497775500001 151.49938752,-33.238494908 151.49985177600001,-33.237805542499999 151.50052473599999,-33.236816551 151.50114361600001,-33.235977502 151.50149136,-33.235390719 151.50177289600001,-33.234941964500003 151.50192012799999,-33.2347077915 151.50210409600001,-33.234149424499996 151.50227401599997,-33.233464536 151.5023424,-33.23306582399999 151.50258166399999,-33.231755543 151.502702048,-33.231236766 151.50280931200001,-33.230774525 151.502924896,-33.230185115 151.5029544,-33.229922859 151.50299004799999,-33.229610912 151.50298105600001,-33.229547457 151.50298787199998,-33.229133815499992 151.50299472,-33.228730534 151.50299580800001,-33.228513455 151.50299939199999,-33.227730091 151.50294649599999,-33.226544611 151.50292848000001,-33.226257694499999 151.50288313600001,-33.225546147500005 151.502904736,-33.224731648 151.502941088,-33.224360038500002 151.50297385600001,-33.224212445500001 151.503044768,-33.224033513500004 151.503052672,-33.224016604500001 151.50314915199999,-33.223810681 151.50373632,-33.2230230065 151.50400649599999,-33.222707544500004 151.50448512,-33.222113546500005 151.50517632,-33.221255128 151.50599424,-33.220246582 151.50634704000001,-33.219811536 151.50683555200001,-33.219187568 151.507109536,-33.218759607500004 151.507407968,-33.218329945 151.50748716800001,-33.218181279 151.50753587200001,-33.218083432500002 151.50834736,-33.218342506500001 151.50917232,-33.2185935145 151.51017632,-33.219058512 151.511144288,-33.219703496 151.511933312,-33.220158485 151.51281030399997,-33.220657485499991 151.513190272,-33.220850496</coordinates></LinearRing></outerBoundaryIs></Polygon><Polygon><outerBoundaryIs><LinearRing><coordinates>151.57143001599997,-33.289299996499999 151.571704,-33.289366004500003 151.57192899200001,-33.289431994 151.572028,-33.289475006499998 151.572002016,-33.289549006500003 151.572,-33.2896749915 151.572047008,-33.289833 151.572096,-33.289907 151.572172,-33.289898009 151.57225900799997,-33.289929995500003 151.57238201600001,-33.29005799699999 151.57248,-33.290217004500001 151.572628,-33.290366003500004 151.57265001600001,-33.290513004499992 151.57266,-33.290702999499999 151.57259500799998,-33.290828004 151.57258,-33.290985994 151.57259100799999,-33.291111997500003 151.57258899199999,-33.291217003500002 151.57251299199999,-33.291269007 151.57232499200001,-33.291267009 151.572112,-33.291263993500003 151.571888,-33.291208993 151.571664,-33.291111997500003 151.571439008,-33.291056997 151.571204,-33.290895991500001 151.57114300800001,-33.290758999 151.57098300800001,-33.290589002499999 151.57082201599999,-33.290449993500005 151.57057401599999,-33.290332000500001 151.570488,-33.29020399899999 151.57047798400001,-33.290046009 151.570556,-33.2898579935 151.57078300800001,-33.289755004 151.570999008,-33.289631997500003 151.57103900799999,-33.289443001499997 151.571079008,-33.289337995499999 151.57120499199999,-33.289286991 151.57126700800001,-33.289288008500002 151.57143001599997,-33.289299996499999</coordinates></LinearRing></outerBoundaryIs></Polygon></MultiGeometry>

	</Placemark>
</kml>