<?xml version="1.0" encoding="UTF-8"?>
<kml xmlns="http://www.opengis.net/kml/2.2">
	<Placemark>
		<Style>
			<LineStyle>
				<color>ff0000ff</color>
			</LineStyle>
			<PolyStyle>
				<fill>1</fill>
				<color>330000cc</color>
			</PolyStyle>
		</Style>
			<ExtendedData><SchemaData>
		<SimpleData name="STATE_2006">1</SimpleData>
		<SimpleData name="POA_2006">2195</SimpleData>
	</SchemaData></ExtendedData>
      <Polygon><outerBoundaryIs><LinearRing><coordinates>151.08868700799999,-33.928336061499998 151.08558112,-33.92925911899999 151.08492307200001,-33.927724118500002 151.084265088,-33.926190135500001 151.08397808,-33.926275143 151.08323612800001,-33.926495145 151.08255910400001,-33.926697146500004 151.08133315200001,-33.92706217 151.08098416000001,-33.927165196499999 151.080101184,-33.927426194500001 151.079886176,-33.927490204500003 151.0788392,-33.9277992285 151.078728224,-33.927831233500001 151.077683232,-33.928141238 151.077639232,-33.928154243499996 151.07674726400001,-33.928419256 151.07655027199999,-33.928477272 151.07546230400001,-33.928798284 151.075266304,-33.928856281500003 151.07506531199999,-33.92891328 151.07405734400001,-33.929140293499998 151.07325238399997,-33.929272328 151.07233337599999,-33.92944534 151.0718704,-33.929526333 151.07098339199999,-33.929742357500004 151.07084940799999,-33.929773363500004 151.06972544000001,-33.93000737 151.06964643200001,-33.930024371500004 151.068446464,-33.930274380500002 151.06800448000001,-33.930365400500001 151.06537344,-33.925676390500001 151.06605241599999,-33.925388401 151.06677139199999,-33.925082374 151.067926368,-33.9245913655 151.069141344,-33.924089349500001 151.068443328,-33.922885351 151.06831235199999,-33.922658707499998 151.067308672,-33.922994131 151.067076896,-33.923069037499999 151.06581251200001,-33.923487507499999 151.06564838400001,-33.923235371 151.065606368,-33.923157375 151.06514137600001,-33.922351385500001 151.06448736,-33.92125539 151.06392236799999,-33.920301400500001 151.063278336,-33.919229399499997 151.06275577599999,-33.919682131500004 151.06281334400001,-33.918892385 151.06287734399999,-33.91785139 151.062930016,-33.917754875500002 151.06394665600001,-33.916866561 151.06404537599997,-33.916751195 151.06414393599999,-33.916666853500004 151.065547232,-33.915446353 151.06570124800001,-33.9153133565 151.06620380800001,-33.914885673500002 151.067061376,-33.914156126 151.06746617600001,-33.913812377500001 151.06798816,-33.913370338500002 151.06802614399999,-33.9133373345 151.06836713600001,-33.913048346 151.06931811199999,-33.912566328499999 151.069639104,-33.912404324 151.070753088,-33.911839315500004 151.070899072,-33.911766314499999 151.0723152,-33.911559817499999 151.07286806400001,-33.911478306500001 151.07310937599999,-33.911291974500003 151.07371379200001,-33.910872117 151.07437008,-33.910427432499993 151.074842752,-33.910107308500002 151.07488992,-33.910073638500002 151.075220032,-33.909837208500001 151.07532841599999,-33.909764855 151.07548355200001,-33.9095718815 151.07626592,-33.90812224 151.07629891199997,-33.908073252 151.07631593599999,-33.90804824 151.07635292799998,-33.908000251 151.07641417599999,-33.9079318195 151.07650307199998,-33.907824982 151.07657123199999,-33.907774606499999 151.076704896,-33.907970244 151.07685392,-33.908230243 151.077200928,-33.908833232 151.077695936,-33.90969322299999 151.07818492800001,-33.910545222 151.078247936,-33.910655223 151.07831193600001,-33.91069222299999 151.07833091200001,-33.910702231500004 151.078731936,-33.91141120699999 151.07925059199999,-33.912327142 151.07979296,-33.913374205 151.08059795199998,-33.914772194500003 151.08125094399998,-33.91590519 151.08128096,-33.91590019499999 151.08169296,-33.915756172500004 151.08250096,-33.917143173 151.082795968,-33.917654161500003 151.08296256,-33.917918526500003 151.08319187199999,-33.918323121500002 151.083526944,-33.918900155 151.08402697599999,-33.919758129500003 151.08427398399999,-33.920182131 151.08452099199999,-33.920607131499999 151.08506697600001,-33.921544119499998 151.08494998399999,-33.92159912 151.08468444799999,-33.921713783 151.08526585600001,-33.922697761 151.08579900799998,-33.923642001 151.085826016,-33.923679926 151.08588323199999,-33.923656801 151.08614601599999,-33.924094104 151.086413024,-33.924539103 151.086670016,-33.924966101500004 151.08690403200001,-33.925400093 151.08734201600001,-33.926121075 151.08779801599999,-33.926871083500004 151.08843401599998,-33.927919053 151.08868700799999,-33.928336061499998</coordinates></LinearRing></outerBoundaryIs></Polygon>

	</Placemark>
</kml>