<?xml version="1.0" encoding="UTF-8"?>
<kml xmlns="http://www.opengis.net/kml/2.2">
	<Placemark>
		<Style>
			<LineStyle>
				<color>ff0000ff</color>
			</LineStyle>
			<PolyStyle>
				<fill>1</fill>
				<color>330000cc</color>
			</PolyStyle>
		</Style>
			<ExtendedData><SchemaData>
		<SimpleData name="STATE_2006">1</SimpleData>
		<SimpleData name="POA_2006">2564</SimpleData>
	</SchemaData></ExtendedData>
      <Polygon><outerBoundaryIs><LinearRing><coordinates>150.90865401600001,-33.988499338 150.90862041599999,-33.988766182 150.90839980800001,-33.989142453500001 150.90806576,-33.9896755125 150.90781993600001,-33.990354906500002 150.90791446399999,-33.991117939 150.90800902399999,-33.991742480500001 150.90829267199999,-33.992730158500002 150.90847507199999,-33.993452361499997 150.90853507200001,-33.993986345499998 150.908571104,-33.994398359 150.908571104,-33.99517436 150.908573152,-33.995397932499998 150.90854796799999,-33.995638321500003 150.9085448,-33.995844726 150.90855740800001,-33.996299382 150.90856371199999,-33.996477056 150.90855740800001,-33.996646904500004 150.90860153599999,-33.996963069499998 150.908787488,-33.997451691500004 150.908956096,-33.997837583 150.90935664,-33.9982803065 150.91001884799999,-33.998709765500003 150.91039804799996,-33.99885586 150.91080924799999,-33.9989266965 150.91169580799999,-33.9990063945 150.912176448,-33.999148067500002 150.91237939199999,-33.999413709 150.91255030400001,-34.00028591 150.91196816,-34.001158092499999 150.910926784,-34.001742507499998 150.90973580799999,-34.002123256 150.908080224,-34.002694388 150.906499392,-34.003349639500001 150.90544928,-34.0038484365 150.90490112000001,-34.004120941499998 150.90419369599999,-34.004672907499994 150.90348156799999,-34.005197863500001 150.90266124799999,-34.005665673 150.9021224,-34.006115075 150.90163993600001,-34.006811045 150.90150096,-34.007225038 150.90153008,-34.00774684899999 150.90152499199999,-34.008735489 150.90171408,-34.009664041 150.90164886400001,-34.009668407 150.901794432,-34.010365505500005 150.90211513599999,-34.011388981 150.90231996799997,-34.01155296499999 150.902595136,-34.012095995500005 150.90276816,-34.012923038 150.90312972800001,-34.014073941499994 150.90322310400001,-34.014466326499999 150.903473056,-34.014955448 150.903677504,-34.015294349500003 150.90401507199999,-34.015652935 150.90434310399999,-34.015865722 150.90463545599999,-34.016001475 150.904723424,-34.016054884500001 150.90512848,-34.016224492500001 150.90529868799999,-34.016259790500001 150.90560297600001,-34.016358303 150.90614019200001,-34.016508042 150.906449248,-34.016614435500003 150.906675968,-34.0167500035 150.90687792,-34.017165994500004 150.90693900799999,-34.017456999499998 150.906768992,-34.017749003500001 150.90633747199996,-34.018093492 150.90600550400001,-34.018316491 150.90581350400001,-34.01842849 150.90543184000001,-34.018568979 150.9049992,-34.01881329 150.90432192,-34.019010000500003 150.90381980800001,-34.019182217 150.90274108799997,-34.019590438 150.902448128,-34.019792014 150.90225657600001,-34.0198295135 150.902013568,-34.019908527 150.90196256,-34.019925528500004 150.901204608,-34.020148546 150.90053113600001,-34.020377002499991 150.900410368,-34.020442474 150.90013872,-34.020549940500004 150.89977443199996,-34.020711131 150.89926508799999,-34.020795565 150.89871248,-34.020872321499994 150.89810745599999,-34.020926045499998 150.89764438399999,-34.020951631 150.89733568,-34.020928617 150.89693436799999,-34.020821150499998 150.89669974399996,-34.020675315 150.89644969599999,-34.020560171 150.89623670399999,-34.020468059500004 150.89591366400001,-34.020244875499991 150.89556038399999,-34.020016345 150.894613088,-34.019666010499996 150.89445971200001,-34.019697608500003 150.89439168,-34.019696609500002 150.89391900800001,-34.0197540335 150.89337856,-34.019780895499999 150.89290768000001,-34.019508224 150.892739936,-34.018834546500003 150.89292281600001,-34.017394451 150.89289568000001,-34.016708619 150.89302704,-34.015583708 150.893076,-34.014902001499998 150.89343507199999,-34.014159448500003 150.89347488000001,-34.0133757515 150.89312659199999,-34.012616789 150.89261161599998,-34.011887593 150.89217126400001,-34.011412365 150.89214140799999,-34.010628668 150.89226083200001,-34.010240945 150.89242998399999,-34.0091602675 150.892320544,-34.007898105 150.892280736,-34.0055799995 150.89208169599999,-34.004887045 150.89148460800001,-34.004276600499999 150.89079798399999,-34.004111599 150.889888576,-34.004261597 150.88923561600001,-34.004614817499998 150.88881766399999,-34.005035544500004 150.88852908799998,-34.005538763 150.88836902400001,-34.006297614499999 150.888274688,-34.006756007500002 150.887967008,-34.006716991 150.88748963200001,-34.006569638499997 150.887111616,-34.006494658 150.88633961599999,-34.006343642499999 150.886254624,-34.006239654 150.88587862399999,-34.0057496445 150.88483366400001,-34.004931667 150.885638688,-34.002899978500004 150.88553500800001,-34.002864995 150.8852136,-34.00261165599999 150.88513158399999,-34.002547646 150.885050592,-34.002484653499998 150.8849736,-34.00242365899999 150.88489660799999,-34.002363645 150.88474361600001,-34.002242655 150.884589632,-34.002121665 150.88443699199999,-34.00200200699999 150.88428300800001,-34.001880998499999 150.88418099200001,-34.001800005500002 150.88381100800001,-34.0015090005 150.88375401600001,-34.001468004499998 150.883336,-34.001162995 150.88316601599999,-34.001039008 150.882881024,-34.000829995 150.88275100800001,-34.000734997500004 150.88269100799999,-34.000675002 150.88227862400001,-34.0002606945 150.88174662399999,-33.999748688499999 150.88160163200001,-33.999724694 150.881569216,-33.999692670500004 150.88152745599999,-33.999669175500003 150.8814792,-33.999656484500001 150.88142864,-33.99965568899999 150.881379616,-33.999666678 150.881095456,-33.9985157375 150.881074912,-33.998425735 150.881043616,-33.998205696 150.88102662399999,-33.998143684 150.881019616,-33.998126682499993 150.88100361599996,-33.998084687500004 150.88097264000001,-33.998030686 150.88092464,-33.997972688499999 150.88086662399996,-33.997918687 150.88080096,-33.997869181 150.88073113600001,-33.997822912499998 150.88066064,-33.99777967799999 150.880594688,-33.997743547500001 150.880525632,-33.997709711 150.88043305599999,-33.997671083 150.88043052800001,-33.997669917499998 150.88043449599999,-33.997663165 150.88043961599999,-33.997634712 150.880435936,-33.997606555 150.88042224,-33.997580377499993 150.88040064,-33.997558714 150.88037184000001,-33.997542397 150.88034448,-33.99753518199999 150.88033862399996,-33.997533702 150.88030489600001,-33.997533202500001 150.880271776,-33.997540676500002 150.88024224,-33.997555624500002 150.8802192,-33.997576862500004 150.880211296,-33.997590626499999 150.88014720000001,-33.997572718500003 150.88007264000001,-33.997551702500004 150.87991356800001,-33.9975054895 150.87959712,-33.997406218500004 150.87943961599998,-33.997354714499998 150.87928262399998,-33.997302711 150.879109632,-33.997244713500002 150.87893561600001,-33.997187715 150.87876336,-33.997129477 150.878592736,-33.997067557500003 150.87842467199997,-33.99700071699999 150.878207648,-33.9969067185 150.877993664,-33.996805727 150.87778364799999,-33.996699722 150.877578656,-33.996585725 150.87738166400001,-33.996466751500002 150.87721065599999,-33.996352736 150.87704566400001,-33.996234743 150.87688467199999,-33.996110737500004 150.87672867200001,-33.995982736 150.876576672,-33.995852736499998 150.876451648,-33.995738739499998 150.87633164799999,-33.995621745500003 150.87577897599999,-33.995058291 150.87573001600001,-33.995083321500005 150.875654752,-33.995100323 150.87557664,-33.995098972500003 150.87550211199999,-33.9950793625 150.87543769600001,-33.995043084 150.87538764799999,-33.994992764 150.87535667200001,-33.994933471499998 150.87535308799997,-33.994909162500001 150.875347328,-33.994868943500002 150.87535993599997,-33.9948048595 150.87539376000001,-33.994746621499999 150.87458556799999,-33.994354403 150.87423769599999,-33.994184758 150.87388752000001,-33.993913492499999 150.871906432,-33.992374866 150.871059008,-33.991717598 150.872916256,-33.990075094 150.87537776,-33.987897607 150.87721136,-33.986275601 150.878573504,-33.985070696 150.88073744,-33.98315565 150.88092044800001,-33.982994644500003 150.88112441600001,-33.982813659 150.88666723200001,-33.977910548499999 150.88683824,-33.9777595515 150.886861248,-33.977738554 150.88709283200001,-33.977534277 150.88740723199999,-33.977755555500003 150.88863424,-33.979857544 150.88911625599997,-33.9809235325 150.88973024000001,-33.981521526500003 150.89030025599999,-33.981886513 150.89095724800001,-33.982105516 150.89144822399996,-33.982101501500004 150.89160620800001,-33.982109493499991 150.891658208,-33.9820965065 150.89186422399999,-33.982071494499991 150.892208224,-33.982076508 150.8924832,-33.982052495 150.89305020800001,-33.982061486 150.89313516799999,-33.982077488500003 150.893513184,-33.982083482500002 150.89409516800001,-33.98217848 150.89438716800001,-33.982169470500004 150.89448617599999,-33.982357467500002 150.89449619199999,-33.982658462499998 150.89445417600001,-33.982944491 150.89443619199997,-33.982986486 150.89443318400001,-33.983101482 150.89446518400001,-33.983202492 150.89449916800001,-33.983245486 150.894684192,-33.9833924685 150.89483718400001,-33.983480473 150.89512380799999,-33.9835455005 150.89524704,-33.983573491 150.89560217600001,-33.983793456 150.89572617600001,-33.983824462 150.89579017599999,-33.983839465500004 150.895877184,-33.983798469499995 150.89594617599997,-33.983756456 150.89601619199999,-33.9837284655 150.896068192,-33.983700456500003 150.89621014400001,-33.983502469500003 150.89630016000001,-33.983360445 150.89633414399998,-33.983361444 150.896335136,-33.983332454500001 150.89649113599998,-33.983234441500002 150.89687315200001,-33.983083444500004 150.89702816,-33.983057452 150.89732313600001,-33.982947451 150.89746915200001,-33.982867438500001 150.897675104,-33.98280944099999 150.89804310400001,-33.982799432500002 150.898206112,-33.982829421 150.89837612799997,-33.982905419 150.898396128,-33.982929432 150.89840512000001,-33.982963435 150.89843811200001,-33.982979419 150.89858912,-33.983111435 150.898656128,-33.983212426500003 150.89872412799997,-33.983256419500002 150.899027104,-33.983505429499999 150.899195104,-33.9836514315 150.89928012799999,-33.98368142 150.89943411199999,-33.983712426 150.89958812799998,-33.983729427499995 150.899691104,-33.98373040799999 150.89989712,-33.983762413 150.89996412799999,-33.983792401500004 150.90015308799997,-33.983795417 150.90043609599999,-33.98380241 150.90070208,-33.983826404499993 150.901029088,-33.983729409 150.90141609599999,-33.9835363985 150.901852064,-33.983487392 150.90227606400001,-33.9833913955 150.90328102399999,-33.982919368 150.90566598399997,-33.981552347499999 150.906705888,-33.981012628500004 150.907360928,-33.9805843165 150.90802691199997,-33.980209321499999 150.90849888,-33.979713318 150.90874089600001,-33.979277291500004 150.90899088,-33.979127293499999 150.90926688,-33.979103299 150.909521888,-33.979115305500002 150.90975388800001,-33.979187307499998 150.90994588800001,-33.979295292 150.91026585599997,-33.979515275499999 150.91042585599996,-33.979606277 150.91046284800001,-33.979628273499998 150.910522848,-33.979679278 150.91057084799996,-33.979713281 150.91043488,-33.979917280500004 150.91023788800001,-33.980463289500001 150.910085888,-33.98077729 150.90997590399999,-33.981101299 150.90944793599999,-33.9831612925 150.90925196799998,-33.984096319500004 150.90918393600001,-33.985079724 150.9090592,-33.986902621500001 150.908981248,-33.987458528 150.908851072,-33.987833282499999 150.90865401600001,-33.988499338</coordinates></LinearRing></outerBoundaryIs></Polygon>

	</Placemark>
</kml>