<?xml version="1.0" encoding="UTF-8"?>
<kml xmlns="http://www.opengis.net/kml/2.2">
	<Placemark>
		<Style>
			<LineStyle>
				<color>ff0000ff</color>
			</LineStyle>
			<PolyStyle>
				<fill>1</fill>
				<color>330000cc</color>
			</PolyStyle>
		</Style>
			<ExtendedData><SchemaData>
		<SimpleData name="STATE_2006">1</SimpleData>
		<SimpleData name="POA_2006">2669</SimpleData>
	</SchemaData></ExtendedData>
      <Polygon><outerBoundaryIs><LinearRing><coordinates>147.04283766399996,-33.885244511 147.04259369600001,-33.885738516499998 147.04234771200001,-33.886311517 147.041966688,-33.887709525 147.03844489599996,-33.90909164 147.03557206400001,-33.926532737 147.032229344,-33.946811845 147.03221033599999,-33.94692784 147.03036752,-33.958545895500002 147.02888256,-33.958730914 147.01995072,-33.960755017499999 147.01953872000001,-33.960870013499999 147.01918172800001,-33.961031019 147.018769728,-33.961283007499993 147.01830275200001,-33.96165002899999 147.01097392,-33.967682120500001 147.01056192,-33.967957123 147.01020492800001,-33.96821012899999 147.00995792000001,-33.968645138 147.009903936,-33.968829139 147.00982195200001,-33.969195143 147.00971296,-33.969929149 147.00863100800001,-33.976459186500001 147.00721411200001,-33.985006223500001 147.007050112,-33.985601220500001 147.00688611199999,-33.985991219 147.006556096,-33.986403232500003 147.006172128,-33.986702229500004 147.00602214400001,-33.986800242500003 147.00578812799998,-33.986954236500004 147.00532012799999,-33.987161233 147.00471516799996,-33.987252253 147.00408316799999,-33.987276247499999 147.003395168,-33.987185246 147.0012272,-33.987100275499998 146.99562828800001,-33.986385324499999 146.987711424,-33.985334395 146.983547488,-33.984801447 146.9768456,-33.98396151 146.97660057600001,-33.985339519500002 146.97576665599999,-33.990163524 146.97419376,-33.998450580499998 146.97312982400001,-34.0045916 146.972997824,-34.005357629500004 146.97201088,-34.011081640500002 146.971079936,-34.0165086895 146.97039196799997,-34.020440679499998 146.970028,-34.022506704 146.96933302400001,-34.026423690500003 146.96885408,-34.029010712 146.96844710399998,-34.031314720499999 146.968403104,-34.031561714 146.96820611199999,-34.032674729500002 146.96761312000001,-34.036177741499998 146.96752912,-34.036566741 146.967418176,-34.036749743 146.96719817600001,-34.036840763 146.966922176,-34.036908750500004 146.96664716800001,-34.036907751500003 146.966482176,-34.03699975199999 146.96631616,-34.037113749 146.9657392,-34.040290772500001 146.96544323200001,-34.0419217695 146.96531523199999,-34.042665765500004 146.96454028799999,-34.047160784500001 146.96439728,-34.047988789 146.964256288,-34.048803788 146.96411728000001,-34.049614791 146.96320835200001,-34.054733815 146.962841376,-34.056803835499991 146.962312416,-34.059780837 146.96090153599999,-34.067771856500002 146.96070355200001,-34.069099860500003 146.960620576,-34.069214246 146.96001555199999,-34.069143890500001 146.95718160000001,-34.068836901499999 146.95479264,-34.068523918499999 146.952068672,-34.068164944499998 146.94868374399999,-34.067711972 146.94381580800001,-34.067078014 146.93875491200001,-34.066375069500005 146.93637494399999,-34.066110094 146.93515196800001,-34.0659741005 146.93080704,-34.065365136 146.92940403200001,-34.065154143500003 146.927809056,-34.064988161500004 146.926764064,-34.064870187 146.925447072,-34.064758188 146.92536108799999,-34.064751176500003 146.924535104,-34.064702207 146.92398508799999,-34.064700190499998 146.923160096,-34.064629206 146.92159212799999,-34.064509215 146.91991411199999,-34.064366228499992 146.918153152,-34.064246256 146.91683315200001,-34.064150278 146.915430176,-34.064076278 146.91510118400001,-34.064052265 146.91410918400001,-34.0639803 146.91262422400001,-34.063861308 146.910863232,-34.063786327500004 146.90792025600001,-34.06357034 146.90743328,-34.06353334 146.90569129599996,-34.06340236 146.90252832,-34.063138402 146.90071936000001,-34.063000429 146.90043833599998,-34.06297841399999 146.900025344,-34.062946427500002 146.897796384,-34.062824438500002 146.89523840000001,-34.062654460499999 146.89336745599999,-34.06257948 146.89149648,-34.06245849 146.88786553599999,-34.062192534 146.88718252800001,-34.062134536500004 146.88646355199998,-34.062073542 146.88285660799997,-34.061822571 146.88241859199999,-34.061791583500003 146.88195161600001,-34.061758579500001 146.87592969599999,-34.061372651 146.87094777599998,-34.061053674 146.868473792,-34.060950721499999 146.86789382399999,-34.060927707499999 146.86739881599999,-34.06097072 146.86681984000001,-34.061106713500003 146.86577286400001,-34.061377738499999 146.86497385600001,-34.061557743500003 146.86434089599999,-34.061577760500001 146.86384688,-34.061415756 146.86326988799999,-34.061207760500004 146.86292390400001,-34.061024758500004 146.862308896,-34.060699769 146.861376928,-34.060214773 146.860498912,-34.059752772499991 146.860058912,-34.059545794500004 146.85928992000001,-34.059312787 146.85730995200001,-34.059099815 146.85112304,-34.058387861 146.84975904000001,-34.058205876500004 146.84627712,-34.057773901499999 146.84578710400001,-34.05783992799999 146.84465913599996,-34.057765928 146.84380713600001,-34.057647935 146.84138716800001,-34.057362961 146.8402032,-34.057209966 146.837892256,-34.056911986499998 146.83016835199999,-34.055923050499999 146.82662137599999,-34.055469079 146.81631152,-34.054143184 146.81611952,-34.054114176 146.81518352000001,-34.053977202 146.81430355200001,-34.053951191 146.81367155199999,-34.053788206 146.81284755199999,-34.053555217 146.811912608,-34.053391214500003 146.81130758399999,-34.053388236 146.81034460800001,-34.053338230500003 146.809795616,-34.0531522315 146.80899961599999,-34.052874250500004 146.808366624,-34.052871253500001 146.80800864,-34.0528702545 146.807376672,-34.052890253 146.80646867199997,-34.05286328 146.80561465599999,-34.052882279500004 146.804789696,-34.052810296 146.80404768,-34.052669289 146.803113728,-34.052481310499999 146.80209673600001,-34.052293313499995 146.80151971199999,-34.052176301 146.801189728,-34.052198334499998 146.801051712,-34.052197335500004 146.80041875200001,-34.05219432 146.79959376,-34.052145332 146.79871376,-34.051981348 146.79764179200001,-34.051793351 146.79632278400001,-34.051649365499998 146.79486582399997,-34.051413379499998 146.794402816,-34.051353384 146.79376585599996,-34.051271373500001 146.792637856,-34.051174396500002 146.791510848,-34.051055404499998 146.791153888,-34.050915396500002 146.79063187200001,-34.050913417 146.79008089599998,-34.050934414499999 146.78953088,-34.050931417500003 146.78950188799999,-34.050923425500002 146.78911891199996,-34.050815422500001 146.78829392,-34.050696430500004 146.78744192,-34.050555442 146.786314944,-34.050435451 146.78480294400001,-34.050176469500002 146.78249299199999,-34.049914491 146.78120102400001,-34.049793501 146.77938704,-34.049533520499999 146.77809504000001,-34.049343525499999 146.77746403200001,-34.049291522 146.77721408,-34.049271523500003 146.77614208,-34.049105541499998 146.77443712,-34.048960575500004 146.77325510399999,-34.048771561 146.77243113599999,-34.048584581500002 146.77182614399999,-34.048558589 146.77122115199998,-34.048578587500003 146.770424128,-34.048414603499992 146.76910416000001,-34.0482246085 146.76784019199999,-34.047989621500001 146.76630121599999,-34.047776649500001 146.7658912,-34.047727643 146.76569619200001,-34.047704647499998 146.76530924799999,-34.047703648500004 146.76579724800001,-34.049010636499993 146.76666524800001,-34.050916636 146.76704422399999,-34.051811647500003 146.76737024,-34.052385647 146.76750422399996,-34.052982642 146.76738524799998,-34.054241641 146.76698227200001,-34.05689665 146.76631833599998,-34.061306661499998 146.76626233600001,-34.061681656499999 146.76562236800001,-34.066878676500004 146.76510640000001,-34.069831702 146.76490441600001,-34.071341690499999 146.76473142399996,-34.0724407015 146.76460742399999,-34.073258697500002 146.764558432,-34.073585703500001 146.76515942399999,-34.074298693499998 146.766879424,-34.076322686 146.77004841599998,-34.079979655 146.7718784,-34.082164653 146.77299840000001,-34.083406650499995 146.77376339200001,-34.084326637 146.77414438400001,-34.08487864 146.774553408,-34.085498649 146.77499040000001,-34.086027619500001 146.7754824,-34.08667162299999 146.77586438399999,-34.087154621 146.7764904,-34.088210619500003 146.77667840000001,-34.088807614499991 146.77686838399998,-34.089289632 146.77735939199999,-34.089933617 146.77804140800001,-34.091012611 146.77872339199999,-34.091978607 146.779460384,-34.092874599 146.7801704,-34.093817599499999 146.78134537599999,-34.095036583 146.78279536,-34.096555581 146.78388937599999,-34.097682564 146.78452435200001,-34.098321572499998 146.78514736,-34.0989485745 146.785831328,-34.09968456 146.78605033599999,-34.099846546 146.78626832,-34.1002365445 146.78640233600001,-34.100695548 146.78659232000001,-34.101108542 146.78727632,-34.101844546 146.78899734399999,-34.103959521500002 146.79060934399996,-34.105868536500004 146.79189532800001,-34.107271521 146.79282531199999,-34.108214503 146.79359129599999,-34.10897452 146.79424828800001,-34.109595491 146.79460428799999,-34.109872491499999 146.79487830400001,-34.110102502 146.795208288,-34.110172487500002 146.79573030399999,-34.110312495500004 146.79672025599996,-34.110545466 146.79724227200001,-34.110777474500004 146.79759926399998,-34.110870474 146.79785526399999,-34.111162478 146.79828326399999,-34.111652469 146.79948528,-34.113123459500002 146.80109824,-34.114963451 146.80268422399996,-34.1168034425 146.803176224,-34.117355445500003 146.80361424,-34.117769438499998 146.80394224,-34.118274433 146.80418524800001,-34.118671443 146.80437824000001,-34.118986424 146.80478723199997,-34.119629428499998 146.805113248,-34.120275411499996 146.80503024000001,-34.120363416 146.804753248,-34.1207064245 146.804503264,-34.121071429499999 146.80436227199999,-34.121506438499999 146.80419526399996,-34.121894439 146.80390729600001,-34.123886445 146.80316332800001,-34.128620465499999 146.80296035200001,-34.129906474500004 146.80278236800001,-34.13114147899999 146.80265936000001,-34.131987484 146.80255337599999,-34.132717475500002 146.80243340799998,-34.133548477 146.802327392,-34.1342784685 146.80155347199999,-34.139199487 146.80060950399999,-34.144807521499999 146.79987856,-34.149203547 146.798777632,-34.155880567 146.798519648,-34.15744156 146.79779568000001,-34.161760588500002 146.797203712,-34.165291609500002 146.79627478399999,-34.170598630500002 146.79597481600001,-34.172317650499998 146.79582982400001,-34.173205650500002 146.79529984000001,-34.176434640499998 146.79517283199999,-34.177215655 146.794685888,-34.180121653500002 146.794598912,-34.180808651 146.79464889600001,-34.181656672500004 146.79482291199997,-34.18234067299999 146.79505190399999,-34.183238681499994 146.795859904,-34.186333676 146.796747936,-34.189704672 146.797178944,-34.191355686 146.79734092800001,-34.191883676 146.79744195200001,-34.192174681 146.79747593600001,-34.192273674499994 146.79772092799999,-34.192778687499995 146.79791292799999,-34.193030657500003 146.798075936,-34.193329654500005 146.79840294399997,-34.193994655499999 146.79883692799999,-34.195073668 146.79906092799996,-34.195690661500002 146.79916297599999,-34.195968661 146.79945996800001,-34.196816664 146.79959497600001,-34.197321658500002 146.79978396800001,-34.198055664500004 146.79994396800001,-34.198811667 146.80034998400001,-34.200095659500001 146.800996,-34.202572643 146.801104,-34.202916650500001 146.80103801600001,-34.203827646 146.80101401600001,-34.204152635500002 146.80103104,-34.205893633500004 146.80103203199999,-34.206649636 146.80103507199999,-34.208412649 146.80103705599998,-34.209351635 146.80097910399999,-34.211480615 146.800966112,-34.211939618500004 146.80096211200001,-34.212534615500005 146.80095612799997,-34.21347362 146.80097913599997,-34.2142296225 146.80112912000001,-34.215303621499999 146.80116412800001,-34.215558625500002 146.80151216,-34.217255630499999 146.80178115199999,-34.218355603500001 146.80202416,-34.219318602499996 146.802373184,-34.220877597499999 146.80253318399997,-34.2216336 146.80264118400001,-34.222069608 146.8025832,-34.222481603 146.802498208,-34.222801597500002 146.80241424,-34.223099595500003 146.80241024,-34.223786611500003 146.802815232,-34.225093581 146.803905216,-34.227250588499999 146.80543222399999,-34.230051562500002 146.806797184,-34.232416565500003 146.80950016,-34.236940574 146.81201110399999,-34.241210559 146.814011072,-34.2446965695 146.81536905600001,-34.247065568499998 146.81594204800001,-34.248075576 146.81616403199999,-34.248452569 146.816578048,-34.249044550500003 146.81811500800001,-34.251683557 146.81855001599999,-34.25243055 146.81952700799999,-34.254103542 146.81957798400001,-34.254191546500003 146.819657984,-34.254284546 146.81922899200001,-34.256666569 146.8187,-34.259381592 146.81868899200001,-34.2594415875 146.817827072,-34.2645536 146.81767206399999,-34.265416606500004 146.81763808,-34.265608599499991 146.81753008000001,-34.266089599499999 146.817421088,-34.2665946125 146.81714611199999,-34.266892610500001 146.816679104,-34.267398604 146.81582812799999,-34.2682946145 146.81357516799997,-34.270707643500003 146.81154624,-34.272825653 146.81014124800001,-34.274292684500004 146.80523840000001,-34.279523726 146.803464416,-34.281415758 146.803082432,-34.281807754500001 146.80164144,-34.283286774 146.80068848,-34.284265794 146.799066528,-34.285919805 146.798626528,-34.286379807499998 146.79829753600001,-34.286815815499999 146.79805056000001,-34.287251805 146.79791456000001,-34.287595812500001 146.79769654399999,-34.288261831 146.79748057599997,-34.289659820499999 146.797376576,-34.290193823 146.79677760000001,-34.293258847499999 146.79639862400001,-34.295047871500003 146.79612563200001,-34.295895856 146.79544265600001,-34.297570883 146.79519568000001,-34.297868881 146.794644672,-34.298099890499998 146.79417667199996,-34.2983308815 146.79368067199999,-34.298560892 146.79302070400001,-34.299203896500003 146.79159075199999,-34.300697919500003 146.789830784,-34.302306938500003 146.78812579199999,-34.303938953 146.78702684800001,-34.305109966 146.78680784,-34.305321976 146.78633884800001,-34.305776983500003 146.785926848,-34.306159989 146.78584384000001,-34.306235987 146.78582752,-34.306255948500002 146.78459488,-34.306095997499995 146.782888896,-34.305887003 146.766587104,-34.303891149 146.76369212799997,-34.303536171 146.74675030399999,-34.30145932399999 146.746317312,-34.301407320500005 146.7187448,-34.298110787 146.71911420800001,-34.295968191 146.719210336,-34.295959440499999 146.71961763199999,-34.293919556500001 146.72037657600001,-34.289472526499999 146.72108054399999,-34.285117534 146.72135152000001,-34.283489534 146.72151651199999,-34.2831225125 146.72182352,-34.2829085045 146.722525472,-34.278866513499999 146.72175648,-34.279207505500004 146.722267456,-34.276040509 146.72318937599999,-34.270626484 146.72364934399999,-34.267925465499992 146.72506025600001,-34.259834453499998 146.72636121599999,-34.252063436 146.726997216,-34.248453438499993 146.72729923199998,-34.246878441 146.728202208,-34.241686416 146.728449216,-34.240266411500002 146.72904320000001,-34.236768413 146.72257728,-34.23604547 146.717424384,-34.235468510499999 146.708164512,-34.234435581500001 146.69937462399997,-34.233449642499998 146.69182377600001,-34.232629704 146.691182752,-34.232556703 146.68799382399999,-34.23219673 146.68636784,-34.2320497475 146.68413587200001,-34.231785771 146.675812,-34.230869836 146.674492,-34.23072487 146.66424112000001,-34.229566955 146.65644422400001,-34.228735028499997 146.651318272,-34.228187058499998 146.638175456,-34.226736196 146.62641059200001,-34.225474311 146.624647616,-34.225234329 146.62451161600001,-34.225027332499991 146.624402624,-34.224843331500004 146.62435062399996,-34.224545333500004 146.62449459199999,-34.223745301 146.62563152000001,-34.216308282500002 146.62604851200001,-34.213487273 146.626625472,-34.209581257 146.62811136,-34.199879209500004 146.62894729600001,-34.194378197500001 146.62906630399999,-34.193594204500002 146.62916131199998,-34.192969200500002 146.62997923200001,-34.1873631825 146.63155216000001,-34.177180135 146.63249507200001,-34.171485095 146.63282806399999,-34.169469094500002 146.63330601600001,-34.166377078499998 146.63416694399999,-34.160796072499998 146.635676864,-34.151253032500001 146.63314688,-34.150964062500002 146.62554899200001,-34.150139129 146.617924096,-34.149383200500004 146.615390112,-34.149100206 146.61401513600001,-34.148946230500002 146.60573024000001,-34.148047315500001 146.59840835200001,-34.147291387 146.59743635199999,-34.147188379 146.59847228800001,-34.140859362500002 146.591522368,-34.140120435500002 146.59120540800001,-34.142366428 146.59114540799999,-34.142870442 146.590893408,-34.143395435 146.59066940799997,-34.143760458500005 146.59036144000001,-34.144285451499996 146.589972448,-34.144695448500002 146.58972243199997,-34.144945457499993 146.58944544,-34.145172452499999 146.58905644800001,-34.145445475500004 146.58866848,-34.145694467 146.58819846399999,-34.145943477 146.58748048000001,-34.146076473500003 146.58648649599996,-34.146321487500003 146.58549548799999,-34.146269502500004 146.58263254400001,-34.145999532 146.5790816,-34.1456555615 146.578696608,-34.145605574500003 146.577210592,-34.145414580500002 146.57451264,-34.14514461 146.57176067200001,-34.144874621 146.57113168000001,-34.144788633 146.57090870399998,-34.144594642 146.57071670399998,-34.144478647 146.57038668800001,-34.144384648500001 146.56865270399996,-34.144212654 146.56642272,-34.144014685500004 146.56526774400001,-34.143869701 146.564303744,-34.143771688 146.55758784,-34.143085763500004 146.54955094399998,-34.142275852 146.54580697599999,-34.141929883499991 146.54181804800001,-34.141500924 146.53760608,-34.141048950499993 146.53551312,-34.140843970500001 146.53471712000001,-34.140765974499999 146.52879820799998,-34.140186036500005 146.517762336,-34.139009140499994 146.50848742400001,-34.13805023 146.50496448,-34.137727275499998 146.50123552,-34.137308306 146.46869494399999,-34.13400761 146.45872505599999,-34.132983690499998 146.45802806399999,-34.132911707 146.45807206399999,-34.132582703 146.45817907200001,-34.1319866885 146.45831206400001,-34.131161699499998 146.45847408,-34.130381702500003 146.45879408,-34.128409676499999 146.45915008,-34.126691674 146.45917008000001,-34.126598674500002 146.45971907200001,-34.123455654 146.459972064,-34.1220136345 146.46152208000001,-34.113003579500003 146.462593024,-34.107271558 146.463099008,-34.103993543 146.46462089600001,-34.095075544 146.46434592,-34.095122552500001 146.46415392,-34.095237548499995 146.463962944,-34.095604551500003 146.46379894399999,-34.095765538500004 146.46355193599999,-34.095904547499998 146.46313795200001,-34.095905546499999 146.46264195200001,-34.095884549 146.462118944,-34.095817560499995 146.461319968,-34.095729556 146.45845299199999,-34.095351582500001 146.45484208,-34.094883606499998 146.45172809600001,-34.094505633 146.447759136,-34.093993682499999 146.447098176,-34.093904679 146.44682217600001,-34.093905696500002 146.446603168,-34.094066702 146.44632816000001,-34.094205692500005 146.44616416,-34.094412689 146.44591715199999,-34.0946426995 146.44580816000001,-34.094894688 146.44572617599999,-34.095009702500001 146.44561715200001,-34.09514769399999 146.445452192,-34.095285685499995 146.4450392,-34.095309717 146.44470819200001,-34.09524271 146.444101184,-34.094992719499999 146.44385219200001,-34.094833712 146.44354819200001,-34.094604737499999 146.44321718399999,-34.094423733500001 146.44291318399999,-34.094240731500001 146.44274720000001,-34.094057729500001 146.442525184,-34.093852731 146.442221184,-34.093647732500003 146.44189020799999,-34.093511739 146.441504192,-34.093329754500004 146.44122819199998,-34.093261748499998 146.44078723199999,-34.093240751 146.437645248,-34.092885791500002 146.43078332799999,-34.092062856 146.42609936,-34.091551923 146.42585136,-34.09148491599999 146.42549235199999,-34.091439942500003 146.42124937599996,-34.091019974 146.42072540800001,-34.090929971500003 146.420559424,-34.090769983500003 146.42050540799997,-34.090998995 146.42037443199999,-34.091127995500003 146.40203558399998,-34.08894013 146.38877772800001,-34.087357251499995 146.38856275200001,-34.087332258 146.38784374400001,-34.08724627 146.38534076799999,-34.086961277500002 146.37678985599999,-34.085988362500004 146.37646086399999,-34.085949364500003 146.36939795200001,-34.085072427500002 146.36914096000001,-34.084857439 146.35991808,-34.083797518499999 146.35948710400001,-34.083742518 146.35918009599999,-34.085495541 146.35877913600001,-34.087785545 146.35819014399999,-34.091150547 146.3576032,-34.094495569 146.35697622399999,-34.098076577 146.35691321599998,-34.098435588 146.35572828799999,-34.105198596 146.354229312,-34.114342646499999 146.35419932799996,-34.114522633 146.352678336,-34.12345669 146.350887392,-34.133705745500002 146.350787392,-34.134060742 146.34956643199999,-34.141795758500002 146.348874464,-34.146176780499999 146.34915248,-34.146299787 146.34898848,-34.14666679 146.34888048,-34.147101780500002 146.34871651200001,-34.147606793500003 146.34855449599999,-34.148339782 146.347957536,-34.151703803499991 146.34479171199996,-34.169534862 146.34254684800001,-34.182172896499999 146.34235785600001,-34.183089904500001 146.34205488,-34.184264913500002 146.34176089599998,-34.185450911499998 146.33944505599999,-34.198465957499998 146.33524435199999,-34.222077026500003 146.334801376,-34.224568033 146.33475436800001,-34.224831029 146.33467436800001,-34.225336023499999 146.33467536000001,-34.225633022499999 146.334688384,-34.225727021 146.33489836800001,-34.226275028 146.33506537599999,-34.226618018 146.33513136,-34.227049031 146.33515936000001,-34.227316023 146.33513139199999,-34.227549030500001 146.33513139199999,-34.227750033 146.33513139199999,-34.227860034 146.33514940800001,-34.228118035 146.3348464,-34.228145026500002 146.33362048000001,-34.234908053 146.331163648,-34.248457101500001 146.32987171199997,-34.256351125500004 146.32879683199999,-34.262663140500003 146.32864380799998,-34.263556135500004 146.304800032,-34.260711390499999 146.285479232,-34.258402590500005 146.28526224,-34.258385626 146.28504524799999,-34.258359615 146.27667129599999,-34.257350717500003 146.27259433599997,-34.256859746 146.26764646399999,-34.256686789500002 146.266956448,-34.256644776 146.265382496,-34.2564947965 146.26449852799999,-34.256384795499997 146.26378054399999,-34.256274794500001 146.26295155199998,-34.256142815499999 146.262122592,-34.256056827500004 146.26093561600001,-34.255948824499995 146.25985865600001,-34.255818843500002 146.259691648,-34.2557788465 146.25919465600001,-34.255661834 146.25903264,-34.255626832 146.25847568,-34.255505842 146.25761968,-34.255350867499999 146.256597728,-34.255242864499998 146.255686752,-34.255156858 146.25438876800001,-34.255073885500003 146.2527048,-34.254899874499998 146.25123984000001,-34.254767895500002 146.25082585599998,-34.254711896 146.24708595199999,-34.25425391 146.245497984,-34.254070926499999 146.24308304,-34.25376195799999 146.240571104,-34.253463978499994 146.239467104,-34.253268988500004 146.23902508800001,-34.253223996500004 146.23888710400001,-34.253223996500004 146.23877708800001,-34.2531889945 146.23870809600001,-34.253314979500004 146.23863910399999,-34.253543991 146.23858409600001,-34.253693989 146.23858409600001,-34.253830981500002 146.238556096,-34.253956985 146.23846009600001,-34.254036979 146.23828012800001,-34.254105984 146.237576128,-34.254036997500002 146.23698313599999,-34.25396901 146.23641712,-34.253900005 146.23569913599999,-34.253820029499998 146.23337017599999,-34.253531041 146.233422176,-34.253247047500004 146.23351814399999,-34.252823046 146.23353712,-34.252709049 146.23357312,-34.252491045 146.23365612800001,-34.251872035 146.23368512,-34.251728049500002 146.23372512,-34.251528046 146.23393110399999,-34.25031304 146.23422006399997,-34.248651037 146.23426905599999,-34.248458045 146.235015008,-34.2441310245 146.235049984,-34.243926026 146.23535993600001,-34.24193701699999 146.23545993600001,-34.24152702 146.235474944,-34.241214018500003 146.23548092799999,-34.241090031500001 146.238021696,-34.226884011 146.240002592,-34.215778942 146.24133148799999,-34.208329935500004 146.24136249599999,-34.208172926 146.24140848,-34.207938938 146.24148848,-34.207685932 146.241495488,-34.207674924500004 146.24166848,-34.207426932 146.24177248000001,-34.207327938500001 146.24189548800001,-34.207246927 146.24199145599997,-34.207176941500002 146.24209545599999,-34.207117926499997 146.242125472,-34.206934906 146.24215046399999,-34.206829918499999 146.242191456,-34.2066479155 146.242011456,-34.20661493 146.241720448,-34.206537933 146.241954464,-34.20646693 146.242090464,-34.2063509165 146.24221347199997,-34.206235920499999 146.24232147199999,-34.20607391599999 146.24239747199996,-34.205579910499999 146.242541472,-34.205005911 146.24264544,-34.204534919499999 146.24273443199999,-34.203972908 146.242810432,-34.203467913499999 146.24293843199999,-34.202766911499999 146.24304240000001,-34.202273905 146.24317340799999,-34.201779918 146.24327740800001,-34.201285912499998 146.24334038399999,-34.200849904500004 146.2434184,-34.200493890499999 146.24350940799999,-34.200125888500004 146.243573376,-34.1997478965 146.24371737600001,-34.199184904500001 146.24386035200001,-34.198552889 146.24395136000001,-34.198127888500004 146.24402937599999,-34.197783899499996 146.24412134400001,-34.197415897500001 146.24429734399999,-34.196176897 146.24437334399997,-34.195706904499993 146.24442534400001,-34.195430903 146.24454230399999,-34.1949598745 146.24462028799999,-34.194557869500002 146.24471030399999,-34.194133868 146.24475929600001,-34.193628873500003 146.244942272,-34.1929168825 146.24494928,-34.192411869499999 146.24499225599999,-34.191904877 146.24500825600001,-34.191666874500001 146.24503526399999,-34.190589878499999 146.24507225599999,-34.190233883 146.24514822399999,-34.189740876500004 146.24523923199999,-34.189350878 146.245315232,-34.188902882 146.24534124799999,-34.188669856 146.24553724800001,-34.188693850500002 146.246808128,-34.181203848 146.24105625600001,-34.182983899500002 146.24097728000001,-34.1829649 146.24079728000001,-34.182897893 146.240576256,-34.182864889 146.24034128,-34.1828679045 146.240136256,-34.182949896499998 146.23944928,-34.183116914500005 146.238077312,-34.183564929 146.23752828799999,-34.183776939 146.23713030399998,-34.183917927499998 146.236650336,-34.184060932500003 146.23608832,-34.184192948499998 146.23568832000001,-34.184286947 146.235331328,-34.184393951 146.234823328,-34.184524949500002 146.23398636799999,-34.184773978 146.23361536,-34.184879964499999 146.23329936,-34.184962974 146.232696352,-34.185220993500003 146.2319144,-34.185480992499997 146.231461408,-34.185599984500001 146.2312824,-34.185663994500004 146.23110438399999,-34.185728985 146.2308024,-34.185801005500004 146.23062438400001,-34.185882997500002 146.23042038400001,-34.185930006 146.22979942399999,-34.18607401 146.229783424,-34.185856006 146.22970944,-34.185525004 146.22956643200001,-34.185159 146.22945139199999,-34.1847600105 146.22929539200001,-34.184406013 146.22912540799999,-34.184064003499991 146.22902540800001,-34.183824003 146.22898038400001,-34.183538011499998 146.2287184,-34.183529020500004 146.22838438399998,-34.183505026 146.22830438400001,-34.183499032 146.22780742399999,-34.183435022 146.227420416,-34.183358025 146.22692342400001,-34.183294033500005 146.22634342399999,-34.183208045500002 146.22576342399998,-34.183134045499997 146.22503244800001,-34.183072052 146.22445347199999,-34.183043062499998 146.22377644799997,-34.182935059500004 146.222850464,-34.182714077 146.222559456,-34.18263708 146.22217347200001,-34.1826640715 146.22177449599999,-34.182656079499999 146.22156649600001,-34.182612086500001 146.22126249600001,-34.182500087500003 146.22086048,-34.182378098500003 146.22030848,-34.182292092 146.219811488,-34.182193098500001 146.21941049599999,-34.182128108 146.218541536,-34.182090109 146.21820953599999,-34.182014111 146.21731152000001,-34.181816124 146.21695353599998,-34.181830128500003 146.21665152,-34.18191413699999 146.21630652799999,-34.181951137 146.21604352,-34.181862133500005 146.21554556800001,-34.181683127500001 146.21507456000001,-34.181493151 146.21467356799999,-34.181405146499998 146.21439756800001,-34.181350146 146.21401155199999,-34.181343153 146.21384556800001,-34.181344152 146.21295862400001,-34.185604165500003 146.21178368,-34.191239191500003 146.211772672,-34.191411186 146.21180268800001,-34.1916401975 146.21184768000001,-34.1918691905 146.21193267199999,-34.192028198 146.21168,-34.192111004 146.21131801600001,-34.192223003 146.193636,-34.197702 146.19698979200001,-34.178317311500003 146.19674377600001,-34.178249305500003 146.19630076799996,-34.178150312 146.195775776,-34.178063325 146.195168768,-34.178023328 146.194506816,-34.1779943385 146.19376182400001,-34.177898342 146.193402816,-34.177867336 146.19319580800001,-34.177846338500004 146.19298982399999,-34.177859344 146.19264582400001,-34.177908332 146.19198185600001,-34.17774235 146.19149785600001,-34.1775983645 146.19072284800001,-34.177353350499992 146.19046083200001,-34.177378362500001 146.18991084800001,-34.177475376499999 146.18953987199998,-34.177512376500005 146.18937388800001,-34.177468383499999 146.18908288,-34.177356384500001 146.18875088,-34.177245384500004 146.18844688,-34.17716737 146.188183872,-34.177135402 146.18778387200001,-34.177116402500005 146.18737088,-34.177108392 146.187080896,-34.177065398 146.18667990399999,-34.1769433905 146.18618192,-34.176856422 146.185919904,-34.176789415 146.18538291199999,-34.176851408499999 146.18477795199999,-34.176948422500004 146.18452892799996,-34.176939413 146.18428092799999,-34.176907408 146.183962944,-34.176807434 146.183602944,-34.176672439499995 146.18333993599998,-34.176583436 146.18310492800001,-34.17655143099999 146.18234697599999,-34.176558424 146.181959968,-34.176470456499999 146.18164198400001,-34.17639244199999 146.18133897600001,-34.17638445 146.180305984,-34.176416455 146.18011196800001,-34.17638345099999 146.17984899199999,-34.176305473500001 146.17948899199999,-34.176182467 146.17919900800001,-34.17610547 146.17892300799997,-34.176061477 146.178660992,-34.176052467499993 146.17828899200001,-34.176067471 146.17773801599998,-34.176084491 146.177324032,-34.176064492500004 146.176854048,-34.175988494499997 146.176606048,-34.175979485 146.178020928,-34.168017473500001 146.179805856,-34.157728421 146.1803688,-34.1546044 146.180041856,-34.154610394 146.17975184,-34.154544404500001 146.17915785599999,-34.154470404500003 146.17812284799999,-34.154330415 146.177915872,-34.1543074195 146.17755686399997,-34.154266423500005 146.17759286399999,-34.154054432 146.169035968,-34.153066513499994 146.16877097599996,-34.153052509 146.16876496,-34.15305151 146.159255008,-34.151887009 146.15925100800001,-34.151892004 146.15894012800001,-34.152221581500001 146.15130624,-34.151332656500003 146.15048822399999,-34.15123666 146.15053523200001,-34.150960658500004 146.150555008,-34.150843997500004 146.15353609600001,-34.133374577 146.15310211199997,-34.133332582 146.15250812799999,-34.133257583 146.151764128,-34.133183601499994 146.14995616,-34.132981618500004 146.14918316800001,-34.13285062 146.14788620799999,-34.13265563 146.147252192,-34.1326266405 146.14671420799999,-34.132597632500001 146.14539024000001,-34.1324366455 146.14460422400001,-34.132351656499999 146.14366521599999,-34.132199679 146.14314124800001,-34.132157665500003 146.14238326399996,-34.132118667500002 146.14145926399999,-34.132012699500002 146.14092128,-34.1319937 146.14039728,-34.131906694500003 146.139790304,-34.131831695500004 146.139251296,-34.131756715 146.13883728,-34.131656704 146.13854732799999,-34.131624717500003 146.13836732799999,-34.13151170099999 146.13825532799999,-34.131374708500005 146.13825331199999,-34.132083702499997 146.12207254399999,-34.130203862 146.122124544,-34.129869863 146.10800876799999,-34.1281639595 146.10785177599999,-34.12814496 146.10786976,-34.128190969500004 146.10788352,-34.128352178500002 146.10765001600001,-34.128310997500002 146.07607299200001,-34.124655009 146.076729312,-34.130594249 146.07694630399999,-34.133087253500001 146.077417344,-34.13850225899999 146.07746435199999,-34.138897271 146.07747833600001,-34.138899269 146.09394512,-34.140803122500003 146.09373312,-34.140840122499995 146.09348611199999,-34.140933122 146.093282112,-34.141118140499998 146.092830112,-34.141385132499998 146.09237814400001,-34.141629129 146.09198214400001,-34.141895140500004 146.09139417599999,-34.14230116 146.09070918399999,-34.1426151605 146.0902552,-34.14271115699999 146.0899112,-34.142736150499999 146.08918422400001,-34.142874179 146.089155232,-34.142880173 146.08868822399998,-34.143009173499998 146.088139232,-34.143196171500001 146.08742624000001,-34.1434771865 146.08693324800001,-34.143733189499997 146.08667225600001,-34.143815181500003 146.08623225599999,-34.143898191 146.085599296,-34.143972209499999 146.08510428799997,-34.144068206 146.08467929599999,-34.1441852 146.08411632,-34.144396211 146.08360931199999,-34.144675228 146.08300732800001,-34.14497722199999 146.08273532800001,-34.145102226499993 146.08248534399999,-34.145217222500001 146.082198336,-34.145350219 146.08139936000001,-34.145344243499991 146.08072336000001,-34.145247248 146.07992236800001,-34.145115250499998 146.079355392,-34.144948269499999 146.07877539200001,-34.144815273 146.07764742399999,-34.14474427 146.07760742400001,-34.144968268 146.07756742399999,-34.145191285499997 146.07586844799999,-34.144849276 146.075675456,-34.144839286 146.06848755199999,-34.144000348 146.056814688,-34.142622449500003 146.05681068800001,-34.142290448499999 146.05674070399996,-34.142199447 146.056547712,-34.142155454 146.05624371199997,-34.142100453499999 146.045191872,-34.140738539 146.04471587200001,-34.1409355455 146.04667977599999,-34.129440496500003 146.04736672000001,-34.1254114925 146.04234982400001,-34.1247945175 146.033467968,-34.123703572499998 146.03148099200001,-34.123459594499991 146.02531104,-34.122721648 146.02518604799999,-34.12345965 146.02511408000001,-34.123878656499997 146.025061088,-34.124190659 146.02504108799999,-34.124304656 146.02452809600001,-34.127284673 146.015508192,-34.12610774 146.010443232,-34.125447808 146.00421830399998,-34.124599860499998 146.00405830400001,-34.124577864 146.00124233599999,-34.124193878 146.000203328,-34.124061899 145.99907337600001,-34.12392688599999 145.99844038399996,-34.123858917 145.99791638399998,-34.123722905 145.99733740799999,-34.123632921 145.99549142399999,-34.12347593 145.99375648,-34.123410958 145.992901472,-34.123275945 145.99221248000001,-34.1231169745 145.991606496,-34.123003976500001 145.990641504,-34.12289096 145.99000854400001,-34.12282399 145.98918153599999,-34.122802992499999 145.98846553600001,-34.12271299 145.98783155199999,-34.122531005500001 145.98716956800001,-34.122370999 145.98637056000001,-34.122281995500003 145.98543459199999,-34.122306027 145.984249632,-34.122263033 145.98331264000001,-34.122127039499993 145.98276163200001,-34.122014041499995 145.981989664,-34.121809061500002 145.97981369600001,-34.12174507 145.97802371200001,-34.121680098 145.97711372800001,-34.121544104500003 145.97278777599999,-34.120820125500003 145.97243180800001,-34.1207781305 145.95179312,-34.118317316 145.95161001599999,-34.118391001500001 145.94644201599999,-34.117813006 145.94601500799996,-34.117726000499999 145.92711558400001,-34.115463265500004 145.92664048,-34.115267517 145.92562051199999,-34.115131542 145.922896544,-34.114809568 145.920083584,-34.114475569 145.918022624,-34.114211592499998 145.914794688,-34.113796637500002 145.90702582399999,-34.112822686500003 145.90184688,-34.112142737500001 145.90148886399999,-34.112143736500002 145.90162588800001,-34.111868752500001 145.90173587199999,-34.111593731499994 145.89793494400001,-34.11109476799999 145.89270102399996,-34.110437814500003 145.88738409599998,-34.109825853 145.88003024,-34.108941923 145.87956224,-34.1088739355 145.87928624,-34.108941923 145.87917721599999,-34.109079933 145.87906726400001,-34.109331921500001 145.87892924799999,-34.109469931499994 145.87870924800001,-34.109492945500001 145.87840627200001,-34.10946995 145.87796524800001,-34.109401944 145.876958304,-34.109301951499994 145.87686428800001,-34.109700959500003 145.87658828799999,-34.109403960500003 145.876450304,-34.109266968 145.87625728,-34.10908396599999 145.87598230399996,-34.10889996499999 145.85977254400001,-34.107018108 145.85959356800001,-34.108249116499998 145.85893065600001,-34.112389139 145.85891264,-34.112515124 145.856322656,-34.110503156500002 145.85417168000001,-34.108810166 145.852048672,-34.1072081955 145.85053072,-34.105945182 145.849760704,-34.10535518 145.84761072,-34.103639212499999 145.84733769600001,-34.103428201500002 145.84642470399999,-34.102723222 145.845046752,-34.101625228499991 145.84317174399999,-34.100046235 145.842096736,-34.099130244500003 145.84033273599999,-34.097482264499995 145.834982784,-34.0924252895 145.83451577599999,-34.092035291 145.8316208,-34.089289317500004 145.82858880000001,-34.086450344499994 145.82575084800001,-34.083726349 145.822828832,-34.081071377 145.82175385599996,-34.07999538 145.81880585600001,-34.077180383 145.81406588799996,-34.072578434 145.809188928,-34.06795447 145.80392694400001,-34.062803478 145.79726096,-34.056347533 145.79453395199997,-34.0537825635 145.792468,-34.051836567 145.79120099199997,-34.050600582 145.78930099199997,-34.048768582500003 145.786712,-34.046227589 145.78373904,-34.043365620499998 145.77982902400001,-34.039541652 145.77660707199999,-34.036404662500004 145.772010048,-34.031916692 145.76757808,-34.027679729500001 145.76567808,-34.0258257335 145.76438508800001,-34.024611745 145.76276112,-34.023260745500004 145.76152313599999,-34.022207762500003 145.759954112,-34.020947783 145.75472614399999,-34.017077823500003 145.746361216,-34.01082587799999 145.74088624000001,-34.006771917500004 145.73560528,-34.002740952499998 145.73076435199997,-33.9991219825 145.729908352,-33.998461976500003 145.72855235200001,-33.997489006 145.72656137600001,-33.996061009500004 145.72268841600001,-33.993171013500003 145.719227488,-33.990579034 145.71628851200001,-33.988354057500004 145.713129536,-33.985968075500004 145.71071257599999,-33.984155094 145.70934460800001,-33.983104090499999 145.709248608,-33.983030090499994 145.70921859199998,-33.983007095 145.70965657599999,-33.982689098500003 145.70971558399998,-33.982635097 145.70987257600001,-33.982495089 145.709953568,-33.982414096 145.710339584,-33.982066074 145.71134652800001,-33.981136079 145.71177299199999,-33.980741992 145.712878464,-33.979721051 145.714487456,-33.978235038499996 145.715275424,-33.9775910165 145.7157344,-33.977291020500004 145.71573942399999,-33.977186014499999 145.71573340800001,-33.977085023 145.7157184,-33.976980017 145.71568940799997,-33.97686602 145.71566441600001,-33.976781012499998 145.71562041600001,-33.976678023 145.7155664,-33.976601026 145.715488416,-33.976513021500004 145.71500742399999,-33.976075015500001 145.71495401600001,-33.976026009 145.714228416,-33.975485013499998 145.7134944,-33.97492204 145.71147500800001,-33.973419007499999 145.71010048,-33.97239605 145.70968848000001,-33.972088062 145.70712748799997,-33.970176068500002 145.70706246399996,-33.970158068 145.70701148800001,-33.970132075500004 145.70690048,-33.970061072500002 145.70623152,-33.969555079 145.706190496,-33.9695480675 145.70616150399997,-33.96952707 145.70613952,-33.969492068 145.70599952000001,-33.969401085 145.70591849600001,-33.96937007899999 145.70577449599998,-33.969363067499998 145.70725948800001,-33.968453052500003 145.71176736000001,-33.965701029500003 145.71262227199998,-33.96083799 145.71434316799997,-33.9504849275 145.715924032,-33.941368886 145.71593904,-33.941279882499998 145.717228928,-33.93337585 145.7186448,-33.923961810499996 145.71989171199999,-33.916449774499995 145.72083660800001,-33.909577746 145.722222496,-33.900805712 145.722278496,-33.900140692500003 145.72241648,-33.899660691500003 145.72266444799999,-33.899087691 145.72291244799999,-33.898721687 145.72373744000001,-33.898172662499995 145.725002432,-33.89730366199999 145.72937331200001,-33.894695606 145.73344224,-33.892202564500003 145.737126176,-33.889915520500004 145.74196304,-33.886964474500004 145.74528896000001,-33.884997425 145.74740592000001,-33.883647406 145.74954886399999,-33.882343396499998 145.75647472,-33.878087323499997 145.75787667200001,-33.877172295 145.75826067200001,-33.876989274499998 145.758645664,-33.876829286499998 145.75900265599998,-33.876737286 145.75909664,-33.87671127499999 145.75921065599999,-33.876680287500001 145.75941465599999,-33.876623289 145.75985465599999,-33.876371282 145.76048563199998,-33.876074264499998 145.76350854399999,-33.874243245500004 145.76669545600001,-33.872344239 145.76936137600001,-33.870719217500003 145.77232828800001,-33.868980217500003 145.77609216,-33.866668217 145.779800064,-33.864448217 145.782409984,-33.86291423399999 145.78565088,-33.860946222499997 145.79075974400001,-33.857855205500002 145.794275648,-33.855772179500001 145.798559552,-33.853208153499999 145.802101472,-33.851033108500005 145.805534368,-33.848995093 145.809708288,-33.846453063499993 145.81209622399999,-33.845079031499999 145.815117152,-33.843224018 145.81950905599996,-33.840612983500002 145.82162297599999,-33.8393299715 145.82255696,-33.838734956 145.82156896000001,-33.837588973500004 145.81874198400001,-33.834404975499993 145.813389984,-33.828538995500004 145.809247008,-33.823864027 145.80483004800001,-33.818960047 145.80131804800001,-33.815042061500002 145.79975401600001,-33.813323004499999 145.80033104,-33.813025080499997 145.80098905599999,-33.812797068 145.80186803199999,-33.812568056499998 145.806340928,-33.811492022499998 145.813146784,-33.809889978 145.82069264,-33.808035926500004 145.822664608,-33.807560902 145.82725049599998,-33.806455878500003 145.83479635200001,-33.804691792500002 145.84220518399999,-33.802904748 145.848515072,-33.801392687499991 145.853699968,-33.800154649 145.860256832,-33.7985726215 145.863632768,-33.797774587 145.86404278399999,-33.797677573 145.86431273599996,-33.797613581500002 145.86631971200001,-33.797127568 145.87411056,-33.7952924975 145.877402496,-33.794466491 145.88340934399997,-33.792974429 145.88982822400001,-33.791437393500004 145.894682144,-33.790243348 145.89583510400001,-33.789990360499999 145.89701408,-33.78966933 145.89772707200001,-33.789416342500004 145.89844003199997,-33.789095330500004 145.89923504000001,-33.788659322499996 145.89958899199999,-33.788470326500004 145.89992099200001,-33.788293318500003 145.90227795199999,-33.786596295 145.90693881600001,-33.783363272 145.91189968,-33.779831233499998 145.91516163200001,-33.777538214 145.9166416,-33.776529187 145.91891555199999,-33.774603189 145.92129952,-33.772333165 145.921563488,-33.772051169499996 145.92321644800001,-33.770292171 145.92836636799998,-33.765019134500001 145.929598336,-33.76389513 145.931050304,-33.76226713 145.93222729600001,-33.760685121 145.93315728,-33.759333122500003 145.93392323200001,-33.7580031205 145.93414224,-33.757614121 145.93471824,-33.757155117499998 145.93518323200001,-33.756902111500004 145.93573219199996,-33.756787097 145.93619820800001,-33.756649105500003 145.93685619199999,-33.756649105500003 145.93776118400001,-33.756763084 145.93905014399999,-33.756899077500002 145.940476128,-33.757058066499994 145.94118912,-33.757080063 145.941738112,-33.7570570675 145.94228611200001,-33.756850034 145.94272406399998,-33.756506045 145.94316208000001,-33.756093032500004 145.94354508800001,-33.755474041 145.94384608,-33.754786044500001 145.94441904000001,-33.753388036499999 145.945158048,-33.752059033500004 145.946225024,-33.7502710455 145.94677097600001,-33.749125044499998 145.94707196799999,-33.748872038500004 145.94751097599999,-33.748643045500003 145.94826694400001,-33.748460043500003 145.94835296,-33.748366045 145.94848793599999,-33.748296041 145.94908896000001,-33.748150020499999 145.94966192000001,-33.748028031499999 145.95094492800001,-33.747735028500003 145.95318384000001,-33.747245999500002 145.95555881599998,-33.746685986 145.95790576,-33.746148968 145.96071772799999,-33.745513955500002 145.96371964799999,-33.744830935499998 145.96735056,-33.74402391 145.97103449599999,-33.7431478795 145.973573472,-33.742584869 145.97597539200001,-33.742023856499991 145.978241376,-33.741533847 145.979692352,-33.741212816500003 145.980343296,-33.741068812500004 145.98146131199999,-33.740777826 145.98416323199999,-33.740143794 145.98517321599999,-33.739923773500003 145.985664224,-33.73977878899999 145.986262208,-33.739541785500002 145.986914176,-33.739256774499992 145.98745718399999,-33.738951783499999 145.98786313599999,-33.738693764 145.98837616,-33.7383427635 145.98859216,-33.738133769 145.98886313599999,-33.737991763 145.98972912,-33.73742977 145.99064908799997,-33.73682075 145.991460096,-33.736305747 145.99273104,-33.735416748 145.99402902400001,-33.734503736 145.99467798399999,-33.734082731500003 145.995651968,-33.733449717 145.996922912,-33.732583713499999 145.99911187199999,-33.731062699 146.00089782399999,-33.729891686 146.00123782399999,-33.729529678 146.00129283199999,-33.729484667500003 146.004888704,-33.727206633 146.008901536,-33.724474571500004 146.013521376,-33.721428528 146.01891622400001,-33.717793463 146.02406102399996,-33.714339402 146.02906787200001,-33.71099833899999 146.03013484799999,-33.710323311 146.03116979199999,-33.709667301 146.0323928,-33.708847288500003 146.033188768,-33.708312287 146.034425728,-33.707428264500003 146.03495974399999,-33.707047257 146.035632736,-33.706635262 146.03589475199999,-33.70682725499999 146.03627472,-33.7071512455 146.03665571199997,-33.707316247 146.03704672000001,-33.707370248499998 146.03736672,-33.707414241500004 146.03829872,-33.707423232499998 146.04200064,-33.707300189 146.045756576,-33.707222174500004 146.04710156799999,-33.70712114599999 146.048445536,-33.706996141499999 146.04992851200001,-33.706805110499992 146.05278547200001,-33.706351102 146.05674140799997,-33.70568007 146.061273344,-33.704944029 146.06261632,-33.70471200199999 146.06478928,-33.704336988500003 146.069789184,-33.70349092799999 146.07533712,-33.702604870500004 146.077452096,-33.7022808615 146.07844006400001,-33.702175837 146.079078592,-33.702130068 146.07929008,-33.702114824 146.079397056,-33.702115823 146.079400064,-33.702092827500003 146.08032697600001,-33.696167814 146.08104089599999,-33.691866823 146.08178784,-33.687130804500001 146.08255875200001,-33.682624815 146.08316169599999,-33.678413826499998 146.083697664,-33.675165818499998 146.084561568,-33.669857817 146.085356448,-33.665093826499998 146.08539347199996,-33.664870827500003 146.085963392,-33.661094848 146.08656032,-33.657342863 146.08712624,-33.653933886499999 146.08765916799999,-33.650845940499998 146.08807609600001,-33.648259973500004 146.08843305599999,-33.646132991500004 146.088358048,-33.645761012 146.08838604799999,-33.645590997 146.08913590399996,-33.640990084 146.08916691199997,-33.640799071499998 146.09150352,-33.626457261 146.09160454400001,-33.625841266500004 146.09238544,-33.62104627 146.09239644799999,-33.620975267 146.092447424,-33.620614258 146.09245344000001,-33.620570265 146.09271139200001,-33.618956251 146.09241932800001,-33.6139122445 146.09380828799999,-33.611238254500002 146.095141152,-33.6031312215 146.115795808,-33.598607065 146.116738752,-33.598383067 146.12178569599999,-33.59718500699999 146.12238268799999,-33.597043001 146.13805171199999,-33.593322799 146.17182220800001,-33.585329504 146.172275232,-33.585221482500003 146.180657024,-33.583236432500001 146.190521824,-33.581062349500002 146.20391155199999,-33.578110267500001 146.20626147199999,-33.5775672555 146.226613152,-33.572875951500002 146.22641516799999,-33.5741389465 146.22759017600001,-33.573843927 146.2497368,-33.568340621 146.27285433599999,-33.562594484 146.27330934399998,-33.562481486 146.29485190400001,-33.5571283815 146.30850864000001,-33.553734353 146.30914758399999,-33.553575364 146.33318112,-33.547602287499998 146.33435609599999,-33.54731026499999 146.35254979199999,-33.542788069499998 146.35817571199999,-33.541390006 146.370154496,-33.538412856500003 146.37115849599999,-33.538163865 146.38755020799999,-33.534089665499998 146.39589110399996,-33.532016574 146.39597110400001,-33.531972581 146.39646608,-33.531746566499997 146.39781008,-33.531434564 146.40222502399999,-33.530364505500003 146.407023968,-33.529250454 146.41083593600001,-33.528312393 146.416265856,-33.527041350499999 146.42007785600001,-33.526127302500001 146.425177792,-33.52496822199999 146.43107472,-33.523544166 146.43724262399999,-33.522089104 146.4382296,-33.521843091 146.43897062400001,-33.521641089500001 146.43973958399999,-33.521348068 146.44064556800001,-33.520964063500003 146.440807584,-33.520858058500004 146.44328851200001,-33.51923903099999 146.44785644800001,-33.516379967 146.45234339199996,-33.513451916500003 146.45710428800001,-33.510409869 146.46304316800001,-33.506635795 146.46406614399999,-33.505983781 146.46794502399999,-33.50355573 146.47185193600001,-33.501080689 146.47457488000001,-33.499424661500001 146.47604684800001,-33.498455631500001 146.47730780800001,-33.497714632499999 146.47779878399999,-33.497392621499998 146.478480768,-33.496978628500003 146.47902675200001,-33.496610626500001 146.479490752,-33.496288597 146.48011872000001,-33.495829593499998 146.488983456,-33.489141510499991 146.490511424,-33.487992494 146.4979032,-33.48236139 146.50122710399998,-33.479908364 146.505607008,-33.476406314 146.50994188799999,-33.473190274 146.51090384,-33.472466258 146.51506672,-33.469331211 146.52106256,-33.46478313399999 146.52724937599999,-33.460142057500001 146.529010336,-33.458817050500002 146.53252825600001,-33.456169016 146.539077056,-33.4512269445 146.54267296,-33.448538876 146.54656982399999,-33.445573844 146.55561456000001,-33.438771727 146.55664953600001,-33.437989732 146.55986348799999,-33.435576703 146.56419433600001,-33.432266646 146.56553232,-33.431252624 146.56874323199997,-33.428818579 146.5693152,-33.428427581500003 146.56956019200001,-33.428175574500003 146.56975017599999,-33.427945564 146.56988515200001,-33.427555565500001 146.56999216,-33.427120556499993 146.570046144,-33.4270285745 146.57030009600001,-33.423312572 146.57100998399997,-33.418479539499991 146.57275776,-33.407648529500001 146.573947616,-33.400229511500001 146.57470352000001,-33.395692497500001 146.57502748799999,-33.393745483499998 146.57569238400001,-33.389536474499998 146.57613731199996,-33.386665459500001 146.57613932800001,-33.386655451 146.576479328,-33.386733447 146.57902230400001,-33.387299436 146.579788288,-33.387503417 146.58019830399999,-33.387571423 146.58055328,-33.38754741 146.58066128,-33.387340413499999 146.58067430400001,-33.387275423 146.58071529599999,-33.387065411 146.58068627200001,-33.386836418 146.58502576000001,-33.358357240499998 146.58613065599999,-33.351514201500002 146.587158528,-33.344531173 146.589393312,-33.32934914799999 146.58947126399997,-33.328478131 146.589359264,-33.3278141475 146.58919328,-33.3273791385 146.58883625600001,-33.326876142 146.588480256,-33.326511137 146.58834928,-33.326418137499999 146.587960256,-33.326145133 146.58741328,-33.325918138 146.58667526400001,-33.325759167500003 146.583809312,-33.325584194500003 146.582907328,-33.325472195499998 146.58225232000001,-33.325336202 146.58162332800001,-33.325177213 146.580885344,-33.324881213 146.58028435200001,-33.324654218 146.57981936,-33.324357237500003 146.57949036799999,-33.324037224500003 146.57918835199999,-33.32360323299999 146.57902233600001,-33.32323623 146.57896534400001,-33.322687224 146.579125344,-33.321632206 146.58175299199999,-33.303433127 146.58419564799999,-33.286861030499999 146.584248672,-33.286379031500005 146.58449164800001,-33.285783035500003 146.58503363199998,-33.284842014500001 146.585223584,-33.284452016 146.585439584,-33.284085013 146.58562860800001,-33.283466003 146.588480256,-33.266616924499999 146.58933315199999,-33.26177989599999 146.58949414400001,-33.261046889 146.58938313599998,-33.260427879 146.58907910400001,-33.259420887 146.58890611199999,-33.259076879499993 146.597836032,-33.260129788499995 146.619091744,-33.262541578 146.62856060799999,-33.263658497 146.62979059200001,-33.263811473499999 146.63734752,-33.264753401 146.642708416,-33.265386341499998 146.64717139199999,-33.265912296499998 146.65833321599999,-33.267250179500003 146.66946713600001,-33.268608986 146.67934704000001,-33.269764829 146.69083692800001,-33.271166648 146.704263744,-33.272764493 146.71589059199999,-33.274185385500004 146.72699942400001,-33.275515276500002 146.72983840000001,-33.275847240499999 146.73611529600001,-33.276623186 146.74512316799996,-33.277708081500002 146.75260208,-33.278593010500003 146.75638086399999,-33.267393924499999 146.75841776,-33.261335877500002 146.758604736,-33.260784892 146.75876672000001,-33.260394875 146.759008704,-33.259957886499997 146.75960368,-33.258970856 146.76606646399998,-33.248451811500004 146.767531392,-33.246237787 146.77071731199999,-33.241421756 146.77134924800001,-33.2404407565 146.772431232,-33.238761733499992 146.77441814400001,-33.235596716499998 146.77626806399999,-33.232592705 146.77841702399996,-33.229175681 146.78015894399999,-33.226515658499999 146.78029494399999,-33.226308662 146.78038390399999,-33.226240656 146.78059392,-33.226079650500004 146.78100291199999,-33.225895649500004 146.78378284799999,-33.224906621 146.78618080000001,-33.224032588500002 146.78912371199996,-33.22290555 146.79266662399999,-33.22161750599999 146.79724454399999,-33.219847463 146.79759852800001,-33.219663462 146.79789750399999,-33.219456465500002 146.798714496,-33.218905443 146.80222835199999,-33.2166544 146.80565926400001,-33.214403338499999 146.805756288,-33.21429935 146.81048620799999,-33.214878289 146.81861209600001,-33.215827209499999 146.82930192000001,-33.2170470995 146.83805875199999,-33.218028006499999 146.840183744,-33.218265990500001 146.846462624,-33.218980923 146.85259852799996,-33.219678872499991 146.85643846400001,-33.2201148065 146.860965408,-33.220697778500003 146.86099308799999,-33.220701275 146.86123897599998,-33.220906921 146.861348416,-33.2212507805 146.860811488,-33.224596783 146.860192544,-33.228058799 146.85941363200001,-33.232757817500001 146.859184672,-33.234164835 146.85825744,-33.239864333500002 146.85812316799999,-33.240712503 146.858260672,-33.241239272 146.858425568,-33.241766041 146.85867216,-33.242223879 146.8590552,-33.242750019 146.85965641599998,-33.243253108 146.86042105600001,-33.243778619 146.86247052799996,-33.245237695500002 146.86698025600001,-33.248450794 146.87137728,-33.251540497500002 146.87154073599999,-33.251585212 146.87420185600001,-33.251892848499999 146.87686297600001,-33.252200374 146.87952444800001,-33.252507807 146.88242425600001,-33.252842879 146.88508537600001,-33.253150497 146.88774649600001,-33.253458022499991 146.89040796800001,-33.2537655665 146.892821408,-33.25404438 146.895483232,-33.254348575500003 146.89814473600001,-33.254652771 146.90080656000001,-33.2549568 146.90346841600001,-33.255260829 146.90613024000001,-33.255564839500003 146.90879244799999,-33.255868776 146.91145427199999,-33.256172601499991 146.91411612799996,-33.256476445499992 146.91677795199999,-33.256780197 146.91943980799999,-33.257083856 146.922102016,-33.257387515 146.92476384,-33.257691081499999 146.92535065600001,-33.257757959 146.92801321600001,-33.258056845 146.93067612799999,-33.258355731 146.933296192,-33.25864977 146.93333868799999,-33.258655079500002 146.93429974399999,-33.258775089 146.93227296000001,-33.269565121500001 146.93223296,-33.269801144500001 146.930912992,-33.270773153 146.929714176,-33.278123166 146.9294232,-33.279909156 146.9302992,-33.28130117 146.929808288,-33.284227167 146.929206368,-33.287898177500004 146.92917638399999,-33.288078182500001 146.92835152000001,-33.2931091835 146.92831552000001,-33.2933301845 146.92574681599999,-33.308995244500004 146.92574582399999,-33.3089992405 146.92785587200001,-33.308066341 146.92886272000001,-33.307623192 146.92889571200001,-33.307608207 146.93023404799999,-33.307014505 146.93261219199999,-33.305962687499999 146.93416345599999,-33.30527643 146.93498928,-33.304909057 146.93736384,-33.303852096500002 146.93926428799998,-33.303006184 146.94164064,-33.301951388 146.94401664,-33.300896573500005 146.94639264,-33.299841685 146.94797088000001,-33.299141034500003 146.95033283199999,-33.298064094 146.950824608,-33.297839911 146.95153164800001,-33.297606274499998 146.95191180800001,-33.297420775 146.95231897599999,-33.297189025500003 146.95266924800001,-33.296970059499998 146.952726496,-33.296934336 146.95315955199999,-33.296587923499999 146.953619648,-33.296103908 146.95516009599999,-33.294254481499998 146.95668217599999,-33.292427033 146.95816499199998,-33.290544954 146.959648192,-33.288662782499998 146.95982892800001,-33.288433734 146.96118035200001,-33.286808694 146.96279891200001,-33.284862808500002 146.96630784,-33.280509240500002 146.96987075199999,-33.276155228500002 146.972541952,-33.272792187500002 146.973702592,-33.271363895 146.97410688,-33.270811207500003 146.97453996799999,-33.270441744 146.97502812799999,-33.270094795 146.97562393600001,-33.2696326465 146.97654768000001,-33.269237005500003 146.977280288,-33.268819682500002 146.97825625600001,-33.2681257845 146.978823616,-33.267503333500002 146.97917315199999,-33.26692815 146.97941401599996,-33.26639949399999 146.97954432,-33.265711164500004 146.97963936,-33.26403771 146.97968329599996,-33.263120258 146.97968544,-33.263074711 146.979866528,-33.261927748 146.97994067199997,-33.261010832499998 146.98044828799999,-33.259815806500001 146.98098684799999,-33.259010224 146.98171763199997,-33.2583866075 146.98296649599999,-33.257736906 146.98470419200001,-33.256923202 146.98959299200001,-33.25471371 146.99499660800001,-33.252179487500001 146.998554848,-33.250688739 146.99975040000001,-33.250199580500002 147.00108096,-33.249571838500003 147.001215616,-33.249491918499999 147.002709952,-33.248783701499995 147.00340009600001,-33.248449073499998 147.004553536,-33.247890003500004 147.008714752,-33.245821703499999 147.009584512,-33.245692388500004 147.01330332800001,-33.245662862499998 147.014292256,-33.245361090499998 147.02629609599998,-33.238638264500004 147.02702905599998,-33.238078103 147.02781923200001,-33.237106557 147.02812272,-33.236714967499999 147.0299472,-33.235867982 147.02999472,-33.235874734500001 147.032410688,-33.235953489 147.032604736,-33.236065987499998 147.04048512,-33.236809206499991 147.04254899200001,-33.236908921500003 147.044339648,-33.236635325 147.04684633599999,-33.2360739055 147.050170912,-33.235196395 147.05199612800001,-33.235094978 147.05235433600001,-33.235087134 147.05273376,-33.2350732775 147.05296128000001,-33.23510082399999 147.05536105600001,-33.235486567500004 147.060098272,-33.236081287 147.06161641599999,-33.236065987499998 147.06228131200001,-33.23585007399999 147.07747081599999,-33.230369338 147.079056608,-33.230009346500005 147.08321747199997,-33.229862364 147.08463228799999,-33.229387617 147.086387648,-33.228467279 147.0900672,-33.225947005500004 147.09805811199999,-33.220474372499993 147.099455648,-33.219984955 147.09952368,-33.220013574500001 147.09962592,-33.219927364499995 147.10134745600001,-33.219480682 147.10257504,-33.219455133499999 147.10394812800001,-33.224933908499992 147.104291168,-33.226541891499998 147.10437920000001,-33.227919882500004 147.10431219200001,-33.228996878499999 147.103632288,-33.233173882500004 147.101143648,-33.248447908 147.099308896,-33.26020791399999 147.099106912,-33.261413910500004 147.09896496,-33.262260933 147.09812304,-33.267291915500003 147.09639024000001,-33.278273996499998 147.095965312,-33.280590011500003 147.095887296,-33.280861018 147.095807296,-33.281116022 147.09577129600001,-33.281244023500001 147.09574329599999,-33.281374023 147.09572432,-33.281507019500005 147.09571129599999,-33.281642014 147.09570028799999,-33.2819140195 147.09570134399999,-33.2822190105 147.095708352,-33.282389025500002 147.095721344,-33.282559040500004 147.09573932800001,-33.282728038 147.09576134400001,-33.282896036499999 147.09578934399997,-33.283056043 147.09582742399999,-33.283242856 147.095900352,-33.283529032499992 147.09601033600001,-33.284048031499999 147.096047328,-33.284229035500005 147.09607532799998,-33.284410039499996 147.096092352,-33.284592042500002 147.09609734399999,-33.284720044 147.09609734399999,-33.284849026 147.096093376,-33.284977027499998 147.09608636799999,-33.285105029 147.09607536,-33.285233030500002 147.09605036799996,-33.285438029 147.09601836799999,-33.285644026500002 147.09597536000001,-33.285848026 147.09592038399998,-33.286048029500002 147.09585036799999,-33.286240059500003 147.095776384,-33.286398049500001 147.09569238399999,-33.28655306099999 147.0955984,-33.286703059 147.0954984,-33.28685006 147.095395392,-33.286993046500001 147.095284416,-33.2871370505 147.09516640000001,-33.287277058500003 147.09504339200001,-33.287413052 147.0947904,-33.2876780645 147.09457644799997,-33.2878920725 147.09439843199999,-33.288059072 147.09435443199996,-33.288100068 147.09424144,-33.288202077 147.09409942400001,-33.288297074500001 147.09396044799999,-33.288399065 147.09369443200001,-33.288620084499996 147.09356947200001,-33.288737097 147.093406464,-33.288904096499991 147.09325046399996,-33.289081086 147.09310448,-33.289267085 147.09297145599999,-33.289461094499998 147.092854464,-33.2896611165 147.092752512,-33.289868113 147.09266150400001,-33.290085118 147.092585504,-33.29030711799999 147.092528512,-33.29053311399999 147.09249251200001,-33.29075911 147.092484512,-33.291001108499998 147.09250348800001,-33.291247103 147.09254348799999,-33.291495114 147.092596512,-33.291741108499991 147.09264950400001,-33.291984106 147.09273852800001,-33.292296108500004 147.09285353600001,-33.292602117 147.09297952,-33.292906109 147.09309952,-33.293210101 147.09319952000001,-33.293521123 147.09330454400001,-33.293961127 147.09338953599999,-33.294409123 147.093454528,-33.2948611335 147.09350054399999,-33.295314124500003 147.09352656,-33.295766135 147.09352956800001,-33.296209136 147.09350755200001,-33.296654135 147.09347056,-33.297099134 147.093376608,-33.297987152499999 147.09332259199999,-33.298416149 147.09318860799999,-33.299270146 147.09312563199998,-33.299697144500001 147.09307664,-33.300126141 147.09302563200001,-33.30074914699999 147.093006656,-33.301061149500001 147.092996672,-33.301372153 147.09299964799999,-33.301683138 147.09301065599999,-33.301941139 147.093029664,-33.302198141 147.09305564799999,-33.302455143 147.09308867199999,-33.302711146 147.09312768,-33.30296615 147.09339868800001,-33.304585140499995 147.09461683200001,-33.311869145500005 147.09559091200001,-33.317976125 147.09623497599998,-33.322193126 147.096417024,-33.324031119499999 147.09650601600001,-33.324931126 147.09680806399999,-33.329398136 147.09698012800001,-33.331868126499998 147.09702115199997,-33.332523119 147.09704412799999,-33.332851124 147.09712518399999,-33.333782136499998 147.09715616,-33.334084130500003 147.09719718400001,-33.334383127500004 147.09725516799998,-33.334679127500003 147.09733116800001,-33.334971131499998 147.09742217600001,-33.335261119 147.09752518400001,-33.335548128 147.09763619200001,-33.335832103 147.097752192,-33.336112100500003 147.09796220800001,-33.336569106 147.09819920000001,-33.337015104 147.098452192,-33.337455108 147.09871219199999,-33.337891116 147.099250208,-33.338814099499999 147.09982924799999,-33.339779096500003 147.10071424,-33.341222096500005 147.10161923199999,-33.342667076 147.10191724800001,-33.34315107299999 147.10240825599996,-33.343961077 147.102718272,-33.344478059499998 147.10333126399999,-33.345519054500002 147.10410928,-33.346870054 147.10503129599999,-33.348430029500001 147.10525830399999,-33.348822026 147.10547331199999,-33.349197039499998 147.105895296,-33.34994900899999 147.106637312,-33.351290018499995 147.10695632,-33.351878022500003 147.107111328,-33.352174022500002 147.10727334399999,-33.352497014 147.10789433599996,-33.353804002 147.10844732800001,-33.354922993 147.10858336000001,-33.355203989499998 147.108913376,-33.355912003 147.10907536,-33.356267998499995 147.10939337599999,-33.356981987499999 147.109510368,-33.357262984 147.109737376,-33.357827974 147.10985635200001,-33.358107971500004 147.1099864,-33.358381975 147.11010339200001,-33.358609987500003 147.1102264,-33.358835983500001 147.11035340800001,-33.359058982500002 147.11048540799999,-33.359278984500001 147.11062240000001,-33.359495971 147.113207424,-33.363824934 147.123377568,-33.380657825 147.137684992,-33.404817659500004 147.141563168,-33.411248611 147.14739436799999,-33.4210665425 147.14830838399999,-33.422591534499993 147.148461376,-33.422865538 147.148609376,-33.423141521 147.14874739199999,-33.4234215185 147.14887139199999,-33.42370751 147.14899337599999,-33.424026524 147.149103392,-33.4243515135 147.14920041600001,-33.424680517500001 147.14928041600001,-33.425013517499998 147.14932742400001,-33.425264525499998 147.149342432,-33.425348515499998 147.149384416,-33.425669509 147.149410432,-33.425995516 147.149422464,-33.426323521 147.149419456,-33.426649509500002 147.14940345599999,-33.426975516500001 147.14938044799999,-33.42725951 147.14934745599999,-33.427543522 147.14930448000001,-33.427827515499999 147.14924848000001,-33.428107513 147.14917849599996,-33.428383514499998 147.14909948799999,-33.42864253299999 147.14900752,-33.428899535 147.148904512,-33.429152541 147.14879152,-33.429400533500001 147.14866752,-33.429641533 147.143531776,-33.437869611499998 147.142453824,-33.439681631 147.142297824,-33.4399606295 147.14215088,-33.440244623 147.142016864,-33.44053363 147.14190985599998,-33.44079462799999 147.14181187200001,-33.441059640500001 147.14172089600001,-33.44132864899999 147.14163788799999,-33.441599655499999 147.14155891199999,-33.441871642500004 147.14148489600001,-33.44215263899999 147.14141692800001,-33.442435652 147.14135494399997,-33.442719645499999 147.141299936,-33.443004638 147.141251936,-33.443291647 147.13931324800001,-33.455416676500001 147.138791328,-33.458680705500001 147.13598374399999,-33.476228769500004 147.1356248,-33.478455781 147.13363411200001,-33.490778816 147.13296121600001,-33.49471783599999 147.13261225599999,-33.496122855499998 147.13214832,-33.498447843 147.12988752000001,-33.507976897 147.12980256,-33.50870990399999 147.129801568,-33.509168907499998 147.12988256,-33.509673902 147.13004556800001,-33.510155901 147.13016956799999,-33.510471899500004 147.130207552,-33.510568913499995 147.130343552,-33.510890887500004 147.130589568,-33.511257890499998 147.13088854399999,-33.5117408885 147.131188544,-33.512176878 147.131624544,-33.512636880500004 147.132088544,-33.513049874499998 147.13266153599997,-33.513440872 147.13326249599999,-33.513717872500003 147.134246496,-33.514040845499991 147.136925472,-33.514734817499999 147.14039740800001,-33.515613771 147.14143641599998,-33.515890753 147.142201376,-33.516167753499992 147.14282937600001,-33.516443736500001 147.143676384,-33.516881742500004 147.14523833600001,-33.517561728499999 147.14695529599999,-33.5183096835 147.14720131199999,-33.518448692500002 147.14739232,-33.518655689 147.14769232,-33.518976682500004 147.148019296,-33.519413689499991 147.148346304,-33.5200556765 147.14856329599999,-33.520675667 147.148562304,-33.521226689500004 147.148369312,-33.521707689499998 147.14754432000001,-33.523356687 147.147242304,-33.523746704 147.14691235199999,-33.524387710500001 147.14666435199999,-33.525029697500003 147.14638934399997,-33.525625693500004 147.146387328,-33.526290694499998 147.14635833599996,-33.5269327 147.14624732799999,-33.527574705500001 147.14608134400001,-33.528101715 147.14583334400001,-33.528605729 147.145613376,-33.529040719500003 147.14549737600001,-33.529194713500004 147.14528438400001,-33.529476727500004 147.144981376,-33.530048729 147.140807424,-33.535728802500003 147.13797849599999,-33.539712833 147.13646656,-33.542094856 147.13558662400001,-33.543721875499998 147.134624672,-33.545255895499999 147.13431667200001,-33.545848894500004 147.13426768,-33.545943892 147.13404668799998,-33.546378901 147.131758848,-33.55270394 147.13167484799996,-33.553413951499998 147.13148089599997,-33.554009947499999 147.131232896,-33.554605962 147.13095792,-33.555178962500001 147.13071091200001,-33.555590957500002 147.130298944,-33.556071976 147.129859936,-33.556529980500002 147.129502944,-33.556895984500002 147.12914598399999,-33.55719300199999 147.128734976,-33.557467005500001 147.12821398400001,-33.557787 147.127693024,-33.558061022 147.12722700800001,-33.55835902 147.12678803200001,-33.558656019 147.126432032,-33.558976032 147.12593804799999,-33.559434036500001 147.12505008,-33.56050206 147.12129724799999,-33.565019112499996 147.114210496,-33.573557214 147.113221536,-33.574771239500002 147.11267254399999,-33.575434261 147.11236956799999,-33.575938256500002 147.111712544,-33.575868252500001 147.11097456,-33.575729280499999 147.11009859200001,-33.575635282 147.10914057599999,-33.575518288 147.10845657600001,-33.575447285 147.10782758400001,-33.575286316499998 147.10769961599999,-33.575197313 147.10751961599999,-33.575837320499993 147.10744064,-33.577154317 147.10746166399997,-33.577312307 147.10437369600001,-33.577480361 147.079372,-33.574839671 147.07915702400001,-33.574816657 147.0734512,-33.574212706 147.05328080000001,-33.572048835 147.053193792,-33.572039825499999 147.04999888,-33.571718869 147.04710089599996,-33.571322913499998 147.045024928,-33.571054922500004 147.028899104,-33.568972118499993 147.02807411199998,-33.568865151499999 147.02770012799999,-33.568675138 147.02679712,-33.56853516699999 147.02523814399999,-33.568324174499999 147.02351516799999,-33.5679982045 147.02274816,-33.567995207500005 147.02181817600001,-33.567855218 147.019740192,-33.567459262500002 147.01768822400001,-33.56706327 147.016949216,-33.567037277499999 147.01552624,-33.567010286 147.01489424,-33.566943316 147.01440425600001,-33.566892311499998 147.01363827200001,-33.566821327 147.013035296,-33.566956321500001 147.01256928000001,-33.5671383245 147.01199430400001,-33.567183353499999 147.01122832,-33.567088356 147.01007932799999,-33.566924372 147.00893136,-33.566691383 147.008028352,-33.5666203985 147.007272352,-33.566449403 147.00715235199999,-33.566548396500004 147.006304384,-33.5665224225 147.00553737600001,-33.566497429 147.00477139200001,-33.566495449499996 147.004142368,-33.566447442 147.00362240000001,-33.566376457499999 147.00296540799999,-33.566214453 147.00247440000001,-33.566052467 147.0019824,-33.565843472499999 147.00170841600001,-33.565797481499999 147.00122140799996,-33.565725479500003 147.00030944,-33.565788490500005 146.99965244800001,-33.565768492 146.99874944000001,-33.565727514499997 146.99768048000001,-33.565525531500001 146.99696848,-33.565391536 146.99644848,-33.565393552499998 146.99576348799997,-33.565328543500002 146.99491449600001,-33.565263571500005 146.99376451199998,-33.565154569500002 146.99324550399996,-33.565131592500002 146.99236755199996,-33.565092594500001 146.99173753599999,-33.565003609500003 146.990642528,-33.564894607500001 146.98971056,-33.564806621500004 146.988888608,-33.564673643500001 146.9877936,-33.564540647 146.986862624,-33.564430664500001 146.986342624,-33.564502666500005 146.985658656,-33.564500687 146.98585462400001,-33.563291675 146.986106592,-33.5617296645 146.98737740799999,-33.554550665499995 146.98784336,-33.551938650499999 146.98719635200001,-33.551847667499999 146.986292384,-33.551737666500003 146.98566236799996,-33.551625686 146.98481340800001,-33.551560677 146.98396441599999,-33.551472691 146.98251443199999,-33.551387720500003 146.981473472,-33.551278718500001 146.980158496,-33.551077734499998 146.97936352,-33.550943757500001 146.97892550399999,-33.550854754 146.97796755199997,-33.550789782 146.97684457599996,-33.55068078 146.97583161599999,-33.550593793 146.9750096,-33.55048279299999 146.97446160000001,-33.550347817 146.97353062399998,-33.550237816 146.971969664,-33.55003883 146.97106569600001,-33.549927848499998 146.96991571199999,-33.549818865 146.96898473600001,-33.549730860499999 146.96827276799999,-33.54964289299999 146.96731475199999,-33.549485883500004 146.966683808,-33.549374902 146.96586880000001,-33.549210899500004 146.960372896,-33.548532985500003 146.94371907199999,-33.546476192500002 146.9433904,-33.546402044499999 146.94333913599999,-33.546702965500003 146.94269017599999,-33.550510191500003 146.940967392,-33.560646230499998 146.94048448000001,-33.563489236500004 146.94004752000001,-33.566060237 146.939377632,-33.570003253 146.93828976,-33.576379278 146.93770784,-33.579796265 146.93635702399999,-33.587892290500001 146.93484620800001,-33.596814304 146.93426323200001,-33.600185337 146.934075232,-33.600897346499998 146.93498323200001,-33.60153432 146.93937817599999,-33.604661301 146.939978016,-33.605087818500003 146.93831312,-33.6148523775 146.93826409599998,-33.615140385499998 146.93817312,-33.615675387 146.93580899199998,-33.629528538500004 146.93626700799999,-33.629653506 146.937446016,-33.629901498500004 146.93955606399996,-33.630029444500003 146.94632716800001,-33.630987319 146.94676617600001,-33.631054307500001 146.947288192,-33.631281284 146.94781020799999,-33.631531293 146.948606208,-33.631848272 146.94934819199997,-33.632212259500001 146.94992624,-33.6326682475 146.95022924799997,-33.632919237 146.95064124800001,-33.633078244499998 146.95108022400001,-33.633213239 146.95157324799999,-33.633234218 146.952175232,-33.633186192 146.952750272,-33.633046202500005 146.95326928,-33.632906176 146.953416256,-33.632833175 146.95359728,-33.63274419 146.95395225600001,-33.632628158 146.95452729600001,-33.632580169 146.955296288,-33.632783151 146.955927296,-33.632963119 146.956476288,-33.633190132500005 146.95726230400001,-33.633485115 146.957684288,-33.633644104 146.95842534400001,-33.633916091 146.95902432,-33.634070085 146.95974233600001,-33.634162067 146.96023532800001,-33.63420606 146.962129344,-33.634908024 146.96487728,-33.635943987 146.96501427199999,-33.635991994500003 146.96718627199999,-33.636749976499999 146.96729225600001,-33.636786976499998 146.96796899200001,-33.636989459 146.96807926400001,-33.636321960499998 146.96808825599999,-33.636263963 146.96814227199999,-33.635936957 146.96818227200001,-33.635692960500002 146.968219264,-33.635473939 146.96834825600001,-33.634690945 146.96851318399999,-33.633698549500004 146.96842128,-33.633527924 146.96844729599999,-33.63316092099999 146.96847030399999,-33.632564925 146.96894432,-33.629422885 146.969366304,-33.6268988745 146.96944528,-33.626297865 146.97538217600001,-33.6269887845 146.97547616,-33.626487786 146.97580016000001,-33.626308798499991 146.97609913599999,-33.626199796499996 146.97646915199999,-33.6260897955 146.97701612799997,-33.626006767500002 146.97772310400001,-33.625984771 146.98001808000001,-33.626268746 146.97932214399998,-33.630229762500001 146.97900918400001,-33.632012774 146.97940918399999,-33.632400774499999 146.98049612799997,-33.633455755500002 146.98721116799996,-33.63997066 146.987104192,-33.640743664 146.98638227199999,-33.645868700500003 146.98635728,-33.6460487055 146.98625526399999,-33.646771704 146.98617929599999,-33.647312699499999 146.99035936000001,-33.649818598499998 146.99572240000001,-33.652957530500004 146.99852838399997,-33.654641511500003 146.99984940799999,-33.655437492499999 147.00122339200001,-33.656216472 147.003456384,-33.657483444500002 147.01193216,-33.662485400500003 147.012465152,-33.6627863955 147.015213088,-33.66433038699999 147.02555382400001,-33.670255326499998 147.03632688,-33.676522183 147.03662089599999,-33.676628169499999 147.03690188799999,-33.67673016 147.03753187199999,-33.67691516 147.038078912,-33.677077146 147.03887292799999,-33.677308118500001 147.03944793599996,-33.67740211699999 147.04026995199999,-33.677519092499999 147.04103699199999,-33.677613091 147.04213299200001,-33.677685056 147.04659510399998,-33.679553963 147.04755315200001,-33.679900949 147.05403219199999,-33.685145865500004 147.06051193600001,-33.690436884 147.06663766400001,-33.695382914500001 147.06734864,-33.695865931 147.06784064,-33.696256928499999 147.06822358400001,-33.696692918 147.06851558400001,-33.697108927500004 147.06873856000001,-33.69754092099999 147.06897657600001,-33.6983549395 147.06916857600001,-33.699226937 147.06936857599999,-33.699874936500002 147.06963756799999,-33.70055294299999 147.06985552,-33.701076937 147.07012752,-33.701718942500001 147.07042752000001,-33.70224795 147.07072854399999,-33.702729949 147.07107251199997,-33.703383942500004 147.07181849599999,-33.704027946 147.072026464,-33.704211947 147.073603424,-33.705579948 147.0746464,-33.706483950500001 147.07713932799999,-33.708646933499999 147.07769334400001,-33.709015934500002 147.07845632,-33.709384917 147.07896131199999,-33.709559927 147.07926928,-33.709678919 147.079618272,-33.709812914499999 147.08128924799999,-33.7102529 147.08312521600001,-33.710784886 147.084221216,-33.711154867499999 147.08512518399999,-33.711408872500002 147.085864192,-33.711685854500004 147.086439168,-33.711939841 147.08698716800001,-33.712215842500001 147.08748019199999,-33.712592835500004 147.087589184,-33.712675826500003 147.09207513600001,-33.716881801499994 147.09609616,-33.720559731 147.096534144,-33.720858746499992 147.097054144,-33.721203734500001 147.09765616000001,-33.721732742 147.098313152,-33.7225137195 147.09937814400001,-33.724097726499998 147.10517417599999,-33.73142467 147.105420192,-33.7318146685 147.10569318399999,-33.732227662500001 147.105870176,-33.732541663 147.10593916799999,-33.732663670500003 147.10604617600001,-33.732865672 147.10615817600001,-33.733076664499997 147.106376192,-33.733535668 147.10651219199997,-33.734086672 147.10656521600001,-33.734774668500002 147.106397216,-33.736172658 147.10505843199999,-33.748448721500004 147.10498044799996,-33.749193716500002 147.103991584,-33.758639761 147.10395059199999,-33.759027761499993 147.10271078400001,-33.770559810500004 147.10252179199998,-33.771408812499999 147.10249577600001,-33.7720728145 147.102525824,-33.772783806500001 147.10263782399997,-33.77351683199999 147.10277683199999,-33.774249839 147.102998816,-33.774868830500004 147.10306886399999,-33.775011817 147.10346784000001,-33.775829813 147.10404886399999,-33.777387809 147.10468384000001,-33.778761804 147.10575987199996,-33.780616817500004 147.10827091199999,-33.785332800500001 147.107659904,-33.785349802 147.107392928,-33.785357794 147.10681692799997,-33.785358811500004 147.106185952,-33.785451811 147.10564096,-33.785571820500003 147.105554944,-33.785589839499998 147.10508896,-33.785682839 147.10470496,-33.785820830500001 147.10421196799999,-33.786096832 147.10322601600001,-33.786739855 147.10155603199999,-33.787774874500002 147.09944608000001,-33.7891529025 147.098022112,-33.790071927 147.097145152,-33.790646944 147.09654214400001,-33.790762939 147.09604812800001,-33.790785934500001 147.09536217599998,-33.790695969 147.09426416,-33.790445978500003 147.0922592,-33.789922003 147.091597216,-33.789831001499998 147.091270208,-33.789785991 147.09055724800001,-33.7897420165 147.090008224,-33.7897880075 147.08910323200001,-33.789927035 147.08784128,-33.790227049500004 147.08718326399998,-33.790366058499998 147.086579296,-33.790367057499999 147.086195296,-33.790321066499999 147.08561830400001,-33.790070077 147.08443731200001,-33.789637084500001 147.07949238399999,-33.787926130500004 147.06908265600001,-33.784206187500004 147.06707769600001,-33.783498192499998 147.06630870399999,-33.783087196499999 147.06540172799998,-33.782607195499999 147.06465974400001,-33.782173204 147.06477075199999,-33.7826312085 147.06504576,-33.783135204 147.06537776,-33.783822201500001 147.06568073599999,-33.784463208 147.06573673599999,-33.78492119399999 147.065744736,-33.785037207499997 147.06576576000001,-33.785357202 147.065711744,-33.785838202 147.06541580800001,-33.787970216 147.06468588800001,-33.792233245 147.06390198400001,-33.796979235 147.06317305600001,-33.801609248499993 147.0622272,-33.807592278 147.06125529600001,-33.813735295500003 147.06090329599999,-33.813692301499991 147.05850934399999,-33.813395302499991 147.05359452799999,-33.812920333500003 147.05285353599999,-33.812898355500003 147.05249654400001,-33.812945345500005 147.052195552,-33.813174357 147.052085568,-33.813472355 147.051924576,-33.814825352500002 147.05132963200001,-33.818515362500001 147.050546688,-33.823765385 147.04970873600001,-33.829174396499994 147.0485728,-33.836554435 147.04797891199999,-33.840657439 147.053746784,-33.841314411 147.05446076800001,-33.841405394 147.054735776,-33.841496377 147.05490073600001,-33.841656383500002 147.05487478399999,-33.842115387 147.054738816,-33.84296339 147.054063904,-33.847249377499992 147.053226048,-33.852635393500002 147.05200825599999,-33.860130372500002 147.051278336,-33.864760367500004 147.05049443199999,-33.8698943765 147.05653939199999,-33.870597302500002 147.05651737599999,-33.870730317499998 147.05607939199999,-33.873439328 147.05502345599999,-33.879558369500003 147.05415648,-33.884624409499999 147.05380649599999,-33.887145423 147.04283766399996,-33.885244511</coordinates></LinearRing></outerBoundaryIs></Polygon>

	</Placemark>
</kml>