<?xml version="1.0" encoding="UTF-8"?>
<kml xmlns="http://www.opengis.net/kml/2.2">
	<Placemark>
		<Style>
			<LineStyle>
				<color>ff0000ff</color>
			</LineStyle>
			<PolyStyle>
				<fill>1</fill>
				<color>330000cc</color>
			</PolyStyle>
		</Style>
			<ExtendedData><SchemaData>
		<SimpleData name="STATE_2006">1</SimpleData>
		<SimpleData name="POA_2006">2022</SimpleData>
	</SchemaData></ExtendedData>
      <Polygon><outerBoundaryIs><LinearRing><coordinates>151.25865299200001,-33.893198197499999 151.258829056,-33.893221581500001 151.25972832,-33.893340666 151.25926896,-33.895564199500001 151.25895328,-33.897093187499998 151.25782896000001,-33.896940211 151.25692752,-33.896817907500001 151.25603616000001,-33.896696307 151.254766432,-33.896523591 151.25439334399996,-33.8965702295 151.25419225600001,-33.896585788 151.25338908800001,-33.896468516500001 151.251507008,-33.8962041885 151.25120928,-33.896161897500001 151.25075964800001,-33.896099349 151.25047056,-33.896058038500001 151.250214976,-33.896021945 151.24960729599999,-33.895934995 151.249232896,-33.897699987500005 151.24921955199997,-33.897703058499992 151.249203712,-33.897711328 151.24919113600001,-33.897722946 151.24918716799999,-33.897729957500005 151.24918284799998,-33.897737061500003 151.24917996799999,-33.897752546 151.249182112,-33.897768123 151.24918969599997,-33.897782423500004 151.24920192,-33.897794393 151.24921235199997,-33.897800331500001 151.249107968,-33.898318831 151.248986656,-33.898915715 151.24884732800001,-33.899581974 151.24717728,-33.899362471499998 151.24588848,-33.899186166500002 151.24559977600001,-33.899146206499992 151.24533948799998,-33.899147631 151.24533804800001,-33.899136938 151.24533264,-33.899127114500004 151.24532435200001,-33.899118845 151.24531392,-33.899112906500001 151.24530131200001,-33.899109669 151.24528873599999,-33.899109484 151.245276128,-33.899112351500001 151.24526496,-33.899118031 151.24525667200001,-33.899126041500004 151.24525091199999,-33.899135754 151.24521024000001,-33.899092464 151.24473180800001,-33.898902746499999 151.24416515199999,-33.898678378500001 151.24370652799999,-33.898496227500004 151.24360176,-33.898482001 151.24234032,-33.898308027 151.24245984000001,-33.897743277499991 151.242464896,-33.89760269599999 151.2424584,-33.897539796 151.24243932799999,-33.897475342 151.2423976,-33.897420378500001 151.242345376,-33.897378957 151.24230217600001,-33.8973557395 151.24187737599999,-33.897158455499991 151.24123116800001,-33.896859292 151.24119696,-33.896822403 151.24108064000001,-33.896696399500001 151.24092553599999,-33.895130226500001 151.24091580800001,-33.8948376305 151.24094569600001,-33.894752031 151.24095539199999,-33.894752123499998 151.24096512,-33.894749977499998 151.240973408,-33.894745556 151.24098169600001,-33.894736565 151.24098601599999,-33.894723781499991 151.24098492799996,-33.894715586 151.24098096,-33.894708038 151.24097449600001,-33.894701637 151.240966208,-33.894697049 151.24095683199999,-33.894694625500001 151.24094675200001,-33.894694440500004 151.24096188799999,-33.894510569 151.24135033599998,-33.892947818499998 151.24189897599999,-33.890738400499998 151.2419976,-33.89034078 151.24197529599999,-33.8902187355 151.24195801600001,-33.890173651 151.241828768,-33.890139093 151.24138668800001,-33.890037935 151.241112,-33.889995625499999 151.24077683199999,-33.889961067500003 151.24091500799997,-33.889769999499997 151.241467008,-33.889664993499999 151.241547008,-33.889650008499999 151.241612,-33.889638002 151.24176300799999,-33.889610992 151.242148,-33.889539008500002 151.242352,-33.889530998 151.24286700799999,-33.889542005500005 151.24298124800001,-33.889547019 151.24309500800001,-33.8895519955 151.243164992,-33.889547000500002 151.24346099199997,-33.8895899945 151.24347299199999,-33.889588995499999 151.24361100799999,-33.889573992 151.24368300799998,-33.8895899945 151.244202016,-33.8896669915 151.244272,-33.88967799899999 151.244404992,-33.889697997500001 151.24476,-33.889751 151.24483568,-33.889785576500003 151.24490700800001,-33.889818007 151.24504099200001,-33.889848994499999 151.24509500799999,-33.889861001 151.24514601600001,-33.8898730075 151.245150016,-33.889874006499994 151.245308,-33.8899110065 151.24530899199999,-33.8899110065 151.24534300799999,-33.889918998500001 151.24538,-33.889928008 151.24541299200001,-33.889935001 151.24572601599999,-33.890008002 151.24577100799996,-33.890018991 151.24581500799999,-33.890028999499997 151.24586099199999,-33.890039008 151.245903008,-33.890048998 151.245948992,-33.890060005500004 151.245992,-33.890069995499999 151.246036,-33.890080004 151.246082016,-33.890090993 151.246095008,-33.8900940085 151.246151008,-33.890106995499998 151.24619801599999,-33.890118003 151.24624099199997,-33.890127993 151.246284992,-33.890138001499992 151.24632739200001,-33.890148306 151.24637100800001,-33.890158 151.24641500800001,-33.890168008499998 151.246456,-33.8901779985 151.24650099199999,-33.890188007 151.246679008,-33.890230002 151.24672201600001,-33.890239992 151.24676700800001,-33.890250000500004 151.24681500799997,-33.890261008 151.24686099199999,-33.890271997 151.24697500799996,-33.890299007 151.247130016,-33.890335008 151.247224,-33.8903610005 151.247352992,-33.890398000499999 151.24736201600001,-33.890376004 151.247424,-33.890387992 151.24750899200001,-33.890403994499998 151.247536,-33.89040900799999 151.247752,-33.890453001 151.248064,-33.890501008499996 151.248223008,-33.890525003 151.24821900800001,-33.890558007 151.24830601599999,-33.890569995 151.248364,-33.890579004500005 151.24836201599999,-33.890567997 151.24849001600001,-33.890569995 151.24862899199999,-33.890575008500001 151.248912,-33.890584998499996 151.248968,-33.890586996499998 151.249032992,-33.8905889945 151.24919401599999,-33.890573991 151.24944099199999,-33.8905509955 151.24951100800001,-33.8905440025 151.249744,-33.890606995 151.249979008,-33.890584998499996 151.25000499199999,-33.890583000500001 151.25002499199999,-33.890617003500005 151.25012,-33.890607994 151.250172,-33.890590992500002 151.25026201599999,-33.890583000500001 151.25050201600001,-33.890561004 151.250708992,-33.890491999 151.250776,-33.890485006 151.25083900800001,-33.890478993500004 151.25089299199999,-33.890473998499999 151.250946016,-33.890469003500002 151.25099801600001,-33.890464008500004 151.251028,-33.890460993 151.25104899199999,-33.890458995 151.251072,-33.890456997 151.25109900800001,-33.890450004 151.25115100799997,-33.8904369985 151.25115401599999,-33.890435999499999 151.251203008,-33.890423993 151.25124700800001,-33.890413004 151.25125500799999,-33.890411006 151.251308,-33.890398000499999 151.251356,-33.890385994 151.2514,-33.890375005 151.25145001600001,-33.890361999500001 151.251556,-33.890345997 151.25166201600001,-33.8903299945 151.25170601600001,-33.890319005500004 151.251752,-33.890307998 151.25179801600001,-33.890297009 151.25184099200001,-33.890286001500002 151.25188499199999,-33.890275993 151.25193401600001,-33.890264005 151.25198499199999,-33.890250999500005 151.25203801599997,-33.890237994 151.25208899200001,-33.890226006 151.25214099199999,-33.890213000500005 151.25219401599998,-33.890199995 151.25224700800001,-33.890187008 151.2523,-33.890174002500004 151.25235100799998,-33.890161996 151.25240499200001,-33.890147991500001 151.252496992,-33.890411006 151.252487008,-33.890414003 151.25263100800001,-33.890433002500004 151.25281900799999,-33.890493997 151.252884,-33.890506003500001 151.252952,-33.890519009 151.253172992,-33.890621998500002 151.25322499200001,-33.89064799099999 151.25330300799999,-33.890686008499998 151.25338201599999,-33.890724007500005 151.2534,-33.890732998499999 151.25340700800001,-33.890731999499998 151.25364,-33.89075 151.25366,-33.890800005500004 151.25387472,-33.890777361499993 151.255041216,-33.890042227 151.255310208,-33.889878224500002 151.25573881599999,-33.889627808500002 151.25617369599999,-33.889381018500004 151.256266912,-33.889335212500001 151.25656313600001,-33.889194205500004 151.25673616,-33.889112213499999 151.25713740800001,-33.888955148500003 151.25732496000001,-33.88888557 151.25743187200001,-33.888820228 151.25761872000001,-33.888917168 151.25847612799998,-33.8893261845 151.25876611199999,-33.889427194500001 151.25883612800001,-33.889435186500002 151.2589176,-33.889443308 151.259472,-33.88936401699999 151.25944710399997,-33.8894772 151.259302432,-33.890155928 151.259272192,-33.890300098499999 151.25907276800001,-33.891235477 151.25886716799999,-33.892199197499998 151.25865299200001,-33.893198197499999</coordinates></LinearRing></outerBoundaryIs></Polygon>

	</Placemark>
</kml>