<?xml version="1.0" encoding="UTF-8"?>
<kml xmlns="http://www.opengis.net/kml/2.2">
	<Placemark>
		<Style>
			<LineStyle>
				<color>ff0000ff</color>
			</LineStyle>
			<PolyStyle>
				<fill>1</fill>
				<color>330000cc</color>
			</PolyStyle>
		</Style>
			<ExtendedData><SchemaData>
		<SimpleData name="STATE_2006">1</SimpleData>
		<SimpleData name="POA_2006">2386</SimpleData>
	</SchemaData></ExtendedData>
      <Polygon><outerBoundaryIs><LinearRing><coordinates>148.970326336,-30.106730881 148.96888556799999,-30.1065583685 148.968387552,-30.106498354499998 148.96320262399999,-30.105874405 148.960665664,-30.105569414 148.960332704,-30.1055293985 148.96078665600001,-30.102980413 148.96105363199999,-30.101475419499998 148.96117561599999,-30.100792418 148.96146761599999,-30.1008323965 148.96157097599999,-30.100846771 148.96169603199999,-30.099967651 148.9617288,-30.0999756615 148.961901216,-30.099998176 148.961925632,-30.099857391 148.96199862399999,-30.099442399 148.962029632,-30.099265391 148.96210259200001,-30.098853396 148.96211260800001,-30.098791402500002 148.96418355200001,-30.099067404 148.96421155199999,-30.0989073975 148.96429155199996,-30.098449393 148.96430256,-30.098387399500002 148.96437856,-30.097955406 148.96442857599999,-30.097674391 148.964739552,-30.097715405499997 148.96680553600001,-30.097985376 148.96710953600001,-30.098025373 148.96748652799999,-30.098074379500002 148.96916950400001,-30.098294363 148.96935251199997,-30.098318357500002 148.969475488,-30.098335359 148.97152448,-30.09860335 148.97168598399998,-30.098624144 148.971669472,-30.098731222 148.97145491200001,-30.100023724500002 148.97134873600001,-30.100655703 148.97097433600001,-30.1028884125 148.97076192,-30.104165874500001 148.97049731199999,-30.105811172 148.970326336,-30.106730881</coordinates></LinearRing></outerBoundaryIs></Polygon>

	</Placemark>
</kml>