<?xml version="1.0" encoding="UTF-8"?>
<kml xmlns="http://www.opengis.net/kml/2.2">
	<Placemark>
		<Style>
			<LineStyle>
				<color>ff0000ff</color>
			</LineStyle>
			<PolyStyle>
				<fill>1</fill>
				<color>330000cc</color>
			</PolyStyle>
		</Style>
			<ExtendedData><SchemaData>
		<SimpleData name="STATE_2006">1</SimpleData>
		<SimpleData name="POA_2006">2506</SimpleData>
	</SchemaData></ExtendedData>
      <Polygon><outerBoundaryIs><LinearRing><coordinates>150.864511744,-34.474401708499997 150.864299104,-34.475400135 150.86502515199996,-34.476296571 150.869598048,-34.476897081 150.86936502399999,-34.4781700845 150.86917808000001,-34.479069092 150.86853216,-34.478976777 150.86713248000001,-34.478775904 150.86585987199999,-34.479008005 150.86566332800001,-34.4790439135 150.864527168,-34.480087128500003 150.86421216,-34.480704140500002 150.86420217599999,-34.480754146 150.8634952,-34.480871158500001 150.86335219200001,-34.480835157500003 150.862669184,-34.480573142 150.861712192,-34.480580172 150.86053424,-34.480597192 150.860395232,-34.48059919 150.86038022400001,-34.480832179 150.86036921599998,-34.480912191500003 150.86035692799999,-34.480964602 150.86033222399999,-34.481042191 150.86031084799998,-34.481092492500004 150.86028022400001,-34.481152192 150.86024521600001,-34.481210189500004 150.86017824000001,-34.481297195 150.85953225599999,-34.481962177500002 150.859148256,-34.482356209 150.8587488,-34.4827670385 150.858696608,-34.4827510175 150.85861596800001,-34.482731481500004 150.85727459200001,-34.482484987500001 150.85703772799999,-34.483357521500004 150.85699273599997,-34.483522856 150.857114752,-34.48352933099999 150.85723788799999,-34.483541763 150.85761120000001,-34.483588290500002 150.85777968,-34.4836205175 150.85794889600001,-34.483653725 150.8582304,-34.483719141 150.85847555199999,-34.4838185045 150.85886976,-34.484000489 150.85917900800001,-34.484190928 150.85941049600001,-34.4843600365 150.85962288,-34.484553805499999 150.8598216,-34.484817338 150.859888192,-34.484926765499999 150.85990835199999,-34.484960065500005 150.8600208,-34.485145102499999 150.859927296,-34.485209205 150.85966832,-34.485424212 150.85954832,-34.4855102 150.85947932799999,-34.485539208 150.85920332799998,-34.485768201 150.85895632,-34.486041205500001 150.85885609600001,-34.486057985 150.858800992,-34.485873022 150.858703072,-34.4857020265 150.85862784,-34.485548032499999 150.85842012800001,-34.485375964 150.85814003199999,-34.485191001 150.85790208,-34.485006963 150.857697952,-34.484896980500004 150.857452096,-34.484794028 150.85729116799999,-34.484723006499998 150.85692288000001,-34.484576042500002 150.85662985600001,-34.484473978 150.85641312000001,-34.484398017 150.856350112,-34.484380016500005 150.85614889599998,-34.484347974500004 150.85604483200001,-34.484453017500002 150.85599984000001,-34.484456976499999 150.85580112,-34.484327994499999 150.85520387199998,-34.4843129725 150.85518300800001,-34.483791957 150.85478016,-34.483766038500001 150.85474416,-34.484275972500001 150.854294176,-34.48427795199999 150.854303872,-34.4836430135 150.85392985599998,-34.483617002500004 150.853897088,-34.484261043 150.85368505599999,-34.484263022500002 150.853461856,-34.484257972 150.853282912,-34.484369046 150.853095008,-34.484525001 150.85300211200001,-34.484580001499999 150.85284912,-34.484552011 150.85275587199999,-34.484614023 150.85246393599999,-34.484634003 150.85211904,-34.484634003 150.85156787199998,-34.484624993499999 150.85122300800001,-34.484624993499999 150.85087993600001,-34.484592951499998 150.85045116800001,-34.4845729715 150.85009187200001,-34.484528978500002 150.84987084799999,-34.484492977500004 150.84978192,-34.484378037 150.84971712000001,-34.484211981 150.84965987199996,-34.48405898599999 150.84960912,-34.483931003 150.84953315199999,-34.483932002 150.84950905599999,-34.483931003 150.84946188800001,-34.483898961 150.849392032,-34.483845958499998 150.84932617599998,-34.483814009 150.84925993600001,-34.483813028500002 150.849173888,-34.483815008 150.84906912,-34.483829031 150.84891504000001,-34.483885012 150.848785088,-34.48394199199999 150.848597888,-34.484002024500001 150.848448128,-34.484050975499997 150.84825804799999,-34.484050975499997 150.84815292799999,-34.484073027500003 150.84798588800001,-34.484085996 150.84788003200001,-34.484119018500003 150.84777888,-34.484148988500003 150.84769500799999,-34.484108048 150.847587008,-34.484112987499998 150.847247168,-34.484133966500004 150.84688284800001,-34.484218012 150.84659593599997,-34.484330973 150.846264,-34.484416017500003 150.84605484799999,-34.484457957 150.84591011200001,-34.484554971 150.845801056,-34.484562001 150.84539100800001,-34.484708965 150.84499212799997,-34.484883031500004 150.84469296,-34.485022984 150.84450288,-34.485173999499992 150.84401401599999,-34.485427986 150.84380304000001,-34.485551011 150.843403072,-34.48574396599999 150.842913856,-34.486043037 150.84260387200001,-34.486182989500001 150.84213696,-34.486419956 150.84168300799999,-34.486620033500003 150.84143712,-34.486778967 150.84105084800001,-34.486890022499999 150.840785152,-34.487002983499998 150.84055801599999,-34.487046995 150.84046009599999,-34.487091987 150.840299168,-34.487102976 150.84016704000001,-34.487200989 150.84005184,-34.487279003499999 150.84000396799999,-34.487258043 150.83989884799999,-34.487262982499999 150.83979193600001,-34.487327973 150.839564032,-34.4874169765 150.83937504,-34.487528032 150.83920188799999,-34.487650983 150.839046016,-34.487762038500001 150.838823168,-34.487946002500003 150.83856108800001,-34.488095038499999 150.838372096,-34.488217971 150.83805996800001,-34.488413016500004 150.83772409599999,-34.488587971 150.83748,-34.488684004499994 150.83733203200001,-34.488761038500002 150.83719308799999,-34.4888119875 150.83703216000001,-34.488816039 150.83688816,-34.488766977 150.836670016,-34.4887360265 150.83647811200001,-34.488673015499998 150.83630208,-34.48862297299999 150.83610300800001,-34.488519021500004 150.83593488,-34.488441987500003 150.83572608,-34.488412017500004 150.835590016,-34.488376016499998 150.835524128,-34.488387986 150.83554716800001,-34.4884689975 150.835529888,-34.488509031500001 150.83543987199997,-34.488527032 150.83531891199999,-34.48853199 150.835194016,-34.488496988 150.835097152,-34.488447038 150.834744,-34.488234991 150.83444592000001,-34.487990014 150.83406684799999,-34.48770903599999 150.83392105600001,-34.4874999675 150.833882176,-34.487319962500003 150.83296473600001,-34.486713477 150.832965024,-34.486714087500005 150.83296489599999,-34.486713995 150.832912736,-34.486713477 150.83286172799998,-34.486699491 150.83279273599999,-34.486613484499998 150.832722752,-34.486556486 150.832394752,-34.486299484 150.83237059199999,-34.486363494 150.832688768,-34.486599517 150.83270675200001,-34.486714476 150.832878752,-34.486914479500001 150.832914112,-34.487072007 150.83287993599998,-34.487115038 150.83282809599999,-34.487144009 150.83267292799999,-34.487187021499999 150.832568896,-34.487200989 150.83215488,-34.487272972499994 150.83201699200001,-34.487316003499998 150.831879136,-34.487331025499998 150.83170595199999,-34.487431018 150.831609856,-34.487535968499998 150.83162892799999,-34.487670963 150.83169193599997,-34.4878129875 150.831759968,-34.488023036500003 150.83179993600001,-34.488232012499999 150.83173187200001,-34.488573023 150.83160515200001,-34.488876959500004 150.831496096,-34.489071006 150.83136611200001,-34.489265034 150.83128908800001,-34.489360975 150.83124912,-34.489494989 150.83119296000001,-34.489640972499998 150.83113104,-34.4897510475 150.83108387199999,-34.489878031499991 150.83105004800001,-34.490006014500004 150.83099388799997,-34.490223981500002 150.830966176,-34.490358994499999 150.830935936,-34.490717006499999 150.830949952,-34.490960004 150.83100899199997,-34.491162967500003 150.83105689600001,-34.491266993 150.831078848,-34.4913579945 150.83114185599999,-34.491606024 150.83117315199999,-34.491771007 150.83122284800001,-34.491941003500003 150.83127504000001,-34.492052965500001 150.83133408,-34.492127039499998 150.831371168,-34.492291023500002 150.83147196799999,-34.492520978500004 150.83163216,-34.492847041 150.831708832,-34.492959003 150.831774016,-34.493194989 150.83187408000001,-34.493454007499999 150.832044,-34.493743976499999 150.83216316799999,-34.493937024 150.83225712000001,-34.494071038 150.832365856,-34.494336994 150.83247491200001,-34.494604023 150.832613888,-34.494695006 150.83272908799998,-34.494740997 150.83278704,-34.4948959715 150.83292601599999,-34.495001995 150.833093056,-34.495092996499999 150.833230912,-34.495235002500003 150.83335116799998,-34.4953989865 150.83359308799999,-34.495646035500002 150.83375795200001,-34.495803008 150.83393689600001,-34.495921981500004 150.83406684799999,-34.496029984499998 150.83410105600001,-34.496089018 150.834174848,-34.496157967500004 150.83430192,-34.496261993 150.83454492800001,-34.496393047 150.83482787200001,-34.496552961 150.835169888,-34.496723975 150.83530883199998,-34.4967800485 150.83541216,-34.4968939715 150.835560832,-34.497023046 150.83576713599999,-34.497200979 150.83592912,-34.497315993500003 150.83606700799999,-34.497433986499999 150.836227936,-34.497524969499999 150.836310016,-34.497540990499999 150.83633484800001,-34.497477998 150.83633088,-34.497433986499999 150.83622,-34.497397985499994 150.836198048,-34.497324984500004 150.836112,-34.497255961 150.83609795199999,-34.497143999 150.83614115200001,-34.497062007 150.836106976,-34.496983974 150.83606915199996,-34.4968710315 150.83608393599999,-34.496755018 150.836064128,-34.496632973499999 150.83596009600001,-34.496573033499999 150.83579699200001,-34.496522010500001 150.835763872,-34.496433987499998 150.835824,-34.496377026 150.83593993599999,-34.496422018 150.83606304,-34.496453967500003 150.83613612799999,-34.496538031500002 150.83618112,-34.496636044500001 150.83620307199999,-34.496699037 150.83620092800001,-34.496762048 150.836198048,-34.49688300099999 150.83630099199999,-34.496991984499999 150.836328,-34.497089997499998 150.83631792,-34.497180999 150.83630604800001,-34.497249023500004 150.83631107199997,-34.497293035 150.83635104000001,-34.497332995 150.83642016,-34.497378005500003 150.836511968,-34.497437039 150.83653392,-34.4974959985 150.836550112,-34.497559971500003 150.83660700799999,-34.497613973 150.83668297599996,-34.497639984 150.836781952,-34.497684994499998 150.83686297599996,-34.497725047 150.83694288000001,-34.4978090185 150.837045856,-34.497908012 150.83718192000001,-34.498070997 150.83731187199999,-34.498271962499999 150.83732700799999,-34.498293034 150.83742204800001,-34.4984259565 150.83750089599999,-34.498537012 150.837570016,-34.498643035500002 150.83790012799997,-34.499502009 150.83798508800001,-34.499896022 150.83790912000001,-34.50019797899999 150.83764416,-34.500484988 150.837203872,-34.500725007 150.83645795199999,-34.500699995 150.83591616,-34.500605034499998 150.835436896,-34.500694463500004 150.83483788800001,-34.500365478 150.83388291200001,-34.499922477 150.832086592,-34.499473778 150.831069152,-34.49903669699999 150.82997596800001,-34.498742343499998 150.82935900800001,-34.498599616 150.82908841599999,-34.498492575 150.82856889600001,-34.498323096500002 150.82799523200001,-34.498055512500002 150.82728086399996,-34.497564911 150.82703299199997,-34.497362558 150.82674595200001,-34.497189028 150.82613356799999,-34.496556994 150.82593875200001,-34.496012835 150.82589545600001,-34.495504362499993 150.82577638399999,-34.49466585 150.82580886400001,-34.493738112 150.825862976,-34.493033391499992 150.82610112,-34.49222163 150.82633923200001,-34.49165072 150.82641289599999,-34.4912439605 150.82658816,-34.490830041499997 150.82679382399996,-34.490384006500001 150.82685875199999,-34.489616848499999 150.82679382399996,-34.489019187499999 150.82665312,-34.488492862500003 150.82643664,-34.4879933255 150.825992864,-34.487359978 150.825570752,-34.486708778 150.82522438399999,-34.486012974499999 150.824975456,-34.485459898500004 150.824779936,-34.485161586 150.82465897599999,-34.484961601 150.82456416,-34.484781947500004 150.82438176,-34.484503596499998 150.82434768,-34.484211037499996 150.82441260799999,-34.48398802 150.82468320000001,-34.483747168500003 150.82530016000001,-34.483470630500001 150.825841344,-34.483354672499992 150.82647993599997,-34.483363589500001 150.82691289600001,-34.483301152 150.82728476799997,-34.483146529 150.82736176,-34.483102536 150.827384768,-34.48303552899999 150.82736176,-34.482947543 150.827306784,-34.482859538500001 150.82715177599997,-34.482770535 150.82691977600001,-34.4826825305 150.826631456,-34.482641035 150.82633920000001,-34.482596431499999 150.825992864,-34.4824626395 150.82575472,-34.482319912 150.825484128,-34.482034438500001 150.82532179200001,-34.481820356500002 150.82520272,-34.481597339 150.825062016,-34.481338653500003 150.82498624,-34.481142405500002 150.824876768,-34.4809675805 150.82479072000001,-34.480838524500001 150.824652832,-34.480709542500001 150.8245328,-34.480528557 150.82432281599998,-34.480462567499998 150.82451344,-34.480216795 150.824893312,-34.479887754 150.82510067199999,-34.479710912500003 150.82565184000001,-34.479224917499998 150.825770272,-34.479126627 150.82614972799999,-34.478811535 150.82671923199999,-34.478303580500004 150.82726067199999,-34.477871402 150.82766963199998,-34.477511133 150.82832339199999,-34.4769351355 150.82960896,-34.475814535 150.82992505600001,-34.475548856499998 150.83025408,-34.475272281500004 150.8311584,-34.474503606500001 150.83182441599999,-34.473932456 150.83202096,-34.473764254 150.832074592,-34.473718263 150.83214912,-34.473654271500003 150.83285008,-34.47306414 150.83310457600001,-34.472839050499999 150.8333256,-34.472650498500002 150.834996,-34.471216267500004 150.83524403199999,-34.471003221499998 150.83573616,-34.470580866500001 150.83583443200001,-34.470496173500003 150.83637552,-34.470014859 150.8365584,-34.469856351 150.83672688,-34.469713253500004 150.837067072,-34.469429408 150.83723843199999,-34.4692886415 150.83741088,-34.469148689 150.83764201599999,-34.4689708485 150.83776979199996,-34.468874815 150.837960256,-34.468735676500003 150.83815283199999,-34.468598702500003 150.83834761599999,-34.468463708 150.83854416,-34.46833050799999 150.83891712,-34.468085068500002 150.839093152,-34.467972477499998 150.839444896,-34.467754140499991 150.83962883199999,-34.467643085 150.83970336,-34.467600424 150.84008064,-34.467399532500004 150.84017833599998,-34.467351229 150.84046547199998,-34.4672092785 150.84085644800001,-34.467030457500002 150.84127187199999,-34.466857112499994 150.84169705599999,-34.466696736 150.84181619200001,-34.466655592 150.842128672,-34.466547681500003 150.84256499200001,-34.466408191500001 150.84300348799999,-34.466276527 150.843297248,-34.466193813499991 150.84359315200001,-34.466115965500002 150.843890528,-34.466041614 150.844188608,-34.465969612 150.84438947199999,-34.465922289 150.84474048000001,-34.465839390500001 150.8452488,-34.46572482 150.84575891200001,-34.465615836499992 150.84605123199998,-34.465546258 150.84711036799999,-34.465274641 150.847946272,-34.464999065 150.84804636800001,-34.464957847 150.84884233599996,-34.464629527500001 150.84953676800001,-34.464288332 150.85014444800001,-34.463950207499998 150.85036476799999,-34.463788647 150.85137529599999,-34.463047222500002 150.851475712,-34.462962455499998 150.851745728,-34.462716128 150.851986208,-34.462471317500004 150.85226016,-34.462178814 150.85245420800001,-34.461967766 150.85256940799997,-34.461839339 150.8527944,-34.461579691499999 150.85282608,-34.461541433500003 150.85294416,-34.461399057500003 150.85309033600001,-34.461216277499993 150.85323395200001,-34.461031943500004 150.85334448,-34.460887588 150.85427545599998,-34.459632363 150.85570032,-34.457710509 150.85659241600001,-34.456507287500003 150.856972928,-34.455982590499993 150.8571216,-34.455786657 150.857856352,-34.454816369 150.85806515199999,-34.455024087 150.85837081599999,-34.455316498 150.85852633599998,-34.45546076099999 150.85867427199997,-34.455583712 150.85904220800001,-34.455884947500003 150.85931184,-34.456089964500002 150.85957248,-34.456290745 150.85965961599999,-34.456402263 150.8596992,-34.456402170499999 150.85970425599999,-34.456442852 150.859722592,-34.456477761500004 150.85973411200001,-34.45648947199999 150.859751776,-34.456506936 150.859789568,-34.456528081499997 150.85983347199999,-34.456539607 150.8598792,-34.456540402500003 150.85992348799999,-34.456530505 150.859963808,-34.456509452 150.86008873599999,-34.456571908 150.860294272,-34.456661374 150.86038537600001,-34.456701056500002 150.860844,-34.456940095 150.860982976,-34.457012374500003 150.86248416000001,-34.457777997 150.86340035200001,-34.458243309 150.86428704,-34.458731542500004 150.864941888,-34.459167698500003 150.865255808,-34.459426088 150.8653224,-34.459484048499995 150.865736032,-34.459844132500002 150.866155072,-34.460263527500004 150.86629008,-34.460411398 150.86651724800001,-34.460660241500001 150.86696940799999,-34.461214742 150.86710547199999,-34.461412192499999 150.86744675200001,-34.461956333 150.86795616000001,-34.462702882 150.868456928,-34.463408934499995 150.86863187200001,-34.463653116 150.86908044800001,-34.464325776 150.86951171199999,-34.464889341500005 150.86967660799999,-34.465060448 150.869865248,-34.465197681 150.86997324800001,-34.465259693 150.86989260799996,-34.465337189499998 150.869717632,-34.465533474499999 150.86935475199996,-34.4657977285 150.86917296,-34.465906175500002 150.86904553599999,-34.465976827 150.868914848,-34.466044315 150.86878236800001,-34.466109213 150.86864844799996,-34.466172113 150.8684256,-34.466272290499994 150.868283776,-34.466334117499997 150.86816748800001,-34.466382458 150.86805011199999,-34.466428523 150.867931328,-34.466471998 150.86781180799997,-34.466508091500003 150.867565568,-34.466568031499996 150.86744604800001,-34.466602867 150.86733408000001,-34.466648229 150.86725379200001,-34.46669385 150.86717856000001,-34.466746408500001 150.86703059199999,-34.466855577 150.86695177600001,-34.466904176499995 150.866808128,-34.4669803225 150.866658016,-34.4670461085 150.86651363199996,-34.467085624500001 150.86637577600001,-34.467105419500001 150.8662368,-34.467112801 150.86607660799996,-34.467104883 150.86596428799999,-34.4670937275 150.86577497599998,-34.467916089500001 150.86547721599999,-34.469454605 150.86533500799999,-34.469420398499999 150.86522880000001,-34.469391594 150.86511721599999,-34.469359293 150.86497715199999,-34.4693127655 150.86489401599997,-34.469280538500001 150.86456784000001,-34.469149410500002 150.86442924799999,-34.469099812 150.86429712,-34.46905815 150.86409769599999,-34.468999375500005 150.863935328,-34.46895554899999 150.86377152,-34.468914867500004 150.863606656,-34.468876628 150.86327616,-34.468803090500003 150.8631552,-34.46877177 150.86303388799999,-34.468736046499998 150.86291257600001,-34.468703375499999 150.86279196800001,-34.468680953499998 150.86267280000001,-34.468676106499998 150.86259756800001,-34.468683654499991 150.86252233599998,-34.468697159500003 150.86244780800001,-34.468714975 150.86230128,-34.468756914499998 150.86218572799999,-34.468794543500003 150.86207267200001,-34.468837648499999 150.862017248,-34.4688611435 150.86197008,-34.468887247 150.861918976,-34.468908577500002 150.86189267200001,-34.468917217 150.86184912,-34.468928095 150.86180268800001,-34.468935661499998 150.86175552,-34.468939528 150.861708736,-34.468939435499998 150.861663712,-34.468935032499999 150.86162627199997,-34.4689258565 150.86158992,-34.468911815 150.86151792000001,-34.468879495499998 150.86148083200001,-34.468866268 150.86136672000001,-34.468836390500002 150.86130803200001,-34.468825142500002 150.86124972799999,-34.46881839 150.861192128,-34.468817576 150.861125152,-34.468826308 150.86105856,-34.468844216 150.86099267200001,-34.4688680625 150.86092787199996,-34.468894702500002 150.86086416000001,-34.468920991 150.86077091199999,-34.4689623015 150.86068092799999,-34.469009014 150.86041811199999,-34.469160658500002 150.86022624,-34.469261724 150.860053088,-34.469349932 150.8599656,-34.469386821 150.859879936,-34.469430203500004 150.85986768000001,-34.469437677500004 150.85979856,-34.469479265499999 150.859721888,-34.469532989499996 150.85965241599999,-34.469590506 150.85957644800001,-34.469659714500004 150.85954115199999,-34.469696437 150.85951091199996,-34.469734769 150.85948931199999,-34.469775099 150.85947708800001,-34.469830358499998 150.85947923200001,-34.469890021 150.859490752,-34.469952125500001 150.8595192,-34.470075502 150.85953792000001,-34.470169297 150.85956096000001,-34.470263332500004 150.859589056,-34.470356221 150.85962361599999,-34.470446945 150.85966608000001,-34.470534246500002 150.85970675199999,-34.470598404500002 150.859754272,-34.470660157499999 150.85985436799999,-34.470781739499991 150.85989971199999,-34.470844473 150.85995696000001,-34.470933384 150.86001168000001,-34.471024015499999 150.86006208000001,-34.47111609 150.86010707200001,-34.471209774 150.86014451200001,-34.471304901 150.86016937599999,-34.471377624500001 150.860188448,-34.471439544 150.86019203199999,-34.4714515135 150.8602104,-34.471526124 150.860212,-34.471552005500001 150.86022227199999,-34.471600734499994 150.860225888,-34.471674901 150.86022336,-34.471720355500004 150.860218336,-34.471765791500005 150.860210752,-34.47181124599999 150.86020032,-34.471856164 150.86018771199997,-34.471900342 150.86018508800001,-34.471938174500004 150.860143104,-34.47210917 150.86011510399999,-34.47230416 150.86014214400001,-34.472613165499993 150.860224128,-34.473208162500001 150.86023129599999,-34.473251785500004 150.86085696000001,-34.473819957499998 150.861278016,-34.473912346500001 150.86155811200001,-34.473768157500004 150.864511744,-34.474401708499997</coordinates></LinearRing></outerBoundaryIs></Polygon>

	</Placemark>
</kml>