<?xml version="1.0" encoding="UTF-8"?>
<kml xmlns="http://www.opengis.net/kml/2.2">
	<Placemark>
		<Style>
			<LineStyle>
				<color>ff0000ff</color>
			</LineStyle>
			<PolyStyle>
				<fill>1</fill>
				<color>330000cc</color>
			</PolyStyle>
		</Style>
			<ExtendedData><SchemaData>
		<SimpleData name="STATE_2006">1</SimpleData>
		<SimpleData name="POA_2006">2007</SimpleData>
	</SchemaData></ExtendedData>
      <Polygon><outerBoundaryIs><LinearRing><coordinates>151.20080172799999,-33.881591612 151.20121324799999,-33.882295814500004 151.20183564800001,-33.883348224 151.202193472,-33.883952767 151.202215456,-33.883989933500004 151.202235616,-33.884033408500002 151.20161065600001,-33.884203312499999 151.20152099200001,-33.884223292500003 151.20147888,-33.8842326535 151.2013536,-33.88425687 151.20002771199998,-33.884297015 151.19966089600001,-33.884307893 151.198586656,-33.884345614499999 151.197365152,-33.884392863500004 151.196527008,-33.884421002 151.196104096,-33.884435247 151.195205152,-33.884467659 151.19500572800001,-33.884402317 151.19497692799999,-33.883935303 151.19493696000001,-33.883289468 151.19489449599999,-33.882891477500003 151.19487971199999,-33.882758555 151.19481817600001,-33.882186424 151.19478288,-33.881854941 151.19477737599999,-33.881806896500002 151.19477459199996,-33.881777722 151.19474329600001,-33.881490361499999 151.19471299200001,-33.881207996 151.194680288,-33.880911385499999 151.194606368,-33.880232898 151.194528736,-33.8795142285 151.195721056,-33.879053338 151.194851296,-33.877563033500003 151.1939952,-33.876093338 151.19432326399996,-33.875964874 151.195083264,-33.87566288 151.19557622400001,-33.875469869500002 151.19601084799996,-33.875297283 151.196074912,-33.875271272 151.19645184000001,-33.875132226 151.19661673600001,-33.875086864 151.196945056,-33.874928189500004 151.19709228799999,-33.874898941 151.19722368000001,-33.874860683 151.19775001599999,-33.874611932 151.19776368000001,-33.8746068815 151.19792208000001,-33.874547848 151.19817769599999,-33.874452536 151.19825292799999,-33.87442671 151.19828028800001,-33.874538764500002 151.19831411199999,-33.8746684495 151.19832816,-33.874715883500002 151.19834256,-33.874759525 151.198369216,-33.874828289500002 151.19838576000001,-33.874864383 151.198422112,-33.874935478499999 151.19846208000001,-33.875005057 151.19847971199997,-33.875047792 151.19862659200001,-33.875358037 151.198779968,-33.875681842499993 151.199102528,-33.876346140500004 151.19944739199997,-33.876942303 151.19971561599999,-33.877349913499998 151.19975052800001,-33.877407411500002 151.19981353599999,-33.877510012500004 151.19984880000001,-33.877568250499998 151.19994131199999,-33.877719358500002 151.2006408,-33.878921581 151.20071136,-33.878996469 151.20076355200001,-33.879052172500003 151.20093673599999,-33.879095018500003 151.20102204799997,-33.8791075245 151.20111744,-33.879121566 151.20231852800001,-33.879298019 151.20232489599999,-33.879327304500002 151.20280297599999,-33.880776113499991 151.201900448,-33.881137196499999 151.20130032,-33.881391627 151.20080172799999,-33.881591612</coordinates></LinearRing></outerBoundaryIs></Polygon>

	</Placemark>
</kml>