<?xml version="1.0" encoding="UTF-8"?>
<kml xmlns="http://www.opengis.net/kml/2.2">
	<Placemark>
		<Style>
			<LineStyle>
				<color>ff0000ff</color>
			</LineStyle>
			<PolyStyle>
				<fill>1</fill>
				<color>330000cc</color>
			</PolyStyle>
		</Style>
			<ExtendedData><SchemaData>
		<SimpleData name="STATE_2006">1</SimpleData>
		<SimpleData name="POA_2006">2335</SimpleData>
	</SchemaData></ExtendedData>
      <Polygon><outerBoundaryIs><LinearRing><coordinates>151.38955100800001,-32.674483003 151.38986598399998,-32.674782 151.390323008,-32.675332005 151.39101100799999,-32.676136995499995 151.390452,-32.676460005500005 151.38998201599998,-32.676730993500001 151.38959500799999,-32.676953992500003 151.389032,-32.677279999500001 151.38875264000001,-32.677440894 151.387370592,-32.675791841 151.38713264,-32.675507921499999 151.38652963199999,-32.674864917 151.386236,-32.674604992 151.38601500799999,-32.674444005 151.385798016,-32.674297004 151.385559008,-32.674153999 151.38530601599996,-32.674006998 151.38519299199999,-32.673949999500003 151.38496,-32.673831007499999 151.38461801599996,-32.67367599599999 151.38432899200001,-32.673577002500004 151.383972,-32.673468999500002 151.38372201599998,-32.673389005499999 151.38334601599999,-32.673275008499999 151.38305401599996,-32.673193997 151.38198700800001,-32.6728720045 151.381554016,-32.672717992 151.38124201599999,-32.672603995 151.38105699199997,-32.6725360075 151.380470016,-32.672314007499999 151.37997299200001,-32.672120997 151.379502016,-32.671921992500003 151.379122016,-32.6717359935 151.37886700799996,-32.671584996500002 151.37882,-32.671556007 151.37847299200001,-32.671309994 151.378236,-32.671086995 151.378039008,-32.670876002500002 151.377904,-32.670709003 151.37728899199999,-32.669791995 151.376746016,-32.668981991 151.376047008,-32.667939997 151.37587299200001,-32.667674004 151.375551008,-32.66719400299999 151.375368,-32.666923995499999 151.37528899200001,-32.666809998499993 151.37520499199999,-32.666685993 151.37485100800001,-32.666217998500002 151.37451299200001,-32.665843003500001 151.37411699199998,-32.665436003499998 151.37371299200001,-32.6650719975 151.37366,-32.665032000499998 151.37328,-32.6647439925 151.372868,-32.664440000500001 151.372476992,-32.664185995499999 151.37210700799997,-32.663956003500004 151.37186700800001,-32.663816994500003 151.37166499200001,-32.6637000005 151.371152,-32.663449991499995 151.370443008,-32.663158006 151.370047008,-32.662980998 151.368976,-32.662502995 151.36808300800001,-32.662098992 151.3675,-32.661831001 151.36711500800001,-32.661629998500004 151.36693500800001,-32.661536999 151.366568,-32.661321992 151.36619401600001,-32.661096995 151.36567299199999,-32.660738002500004 151.36552387200001,-32.66062765 151.365454976,-32.660697025 151.36528096000001,-32.660938043 151.365205952,-32.661295037500004 151.36524697600001,-32.661769044499998 151.36522697599997,-32.661926054 151.36513795199997,-32.662154048 151.36513497600001,-32.662254040500002 151.365013952,-32.662410051 151.36492796799999,-32.662452046 151.36482697599999,-32.662450048 151.364741952,-32.662492043 151.36442995199999,-32.662860045 151.36441196800001,-32.662917043499995 151.364168992,-32.663214042499995 151.36394198400001,-32.6635400495 151.363584992,-32.664495056500002 151.363065984,-32.664243068 151.36216502400001,-32.663671066500001 151.36184803200001,-32.663452063500003 151.36056502400001,-32.662558069500001 151.36038201599999,-32.662441057 151.360198016,-32.662352072 151.359727072,-32.662216078500002 151.35920406400001,-32.662165074 151.35876707200001,-32.662058088499997 151.35851507199999,-32.661968086 151.35834806400001,-32.661880081500001 151.35801408,-32.661689087500001 151.357499104,-32.661280089500003 151.35735008,-32.661120083 151.35726908800001,-32.660961075499998 151.357115104,-32.661059088500004 151.357027104,-32.66118709 151.35709110400001,-32.661374088 151.35736809599999,-32.661851073500003 151.35736710399996,-32.661908090499992 151.35727910400001,-32.662065081500003 151.35727808,-32.662136084499998 151.357037088,-32.662362099 151.35667808,-32.662543103 151.356439104,-32.662625095 151.356182112,-32.662793093499999 151.35607712000001,-32.662978093500001 151.35613712,-32.663365095 151.35627913600001,-32.663812092 151.35629312,-32.663970100500002 151.35625712000001,-32.66405510799999 151.35608512,-32.6641960965 151.35598313599999,-32.664237092500002 151.35589612800001,-32.664351108 151.355843136,-32.664493095499999 151.35575113600001,-32.664850108499998 151.35561011199999,-32.665120097500001 151.35557945599999,-32.6651667545 151.35456384,-32.664879542 151.353500416,-32.664580915 151.3532952,-32.664523324500003 151.35235632000001,-32.664256295500003 151.3509232,-32.663871144 151.35055427200001,-32.663760551 151.34803888,-32.663006509500001 151.34552348799997,-32.662252468 151.34401731200001,-32.661801179 151.34346432000001,-32.661635178499999 151.34258630400001,-32.661372182500003 151.34162835199999,-32.661085173499991 151.340947296,-32.660884189500003 151.338427712,-32.660140693 151.337975392,-32.660007215500002 151.33772924799999,-32.659958893500004 151.33770038399996,-32.660104211 151.337279424,-32.662306210499999 151.3372704,-32.662350203500004 151.336977408,-32.664050224 151.33615648,-32.668820245500001 151.33566646400001,-32.671662252499992 151.33567248,-32.6716632515 151.3405024,-32.672381218 151.34168537599999,-32.672559206500004 151.346923328,-32.673351173 151.35154220800001,-32.67405315549999 151.35175801599999,-32.674102994500004 151.351730016,-32.6742060025 151.351698016,-32.674326992499999 151.351616992,-32.674480006 151.351595008,-32.674522001 151.351518016,-32.674632002 151.351424,-32.674763999500001 151.35119801600001,-32.675022999500001 151.35027299199999,-32.675891001 151.35007401600001,-32.676083993 151.350196,-32.676876995500002 151.35021900800001,-32.676971993 151.35026,-32.677030009 151.350314016,-32.677069007 151.350494016,-32.677090004500002 151.350816,-32.677118994 151.351452,-32.677246995499999 151.35174700799999,-32.677289009 151.351812,-32.677298 151.35209500799999,-32.677327008 151.35239401600001,-32.677366006 151.352856,-32.677417991 151.353496,-32.677501999500002 151.35372720000001,-32.67752814 151.354072992,-32.6775829925 151.35438300800001,-32.677637993 151.354656992,-32.677686000500003 151.35520700800001,-32.677784994 151.355664,-32.677873997500001 151.356112,-32.677983998499997 151.35624201600001,-32.678001999 151.35621801600001,-32.678100992499999 151.35642899199999,-32.6781319985 151.35624016,-32.679060125 151.35588918399998,-32.6807571115 151.355656192,-32.681881134500003 151.35483820799999,-32.685697129499999 151.354821216,-32.685776143 151.354610208,-32.685747135 151.348826304,-32.684997182 151.34861532799999,-32.684965177 151.344033376,-32.684291203500003 151.34382137599999,-32.684258218 151.33384553600001,-32.682655285499997 151.333660544,-32.682625278499998 151.329316992,-32.681948992500004 151.32910700799999,-32.681919004 151.326448,-32.681532002499992 151.32633801599999,-32.681516 151.32290700799999,-32.681016000500001 151.321928,-32.685919 151.320120992,-32.694981003 151.319039008,-32.700404000500001 151.31738480000001,-32.708465246 151.317106016,-32.709831008500004 151.314596,-32.7094990075 151.309896,-32.708876001500002 151.30394105600001,-32.70808755 151.30369904,-32.708053547 151.29340921599999,-32.706604645499993 151.29320521599999,-32.706575637500002 151.29038425600001,-32.706178664500001 151.28761526400001,-32.705788666 151.28491132799999,-32.705408713 151.28281235200001,-32.705112713 151.27648243199999,-32.704221771500002 151.27611142399999,-32.706158758500003 151.27601542400001,-32.706307776 151.274209504,-32.715600788499998 151.27307353599997,-32.721445808 151.27257356800001,-32.724016827 151.27253756799999,-32.724202826 151.27163859199999,-32.728824829 151.27179958400001,-32.728840831500001 151.27149660800001,-32.730358830500002 151.27134460799999,-32.730342828 151.2709576,-32.732463834500003 151.27089760000001,-32.732851835 151.27087260799999,-32.732901840499999 151.27045561599999,-32.735117844500003 151.27008662399996,-32.737103838 151.26983264,-32.738471857500002 151.26966966399999,-32.739295866 151.269248672,-32.741533866499999 151.26860169599996,-32.744409858 151.268565696,-32.744565868500004 151.26835270399999,-32.745500877 151.26823270400001,-32.746031882499999 151.26820668799999,-32.746142882499996 151.268080704,-32.746700879500004 151.26799369599999,-32.747080869500003 151.2618928,-32.746228907500004 151.26144979200001,-32.746167931500004 151.26022278399998,-32.746009941499999 151.26002681599999,-32.745982931500002 151.25771286400001,-32.745650949 151.25363888,-32.745085996 151.25104057600001,-32.74472976 151.24502700799999,-32.743967005 151.24389299200001,-32.743807997499999 151.23776601599999,-32.742954000499999 151.233980992,-32.742545002500002 151.234032,-32.742255995500003 151.234048992,-32.742076009 151.23407801600001,-32.741721993 151.234115008,-32.741255996500001 151.23431500799998,-32.739825003 151.23435001599998,-32.739516996500001 151.234352992,-32.739476999499999 151.23436099200001,-32.739353993 151.23433299199999,-32.739276996 151.234150016,-32.738790002 151.23402,-32.738438002500004 151.23401100800001,-32.738214004499994 151.23408,-32.73797200599999 151.23419100800001,-32.737805006500004 151.234387008,-32.737649995 151.23458201599999,-32.737555996499999 151.23466499200001,-32.737496001 151.23470601599996,-32.73746699299999 151.234800992,-32.737334995499999 151.23484099199999,-32.737135991 151.23498899200001,-32.736164001 151.23509001599999,-32.735432992 151.235112,-32.735294001500002 151.23503299199999,-32.7350029965 151.234871008,-32.734873996 151.23453699199999,-32.73475400499999 151.234344,-32.73469199299999 151.23428099200001,-32.734671994500005 151.23408899199998,-32.734577996 151.23402099200001,-32.734413993499999 151.234088,-32.734288008500002 151.23419001600001,-32.7342170055 151.23467100799996,-32.734150997500002 151.23483001599999,-32.734043993499995 151.23525900800001,-32.733384006 151.23541299199999,-32.733168 151.23549900800001,-32.732799998 151.235588,-32.732298999500003 151.235603008,-32.732195991499999 151.23562899199999,-32.732015006 151.235624992,-32.731870003 151.2356,-32.731688 151.235456,-32.731365008499992 151.23530598400001,-32.730964002499995 151.23529401600001,-32.7308850075 151.235400992,-32.7308619935 151.23543900799999,-32.730771991 151.23548598400001,-32.730573005 151.235612,-32.730333004500004 151.235658016,-32.730206002 151.235672,-32.730093004 151.235776,-32.729763001 151.23613900800001,-32.728613004 151.236412992,-32.727570991499995 151.236430528,-32.727486687 151.236908992,-32.725353008 151.237300992,-32.723586998 151.237308,-32.723210005 151.23732,-32.723126995500003 151.23762601600001,-32.720982993500002 151.23767100800001,-32.720892991 151.237912,-32.720406996 151.238248992,-32.718700001 151.238688,-32.716474007 151.23891900800001,-32.715244996500005 151.23907500799999,-32.714542995500004 151.239127424,-32.71428875 151.239444,-32.712811007 151.2395,-32.712317001500004 151.23967001599999,-32.711775007 151.23979696000001,-32.711217287499998 151.24005500800001,-32.710109008 151.240152,-32.709635001 151.24024796799998,-32.709160069 151.240310016,-32.708588992500005 151.24032499199998,-32.7084620085 151.240366016,-32.707432002499999 151.24029900799999,-32.706334009 151.240284992,-32.706109992500004 151.240523008,-32.704919998500003 151.24081100800001,-32.704417002 151.24093500800001,-32.704171007500001 151.2411,-32.7038420035 151.241524992,-32.702943995 151.24161500799997,-32.702710007 151.24172099199998,-32.702029003499995 151.241768,-32.701728008499998 151.242028992,-32.699787007 151.242255008,-32.698099992 151.242488,-32.697575998 151.242528,-32.697487993499998 151.24265401599999,-32.696346007 151.24281001599999,-32.695483000499998 151.24284300799999,-32.695342992500002 151.242884992,-32.695162007 151.243066016,-32.694782997499999 151.24317299200001,-32.694282998 151.243196,-32.694008994500003 151.24320499199999,-32.693526995500001 151.243236,-32.6933049955 151.243292,-32.693134999 151.24325100799999,-32.692993992 151.24308601600001,-32.692879995 151.24293798400001,-32.692834004 151.24278,-32.692845992 151.24262099200001,-32.692926004500002 151.242444992,-32.6929309995 151.242312,-32.692889004500003 151.242447008,-32.692782999500004 151.24264099199999,-32.692689001 151.24334899199999,-32.692406006500001 151.243416,-32.692398995 151.24358700799999,-32.691705004500001 151.24369900799996,-32.691369007500001 151.243787008,-32.690956994 151.24390700800001,-32.690394002 151.24401699200001,-32.6901639915 151.24404899199999,-32.689614005 151.24425401600001,-32.688763005 151.244258016,-32.688745004499999 151.24451398400001,-32.687326998 151.244608,-32.686644995500004 151.24463500799999,-32.686511 151.245068992,-32.684284007 151.24510499199999,-32.684100006 151.245463008,-32.6820510015 151.245628,-32.681108001 151.24589801600001,-32.679824008499999 151.24632201599997,-32.677809007 151.246364,-32.677600993 151.246812,-32.675375998 151.24725900799999,-32.673150004 151.247287008,-32.673012993 151.2474,-32.672377999 151.24758700800001,-32.6713930035 151.24761100800001,-32.670915000500003 151.24744201600001,-32.6707980065 151.24725801599999,-32.670661994500001 151.24706700799999,-32.670538007499999 151.246882016,-32.670451002 151.24665401599998,-32.670386992 151.24643401599999,-32.670323999499999 151.24614099199999,-32.670244005500003 151.24612499200001,-32.670238992 151.24519699199996,-32.670152005 151.244668,-32.670050995 151.24407299200001,-32.669949004499998 151.243506016,-32.669910006499997 151.243056,-32.669878001500003 151.242774016,-32.669849992499998 151.24210384,-32.669774938 151.24188899199999,-32.669753996 151.24114,-32.669598004 151.240876,-32.669550995499996 151.24058300799996,-32.669498992 151.24017699199996,-32.669397001500002 151.23973401599997,-32.669336007 151.23969289600001,-32.669301948499999 151.23967100799999,-32.669274994 151.239664992,-32.669190005 151.23967100799999,-32.669147991500004 151.23968201599999,-32.669063002500003 151.239816,-32.668315991 151.23983788800001,-32.6681899505 151.23986787199999,-32.66802395 151.23990588800001,-32.667676927 151.239953888,-32.667429933500003 151.239987872,-32.6670919385 151.24003689599999,-32.666767929500004 151.24017385600001,-32.666286929500004 151.2402248,-32.666088979500003 151.24027785600001,-32.665882926500004 151.24038185599997,-32.665500938500003 151.24054384,-32.664889939 151.24062384000001,-32.664583912 151.24068985599999,-32.664228915500004 151.240756992,-32.663878007500003 151.24076332800001,-32.663851034499999 151.240948992,-32.663059993 151.24109299200001,-32.662360008500002 151.241175008,-32.662004993499998 151.24116601599999,-32.661919005500003 151.24118,-32.661792003 151.24158499200001,-32.661628000500002 151.24113324800001,-32.661408516500003 151.24059360000001,-32.661150034500004 151.24040713599999,-32.661059495499998 151.24032467200001,-32.661019628 151.24005936,-32.6608848 151.23979945599999,-32.660743053 151.23951468800001,-32.660574925 151.23923532799998,-32.660399434 151.23896137599999,-32.660217727 151.23869209599999,-32.660030877 151.23842748800001,-32.659840086500004 151.238265856,-32.659719207500004 151.23817404799999,-32.659650535499999 151.23792528000001,-32.65945623 151.237681216,-32.659257595500002 151.237441792,-32.659054835500001 151.23720780799999,-32.658848283 151.23644243199999,-32.658075630500001 151.23624659199999,-32.657878161500001 151.23554784000001,-32.6570418875 151.23536713600001,-32.656806993 151.23506185599999,-32.656400548 151.2349272,-32.65621965499999 151.23487177600001,-32.656144859500003 151.234031168,-32.654803776 151.23384793599999,-32.654525314 151.23366108799999,-32.654232810499998 151.233356512,-32.653756343 151.232425568,-32.652232017 151.23181824,-32.651237068500002 151.231376896,-32.650548665 151.23117888,-32.650236366500003 151.23049452800001,-32.649157169 151.22964025599998,-32.647659668 151.229217248,-32.64691337799999 151.22879568,-32.646197705500001 151.228768672,-32.646152251 151.22832841600001,-32.645412991 151.22774307200001,-32.644125113500003 151.227733312,-32.644095939 151.22747699199999,-32.643329854 151.22735641599999,-32.642907129 151.227222496,-32.642302863499992 151.22713177599999,-32.641930347500001 151.22709072,-32.641733063499998 151.227051488,-32.641517797500001 151.22701692800001,-32.641301884 151.22698704,-32.641085526499992 151.22696256,-32.640868891499998 151.22693808,-32.640570727 151.226924032,-32.640271563500001 151.22691900800001,-32.639971863500001 151.22692009599999,-32.639816963 151.2269208,-32.639672163500002 151.22692729600001,-32.639372907500004 151.22694457599997,-32.638975102 151.22697372799999,-32.638577315 151.22701296,-32.638179787 151.22702700799999,-32.638066733499997 151.22706156800001,-32.637783054499998 151.22711737599997,-32.637387598499998 151.22715840000001,-32.637127858500001 151.22720268800001,-32.636868396 151.22725091199996,-32.636609377500001 151.22730275200001,-32.636350895500001 151.227358208,-32.636093135 151.227411136,-32.6358335615 151.227620992,-32.634801909 151.22766528,-32.634529737 151.22770524799998,-32.634257047 151.227740512,-32.633983802 151.22777184,-32.633710298 151.22778265599999,-32.633599316500003 151.22783449600001,-32.633060948 151.227867616,-32.632683751499997 151.22788992,-32.632306555 151.22789244800001,-32.631930801499998 151.22786617599999,-32.631557934 151.22783788799998,-32.631293902 151.22779187199998,-32.630959903 151.22777488,-32.630848903 151.22773888,-32.630626903 151.22769888,-32.630404903 151.22760889599999,-32.629962901 151.22750473599996,-32.629522675 151.227418688,-32.629194892 151.22739817600001,-32.629122631 151.22735676799999,-32.628976832500001 151.22722288,-32.628542896500001 151.22707488,-32.628111902 151.22695587199999,-32.62779089 151.226740896,-32.627260902 151.226601888,-32.626945902500005 151.22650489599999,-32.626736889500002 151.22630188799999,-32.6263228965 151.22608592,-32.625913898500002 151.22585692800001,-32.625508896500001 151.22567792000001,-32.625208900499999 151.22555392000001,-32.625009896 151.22549488000001,-32.624919005500004 151.22536291200001,-32.624715894 151.224465248,-32.623694731 151.22435651200001,-32.623578088500004 151.224202432,-32.623419876500002 151.223909408,-32.623106949 151.22370384000001,-32.622887243 151.223534656,-32.622712566 151.223436,-32.62261311 151.22336652800001,-32.622546066 151.22313792,-32.62233194699999 151.22298204800001,-32.622193807500004 151.22290211199999,-32.622126301 151.22278944000001,-32.622036298499999 151.222673536,-32.621949089499999 151.22232,-32.621692494499996 151.22205395200001,-32.621493231 151.22188908800001,-32.621371926500004 151.22167632,-32.621220726 151.221533056,-32.621121714 151.22134944000001,-32.620998874 151.22034361600001,-32.620294172 151.22022768,-32.620212994 151.21826748800001,-32.618877035 151.21618992000001,-32.617461156 151.214112672,-32.616045203 151.21395180799999,-32.615935553499995 151.21360368,-32.615698235499998 151.21268928000001,-32.615074896499998 151.21172627199999,-32.614431392500002 151.211000896,-32.613946822 151.20965699199999,-32.613007318 151.20759491199999,-32.611565872 151.207425728,-32.611452300499998 151.207258336,-32.6113365645 151.207080832,-32.611210191 151.20689328,-32.611073124500003 151.206801472,-32.611002935500004 151.20671148799997,-32.610930933500001 151.20662579200001,-32.610859375499999 151.20654192000001,-32.6107864855 151.20637884799999,-32.610636802 151.20627587199999,-32.610537623500001 151.20618371200001,-32.610445197499999 151.206059872,-32.610340173 151.20581472000001,-32.610127497 151.20569376,-32.610019864 151.20568115200001,-32.610008338500002 151.205461568,-32.609808261 151.20523980799999,-32.60959947 151.20502128000001,-32.609388237 151.20490764799999,-32.609273444499998 151.20467712000001,-32.609044081500002 151.20445075200001,-32.608811906500001 151.20431747200001,-32.608668420500003 151.20397872000001,-32.608272964500003 151.20371088,-32.607960203499999 151.20232921600001,-32.606499425 151.200662752,-32.604737041 151.19986499199999,-32.603893108 151.19899488,-32.602975563500003 151.19867772800001,-32.602641213 151.19817084799999,-32.602124526499999 151.19784972799999,-32.601796928500001 151.19725356800001,-32.601189425500003 151.196179328,-32.600037338 151.194897376,-32.598662492 151.19453340800001,-32.598261171499999 151.193548448,-32.597174962499999 151.19288928,-32.596484043 151.19240652799999,-32.595977790500001 151.19122032000001,-32.594723546 151.19003843199999,-32.593473908 151.18954883200001,-32.592964584500002 151.18786512,-32.591214003499999 151.18752691200001,-32.590872586 151.18716096,-32.590458722500003 151.18677504,-32.590038143500003 151.18621920000001,-32.589438022 151.18572313599998,-32.588902447 151.185594976,-32.588766176 151.18543260800001,-32.588602747 151.18538003200001,-32.588547302500004 151.18533072,-32.58849015599999 151.18528032,-32.588426072 151.18456896000001,-32.587665481500004 151.183872,-32.586920190500003 151.182998656,-32.5860160585 151.18253568,-32.585536797499998 151.18215552000001,-32.585179322 151.18175699199998,-32.584798074 151.18161049599996,-32.584655975499999 151.18143696000001,-32.584480558499997 151.181247232,-32.584314872500002 151.180498304,-32.583649168500003 151.17990211200001,-32.583140252 151.179385376,-32.582699138 151.17920032000001,-32.5825411665 151.17894617600001,-32.582346528 151.17748128,-32.581245685500001 151.17756633599998,-32.580708168 151.17835030399996,-32.576049146500004 151.17983699199999,-32.576240991499994 151.179890016,-32.5762630065 151.179935008,-32.5762779915 151.179991008,-32.576291996 151.180048992,-32.5763010055 151.18122598400001,-32.576434002 151.182420992,-32.5765679975 151.18386595199999,-32.576751203 151.18494921600001,-32.576888103 151.184924,-32.576849993 151.18755299200001,-32.577228003500004 151.18779516800001,-32.577262080499999 151.19071715199999,-32.577649063500004 151.19185401600001,-32.577804001 151.192239008,-32.577854006500004 151.194876,-32.578189004500004 151.197512,-32.578525001500005 151.20014899200001,-32.578860998499991 151.20266899200001,-32.579181992 151.202598016,-32.579221008499999 151.20267699199999,-32.579329973499995 151.204146976,-32.579510959 151.20443398399996,-32.5795409475 151.204874496,-32.580934441499991 151.205360576,-32.581487406499996 151.207669536,-32.583596813500002 151.20903868799999,-32.584764163500004 151.21156291200001,-32.586870906500003 151.21326892799996,-32.587776888500002 151.21427225599999,-32.588252523500003 151.21538217599999,-32.588559716 151.218630848,-32.589419873499999 151.22196777600001,-32.589541825499992 151.22341075200001,-32.589372069500001 151.225581952,-32.589399394 151.22758473600001,-32.589479776499999 151.22864972799999,-32.589594791 151.23002156799998,-32.589918208 151.23144742400001,-32.590716927 151.2323224,-32.591740902 151.232954304,-32.592976517 151.23335465599999,-32.594086757500001 151.23357001599999,-32.595038138500001 151.23371584,-32.596280561500002 151.23411283199999,-32.597127066 151.23483065599999,-32.5979047505 151.23554867199999,-32.598538745500001 151.23686963200001,-32.599413721499999 151.23714963200001,-32.599586733500004 151.23775664,-32.600110727500002 151.23816864,-32.600605732 151.238529632,-32.601324734500004 151.23866761599999,-32.602207721 151.23847462399999,-32.603365728499995 151.23799344,-32.603864895500003 151.237734176,-32.604335924 151.23757216000001,-32.604547545500004 151.23736364800001,-32.6047977395 151.23718329600001,-32.605312113499991 151.23694022399999,-32.6061381385 151.236778208,-32.607155305500001 151.236316448,-32.608356769499999 151.23560604799999,-32.609327501500005 151.234220736,-32.611660777 151.23331276799999,-32.612992795499999 151.232622752,-32.6137098 151.2320608,-32.6144588095 151.2317448,-32.615148822500004 151.23154467200001,-32.616002523500001 151.23150416,-32.616541835500001 151.231787712,-32.6176067695 151.232567776,-32.618950831500001 151.233230784,-32.620076815499999 151.2339328,-32.621556815499993 151.23417763200001,-32.622119123 151.234517888,-32.622576517 151.23549376,-32.623060828500002 151.23636176,-32.623316813 151.23687971199999,-32.623391812 151.23803872,-32.623443797 151.23913068799999,-32.623454786 151.24103968,-32.623474766 151.24312169599997,-32.623347911499998 151.24418297599999,-32.623293299499998 151.24496883199998,-32.6231021575 151.245674592,-32.622834721499999 151.24598259199999,-32.62273472899999 151.24634860800001,-32.622503738 151.24671958399998,-32.6221887385 151.24717558399999,-32.621575704 151.24782057600001,-32.620412479500004 151.248411968,-32.619272435500001 151.24894665599999,-32.617852505 151.24930313600001,-32.616896795 151.24969203200001,-32.615756769500003 151.25010518400001,-32.614746447500004 151.25042115199997,-32.613742933499999 151.250947744,-32.612254738 151.25136448000001,-32.611414653 151.251693088,-32.610684624500003 151.25325142400001,-32.60905964 151.25501740799999,-32.607016611 151.257465376,-32.604513598 151.25807536,-32.603989585500003 151.25901334400001,-32.603055576 151.259748352,-32.6021265615 151.260243296,-32.601466555500004 151.26050729599999,-32.601021556500001 151.26044329599998,-32.599350544 151.26014931199998,-32.598283538 151.259849312,-32.59752156 151.259726304,-32.597014567500004 151.25975529599998,-32.596719548 151.25985529600001,-32.595966542500001 151.26022432,-32.594694538 151.26043328,-32.594207544 151.26057228799999,-32.593832549 151.260455264,-32.5935255415 151.26027328000001,-32.593163552 151.25997628799999,-32.592699553500005 151.259487296,-32.592121539499999 151.257013312,-32.589965568 151.255808672,-32.588409533 151.25470684800001,-32.587235375 151.25444761599999,-32.58673702199999 151.25431798400001,-32.586197728500004 151.254382784,-32.585835924 151.25464204799999,-32.585412681 151.25529734400001,-32.584795558 151.256043296,-32.583788566 151.25638832000001,-32.583543552 151.25667632,-32.583445539 151.25701536,-32.583243519 151.257526176,-32.583139438 151.25806899200001,-32.583357886 151.25849836800001,-32.583726517 151.25905526400001,-32.584152535 151.25953328,-32.584398529499992 151.25996470399997,-32.584538889 151.26126096,-32.584900693499996 151.263650912,-32.58576765899999 151.2651952,-32.586296463 151.26623526399996,-32.586607337 151.26766112000001,-32.586948662 151.26836595200001,-32.587324119500003 151.26876016,-32.587695451500004 151.26906915199999,-32.587860434500001 151.269249024,-32.588129646500001 151.26937513600001,-32.588258425 151.26947616000001,-32.588603431500005 151.270148288,-32.589249211 151.27051286400001,-32.589727066 151.27073161600001,-32.590163980500002 151.270796448,-32.590546264499999 151.270755936,-32.5908602835 151.270583136,-32.5911984265 151.27034214400001,-32.591451432500001 151.26984854400001,-32.591740920500001 151.26967033599999,-32.59189793 151.26954416000001,-32.592053459499994 151.269154144,-32.592253444500003 151.268749216,-32.592827425499998 151.26841459199997,-32.593297362500003 151.26811481600001,-32.593877615 151.267804192,-32.594504487500004 151.26762873600001,-32.594997179499998 151.267653056,-32.595324851500003 151.267847488,-32.596273735 151.26819584,-32.596935924 151.268528,-32.597359167 151.26881916799999,-32.59769046499999 151.269564992,-32.598785924 151.27018070399998,-32.599680214 151.27110915200001,-32.600762464 151.27230416,-32.6021934575 151.27351216,-32.603167445499999 151.27437731200001,-32.603475766500004 151.275416992,-32.603636994 151.27603001599999,-32.603557684500004 151.27681584000001,-32.603373369 151.27788108799999,-32.603125413500003 151.27855404799999,-32.602793394 151.27964326399999,-32.6023767 151.28061299199999,-32.601996358500003 151.28155520000001,-32.601639438 151.28223798399998,-32.601271380499995 151.28403299199999,-32.60072535299999 151.28532896,-32.599993345 151.28615296,-32.599435348 151.28810892799999,-32.59839032 151.29058838399999,-32.597038321500001 151.29126889599999,-32.596656037500004 151.29188464000001,-32.596526334 151.29267856000001,-32.596615078500001 151.29301072000001,-32.596710649500004 151.293189824,-32.596763282 151.29352281600001,-32.596825275500002 151.29433984,-32.5970212645 151.29468080000001,-32.597199271500003 151.29508579199998,-32.597411263 151.29561942399999,-32.597557135500004 151.29616,-32.597691001500003 151.29664019199998,-32.597748277500003 151.29711817599997,-32.597802889500002 151.29771769599998,-32.597843848499998 151.29829977599999,-32.597943249 151.29920473600001,-32.598042224 151.29957372800001,-32.598068235 151.300120736,-32.59799923 151.30083574400001,-32.597879239 151.30157868800001,-32.597681233499998 151.30219270399999,-32.597472220500002 151.30282371199999,-32.59712122 151.303640672,-32.5967002155 151.30409865600001,-32.596316192499998 151.30487465600001,-32.595949189500004 151.305470848,-32.595652523499993 151.30594883200001,-32.595536473 151.30645273600001,-32.595455165499999 151.30725318399999,-32.595399943 151.30858995200001,-32.595454555 151.30968364799998,-32.595290719 151.31050188799998,-32.595140536 151.311854848,-32.594963047 151.314792512,-32.594636133500003 151.31673145600001,-32.59436712499999 151.3193064,-32.5939300995 151.32003641599999,-32.593854101499993 151.32055836800001,-32.593761102 151.320954368,-32.593631102499998 151.321303392,-32.5934500985 151.32157139200001,-32.593283099 151.321912384,-32.593215074500002 151.32223536000001,-32.593230078 151.32264534399999,-32.593323077500003 151.32276435200001,-32.593350087499999 151.32352835200001,-32.593630085 151.32443731199999,-32.593816084 151.32489132800001,-32.5939840825 151.32523532799999,-32.594132082500003 151.32592713599996,-32.594375949499998 151.32639702399999,-32.594744580499999 151.32691552,-32.5952019745 151.32723628799999,-32.595717088500002 151.32806128,-32.596891061500003 151.32849926399999,-32.597398072499999 151.32994124799998,-32.599874075500004 151.33074752,-32.600990902 151.33150905599999,-32.601659917500001 151.33227059199999,-32.602417659 151.33274048000001,-32.602745331 151.33329948799999,-32.603270971499995 151.33380019200001,-32.603745071 151.33569715199997,-32.604951067500004 151.336619168,-32.605593073 151.337305152,-32.606145057500001 151.33824140799999,-32.606513596 151.33924812800001,-32.607840064500003 151.33986512000001,-32.608604059 151.340952096,-32.610478072 151.341500096,-32.611348071499997 151.34207008000001,-32.61238705 151.342931104,-32.613245043 151.34343808,-32.61342305 151.34397206400001,-32.613445046500004 151.344439072,-32.613317026499999 151.34528809599999,-32.612417001499999 151.34617974400001,-32.611522378499991 151.34687801600001,-32.610959016500004 151.34807900800001,-32.609622983500003 151.34880796799999,-32.608570962500004 151.34925897599999,-32.607637970499994 151.34976195199999,-32.606962979500004 151.350308928,-32.606282956500003 151.350759936,-32.605481962 151.35111593600001,-32.605110926 151.35201788800001,-32.604492933499998 151.35300838399999,-32.603941874 151.35374848000001,-32.603451476 151.354153056,-32.603027567 151.35462672,-32.602553782 151.35501888,-32.602178898 151.35569248,-32.601639456500003 151.356284832,-32.601225870500002 151.35739379200001,-32.600915866 151.358455488,-32.600517339 151.35966924799999,-32.600334485 151.36075472,-32.600475788 151.36188953600001,-32.600974511 151.36353750399999,-32.601722577 151.36513612799999,-32.602437417 151.36629065599999,-32.603118994 151.36755376,-32.604174604 151.36937964800001,-32.605945775499997 151.37054665599996,-32.607014742499999 151.372364608,-32.608843745 151.37332460799996,-32.609716741500002 151.37418060799996,-32.61032274599999 151.375066592,-32.610716740500003 151.37612758399999,-32.611122741500004 151.37655657600001,-32.611373749500004 151.37701657599996,-32.611662756500003 151.377652544,-32.611886754499999 151.378652544,-32.612029722500004 151.37960150399999,-32.612167732499998 151.380149504,-32.6123607245 151.380609088,-32.612486561499999 151.38108275199997,-32.6125779885 151.38148736,-32.612636189500002 151.38214851199999,-32.612644496 151.38266448,-32.612699718500004 151.38392147199997,-32.612676704500004 151.38581644800001,-32.612735719500002 151.386554432,-32.612780693 151.387121952,-32.612760861 151.387852192,-32.612727616500003 151.38815808000001,-32.61271931 151.38841465600001,-32.612686065499993 151.38883897599999,-32.612686065499993 151.38999353599999,-32.612611251499999 151.390909376,-32.612616672 151.393022368,-32.612392674 151.394205312,-32.612220661 151.39604230399999,-32.611945658499998 151.398120256,-32.611572643 151.39963625599998,-32.611119615 151.400507232,-32.610952615500004 151.40161801599999,-32.610657929 151.40241731200001,-32.610458443500001 151.403113088,-32.610317584499995 151.403739616,-32.610125961500003 151.40428915199999,-32.610025599 151.40487616,-32.609726602 151.40539916799997,-32.609592606500001 151.40585715199998,-32.609536607 151.40675513599999,-32.609507580500001 151.40824009599999,-32.609270577 151.40890409599999,-32.609182591 151.40974921599999,-32.60917841 151.41037606399999,-32.609475575499999 151.411071072,-32.609753575 151.41169104,-32.610039566499999 151.412678048,-32.610617562 151.41362201600001,-32.611014572 151.41423500799999,-32.611301562500003 151.41544297600001,-32.611746561499999 151.415897984,-32.611792571 151.416246976,-32.611737570500004 151.416606976,-32.611708562499999 151.417166976,-32.611813568500004 151.41848236800001,-32.612095915499999 151.41917312000001,-32.612087609 151.41980467199997,-32.612079284 151.420890144,-32.612095915499999 151.42221244800001,-32.612120853500002 151.42271686399997,-32.612290535500001 151.423378848,-32.612354527 151.424718848,-32.612788518500004 151.425663808,-32.613146530500003 151.426719808,-32.6135475365 151.427776768,-32.61396251 151.42826153600001,-32.614140646500005 151.42912992000001,-32.614730796499998 151.42980563200001,-32.615155538 151.430077248,-32.615304333499999 151.43027574399997,-32.615401514 151.43056176,-32.615622515 151.431005728,-32.615951500500003 151.431579712,-32.61658951 151.43235072,-32.617387489 151.43329868800001,-32.618139495500003 151.43356867200001,-32.618619496500003 151.43381369599999,-32.619127488 151.43425168,-32.619701487500002 151.43423164800001,-32.620316446 151.43425139199996,-32.620806844 151.43416259200001,-32.62146348299999 151.43407267200001,-32.622378493 151.43394867200001,-32.6232214825 151.43391369599999,-32.623494487 151.43393369599997,-32.623683483 151.433886272,-32.623998649 151.43394550399998,-32.624239685500001 151.43382707199999,-32.62446410899999 151.43371852800001,-32.624705164 151.43360998399999,-32.625012708 151.433412608,-32.625661040499999 151.43313971200001,-32.626574496499998 151.43279171200001,-32.627336511499998 151.43190870399999,-32.6287115055 151.43147776000001,-32.629472503 151.43134176000001,-32.6299195 151.43121776000001,-32.6301905065 151.430870752,-32.630734517499995 151.43047273600001,-32.631450523 151.430206752,-32.632112527 151.429667776,-32.633059523500002 151.428577792,-32.634930539500004 151.428102784,-32.635845549500004 151.42780876800001,-32.636653537 151.4275648,-32.637161547 151.42713481600001,-32.63779754 151.42671680000001,-32.638383564500003 151.42643081599999,-32.638879568 151.42620982399998,-32.639462558499993 151.42613584,-32.6397445725 151.42620083200001,-32.640035559 151.42626483199996,-32.64031857199999 151.42625484800001,-32.6405685625 151.42621683199999,-32.640829560500002 151.42599385599996,-32.641352555499999 151.42547584,-32.642429588500001 151.42499088,-32.643960574499999 151.4247584,-32.644878285499992 151.42463011199996,-32.645385315 151.42455116799999,-32.6458424685 151.42438342400001,-32.6462165015 151.42397884799999,-32.646690286500004 151.42343609599999,-32.647072644499993 151.422883488,-32.647596287 151.42234995199996,-32.6482456 151.421197984,-32.649343612 151.419992992,-32.650605645 151.41864704,-32.65186864 151.41683907199999,-32.653404658 151.41598579199999,-32.654096262 151.41513712,-32.654686412 151.41451209599998,-32.655138681499999 151.41408310400001,-32.655430667 151.41353212800001,-32.655790695500002 151.413075136,-32.656007700499998 151.41244912,-32.656200692500001 151.41143216,-32.656463688500004 151.41026617599999,-32.656775709500003 151.40940019199999,-32.657004721 151.40848620799997,-32.657171739 151.407789216,-32.657290731 151.40737721599999,-32.657411739499999 151.40698521600001,-32.6576037325 151.40613126400001,-32.658042737500004 151.405751264,-32.65830874899999 151.40533724799997,-32.658611742 151.404917248,-32.658997744499999 151.40441328,-32.659534744 151.40372976,-32.660205554 151.40321664,-32.66100349599999 151.403078464,-32.661302733500001 151.40308835199997,-32.662250303500002 151.40305433599997,-32.662938762499991 151.40272233600001,-32.662916766 151.40199033599998,-32.662812759 151.39680041599999,-32.662073813500001 151.39524044800001,-32.661849815499991 151.39518444800001,-32.661841823499998 151.391125504,-32.661256853499999 151.39079651200001,-32.661201853 151.390726016,-32.661192991500002 151.39078998400001,-32.661321992 151.39094,-32.661500998 151.391112,-32.6617089935 151.391376,-32.661998000499999 151.391828992,-32.662455006 151.39206099200001,-32.662723996 151.392100992,-32.662770005500001 151.39229699200001,-32.662981997 151.39248601599999,-32.663244993 151.392642016,-32.663483994499998 151.392796,-32.663853994500002 151.393032992,-32.664456003 151.39318601599999,-32.664753002 151.393316992,-32.665008006 151.393542016,-32.665526006 151.39358700799997,-32.665816992499998 151.393620992,-32.666183995499999 151.393631008,-32.666523008 151.393584992,-32.666833993 151.39355500799999,-32.666944993 151.393496992,-32.66716499499999 151.39331001599999,-32.667544004500002 151.39309299199999,-32.667796992 151.392648224,-32.66826141599999 151.39209299199999,-32.668824001 151.39171955200001,-32.669205859500003 151.39141865600001,-32.6696561495 151.390869568,-32.670477864 151.39058252800001,-32.670908118500002 151.39044457599999,-32.671114874499999 151.390317504,-32.671228187 151.3886336,-32.672729906 151.38858761599997,-32.672779893 151.38855760000001,-32.672841905 151.38854361599999,-32.672897904500005 151.3885336,-32.673024888500002 151.38855260799997,-32.673096890499998 151.38857062400001,-32.673181898 151.38867862399999,-32.673330897 151.38874899199999,-32.673415997 151.38910201599998,-32.673840997500001 151.38916,-32.673914997499999 151.38921299200001,-32.673992993500001 151.38953100800001,-32.674460007500002 151.38955100800001,-32.674483003</coordinates></LinearRing></outerBoundaryIs></Polygon>

	</Placemark>
</kml>