<?xml version="1.0" encoding="UTF-8"?>
<kml xmlns="http://www.opengis.net/kml/2.2">
	<Placemark>
		<Style>
			<LineStyle>
				<color>ff0000ff</color>
			</LineStyle>
			<PolyStyle>
				<fill>1</fill>
				<color>330000cc</color>
			</PolyStyle>
		</Style>
			<ExtendedData><SchemaData>
		<SimpleData name="STATE_2006">1</SimpleData>
		<SimpleData name="POA_2006">2115</SimpleData>
	</SchemaData></ExtendedData>
      <Polygon><outerBoundaryIs><LinearRing><coordinates>151.07321088,-33.818778007 151.07316192,-33.8188210195 151.073142112,-33.818841998499991 151.07312304000001,-33.818864032 151.073105056,-33.818885991500004 151.07308704,-33.818909042500003 151.07307011200001,-33.818931982500004 151.07296716799999,-33.818893021500003 151.072850176,-33.818766037499998 151.07293584000001,-33.818716975500003 151.07301792,-33.818639035 151.07308595200001,-33.818544000500005 151.07313097599999,-33.8184469865 151.073142848,-33.818361035500004 151.07312412799999,-33.818289033500001 151.07308489600001,-33.818210001499999 151.07303411199999,-33.818137019 151.07297904000001,-33.818082037 151.072926112,-33.818058986 151.07290489600001,-33.818058986 151.072884,-33.818061964500004 151.072863136,-33.818066016 151.072841888,-33.818068976 151.072820992,-33.818068976 151.07277708800001,-33.818049995 151.07273497599999,-33.818006964 151.07269500800001,-33.817950002499998 151.07266115199999,-33.817887990500004 151.072633088,-33.81783003 151.07261795199997,-33.817786018500001 151.07260896,-33.817741026500002 151.072602112,-33.817694036500001 151.072593856,-33.817649044500001 151.07257801599999,-33.817605033 151.07255712,-33.817563001 151.07253193599999,-33.817520969 151.07250384,-33.8174800285 151.07247107200001,-33.817444027500002 151.07243292800001,-33.817417017499999 151.07239008,-33.817400016 151.072340032,-33.817391006499996 151.072286048,-33.817386955 151.07223203199999,-33.817382996 151.07218092799999,-33.817374985500003 151.07209705599999,-33.817354025 151.07201497599996,-33.817327015 151.07193289599999,-33.817299024500002 151.07185008,-33.817274012499993 151.07176585599998,-33.817256992499999 151.07171401599999,-33.817248001499998 151.07166108800001,-33.817238992 151.07160889599999,-33.817232961 151.07155811199999,-33.817231980500004 151.07151312,-33.817239991 151.07146992,-33.817262043 151.071432128,-33.817293992499998 151.071396832,-33.817332953499999 151.07136300799999,-33.817373006 151.07132988800001,-33.817411985500001 151.07130899200001,-33.817438977 151.07128883199999,-33.817469039499997 151.07126905600001,-33.817498029 151.07124816,-33.817520969 151.071222976,-33.817534011500001 151.07118697600001,-33.817533031 151.071141952,-33.81751701 151.071095872,-33.81749199799999 151.07105593599999,-33.817462028 151.07103107200001,-33.817431965499999 151.07103504,-33.817397037500001 151.07106889600001,-33.817352045499995 151.07111603199999,-33.817302003 151.07116499200001,-33.817249981 151.071199936,-33.817197959 151.07122115199999,-33.817155039 151.07124096000001,-33.817110028499997 151.07125715199999,-33.817064037499996 151.07126617599999,-33.817019045500004 151.07126508799999,-33.816975034 151.07124384,-33.816921032499998 151.07120208000001,-33.816869010499992 151.071148096,-33.816817987500002 151.07108905600001,-33.816769018 151.07103216,-33.816723027 151.07095907199997,-33.816662014 151.07088096000001,-33.816602962 151.07079817599998,-33.81654798 151.07071104,-33.816501989 151.07061996799999,-33.816467967500003 151.070488928,-33.816445027500002 151.070344928,-33.816445027500002 151.070195872,-33.816462029 151.07004611199997,-33.816489039 151.069903936,-33.816519009 151.069745152,-33.816558969 151.06958892799997,-33.816610972500001 151.06943699199999,-33.816672004 151.069290112,-33.816742026500002 151.06915116799999,-33.816817987500002 151.06902803200001,-33.816896002 151.06890889600001,-33.816980972499998 151.06879584000001,-33.817071955499991 151.06869107199998,-33.817167989 151.06859388800001,-33.817268962 151.068488032,-33.817395964500001 151.06836096000001,-33.817751997 151.06816585600001,-33.818022004500001 151.06816512,-33.818093007499996 151.068075136,-33.818291993500004 151.06803408,-33.818578022 151.067960992,-33.818762966500003 151.06782204800001,-33.818889969 151.06747392,-33.819113967 151.06740192000001,-33.819270033 151.06739904,-33.819427986 151.06745808,-33.819605993 151.06751388800001,-33.819724985 151.06755996800001,-33.819849009 151.06759705599998,-33.819974994 151.067624032,-33.820102977 151.06764096000001,-33.820229961 151.06764313599999,-33.820412038 151.06762009600001,-33.8205969825 151.06757904,-33.820783018500002 151.06752396799999,-33.820965983500002 151.067459872,-33.821145008 151.067405888,-33.821287014 151.067346848,-33.8214290385 151.067279168,-33.821568991 151.06719888000001,-33.821701025499998 151.06710492799999,-33.821823958 151.066978912,-33.821947982 151.06683385599999,-33.822063995500002 151.06667401600001,-33.82216902 151.06650588799997,-33.822262981500003 151.06633308799996,-33.822344973499995 151.06620313600001,-33.822397976 151.06606812800001,-33.8224429865 151.065929152,-33.822483039 151.06578912000001,-33.8225190215 151.065648,-33.82255197 151.06558105600001,-33.82256196 151.065509056,-33.822567991 151.06543884800001,-33.822575002500002 151.06537692800001,-33.822587971 151.06532688,-33.822612983 151.065294112,-33.822656014 151.06527612799999,-33.822710996 151.06526713599999,-33.822773008 151.06525705600001,-33.822836999499991 151.065240128,-33.822896033 151.065217088,-33.822951033500004 151.06519296,-33.823007995 151.06516595199997,-33.823062995500003 151.06513392,-33.823115017500001 151.06509395200001,-33.8231600095 151.06501008000001,-33.823215990500003 151.064933056,-33.823243167 151.06490099199999,-33.823254951500004 151.06477788799998,-33.823284033500002 151.06465116800001,-33.823307972500004 151.06452985600001,-33.823334964 151.06435308799999,-33.823377995 151.06417308799999,-33.823415975499998 151.06399091199998,-33.823448998 151.06380912,-33.823477987499999 151.06362588799999,-33.823503998500001 151.06337603200001,-33.823533968500001 151.06312403199999,-33.823556002 151.06286988799997,-33.823572023 151.062617152,-33.823581032500002 151.06236300800001,-33.823584991499999 151.06214700800001,-33.823584991499999 151.06192992,-33.823582013 151.06171392,-33.823574002500003 151.06149792,-33.823558980500003 151.06128409600001,-33.823535041500001 151.06112784,-33.823508031499998 151.06097305599999,-33.823474028500002 151.06081897600001,-33.823437028499995 151.06066416,-33.823402026499998 151.06050793599999,-33.823371964 151.06033008,-33.823344954 151.06015008,-33.823322014 151.05997008,-33.823302034 151.05979008,-33.823286013 151.059761888,-33.823283978 151.05961008,-33.8232740435 151.05933792,-33.823266033 151.05906505600001,-33.823267013500001 151.05879216,-33.823278002500004 151.05851891200001,-33.823296003 151.05824784000001,-33.823320034499993 151.05806208000001,-33.823340014499998 151.057877056,-33.823364046 151.057692,-33.823391037500002 151.05750803199999,-33.823422006500003 151.057325152,-33.823455029 151.05732192,-33.823572023 151.056820096,-33.823647984 151.05676608,-33.823537021 151.056649088,-33.8235479915 151.05653209600001,-33.823558980500003 151.05641507199996,-33.823568970499998 151.05629808,-33.8235779615 151.05618108799999,-33.823587951500002 151.05581712,-33.823613962499998 151.05545315199998,-33.823636014500003 151.05508812799999,-33.823654015 151.054723072,-33.823666983500004 151.05435913599999,-33.823675974499999 151.053995168,-33.8236769735 151.05363084800001,-33.823672015500001 151.05326688,-33.823663024499993 151.05290291199998,-33.823654015 151.05253897599999,-33.8236470035 151.05235897599999,-33.823645024 151.052180032,-33.823643044500002 151.05200112,-33.823639973500001 151.05182112,-33.823637994 151.051641856,-33.823637013500004 151.05155292799998,-33.823652035500004 151.051464,-33.82366400499999 151.05137904,-33.823667964 151.05133552000001,-33.823662062499999 151.0513488,-33.823533247 151.05137507199998,-33.823279612 151.05138624,-33.823175124 151.051572,-33.821719118499999 151.05165696,-33.821035469500004 151.05193596800001,-33.818791142 151.0519824,-33.8184170165 151.05199753599999,-33.81820299 151.052008672,-33.818044852 151.052158432,-33.816936239500002 151.05217104,-33.816841464 151.05224592,-33.816279323 151.052328,-33.81520743299999 151.05237948800001,-33.814592197 151.052436736,-33.813904145 151.05256201599997,-33.813922941 151.05324275199999,-33.814025375500002 151.05362329600001,-33.814082614500002 151.05505392000001,-33.814297806500001 151.055885152,-33.814397336500001 151.05600505599998,-33.814407789 151.05609648000001,-33.814422367 151.05617820799998,-33.814428657 151.056229696,-33.814429193500004 151.05627433599997,-33.814427769 151.056244096,-33.814329756 151.05619763199999,-33.814026541 151.05618684800001,-33.813958775499991 151.056177472,-33.813897392500003 151.05609648000001,-33.813550073500004 151.05576889599999,-33.812144184499999 151.05570947199996,-33.811878506 151.05570844799999,-33.811419465499995 151.05506185600001,-33.811338232 151.054855936,-33.811335272 151.05478787199999,-33.811305209499999 151.05465180799999,-33.811275239499992 151.05453193599999,-33.811244289 151.05425977600001,-33.811140245 151.054124032,-33.811095234500002 151.053747136,-33.811089203500003 151.05359305600001,-33.81107327499999 151.05313008,-33.811109276 151.05288889600001,-33.811162297 151.05280105599999,-33.8112333 151.05274992,-33.811218278 151.05257712,-33.811315292 151.05238812799999,-33.811327261500004 151.05219984,-33.811295219500003 151.05208105599999,-33.811250227500004 151.05189385599999,-33.811191268 151.051572,-33.810999293500004 151.05121811199999,-33.810736316 151.050997792,-33.810604281499998 151.05065904,-33.810427255 151.05054096000001,-33.8103542725 151.050064064,-33.810267359500003 151.050096736,-33.81022764 151.05012947200001,-33.810187957499998 151.050178816,-33.810090481 151.05020508799998,-33.81003783 151.050216608,-33.810011097500002 151.0502256,-33.809983921 151.05023532800001,-33.809942888 151.05024108800001,-33.809900578499999 151.05024323200001,-33.809857825 151.05024179200001,-33.809815256500002 151.05023641599999,-33.809773761 151.0501032,-33.809317551 151.05009888000001,-33.809290374500002 151.05008771199999,-33.809250322 151.05007369599997,-33.809214876 151.05005568000001,-33.809178782499998 151.05003372799999,-33.809144483499999 151.050007456,-33.809114421 151.049976832,-33.809090852 151.04993897599999,-33.809041309 151.050091968,-33.8089672905 151.05032496000001,-33.808951288 151.05108192,-33.808760275499999 151.05128294399998,-33.808474284 151.05112592,-33.8078612865 151.051579936,-33.807773263500003 151.05152892800001,-33.80757326 151.05148492800001,-33.807405261500001 151.05144793599999,-33.807262275 151.05141292799996,-33.807123284500001 151.051375936,-33.806979280500002 151.051341888,-33.806849281 151.05130790399997,-33.806714286500004 151.051273888,-33.806582289 151.051237888,-33.806445278 151.05120291200001,-33.806312281499999 151.05116889600001,-33.80617928499999 151.05113388800001,-33.806043273 151.05109990400001,-33.805907279499998 151.05106489600001,-33.80577428299999 151.05103091199999,-33.805644283499994 151.05099590399999,-33.805506273500001 151.05096089599999,-33.805372278 151.050946912,-33.805317277500002 151.050911904,-33.805180285 151.050877888,-33.805044273 151.05084291200001,-33.804907280500004 151.05080790400001,-33.804772286 151.05076089599999,-33.804588285 151.05072588799999,-33.804452273 151.05068988799999,-33.804314281499998 151.05065491199997,-33.804175291 151.05061491199999,-33.804021278500002 151.05056889599999,-33.803839275499996 151.05048486399997,-33.803514286 151.05137785599999,-33.803340275 151.05282284800001,-33.80305926 151.05298483199996,-33.803027255 151.05342483199999,-33.802939250500003 151.05342582399999,-33.802915237500002 151.05346227199996,-33.802811304500004 151.05369241599999,-33.803253991 151.05367728,-33.803412036499999 151.053674048,-33.803558908 151.05363408,-33.804154719 151.05359952000001,-33.804665726 151.05363696000001,-33.804665911 151.05371184000001,-33.804671405500002 151.05378528,-33.804683467499999 151.05385296,-33.804700191500004 151.05388643200001,-33.804710736499999 151.05391811199999,-33.804723057499992 151.05394835199999,-33.804737376499993 151.05398905600001,-33.804762203500005 151.05400848,-33.804776152500004 151.05404412799999,-33.804805956 151.05406284799997,-33.804824049 151.05409705599996,-33.80486301 151.05412585600001,-33.804904598 151.054198208,-33.805137957 151.0542288,-33.805258743499998 151.05507049600001,-33.805075223499998 151.05520368,-33.805032396 151.055322848,-33.804994045500003 151.05614220800001,-33.804812061 151.05652704,-33.804726572500002 151.05657779200001,-33.804719635 151.05644137600001,-33.804303218500003 151.056267488,-33.803772657 151.056057248,-33.803131317500004 151.055816416,-33.80239548 151.05619584,-33.8023204255 151.057510912,-33.802061851 151.05737232000001,-33.801517895499998 151.05848976,-33.801274343 151.060846688,-33.800760635 151.06146659199999,-33.800625363 151.06155516800001,-33.8005984455 151.061612416,-33.800576763500004 151.06172185599996,-33.80052590699999 151.06182371200001,-33.800465079 151.06193891199999,-33.800376242 151.061980672,-33.800337003499997 151.06221216,-33.800081222500005 151.06229603200001,-33.8000040035 151.06236480000001,-33.799950631 151.06241628800001,-33.799916073 151.06246992000001,-33.799883494500001 151.06255379199996,-33.799838946500003 151.06264163200001,-33.799800059499994 151.06273273599999,-33.799766852 151.062826688,-33.7997396755 151.06330979200001,-33.799647323500004 151.06352112,-33.800409801 151.06365072,-33.800383975 151.06382137599999,-33.800350046 151.064407456,-33.800230073500003 151.06454892799999,-33.800200381 151.066005856,-33.79986368099999 151.06605408,-33.802119719 151.06605913600001,-33.802351283499995 151.06605552,-33.802419141500003 151.06605587199999,-33.802487721 151.06606019200001,-33.802556226500002 151.06606848000001,-33.802624436 151.066080736,-33.802691665 151.06609872,-33.802765202499998 151.06612176,-33.802838462499999 151.06614947200001,-33.802910723499998 151.06618153599999,-33.80298156 151.06621824000001,-33.803050139500002 151.066258912,-33.8031161105 151.066304288,-33.803180638500002 151.06635395199999,-33.803243372 151.06640723199999,-33.803303848500001 151.066463392,-33.803361624 151.06654656000001,-33.803437955 151.06663584,-33.803509494499998 151.06752828800001,-33.804167391500002 151.06954211199997,-33.805672292499999 151.069619168,-33.80572988299999 151.06988051199997,-33.805942022499998 151.06996115199999,-33.8060146535 151.07006483200001,-33.806115441500005 151.07008896,-33.80614173 151.07011091199999,-33.806169091500003 151.07015628799996,-33.806096645499998 151.07024268800001,-33.806194196 151.07025888000001,-33.806227588500001 151.07027507199996,-33.806272765500005 151.07028768,-33.806315889 151.07039171199997,-33.806624043500001 151.07051593599999,-33.807063862500002 151.07052169599996,-33.807188349 151.070645888,-33.807576682499999 151.07115097600001,-33.809097327 151.07187312,-33.811271724500003 151.07193395199997,-33.811449121 151.072678432,-33.8136183015 151.07322816000001,-33.815242435 151.07383584,-33.81710742 151.073845216,-33.817138204 151.07386032,-33.817187525 151.07391648,-33.817531236499995 151.07395033599997,-33.817707893 151.07394601600001,-33.817734718 151.073928736,-33.817835783500001 151.073784,-33.818046036 151.07369219200001,-33.818146028500003 151.07355792000001,-33.818331065500004 151.07338476800001,-33.818570548 151.07321088,-33.818778007</coordinates></LinearRing></outerBoundaryIs></Polygon>

	</Placemark>
</kml>