<?xml version="1.0" encoding="UTF-8"?>
<kml xmlns="http://www.opengis.net/kml/2.2">
	<Placemark>
		<Style>
			<LineStyle>
				<color>ff0000ff</color>
			</LineStyle>
			<PolyStyle>
				<fill>1</fill>
				<color>330000cc</color>
			</PolyStyle>
		</Style>
			<ExtendedData><SchemaData>
		<SimpleData name="STATE_2006">8</SimpleData>
		<SimpleData name="POA_2006">2607</SimpleData>
	</SchemaData></ExtendedData>
      <Polygon><outerBoundaryIs><LinearRing><coordinates>149.122080256,-35.370011184 149.12310326400001,-35.373442194 149.12419232,-35.377098164 149.12510835199998,-35.380173178500002 149.12516435200001,-35.380360176499998 149.12520035200001,-35.380481166500005 149.125178336,-35.380486161500002 149.11853545599999,-35.382108223 149.117476512,-35.382366242499991 149.11653750400001,-35.382595235499998 149.11622252800001,-35.382672251 149.1134896,-35.383339287 149.11341059200001,-35.383363281499996 149.11290060799999,-35.383516276500004 149.11245459200001,-35.383651289499994 149.11202864000001,-35.3837792725 149.111750624,-35.3838632995 149.11144262400001,-35.383864298500001 149.110475648,-35.383869293499998 149.11007766399996,-35.3838073 149.10967964799997,-35.383744326 149.10935065599998,-35.383762326500005 149.109015648,-35.383780327 149.10868569600001,-35.383837325499996 149.10835468799999,-35.383894324 149.108024704,-35.38395234 149.10769369600001,-35.3840093385 149.10729769599999,-35.384078343500001 149.106797728,-35.384128330500005 149.10621571199999,-35.384186346500002 149.10584272,-35.384224364 149.10546976000001,-35.384261364 149.10526076799999,-35.384046357 149.105235744,-35.384020364500003 149.10499776,-35.383775350500002 149.10481276799999,-35.383365353500004 149.10465276799999,-35.383009358 149.10450771199999,-35.382688383 149.10436371200001,-35.382441371 149.10421872000001,-35.382193378499998 149.104085728,-35.381965366 149.103973728,-35.381774372 149.103884736,-35.381621377 149.10386972800001,-35.381595366 149.10384473600001,-35.381578383 149.10366272,-35.381450381500002 149.10347571199998,-35.3813183655 149.103264768,-35.381171383 149.10295376,-35.381083378500001 149.102635744,-35.380993394500003 149.10231776000001,-35.380904391 149.10225376,-35.380886390500002 149.10193676799997,-35.380796388 149.10181574399999,-35.380762385 149.10160675200001,-35.380614385 149.10132675200001,-35.380417397 149.10099676799999,-35.380184408 149.10070275199999,-35.379896418499996 149.100596768,-35.379776409 149.10056476799997,-35.379739409 149.100385792,-35.379538406500004 149.100202784,-35.37933141 149.10001577599999,-35.379119418499997 149.099707776,-35.378771415 149.09677481599999,-35.377616441500003 149.096118816,-35.377584455 149.09576780800001,-35.377567453499992 149.09529884799997,-35.377544458 149.095073856,-35.37753346899999 149.09485686400001,-35.3775224615 149.09403084799999,-35.377481465500004 149.094014848,-35.377480466500003 149.093270496,-35.377480152 149.09240288000001,-35.377510492 149.091867904,-35.377614499 149.09161590400001,-35.377663505500003 149.09132291200001,-35.377720504 149.09102892799999,-35.377777502500003 149.09068592,-35.377844509500001 149.09035395199999,-35.377908501 149.090177952,-35.377943521500001 149.09001395199999,-35.377925521 149.089674944,-35.377890519 149.08934294400001,-35.377855517 149.089009952,-35.377820515 149.08867699199999,-35.377785513 149.08834499199997,-35.377751547 149.087905984,-35.377705537499999 149.08777097599997,-35.377691533 149.08750697599999,-35.377663542499995 149.08720796799997,-35.377631537500001 149.086908,-35.377600531500001 149.08659900800001,-35.377568563499999 149.086299008,-35.377536558500005 149.085985024,-35.377503554500002 149.085708,-35.3775315635 149.08538105599999,-35.37756355 149.08511404800001,-35.37759056 149.08484803199997,-35.377616571 149.08459305599996,-35.377641583 149.08452403199999,-35.377648576 149.08440704,-35.377698581499999 149.08414105599999,-35.377815575500001 149.08333507200001,-35.378166576 149.08327408,-35.378193586 149.082912064,-35.378211605 149.082844064,-35.378215601 149.08242310399999,-35.378236598500003 149.08238512,-35.378223593 149.08199811199998,-35.378080588 149.08162112,-35.377942596499999 149.08160809599997,-35.377892591 149.08151110399999,-35.377529621 149.08144009599999,-35.377266606500001 149.08137910400001,-35.377038612500002 149.081214112,-35.37642361699999 149.08134406400001,-35.376123621 149.08144508800001,-35.375890613500005 149.08154508800001,-35.375657606 149.081640064,-35.375437622500002 149.08174108799997,-35.375204615 149.08185606399999,-35.374936605500004 149.08192704000001,-35.374771604 149.08190105599999,-35.374512622499999 149.08187305600001,-35.374222616499999 149.08184604799999,-35.3739566235 149.08181104,-35.373607621 149.081773056,-35.373218621500001 149.08174803200001,-35.372969611500004 149.08172803199997,-35.372768609 149.08170304000001,-35.372521615499998 149.08167900800001,-35.372275621 149.08165500800001,-35.372035620499993 149.08155302399999,-35.371863607500003 149.081408,-35.37162061 149.081172,-35.371225616499999 149.08085500799999,-35.370693612 149.080708,-35.370445638 149.07895401600001,-35.368306649499992 149.07868700799997,-35.367679647499997 149.07836902400001,-35.367271648500001 149.078152,-35.366990652 149.07762,-35.366377673 149.077249024,-35.365950674499999 149.07720003199998,-35.365911676499998 149.07582304,-35.364475688 149.07524905599999,-35.36369968699999 149.07504505599996,-35.363424684500004 149.074841056,-35.3630856905 149.07463904,-35.362749712 149.074456032,-35.3624457015 149.07300003200001,-35.360130722500003 149.07317804799999,-35.36014173 149.07369302399999,-35.360175714500002 149.073767008,-35.360179710499999 149.074186016,-35.360206702 149.07461500799999,-35.360233712 149.07628396799998,-35.359388687500001 149.07640108800001,-35.359272581500001 149.076478944,-35.359193697500004 149.07690096,-35.358868671 149.07845590400001,-35.3576716655 149.079459872,-35.357218656 149.07954387199999,-35.357121660499999 149.08120787199999,-35.356779928500004 149.08146982400001,-35.356725631 149.08533574399999,-35.355931574 149.085342752,-35.355944579500004 149.086355712,-35.355736584 149.08651795200001,-35.3557025255 149.08658473599996,-35.355892576 149.08685072,-35.356275563 149.08700672000001,-35.356448556499998 149.08718572800001,-35.356607564 149.08756572799999,-35.356851560499997 149.08785468799999,-35.356986555 149.08813068800001,-35.35709256 149.08823068800001,-35.35712956 149.08839968000001,-35.357189537 149.08877168000001,-35.357270548500004 149.08905769599997,-35.357317538499998 149.08944470399999,-35.357336538 149.089763648,-35.357338536 149.091699616,-35.357272509499992 149.09169561600001,-35.357190499 149.09224464,-35.357171499499998 149.092114592,-35.354632504 149.09269555199998,-35.354516509 149.09284355200001,-35.354487501 149.09351356799999,-35.354353487 149.09382857599996,-35.354284482 149.09404752,-35.354228482499998 149.09427254400001,-35.354132486 149.09446854399999,-35.354016491 149.094634528,-35.353885492499998 149.09478352,-35.353729482 149.09523750400001,-35.353154465 149.09539148799999,-35.353236475500005 149.09695248,-35.354065442 149.09709446400001,-35.354153446499993 149.09721545599999,-35.354241451 149.09737648000001,-35.354066441 149.09738547200001,-35.354059448 149.09741648,-35.353973441500003 149.09742601599999,-35.353901624500004 149.10008144,-35.354756417 149.100542432,-35.354904417 149.10054844800001,-35.354906415 149.10055542399999,-35.354945413 149.10070144,-35.355481413500002 149.100891424,-35.356008404500002 149.10113344000001,-35.356543406 149.10120742399999,-35.356667411499998 149.10151542400001,-35.357191405500004 149.10195244799999,-35.35781739 149.10222044799997,-35.35815039 149.102516896,-35.358480004500002 149.10252742399999,-35.3584914005 149.10273244799998,-35.3586954 149.10357344,-35.359531378 149.10384844800001,-35.359846377499998 149.104076448,-35.360133368 149.10433244800001,-35.36049138 149.10459443199997,-35.360907371 149.10538643199999,-35.362353349500005 149.10552342400001,-35.362291356 149.10586342400001,-35.362175361 149.10587344000001,-35.362171346499998 149.10588044799999,-35.362169348500004 149.10589344,-35.362164353499999 149.105900448,-35.362161356500003 149.10591344,-35.362156361499999 149.10592044800001,-35.362154363500004 149.10593043200001,-35.362150349 149.10594044800001,-35.362146353 149.10595043199999,-35.362142357 149.10596044799999,-35.362138361 149.10596944,-35.3621343465 149.105979424,-35.362130350500003 149.10598944,-35.362126354499999 149.105999392,-35.362122358499995 149.10600940800001,-35.362118362499992 149.10601939199998,-35.362114348 149.10602841599999,-35.362110352 149.1060384,-35.36210635599999 149.10604841599999,-35.36210236 149.1060584,-35.362098364 149.106067392,-35.362093350499997 149.10607740799998,-35.362089354499993 149.1060904,-35.362083360500002 149.10609740800001,-35.362080363499999 149.1061064,-35.362076349 149.10611641599999,-35.362072353 149.10612739199999,-35.362067358 149.106135392,-35.362063362 149.106145408,-35.362059347500001 149.10615440000001,-35.362054352500003 149.10616441600001,-35.362050356499999 149.10617340799999,-35.362046360500003 149.10618339199999,-35.362041347 149.106193408,-35.362037351 149.1062024,-35.362032356 149.10621241600001,-35.36202836 149.10622140800001,-35.362023346500003 149.10623139200001,-35.362019350499999 149.10624041599999,-35.362014355500001 149.1062504,-35.362010359500005 149.106260416,-35.362005364499993 149.106269408,-35.36200135 149.106279392,-35.361996355 149.10628841600001,-35.361992359 149.10629939200001,-35.361986346500004 149.10630739199999,-35.361983349500001 149.106317408,-35.361978354500003 149.106327392,-35.361973359499999 149.10633539200001,-35.361969363500002 149.10634540800001,-35.36196435 149.1063544,-35.361960354 149.10636441599999,-35.36195535899999 149.106373408,-35.361950364 149.106384416,-35.361945350500001 149.106393408,-35.361940355500003 149.106403392,-35.3619363595 149.10641241600001,-35.361931364500002 149.10642240000001,-35.36192635099999 149.10643139199999,-35.361921356 149.10644041599997,-35.36191736 149.1064504,-35.361912346499999 149.106459392,-35.361907351500001 149.10646841600001,-35.361903355500004 149.10647641599999,-35.3618983605 149.1064864,-35.361894364500003 149.106495392,-35.361889351 149.106505408,-35.361883357 149.10651539200001,-35.361879361 149.10652339199999,-35.361874347499999 149.106529408,-35.361871350500003 149.106541408,-35.361865356500005 149.106551392,-35.3618603615 149.10656041600001,-35.361855348 149.10656940800001,-35.361850353 149.10658041600001,-35.361845358 149.10658940799996,-35.361840363 149.10659440000001,-35.3618373475 149.1066064,-35.361830354499993 149.10661539200001,-35.361826358500004 149.10662441599996,-35.361821363499992 149.10663340799999,-35.36181635 149.106643392,-35.361811355 149.106652416,-35.36180636 149.10666140800001,-35.361801346499995 149.10667040000001,-35.361796351500004 149.10667939199999,-35.361791356499999 149.106688416,-35.361786361500002 149.1066984,-35.361781348 149.10670739199998,-35.361775354 149.10671641600001,-35.361770359 149.10672540799999,-35.361765364 149.10673539199999,-35.361759351499991 149.106744416,-35.361755355500001 149.10675241600001,-35.361750360499997 149.10676140799998,-35.361745347 149.1067704,-35.361740352 149.10677939199999,-35.361735357 149.10678841599997,-35.361730362 149.10679740800001,-35.361724349500001 149.10681100799999,-35.361717042 149.107106176,-35.361782014 149.107172416,-35.361616328 149.107234336,-35.361508214 149.10727836800001,-35.361431328 149.10738438399997,-35.361299330500003 149.107497376,-35.361188330499999 149.10838812799997,-35.360415992500002 149.10855932799998,-35.360240335 149.10861433599999,-35.360183318 149.10882035199998,-35.359928314 149.10896934399997,-35.359707313 149.10909830400001,-35.35947832 149.109621312,-35.358361327 149.10963632,-35.358367321 149.10966230400001,-35.358369319 149.10968700800001,-35.358364971500002 149.10971795200001,-35.358349043 149.10973926400001,-35.35832532599999 149.10975228800001,-35.35829432 149.10975216,-35.358257967500002 149.10974028800001,-35.358227313 149.109722272,-35.358204317499997 149.109699968,-35.358191016 149.11022809599999,-35.357063034 149.110450208,-35.356590174 149.11045417599999,-35.356581812 149.110458112,-35.356573431499996 149.11046208,-35.3565650695 149.11046604800001,-35.356556615 149.11047036799999,-35.356548234500004 149.11047433600001,-35.356539965 149.11047827199999,-35.356531584500004 149.11048259200001,-35.356523222500002 149.11048656,-35.356514842 149.11049088,-35.356506572500003 149.110494848,-35.356498192 149.11049916799999,-35.356489922500003 149.11050348799998,-35.356481727 149.11050745599999,-35.356473365 149.11051177600001,-35.356465077 149.110516096,-35.356456807500003 149.11052041600001,-35.35644861199999 149.110524736,-35.356440324 149.11052905599999,-35.356432054499997 149.11053337600001,-35.356423766500001 149.11053804799997,-35.356415571 149.11054236800001,-35.356407394 149.110546688,-35.356399106 149.11055136,-35.356390929 149.11055568,-35.356382733499998 149.11056035199996,-35.356374538 149.11056505599998,-35.356366342500003 149.110569376,-35.356358165499998 149.11057404799999,-35.356350062499999 149.11057872000001,-35.356341867 149.110583392,-35.356333597500004 149.11058809599999,-35.356325494499998 149.110592768,-35.356317391499999 149.11059744,-35.3563092885 149.11060211200001,-35.356301185500001 149.11060681599997,-35.356293082499995 149.11061148799999,-35.356284998 149.11061651200001,-35.35627689499999 149.110621216,-35.356268792 149.11062624,-35.356260781499998 149.110630912,-35.356252678499999 149.110635968,-35.356244668 149.11064064000001,-35.356236657499998 149.11064569600001,-35.356228647 149.11065072,-35.356220636499998 149.11065577599996,-35.356212626 149.11066080000001,-35.356204615500005 149.110665856,-35.356196512499999 149.11067088,-35.356188594500004 149.11067593599998,-35.356180584 149.11068096,-35.356172666 149.11068601599999,-35.356164748 149.11069139199998,-35.35615683 149.110696448,-35.356148912 149.11070147199999,-35.356140994 149.11070688000001,-35.356132983500004 149.110711936,-35.356125065500002 149.11071731199999,-35.3561172215 149.11072272000001,-35.356109303499998 149.110727776,-35.356101478 149.11073315199997,-35.3560936525 149.11073856,-35.356085734499999 149.11074396800001,-35.356077909 149.110749376,-35.356070065 149.11075475199999,-35.356062239499998 149.11076016000001,-35.356054506500001 149.11076556800001,-35.356046662499999 149.110771328,-35.356038837 149.11077673599999,-35.356031104 149.11078211200001,-35.356023352500003 149.11078787199997,-35.356015619499999 149.11079328,-35.356007886500002 149.11079904,-35.3560000425 149.11080444800001,-35.355992309500003 149.110810208,-35.355984669 149.110815968,-35.355976917500001 149.11082172799996,-35.355969184500005 149.11082713600001,-35.3559615255 149.11083289600001,-35.355953885 149.110838656,-35.355946226 149.11084441599999,-35.355938678 149.11085017600001,-35.355930926500001 149.11085628799998,-35.355923286 149.110862048,-35.355915719500004 149.11086780799999,-35.355908153 149.11087356799999,-35.3559005125 149.11087968000001,-35.355892946 149.11088544,-35.355885398 149.110891552,-35.355877831500003 149.11089731199999,-35.355870265 149.11090345599999,-35.35586271699999 149.11090956800001,-35.35585524299999 149.110915328,-35.355847676499998 149.11092144,-35.355840202499998 149.11092755199999,-35.355832747 149.11093369599999,-35.355825180499991 149.11093980800001,-35.355817706499991 149.11094592000001,-35.355810325 149.110952032,-35.355802777 149.110958176,-35.355795395500003 149.11096428799999,-35.355788014 149.11097075199999,-35.3557806325 149.11097689600001,-35.3557731585 149.11098300800001,-35.355765777 149.110989472,-35.355758488 149.110995616,-35.355751014 149.11100208,-35.355743725 149.11100857599999,-35.355736436 149.11101468799998,-35.355729054500003 149.11102115200001,-35.3557217655 149.111027648,-35.355714476500005 149.111034112,-35.355707187499995 149.111040608,-35.355699898499992 149.11104707199999,-35.355692609500004 149.11105356799999,-35.355685413 149.11106003200001,-35.355678216500003 149.11106652800001,-35.3556709275 149.111072992,-35.355663712500004 149.111079488,-35.355656608499999 149.111086336,-35.355649319500003 149.1110928,-35.355642215499998 149.11109929599999,-35.355635019 149.11110611199999,-35.355627896500003 149.11111260800001,-35.3556207 149.11111945600001,-35.35561359599999 149.11112627200001,-35.355606473499996 149.11113312,-35.355599369499998 149.111139616,-35.355592358 149.111146432,-35.355585235500001 149.11115328,-35.355578224 149.11116012799997,-35.355571194 149.11116697599996,-35.35556409 149.11117379199999,-35.355557078499999 149.11118064,-35.3555500485 149.11118748799998,-35.355543111 149.11119433599998,-35.355536099499993 149.11120153600001,-35.355529162 149.11120835200001,-35.355522150500001 149.1112152,-35.355515213 149.1112224,-35.355508294 149.11122924799997,-35.355501449 149.11123644799997,-35.355494437499999 149.11124364799997,-35.355487592500005 149.111250496,-35.355480747499996 149.111257696,-35.355473902499995 149.11126489599999,-35.355466983500001 149.11127209599999,-35.355460231 149.11127891199999,-35.355453386 149.11128611199996,-35.355446541 149.11129331199996,-35.355439714500001 149.11130051200001,-35.355433054500004 149.11130771200001,-35.355426302 149.11131529599999,-35.355419549499992 149.11132249600001,-35.355412797 149.11132969600001,-35.3554060445 149.11133689600001,-35.355399384500004 149.11134444800001,-35.355392632 149.11135164800001,-35.355385972 149.11135920000001,-35.355379312 149.11136640000001,-35.35537265199999 149.11137395200001,-35.355365992 149.11138115200001,-35.355359332 149.11138873600001,-35.355352857 149.11139628800001,-35.355346197 149.11140348800001,-35.355339629500001 149.11141104000001,-35.35533306199999 149.11141859200001,-35.355326494499998 149.11142617600001,-35.355320001 149.11143372800001,-35.355313433500001 149.11144128000001,-35.355306958500002 149.11144883200001,-35.355300391 149.11145641599998,-35.35529391599999 149.11146396799998,-35.355287515 149.11147187200001,-35.35528104 149.11147945600001,-35.355274657500004 149.11148700800001,-35.355268164 149.11149491200001,-35.355261781499998 149.11150249600001,-35.355255399 149.1115104,-35.355248998 149.11151795200001,-35.355242708 149.11152588799999,-35.355236307 149.11153379199999,-35.355230017 149.11154137599999,-35.355223616 149.11154928,-35.355217326 149.11155721599999,-35.35521111 149.11156512,-35.355204801500001 149.111573056,-35.355198511499999 149.111580608,-35.355192295499997 149.111588512,-35.355186098 149.111596448,-35.355179882 149.111604736,-35.355173666 149.11161264,-35.355167468499999 149.11162057600001,-35.35516134499999 149.11162848000001,-35.355155221499999 149.11163641599998,-35.355149005500003 149.11164467200001,-35.355142974499998 149.11165260800001,-35.355136851 149.11166089599999,-35.355130746 149.1116688,-35.355124715 149.11167708799999,-35.355118591500002 149.11168499199999,-35.355112560500004 149.11169328,-35.355106529499999 149.111701216,-35.355100498500001 149.111709472,-35.355094467500003 149.11171776,-35.355088621500002 149.11172604800001,-35.355082590499997 149.11173433600001,-35.355076652 149.11174259200001,-35.355070621 149.11175052799999,-35.355064775 149.11175881599999,-35.3550588365 149.11176707199999,-35.355052972 149.111775712,-35.355047126 149.111784,-35.35504128 149.111792288,-35.355035434 149.11180057600001,-35.35502966199999 149.11180921599998,-35.355023816 149.11181747200001,-35.35501797 149.11182576,-35.355012216499993 149.1118344,-35.355006537 149.111842688,-35.355000783500003 149.11185132799997,-35.354995011500002 149.111859616,-35.354989258 149.11186825600001,-35.354983671 149.11187651200001,-35.354977917500001 149.11188515200001,-35.354972256499998 149.11189379199999,-35.354966669499994 149.11190243199999,-35.354961082500004 149.11191072,-35.354955421500001 149.11191936,-35.354949834500005 149.111928,-35.354944173500002 149.11193664000001,-35.354938679 149.11194528,-35.354933184499998 149.11195392,-35.354927616 149.11196256,-35.354922029 149.111971552,-35.354916627 149.111980192,-35.3549111325 149.11198883200001,-35.354905656500001 149.11199747199998,-35.354900162 149.11200649599999,-35.35489476 149.112015136,-35.354889450500004 149.11202377599997,-35.354883956 149.11203276800001,-35.354878554 149.11204140800001,-35.354873244499991 149.1120504,-35.354867935 149.11205904,-35.354862625500004 149.112068032,-35.35485731599999 149.112076672,-35.354852006500003 149.11208569599998,-35.354846697 149.11209468800001,-35.35484148 149.11210332799999,-35.354836263 149.11211232,-35.354830953499999 149.112121312,-35.354825736500004 149.11213033600001,-35.354820593500001 149.11213932800001,-35.3548153765 149.11214832,-35.35481025199999 149.11215731199997,-35.354805127500001 149.112166336,-35.354799984499998 149.11217532800001,-35.35479486 149.11218432000001,-35.354789828 149.11219369599999,-35.354784685 149.112202688,-35.354779745500004 149.11221168,-35.354774695 149.11222067200001,-35.354769663 149.11223004799999,-35.354764612499991 149.11223904,-35.354759673 149.112248032,-35.354754622500003 149.112257408,-35.354749683 149.1122664,-35.354744817499999 149.11227577599999,-35.354739952 149.11228512,-35.354735012500001 149.112294112,-35.354730147 149.11230348800001,-35.354725281499995 149.11231248000001,-35.354720434500003 149.11232185599999,-35.354715569 149.1123312,-35.354710796 149.11234057600001,-35.354706023 149.11234992,-35.354701268500001 149.11235891199999,-35.354696495500001 149.112368288,-35.3546917225 149.112377632,-35.354687042 149.11238700800001,-35.354682269 149.11239635199999,-35.354677588499996 149.112405728,-35.354672908 149.112415072,-35.354668412500004 149.11242480000001,-35.354663732 149.11243417599999,-35.354659144 149.11244352,-35.354654556 149.11245289600001,-35.354649968 149.11246259200001,-35.354645361500005 149.11247196799999,-35.354640866 149.112481312,-35.354636278 149.11249104000001,-35.3546317825 149.11250041599999,-35.354627287 149.11251011199997,-35.354622865499998 149.112519488,-35.35461837 149.11252921600001,-35.354613967 149.11253856,-35.354609638 149.112548288,-35.354605235 149.11255763199998,-35.354600813499992 149.11256736000001,-35.354596503 149.11257708799999,-35.354592174 149.112586816,-35.354587863500001 149.11259616000001,-35.354583534500001 149.11260588799999,-35.354579224 149.112615616,-35.354574987500001 149.11262531200001,-35.354570677 149.11263504,-35.354566440500001 149.112644768,-35.354562296499999 149.112654496,-35.354558078499998 149.11266419200001,-35.354553934500004 149.11267392,-35.354549790500002 149.112683648,-35.354545739 149.11269337600001,-35.354541595 149.11270307199999,-35.354537377 149.1127128,-35.354533418 149.11272252799998,-35.354529366500003 149.11273260799999,-35.354525315 149.112742336,-35.354521263499997 149.112752032,-35.3545173045 149.11276211200001,-35.354513345499996 149.11277184,-35.354509294 149.112781568,-35.354505427499994 149.11279164799998,-35.354501468500004 149.11280137599999,-35.354497583499999 149.11281145599997,-35.354493624500002 149.11282115200001,-35.354489758 149.11283123199999,-35.354485984 149.11284096,-35.354482117499991 149.11285104000001,-35.354478325 149.11286112,-35.3544744585 149.112870848,-35.354470777 149.11288092800001,-35.3544669845 149.11289100799999,-35.354463210500001 149.112900736,-35.354459529 149.11291081600001,-35.354455829 149.11292089599999,-35.354452147499998 149.112930976,-35.354448447500005 149.11294105600001,-35.354444858500003 149.11295113599999,-35.354441251 149.112961216,-35.354437643499999 149.11297091200001,-35.354434054500004 149.11298099199999,-35.354430539500001 149.112991072,-35.354426932 149.11300115200001,-35.354423435500003 149.11301123199999,-35.354419920499993 149.11302131199997,-35.354416498 149.11303139200001,-35.354413075499991 149.11304147199999,-35.354409579 149.11305193600001,-35.354406156499998 149.11306201599999,-35.354402826499999 149.113072096,-35.354399404 149.11308217600001,-35.354396074 149.11309225599999,-35.354392744 149.11310233599997,-35.354389414 149.11311276800001,-35.354386084 149.11312284799999,-35.354382846500002 149.113132928,-35.354379609 149.11314300800001,-35.354376353 149.11315344,-35.354373115499996 149.11316352,-35.354369878 149.11317395200001,-35.354366640500004 149.11318403199999,-35.354363495500003 149.11319411199997,-35.354360332 149.11320457599999,-35.354357187 149.113214656,-35.354354134499999 149.11322508800001,-35.354350971 149.11323552,-35.354347918500004 149.1132456,-35.3543449585 149.11325603199998,-35.354341887499999 149.11326649599999,-35.354338927500002 149.113276576,-35.354335949 149.11328700799999,-35.354332989 149.11329744,-35.3543300105 149.11330752000001,-35.35432703199999 149.11331795199999,-35.354324164499999 149.113328416,-35.354321278500002 149.11333849600001,-35.354318392499998 149.11334892799999,-35.354315617499999 149.11335936,-35.354312731500002 149.11336979199999,-35.354309938 149.113380256,-35.354307144499998 149.11339068800001,-35.354304277 149.11340112,-35.354301576 149.113411552,-35.354298875 149.11342201599999,-35.354296174 149.113432096,-35.354293473 149.11344288000001,-35.354290772 149.11345331199999,-35.354288163500001 149.113463776,-35.354285555 149.11347420800001,-35.3542829465 149.11348464,-35.354280338 149.11349507200001,-35.354277711 149.11350553599999,-35.354275195 149.113515968,-35.354272679 149.11352640000001,-35.3542700705 149.113537216,-35.354267647 149.11354764800001,-35.354265112499995 149.11355808,-35.354262689 149.113568512,-35.354260265500002 149.11357897599999,-35.354257823499999 149.11358976,-35.354255492500002 149.11360019200001,-35.354253143 149.11361065599999,-35.354250812 149.11362144,-35.354248462500003 149.11363187200001,-35.354246131499998 149.113642688,-35.3542438745 149.11365312000001,-35.354241543500002 149.11366355199999,-35.354239286500004 149.11367436800001,-35.354237048 149.1136848,-35.354234883499998 149.113695616,-35.354232719 149.11370604800001,-35.354230554499999 149.11371683199999,-35.354228408499999 149.11372729600001,-35.354226244 149.11373808,-35.354224172 149.113748512,-35.3542221 149.11375932799999,-35.354220028 149.11376976,-35.354217863499997 149.11378057600001,-35.354215884 149.11379136,-35.3542139045 149.11380179199998,-35.354211925 149.11381260799999,-35.354209945499996 149.11382339199997,-35.354207966 149.11383385600001,-35.354206079 149.11384464,-35.354204192 149.11385545599998,-35.354202305 149.11386588799999,-35.354200492 149.113876672,-35.354198512499998 149.11388748799999,-35.354196718 149.113898272,-35.354194923500003 149.11390873600001,-35.354193203 149.11391952,-35.3541914085 149.11393033600001,-35.354189706500001 149.11394112,-35.354187986 149.11395193599998,-35.35418628399999 149.11396272,-35.354184563499999 149.11397353599997,-35.3541828615 149.11398396800001,-35.3541812335 149.113994752,-35.354179624 149.11400556800001,-35.354178088499999 149.11401635199999,-35.354176479 149.11402716800001,-35.354174943499999 149.11403795199996,-35.354173408 149.114048768,-35.354171872500004 149.11405955199999,-35.354170355499996 149.11407036799997,-35.3541689125 149.11408115200001,-35.354167469499998 149.114091968,-35.354166026500003 149.11410275200001,-35.354164583500001 149.11411356799999,-35.35416323299999 149.114124352,-35.354161882500001 149.11413516799999,-35.354160532 149.114145952,-35.354159107500003 149.11415676799999,-35.354157831 149.114167552,-35.354156573 149.11417836800001,-35.35415531499999 149.11418915199997,-35.354154057 149.11419996800001,-35.354152799 149.11421113599999,-35.354151633500003 149.114221568,-35.354150468 149.11423273599999,-35.354149284 149.11424352,-35.354148118499999 149.11425433599999,-35.354146953 149.11426512,-35.354145861500001 149.11427593600001,-35.354144788500001 149.11428672,-35.354143808 149.11429788800001,-35.3541427165 149.11430867199999,-35.354141736 149.11431948799998,-35.354140644499999 149.11433027199999,-35.354139664 149.11434144,-35.354138757500003 149.11435225599999,-35.354137777 149.11436304,-35.3541368705 149.11437385599999,-35.354136056500003 149.11438464,-35.354135168500001 149.11439580800001,-35.354134262 149.11440659199999,-35.354133355500004 149.11441740800001,-35.354132634 149.11442857599999,-35.354131838500003 149.11443936000001,-35.354131024499992 149.11445017599996,-35.354130303 149.11446096,-35.354129581500004 149.11447212799996,-35.354128952499998 149.114482912,-35.354128231 149.11449372800001,-35.354127509500003 149.114504512,-35.354126880500004 149.11451568000001,-35.354126251499999 149.11452649599997,-35.3541256225 149.11453763200001,-35.354125086 149.11454844799999,-35.354124531 149.114559232,-35.354123994499993 149.11457004799999,-35.354123458 149.11458121599998,-35.3541229215 149.114592,-35.354122477499999 149.11460316799997,-35.354122015 149.11461395200001,-35.354121571 149.114624768,-35.354121201 149.11463593600001,-35.354120757 149.11464672,-35.354120405499998 149.11465753599998,-35.354119943 149.11466867199999,-35.354119684 149.11467948800001,-35.354119406500004 149.11469065599999,-35.354119055 149.11470144,-35.35411887 149.11471225599999,-35.354118592500001 149.11472304,-35.354118333500004 149.11473420799999,-35.3541181485 149.114744992,-35.354117871 149.11475616000001,-35.354117797 149.114766976,-35.354117612 149.11477776000001,-35.354117519500001 149.114788928,-35.354117427 149.11479971200001,-35.354117334500003 149.11481088,-35.354117334500003 149.11482169600001,-35.354117242 149.11483248,-35.354117242 149.11507043200001,-35.354116983 149.11522784,-35.354115688 149.11895011199999,-35.359503202500001 149.12060819199999,-35.365069205 149.121832224,-35.369178184500001 149.122080256,-35.370011184</coordinates></LinearRing></outerBoundaryIs></Polygon>

	</Placemark>
</kml>