<?xml version="1.0" encoding="UTF-8"?>
<kml xmlns="http://www.opengis.net/kml/2.2">
	<Placemark>
		<Style>
			<LineStyle>
				<color>ff0000ff</color>
			</LineStyle>
			<PolyStyle>
				<fill>1</fill>
				<color>330000cc</color>
			</PolyStyle>
		</Style>
			<ExtendedData><SchemaData>
		<SimpleData name="STATE_2006">1</SimpleData>
		<SimpleData name="POA_2006">2327</SimpleData>
	</SchemaData></ExtendedData>
      <Polygon><outerBoundaryIs><LinearRing><coordinates>151.50039526399999,-32.8184836545 151.499916,-32.820097002499999 151.499808,-32.820456994 151.49958700799999,-32.821080999 151.49943100799999,-32.821383992 151.499388,-32.821443007 151.49930998400001,-32.821545996499992 151.49878201600001,-32.8221029945 151.49875699200001,-32.822124991 151.49860099200001,-32.822252992500005 151.49848604799999,-32.822349655 151.498370048,-32.822447649499992 151.49781408,-32.822914682 151.49790505599998,-32.822973678499999 151.498087072,-32.823235657 151.498168064,-32.823351652 151.49836406399999,-32.823634665 151.49847907199998,-32.823799648 151.49858608,-32.823954659500004 151.498695072,-32.824110651499993 151.49880307199999,-32.824266662 151.498911072,-32.824422654 151.49901907200001,-32.824577665500001 151.49912608,-32.824732658500004 151.49923408000001,-32.8248886505 151.49934208,-32.825042663 151.49897305600001,-32.825225665 151.49872208,-32.825349652 151.49865907200001,-32.825259649499998 151.49861606399998,-32.825280665500003 151.49859305599998,-32.8252926535 151.498112096,-32.825532654 151.497898112,-32.825643654 151.49784108799997,-32.825673661 151.49775411199997,-32.825718653 151.49771510399998,-32.825738651500004 151.497683104,-32.825754654 151.49759011200001,-32.825800663500004 151.49740908800001,-32.825899657 151.497224096,-32.825988679 151.49509017599999,-32.827041680500002 151.49500816,-32.827082676499998 151.49304518400001,-32.828049671500004 151.493011008,-32.828280995500002 151.49296899199999,-32.828276000500004 151.49163401600001,-32.828084007500003 151.490664,-32.827911994499999 151.489655008,-32.827733007 151.48904899199999,-32.82762600299999 151.488970016,-32.8276080025 151.488891008,-32.827588004 151.488744,-32.827544991499998 151.48866,-32.827517001 151.48852099199999,-32.827465996500003 151.48845299199999,-32.827439005 151.48838499199999,-32.827408998 151.48832,-32.827377992 151.488224992,-32.827328005 151.488179008,-32.827300995 151.488134016,-32.8272730045 151.488092,-32.827242997500001 151.48810227199999,-32.827433714 151.48802828800001,-32.827684703500005 151.48792828800001,-32.827854718499999 151.48789328000001,-32.827894715500001 151.48772630400001,-32.828030709 151.487448,-32.828169995499998 151.48739699199999,-32.828205996500003 151.487377632,-32.828218151 151.487338016,-32.828238001500004 151.48727500800001,-32.828264993 151.48720899200001,-32.828284991499999 151.487088288,-32.828347706500004 151.48438435200001,-32.829687735500002 151.48428336000001,-32.830157728 151.48425936000001,-32.830267729 151.48403932799999,-32.831298937500002 151.48577136,-32.831564708500004 151.485649376,-32.832127719 151.48552838399996,-32.832689712 151.48540739200001,-32.833252704 151.48528640000001,-32.833814715500004 151.485165408,-32.834376708500002 151.48504441599999,-32.834940718 151.48485843200001,-32.83491171 151.482711008,-32.834582003 151.48269513599999,-32.834676852500003 151.480678496,-32.834377726 151.48014348800001,-32.8342907575 151.477829504,-32.833940756 151.47508582399999,-32.833524802 151.475081504,-32.829687772500002 151.47465251200001,-32.82903278 151.47388252799999,-32.828271782500003 151.47329651199999,-32.82798679 151.478478432,-32.826981759 151.47858643199996,-32.826960761500004 151.47876243199997,-32.826927776 151.478940416,-32.826892774 151.47912441599999,-32.826857772 151.479299424,-32.826823750500004 151.47948640000001,-32.826787749499999 151.47966438399999,-32.826753746500003 151.479841376,-32.8267197435 151.48002537599999,-32.826683742500002 151.4802024,-32.826649758 151.48036339199996,-32.826618752 151.480413376,-32.826623747 151.480673376,-32.826649758 151.480941376,-32.826675750500002 151.48118339199999,-32.826699745 151.481649344,-32.826745754500003 151.48174601599999,-32.826778 151.481955008,-32.826819995 151.48207289600001,-32.826852666 151.48210899200001,-32.826815 151.48213625599996,-32.826790857500001 151.482719008,-32.826240001500004 151.482743008,-32.826214009 151.482764992,-32.826186999 151.482804,-32.826130000499994 151.48283801599999,-32.826068007 151.48285299200001,-32.826034004 151.482864992,-32.825999002 151.48287500800001,-32.825964 151.48288099199999,-32.825928998 151.482884,-32.825873997500004 151.48288201599999,-32.825840993500002 151.48287299200001,-32.825792005499999 151.48286300800001,-32.825761998499999 151.48284300799997,-32.8257170065 151.482831232,-32.8256838175 151.48274633599999,-32.825469754 151.48157936000001,-32.825321754 151.47995040000001,-32.825127744500001 151.4795584,-32.825080773 151.478703392,-32.824950773499999 151.47728940799996,-32.824736765499992 151.475945408,-32.824535781500003 151.47580643199998,-32.824514784 151.47304649599999,-32.824090801 151.47300748800001,-32.824084807 151.47273747200001,-32.824045809 151.472043488,-32.8239438 151.469134688,-32.823486313499998 151.46859801599999,-32.823674995 151.468536,-32.823693994500005 151.46847299199999,-32.823710996 151.468408,-32.823725000499998 151.468344,-32.823737007 151.468278016,-32.823745998 151.46824099200001,-32.823748995 151.46815900799999,-32.823749994 151.468128992,-32.823751992 151.468116,-32.823757005499999 151.467124,-32.823819998 151.466970592,-32.823824826500001 151.46738057600001,-32.82444182 151.467339584,-32.824458821500002 151.46730259200001,-32.824476822 151.46726758400001,-32.824496820500002 151.46723257599999,-32.824516819 151.46719657599999,-32.824536817500004 151.46713158399999,-32.824571819500001 151.467003584,-32.824644820499998 151.46694156800001,-32.8246848175 151.46684201599999,-32.824764996500001 151.46672758400001,-32.824882823 151.466688576,-32.824921821 151.466653568,-32.824951828 151.46661459200001,-32.824979818500005 151.46657756799996,-32.825007827500002 151.46654358399999,-32.825038815 151.466517568,-32.825073817 151.46650457600001,-32.825101826 151.46649459199998,-32.825131814500004 151.46648758399999,-32.825162820500005 151.46647958400001,-32.825194825499999 151.46632358400001,-32.825499816499999 151.46593161600001,-32.825665835500004 151.46586860799999,-32.8256998385 151.4658416,-32.825722834 151.46581462399999,-32.825747846 151.4657896,-32.825774837499999 151.465766624,-32.825802846500004 151.4657456,-32.825831836 151.465674624,-32.825849836499998 151.46565660799999,-32.825853851 151.4656056,-32.825863841 151.465552608,-32.825870834 151.46549961599999,-32.825877845499996 151.4654496,-32.825887835499998 151.46540160000001,-32.825903838 151.46536860800001,-32.8259208395 151.46527801600001,-32.825984997500001 151.46492860800001,-32.826214841500004 151.463549632,-32.826030840500003 151.462110688,-32.825838866 151.46187353600001,-32.825818978500003 151.46198,-32.825483999 151.46232864000001,-32.824158862499999 151.46235865599999,-32.824004868499991 151.46273062399999,-32.8221238625 151.463078016,-32.820341998 151.46326956799999,-32.819363866 151.46347401599999,-32.818317006500003 151.463715552,-32.81707586 151.46388652799999,-32.81614886199999 151.46390352,-32.816060857499998 151.46393251200001,-32.815926862 151.464046432,-32.815918185500003 151.46406851200001,-32.815825852 151.46406950400001,-32.815815862 151.46407852799999,-32.815736867 151.46408051200001,-32.815714852 151.464096512,-32.815637855 151.46413350399999,-32.815457868499998 151.46413952,-32.815426862500004 151.46417852799999,-32.8152388655 151.464074528,-32.81522586 151.46406300800001,-32.815228006 151.46407952000001,-32.815197869500004 151.46418352000001,-32.814717868500004 151.46436947199999,-32.813834863499999 151.464552,-32.812955003500001 151.464746464,-32.812016868500002 151.46492544,-32.811145851500001 151.46494099200001,-32.8110710005 151.46512144,-32.810189864 151.46530243199999,-32.809296850500004 151.46547340800001,-32.808441836 151.46548140799999,-32.80840084 151.46564739199999,-32.807582844 151.46566339200001,-32.80750285 151.465915008,-32.806611002 151.46615299199996,-32.805766995 151.46676,-32.8058559985 151.46729398400001,-32.805934993500003 151.469394016,-32.806238005 151.47116201599999,-32.806491991500003 151.47203100799999,-32.806608005 151.473928992,-32.806860992499999 151.47403801600001,-32.806870002 151.474119008,-32.806880991 151.474199008,-32.806896993500004 151.474279008,-32.806914994 151.474358016,-32.806935991499998 151.474436,-32.806959005499998 151.47455100799999,-32.806997004499998 151.47460700799999,-32.807018002 151.47464700800001,-32.807035003499998 151.474716,-32.807065991 151.47477801599999,-32.807100993 151.476268992,-32.808026992 151.47637452800001,-32.808142358 151.47652,-32.808301994499999 151.476628992,-32.808422004 151.476722016,-32.8085239945 151.47677001599999,-32.808576997 151.47720521599999,-32.809009786 151.4799,-32.811151993499998 151.479916,-32.811147997500001 151.47995401599999,-32.811148996500002 151.47999001599999,-32.811158006 151.48002099199996,-32.811176006499998 151.48004601599999,-32.811200001 151.48006099200001,-32.811230008 151.48006300799997,-32.811241996 151.4803232,-32.811149773499999 151.481004192,-32.810913750499992 151.48158217599999,-32.81071075 151.482815136,-32.810273743 151.48453609599997,-32.809669736499998 151.48700499200001,-32.808804991 151.489084,-32.808074999500001 151.48909190399999,-32.80808449 151.489104,-32.808098994 151.48912201600001,-32.808109002500004 151.48914300800001,-32.808114996500002 151.48916499200001,-32.808114996500002 151.489184,-32.808110001499998 151.489204,-32.808099993 151.48921900799999,-32.808086007 151.489228,-32.808070004500003 151.48923100799999,-32.808052004 151.48922899199999,-32.808033004500004 151.489224992,-32.808025993 151.489307008,-32.807997706500004 151.489348992,-32.807982721500004 151.489383008,-32.807971714 151.49005699199998,-32.807735006500003 151.490497984,-32.807580698 151.49069398399999,-32.807512692 151.49092096000001,-32.807444686 151.49175497600001,-32.807186685 151.49346192,-32.806581679499999 151.49378300800001,-32.806468996 151.494044,-32.806296002499998 151.494362016,-32.806241002 151.494632,-32.806151998499999 151.49519340800001,-32.806191292499996 151.49863500800001,-32.806754007 151.49943500800001,-32.806883007499998 151.49940784,-32.806945648500005 151.50035299199999,-32.809106004500002 151.50045283200001,-32.8093346645 151.50113984,-32.811190658500003 151.502000864,-32.8132456385 151.50200288,-32.813250633500004 151.50195187199998,-32.813430638500002 151.50175987199998,-32.814065651 151.501568,-32.814692005499992 151.50125184000001,-32.81572499 151.50120201600001,-32.815889991500001 151.50113990400001,-32.816090661 151.50109900800001,-32.816198997 151.50067900799996,-32.817526002 151.50056601599999,-32.817906991 151.50039526399999,-32.8184836545</coordinates></LinearRing></outerBoundaryIs></Polygon>

	</Placemark>
</kml>