<?xml version="1.0" encoding="UTF-8"?>
<kml xmlns="http://www.opengis.net/kml/2.2">
	<Placemark>
		<Style>
			<LineStyle>
				<color>ff0000ff</color>
			</LineStyle>
			<PolyStyle>
				<fill>1</fill>
				<color>330000cc</color>
			</PolyStyle>
		</Style>
			<ExtendedData><SchemaData>
		<SimpleData name="STATE_2006">1</SimpleData>
		<SimpleData name="POA_2006">2117</SimpleData>
	</SchemaData></ExtendedData>
      <Polygon><outerBoundaryIs><LinearRing><coordinates>151.0652016,-33.796512443 151.06525849600001,-33.796654116 151.06529772799999,-33.796751315 151.06532112,-33.796784522499998 151.06534739200001,-33.796816564499998 151.06556448000001,-33.797062448 151.065667808,-33.797173688500003 151.06570092800001,-33.797211484 151.06573116799999,-33.79725063 151.06576931199999,-33.797307869 151.065803168,-33.797367457500002 151.065833408,-33.797428563 151.06588704000001,-33.797552846 151.06591043200001,-33.797614414 151.06591116799999,-33.797616208500003 151.06593276800001,-33.797680292500004 151.06595184,-33.797745098 151.065968416,-33.797810255 151.065982432,-33.797875597 151.066005856,-33.79986368099999 151.06454892799999,-33.800200381 151.064407456,-33.800230073500003 151.06382137599999,-33.800350046 151.06365072,-33.800383975 151.06352112,-33.800409801 151.06330979200001,-33.799647323500004 151.062826688,-33.7997396755 151.06273273599999,-33.799766852 151.06264163200001,-33.799800059499994 151.06255379199996,-33.799838946500003 151.06246992000001,-33.799883494500001 151.06241628800001,-33.799916073 151.06236480000001,-33.799950631 151.06229603200001,-33.8000040035 151.06221216,-33.800081222500005 151.061980672,-33.800337003499997 151.06193891199999,-33.800376242 151.06182371200001,-33.800465079 151.06172185599996,-33.80052590699999 151.061612416,-33.800576763500004 151.06155516800001,-33.8005984455 151.06146659199999,-33.800625363 151.060846688,-33.800760635 151.05848976,-33.801274343 151.05737232000001,-33.801517895499998 151.057510912,-33.802061851 151.05619584,-33.8023204255 151.055816416,-33.80239548 151.056057248,-33.803131317500004 151.056267488,-33.803772657 151.05644137600001,-33.804303218500003 151.05657779200001,-33.804719635 151.05652704,-33.804726572500002 151.05614220800001,-33.804812061 151.055322848,-33.804994045500003 151.05520368,-33.805032396 151.05507049600001,-33.805075223499998 151.0542288,-33.805258743499998 151.054198208,-33.805137957 151.05412585600001,-33.804904598 151.05409705599996,-33.80486301 151.05406284799997,-33.804824049 151.05404412799999,-33.804805956 151.05400848,-33.804776152500004 151.05398905600001,-33.804762203500005 151.05394835199999,-33.804737376499993 151.05391811199999,-33.804723057499992 151.05388643200001,-33.804710736499999 151.05385296,-33.804700191500004 151.05378528,-33.804683467499999 151.05371184000001,-33.804671405500002 151.05363696000001,-33.804665911 151.05359952000001,-33.804665726 151.05363408,-33.804154719 151.053674048,-33.803558908 151.05367728,-33.803412036499999 151.05369241599999,-33.803253991 151.05346227199996,-33.802811304500004 151.05313513600001,-33.802055191 151.05213180800001,-33.802332117500001 151.05115801599999,-33.802600238 151.05105900800001,-33.802626878 151.05057049600001,-33.803001632499999 151.05022272,-33.802683932 151.05018816,-33.802660622 151.05012192000001,-33.802634167 151.05006396799999,-33.80262525 151.04999088,-33.802630374499998 151.04994876800001,-33.8026419925 151.04992249599999,-33.802653055500002 151.04987532800001,-33.802682581500001 151.04985516799999,-33.802700582 151.04917513599997,-33.803221764 151.04914668800001,-33.803248496500004 151.04913120000001,-33.803268476500001 151.04911859200001,-33.803289807 151.04910528,-33.803323828499998 151.04909952,-33.803359200500005 151.049101312,-33.8033948315 151.04918809599999,-33.80369418 151.049025376,-33.803728294 151.048897216,-33.803740522499993 151.04881945599999,-33.803739172 151.04874240000001,-33.803731087500005 151.04861785599999,-33.803703004500001 151.04854620799998,-33.803677807500002 151.048478528,-33.803646653500003 151.04788345599999,-33.803313561 151.04771027199999,-33.803445503 151.047623872,-33.8035152665 151.04757744,-33.803547216 151.047504,-33.80359113499999 151.04737260799999,-33.8036522405 151.04708352,-33.803743316 151.04726352,-33.804120864 151.047293408,-33.804203577500004 151.04608992,-33.804437935500005 151.04593872000001,-33.8044734 151.04583072,-33.804498782 151.045719136,-33.804524885500001 151.04560595199999,-33.804551155499993 151.04605212800001,-33.804787326499998 151.04608380799999,-33.804902341 151.04618387199997,-33.805032303499999 151.04621808,-33.805062366 151.04643481599999,-33.805323364 151.04649996799998,-33.805467368 151.04653817600001,-33.805547972500001 151.046412,-33.805647003 151.04629900799998,-33.805736006499998 151.04615001599998,-33.805829006 151.04562,-33.805755006 151.04531500799999,-33.805713991499999 151.044848,-33.805652997 151.04442201599997,-33.805595998500003 151.04424601599996,-33.805573003 151.044064,-33.805549008500002 151.043884,-33.805523996499993 151.043746016,-33.805503998 151.043646016,-33.805488994500003 151.04364700799999,-33.805483999499998 151.04360099199999,-33.805478005499999 151.043274016,-33.805435992 151.04316467199999,-33.8054222835 151.04295721599999,-33.806445037499998 151.04199923199999,-33.806308415 151.04140524799999,-33.806223981 151.040208256,-33.806060903500004 151.04009449599999,-33.806045604 151.03968803199999,-33.805996745500003 151.03966499200001,-33.805992324 151.03901881600001,-33.805902599 151.03858572799996,-33.805842566500004 151.03711440000001,-33.805637901 151.036992736,-33.805621084500004 151.03655929599998,-33.805561237 151.036482592,-33.805547639499999 151.03575756799998,-33.805454843500002 151.035606368,-33.805435955 151.03545193599999,-33.805403820500004 151.03517651199999,-33.805363768 151.03502460799999,-33.805342086 151.03498931199999,-33.805329302499999 151.03457459200001,-33.8052687335 151.03385136,-33.805162081 151.033782976,-33.805152183499999 151.03375561600001,-33.804494194 151.03374624,-33.804298260499998 151.03374912000001,-33.804263166 151.03375740800001,-33.804227979 151.03377072000001,-33.804194494 151.033788,-33.804164431499998 151.03381571200001,-33.804134813 151.033852096,-33.804108894500004 151.03389347199999,-33.804085862 151.034008672,-33.804030325 151.034068096,-33.804004869 151.03412928,-33.803982447 151.03419299199999,-33.803950497500004 151.034255648,-33.803916661 151.03431721600001,-33.803881011500003 151.03437696,-33.803843678500002 151.03443491199999,-33.803804791499999 151.034504416,-33.803754656499997 151.03457136,-33.803701839 151.03460339200001,-33.803674292499998 151.034661728,-33.803618589 151.03471859199999,-33.803558279 151.03475315200001,-33.803517153500003 151.03478521599999,-33.803474936500002 151.034839936,-33.803391057500001 151.034871232,-33.803333189500002 151.035133696,-33.803044016 151.03506528,-33.803016747 151.03492668800001,-33.802965446500004 151.03485648,-33.8029416 151.034699872,-33.8028923715 151.03461347199999,-33.802866897 151.034526016,-33.80284340199999 151.03443779200001,-33.802823163 151.03434889600001,-33.802807234500001 151.0342488,-33.80279463599999 151.03414691200001,-33.802786625499998 151.03404432,-33.802782925500004 151.03394208,-33.802783295499999 151.03384057599999,-33.8027875135 151.033731136,-33.802796079 151.03362169600001,-33.802809214 151.033512608,-33.802827029499994 151.03340569599999,-33.80284980299999 151.03330163199999,-33.802877793500002 151.03323180800001,-33.802900012 151.033162688,-33.802924672499998 151.033095008,-33.802951682500002 151.03302841600001,-33.802980838499998 151.032592096,-33.80319297799999 151.03202617599999,-33.803468276499999 151.03196208,-33.80351354599999 151.031893696,-33.803555855500001 151.03182240000001,-33.803594724 151.03174860799996,-33.803629744499993 151.03167299199998,-33.80366043599999 151.03160281599997,-33.803683376 151.03153043200001,-33.803702190500005 151.03121904,-33.803765738 151.031188544,-33.803771417500002 151.03108441599997,-33.803790657500002 151.03078092800001,-33.803835039 151.02850284799999,-33.804168205499998 151.02812016,-33.804232918499999 151.02793872000001,-33.804263517500004 151.02785376,-33.80428026 151.02776736000001,-33.804294486499998 151.027680608,-33.804306178499999 151.02759347200001,-33.804315447 151.02750636799999,-33.804322014500002 151.02742608,-33.804325344499993 151.02734579199998,-33.804325973499999 151.02718489599999,-33.804322384500004 151.02695267199996,-33.804313208499998 151.02682524799999,-33.804293931499998 151.02558432000001,-33.80410628599999 151.025228992,-33.804052562 151.02518796799998,-33.804049861 151.02506483199997,-33.804032933500004 151.02502380799999,-33.804028808 151.02489168,-33.804024035 151.024847392,-33.804024201499999 151.02471491200001,-33.804029159500004 151.024599712,-33.804033396 151.02454176000001,-33.804033211 151.024487776,-33.804038428 151.02442944000001,-33.804044015 151.02435779199999,-33.804050934 151.02424729599997,-33.804069212 151.024084192,-33.804096203500002 151.02404713599998,-33.80410628599999 151.02397296000001,-33.804127801500002 151.02389952,-33.804151111499998 151.02379404800001,-33.804188019 151.02376528,-33.804198915500002 151.02388931199999,-33.803587601499999 151.02392732800001,-33.803396589 151.02401331199999,-33.803011604 151.02416230399999,-33.802339591500001 151.02425529599998,-33.801921602500002 151.02427228799999,-33.801843588 151.02432227200001,-33.8015995915 151.024370272,-33.801353578499999 151.024382272,-33.801294582 151.02445529600001,-33.800918569499999 151.02448627199999,-33.800759580499999 151.024495296,-33.800716586500002 151.02451929599999,-33.800591582 151.024550272,-33.800430576499998 151.024581248,-33.80027057 151.02461424000001,-33.800107585 151.02464524800001,-33.799945580500001 151.02467625599999,-33.799785574 151.02470124800001,-33.799656573500002 151.02465824000001,-33.799589585 151.024583264,-33.799473571500002 151.02450899199999,-33.799397851 151.02227411199999,-33.7998691755 151.02211283199998,-33.799903197 151.0210368,-33.800056025499998 151.020597952,-33.800114337499998 151.020416896,-33.800139368 151.019913952,-33.800204247499998 151.019870048,-33.800213886 151.01984412799999,-33.800220897499997 151.01752438400001,-33.800549679500001 151.017376,-33.800567994499993 151.01651699199999,-33.800665008500005 151.01635100799999,-33.800693998 151.016121408,-33.800701675500001 151.01610192000001,-33.800607899 151.01610192000001,-33.800579279499999 151.01609904,-33.800565238 151.01609401600001,-33.800552288 151.01586972799998,-33.799424935 151.01584953599999,-33.799330751500001 151.0159544,-33.799332675499997 151.01582137599999,-33.7987566965 151.01568038400001,-33.798102684500002 151.01539737600001,-33.796807684500003 151.01524035200001,-33.796119688 151.015220352,-33.796033681499999 151.01521033599997,-33.795985692500004 151.015130336,-33.795643683 151.01510336,-33.795522693 151.01509100799998,-33.795452226500004 151.0154208,-33.795298084499997 151.01582976,-33.795100356500001 151.01816832,-33.793969581 151.018324928,-33.793870865 151.01847900800001,-33.793769707 151.018631296,-33.793666107 151.01878105599999,-33.793560268500002 151.01892793600001,-33.793452173 151.01909424,-33.79332518899999 151.01925731200001,-33.7931949675 151.01941715199996,-33.793061841499998 151.01957376,-33.792926125500003 151.01972963200001,-33.7927851 151.01988012800001,-33.792643704500001 151.02003024000001,-33.792496648 151.02017676799997,-33.792346890499999 151.02031968,-33.792194783500001 151.02045827200001,-33.792040345499998 151.02104473599999,-33.791279033500004 151.02135648000001,-33.790874309 151.021705696,-33.790421336500003 151.021728,-33.790394881499999 151.02177443199997,-33.790342674500003 151.02190585599999,-33.790201649 151.02194940800001,-33.790157915 151.02199548799999,-33.7901176775 151.02204659200001,-33.790082934499999 151.02210780799999,-33.790050818499999 151.02217260800001,-33.790023716 151.02220608,-33.790012283 151.02260784000001,-33.789810873500002 151.02341568,-33.7895274535 151.02590723200001,-33.788653643 151.026264352,-33.788528361 151.02838512,-33.787752933500002 151.028378656,-33.787715489499995 151.02967033600001,-33.787214546500003 151.03001555200001,-33.787046696 151.03054188799999,-33.786745553 151.030664992,-33.786669962 151.03122985600001,-33.786323457 151.03135836800001,-33.786265681499998 151.031489408,-33.786212216500005 151.031556,-33.786187297 151.03166976,-33.786148132499996 151.03178604799999,-33.786112779 151.03190377600001,-33.786080367 151.032022208,-33.786050212 151.03214064,-33.7860215185 151.03230409599999,-33.785984962499995 151.03246860799999,-33.7859524765 151.03263420799999,-33.785923413 151.032800896,-33.785897124500003 151.033137856,-33.785850153 151.03328976,-33.785831616 151.03345177599999,-33.785814503499999 151.03361376000001,-33.785800924500002 151.03374864,-33.78579395 151.033776128,-33.785791656 151.03391363200001,-33.785785717499998 151.03405152,-33.785780852 151.03418976,-33.785779501500002 151.03432656000001,-33.785783738 151.03446227200001,-33.785795781499999 151.03458179200001,-33.785813430499999 151.03470096000001,-33.785836111500004 151.03481904,-33.785863732 151.03493497599996,-33.785896144 151.03523161599998,-33.785994157 151.03588105599999,-33.786209071500004 151.03596096000001,-33.786243981 151.03608048000001,-33.786283774499999 151.03620755200001,-33.786312209 151.036339328,-33.786331837500001 151.03647251199999,-33.786345416499998 151.03660428800001,-33.786355221500003 151.03673603199999,-33.786360901 151.03686889599999,-33.786360531 151.03700208,-33.786355055 151.03713491199997,-33.7863452315 151.03726633599999,-33.786332096500004 151.037426176,-33.786311228500004 151.037585632,-33.786284033500003 151.03774368000001,-33.786251196 151.03784124800001,-33.786227257 151.037899552,-33.786212845500003 151.03805292799998,-33.786169555500003 151.03815984,-33.786135904 151.03826531199999,-33.786099533 151.03837008,-33.786060664499999 151.03847305599999,-33.786019261500002 151.038574208,-33.785975435 151.0400304,-33.785407170499994 151.04020681599999,-33.785337055499994 151.04030041600001,-33.785296115 151.04037529600001,-33.785264794500002 151.0404192,-33.7852504755 151.04045881600001,-33.785240134 151.04053980800001,-33.785223743 151.040621888,-33.785213494 151.04078892800001,-33.785196751500003 151.041549952,-33.785120883 151.04204928,-33.785035746 151.04232886399998,-33.784985518499994 151.042361408,-33.785796059 151.04245248000001,-33.788051190499992 151.04241792,-33.788045973500004 151.04234339199999,-33.789136141500002 151.04233728,-33.7892208345 151.04209248000001,-33.789889887 151.04201724800001,-33.79002786 151.041880448,-33.790282198 151.041699712,-33.790783141 151.041685312,-33.790822823500001 151.04142467200001,-33.791535092 151.04125225599998,-33.792007582 151.041229216,-33.792213690499999 151.04109888,-33.793374787499999 151.04107260800001,-33.7936122905 151.04112336,-33.793726953499998 151.04123388799999,-33.793844761500004 151.04135718399999,-33.793976481500003 151.04141011199999,-33.793896543 151.04146249600001,-33.793817585 151.04154598400001,-33.793689694500003 151.04163456,-33.793563691 151.04172780799999,-33.793439852 151.04182537599999,-33.793318529 151.04192688000001,-33.79320009199999 151.042000672,-33.793116749500001 151.042075936,-33.793033777 151.04215404799999,-33.792952673 151.04223539200001,-33.792874658500004 151.042322176,-33.792801213499999 151.04240281599999,-33.792740274499998 151.042486688,-33.792681962499998 151.04257417599999,-33.792626518 151.04266380799996,-33.792574144500001 151.04275523199996,-33.7925250085 151.042862176,-33.792472894 151.04297161599999,-33.792424831 151.04302704,-33.792402427500001 151.04326355200001,-33.792298735 151.04333916799999,-33.792265342500002 151.04440188800001,-33.791795368499997 151.04455993600001,-33.791697004 151.04471113599999,-33.791587650499999 151.04485331199999,-33.791469028500003 151.044984736,-33.791343117499999 151.045102816,-33.791211545499998 151.04520467200001,-33.791077439 151.04529648,-33.790935507 151.04534652800001,-33.790843266 151.04537676800001,-33.790788006500001 151.04544515200001,-33.790636972500003 151.045501312,-33.790484791499999 151.045538048,-33.790362303 151.04556864,-33.790237372500002 151.045590976,-33.79011111 151.04560355199996,-33.789984755 151.04560464,-33.789859565500002 151.045590976,-33.789727882500003 151.04556396800001,-33.789595959 151.04552617600001,-33.789464738500001 151.04548009600001,-33.78933522 151.04542825599998,-33.78920868 151.04540627200001,-33.78915873 151.045358752,-33.7890597365 151.04530656,-33.788962445 151.04517731199999,-33.788676879 151.04484611199999,-33.787945796 151.04476944000001,-33.787788564499998 151.04470355199999,-33.787626023500003 151.04464921600001,-33.787460078500004 151.04460636799996,-33.787292228 151.04459459200001,-33.7872270525 151.044833152,-33.787180266 151.04525868799999,-33.787058665499998 151.04621484800001,-33.789147833500003 151.04713321599999,-33.78887001899999 151.047389536,-33.789552484 151.047451072,-33.789696654499998 151.047518752,-33.789838864 151.047623872,-33.790025880500004 151.04771136,-33.790162503 151.04780569599998,-33.790295795500001 151.0479072,-33.790425573 151.04808217599998,-33.790625003 151.04823372800001,-33.7907763145 151.04877369600001,-33.790091315 151.04871369599999,-33.789718318 151.04871571199999,-33.7896323115 151.04873571199997,-33.789461316 151.048845696,-33.789133311 151.04905670399998,-33.788907296499993 151.04923171199999,-33.788752303499997 151.04937168000001,-33.788611296500001 151.049653664,-33.788271303500004 151.049792672,-33.788159304499999 151.04999968,-33.788091298499999 151.04998368,-33.788062309 151.05001766399999,-33.788062309 151.050174688,-33.787964296 151.05050464000001,-33.787725276 151.050837632,-33.787401285500003 151.05106563199996,-33.7871762885 151.05108265600001,-33.7871762885 151.051187648,-33.787049286 151.051266656,-33.786976285 151.05120163199999,-33.786883285500004 151.05118963199999,-33.786779278499999 151.05105260799999,-33.786378291 151.05104361599999,-33.7861782875 151.051070624,-33.785905283 151.05117161599998,-33.785477285500001 151.0512896,-33.785222281499991 151.051499616,-33.784994287499998 151.05179059199997,-33.784730274 151.052082592,-33.784484261 151.05231059199997,-33.784275266500003 151.05242057599997,-33.784147265 151.052438112,-33.784126193500001 151.052727616,-33.784197122499997 151.05285036800001,-33.784237619 151.05289680000001,-33.784258413 151.05294179200001,-33.784281630500004 151.05302569599996,-33.784335095499998 151.05315059200001,-33.784448759500002 151.05319417600001,-33.784504204 151.05321936,-33.784542906 151.05325139199999,-33.784603382500002 151.053276608,-33.784666208499999 151.05329424000001,-33.784730736500002 151.05330396799999,-33.78479643 151.053306496,-33.784862586 151.05330108800001,-33.784928631 151.05329353600001,-33.7849721985 151.05327552,-33.785036726500003 151.052983552,-33.785824401 151.05430585600001,-33.785600754500003 151.05541753599996,-33.785784182 151.05548953600001,-33.785795874 151.05554928,-33.785813245500002 151.05624121599999,-33.786014211 151.05634595199996,-33.786059036499999 151.05646691199999,-33.786129059 151.05651155199996,-33.786161101 151.056574208,-33.786213123 151.05754224,-33.78723210299999 151.057773376,-33.787475452 151.05824243199999,-33.787969013500003 151.05836844800001,-33.788079181 151.05835750400001,-33.788130185500002 151.058349728,-33.78816801799999 151.058164672,-33.7882603515 151.05800880000001,-33.788354849500003 151.05754332800001,-33.788636826500003 151.05747852799996,-33.788667518 151.05741049599999,-33.788692345 151.057339552,-33.788711159500004 151.05713292799996,-33.788745458500003 151.05701267200001,-33.788753820499991 151.05691657599999,-33.788748233500002 151.056821888,-33.788731861 151.05549635200001,-33.788412181 151.055480512,-33.788746531500003 151.05605436799996,-33.789774872499997 151.05632112000001,-33.789675879 151.05655008,-33.7896882 151.05740185600001,-33.790056923499996 151.05785075200001,-33.790861710500003 151.05804697600001,-33.791213876500002 151.05795587199998,-33.7916132175 151.05760380800001,-33.791897877 151.05730176,-33.792013446499993 151.05751056,-33.792388293499997 151.05741264,-33.792660447 151.05800953599996,-33.792803193 151.05839868800001,-33.792704551 151.05867804799999,-33.79263858 151.05951107199999,-33.792435357499997 151.06112928,-33.792038736 151.06237091200001,-33.791733171499999 151.062602752,-33.79167621 151.06349088,-33.791458132 151.06371731199999,-33.790886556 151.063808416,-33.790783418499998 151.06384403199999,-33.790800605 151.063882912,-33.790813925 151.06392396800001,-33.790824007499999 151.063966432,-33.790831833 151.064115136,-33.790851813 151.06417955200001,-33.790857307499998 151.064244352,-33.790860082499997 151.0643088,-33.79085973099999 151.06437251200001,-33.790855772 151.06444451199999,-33.790845245500002 151.06451580800001,-33.790828595500003 151.064857792,-33.7907297685 151.064901728,-33.79071879799999 151.06494601599999,-33.79071069499999 151.06499424,-33.790705385500004 151.064999296,-33.790704849 151.065054016,-33.790701870500001 151.06510873599998,-33.790701778 151.06516345599999,-33.790704664 151.065216736,-33.790710417500001 151.06526569600001,-33.79071132399999 151.06531536,-33.790715283 151.06536467199999,-33.790722128 151.065412928,-33.790731748 151.06545971200001,-33.790744087500002 151.06551155199998,-33.790761903 151.065562688,-33.790783585 151.06561164799999,-33.790808782 151.06565808,-33.790836957499991 151.06570057600001,-33.790867464 151.0657272,-33.790889516 151.06577689599999,-33.790937301500001 151.06581971200001,-33.790988972 151.06584672,-33.791031448 151.065929888,-33.791188143 151.06628592000001,-33.792252392500004 151.06630681600001,-33.792309631500004 151.06633129599999,-33.792391438500005 151.06633273599996,-33.792396655499999 151.06635216000001,-33.792482514 151.066365856,-33.792569908 151.06637376,-33.792658208500001 151.06637628799999,-33.792746398 151.066373056,-33.792833884499998 151.06636115200001,-33.792942516499991 151.06633955199999,-33.793051315 151.06631004799999,-33.793159410500003 151.066273696,-33.793265970500002 151.06623193600001,-33.793370014499999 151.066185472,-33.79347108 151.066132192,-33.793570702499999 151.066073152,-33.79366836399999 151.06600835200001,-33.79376312099999 151.06593852799998,-33.793854381500005 151.06548492799999,-33.794462347 151.06534272,-33.794652064499999 151.06529699199999,-33.794718128 151.06523004799999,-33.794824595500003 151.065188288,-33.794899206 151.06514976,-33.794975241 151.06511593600001,-33.795052386 151.06508748799999,-33.795130493 151.06506588799999,-33.795201866 151.06504825600001,-33.795274497 151.06503564799999,-33.795340745499999 151.06502483200001,-33.795421294500002 151.06501945599996,-33.795494721 151.06501872000001,-33.795556825499993 151.06502089599999,-33.795619207500003 151.06502627200001,-33.795681571 151.06503456,-33.795743583 151.065045728,-33.795805058499994 151.06518505599996,-33.796471502500005 151.0652016,-33.796512443</coordinates></LinearRing></outerBoundaryIs></Polygon>

	</Placemark>
</kml>