<?xml version="1.0" encoding="UTF-8"?>
<kml xmlns="http://www.opengis.net/kml/2.2">
	<Placemark>
		<Style>
			<LineStyle>
				<color>ff0000ff</color>
			</LineStyle>
			<PolyStyle>
				<fill>1</fill>
				<color>330000cc</color>
			</PolyStyle>
		</Style>
			<ExtendedData><SchemaData>
		<SimpleData name="STATE_2006">1</SimpleData>
		<SimpleData name="POA_2006">2517</SimpleData>
	</SchemaData></ExtendedData>
      <Polygon><outerBoundaryIs><LinearRing><coordinates>150.92012268799999,-34.352747410500001 150.91994201599999,-34.353278009 150.919624672,-34.355221286 150.919534016,-34.355777007500002 150.919472,-34.356165008 150.91940300799999,-34.3565669945 150.919431008,-34.356655998 150.919454016,-34.356746000500003 150.91947100799999,-34.356837002 150.91948300799999,-34.356929002500003 150.919488992,-34.35702000399999 150.919487008,-34.357091007 150.919479008,-34.3571619915 150.91946899199999,-34.357232994500002 150.91946099200001,-34.357303997499997 150.91946099200001,-34.357375000499999 150.919468,-34.357430001 150.91947801599997,-34.357485001500002 150.91949100799999,-34.357540002 150.91950300799999,-34.357595002499998 150.91951299199999,-34.357650003 150.919523008,-34.357714993500004 150.919532,-34.357779003499999 150.91953900799999,-34.357843994 150.919544,-34.357909003 150.919544,-34.357972994499995 150.91953900799999,-34.358027995 150.919532992,-34.358082995499998 150.919523008,-34.358137996 150.919511008,-34.358192996500001 150.91949801600001,-34.358246998 150.91948201599996,-34.358295005500004 150.91946201599998,-34.358342994499999 150.919442016,-34.35839100199999 150.91942499199999,-34.358438991 150.91941401599999,-34.358486998499991 150.919412,-34.358541999 150.919416,-34.358596999500001 150.91942499199999,-34.358652 150.919436,-34.358707000500004 150.91944601599999,-34.358762001 150.91945699199999,-34.3588239945 150.91946899199999,-34.358887005500002 150.91948201599996,-34.358948 150.91949801600001,-34.359009993500003 150.919516,-34.359070007500002 150.91953900799999,-34.35912600699999 150.919566016,-34.359181007499998 150.91959401599999,-34.359236008 150.91962201600001,-34.359291008500001 150.91964601599997,-34.359347008 150.91967699200001,-34.359432996 150.919704,-34.359520001500002 150.919728,-34.359608006 150.91975001599999,-34.359695992 150.919771008,-34.359783996499999 150.91978700799999,-34.359854999500001 150.9198,-34.359927001500004 150.919812992,-34.3599980045 150.91982601599997,-34.360069007500002 150.91984,-34.360140991 150.919868,-34.360261000500003 150.91989699199999,-34.360382009 150.919928992,-34.360502 150.919964,-34.360621991 150.92000099200001,-34.360740002500002 150.92003801600001,-34.3608450085 150.92007900799999,-34.360948997 150.92012201599999,-34.361052005 150.920164,-34.361155993499999 150.92020201599999,-34.361260000500003 150.92021801600001,-34.361304992500003 150.92023401599999,-34.361350003 150.92024899199998,-34.361395994 150.92026300800001,-34.361441004499994 150.92027401600001,-34.361486995500002 150.920284,-34.361557998499997 150.92028499200001,-34.3616300005 150.92028499200001,-34.361702002500003 150.920290016,-34.361774004499999 150.920304,-34.361842991 150.92032499199999,-34.361892996500004 150.92035100800001,-34.361942003 150.92038,-34.361989992 150.92040899200001,-34.362037999500004 150.920435008,-34.362087006 150.92045900799999,-34.362142006500001 150.92048099199999,-34.362197007 150.920500992,-34.362252007500004 150.920523008,-34.362308007 150.920544992,-34.362363007500001 150.920596,-34.362481000500004 150.920648992,-34.362598993499994 150.920704992,-34.362717005 150.920762016,-34.362833 150.92082201599999,-34.362948995 150.920908,-34.363300994499994 150.92094300799999,-34.363388 150.92098300800001,-34.3634750055 150.921028,-34.363559994499994 150.921076992,-34.363643004 150.921131008,-34.363723997 150.92118601600001,-34.363795999 150.921244992,-34.363865004 150.921308,-34.3639329915 150.921372,-34.363999998499999 150.92143401600001,-34.364068004499998 150.92150099200001,-34.364144002499998 150.921568992,-34.364220000499998 150.92163699199997,-34.364294999500004 150.921704992,-34.364369998500003 150.921775008,-34.364444997500001 150.92181500800001,-34.364489009 150.92185500799999,-34.364533002 150.921896,-34.364575996 150.92193900800001,-34.3646190085 150.921984,-34.364658006500001 150.92202700799999,-34.364689993 150.92207299200001,-34.364720999 150.92212,-34.364750007 150.922167008,-34.364777997499999 150.922214016,-34.364807005499998 150.92228,-34.364847002499992 150.922347008,-34.364884002499998 150.92241401599998,-34.364923000499999 150.92247900800001,-34.364962997500001 150.92254,-34.365005991499999 150.92258899199999,-34.365048005 150.922636,-34.365090999 150.92268099199998,-34.365135991 150.922724,-34.365182000499999 150.922763008,-34.365230008 150.92299977600001,-34.365419263 150.92280876800001,-34.365473264500004 150.922531776,-34.365468269499999 150.92210377599997,-34.365346262 150.921966752,-34.365300252499999 150.92187475200001,-34.365292260499999 150.921530784,-34.365102284 150.92117680000001,-34.364881283 150.92103078400001,-34.364764289 150.920685792,-34.364365281 150.9204488,-34.364081287499999 150.920123808,-34.363952287 150.91981180799999,-34.363905278499999 150.91941180800001,-34.363993301499995 150.91934003200001,-34.36401663 150.918998816,-34.364128296 150.91861984,-34.364189290500001 150.91831481599999,-34.364155306 150.91811184,-34.364040291500004 150.91797683199997,-34.363749305 150.91791584000001,-34.363506307500003 150.916323616,-34.363426942499999 150.91262387200001,-34.362885688 150.91130556799999,-34.362684815 150.910580896,-34.362574832500002 150.910133952,-34.362492378 150.90946633600001,-34.362375291500001 150.90880032000001,-34.362287546 150.907980608,-34.362179635499999 150.90759504,-34.362122304 150.907161952,-34.362062549 150.90388524799999,-34.361597070500004 150.90297011199999,-34.36146918 150.90250284800001,-34.361403930500003 150.90073705599997,-34.361142118499998 150.90029136000001,-34.361078127 150.89936816,-34.360977468500003 150.89939014399999,-34.360861473500002 150.89950656,-34.360342641 150.89962816,-34.359797464499998 150.89968611199998,-34.359629466 150.899071136,-34.359558463 150.89844416,-34.359473492500001 150.898137152,-34.359432478 150.89789216,-34.359312487 150.89745168,-34.359162211499999 150.89642019199999,-34.358960506 150.8958352,-34.358865508500003 150.89399424000001,-34.358567677 150.89352841600001,-34.35849216 150.89289696,-34.358433219 150.89253024000001,-34.358200544500001 150.88743532800001,-34.357738599500003 150.88457641599999,-34.357074616 150.88175424,-34.356414055 150.881778368,-34.356346641 150.88180598400001,-34.356038005500004 150.88151801599997,-34.355281004 150.88142160000001,-34.354800263 150.88135299199999,-34.354490998500005 150.88110601599999,-34.353907009 150.88100899200001,-34.3536089925 150.880976,-34.353553992 150.88088601600001,-34.353402995 150.88073401599999,-34.353184861500004 150.880624,-34.353002007500002 150.88051369600001,-34.352749445499995 150.8805,-34.352497993500002 150.880639328,-34.351913615500003 150.880653728,-34.35165026799999 150.88061267200001,-34.351375321 150.88062707200001,-34.351031794500003 150.88066899200001,-34.350756995499999 150.880640992,-34.350515996 150.880448992,-34.350458997499999 150.88024201600001,-34.350379003500002 150.880168,-34.350356008 150.880020992,-34.350309998500002 150.879886016,-34.350189008500003 150.879842016,-34.350148993 150.87974544,-34.349897152499999 150.87962198400001,-34.349587999 150.87933289599999,-34.3489462155 150.87944300800001,-34.34885499199999 150.879568,-34.348774998 150.87976128,-34.348625999 150.87991299199999,-34.348442997 150.87999635200001,-34.348248358500001 150.880052,-34.348041991 150.88008,-34.347778995 150.88006691199999,-34.347194913 150.88008099199999,-34.346977001500001 150.88015100800001,-34.346680002500001 150.880359008,-34.346164999500004 150.88056601599999,-34.3457180025 150.880636,-34.34547800199999 150.88069152,-34.345202944 150.880716992,-34.344803991500001 150.88090598400001,-34.344547008 150.880956,-34.344530006500001 150.8812776,-34.344366022500004 150.881475008,-34.344278998500002 150.88192848,-34.343974266499998 150.88215100799999,-34.3437969995 150.88227516800001,-34.343641359 150.88237811199997,-34.343441189 150.882530016,-34.343075 150.88261401599999,-34.342799997500002 150.88269699200001,-34.342594 150.88283699199997,-34.342404005 150.88327776,-34.341896161500003 150.88340195200001,-34.341735951499992 150.883526528,-34.34154146099999 150.88358201599999,-34.34141199799999 150.88360969600001,-34.341346896499999 150.88372099200001,-34.341140991499991 150.88388700799999,-34.340877995500001 150.884136,-34.340443005 150.88424652800001,-34.340202357 150.88437721599999,-34.339789807 150.884708,-34.3395119925 150.88488,-34.3392450005 150.88508499199997,-34.3389860005 150.885316448,-34.338739506499991 150.88556988799999,-34.338512067499998 150.88584025599999,-34.338308678499999 150.88594601599999,-34.338243003500004 150.88627801600001,-34.338061999499999 150.886380992,-34.337993993499992 150.886459008,-34.337934997 150.886607008,-34.337809992499992 150.88674457599998,-34.337676145 150.88776515199999,-34.335940956 150.88783897600001,-34.335789219 150.88798764800001,-34.335393485499999 150.88813100799999,-34.335134004499999 150.88860921599999,-34.334347495499998 150.88868022400001,-34.333711484 150.88857420799999,-34.333662496 150.8885552,-34.3323904915 150.88842921599999,-34.332209487500002 150.8878712,-34.331409510500002 150.88979516800001,-34.330817473499991 150.89265312000001,-34.329950434 150.893128128,-34.329795422499998 150.89520704,-34.329116417 150.89532304,-34.329080416 150.89705388799999,-34.331181831 150.897233024,-34.331399409500001 150.897357024,-34.331479403499998 150.897550016,-34.331514387 150.89782601600001,-34.33154839 150.89819897599997,-34.331617395 150.89821897600001,-34.331629383 150.898392,-34.331732391 150.898488,-34.331927399500003 150.89855699200001,-34.332110383 150.89866697599999,-34.332259382 150.89901769599999,-34.332595194 150.898196896,-34.333464546 150.89852099199999,-34.333684418499999 150.89870697599997,-34.333831382500001 150.898808,-34.333933391500004 150.898892,-34.333992388 150.898942976,-34.334050385499999 150.899078976,-34.334124385500004 150.899216,-34.334155391499998 150.89930099200001,-34.334185398500004 150.89940198400001,-34.334301393499999 150.89943299199999,-34.334416389499999 150.89961497600001,-34.334735385 150.89982998400001,-34.334984395 150.89991696000001,-34.335084387500004 150.90020496,-34.3352754 150.900561952,-34.3354533885 150.90117494399999,-34.335779395499998 150.90172192,-34.335946395 150.90199392,-34.3360943765 150.90231491200001,-34.336357372500004 150.90265491199997,-34.336564369 150.90275593600001,-34.336651374500001 150.902823936,-34.3366813815 150.90290992000001,-34.336726373499999 150.903163904,-34.336873374500001 150.90333590399996,-34.336905379500003 150.90347289600001,-34.336950371500002 150.903712896,-34.33699837899999 150.90402089599999,-34.337089380500004 150.904567872,-34.337299374 150.90504684800001,-34.337450352499999 150.90518387200001,-34.337467354 150.90523657599999,-34.337476012 150.905256,-34.337385991 150.906228,-34.337528996 150.90644499199999,-34.337558004 150.906464992,-34.337464005500003 150.906858016,-34.337510995500004 150.906884,-34.3375139925 150.906892,-34.337514991500001 150.90732499200001,-34.337615002500002 150.907340992,-34.337617999500004 150.90744899200001,-34.337642993 150.907452,-34.337643992 150.907455008,-34.337643992 150.907546016,-34.337665008 150.907552,-34.337667006 150.907558016,-34.337668005 150.907759008,-34.33771399599999 150.907771008,-34.337715994 150.90787900800001,-34.337729998499995 150.90791100800001,-34.33771 150.90794598400001,-34.337691999500002 150.907983008,-34.337674998 150.90802,-34.337660993500002 150.90805798400001,-34.337649005499998 150.908172,-34.337604994 150.90825100800001,-34.337579001500004 150.90833699199999,-34.337555007 150.90842499199999,-34.337535008499998 150.908514016,-34.337518007 150.90860499199999,-34.337504002499998 150.90876300799999,-34.337481007 150.90889900799999,-34.337465004500004 150.908968,-34.337458992 150.909036,-34.337456994 150.909112,-34.337455995 150.909188,-34.337456994 150.909264,-34.337462007500001 150.90933801599999,-34.337470998499995 150.90941001599998,-34.337486002 150.90945398400001,-34.3374990075 150.90949801599999,-34.3375139925 150.90954201599999,-34.337530994 150.909626016,-34.337567994 150.90965699200001,-34.337583996499994 150.909748,-34.337635001 150.90978,-34.337650004499999 150.90981500800001,-34.337662991500004 150.909888,-34.337687004500005 150.90996300800001,-34.337704006 150.910176,-34.337767997499995 150.90959520000001,-34.338235955 150.909450752,-34.33835232 150.90918291200001,-34.338575171 150.90909228800001,-34.338650577 150.908189056,-34.339455623 150.90811824,-34.339519004 150.90737283199999,-34.340185355500005 150.90697782399999,-34.340741354500004 150.906952448,-34.340770177499998 150.90685955199999,-34.340882583500004 150.90678467199999,-34.340965463499998 150.90644985599997,-34.341337350499991 150.906099872,-34.341647373500003 150.90557328,-34.342059146499999 150.90526224000001,-34.34237829 150.90622848000001,-34.342515097499991 150.90914412800001,-34.342927832499996 150.909473152,-34.341339774 150.91320707200001,-34.341854037 150.91354268800001,-34.340183302 150.91388483200001,-34.340229200499998 150.91393667199998,-34.340332301 150.91421184000001,-34.340676567500005 150.91445968,-34.340939286 150.91479065600001,-34.341238283 150.91532892800001,-34.341879511500004 150.91550348800001,-34.342093834 150.91584364799999,-34.342123286 150.91677964799999,-34.342251287499991 150.92000256,-34.342665243500001 150.92002908800001,-34.342525883 150.92006656000001,-34.342286234 150.92215651199999,-34.3423972155 150.92252249599997,-34.342422227500002 150.923971008,-34.342538000499999 150.92394899199999,-34.342578996500002 150.92392099200001,-34.342637993 150.92389401599999,-34.342697008 150.923870016,-34.342757003499997 150.923848,-34.342817998 150.92382700799999,-34.342878992500005 150.92381401599997,-34.342926001 150.92380499199999,-34.342975007500002 150.923796,-34.343022996500004 150.923784,-34.343071004 150.923764,-34.343114997 150.923728,-34.343162005499998 150.92368201599999,-34.343204000500002 150.92363299199999,-34.343244996500005 150.923586016,-34.343286991500001 150.923548,-34.343334 150.92352598399998,-34.343377993 150.923508992,-34.343425001500002 150.923495008,-34.343474008 150.92348099200001,-34.343521997 150.92346601599996,-34.343570004500002 150.92342499200001,-34.343671995 150.92338099199998,-34.343773005 150.92333500800001,-34.3438729975 150.92328899200001,-34.343973008499994 150.92324300799999,-34.344074 150.9232,-34.344165001500002 150.92315500800001,-34.344255004 150.92311001599998,-34.3443460055 150.92307100799999,-34.344437007 150.92304,-34.344530006500001 150.923028,-34.344590002 150.92301900800001,-34.344649997499999 150.923012,-34.344709993 150.92300499199999,-34.344770007 150.92299500799999,-34.344831001500005 150.92298700800001,-34.344869000500005 150.922979008,-34.344906999500004 150.92297100799999,-34.344944998500004 150.92296198400001,-34.344981998500003 150.922952,-34.345019997500003 150.922935008,-34.345076996 150.92291401599999,-34.345133994500003 150.92289299199999,-34.345190993 150.92287100799999,-34.345246992500002 150.92284899199998,-34.345303991 150.92281699200001,-34.345386001500003 150.92278099200001,-34.345466994500001 150.92274601599999,-34.345548006 150.92271401599999,-34.345629998 150.922686016,-34.345713007500002 150.922668,-34.345776 150.922651008,-34.345838992499999 150.92263699200001,-34.345902003500001 150.92262601600001,-34.345965995 150.92262099199999,-34.346029006 150.92262201599999,-34.34607999199999 150.92262499200001,-34.346130996500001 150.922632,-34.346183 150.922640992,-34.346233005500004 150.922652992,-34.346282992500001 150.92267900799999,-34.346363005 150.92271401599999,-34.346442999 150.922755008,-34.346519996 150.92280300799999,-34.346595994 150.922854016,-34.346666997 150.922908,-34.346734004 150.922968,-34.346798994499991 150.923032,-34.346861006499992 150.923180992,-34.346908995500002 150.923412,-34.346936005499998 150.92366,-34.347001995 150.92377900799997,-34.347056995500004 150.92388700800001,-34.347165997499999 150.92400499199999,-34.347268006500002 150.924151008,-34.347315995500004 150.92417401599999,-34.347306005500002 150.9242,-34.347298994 150.924228,-34.347293999 150.924256,-34.347293 150.92429801599999,-34.347298994 150.924328992,-34.3473110005 150.924354016,-34.347327003 150.924364,-34.347345003500003 150.92436499199999,-34.347368998 150.924360992,-34.347396008 150.92435500799999,-34.347423998499998 150.924352,-34.347449991 150.924348,-34.347484993 150.92434300799999,-34.347520994 150.92433801600001,-34.347555996 150.924332,-34.347590998 150.924328992,-34.347626 150.92432700800001,-34.347651992499998 150.92432601599998,-34.3476780035 150.92432499200001,-34.347703996 150.92432499200001,-34.347730007 150.92432601599998,-34.347755999500002 150.92432700800001,-34.347774999 150.924328992,-34.347792999499994 150.924331008,-34.347811999 150.92433299199999,-34.3478299995 150.92433299199999,-34.347848 150.924331008,-34.3478679985 150.92433001599997,-34.347886998 150.92432700800001,-34.347906996500001 150.92432099199999,-34.347924997 150.924312,-34.347940000500003 150.924296,-34.347951008 150.924275008,-34.347959999 150.924252,-34.347967991 150.92423500800001,-34.347976001500001 150.924232,-34.348 150.92424201599999,-34.348014999500002 150.924248,-34.348036996 150.924250016,-34.348066004 150.92424300799999,-34.348091996500003 150.92423100799999,-34.348106001 150.924212,-34.348117008500004 150.924188,-34.3481269985 150.92416300799999,-34.348136008 150.92414,-34.348144 150.92412,-34.34815299099999 150.9241,-34.348162000500004 150.92407900800001,-34.348170991499998 150.924059008,-34.348177004 150.924038016,-34.348181 150.924016,-34.34818199899999 150.923992992,-34.348180001 150.923970016,-34.348176005 150.923948,-34.348169992500004 150.92392700799999,-34.348163998499999 150.92389699199998,-34.348146997 150.923870016,-34.348123002499996 150.923844992,-34.348095992499999 150.92382,-34.34807 150.92379100799997,-34.348046005500002 150.923772,-34.348033999 150.923752992,-34.3480199945 150.92373299199997,-34.348008006500002 150.92371299199999,-34.347997998 150.92369100799999,-34.347991005 150.92367299200001,-34.347989007 150.923655008,-34.347989007 150.923636,-34.347990006 150.92361699200001,-34.347991005 150.923598016,-34.347989007 150.92357900799999,-34.347983993500002 150.92356,-34.3479750025 150.923542016,-34.347964994 150.923524,-34.347959 150.92349100800001,-34.347962996 150.92347699199999,-34.347974003499999 150.92346201599997,-34.347988008 150.923448,-34.348000995 150.92343100799997,-34.348010004499997 150.92341100799999,-34.348015998500003 150.92338700799999,-34.3480199945 150.923363008,-34.348021992500001 150.92334,-34.3480199945 150.92332099199999,-34.348014999500002 150.923304992,-34.348004991 150.92329100800001,-34.347988008 150.92327798400001,-34.347971006500003 150.92325699200001,-34.347953006 150.92324099199999,-34.347971006500003 150.923227008,-34.348000995 150.92320998400001,-34.348022991499995 150.923192,-34.348041991 150.923172,-34.3480589925 150.923152,-34.348070999 150.92313001599996,-34.3480820065 150.92310700799999,-34.348091996500003 150.92308300799996,-34.348099008 150.923059008,-34.348103004 150.92303801599999,-34.348105002 150.923016,-34.348106001 150.92299401599999,-34.348104003 150.92297401600001,-34.348101006 150.92294899199999,-34.348077992 150.92294899199999,-34.348053997500003 150.92295100800001,-34.348027006 150.92295100800001,-34.348001994 150.92292700799996,-34.347978998500004 150.922908992,-34.347974003499999 150.922890016,-34.347971006500003 150.92286899199996,-34.347970007500003 150.92284998400001,-34.347969008500002 150.92282601599999,-34.347970007500003 150.92280099199999,-34.347973004499998 150.922776992,-34.347977999500003 150.922752992,-34.347983993500002 150.922728992,-34.347990006 150.922687008,-34.348001994 150.92264700800001,-34.348017996499998 150.922606016,-34.348034998 150.92256601599999,-34.348050001499999 150.92251100799999,-34.348066004 150.92248499199999,-34.348071998 150.922459008,-34.348076993 150.92242198400001,-34.348083005500001 150.92238499199999,-34.348087001499998 150.922348,-34.348089998499994 150.92231100800001,-34.348090997500002 150.92227401599999,-34.348089998499994 150.922235008,-34.348083005500001 150.922196,-34.348071998 150.92215699199997,-34.348059991500001 150.922120992,-34.348052998500002 150.922088992,-34.348055995500005 150.922064992,-34.34807 150.92204300799997,-34.348090997500002 150.922023008,-34.348117008500004 150.922004,-34.348144 150.92198499199998,-34.348168993500003 150.92191401599996,-34.348250005 150.92184499199999,-34.348331997 150.92177801599999,-34.348415006499998 150.92171401599998,-34.348499995499999 150.921651008,-34.348585003 150.92146899199997,-34.348876008 150.921322016,-34.349161999499998 150.92122700799999,-34.349477998 150.921063008,-34.349792997500003 150.920968,-34.350108996 150.92092339199999,-34.350207064500005 150.92085699200001,-34.3503529925 150.920764,-34.350583003 150.920724992,-34.350784005500003 150.92066598400001,-34.351029001 150.92059001600001,-34.351288001 150.92053100800001,-34.351547001 150.920488,-34.351878003 150.920378016,-34.352137003 150.920236,-34.352395004 150.92020364800001,-34.35250926 150.92012268799999,-34.352747410500001</coordinates></LinearRing></outerBoundaryIs></Polygon>

	</Placemark>
</kml>