<?xml version="1.0" encoding="UTF-8"?>
<kml xmlns="http://www.opengis.net/kml/2.2">
	<Placemark>
		<Style>
			<LineStyle>
				<color>ff0000ff</color>
			</LineStyle>
			<PolyStyle>
				<fill>1</fill>
				<color>330000cc</color>
			</PolyStyle>
		</Style>
			<ExtendedData><SchemaData>
		<SimpleData name="STATE_2006">1</SimpleData>
		<SimpleData name="POA_2006">2164</SimpleData>
	</SchemaData></ExtendedData>
      <Polygon><outerBoundaryIs><LinearRing><coordinates>150.96374531199999,-33.840831413 150.96322691200001,-33.842781627500003 150.96301667200001,-33.843589744500001 150.962724,-33.844698801 150.96270096000001,-33.844785381 150.9626936,-33.844813334500003 150.956910048,-33.843708477500002 150.95688732799999,-33.843730048499999 150.95686499199999,-33.843751656500004 150.95680633599997,-33.843806009499993 150.95590489599999,-33.844643097500004 150.95585340799997,-33.844524753 150.95567699200001,-33.8444181005 150.95552761600001,-33.844295963500002 150.95503945600001,-33.844734099 150.95447964799999,-33.845049265 150.953410816,-33.845498648499991 150.953305312,-33.845536795500003 150.95250073599999,-33.845827412 150.951535552,-33.846164186 150.95081232000001,-33.846410698500002 150.95060998400001,-33.846479722 150.95023344,-33.846603209500003 150.94880569599999,-33.847113772499995 150.94789523200001,-33.847455504500005 150.94776169599999,-33.847516887499999 150.94744668799999,-33.847662149500003 150.94722889600001,-33.847787154 150.94717344,-33.847823062499998 150.94711043199999,-33.847888145500001 150.94696176,-33.847985344500003 150.94682387200001,-33.8481033375 150.94659996799999,-33.848247323 150.946197856,-33.848684367 150.94556531200001,-33.849441183499998 150.94542060800001,-33.849639984500001 150.94514700799999,-33.850014924 150.945058432,-33.850130216 150.94499472000001,-33.850176299499999 150.94489177599999,-33.850249337500003 150.94497036800001,-33.850453633 150.94500137599999,-33.850625627500001 150.94497936,-33.850811626500004 150.94484838400001,-33.851152637 150.944808384,-33.851323632499998 150.94484038399997,-33.851496626 150.94495939199999,-33.851655633500002 150.945200384,-33.851916631500004 150.945369408,-33.852263636 150.94538438399999,-33.852363628500001 150.94545238399999,-33.852479623500003 150.94546838400001,-33.852551625499999 150.945552384,-33.852710633 150.94570838399997,-33.852841613 150.94572838400001,-33.852852620500002 150.946217408,-33.853108605 150.946441408,-33.853225617500001 150.946596384,-33.853385605499994 150.9466984,-33.853558617499999 150.94672838399998,-33.853760619 150.94677939199997,-33.853846607 150.94691740799999,-33.85399161 150.94704038399999,-33.854008611499999 150.947271392,-33.853969613499999 150.94748540800001,-33.853872599500001 150.94757440000001,-33.8538166 150.94778838399998,-33.853748594 150.94812537600001,-33.8536965905 150.94819635199997,-33.853669599 150.94830336000001,-33.85359959499999 150.948396352,-33.8534295985 150.94859235199999,-33.853332603 150.94871635199996,-33.853334601 150.94888835199998,-33.853480584499998 150.94875312,-33.85376846299999 150.94993571200001,-33.854213795 150.94960435199999,-33.854908581 150.949320384,-33.855503578 150.94927939199999,-33.855578577 150.949108384,-33.855885603 150.9488704,-33.856381588 150.94991539200001,-33.856730572 150.95045638400001,-33.856971571500004 150.95057539199999,-33.857081572499993 150.94961856,-33.858152371 150.94858844800001,-33.859287586500002 150.94808848,-33.859844603 150.94805248,-33.859971587 150.947705536,-33.861601622 150.94738256,-33.863127613 150.94511558400001,-33.862818626 150.943150624,-33.862550672 150.94198060799997,-33.862391664500002 150.93895571199999,-33.861977190499999 150.93761168,-33.861793726 150.936879616,-33.861693326500003 150.936294688,-33.861614738500002 150.93364473599999,-33.8612617585 150.93284576,-33.861155772 150.93254073599996,-33.861118772 150.932404736,-33.861102788 150.931355776,-33.860975804 150.930119776,-33.860827822499999 150.92986067199999,-33.860796483499996 150.92913276799999,-33.860686815500003 150.928274528,-33.8605987555 150.92788105599999,-33.860521703 150.92790300799999,-33.860450977500001 150.92789580799999,-33.860401027500004 150.92787168000001,-33.860354851499999 150.92783315200001,-33.860316149500001 150.92778313599999,-33.860288066500004 150.927725536,-33.860272952 150.927665408,-33.860271879 150.927607072,-33.860285106500001 150.92755561600001,-33.860311469 150.927515296,-33.8603488205 150.92750627199999,-33.860364027500005 150.92703251200001,-33.860271879 150.92591785600001,-33.860137846500002 150.92416086399996,-33.859907873 150.923807872,-33.8598608645 150.92320086399999,-33.859780889 150.92058592000001,-33.859439915499998 150.92039123199999,-33.859414533500001 150.91990489599999,-33.859350930499993 150.91941292800001,-33.859286920500004 150.918831936,-33.859210941 150.91791408,-33.859091431 150.91642297600001,-33.858900973499999 150.91425100799998,-33.85862401 150.91305702400001,-33.858468998500001 150.91149507200001,-33.85827103 150.910959072,-33.858203042500001 150.91059852800001,-33.858157403 150.90956905600001,-33.858027052 150.90869510399997,-33.857925061499998 150.90784611199999,-33.857826068 150.907436128,-33.857779078 150.90505616,-33.857466113499996 150.90452816000001,-33.857408116 150.90430316800001,-33.85737711 150.90337817599999,-33.857249127 150.902824192,-33.8571581255 150.9026472,-33.85713513 150.90083523199999,-33.8569001615 150.89857488000001,-33.856611487500004 150.89820425600001,-33.856653186500004 150.898039264,-33.856660179500004 150.896961312,-33.856514547499991 150.89695228799999,-33.85642621 150.89695324799999,-33.8559011985 150.896926272,-33.855512199 150.89680924800001,-33.854775214500002 150.89676425600001,-33.854569198500002 150.89672025600001,-33.854375207499999 150.89644422399999,-33.853119205500001 150.896304224,-33.852688211 150.89597628799999,-33.851776235 150.89426425600001,-33.852015218 150.894236256,-33.8519452325 150.89383324799999,-33.852028242 150.89312128,-33.852157242499992 150.89251516799999,-33.852237125500004 150.89180028800001,-33.852331253500004 150.89118192000001,-33.852383645499998 150.89064131200001,-33.852562281499999 150.88933728000001,-33.852891063500003 150.88791635199999,-33.853147566 150.88758480000001,-33.853153856 150.88675392,-33.853169784500004 150.885308896,-33.853046667 150.88492121600001,-33.852990778500001 150.88398345600001,-33.852855358500001 150.88187305599999,-33.852497217 150.87984150400001,-33.852152414 150.879214432,-33.852090864499999 150.878788192,-33.852049017500001 150.878202848,-33.851924642 150.87773056,-33.851768446500003 150.87722153600001,-33.851510445500004 150.87692953600001,-33.851250446500003 150.87687769600001,-33.851141907 150.87686755199999,-33.851070441499999 150.87683353599999,-33.851005451 150.87677856,-33.850950450500001 150.87667536000001,-33.850748338 150.87664188799999,-33.850465288 150.87662316800001,-33.850197001 150.87663865599998,-33.849988284 150.87657923200001,-33.849456834500003 150.87655801599999,-33.849343984499995 150.87654396799999,-33.849269725500001 150.87651372799999,-33.8491804445 150.87646691199998,-33.8490145735 150.87640950400001,-33.848829444 150.87628451200001,-33.848666440500004 150.87607952,-33.8484944645 150.875849504,-33.848356473 150.87546355200001,-33.848175469 150.87285539199999,-33.846570094500002 150.87273299200001,-33.846474782500003 150.872791552,-33.846392494500002 150.87350451200001,-33.845415491 150.87333651200001,-33.843990491500001 150.87331251200001,-33.84378849 150.873374496,-33.843497485 150.87349148800001,-33.843296482500001 150.87377248,-33.8428144835 150.87389248,-33.842608486 150.87396147199999,-33.842489475500003 150.87414444800001,-33.842175456500001 150.87428044800001,-33.841940469500003 150.874407456,-33.841722465499998 150.87427344,-33.841041462 150.873518464,-33.840397477 150.87341945599999,-33.840264480500004 150.87345244799999,-33.840129486 150.87361340800001,-33.839966482500003 150.87381641600001,-33.839899457 150.87527840000001,-33.839633445499999 150.8757824,-33.83928744 150.8760864,-33.8390784455 150.876160384,-33.838938419 150.87621436800001,-33.838835429500001 150.87630736,-33.838657422499999 150.87655836799999,-33.838176422499998 150.87680035199998,-33.837713423 150.87703433600001,-33.837268424 150.87725833599998,-33.836839427500003 150.87746032000001,-33.836453406499999 150.877655296,-33.836079410499998 150.87777228799999,-33.835856411500004 150.87785129599999,-33.835705414499991 150.87794428799998,-33.835526408500002 150.87822230399999,-33.834993405 150.87831324800001,-33.834820411500004 150.87871926400001,-33.8348763925 150.88345212799999,-33.83236733 150.883604128,-33.8322603445 150.883686144,-33.832037327 150.883854144,-33.831786337499999 150.884079136,-33.83159033 150.884326112,-33.831382316 150.88463308799999,-33.831292313500001 150.884899104,-33.831449323 150.88530009600001,-33.831313311 150.88560108799996,-33.830929306500003 150.885923072,-33.830632307500004 150.88641008,-33.830317289500002 150.886846112,-33.82989277 150.88686246399999,-33.829893954 150.88709593600001,-33.829910992500004 150.88743395200001,-33.829802009 150.88777091200001,-33.829736038 150.88796496000001,-33.8297390165 150.88808700800001,-33.829812998 150.888189952,-33.829914951500001 150.888284992,-33.830375046500002 150.88841712000001,-33.830748987 150.88848588799999,-33.830821988 150.88867091200001,-33.831182978499996 150.888719872,-33.831369995 150.888781088,-33.831728007 150.888787936,-33.831819989 150.88875408000001,-33.831900001500003 150.88864896000001,-33.832026005 150.888652928,-33.832106017500003 150.88873392,-33.832193041499998 150.888608992,-33.8323239845 150.88872707199999,-33.832475999 150.88887504,-33.832457018 150.88889484800001,-33.832671026 150.88872707199999,-33.832727007 150.88870009600001,-33.83280603899999 150.88863312,-33.83292303299999 150.88857299200001,-33.833043986 150.88853088,-33.833171969 150.888495968,-33.833298953 150.88848588799999,-33.833448988 150.88847113599999,-33.833609013 150.88846787199998,-33.833666973500002 150.88846787199998,-33.833734017499999 150.888472928,-33.833811958 150.88848300800001,-33.833874969 150.88853017599999,-33.8339169825 150.888584896,-33.833950023500002 150.88865795199999,-33.833969004499998 150.88875408000001,-33.833978014 150.888863168,-33.833988004 150.88895891199996,-33.8340020455 150.88900211199999,-33.833985025499992 150.88902192,-33.833960013499997 150.88906908800001,-33.833898001499996 150.889125952,-33.8338410215 150.88919113599999,-33.833786039499998 150.88925593600001,-33.833726007 150.88933692800001,-33.833673985 150.88937689599999,-33.833637984 150.889395968,-33.833573012 150.889380128,-33.833502009 150.88937113599999,-33.833409028 150.88938515199999,-33.833329015499999 150.88942512,-33.833278973 150.88950396800001,-33.833251981499998 150.889566976,-33.83319698099999 150.88952412799998,-33.833144977499998 150.88952483200001,-33.833084038500004 150.88958713599999,-33.83307998699999 150.88965984000001,-33.8330629855 150.889694048,-33.833040027 150.88978403199999,-33.833042006500001 150.88990211199999,-33.833040027 150.89152284799997,-33.830766987499999 150.895908,-33.828552981500003 150.90378515200001,-33.826663983499998 150.90623497600001,-33.826050005499994 150.90890028800001,-33.825381859499998 150.90969859200001,-33.8259960225 150.90988857599999,-33.826142024500001 150.9100616,-33.826317016 150.910266592,-33.826592018500001 150.910299584,-33.826693028500003 150.9103496,-33.826808024500004 150.91038057599999,-33.826981018 150.910478592,-33.827326024500003 150.910491584,-33.827512023499992 150.9104856,-33.827769025500004 150.91054659199997,-33.828128018 150.910580576,-33.8282150235 150.91061062399999,-33.828416026 150.910763616,-33.828690029499995 150.91098460800001,-33.829037015499999 150.91131062400001,-33.829415007500003 150.91173862400001,-33.829979997500004 150.91199660799998,-33.830256998 150.91220361599997,-33.830445994 150.91265558399999,-33.83072601 150.91276057600001,-33.8307840075 150.91298659200001,-33.83093099 150.91344659200001,-33.831597989 150.91361859200001,-33.831785986 150.91374057600001,-33.831883980500002 150.91405257599999,-33.832136986500004 150.91427859199999,-33.832255978500001 150.91440057599999,-33.832306983 150.9141536,-33.83260598 150.91292764799999,-33.834119983 150.91287366399999,-33.834182994 150.91268464000001,-33.834403995 150.91248364799998,-33.834660997 150.91250665599998,-33.834702011499999 150.91309459199999,-33.83518599 150.91330364800001,-33.835358983500001 150.91356064,-33.835649988500002 150.91371664,-33.835795990499996 150.91392566399998,-33.835927988 150.914117664,-33.835988982499998 150.91443564799999,-33.835993977500003 150.91457865599997,-33.83593897699999 150.914792608,-33.835827958499998 150.915095616,-33.835732961 150.915219616,-33.835705969500005 150.91532563199999,-33.835707967499999 150.91555260800001,-33.835782966499998 150.91574361599999,-33.835943972 150.91588060800001,-33.836117964499998 150.91595561599999,-33.83664897 150.916021632,-33.836849972499991 150.91610761600001,-33.836951963 150.91631561599999,-33.83711295 150.916470624,-33.837258952 150.91660963199999,-33.837346938 150.916997632,-33.83738194 150.917031616,-33.837424952500001 150.91704361599997,-33.837668949 150.917056608,-33.837854948 150.917156608,-33.838113948 150.91720761599998,-33.838171945500001 150.91726060799999,-33.838173943500003 150.91740361599997,-33.838118943 150.91760262400001,-33.837892947 150.917764608,-33.837780948 150.91787161600001,-33.837739952 150.91799462399999,-33.837755954500004 150.91808259199999,-33.837785924500004 150.91837558399999,-33.8380489205 150.918515584,-33.838122920499991 150.91860358400001,-33.838138923 150.9189216,-33.838143936500003 150.9191496,-33.838204931 150.91923558400001,-33.838277932 150.91939257600001,-33.838365936500004 150.91948057600001,-33.838381920499991 150.91981459199999,-33.838430908500001 150.92004259199999,-33.8385059075 150.920128576,-33.838592913 150.92023257599999,-33.8386809175 150.92047059199999,-33.839056911500002 150.92053859200001,-33.839143917 150.92073158400001,-33.839232902 150.920960576,-33.839250902499998 150.921172544,-33.839239913500002 150.92147356800001,-33.839173887 150.92173856,-33.839177883 150.92184355199998,-33.839208889 150.92200256000001,-33.839225890500003 150.92217654399997,-33.8393288985 150.92245456000001,-33.839533897 150.92257254399999,-33.839735898500003 150.92287555199999,-33.840355889 150.922904544,-33.84061389 150.92291856,-33.840786883500002 150.92296755199999,-33.840944892 150.92306854399999,-33.841131871500004 150.923155552,-33.841218877 150.92394854400001,-33.842019871499993 150.924191552,-33.842181876 150.92438454399999,-33.842213881 150.92502054400001,-33.842223852499998 150.92512854399996,-33.8421108545 150.925168544,-33.841939859 150.92524054399999,-33.841883859500001 150.925383552,-33.84180085 150.92547254399997,-33.841773858499991 150.92610652799996,-33.841826842499998 150.92684851199999,-33.841838830500002 150.92695452799998,-33.841812838 150.92704451200001,-33.841756838500004 150.92715251199999,-33.841657845 150.92719052800001,-33.841558833 150.927268384,-33.841485554500004 150.927336,-33.841342346 150.9273504,-33.841312024499999 150.92734825599999,-33.841215177 150.927344992,-33.841076131 150.92733961600001,-33.840858682 150.92724060799998,-33.840542887 150.92633555200001,-33.838801463499998 150.92623692800001,-33.838611653500003 150.92603497600001,-33.838223227500002 150.92556336000001,-33.83731619099999 150.92551260799996,-33.837218640499998 150.92549891199999,-33.837191908 150.92548345599999,-33.837162030500004 150.92542944,-33.837058264 150.92488188799999,-33.836004985 150.92482105600001,-33.835859723 150.924781792,-33.835692594 150.92476380799999,-33.835582611500001 150.92479980799999,-33.835564167 150.92482787200001,-33.835537971 150.92484444799999,-33.835509536499998 150.92484624,-33.835506206499993 150.92485308799999,-33.835471371 150.924848032,-33.835436369 150.92483113599999,-33.835403975499993 150.92481276800001,-33.835385512500004 150.924772448,-33.835331696 150.92475516799999,-33.835209744 150.92475337600001,-33.834959994 150.92487289600001,-33.833766503499994 150.92492003199996,-33.8336826245 150.925246208,-33.833167917499999 150.925800256,-33.832294643499999 150.92669699199999,-33.832610198 150.92717580799999,-33.832778215 150.92764307199997,-33.832852289 150.92876339200001,-33.833027613500001 150.92885232,-33.833043449500003 150.92893907199999,-33.833065945500003 150.929023328,-33.833094842499996 150.92910396799999,-33.8331298445 150.92920691200001,-33.833186454500002 150.92931132800001,-33.833261786500003 150.92934048000001,-33.8332796945 150.929525536,-33.8333743775 150.92966953600001,-33.833421719 150.92982217599999,-33.833456554500003 150.92989955199999,-33.833469597 150.93001692799999,-33.833483453500001 150.93054144000001,-33.833490742500004 150.930598336,-33.833486876 150.930672128,-33.833472039 150.93075817599998,-33.833438554 150.93080496,-33.833411192500002 150.93083340800001,-33.833390121 150.930859328,-33.833366996 150.93089388800001,-33.833329015499999 150.93092953600001,-33.833273034500003 150.930942848,-33.833243342 150.93095651199999,-33.83319716599999 150.93105948799999,-33.832684253499998 150.93114732800001,-33.832253425499992 150.93198288,-33.832214464499998 150.93221113600001,-33.832202587499999 150.93229571200001,-33.832208063499998 150.93237817599999,-33.832223918 150.932456288,-33.832250373 150.93254195200001,-33.832296456500004 150.93260137600001,-33.832343428 150.93265104,-33.832397781 150.93268128,-33.832443957 150.932704672,-33.8324925565 150.932720512,-33.832543672 150.93272844800001,-33.832595601500003 150.93272844800001,-33.832648345 150.93272448,-33.832683088 150.932651392,-33.8330875535 150.93264889599999,-33.833120039500002 150.932651392,-33.8331683615 150.932667232,-33.833231724 150.93269603199997,-33.833291664 150.932725568,-33.833333437 150.93277561599999,-33.833383109499998 150.93285084799999,-33.833433688500001 150.93291996799999,-33.833463122 150.93295632,-33.833473926 150.93299376,-33.833482029 150.93306323199999,-33.833489484499999 150.933580928,-33.833486432 150.93628451199996,-33.833467802500003 150.93680761599998,-33.833464195 150.93682128,-33.833680552499999 150.93683100800001,-33.833753368499998 150.93685296000001,-33.833861649 150.93707363199999,-33.83460324 150.93709993600001,-33.83466255099999 150.93713340799997,-33.834719346 150.93715932800001,-33.834755513499999 150.93720396800001,-33.834806721500001 150.93729145599997,-33.834882867499999 150.93739260800001,-33.834945601 150.93745920000001,-33.834975922499993 150.93750563200001,-33.834993035 150.93762624,-33.835023819 150.93788940799999,-33.835067109 150.93941868799999,-33.835318838500001 150.94055232,-33.835453833 150.94078307199999,-33.835481453500002 150.94345932799999,-33.835802132499992 150.94362924800001,-33.834947932 150.944153056,-33.835041005500003 150.945846496,-33.835340169 150.94697977600001,-33.835516011500005 150.947884448,-33.835647953500001 150.94794060800001,-33.835659035 150.94811772799997,-33.834788998500002 150.94820700799997,-33.834349346 150.94821132800001,-33.834303984 150.94820556799999,-33.834243785 150.94818828800001,-33.834188877 150.94816489599998,-33.834144051500004 150.948124576,-33.834093472500001 150.94807452800001,-33.834050108500001 150.94804572800001,-33.834031553 150.94801513600001,-33.834015180499996 150.94751977600001,-33.833836803499999 150.94715616,-33.833789813500005 150.94721808,-33.833497772500003 150.94723824,-33.833402368 150.94725696,-33.833313901 150.94727590400001,-33.833222566499998 150.947620032,-33.833292570499999 150.94770505599996,-33.833315584499992 150.94779203199997,-33.833337581 150.94798803200001,-33.83341258 150.948286048,-33.833517586 150.94844704,-33.833599578 150.94872105599998,-33.8337275795 150.949334048,-33.833993554 150.94943904,-33.834023561 150.949468032,-33.834035567500003 150.949614048,-33.834097561 150.94998102400001,-33.834218551 150.95017401600001,-33.83429355 150.950434016,-33.83448354499999 150.95051900799999,-33.834628548 150.95065302399999,-33.834945545499998 150.95084,-33.835248538500004 150.95111702400001,-33.835482545 150.951169024,-33.835497548500001 150.951256,-33.835556545 150.951449024,-33.835616540499998 150.951536,-33.835660533500004 150.95172902399997,-33.835721546500004 150.952008,-33.835868529 150.952181024,-33.836029516 150.95230102400001,-33.836188523499999 150.95233100799999,-33.8364185155 150.95234300800001,-33.836647527 150.952392,-33.836791512499993 150.952408,-33.836863514500003 150.95247702399999,-33.83695052 150.95257702399999,-33.8371805305 150.95268,-33.837339519499999 150.95287001599999,-33.837486520500001 150.95295702399997,-33.837530513499999 150.95320201600001,-33.837620516 150.95350201599999,-33.837639497 150.953856,-33.837602497 150.954070016,-33.837534509500003 150.95433702399998,-33.837410504 150.95462396799999,-33.837242505500001 150.954925984,-33.837176497499996 150.955598976,-33.837072490499992 150.95598793600001,-33.837021486 150.95616496,-33.837024483 150.956253952,-33.837011477499999 150.95653593599999,-33.837016491 150.956995936,-33.836966467 150.95708496,-33.836953461500002 150.95747193599999,-33.836988463499999 150.95757795200001,-33.837018470499999 150.957750944,-33.837150468 150.95781993599999,-33.837237473500004 150.95790595199998,-33.837310474500001 150.95795696,-33.837397461500004 150.95798368,-33.837420309 150.95804595199999,-33.837473459500004 150.95807795199997,-33.837515473 150.95811193599999,-33.837557468 150.958457952,-33.837863439499998 150.95863190399999,-33.837980452 150.95871990399999,-33.8380104405 150.95882492800001,-33.838012438500002 150.95891292799999,-33.838057449 150.959018912,-33.838058448 150.95910592000001,-33.83810344 150.959211904,-33.838104439 150.95929891200001,-33.838134446 150.959863904,-33.838143437 150.960146912,-33.83812042299999 150.96034192,-33.8380944305 150.96047392,-33.838096428500002 150.960641888,-33.838085421 150.96120588799999,-33.838151429 150.96209888000001,-33.83846641 150.96262288,-33.8387044125 150.96298889600001,-33.838896405500002 150.96320688,-33.838989386500003 150.96333884800001,-33.839045386 150.963600864,-33.839135388500004 150.96412585600001,-33.839358387499999 150.96417785599999,-33.839387395499998 150.96436985599999,-33.839476399 150.96457984,-33.839551398 150.964929856,-33.839715382 150.96503484799999,-33.839745370500005 150.96538384,-33.839922378499999 150.965592864,-33.840040371500002 150.96585484799996,-33.840173368 150.965940864,-33.840232364500004 150.96604585599999,-33.840277375 150.96622086400001,-33.8403653795 150.966393856,-33.840525349 150.96649785599999,-33.840599349 150.96657184,-33.840673349 150.96666844800001,-33.840771861500002 150.96657312,-33.840843567500002 150.96652451200001,-33.84088029 150.965982016,-33.841093502500001 150.96571129599999,-33.84121995 150.96497616,-33.841072357 150.96374531199999,-33.840831413</coordinates></LinearRing></outerBoundaryIs></Polygon>

	</Placemark>
</kml>