<?xml version="1.0" encoding="UTF-8"?>
<kml xmlns="http://www.opengis.net/kml/2.2">
	<Placemark>
		<Style>
			<LineStyle>
				<color>ff0000ff</color>
			</LineStyle>
			<PolyStyle>
				<fill>1</fill>
				<color>330000cc</color>
			</PolyStyle>
		</Style>
			<ExtendedData><SchemaData>
		<SimpleData name="STATE_2006">1</SimpleData>
		<SimpleData name="POA_2006">2097</SimpleData>
	</SchemaData></ExtendedData>
      <Polygon><outerBoundaryIs><LinearRing><coordinates>151.27569216000001,-33.722550997 151.275708,-33.722533977 151.27572384000001,-33.722515976499999 151.275736096,-33.722496995500002 151.275742912,-33.722479975500001 151.27574905599997,-33.722461975 151.27575408000001,-33.722442994 151.275759136,-33.722424993499999 151.275764896,-33.722406993 151.275773152,-33.722387013 151.27578,-33.722366034 151.275788992,-33.722345961500004 151.27579907200001,-33.722326980499993 151.275824992,-33.7222970105 151.27583904,-33.722286021500004 151.27585308799996,-33.722274958500002 151.27586892799999,-33.7222659675 151.275885856,-33.722258031 151.27590816,-33.722238957500004 151.275929056,-33.722220957 151.27594992,-33.722200977 151.27597008000001,-33.722180997 151.27598809599999,-33.722161017 151.27600284799999,-33.722143016499999 151.27601689599999,-33.72212501599999 151.27602985600001,-33.722107015500001 151.276043168,-33.722089015 151.27625001600001,-33.722285004 151.277208,-33.723326998 151.278470016,-33.723498992499998 151.281700992,-33.723932003500003 151.287072,-33.724681993499999 151.287332,-33.723339004499998 151.28852099199997,-33.723503007 151.289576,-33.723650008 151.28997801599996,-33.723705008499991 151.291742016,-33.723853008500001 151.294928,-33.724262006499998 151.29597699199996,-33.724398999 151.29864201599997,-33.724766002 151.298968992,-33.724810994 151.298731008,-33.723541006 151.29850099199999,-33.722307999500003 151.298260992,-33.721025006 151.29823500800001,-33.720886996 151.29838601599999,-33.720308001500001 151.298462016,-33.719884 151.29868,-33.718688992499999 151.29899401599997,-33.716967993 151.29900499199999,-33.716968992 151.299016,-33.716965995 151.299026016,-33.716961 151.29903401600001,-33.716953008 151.29903900799999,-33.716943998499993 151.29904099199999,-33.716934008500004 151.29904,-33.716924 151.299035008,-33.716915009 151.299027008,-33.716907997500002 151.29901699199999,-33.716902003500003 151.29900601599996,-33.7168990065 151.29921001599999,-33.715721000500004 151.299215008,-33.715687996500002 151.29939100799999,-33.71466200499999 151.29942598400001,-33.714460003500001 151.299846016,-33.713602991 151.300608,-33.7138640075 151.300789248,-33.7139260565 151.30132124799999,-33.714108059499999 151.30153376000001,-33.714179765499992 151.30151299199997,-33.714209994500003 151.30141900800001,-33.714333001 151.30138099199999,-33.714396992499999 151.301346016,-33.714463000500004 151.30131299199999,-33.714529008500001 151.30128300800001,-33.714595997 151.301256,-33.714664003 151.30121401599999,-33.714819995 151.301196,-33.714981999500004 151.301186016,-33.71514700099999 151.301168,-33.715309005500004 151.301128,-33.715465996500001 151.30106201599997,-33.7156030075 151.30097801599999,-33.715735005 151.30088700799996,-33.715866003500004 151.30080201600001,-33.715997002 151.30073401600001,-33.716133994499998 151.30069401599999,-33.71625400399999 151.300664,-33.716376992 151.30063900799999,-33.716500997499992 151.30061500799999,-33.71662600199999 151.300588,-33.716749008500003 151.30056,-33.716857992 151.30053100799998,-33.716965995 151.300502016,-33.717073998 151.30047299199998,-33.71718200099999 151.300443008,-33.717290004 151.30039299200001,-33.717445996 151.30033900799998,-33.717602006500002 151.300284992,-33.717757998499998 151.30023801600001,-33.717914009 151.30020300800001,-33.718071999 151.300188,-33.718198002500003 151.30018201600001,-33.718325005 151.30017900799996,-33.718453006499999 151.300176,-33.718580009 151.300168,-33.718707992 151.30015500799999,-33.7188349945 151.30014,-33.718961997 151.30012300800001,-33.719088999500002 151.300106016,-33.719216002 151.30008899200001,-33.719343004500004 151.300068,-33.719502992500004 151.30004700800001,-33.71966399799999 151.300024992,-33.719824004499998 151.300004,-33.719984991499999 151.299983008,-33.720144998 151.299968,-33.7202759965 151.299956,-33.720407994 151.29994201599999,-33.720538992500003 151.299926016,-33.720668992 151.299903008,-33.720798991500004 151.29987699200001,-33.720903997500002 151.299844992,-33.7210080045 151.29981100800001,-33.721111993 151.29978,-33.721216 151.299759008,-33.721321006 151.299746016,-33.721446991 151.299744,-33.721573993499995 151.299747008,-33.721701995 151.29975001599999,-33.721828997499991 151.299746016,-33.721956999 151.29973100800001,-33.7220909945 151.299708,-33.722226007499998 151.29968499200001,-33.722361002 151.29966899199999,-33.7224949975 151.299664992,-33.722628993 151.29968099199999,-33.722768002 151.299711008,-33.7229059935 151.299748,-33.723045002500001 151.29978300799999,-33.723183993 151.29980899200001,-33.723323002 151.29982899199999,-33.723516993 151.29984300800001,-33.723711002500004 151.299848,-33.723906991500002 151.299844992,-33.724102 151.29983401600001,-33.724295991 151.29984099199999,-33.724381997499997 151.299847008,-33.724467005 151.29985100799996,-33.724552993 151.29985398400001,-33.724638999500002 151.299856,-33.724725006 151.299856,-33.724819004499999 151.299852,-33.724914002 151.299848,-33.725008000500004 151.299844992,-33.725101999 151.299847008,-33.725196996499996 151.29985398400001,-33.725300004499999 151.29986499200001,-33.725403993 151.299879008,-33.725507001 151.29989500799999,-33.725610009 151.299914016,-33.725712998500001 151.29993500800001,-33.725807996 151.299959008,-33.725901994499999 151.29998499199999,-33.725996992 151.30001100800001,-33.72609100899999 151.30003299200001,-33.726186006500001 151.30005401599999,-33.726288996 151.300072,-33.726393003 151.30008899200001,-33.726495992499999 151.300106016,-33.726599999500003 151.30012601600001,-33.726703007499999 151.30014300799999,-33.726788995500002 151.30016,-33.726875002 151.30017801599999,-33.726962007499999 151.300198016,-33.727047995500001 151.30022,-33.727133003 151.300251008,-33.727232995500003 151.300286016,-33.727332007499996 151.300322016,-33.727431001 151.30035801599999,-33.727529994500003 151.30039001599997,-33.727629006500003 151.300416,-33.727723005 151.30043801599999,-33.727819001500002 151.30045900799999,-33.727913999 151.30048201599999,-33.728008996500002 151.300508992,-33.728102995 151.30054099200001,-33.728193996500003 151.300576,-33.728283999 151.300612992,-33.728374001500001 151.300648,-33.728465003 151.30068,-33.7285560045 151.30070601599999,-33.728646007 151.30072899199999,-33.728737008499998 151.30075100799999,-33.728826992500004 151.30077299199999,-33.728917994 151.3008,-33.729007996500002 151.300851008,-33.729152000500001 151.30091001599996,-33.729295005499999 151.300972992,-33.729435994 151.30103500799999,-33.729578 151.30109401600001,-33.729720006 151.30113500799999,-33.729828009 151.301174016,-33.729934994499999 151.30121401599999,-33.7300429975 151.301252,-33.730151000500001 151.301288992,-33.730259003500002 151.30131798400001,-33.730350005 151.301346016,-33.730441006499994 151.30137401600001,-33.730532008 151.30140300799997,-33.730621992 151.301434016,-33.730711994499998 151.30146499200001,-33.730795004 151.30149699199998,-33.730877995 151.30153100800001,-33.730960005500002 151.30156700799998,-33.7310419975 151.30160601599997,-33.731121991500004 151.30165299199999,-33.731211994 151.30168499199996,-33.731271009 151.30169001600001,-33.731295003500001 151.30171100800001,-33.731324992 151.301732,-33.731354999 151.30175299199999,-33.731385006 151.30177401599997,-33.7314149945 151.301795008,-33.731445001499999 151.30182601600001,-33.731487995500004 151.30185900800001,-33.731531008 151.30189100800001,-33.731575001 151.30192300799996,-33.731617995 151.301952992,-33.731662006500002 151.301987008,-33.73171600799999 151.30201699199998,-33.731771008500004 151.30204700799999,-33.731827008 151.302078016,-33.731882008500001 151.30211001599997,-33.731935991500002 151.30213500799999,-33.731972991500001 151.30216,-33.732008992499992 151.30218499200001,-33.732045992499998 151.302211008,-33.732081993500003 151.302236,-33.732118993500002 151.302258016,-33.732153995499999 151.30226691199999,-33.732168555 151.30228,-33.732189996500004 151.302302016,-33.732224998500001 151.302324992,-33.732260999499999 151.302347008,-33.732296001500004 151.30238,-33.732345008 151.302412992,-33.732392997 151.30245500800001,-33.732471992 151.30247001599997,-33.732498003 151.30248601599999,-33.732523995500003 151.302516,-33.732569006 151.30254899199997,-33.732612999 151.302584,-33.732655993 151.30262,-33.732699005500002 151.30265699200001,-33.732740001499991 151.302692992,-33.732777001499997 151.30273100799999,-33.732813002500002 151.30276899200001,-33.732848004499999 151.302807008,-33.732884005500004 151.302844,-33.732920006500002 151.30287900799999,-33.732957006499994 151.302912,-33.732995005500001 151.30294601599999,-33.733033004500001 151.30298099199999,-33.733070004499993 151.30301699200001,-33.733106005499998 151.303067008,-33.733149998500004 151.303122016,-33.7331919935 151.303176992,-33.733233008 151.30323100800001,-33.733274004 151.30328300799999,-33.733317997 151.30332,-33.733353998 151.30335401599999,-33.73339199699999 151.303388,-33.733428997 151.303424,-33.733464998 151.30346300799999,-33.733498002 151.30349401599997,-33.733518999499999 151.303527008,-33.73353799899999 151.303560992,-33.733555999499998 151.303596,-33.733574 151.303630016,-33.733592000499996 151.303664,-33.733611999 151.303698016,-33.733632996499999 151.303732,-33.733653994 151.30378300800001,-33.733674991500003 151.303804,-33.733680005 151.30382700800001,-33.733682003 151.30385001600001,-33.733683002 151.30387299200001,-33.733683002 151.303896,-33.733683002 151.30391900800001,-33.733682003 151.303944,-33.733679006 151.30396899199999,-33.733676009 151.30399401599999,-33.733670995499999 151.30401900800001,-33.733666000500001 151.304044,-33.733660006500003 151.304068,-33.733652995 151.30409299199999,-33.733645003 151.30411801599999,-33.733635993500002 151.30414201599999,-33.7336260035 151.30416499200001,-33.733614996 151.304176,-33.733600991499998 151.30418899200001,-33.733581992 151.304203008,-33.733566008 151.30421699199999,-33.7335500055 151.30423299200001,-33.733530007 151.304250016,-33.733511007499999 151.30426598400001,-33.733491009 151.304282016,-33.733471991 151.304304,-33.7334440005 151.304315008,-33.733427998 151.30432700799997,-33.733412994499993 151.304338016,-33.733397991 151.304348992,-33.733383006 151.30436,-33.733368002500001 151.30437801599996,-33.733345007 151.304395008,-33.733321993 151.304412,-33.733300995500002 151.304428,-33.733281996 151.304444,-33.733263995500003 151.30446499199996,-33.73327899899999 151.304484992,-33.733294002500003 151.304506016,-33.733310005 151.30452601599998,-33.733326007500004 151.30454499199999,-33.733341991499998 151.30456099200001,-33.733355996 151.304576,-33.733370000500003 151.304592,-33.733384005 151.30460601600001,-33.733397991 151.30462899199998,-33.733420006 151.304644,-33.7334360085 151.30465900799999,-33.733451992500001 151.30467500799998,-33.733463999 151.30469100799996,-33.733476005500002 151.30470601599998,-33.7334889925 151.30472,-33.733501998 151.304746016,-33.733523994500004 151.304767008,-33.733542994 151.30478601600001,-33.733563991499999 151.304799008,-33.733581992 151.304811008,-33.733599992500004 151.304823008,-33.733625004499999 151.30482899200001,-33.733643005 151.30482899200001,-33.733664002499999 151.30482601599999,-33.733683002 151.304832,-33.733709993499993 151.30484,-33.733737003500003 151.30484899199999,-33.733758001 151.30486201599999,-33.733777999499999 151.304876,-33.733797998 151.30489001599997,-33.7338169975 151.30490601599999,-33.733833999 151.30491801599999,-33.733857993500003 151.30491699199999,-33.733878991 151.304912,-33.733899008 151.30492099200001,-33.733914992 151.304932992,-33.733929995499999 151.304958016,-33.733945998 151.30498700800001,-33.733958004500003 151.30500601599999,-33.733974007 151.305015008,-33.733992007499999 151.305028,-33.734004994500005 151.30505100799999,-33.734011007 151.30507798400001,-33.734009009 151.305104992,-33.733999000499999 151.305124992,-33.733988992 151.30514899199997,-33.733997002500004 151.30516601599999,-33.734003995500004 151.305192,-33.734004994500005 151.305218016,-33.734004994500005 151.305236,-33.734011007 151.30525299199999,-33.734021996 151.305268,-33.734036999499999 151.30528201600001,-33.734061993 151.305295008,-33.734090002 151.30531100799999,-33.734122007 151.30532499199998,-33.734153993500001 151.30533500799999,-33.734187996500005 151.305339008,-33.734223997500003 151.30534601599999,-33.7342589995 151.305362016,-33.734289006499999 151.30538099200001,-33.734317996 151.30539900799999,-33.734345006 151.30541401599996,-33.734369000500003 151.305431008,-33.734392995 151.30545001600001,-33.734419006 151.305472,-33.734443999500002 151.30549699199997,-33.734459003 151.305524,-33.734467994 151.305552,-33.734475005500002 151.30557801599997,-33.734481998500002 151.30560201599999,-33.734491008 151.30561401599999,-33.734506992 151.305608992,-33.734536 151.305596,-33.734564009 151.305576992,-33.734589002500002 151.305552992,-33.734610999 151.305531008,-33.734629998500004 151.30551299199996,-33.734646001 151.30549299199998,-33.734660005500004 151.305476,-33.734675009 151.30546,-33.734686997 151.30543798400001,-33.734688995 151.305412,-33.7347020005 151.30539001599999,-33.734719002 151.30537500799997,-33.734737002499998 151.305363008,-33.734758 151.30535801600001,-33.734781994500004 151.305364,-33.734812001500003 151.305372992,-33.734839992 151.30538201600001,-33.734865004 151.30539299200001,-33.734888998500004 151.305407008,-33.734912993 151.30542,-33.734936007 151.30543401599999,-33.734960001499999 151.30545100800001,-33.734987992 151.30547001599999,-33.735016001 151.305488,-33.7350439915 151.305508,-33.735071001500003 151.30552899200001,-33.735097993 151.30554499199999,-33.735117991499997 151.30556201599998,-33.735136991 151.305579008,-33.735157008 151.305596,-33.735176007499994 151.305612,-33.735196006 151.305632992,-33.735223996500004 151.305652,-33.735253004500002 151.30567001599999,-33.735280995 151.305690016,-33.735310003 151.30571001600001,-33.735337993500004 151.30572899200001,-33.735358991 151.30575001599996,-33.735380007 151.30577100799999,-33.735401004499998 151.305790016,-33.735423001 151.30580899200001,-33.735444997500004 151.305824992,-33.735466994 151.30583900799999,-33.735490008 151.305852,-33.735513003500003 151.30586598400001,-33.735535999 151.305880992,-33.735557995500002 151.30589500799996,-33.735573998 151.30590899200001,-33.735590000500004 151.305924,-33.735606003 151.305936992,-33.735623004499999 151.305947008,-33.735640006 151.30595401599999,-33.7356620025 151.30595699200001,-33.735685997 151.30595699200001,-33.735709991500002 151.30595699200001,-33.735735003500004 151.30596,-33.735758998 151.30596499200001,-33.735794 151.305968992,-33.735812000500005 151.305976,-33.735847002500002 151.305976,-33.735872995 151.305976,-33.735899006 151.30597500799999,-33.735925997500004 151.30597299199999,-33.7359520085 151.305970016,-33.735973006 151.30596700800001,-33.735993004500003 151.30596300799999,-33.736014002 151.305959008,-33.736034999499999 151.30595500800001,-33.736055997 151.30595100799999,-33.736086004 151.30594601600001,-33.736115992500004 151.30594201599996,-33.736145999500003 151.30593801599997,-33.736176006500003 151.305936,-33.736206994 151.305936,-33.736245992 151.305936992,-33.736286007499999 151.30594,-33.7363260045 151.305947008,-33.736365002500001 151.305956,-33.736403001500001 151.30596601600001,-33.73642999299999 151.30597798399998,-33.736457003 151.305992,-33.736482995499998 151.306004992,-33.736509006499993 151.306016,-33.736534999 151.306028,-33.736571 151.306036,-33.736607001 151.306044,-33.73664300199999 151.30605401599999,-33.736679003 151.306068,-33.736713006 151.30607801599999,-33.7367300075 151.306088,-33.73674700899999 151.3061,-33.736763992 151.30611100799999,-33.736780993499998 151.30612099199999,-33.736798994 151.30613299199999,-33.736826004 151.30614300799999,-33.736853994500002 151.306152,-33.7368820035 151.306160992,-33.736909994 151.306172992,-33.736937004 151.30618700799999,-33.736960998500003 151.30620201599999,-33.736984993 151.306218016,-33.737009006 151.30623299199999,-33.737032001500005 151.30625900800001,-33.737070999499998 151.30627699199999,-33.737099008500003 151.30629500800001,-33.737128997 151.30630300799999,-33.737144999500003 151.30631100799999,-33.737163 151.30631801600001,-33.737180001500001 151.30632499199999,-33.737197003 151.306332,-33.737214004500004 151.30634899199998,-33.737257997500002 151.306366016,-33.7373009915 151.30638099199996,-33.73734500299999 151.306396992,-33.737387997 151.30641401599999,-33.737432008500001 151.306428,-33.737464994 151.30644201599998,-33.737498997 151.306456,-33.737532001 151.306472,-33.737565005 151.306488992,-33.737596991499998 151.306512,-33.737630994500002 151.30653801599999,-33.737663998500004 151.30656499200001,-33.737697002499999 151.306592,-33.737730006500001 151.30662,-33.737761993 151.306646016,-33.737792999 151.30667299199999,-33.737823006 151.3067,-33.737852994500003 151.306726016,-33.737883001500002 151.306750016,-33.737915006500003 151.306768992,-33.737945994 151.30678601599999,-33.737978998 151.30680201600001,-33.738012002 151.30681900799999,-33.738044007 151.30684099199999,-33.738072996500001 151.30686700800001,-33.738100006499998 151.306896,-33.738126998 151.306928,-33.738150992500003 151.306960992,-33.738173007500002 151.306996,-33.738193006 151.30704499199999,-33.738234002 151.307096,-33.738273999 151.307125216,-33.738296902 151.30714700799999,-33.738313996 151.307198016,-33.738352994 151.30725001600001,-33.738391992 151.30729500800001,-33.738424996 151.30734,-33.738458999 151.30738601600001,-33.738491004 151.307432,-33.738523009 151.30748,-33.738553996500002 151.30753100800001,-33.738585002500002 151.307582016,-33.738614991 151.30763500799998,-33.738643999 151.307688,-33.738672008 151.30774201599999,-33.738698999499995 151.307804992,-33.738729006500002 151.30787001600001,-33.738757996 151.30793500799999,-33.738785006 151.30800099199999,-33.7388109985 151.308068,-33.738836991 151.308124,-33.738858007 151.30818,-33.738879004499999 151.30823699199999,-33.738899003 151.30829401599999,-33.738919001500001 151.30835100799999,-33.738938001 151.30841801599999,-33.738960996499998 151.30848499199999,-33.738984991 151.308552,-33.739007006 151.30862,-33.739026005500001 151.30868899199999,-33.7390399915 151.30875500799999,-33.739046004 151.30882300799999,-33.739046004 151.30889100799999,-33.739044006 151.30896,-33.739042008 151.30902700799996,-33.739044006 151.30908499200001,-33.739050999 151.30914201600001,-33.739061007499998 151.30919798400001,-33.739070997499994 151.309256,-33.739079008 151.30931299199997,-33.739084003 151.30937699200001,-33.739084003 151.30944099199999,-33.739080007 151.309504992,-33.739073994500004 151.30956899200001,-33.739065003500002 151.309631008,-33.739052997 151.309708,-33.739032998500001 151.30978300800001,-33.739007006 151.30985801599999,-33.738977998 151.30993100800001,-33.738946992 151.310004,-33.738916004499998 151.310047008,-33.738897005 151.310088992,-33.738876007500004 151.31013100800001,-33.738856009 151.31017401599999,-33.738836991 151.31021801599999,-33.738822006 151.31027299199999,-33.738807002500003 151.310332,-33.738792998 151.31039100799998,-33.738783008 151.31044601599996,-33.738780991500001 151.31049401600001,-33.738790001 151.310519008,-33.7388040055 151.310540992,-33.738823005 151.31056201600001,-33.738843003500001 151.310584992,-33.738861004 151.310608992,-33.738870994 151.310644,-33.738869995 151.31068201599999,-33.738854991499998 151.310722016,-33.738835992 151.31076201599998,-33.738819009 151.310800992,-33.738811997499994 151.310822016,-33.738813995500003 151.31084300800001,-33.738816992499999 151.31086499199998,-33.738821007 151.31088598400001,-33.738826002 151.31090700799999,-33.738830997 151.31093900799996,-33.738841005499992 151.310970016,-33.738851994500003 151.311000992,-33.738864001 151.31103299199998,-33.738872992 151.31106499200001,-33.738878005499998 151.31110201600001,-33.738875008500003 151.31114099199999,-33.738865 151.31117900800001,-33.738851994500003 151.311218016,-33.738838008500004 151.311256,-33.738827001 151.31129001599999,-33.738821007 151.31132499200001,-33.738814994500004 151.31136,-33.738809999499999 151.31139299199998,-33.7388030065 151.31142598400001,-33.738793997 151.31145699199999,-33.738782009 151.311487008,-33.738768004500002 151.311516,-33.738753001 151.31154601599999,-33.738738996500004 151.311576,-33.738724992 151.311622016,-33.738711006 151.31167001599999,-33.738698999499995 151.31171900800001,-33.738687992 151.31176601600001,-33.738675005 151.31180998400001,-33.738658003499999 151.31183900799999,-33.738642001 151.31186700800001,-33.738624000500003 151.311892992,-33.738605001 151.31192099200001,-33.738587000500004 151.311950016,-33.738570998 151.311984,-33.738556993499998 151.31202,-33.738545005500001 151.31205699200001,-33.738532999 151.312094016,-33.738523009 151.31213100799997,-33.738512001499998 151.312175008,-33.738496998 151.31222,-33.738480995499998 151.312264,-33.738464993 151.312308992,-33.738453005 151.312355008,-33.738443995499999 151.312392,-33.738440998500003 151.312431008,-33.738440998500003 151.31246899199999,-33.738441997500004 151.31250700800001,-33.738443995499999 151.312544992,-33.738446992500002 151.312588,-33.738449009 151.31263100800001,-33.738451007 151.31267401599999,-33.738454004 151.312716,-33.738458999 151.312756992,-33.738466991 151.312792,-33.738478997500003 151.312824992,-33.738494001 151.31285801599998,-33.738510003500004 151.31289100800001,-33.738526006 151.31292499200001,-33.738539992 151.312962016,-33.738552997499994 151.313,-33.738564005 151.313039008,-33.738573995 151.31307699199999,-33.738585002500002 151.31311500800001,-33.738595991499999 151.313152992,-33.738607998 151.313192,-33.7386200045 151.31323001600001,-33.738631992500004 151.313268,-33.73864499799999 151.313304,-33.738661000500002 151.31333100800001,-33.738673007 151.313358016,-33.738685994 151.31338300799999,-33.738699998500003 151.313408,-33.738716001 151.31342998399998,-33.738733002499998 151.313446016,-33.738752002 151.313458016,-33.738773998500001 151.31347100799999,-33.738795995 151.313484,-33.738815993499998 151.313502016,-33.738830997 151.31352300799998,-33.738841005499992 151.313548,-33.738847998499999 151.31357500799999,-33.738852993500004 151.313602016,-33.738856009 151.31364601600001,-33.738861004 151.313680992,-33.738863002 151.31371299200001,-33.738869995 151.313732,-33.738884998499998 151.31374499200001,-33.738907994 151.31375500799999,-33.73893700199999 151.313764,-33.738967009 151.313774016,-33.7389940005 151.31378899200001,-33.739028003500003 151.31380201600001,-33.739062006499999 151.313816,-33.739095991 151.313830016,-33.739129994 151.31384499200001,-33.73916299799999 151.313862016,-33.739198 151.31388099200001,-33.739231004 151.3139,-33.739265007 151.313919008,-33.7392989915 151.31393699200001,-33.739332994500003 151.31394899200001,-33.739358006499998 151.31396099200001,-33.739383 151.313972,-33.739408992500003 151.313984,-33.739433005500004 151.313998016,-33.739457999 151.31401500800001,-33.7394819935 151.314032,-33.739506006500001 151.31405100800001,-33.739529002 151.31407100800001,-33.739551997500001 151.31409100799999,-33.739573994 151.314111008,-33.739592993500004 151.314132,-33.739609995 151.314154016,-33.739627995500001 151.31417500800001,-33.739644997 151.31419500800001,-33.739663996499999 151.31421699200001,-33.739685993 151.31423801599999,-33.739709007 151.31425900799999,-33.739733001499999 151.314279008,-33.739755997 151.31429900800001,-33.739779991500001 151.314324,-33.7398099985 151.31435001599999,-33.7398400055 151.31437500799998,-33.739870993 151.31439900800001,-33.739901 151.31442300800001,-33.739932006 151.314438016,-33.739952004499997 151.314452,-33.739972003 151.31446598399998,-33.739992001499999 151.31448,-33.740011001 151.31449500799999,-33.7400309995 151.31452099200001,-33.740057991 151.314548,-33.740085001 151.314576,-33.740110993500004 151.314604,-33.7401380035 151.314630016,-33.740164995 151.31465401599999,-33.740192005 151.31467699199999,-33.740218996499998 151.31469900799999,-33.740246006500001 151.31472099199999,-33.740272998 151.314744,-33.740299009 151.314763008,-33.740319007499998 151.31478099200001,-33.740339006 151.3148,-33.7403590045 151.314819008,-33.740379003 151.31483801600001,-33.740398002500001 151.31486899199996,-33.740422996 151.3149,-33.740449007 151.31493001599998,-33.740475998500003 151.31496,-33.740503008499999 151.314988992,-33.74053 151.31504,-33.7405869985 151.31508499200001,-33.740647993 151.31512899200001,-33.740709006 151.315176,-33.740769001499999 151.31523001599999,-33.740822004 151.31528499199999,-33.740864998 151.315344,-33.740904995 151.31540700799999,-33.740942994 151.31547001600001,-33.740977996 151.31553500800001,-33.741011999 151.31558700799999,-33.741037991500001 151.315640992,-33.741062004500002 151.31569500800001,-33.741085 151.31574998400001,-33.741106996500001 151.315804,-33.741128993 151.315848,-33.741145994500002 151.31589299199996,-33.741162996 151.31593801599999,-33.741178998500004 151.31598201599996,-33.741196 151.316024992,-33.741214999500002 151.31609500799999,-33.7412510005 151.31616300799999,-33.741292995500004 151.31622899199999,-33.741336008 151.31629699199999,-33.741378003 151.31636700799999,-33.74141500299999 151.316419008,-33.741439996499999 151.316472,-33.741463991 151.31652601600001,-33.741486006 151.31658,-33.741506004500003 151.316636,-33.741522007 151.31669100799999,-33.741533995 151.316748,-33.741542005500001 151.31680499199999,-33.741548998499994 151.31686201599996,-33.741552994499997 151.31691900800001,-33.741557009 151.31696700800001,-33.741558008 151.31701401599997,-33.741557009 151.31706099199999,-33.7415559915 151.317108,-33.7415559915 151.31715401599999,-33.741560006 151.317184,-33.741565001 151.31721401600001,-33.741569996 151.317244,-33.741577007499998 151.31727299199997,-33.741584000499998 151.31730099200001,-33.741592991499999 151.31733699200001,-33.741606996 151.317372,-33.741622998499999 151.31740601600001,-33.74164099899999 151.31743900800001,-33.741658999500004 151.31747299200001,-33.741677999 151.31750300799999,-33.7416930025 151.31753500799999,-33.741709005 151.317566016,-33.741725007500001 151.31759401599999,-33.741742009 151.31761900800001,-33.741762007499993 151.317652,-33.741799007499999 151.31768,-33.741843000499998 151.31770201599997,-33.741890009 151.31771401599997,-33.741936999 151.31771401599997,-33.741979993 151.31770499199999,-33.74201 151.317690016,-33.742041006 151.31767100799999,-33.742069995500003 151.317648,-33.742098004500001 151.31762499199996,-33.742122998 151.31759699200001,-33.742146992500004 151.317566016,-33.742168008500002 151.317532,-33.742188007 151.317496992,-33.742206007500002 151.31746201600001,-33.742224008 151.31742300799999,-33.7422420085 151.31738300800001,-33.742255994499999 151.317342016,-33.742270998 151.31730099200001,-33.742286001499998 151.317263008,-33.742304002 151.317232,-33.742323001500004 151.31720201600001,-33.742343999 151.317174016,-33.742364996500001 151.317144,-33.742385994 151.3171,-33.742411006 151.317076,-33.742423993 151.317050016,-33.742435000499995 151.31699900800001,-33.742447007 151.31694300800001,-33.742449005 151.316884,-33.742446008 151.31682499199999,-33.742442992500003 151.316766016,-33.742441993500002 151.31672899200001,-33.742443991500004 151.316692,-33.742446008 151.31665500799997,-33.742449005 151.31661801600001,-33.742450004 151.31658099199998,-33.742449005 151.316540992,-33.742445009 151.31650201599996,-33.742438996499999 151.31646300799997,-33.742431004499998 151.316424,-33.742422994 151.316384,-33.742416001 151.31633001599997,-33.742408009 151.316276,-33.742400997499999 151.31622099200001,-33.7423950035 151.31616700800001,-33.742388991 151.316112992,-33.74238099899999 151.31607401599999,-33.742375005 151.316034016,-33.742368992499998 151.31599500799999,-33.742361999499998 151.31595500799997,-33.742355006499999 151.315916,-33.742346996 151.315879008,-33.742339004 151.315843008,-33.742329994500004 151.31580601599998,-33.742321003500003 151.31576899199999,-33.742311994 151.315732,-33.742304002 151.315710016,-33.742299007 151.315688,-33.7422949925 151.31566499199999,-33.742290996500003 151.315643008,-33.742286001499998 151.31562099199999,-33.742282005500002 151.31558700799999,-33.742271997 151.315552,-33.742260009 151.315519008,-33.742247003500005 151.315484,-33.742235996 151.315448992,-33.742228004 151.315394016,-33.742219993500001 151.315338016,-33.742217995499992 151.31528,-33.742217995499992 151.315223008,-33.742220992500002 151.31516601600001,-33.742224008 151.315123008,-33.742226006 151.31508099199999,-33.742228004 151.31503900800001,-33.742232 151.314996992,-33.742235996 151.314956,-33.742240991 151.314908,-33.7422500005 151.31486099200001,-33.742261008 151.31481401600001,-33.742271997 151.31476700799999,-33.742282005500002 151.31472,-33.742289997500002 151.314688,-33.742292994499998 151.314656,-33.742293993499999 151.314624,-33.7422949925 151.31459100800001,-33.742295991500001 151.31455900799997,-33.742298008 151.31452,-33.742301005 151.31448,-33.742304002 151.31444,-33.742306999 151.314400992,-33.742310995 151.31436099199999,-33.742316008499998 151.31430601599999,-33.742324999499999 151.314252,-33.742337006 151.31419699200001,-33.742349993 151.314143008,-33.742362998499999 151.31408899199999,-33.742374006 151.314044,-33.742381998 151.313999008,-33.742387992 151.313954016,-33.742394004499999 151.31390899199999,-33.7424019965 151.31386499199999,-33.742412005 151.31382099199996,-33.742423993 151.31377699199999,-33.742437997499998 151.31373299200001,-33.742453001 151.313692,-33.7424710015 151.31365401599999,-33.742491999 151.313627008,-33.742513995499998 151.313603008,-33.742539007499992 151.31358,-33.742565999 151.313556,-33.742591991499999 151.313528,-33.742614006499998 151.313488,-33.742635004 151.313444,-33.742651006500004 151.31339699200001,-33.742663993500003 151.31335001599999,-33.742677998 151.31330499200001,-33.742693001500001 151.313248,-33.742716996 151.31319299200001,-33.742742008 151.31313798400001,-33.7427680005 151.313084,-33.742794992 151.31301299200001,-33.742828995 151.31298,-33.742841001500004 151.312948,-33.742855006 151.312928,-33.742866994 151.31290899199999,-33.742879000500004 151.31288998400001,-33.742893005 151.312871008,-33.742906991 151.312852,-33.742919996499992 151.31283401600001,-33.74293200299999 151.31281699199999,-33.742945008500001 151.3128,-33.742957995499999 151.31278099199997,-33.742969003 151.31276099199999,-33.742975996 151.312735008,-33.742977994 151.31270700799999,-33.742974997 151.31267801599998,-33.742969003 151.312648,-33.742961991500003 151.31262,-33.742955997500005 151.3126,-33.742953999500003 151.31258099199999,-33.742952001500001 151.31256300800001,-33.742950003499999 151.312544,-33.742948005500004 151.312524,-33.742946007500002 151.31249699200001,-33.742943991 151.31246899199999,-33.742942992 151.31244201600001,-33.742941993 151.31241401599999,-33.742939995 151.312388,-33.742935999 151.312364992,-33.742928007 151.312343008,-33.742918997499999 151.312322016,-33.742909007500003 151.3123,-33.742899998 151.31227801599999,-33.742894004 151.31225299199997,-33.742893005 151.312228,-33.742893005 151.31220201599999,-33.742896002 151.312176,-33.74289899899999 151.312151008,-33.742901996 151.312119008,-33.742903994 151.31208700799999,-33.742906991 151.312056,-33.742909007500003 151.312024,-33.742911005499998 151.311992,-33.742912004499999 151.31195699200001,-33.742912004499999 151.311939008,-33.742911005499998 151.31192099200001,-33.742911005499998 151.311903008,-33.742911005499998 151.31187900800001,-33.742914002500001 151.311856,-33.742917998499998 151.31183299200001,-33.742922993500002 151.31180998400001,-33.742927008 151.31178598400001,-33.74293200299999 151.311764,-33.742935 151.31174198400001,-33.742937997 151.31172,-33.74294099399999 151.31169801600001,-33.742943991 151.31167500800001,-33.742948005500004 151.31165401600001,-33.742952001500001 151.311632992,-33.742956996499998 151.311612,-33.742961991500003 151.31159100799999,-33.742967005 151.31156899199996,-33.742972999 151.31154700799999,-33.742977994 151.31152499199999,-33.742984006500002 151.31150201599999,-33.742990000500001 151.31148,-33.742995994499999 151.31145801599999,-33.743002007 151.31142499200001,-33.743011997 151.31139299199998,-33.743024003500004 151.31136,-33.743033993499999 151.31132700800001,-33.743043003 151.31127699199999,-33.743048997 151.31124300799999,-33.743046999 151.31120899199999,-33.743046999 151.31119100800001,-33.743047998 151.311172992,-33.743049996 151.31115500799999,-33.743052993 151.31111900799999,-33.743059005500001 151.31109699199999,-33.743064000499999 151.311076,-33.743069994499997 151.31105500800001,-33.743077006 151.31103401600001,-33.743084998 151.311012992,-33.743093008500004 151.310992,-33.7431029985 151.31097299199999,-33.74311600399999 151.31095299200001,-33.743127992 151.31093299200001,-33.743139998499998 151.310912,-33.743149008 151.31089401599999,-33.743155002 151.31087500800001,-33.743159997 151.310856,-33.743163993 151.310836,-33.743165991 151.310816,-33.743168007500003 151.31079401599996,-33.743187007 151.31077100799999,-33.743204008500001 151.31074700799996,-33.743220991499996 151.310722016,-33.743235995 151.31069699199998,-33.743250998500002 151.31065801599999,-33.743270997 151.31061500800001,-33.743287998500001 151.310572992,-33.743304001 151.31052899199997,-33.743318005500001 151.310484992,-33.743333009 151.31044300799999,-33.743344997 151.3104,-33.743356004500001 151.31035699200001,-33.743365994500003 151.31031401600001,-33.743378001 151.31027299199999,-33.7433930045 151.310228,-33.743415001 151.31018499199996,-33.743439994500001 151.31014300800001,-33.743467004500005 151.310102016,-33.743495994 151.31006099199999,-33.743524003 151.310024,-33.743547997500002 151.309988,-33.74357199199999 151.309952,-33.743597004 151.30991699200001,-33.743621997499993 151.30988099199999,-33.743648008500003 151.30985801599999,-33.743666009 151.30983500799999,-33.743685008500002 151.309812,-33.743704008 151.309787008,-33.743722008500001 151.30976201600001,-33.743736993500001 151.309708992,-33.743757991 151.30965001600001,-33.743770996500004 151.30958700799999,-33.74378000599999 151.30952499200001,-33.743788997 151.30946601599999,-33.743804000499999 151.30941900799999,-33.743820003 151.30937299199999,-33.743839002500003 151.309328,-33.743859001 151.30928300799999,-33.743879998499999 151.309236992,-33.743898998 151.30918499200001,-33.743919995500001 151.30913299199997,-33.743941992 151.30908,-33.743963008 151.309028,-33.743983006500002 151.30897401600001,-33.744001007 151.308916,-33.744016991 151.30885699199999,-33.744030995499998 151.308798016,-33.74404400099999 151.30873801600001,-33.744056007499992 151.30867801599999,-33.744066996500003 151.30864601600001,-33.744073009 151.30861401600001,-33.744078004 151.308582016,-33.744082999 151.308550016,-33.744087994 151.30851801599999,-33.744093007499998 151.308488,-33.744094006499999 151.308458016,-33.744097003500002 151.308428,-33.744100000499998 151.30839900800001,-33.744104995500003 151.308370016,-33.744110009 151.308344992,-33.744117002 151.30831900799998,-33.744124994 151.30829401599999,-33.7441330045 151.30827001599999,-33.744140996500001 151.308244,-33.744148008 151.308208992,-33.744153003 151.308172,-33.744156 151.308136,-33.74415699899999 151.3081,-33.744159996 151.308064,-33.744164991 151.30802700800001,-33.744173001499995 151.30799001599999,-33.744182991500004 151.307954016,-33.744194998 151.307919008,-33.744208003499999 151.307883008,-33.744221009 151.30784598400001,-33.744236993 151.30781001599999,-33.7442549935 151.307774016,-33.74427399299999 151.307739008,-33.744291993499999 151.30770201600001,-33.744309994 151.30766499200001,-33.744325996500002 151.30762700799997,-33.744341 151.30758899200001,-33.744355004500001 151.30755100799999,-33.744370008 151.307514016,-33.744385992 151.30748,-33.7443999965 151.307447008,-33.744415999 151.307414016,-33.744431002500001 151.30738099199999,-33.744447005 151.307348,-33.744460991 151.307324,-33.744470999500003 151.307299008,-33.744480009 151.30727500799998,-33.744489999 151.307252,-33.744500007500001 151.30723001600001,-33.744511995499998 151.30720700800001,-33.744528997 151.307187008,-33.744549994499991 151.30716899199999,-33.74457099199999 151.30714899200001,-33.744591009 151.30712700800001,-33.744607992 151.30709401600001,-33.744623994500003 151.307056,-33.744636001 151.307018016,-33.74464599099999 151.30698,-33.744656998499998 151.30694598400001,-33.744671003 151.30692099199999,-33.744686006500004 151.30689801599999,-33.744704007 151.30687500799999,-33.744722007500002 151.306852,-33.744739009 151.306827008,-33.744753994 151.306792992,-33.744768997500003 151.306756992,-33.744779006 151.30671900799999,-33.744788996 151.306682016,-33.744799004500003 151.306646016,-33.7448109925 151.30662,-33.74482100099999 151.30659500799996,-33.744832008499998 151.306568992,-33.744842997500001 151.30654499199997,-33.744855004 151.30652,-33.744867991 151.306487008,-33.744887009 151.306456,-33.744907007500004 151.30642499199999,-33.744929004 151.30639401600001,-33.744950001500001 151.30636201600001,-33.74497 151.30633798399998,-33.744983005500004 151.30631401599999,-33.7449939945 151.30628899199999,-33.745006001 151.30626601599997,-33.745019006500002 151.306244,-33.745032992500001 151.30622499200001,-33.745048995 151.306208,-33.745065996500003 151.306192,-33.745083997 151.306174016,-33.745100998499993 151.306156,-33.745117001 151.306132,-33.745131005499999 151.306107008,-33.745143992500005 151.30608099200001,-33.745155 151.30605500799999,-33.745167006500004 151.30603001599999,-33.745179993500003 151.30600099199998,-33.745197994 151.30597299199999,-33.745215994500001 151.30594601600001,-33.74523499399999 151.30592,-33.745255991499995 151.30589500799996,-33.745276008499999 151.30587299199999,-33.745298005 151.30585299200001,-33.745320001499998 151.30583401600001,-33.745342997 151.305812992,-33.745364993500004 151.305791008,-33.745385991 151.305772,-33.745401993499996 151.30575299200001,-33.745416997 151.305732,-33.745432000500003 151.305711008,-33.745445006 151.305688,-33.745455995 151.305658016,-33.745465004499998 151.305624,-33.745468001500001 151.30559001599997,-33.745470998500004 151.30555801599999,-33.745475993500001 151.305531008,-33.745487001 151.30551299199996,-33.7455050015 151.305499008,-33.745527997 151.305487008,-33.745554008 151.305475008,-33.745580000499999 151.30545900800001,-33.745602996 151.30543798400001,-33.745623993500004 151.30541401599996,-33.745642993 151.30538899199999,-33.745661992500004 151.305364,-33.745679993 151.30534,-33.745698992499996 151.30530899199999,-33.745728000499994 151.30527801599999,-33.745758007500001 151.305248,-33.745787996 151.305216,-33.745816005 151.305180992,-33.745840998499993 151.30514700800001,-33.745857001 151.30511100800001,-33.7458710055 151.30507401599996,-33.745883992499998 151.305036,-33.745895999 151.305,-33.745910003500001 151.304968,-33.745923009 151.30493699199999,-33.74593699499999 151.30490499199999,-33.745950999500003 151.30487398400001,-33.745965004 151.30484201600001,-33.745979008500001 151.30482,-33.745988998500003 151.30479699199998,-33.745998008 151.30477401600001,-33.746007998 151.304752,-33.746018006500002 151.304732,-33.746029994499999 151.30471001599997,-33.746047995 151.304692,-33.7460689925 151.30467401600001,-33.746091007499999 151.304656,-33.746113004 151.30463699200001,-33.746133002499995 151.304598016,-33.746161992 151.304556,-33.746188003 151.30451299200001,-33.746212996499992 151.30446998400001,-33.746239007500002 151.30443100799999,-33.746266998 151.30440300800001,-33.7462899935 151.30437699199999,-33.7463140065 151.30435100799997,-33.74633800099999 151.30432700799997,-33.746363993500005 151.30430300800001,-33.746389005499999 151.30427801600001,-33.746418994 151.30425100799999,-33.746447003 151.30422300800001,-33.746474993500001 151.304192992,-33.746503002499999 151.30416307199999,-33.746528939500003 151.30413792,-33.746511956500001 151.304109856,-33.746496028 151.304079968,-33.746482985500002 151.30404899199999,-33.746471996499992 151.30401696000001,-33.746464985 151.303976992,-33.746464985 151.30393308800001,-33.746473976 151.30388988799999,-33.746483966 151.30384992,-33.746489997 151.303818976,-33.746483966 151.30380601600001,-33.7464590465 151.30380816,-33.746417014500004 151.303817888,-33.746363993500005 151.303825088,-33.746309992 151.30382291199999,-33.746261041 151.30381392000001,-33.746222968 151.30380204799999,-33.746183008 151.30378691199999,-33.746144047 151.303767136,-33.746109026500001 151.30374083199996,-33.746081036 151.30369187199997,-33.746058003500004 151.303624928,-33.74604999299999 151.30354896,-33.746048994 151.30347084799999,-33.746050973500004 151.303398112,-33.7460470145 151.30333513599999,-33.746040983500002 151.303272832,-33.746034952499997 151.303210912,-33.746028033500004 151.30314899199999,-33.746019024 151.30308889599996,-33.746006962 151.30302803199999,-33.745991033500005 151.30296899199999,-33.7459699805 151.30290995199999,-33.745948021 151.302850912,-33.745926968 151.30279008,-33.745910040499993 151.30274291200001,-33.745898977499998 151.30269504,-33.745887988500002 151.30264608,-33.7458789975 151.30259785599998,-33.745872966500002 151.30254995199999,-33.745870987 151.30251683199998,-33.745871967500001 151.302484096,-33.745876019 151.30245203199999,-33.745880977 151.30241891200001,-33.745886009 151.302386176,-33.745889968 151.302341888,-33.745895018500001 151.302296896,-33.745899958 151.302251872,-33.745904009500002 151.30220688,-33.745906988 151.302161888,-33.745907968499999 151.30211616,-33.745906988 151.30207008,-33.745904009500002 151.30202291200001,-33.745898977499998 151.30197683200001,-33.745895018500001 151.301930048,-33.745890967 151.30186992,-33.745887008 151.30181017599998,-33.745885028499998 151.301750048,-33.745881957500004 151.30168992,-33.745877998499999 151.30163017599997,-33.745871967500001 151.301577952,-33.745865048500001 151.301526112,-33.745857038 151.30147500800001,-33.745847048 151.30142387199999,-33.745836965500004 151.30137312,-33.745825976500001 151.30131011200001,-33.745811047 151.30124892800001,-33.745795026 151.301187008,-33.745779005 151.301126176,-33.745761004499997 151.30106496,-33.745742005 151.301021056,-33.745726983 151.30097712,-33.745708982499998 151.300932832,-33.745690982 151.30088784,-33.745677033 151.30084284799997,-33.745668023499995 151.300819072,-33.745665951500001 151.30079497599999,-33.745665951500001 151.30077011200001,-33.745667043 151.30074601600001,-33.745668023499995 151.300722976,-33.745665951500001 151.30068803200001,-33.745659032500001 151.30065312,-33.745650023 151.300618912,-33.74563796099999 151.30058508799999,-33.745625991499999 151.30055196799998,-33.745613041499993 151.30051705599996,-33.745599999 151.30048393600001,-33.745584958500004 151.30045008,-33.745570029 151.300415872,-33.745556968 151.30038096000001,-33.745545997500002 151.30035289599999,-33.745533029 151.30032300799999,-33.745521966 151.30029097600001,-33.745511976 151.300258912,-33.745503965499992 151.30022688,-33.745499007500001 151.30018691199999,-33.745497028 151.300145888,-33.745500006500002 151.30010483199996,-33.7455060375 151.30006307199997,-33.745510977 151.30002204799999,-33.745514048 151.29998316800001,-33.745514048 151.29994393600001,-33.745512956500001 151.299903968,-33.745510977 151.29986508799999,-33.745508017 151.29982691199999,-33.745501986 151.299793088,-33.745493975500004 151.29975888000001,-33.745482986500001 151.299723968,-33.745471017 151.29969011200001,-33.745461027 151.29965484799999,-33.745454996 151.299620992,-33.745453016500001 151.29958716799999,-33.745454996 151.299551872,-33.745457974499999 151.29951696000001,-33.745461027 151.29948204799999,-33.745461027 151.29944316800001,-33.745458955 151.29940393599998,-33.745455995 151.299365056,-33.745452036 151.29932688,-33.745446985500003 151.299288,-33.745440954500005 151.29926208000001,-33.745434035500004 151.29923507199999,-33.745425026 151.299208096,-33.745416035 151.29918288,-33.745410984499998 151.29915913599999,-33.745411983499999 151.299140032,-33.74541899499999 151.29912313599999,-33.745429984 151.29910691200001,-33.745443026499998 151.29909001600001,-33.745454996 151.29907091199999,-33.745464986 151.29904499200001,-33.745471017 151.29901692799999,-33.745474976 151.29898812799999,-33.745475975 151.29895897599999,-33.745478047 151.29893088,-33.745481007 151.29890208,-33.745487038 151.29887401600001,-33.745496047499991 151.29884592,-33.745503965499992 151.298817856,-33.745510977 151.29878905599998,-33.745515028500002 151.29874691200001,-33.745512956500001 151.29870300799999,-33.7455060375 151.29866016,-33.745493975500004 151.29861696,-33.745480026499997 151.29857411200001,-33.7454669655 151.29854604799999,-33.745457974499999 151.298517952,-33.745447984500004 151.29849097599998,-33.7454369955 151.29846288,-33.745428004499999 151.29843408,-33.745419994 151.298399168,-33.745412964 151.29836208,-33.745409005 151.298324992,-33.745406045 151.29828793600001,-33.745403973 151.29825084800001,-33.745399015 151.298219168,-33.745392984 151.29818604799999,-33.745385972500003 151.29815401600001,-33.745379035 151.298121952,-33.745373004 151.29808992,-33.745370044 151.29805715200001,-33.745370044 151.29802512000001,-33.745373004 151.297992,-33.745377962 151.29795996799999,-33.745382013499999 151.297926848,-33.745385972500003 151.29789193600001,-33.745389025 151.29785699199999,-33.745392984 151.29782208,-33.745395962499998 151.29778716799999,-33.745395962499998 151.297754048,-33.745392003500001 151.29772992,-33.745385972500003 151.29770617599999,-33.745375982500001 151.29768313599996,-33.745365992499998 151.29766009599999,-33.745355003500002 151.29763596800001,-33.745346012500001 151.29761904,-33.745338982500002 151.29760211199996,-33.745330972 151.29758412800001,-33.745323960500002 151.29754992,-33.745317023 151.297530112,-33.745321981 151.29751104,-33.745332951499996 151.297491968,-33.745346993 151.29747289599999,-33.7453599615 151.297452,-33.745370044 151.29742105599999,-33.745377962 151.29738899200001,-33.745382013499999 151.297355872,-33.745382994 151.29732204800001,-33.745383993 151.297288928,-33.745385972500003 151.297265888,-33.745385972500003 151.29724211199999,-33.745384973500002 151.29721907199999,-33.745384973500002 151.29719712,-33.745386953 151.29717193600001,-33.745401993499996 151.29715897599999,-33.745424045500002 151.297147072,-33.745446985500003 151.29713593599999,-33.745467964500001 151.297124032,-33.7454900165 151.29711216000001,-33.745510977 151.29709811199999,-33.745529976500002 151.29708083200001,-33.745545997500002 151.29705996800001,-33.745555987499998 151.29703692800001,-33.745563998 151.29701209599997,-33.745570029 151.29698617599999,-33.745574968500001 151.29696096000001,-33.745580019 151.29693289599999,-33.745584958500004 151.29690515199999,-33.745588011 151.296877088,-33.745590009 151.29684899200001,-33.745592969 151.29681984,-33.745596021499999 151.29679897599999,-33.745599 151.29677699199999,-33.745602959 151.29675504,-33.745606011499994 151.296733088,-33.74560899 151.29671184,-33.745613041499993 151.296689888,-33.745615021 151.296666112,-33.745617000500005 151.29664307199999,-33.745617981 151.296621856,-33.745622032499995 151.29660313599999,-33.74562897 151.29658691200001,-33.745642012499999 151.29657395199999,-33.745660013 151.29656208,-33.745679993 151.29655091199999,-33.74569997299999 151.29653689599999,-33.745718972500001 151.296517088,-33.745739045 151.29649692800001,-33.745760005500003 151.29647603199999,-33.745779005 151.29645193599998,-33.745796006500001 151.296427072,-33.745806995500004 151.296402976,-33.745812027500001 151.29637705600001,-33.745814007 151.29635004799999,-33.745813026500002 151.29632304,-33.745813026500002 151.29629712,-33.745815006 151.29627516799999,-33.745817966 151.29625283199999,-33.745823016499997 151.29623088,-33.745827956 151.29621001599997,-33.7458330065 151.296188032,-33.745840018 151.29614412800001,-33.745861977499999 151.29610307199999,-33.745890967 151.29606384,-33.7459239895 151.29602387200001,-33.7459550325 151.29597996800001,-33.745982042500003 151.295931008,-33.746003003 151.29587916799997,-33.746021003500005 151.295825888,-33.746037024499998 151.29577187199999,-33.746051972499998 151.29571897599999,-33.746067993499999 151.29566496,-33.746084995 151.295609152,-33.746101016 151.29555408,-33.746118036 151.29550009600001,-33.746135037500004 151.29544716800001,-33.746155017500001 151.29538307199996,-33.746183008 151.29532009600001,-33.746214957500001 151.29525888000001,-33.746248979 151.29519913600001,-33.74628498 151.29514115200001,-33.746321961500001 151.295108032,-33.74634699199999 151.295076,-33.746373003 151.29504505599999,-33.746399994500003 151.29501193600001,-33.746425025 151.29497699199999,-33.746445985500003 151.294943872,-33.746461026 151.29490896,-33.7464729955 151.29487296,-33.746484965 151.294838048,-33.746495047499998 151.29480204800001,-33.746507017 151.294755968,-33.746524018500004 151.294709888,-33.746541038499991 151.294664896,-33.74655804 151.294619168,-33.746576040500003 151.294574176,-33.746594041 151.29452700799999,-33.746615001500004 151.29448201599999,-33.746635980500002 151.29443699199999,-33.746658032500001 151.29439091200001,-33.746679992 151.29434412799998,-33.746698973 151.29427392,-33.746724984 151.29420300800001,-33.746747036 151.29412992,-33.746768015 151.294056832,-33.746788975500003 151.29398592000001,-33.746812026500002 151.293938048,-33.746831007499992 151.29390204799998,-33.746849008 151.29386099199999,-33.746862957 151.293817088,-33.746873039500002 151.293773888,-33.7468779975 151.29373212799999,-33.746876998499999 151.29370403199999,-33.746870967500001 151.293675968,-33.746860977499999 151.29364896000001,-33.746850007 151.293621952,-33.746840017 151.293593888,-33.746834966500003 151.29356617600001,-33.746837038500004 151.29353699199999,-33.746844956499999 151.29350784,-33.746853966 151.293480128,-33.746859997 151.29345385600001,-33.746859997 151.29343692800001,-33.746853966 151.29342,-33.746844956499999 151.29340307199999,-33.746834966500003 151.29338688000001,-33.746825975500002 151.29336889599998,-33.746819038 151.29334908799999,-33.74681400599999 151.29332713599999,-33.746810047 151.29330588799999,-33.746807975 151.29328393599999,-33.746806976 151.29326304,-33.746807975 151.29323712,-33.746812026500002 151.29321299200001,-33.746817965 151.29318816,-33.746826956 151.29316403199996,-33.746834966500003 151.29313884800001,-33.746841996500002 151.29311184,-33.746849008 151.29308592000001,-33.746855039 151.29305891199999,-33.746860977499999 151.29303193600001,-33.746867008500004 151.29300492799999,-33.746871966500002 151.29297395200001,-33.746875019 151.29294192,-33.7468779975 151.292910976,-33.746878978 151.29288,-33.746882049 151.29284905599999,-33.746886988500002 151.29282096,-33.746894999 151.29279289600001,-33.746904008500003 151.29276515199999,-33.746914979 151.292737088,-33.746924969 151.292708992,-33.746933978500003 151.29267696,-33.746943968499998 151.29264384000001,-33.7469540325 151.29261289600001,-33.746957991500004 151.29258300800001,-33.74695601199999 151.29255385600001,-33.746949981 151.29253187200001,-33.746942969500004 151.29251209599997,-33.746933978500003 151.292491936,-33.7469229895 151.29247212800001,-33.74691102 151.292453056,-33.746900031 151.29243289600001,-33.746886008 151.29241417599999,-33.746871966500002 151.29239507200001,-33.746857018500002 151.29237708799999,-33.746841996500002 151.29235801600001,-33.746826956 151.29233603200001,-33.746804996500003 151.29231299199998,-33.746784036 151.29228492799996,-33.746771974 151.292250016,-33.746768995499991 151.292232,-33.746769994499999 151.29220499199999,-33.746772954500003 151.29218592000001,-33.746777006 151.29216611199999,-33.746779984500002 151.29214092800001,-33.746771974 151.292116096,-33.746758025 151.29209088,-33.746745963 151.29206892799999,-33.7467329945 151.29204515199999,-33.746724003499999 151.29201708799999,-33.746726963500002 151.29198899199997,-33.746734974 151.29196416,-33.746736953499997 151.29194185599999,-33.746735973 151.291922048,-33.746731015 151.29190009600001,-33.746714013500004 151.29188099199999,-33.746693034499998 151.291854016,-33.74668295199999 151.291832032,-33.746680972500002 151.29177193599998,-33.746660012 151.29174707199996,-33.746666043 151.29172297599999,-33.746673961 151.29169993599999,-33.74668295199999 151.29167795199996,-33.746694033499999 151.29165491200001,-33.746700952499999 151.291636928,-33.746696013 151.29161891199999,-33.746681971499996 151.291599136,-33.746663971 151.29158003199998,-33.746649023 151.29155916799996,-33.7466410125 151.29150912,-33.746640032 151.29145187200001,-33.74662797 151.29143302400001,-33.746620884500004 151.29146300799999,-33.746597001 151.292444,-33.745823997 151.29267299199998,-33.745685006500004 151.29280700800001,-33.745603995 151.29324300799999,-33.745461008500001 151.29426700799999,-33.745152003 151.29404201599999,-33.744417997 151.293984,-33.744355004500001 151.294432,-33.744041004 151.295088,-33.743886991499998 151.29584665600001,-33.743709077 151.296345664,-33.743703083 151.296472096,-33.743701899 151.299091008,-33.743670005 151.3001376,-33.743656019 151.30010960000001,-33.743526019500003 151.30010099200001,-33.743507001499999 151.30007500799999,-33.743472998500003 151.300027008,-33.743441992500003 151.29837459199999,-33.742851047 151.29823401600001,-33.742808996500003 151.29812601599997,-33.742784003 151.29778198400001,-33.742727004499997 151.29714,-33.742620999499998 151.297064992,-33.742604997 151.29701561600001,-33.742590067500004 151.29694499199999,-33.742564001 151.2969,-33.742544002500004 151.29685660800001,-33.742521062500003 151.2963,-33.742168008500002 151.29624700799999,-33.742139000500003 151.29619299199999,-33.742112009 151.29610700800001,-33.742076008 151.29526764799999,-33.741778084 151.29522764800001,-33.7417700735 151.29517264,-33.741771072500001 151.295095648,-33.741792088499999 151.294772,-33.742004006 151.294320992,-33.741553993499998 151.294276,-33.7415100005 151.29376464000001,-33.741086091500001 151.29320768,-33.740535124499999 151.292536,-33.739863001 151.29204,-33.739366997499999 151.291990016,-33.7393220055 151.291934688,-33.739282119500004 151.29189500800001,-33.739257995500004 151.291854016,-33.739235999 151.291811008,-33.739216000500001 151.291259008,-33.739032998500001 151.29126499200001,-33.739012001 151.29127401599999,-33.738969007 151.29127801600001,-33.738925994500001 151.29127801600001,-33.73890399799999 151.29127500800001,-33.738869995 151.291271008,-33.7388420045 151.291258016,-33.738787004 151.291248,-33.738756997 151.291235008,-33.738728007499994 151.291192,-33.738640003 151.291084,-33.738404997499998 151.29107500800001,-33.738379005 151.291008992,-33.738221995499998 151.290931008,-33.738037994500004 151.29025699199997,-33.7369200025 151.28949900800001,-33.735752005 151.289296,-33.735456005 151.288836992,-33.734839992 151.288728,-33.734679005 151.28823100799997,-33.733945998 151.28815500799999,-33.733883005500005 151.2881,-33.733841991 151.288044,-33.733803992 151.287950016,-33.733744995500004 151.28785100799999,-33.733691993 151.2878,-33.733666999500002 151.287712,-33.733630998500004 151.287620992,-33.733597994500002 151.28754499199999,-33.733555999499998 151.286388,-33.732470993 151.286288,-33.732424003 151.286216,-33.732391998 151.285716,-33.732181005500003 151.28562,-33.732136994 151.285563008,-33.732110002500001 151.285536,-33.732097996 151.28433699199999,-33.731577998 151.283272,-33.731074002500002 151.283242016,-33.731065992 151.28315900800001,-33.731032007499998 151.283012,-33.730966998500001 151.28296700800001,-33.730951995 151.28293001599999,-33.730943004 151.28289100800001,-33.730935992500001 151.282852,-33.730930997500003 151.282812992,-33.730928999500001 151.28277401599999,-33.730929998500002 151.282590016,-33.730906004 151.282479008,-33.730906004 151.28072700800001,-33.730313005 151.28056899200001,-33.730265996499995 151.27940179199999,-33.729916254 151.279363776,-33.730042239 151.27916380799999,-33.730355259 151.279067008,-33.730452994499998 151.27853580799996,-33.730530269 151.27758700800001,-33.730670998500003 151.27672,-33.730799 151.27668700800001,-33.730744998500001 151.276656992,-33.730688999 151.27662899200001,-33.730632999500003 151.27660499199999,-33.730576001 151.27658300799999,-33.730518003500002 151.276567008,-33.730467998 151.27654201600001,-33.730367006500003 151.276522016,-33.730264997500001 151.276512,-33.7301949935 151.27649699200001,-33.729984001 151.276490016,-33.729912998 151.27645100800001,-33.729675994499999 151.276419008,-33.729436993 151.27641699200001,-33.729377996499998 151.27642300799999,-33.729319999 151.276436,-33.729273009 151.276455008,-33.729227998500001 151.2765,-33.729136997 151.27651900800001,-33.729091006 151.27657398400001,-33.728948001 151.276590016,-33.7288989945 151.276603008,-33.728851005500005 151.276614016,-33.728789992499998 151.27661699199999,-33.72876599799999 151.276635008,-33.728543998 151.276644992,-33.7284800065 151.27667100799999,-33.728353004 151.276679008,-33.728289993 151.276680992,-33.728226001499998 151.27667801600001,-33.728182008499999 151.27666499200001,-33.728094004 151.27664601599997,-33.7280069985 151.27663100800001,-33.727949001 151.276576992,-33.727778005499999 151.27656,-33.727720008 151.27652499199999,-33.727588991 151.276508992,-33.727523001500003 151.276496,-33.727455994499998 151.276488,-33.727390005 151.27648099199999,-33.727270994500003 151.27648099199999,-33.727211998 151.27648499200001,-33.727152002499999 151.27649401599999,-33.72709400499999 151.276508992,-33.727033991 151.27652899200001,-33.726974994500004 151.276636,-33.726725004 151.27668700800001,-33.726614004 151.276703008,-33.726559003499993 151.276712992,-33.726524001500003 151.27674899199999,-33.726372005500004 151.27678,-33.726219991 151.276803008,-33.726096004 151.27681801599996,-33.726001006499999 151.27683100799999,-33.725904991500002 151.276839008,-33.725830991500004 151.276848992,-33.725681992499993 151.27685299199999,-33.725532993500003 151.27650700800001,-33.725454997500002 151.27642499199999,-33.725392005 151.276299008,-33.7253010035 151.27626300799997,-33.725277009 151.27619001599999,-33.725232997500001 151.27615699200001,-33.725209003 151.276127008,-33.725181993 151.27610300800001,-33.725151005500003 151.276080992,-33.725116003499998 151.276064,-33.725080002499993 151.276048992,-33.725043002500001 151.276038016,-33.725006002500002 151.27603100799999,-33.724967004499995 151.276028,-33.724926008499999 151.27603100799999,-33.724803002 151.276024,-33.724569994500001 151.27602499199998,-33.724441993 151.27603001599999,-33.72425 151.276026016,-33.724115005500003 151.276028,-33.724070994 151.27603500800001,-33.724027001 151.276050016,-33.723960993 151.276060992,-33.723929006500001 151.276076,-33.723898999500001 151.27609500799997,-33.723873007 151.27612099199999,-33.723851991 151.27615299199999,-33.723835008 151.276188,-33.723820004499999 151.276224,-33.723807998 151.27623676799999,-33.723806277500003 151.27612979200001,-33.723713296500001 151.27581577599997,-33.723017308 151.27579401599999,-33.722593991 151.27569216000001,-33.722550997</coordinates></LinearRing></outerBoundaryIs></Polygon>

	</Placemark>
</kml>