<?xml version="1.0" encoding="UTF-8"?>
<kml xmlns="http://www.opengis.net/kml/2.2">
	<Placemark>
		<Style>
			<LineStyle>
				<color>ff0000ff</color>
			</LineStyle>
			<PolyStyle>
				<fill>1</fill>
				<color>330000cc</color>
			</PolyStyle>
		</Style>
			<ExtendedData><SchemaData>
		<SimpleData name="STATE_2006">1</SimpleData>
		<SimpleData name="POA_2006">2319</SimpleData>
	</SchemaData></ExtendedData>
      <Polygon><outerBoundaryIs><LinearRing><coordinates>151.98490406400001,-32.7263998305 151.98517801599999,-32.726361998 151.98529299200001,-32.726343997500003 151.98541001599997,-32.726326996 151.98552499199997,-32.726307996500005 151.98563900799999,-32.726285001 151.985748992,-32.726254994 151.98583500800001,-32.726220991 151.98591900799997,-32.726181993 151.98600099199999,-32.726138999 151.986084,-32.726098003 151.98616899199999,-32.726060004 151.986332992,-32.726003005499997 151.986500992,-32.725954998 151.986672992,-32.725912004 151.98684499199999,-32.725871008 151.987016,-32.725825997500003 151.987088992,-32.725807997 151.987164,-32.725792993500001 151.98723801599999,-32.725775992 151.98730899200001,-32.725754994500001 151.98737401599999,-32.725726005 151.98744300800001,-32.725676998499999 151.987503008,-32.725616004 151.98755801600001,-32.725547998 151.98761001599999,-32.725477994 151.987662016,-32.725410006499992 151.98771500800001,-32.7253429995 151.98776601599999,-32.725275992500002 151.987816,-32.725207006 151.987864,-32.725138001 151.987910016,-32.725067997 151.98797401600001,-32.724965007500003 151.988035008,-32.724860001499998 151.988092,-32.724753996499999 151.988144,-32.72464599349999 151.988191008,-32.724536991499996 151.98822201600001,-32.724458995500001 151.98825100799999,-32.724380999499999 151.98827699199998,-32.724302004500004 151.98829900800001,-32.724221992 151.98831801599999,-32.724141998 151.98833001599999,-32.7240840005 151.98834201599999,-32.724025004 151.98835100799997,-32.723966007500003 151.98835500800001,-32.723907991499999 151.988352,-32.723849994 151.988336992,-32.723790997500004 151.98831100800001,-32.723733 151.988282016,-32.723675002500002 151.98825299200001,-32.723616006 151.98823299200001,-32.723556991 151.98822099200001,-32.723489003499999 151.98821699199999,-32.723419998499999 151.988215008,-32.723350993499999 151.988212992,-32.723281008 151.98820601599996,-32.72321200299999 151.98819401599997,-32.723139002 151.988179008,-32.72306600099999 151.98816201599999,-32.722993 151.98814198400001,-32.72291999899999 151.98812099200001,-32.722847997 151.988090016,-32.722793995499998 151.98806300800001,-32.722737996 151.98804,-32.722679998499999 151.988020992,-32.722621002 151.988008,-32.722562005500002 151.98799900799997,-32.722503009 151.98799401599999,-32.722442995 151.98799401599999,-32.722382000499998 151.988,-32.722322005 151.988012,-32.722264007500002 151.988032,-32.722210006 151.98806,-32.722157003500001 151.98809299199999,-32.722105 151.98812499199997,-32.722052996500004 151.98815299200001,-32.72199999 151.98817500800001,-32.72195400299999 151.98819900800001,-32.721906994500003 151.98822,-32.721861003500003 151.988236,-32.721813995 151.988244,-32.721767005 151.98824,-32.721726009 151.98822899199999,-32.721685993500003 151.988215008,-32.721645996500001 151.98820201599997,-32.721605000499999 151.988196,-32.721564004500003 151.98819699200001,-32.721494000500002 151.988208,-32.721420999499998 151.988228,-32.721348997500002 151.98825398399998,-32.721279992500001 151.988288,-32.721214003 151.98831900799999,-32.721166994500003 151.988356,-32.721122002500003 151.988396,-32.721077991 151.988438016,-32.721034997 151.98847900800001,-32.720992003 151.98851500799998,-32.720953005 151.988552,-32.720913008 151.98858899199999,-32.720875009 151.988628,-32.720836991500001 151.98867001599999,-32.720802008 151.988708992,-32.720775997 151.98874998400001,-32.720751003499991 151.988792,-32.720728008 151.988832992,-32.720702996 151.98887299200001,-32.7206760045 151.988888992,-32.720664997 151.98890700800001,-32.720653009 151.988924,-32.720641002500003 151.98894899199999,-32.720612993499998 151.988952,-32.720587001 151.98894201600001,-32.720553997 151.988923008,-32.720518995 151.988899008,-32.720483993 151.98887500800001,-32.720453005499998 151.988844,-32.720423997499999 151.98880601600001,-32.720399004 151.988764992,-32.72037499099999 151.988724,-32.720350996500002 151.988688,-32.720324005 151.98865801599999,-32.720295996 151.988631008,-32.720266007500001 151.988604,-32.720235001500001 151.98857801599999,-32.7202039955 151.988551008,-32.720174007 151.988516992,-32.720137007 151.988483008,-32.720100007 151.98844899199997,-32.720063007 151.98841401600001,-32.720027006 151.98837699200001,-32.719992004 151.98834300799996,-32.719962996 151.988308,-32.719935005499998 151.98827299199999,-32.719907995500002 151.988236992,-32.719881004 151.98820201599997,-32.719851996 151.988158016,-32.719817993 151.988112,-32.7197840085 151.988068,-32.719748007500002 151.98803100800001,-32.719711007500003 151.98800300799996,-32.719669993 151.987988992,-32.719607999499999 151.98799500799998,-32.719538994499999 151.98801401599999,-32.719465993500002 151.98803699199999,-32.719390994500003 151.988056992,-32.719319991500001 151.98806099199999,-32.719296996 151.98806300800001,-32.719272002499999 151.988066016,-32.719248008 151.988072,-32.719227991 151.988084,-32.719213006 151.988102016,-32.719215004 151.988132992,-32.719230007500002 151.988170016,-32.719252004 151.98820899200001,-32.7192740005 151.98824601600001,-32.719289004 151.98828601599999,-32.719299993 151.988328,-32.719310001499998 151.988371008,-32.719316994499998 151.98841100800001,-32.719317993499992 151.988448,-32.7193119995 151.988472,-32.719298994 151.988495008,-32.719277996500004 151.988516,-32.719256 151.98853801599998,-32.719237999499995 151.988562016,-32.719227991 151.98859100799999,-32.719232005500004 151.98862300799999,-32.719249007 151.988656,-32.719272002499999 151.98869001599999,-32.719295997 151.988724,-32.719313997500002 151.98875801599999,-32.719327003 151.98879299199999,-32.719338991 151.98882899200001,-32.719348999499999 151.988864,-32.71935900799999 151.9889,-32.719368998 151.98895100799999,-32.719381004500001 151.989004,-32.719390994500003 151.989056,-32.719402002 151.98910601599999,-32.719415007500004 151.98915100799999,-32.719435006 151.98917500799999,-32.719449991 151.98919699199999,-32.719467991499997 151.989218016,-32.719485992 151.98924,-32.719503992500002 151.98926300799999,-32.719520994 151.98930099200001,-32.71954300899999 151.989340992,-32.7195630075 151.98938099200001,-32.719581008 151.98942300799999,-32.719599008499998 151.989463008,-32.71961800799999 151.98952,-32.719644999499998 151.98957801599997,-32.719671991 151.98963500799999,-32.719698002 151.98969299199999,-32.719723994500001 151.98975100800001,-32.719748007500002 151.989800992,-32.719767007 151.98985100799999,-32.7197840085 151.989900992,-32.719800991500001 151.989952,-32.719817993 151.99000201600001,-32.719834994500005 151.99005699200001,-32.719853994 151.99011100800001,-32.719872993500005 151.99016700799999,-32.719890994 151.99022201599999,-32.719907995500002 151.99027801599996,-32.719922 151.99033699200001,-32.719935005499998 151.990396992,-32.719945994500002 151.99045801599996,-32.719955004 151.99051900800001,-32.719962996 151.990579008,-32.719966992 151.99063699199999,-32.719970007500002 151.990696,-32.719970007500002 151.99075398400001,-32.719969008499994 151.990812,-32.719964994 151.990868992,-32.719959 151.99092899199999,-32.719950009 151.990988,-32.719938002500001 151.99104700800001,-32.719923998 151.991104,-32.719906996499994 151.99115900800001,-32.719886998 151.99120099199999,-32.719866000499998 151.99124099199997,-32.719841007 151.99128,-32.719814996 151.99132,-32.719791001499999 151.99136198399998,-32.719772002 151.991396,-32.719759995499999 151.99143100800001,-32.719750005500003 151.991466016,-32.719740996 151.991502016,-32.719735002 151.99153801599999,-32.719730007 151.991579008,-32.719728009 151.99162,-32.719726991499996 151.99166099199999,-32.719729008 151.991702016,-32.719734003 151.99174,-32.719742994 151.991771008,-32.7197540015 151.99180099200001,-32.719770004 151.99183001599997,-32.719787005500002 151.99186,-32.719803008 151.99189001600001,-32.719817993 151.99193801600001,-32.719836992499999 151.991988,-32.719851996 151.99203900800001,-32.719866000499998 151.99209001599999,-32.719880005 151.992140992,-32.719895008500004 151.992192,-32.719907995500002 151.992248,-32.719918004 151.992300992,-32.719929992 151.992347008,-32.719946993500002 151.992379008,-32.719971006500003 151.992392,-32.719996999 151.99239699200001,-32.720028005 151.99239900800001,-32.72006100899999 151.992404,-32.720091996500003 151.99241500799999,-32.7201200055 151.99243699199997,-32.720147996 151.99245001599999,-32.720160002500002 151.992464,-32.720173008 151.99247699200001,-32.720184996 151.992527008,-32.720215003 151.99258601599999,-32.720237998500004 151.992650016,-32.720255999 151.992715008,-32.720273999500002 151.99277801599999,-32.720292999 151.992836,-32.720315994499998 151.992892,-32.720340007499999 151.99294899199998,-32.720364002 151.99300700799998,-32.720384999499998 151.993066016,-32.720402001 151.99312499199999,-32.720414007500004 151.99318499200001,-32.720422998499998 151.993246016,-32.720429991499998 151.99330700799999,-32.720434006 151.993368,-32.720436004 151.993424,-32.720437003 151.99348099199997,-32.720437003 151.993538016,-32.720435005 151.993592992,-32.720428992499997 151.99364499199999,-32.7204170045 151.99369001599999,-32.720399004 151.993732,-32.720373992 151.993774016,-32.720347000499999 151.993816,-32.720322007 151.99386,-32.720302008499999 151.993908992,-32.720287005 151.99395900799999,-32.720274998500003 151.994011008,-32.720267006500002 151.99406201599999,-32.72026199299999 151.994112,-32.720260994 151.99416300799999,-32.720267006500002 151.994214016,-32.720278994499992 151.994264,-32.720294997 151.994314016,-32.720310999500001 151.99436300799999,-32.720327002 151.994416,-32.720346001499998 151.99446899200001,-32.720366999 151.99452099199996,-32.7203869975 151.994572992,-32.72040399899999 151.99462700800001,-32.720414007500004 151.994674016,-32.720416005499999 151.994722016,-32.720411991 151.99477001599999,-32.720405997 151.99481801600001,-32.720399004 151.994866016,-32.720395008 151.994924,-32.720392991499999 151.99498201599999,-32.720390993500004 151.99504099199999,-32.720390993500004 151.99509798400001,-32.720392991499999 151.99515500800001,-32.720397006 151.99521900799999,-32.720407995 151.995282016,-32.720422998499998 151.995344,-32.720440999 151.995407008,-32.720458999500003 151.99546899200001,-32.720474003 151.99553401599999,-32.720489006500003 151.995599008,-32.720503991500003 151.995664,-32.720517996 151.99572998400001,-32.720530002499999 151.995796,-32.720540991500002 151.99583801599999,-32.720546005 151.995880992,-32.720551 151.995924,-32.720554996 151.99596700799998,-32.72055899199999 151.99600899199999,-32.720564005500002 151.99605801600001,-32.720569000499999 151.996107008,-32.720572996500003 151.99615500799996,-32.720577991500001 151.99620300800001,-32.720586002 151.996248,-32.720598008499998 151.99629001599999,-32.720611994500004 151.996332,-32.720627997 151.99637100800001,-32.720646996500001 151.99640700800001,-32.720668993 151.996436,-32.720695004 151.996456,-32.720723993500002 151.99646899199999,-32.720756997500004 151.99647900799997,-32.720792998500002 151.99648700799997,-32.720829998500001 151.996496992,-32.720865000499998 151.996508992,-32.720909992500005 151.99651900800001,-32.720956002 151.99652899200001,-32.721000994 151.99654099200001,-32.721046004500003 151.996556992,-32.721088998500001 151.99657299200001,-32.721120004500001 151.996592,-32.721148994 151.996611008,-32.721178002 151.99662899200001,-32.721208009 151.996644,-32.721238996499999 151.99665401600001,-32.721277994499999 151.99666,-32.72131900899999 151.99666300800001,-32.721361004 151.996668,-32.721402 151.996679008,-32.721440998 151.996700992,-32.721482993 151.996728,-32.721524007500001 151.996759008,-32.721563005500002 151.99678899200001,-32.721603002499997 151.996815008,-32.721643998499999 151.99683001599999,-32.721668992 151.996844,-32.721694004 151.99685801599998,-32.721719996499999 151.996868992,-32.721746007500002 151.99687699200001,-32.721772 151.996880992,-32.721813995 151.99687699200001,-32.721857007499999 151.99686601600001,-32.721900001500003 151.99685299199999,-32.721942995500001 151.996836992,-32.721985009 151.99682700799997,-32.722010002499999 151.99681699199999,-32.722036994 151.99680601599999,-32.722062006 151.996791008,-32.722085001499998 151.99677299199996,-32.722101004 151.99674099200001,-32.722108996 151.99669900800001,-32.722105 151.996652,-32.7220939925 151.996604,-32.722080006500001 151.99655900799999,-32.72206700099999 151.99651299199999,-32.722052996500004 151.996468,-32.722033997 151.996424,-32.722014997500004 151.99637900799999,-32.721995998 151.99633299199999,-32.721980994500001 151.99626099199997,-32.721962994 151.996186016,-32.721949008 151.99610899199999,-32.721938999500004 151.99603299200001,-32.721931007500004 151.995956,-32.721923996 151.99589401599999,-32.72192 151.99583100800001,-32.721916004 151.995768,-32.721914006 151.99570499199999,-32.721913007 151.99564201599998,-32.721911009 151.99557401600001,-32.721908992499991 151.99550601600001,-32.721905995500002 151.99543699200001,-32.721902998499999 151.99536899200001,-32.7219039975 151.99530198400001,-32.721907993500004 151.99522,-32.72192099899999 151.99513801599997,-32.721938000500003 151.995056992,-32.721959997 151.99497699200001,-32.721985009 151.99489801600001,-32.722012000500001 151.994836,-32.722032998 151.99477401599998,-32.722056992500001 151.99471299199996,-32.722082004500002 151.994652992,-32.722107997 151.994595008,-32.722137005 151.994542016,-32.722164995500002 151.99448899199999,-32.7221940035 151.994436992,-32.722226008500002 151.994388,-32.722258994 151.99434099199999,-32.722293996 151.99429900800001,-32.722330996 151.99425801599997,-32.722368995 151.99421900799999,-32.722409991 151.99418300799999,-32.722452004499999 151.99415001599999,-32.722494998500004 151.994123008,-32.7225369935 151.99409699200001,-32.722581005 151.99407401599998,-32.722625997 151.99405401600001,-32.722671007500004 151.994035008,-32.722716998500005 151.99401798400001,-32.722760991499996 151.994002016,-32.722805003 151.993988,-32.722849995 151.993976992,-32.7228950055 151.99396899199999,-32.722939997499999 151.993966016,-32.722975998500004 151.993964992,-32.723011999500002 151.993966016,-32.7230480005 151.993967008,-32.723084001499998 151.993967008,-32.723121001500004 151.993966016,-32.723166992499998 151.993966016,-32.723214001 151.993964992,-32.723260991 151.993964,-32.723307999500001 151.993964992,-32.72335400899999 151.993964992,-32.7234209975 151.993966016,-32.723487005500004 151.993968,-32.723553994 151.993972,-32.723620002 151.993979008,-32.723685991499998 151.993990016,-32.723748003499999 151.99400300799999,-32.723809997 151.99401798400001,-32.723872009 151.994035008,-32.723934002500002 151.994052,-32.723995996 151.99407100799996,-32.724064002 151.994092,-32.724133007 151.994114016,-32.724201993500003 151.99413699199999,-32.724269999500002 151.99416099199999,-32.724337006500001 151.994192,-32.724416001500003 151.99422300799998,-32.724493997499998 151.994256992,-32.724570994499999 151.994294016,-32.724647991499999 151.99433398400001,-32.724723009 151.99436601599999,-32.724776992 151.99440099200001,-32.724830993499999 151.994436992,-32.724883996 151.994472,-32.724936998499999 151.994507008,-32.724991 151.99454700800001,-32.725057008 151.994586016,-32.725123996500002 151.994624,-32.725191003500001 151.994664,-32.725256993 151.99470499200001,-32.725323001 151.99475801599999,-32.725399998 151.99481299199999,-32.725476995 151.99487001599999,-32.725551994 151.99492899200001,-32.725625994 151.994992,-32.725697996 151.99503699199997,-32.7257470025 151.995084,-32.725793992500002 151.995132,-32.725841001 151.995180992,-32.72588699199999 151.995228,-32.725934000500004 151.995292992,-32.726001007500003 151.99535699200001,-32.726068995 151.99542099199999,-32.726136002 151.995486016,-32.726203009 151.99555299199997,-32.726267000499995 151.99567100799999,-32.7263720065 151.99579401599999,-32.726472998 151.99592099200001,-32.7265699935 151.99605100799999,-32.726663992 151.996184992,-32.726753994500001 151.99626499199996,-32.726806997 151.99634700799999,-32.726858001499998 151.99642899199998,-32.726908007 151.99651299199999,-32.726955996 151.99659801600001,-32.727003004499998 151.99669299199999,-32.727052991499995 151.99679001600001,-32.727100999 151.996888,-32.727147008499998 151.99698700799999,-32.727191001500003 151.997088,-32.727230998499998 151.99720099199999,-32.727269996499992 151.99731500799999,-32.727305997500004 151.99743100800001,-32.727338002499998 151.99746499199998,-32.727346642 151.99754899199999,-32.727367991 151.99766700800001,-32.727395001 151.99776601600001,-32.727416997500001 151.99786700799999,-32.727437995 151.99796700799999,-32.727456994500002 151.99806899199999,-32.727472997 151.99817001599999,-32.727484004499999 151.998266016,-32.727490997499999 151.99836201599999,-32.727493994500001 151.998458016,-32.727493994500001 151.99855401600001,-32.7274919965 151.998650016,-32.727488000500003 151.99874099199999,-32.727484004499999 151.998832,-32.727476993 151.99892300799996,-32.727469001 151.99901401599999,-32.727458992500004 151.99910499200001,-32.727449002500002 151.999214016,-32.727435997 151.999323008,-32.727422991499999 151.999432,-32.727407007499998 151.99954099199999,-32.727389007 151.999648,-32.727367991 151.99968300800001,-32.727359 151.999719008,-32.727348991500001 151.999754016,-32.727339001499999 151.99979001599999,-32.727330991 151.99982499199999,-32.727326995 151.999855008,-32.727328993 151.999886016,-32.727336004500003 151.999916,-32.727342997500003 151.99994700799996,-32.727348991500001 151.999976,-32.727350009 152.00002,-32.727337003500004 152.00006201599999,-32.727310992500001 152.000104,-32.727281004 152.000147008,-32.727251996 152.000192,-32.727233995500001 152.000224,-32.727229000500003 152.000256992,-32.727228001499995 152.00029001600001,-32.727227002500001 152.00032300800001,-32.727227002500001 152.000356,-32.727225004499999 152.00042300800001,-32.727211 152.00048899199999,-32.727190002500002 152.000554016,-32.727167007 152.00062,-32.727149006499999 152.000684992,-32.727141995 152.000732992,-32.727145991 152.00078099199996,-32.727155999499999 152.000828,-32.727168006 152.000876,-32.727178995 152.000924,-32.727187005499999 152.00098201599999,-32.727190002500002 152.00104,-32.727189003500001 152.00109801599999,-32.727186006499991 152.00113001599999,-32.727184008500004 152.001342016,-32.727149006499999 152.001454016,-32.727129008 152.001812,-32.727100999 152.002072,-32.727040004500004 152.002467008,-32.726990998 152.002936,-32.727046997500004 152.00326899199999,-32.727101998 152.00348956799999,-32.7271254375 152.003588992,-32.727136001 152.003886016,-32.727076005500003 152.00415801599999,-32.7270879935 152.00462700799997,-32.727070992 152.004936,-32.727051992500002 152.00529014400001,-32.727076930500004 152.00556115200001,-32.727107936499998 152.00569616000001,-32.727108935499999 152.00584816,-32.727152928500004 152.00628816,-32.727184933499998 152.006423136,-32.727199937 152.007050112,-32.727161938 152.00754112000001,-32.727179938500001 152.00782812799997,-32.727181936500003 152.00794710400001,-32.727154926499999 152.008032128,-32.727154926499999 152.008100128,-32.727126917500001 152.00818512000001,-32.727098927 152.00832096,-32.727070973499998 152.00847308799999,-32.727043926500002 152.00855808,-32.727001913 152.008656992,-32.726970000500003 152.008752,-32.726943009 152.008815008,-32.726926007499998 152.008903008,-32.726909006 152.009004,-32.726870008 152.009096992,-32.726845995 152.00917699199999,-32.726833008 152.00929001599999,-32.726811992 152.009399008,-32.726812991 152.00956300799999,-32.726839002 152.009638016,-32.726854005500002 152.00968,-32.726869009 152.00974300799999,-32.726865993499999 152.00983100799996,-32.726838003 152.009884,-32.726817005500003 152.00993801600001,-32.726771995 152.009996,-32.726740008500002 152.010043008,-32.726706005499999 152.01010201599999,-32.726671003500002 152.010152,-32.726629008499998 152.010224,-32.726568994499999 152.010279008,-32.726530995499999 152.01035001599999,-32.726489000500003 152.01042201600001,-32.726444008500003 152.01049699199999,-32.726388009 152.010580992,-32.726363996 152.010660992,-32.726304999500002 152.010808,-32.726196996500001 152.010872,-32.726126992499999 152.010943008,-32.726078004500003 152.01104,-32.725975995500001 152.011116,-32.725905991499999 152.011192,-32.72583600599999 152.011247008,-32.725784002499999 152.011314016,-32.725738992 152.01139001600001,-32.725704008500003 152.011432,-32.725672003500001 152.011495008,-32.725613007 152.01155801600001,-32.7255640005 152.01160099200001,-32.725511997 152.01164700800001,-32.725463009 152.011719008,-32.725396002 152.01178198400001,-32.7253429995 152.01184998400001,-32.725254995 152.011884,-32.725213 152.011943008,-32.725150007499998 152.01198499200001,-32.725097005 152.01206099199999,-32.724998992 152.012112,-32.724917999 152.01215500800001,-32.724830993499999 152.01219699199999,-32.724760009 152.01223100799999,-32.724696998 152.012256992,-32.724658999 152.012308,-32.724581003 152.01236499199999,-32.724492998500004 152.012416,-32.724430006 152.012492,-32.72436999199999 152.01254700800001,-32.724318007 152.01258,-32.7242749945 152.01258899199999,-32.724244007 152.01259001599999,-32.724197997499999 152.01259001599999,-32.724147992 152.01259500799998,-32.724105997 152.01258163200001,-32.724082465 152.01255299199997,-32.724052994499999 152.01252099199999,-32.724003007500002 152.012484,-32.723959995 152.01244700800001,-32.723899999499999 152.012430016,-32.723857005500001 152.01238099199998,-32.723778991 152.012348992,-32.723700995 152.012312,-32.723622999 152.012258016,-32.723577008 152.012208,-32.723529999500002 152.01215001599999,-32.723484008500002 152.01210899200001,-32.723440996 152.012088,-32.723395005 152.01206,-32.723330995 152.012035008,-32.723289 152.012010016,-32.723267003499998 152.011948,-32.723232001500001 152.01186899199996,-32.723189007500004 152.011811008,-32.723156003500002 152.01171500800001,-32.723117005500001 152.01161100799999,-32.723077008499999 152.011548992,-32.723041007500001 152.01149900799999,-32.723012998500003 152.01145299199999,-32.722994998 152.01138601599999,-32.722969005499998 152.01134499200001,-32.722964991 152.01129900800001,-32.722970004499999 152.011228,-32.722695002 152.01112,-32.722541008 152.01099203199999,-32.722449914 152.01089500800001,-32.722355009 152.01084300799999,-32.722167992500005 152.01086601599999,-32.722116007499999 152.01090499200001,-32.7220869995 152.01094,-32.722057991500002 152.01104099200001,-32.722031999 152.011146016,-32.722031999 152.01147699200001,-32.722081005500002 152.011943008,-32.722085001499998 152.012608,-32.722108996 152.01320899199999,-32.721925994 152.01368,-32.721479996 152.014172,-32.721033998 152.01479299199997,-32.721019993500001 152.01525801599999,-32.721099007 152.01576700800001,-32.721196002500001 152.01649699199999,-32.721351994500004 152.017072,-32.721544006 152.017824,-32.721774997 152.01857801599999,-32.721724991500004 152.01906700800001,-32.721597008499998 152.01951299199999,-32.721376007499998 152.019804,-32.721116008500005 152.02014099199999,-32.720761992500002 152.020543008,-32.720483993 152.02088086399999,-32.720489894499998 152.02118585599999,-32.720463902 152.02140684799997,-32.720378894500001 152.021507872,-32.720379893500002 152.02176185599998,-32.720424904 152.02196384000001,-32.720497905 152.022148832,-32.720599895500001 152.022486816,-32.720702903499998 152.02257081600001,-32.720717888499998 152.02277382400001,-32.720790889500002 152.02299184,-32.720935874 152.023226816,-32.721194874 152.02342784000001,-32.721339877 152.02356601599996,-32.721447991 152.02376,-32.72154900099999 152.02398201599999,-32.721627996 152.024227008,-32.721683995500001 152.02451299200001,-32.721654007 152.024722016,-32.721643998499999 152.024891008,-32.721645996500001 152.02511676799998,-32.721767911500002 152.025318016,-32.721868995500003 152.025512,-32.722012999500002 152.025732,-32.722091994499998 152.025952,-32.722215001 152.026196992,-32.722359005 152.026404,-32.722514997 152.026572,-32.722604000499999 152.026884,-32.722673005499992 152.02717001599999,-32.722708007500003 152.02744300800001,-32.722732002 152.02761100800001,-32.722799009 152.027806016,-32.722856007499999 152.02802601600001,-32.722912007 152.02818201599999,-32.722947009 152.028403008,-32.722958997 152.028559008,-32.722949007 152.02875500799999,-32.722918001 152.02896300800001,-32.722908991499999 152.029158016,-32.722942994500002 152.029312992,-32.723065002 152.02939001600001,-32.723132009 152.029506016,-32.723287002 152.02953574399996,-32.7233198765 152.02962201599996,-32.723385995500003 152.02978899199999,-32.723552995 152.02996201600001,-32.723665993 152.03017801600001,-32.723753997499998 152.03029145599996,-32.723797324499998 152.03041100799999,-32.723843001 152.03065801599996,-32.723899999499999 152.03085299200001,-32.723901997499993 152.031112992,-32.723903995500002 152.031295008,-32.723872009 152.031556,-32.723874007 152.03187801600001,-32.723936999499998 152.032218656,-32.72408487 152.03243766400001,-32.724214869500003 152.032521664,-32.724287870499992 152.032622656,-32.724345868 152.03280665599999,-32.724504857 152.03297462399999,-32.724691855 152.03325964800001,-32.7249518725 152.03336064000001,-32.72500987 152.03364563199997,-32.725226856500001 152.03396563199999,-32.725429857 152.03416764799999,-32.72557486 152.0350736,-32.72629784 152.035391616,-32.7266438455 152.035694592,-32.726860850500003 152.03591356800001,-32.727005853500003 152.03624956799999,-32.727194849500002 152.036640576,-32.727385843500002 152.03675558399999,-32.727441843 152.03697456,-32.727514844 152.03707558400001,-32.727572841499999 152.03719356799999,-32.727602848499991 152.037277536,-32.727646841500004 152.03739555199999,-32.727675849500002 152.03751353600001,-32.727719842500001 152.03761555200001,-32.727734846 152.03771654400001,-32.727764853 152.03783555199999,-32.727779819499993 152.03793654399999,-32.727808827499992 152.038054528,-32.727823831 152.038493536,-32.727941824 152.038594528,-32.727999821499999 152.038796512,-32.728087826 152.038897504,-32.7281458235 152.03931849599999,-32.728434830499999 152.03939299199999,-32.728437994 152.039444992,-32.728406007499999 152.039524,-32.728340998500002 152.039628,-32.728340998500002 152.03973100799999,-32.728418994499997 152.03984700800001,-32.728529994500001 152.039884992,-32.72869499599999 152.03993401599999,-32.728936994500003 152.039984,-32.729169003 152.04003299199999,-32.729432998 152.04009699199997,-32.729531991500004 152.04018889599999,-32.729678012 152.041846464,-32.729528828 152.04182899199998,-32.729365991 152.041831008,-32.7292230045 152.04188499200001,-32.729025998 152.04209500799999,-32.728880995 152.042188,-32.728728 152.04239801599999,-32.728563997500004 152.04255500799999,-32.728466003 152.04277801599997,-32.72831400699999 152.04297401599996,-32.728194996500001 152.04314601600001,-32.727998008500002 152.04327699199999,-32.727834006 152.04357900799999,-32.72761700099999 152.043815008,-32.727498009 152.04394499200001,-32.727488000500003 152.04415500799996,-32.727357002 152.04432499200001,-32.727260006500003 152.044611008,-32.727229000500003 152.04491001599999,-32.7272640025 152.045208992,-32.727342997500003 152.04562300800001,-32.727532992500002 152.04601299199996,-32.727646009 152.04641401599997,-32.727781003499999 152.04680300800001,-32.727937994500003 152.047128,-32.728062 152.04743900799997,-32.728173999 152.047698016,-32.728242005 152.04790499200001,-32.728320001 152.048126016,-32.728420992499998 152.048372,-32.728543999 152.048507328,-32.728702784500001 152.048642048,-32.728809955 152.04896099199999,-32.729438973500002 152.048971008,-32.729590007500001 152.04898297599999,-32.729802036 152.048940832,-32.730054024499999 152.04889907200001,-32.730307012 152.04889692799998,-32.730526977 152.04889331199999,-32.7306688165 152.04893616000001,-32.730893998500001 152.04908483199998,-32.731208998 152.04910716800001,-32.73159402 152.04915395200001,-32.732055983500004 152.04913488,-32.732605988499998 152.04915612799999,-32.733111963500001 152.04911004799999,-32.733792985500003 152.04907692800001,-32.734386983499995 152.048994112,-32.7348810075 152.049030848,-32.735057035 152.04899017599999,-32.735243977499998 152.04888396800001,-32.7354519545 152.04881593600001,-32.735715024500003 152.04872195199999,-32.735979001 152.04860208,-32.736241978500004 152.04844297599999,-32.736515038500002 152.048348992,-32.736810964500002 152.048176928,-32.737074034500004 152.04786192,-32.737313961 152.04763907199998,-32.7374880275 152.04737593600001,-32.737706013 152.04704796799999,-32.737977981500002 152.046705952,-32.738238998 152.04640499199999,-32.738445994500005 152.046285856,-32.738643001 152.04608784000001,-32.738871957 152.04592908800001,-32.739123964 152.04570588799999,-32.739353012500004 152.045612992,-32.73952796699999 152.04560291199999,-32.739786005 152.045568352,-32.739870864499999 152.045676512,-32.740698906 152.044553536,-32.74096489899999 152.042156608,-32.741592918500004 152.040076672,-32.74236694 152.03709372799997,-32.74348996399999 152.03389283199999,-32.744652966499999 152.030433888,-32.745439013 152.02790092800001,-32.745768017 152.02662995200001,-32.746044018500001 152.02533398399999,-32.746027017 152.02291500800001,-32.745771014 152.02137404800001,-32.745726003500003 152.01994406399999,-32.745965005 152.018443072,-32.746304017499995 152.016934112,-32.74673701 152.01424403199997,-32.747870967499999 152.01866003200001,-32.738707973 152.01947699199997,-32.737812998499997 152.019684,-32.737585948 152.02069696000001,-32.736303953499998 152.02066396800001,-32.736272947499998 152.020631968,-32.736242959 152.02060294399999,-32.736212952 152.020555968,-32.736162965 152.02042739199999,-32.736017962 152.02001232000001,-32.735555018 152.018856352,-32.735175398 152.017796,-32.734826932 152.016336064,-32.734357254 152.015053056,-32.7347429605 152.01412406399999,-32.735095959 152.01300108800001,-32.735522957500002 152.00666422399999,-32.737139968500003 152.00212428799998,-32.737489988500002 152.00200528,-32.73749999699999 152.00197027199999,-32.7376709925 152.00193228800001,-32.7378609875 152.00189827199998,-32.738022992 152.00187126399999,-32.7381589855 152.00183929600001,-32.738311999 152.00135632000001,-32.738240996 152.00124953599999,-32.738225215499995 151.99956316800001,-32.746474791 151.999527008,-32.746421992 151.999488,-32.746369008 151.999448,-32.746316005499999 151.999404992,-32.746265001 151.999359008,-32.746216993499999 151.99930899200001,-32.7461720015 151.99923699199999,-32.746119998 151.999158016,-32.746074007 151.99907401600001,-32.746032992499998 151.99890201599999,-32.745955995500005 151.99883401599999,-32.745930003 151.998688,-32.745884992500002 151.99862201600001,-32.745857002 151.998568,-32.745820002 151.998547008,-32.745797006499998 151.99849500799999,-32.74571999099999 151.99847500800001,-32.745695996500004 151.99843900799999,-32.7456609945 151.99839900800001,-32.745630007 151.998356,-32.7456 151.998267008,-32.745543001500003 151.99814899199998,-32.745459992 151.998087008,-32.745420994 151.99802598400001,-32.745392004500005 151.99796499199999,-32.745380997 151.99793699200001,-32.745384993 151.99788201600001,-32.745399996499998 151.99785500799999,-32.74540600899999 151.997828,-32.745407008 151.997796,-32.745397998499996 151.99776499199999,-32.745380997 151.997704,-32.745341 151.997672,-32.7453259965 151.997604,-32.745312991 151.997532,-32.745310993 151.997456,-32.745316006499998 151.997379008,-32.745324997499999 151.997228,-32.745338003 151.99707699199999,-32.7453570025 151.99692624,-32.745381922 151.9954344,-32.745618093 151.99525500799999,-32.745655000500001 151.99265916799999,-32.746185728500002 151.99006320000001,-32.746716808 151.990337152,-32.746327105500001 151.991701216,-32.744386344500001 151.99306524799999,-32.742445491 151.99424051199998,-32.740773054 151.994356512,-32.740614046499999 151.99478848000001,-32.740055050500004 151.99527046399999,-32.739528022500004 151.99553945599999,-32.739274036 151.99580044800001,-32.739037032500001 151.99606643199999,-32.738814033499999 151.994825472,-32.737545026 151.99487446399999,-32.737297033499999 151.99471248,-32.737273039 151.99455145600001,-32.737249026 151.99442345599999,-32.737231025499995 151.994295456,-32.737212026 151.99416745600001,-32.737193026500002 151.994039456,-32.737175026 151.99391145600001,-32.737156026500003 151.99378345599999,-32.737137027 151.993654496,-32.737118027499996 151.99352649599999,-32.737100027 151.99340150399999,-32.737082045 151.99327049600001,-32.7370620465 151.99314249599999,-32.737044046 151.993014496,-32.737025046500001 151.99288550399999,-32.737007046 151.992757504,-32.736988046500002 151.99262950400001,-32.736969047 151.99250150399996,-32.736950047499995 151.992373504,-32.736932047 151.992181536,-32.736904056500002 151.99198854400001,-32.736876047500004 151.99179654400001,-32.736848057 151.99158454399998,-32.736817051 151.991328544,-32.736779052 151.99120054400001,-32.736761051500004 151.99107254399996,-32.736742052 151.990944576,-32.736723052500004 151.99081555199999,-32.736704053 151.990687552,-32.736686052499998 151.99055955199998,-32.736667053 151.99043155199999,-32.73664807199999 151.990303552,-32.736630071500002 151.99017456000001,-32.736611072 151.99004656,-32.736592072500002 151.98992556799999,-32.736574072 151.98985456,-32.736564063499998 151.98979257600001,-32.736555072500003 151.98966259199997,-32.736536073 151.98953459200001,-32.736517073500004 151.98940659199999,-32.736499073 151.98927760000001,-32.736480073500005 151.9891496,-32.736461074 151.9890216,-32.736442074500005 151.98889360000001,-32.736424074 151.988764608,-32.736405074499999 151.98863660800001,-32.736386075 151.98850860799999,-32.736367075499999 151.988380608,-32.736349075 151.98825264000001,-32.7363300755 151.98812464,-32.736311076 151.98799664000001,-32.736293075500001 151.98786761599996,-32.736274076 151.987739616,-32.736255058 151.98761161600001,-32.736237076 151.98748361599999,-32.736218076500002 151.986524672,-32.736078087 151.983048736,-32.735569096499994 151.98367468800001,-32.732491085 151.98484262400001,-32.726748056 151.98490406400001,-32.7263998305</coordinates></LinearRing></outerBoundaryIs></Polygon>

	</Placemark>
</kml>