<?xml version="1.0" encoding="UTF-8"?>
<kml xmlns="http://www.opengis.net/kml/2.2">
	<Placemark>
		<Style>
			<LineStyle>
				<color>ff0000ff</color>
			</LineStyle>
			<PolyStyle>
				<fill>1</fill>
				<color>330000cc</color>
			</PolyStyle>
		</Style>
			<ExtendedData><SchemaData>
		<SimpleData name="STATE_2006">1</SimpleData>
		<SimpleData name="POA_2006">2172</SimpleData>
	</SchemaData></ExtendedData>
      <Polygon><outerBoundaryIs><LinearRing><coordinates>150.99573436799997,-33.972931347500001 150.99742736,-33.974047341500004 150.99814736,-33.975126335500001 150.9962744,-33.97631435 150.994546464,-33.977826373500001 150.99411347200001,-33.97904939 150.994726496,-33.980201385 150.99605849599999,-33.981677370500002 150.99713948799999,-33.98232537 150.998147488,-33.982648361500004 150.99917324800001,-33.9829044755 151.00029696,-33.982657482 151.00078435200001,-33.982444177 151.00101452800001,-33.982253331 151.001298816,-33.982006337500003 151.00146128,-33.981714463 151.001650848,-33.981467469500004 151.00216531199999,-33.980692837500001 151.00259852799999,-33.980165199 151.00297763200001,-33.979850847 151.003749344,-33.9793851835 151.00422332799999,-33.979367275500003 151.00445132799996,-33.979631289 151.00491366399996,-33.980260862500003 151.005062592,-33.9811702485 151.00522505599997,-33.981855081500001 151.0054552,-33.982259232499992 151.00592636799999,-33.982542282499999 151.006644352,-33.982618280499999 151.007418304,-33.982483767 151.00811932799999,-33.982315269 151.008614368,-33.982362444 151.00807664000001,-33.982754329500004 151.00604243199999,-33.984230037499998 151.00391641600001,-33.984968317 151.00116048000001,-33.985225337499998 150.99887452799999,-33.985341369499999 150.99632953599996,-33.985208391500002 150.99431558399999,-33.985103404 150.99270758399999,-33.984914426499998 150.99259660800001,-33.984901421 150.99177161599999,-33.984804425500002 150.99177564799999,-33.984797395500003 150.9918136,-33.984640423 150.991816672,-33.9844974365 150.99183468800001,-33.984454405500003 150.99174156799998,-33.984037434 150.99174864,-33.983722434500002 150.99178758399998,-33.983493423 150.99178969600001,-33.983407435 150.991846592,-33.983165436500002 150.99185161599999,-33.982978401499992 150.99182064,-33.982834416 150.991789568,-33.982676426 150.99169859200001,-33.982145457500003 150.9916896,-33.981786446500003 150.991749376,-33.981429415 150.991768544,-33.981315436500005 150.991795072,-33.981221697 150.99165456,-33.981045429 150.99141456000001,-33.980755423 150.991169536,-33.980470430499999 150.99091955200001,-33.980190433 150.99042953599997,-33.979682423 150.98991443200001,-33.979196964499998 150.98938454399999,-33.978724437499999 150.98885056,-33.978256443 150.98866854400001,-33.978092440499999 150.9854472,-33.975286286499994 150.98470054399999,-33.974596458500002 150.98402656,-33.974002479 150.983265536,-33.973385485500003 150.98322953600001,-33.973360492 150.982393696,-33.972782034 150.981264576,-33.972157511 150.979993568,-33.971449516 150.97768236799999,-33.9701018465 150.977506624,-33.969999541500002 150.97646460799996,-33.969434533 150.975740608,-33.969038559 150.9750176,-33.96864055 150.97422528000001,-33.968199232499998 150.97367376,-33.967902862500004 150.97139865599999,-33.966679587 150.97133465600001,-33.966642587 150.97121865599999,-33.966574599499999 150.97103664,-33.966471591500003 150.97085424,-33.966370711 150.97066966400001,-33.966271588 150.97048368,-33.966173593500002 150.970262048,-33.966062279 150.97003766399999,-33.965953591500003 150.96981097599999,-33.965847179500003 150.969582688,-33.965742617499998 150.96935468800001,-33.965639609500002 150.969097664,-33.965526611500003 150.968847232,-33.965421383500001 150.96859168,-33.965315619 150.968417504,-33.965243154500001 150.96840966400001,-33.965239621 150.96833568,-33.965209614 150.96808067200001,-33.96510261 150.96797667199999,-33.965059616 150.967873696,-33.96501562299999 150.96781472000001,-33.964990611 150.96777072,-33.96497163 150.96766672,-33.964928636 150.96756371199999,-33.964885623500003 150.96737952000001,-33.96483288 150.96719376,-33.964783115 150.96700729599999,-33.96473631 150.96681936,-33.964692483500002 150.96663072000001,-33.964651635500005 150.96642771200001,-33.964611638500003 150.96622428800001,-33.96457521199999 150.966019456,-33.964542097 150.96581388799999,-33.964511572 150.96560832,-33.96448323 150.96532140799999,-33.9644502815 150.96503340800001,-33.964424825500004 150.96463056,-33.964393671499998 150.96445561600001,-33.964380092500001 150.96416774400001,-33.964352657 150.96394873599999,-33.964331678 150.96372841600001,-33.964312771 150.96350876799997,-33.964290663499995 150.963292448,-33.964261470499999 150.963079776,-33.964218661499999 150.96289824,-33.964173188499998 150.96271609599998,-33.964122054500002 150.96253753600001,-33.964063021 150.96236761599999,-33.963993368499999 150.96221078400001,-33.963910692 150.96212208,-33.963852417 150.96206304,-33.963808239 150.96203747199999,-33.963789239500002 150.96195676799999,-33.963722695 150.96187776,-33.963652691 150.961801248,-33.963582187500002 150.96172576,-33.963510685 150.961651776,-33.963436685 150.96158076799998,-33.963360687 150.961446784,-33.963202697 150.961342336,-33.963051422500001 150.96125376000001,-33.962890694500004 150.96117177599999,-33.962725693 150.961088512,-33.962562449 150.96099564799999,-33.962403238 150.960918784,-33.96228469 150.960839776,-33.96216669699999 150.96075878400001,-33.962050683500003 150.96067308799999,-33.961936686500003 150.96058163199999,-33.961826426500004 150.96049632,-33.961729505 150.96040777599998,-33.961633286500003 150.960315232,-33.961540231499995 150.96021696,-33.961452745 150.96011113599999,-33.961373361500002 150.96002976,-33.961320692 150.95994476800001,-33.961271685500002 150.95987776000001,-33.961236683500005 150.95952678399999,-33.961010706 150.95932976,-33.9608317 150.959062432,-33.960472374499993 150.95875033600001,-33.959998071500003 150.958440352,-33.9594407035 150.95821376000001,-33.958992707500002 150.95817376,-33.958913712499999 150.95833177599997,-33.958915710500001 150.95846876799999,-33.958903704 150.958710784,-33.958821712 150.95879676800001,-33.958808706500001 150.95898777599999,-33.958725697 150.959319744,-33.9585016805 150.95939184,-33.958373679 150.959532736,-33.958175692 150.95963875199996,-33.958062694 150.95979574399999,-33.957964681 150.96014569600001,-33.957668681 150.960444704,-33.957344672 150.96049872,-33.957258665499999 150.96055270400001,-33.957130664 150.960644704,-33.956860675 150.96064672,-33.956774668500003 150.96068569600001,-33.956574665 150.96078566400001,-33.955973674 150.960771712,-33.955858715 150.96086268799999,-33.955588670499999 150.96118166400001,-33.955163651500001 150.961254688,-33.955007659499998 150.96129267200001,-33.954835646500001 150.96136969599999,-33.954492693500001 150.96137065599999,-33.954421653499999 150.961478656,-33.954222649 150.961531648,-33.954165650500002 150.961602656,-33.954023644499998 150.96165465600001,-33.954024643499991 150.96170563199999,-33.9540256425 150.96192963199999,-33.954000649 150.96206665599999,-33.954002647 150.96273161600001,-33.954198636 150.96295260799997,-33.954316629 150.96334160000001,-33.954566638 150.963716608,-33.954701632499997 150.96402460799999,-33.95474964 150.9642656,-33.954710623499992 150.96438662399999,-33.954654605500004 150.9643896,-33.954554613 150.96432460799997,-33.954395605500004 150.96417360000001,-33.954235617500004 150.96413961600001,-33.954192605 150.96412460799999,-33.954120621500003 150.96409161599999,-33.95407661 150.964265568,-33.953950606499994 150.96462358400001,-33.954085619499999 150.96492857600001,-33.95426161 150.96501257599999,-33.954349614500003 150.965236576,-33.954447609 150.96540156799998,-33.9544676075 150.96560057599999,-33.954532616500003 150.96573459199999,-33.954607615500002 150.96593657599999,-33.954483591500001 150.966235584,-33.954388594 150.96653555200001,-33.954357588 150.96691353599999,-33.954325601500003 150.96722854399997,-33.954357588 150.96762256,-33.954373590499991 150.96812755199997,-33.954294577 150.968994528,-33.954058572500003 150.96989248,-33.953758558 150.97061747199996,-33.953207554 150.97121644799998,-33.952813541 150.971704448,-33.9523095455 150.97214643199999,-33.951994527499991 150.97235142399998,-33.951868524 150.97256041599999,-33.9517445185 150.973054432,-33.951620513 150.9732168,-33.951466667 150.97328352,-33.951404525500003 150.973804384,-33.952080497 150.97553238399999,-33.952713511500001 150.97697334399999,-33.952829488 150.978183328,-33.953001464 150.97986233599997,-33.95364445 150.98123030400001,-33.954433456499999 150.98204528,-33.95493242 150.982807296,-33.955720427500005 150.98291228799999,-33.956534427500003 150.982281312,-33.957611442 150.98112435199997,-33.959056458500001 150.98062537600001,-33.960213467 150.98030940800001,-33.962183476500002 150.98052044799999,-33.963707488 150.98079747200001,-33.9642378275 150.98115145599999,-33.964915482500004 150.98241344,-33.965493459500003 150.98375443200001,-33.965809439499999 150.98585737600001,-33.96562542 150.988092352,-33.96559841 150.988880352,-33.965888397500002 150.989722368,-33.96643938299999 150.991232352,-33.968072378 150.99135558399999,-33.968264001 150.99252934399996,-33.970088378500002 150.99396934399999,-33.971671368 150.994010368,-33.971700376 150.99573436799997,-33.972931347500001</coordinates></LinearRing></outerBoundaryIs></Polygon>

	</Placemark>
</kml>