<?xml version="1.0" encoding="UTF-8"?>
<kml xmlns="http://www.opengis.net/kml/2.2">
	<Placemark>
		<Style>
			<LineStyle>
				<color>ff0000ff</color>
			</LineStyle>
			<PolyStyle>
				<fill>1</fill>
				<color>330000cc</color>
			</PolyStyle>
		</Style>
			<ExtendedData><SchemaData>
		<SimpleData name="STATE_2006">1</SimpleData>
		<SimpleData name="POA_2006">2472</SimpleData>
	</SchemaData></ExtendedData>
      <Polygon><outerBoundaryIs><LinearRing><coordinates>153.42010467200001,-29.107755708 153.42064300800001,-29.108150997500001 153.42169801599997,-29.108925000500001 153.42259001599996,-29.109551003500005 153.42280499200001,-29.109718003 153.42392998400001,-29.110534001 153.42428300799997,-29.110790004 153.42502099199999,-29.111324006499999 153.426267008,-29.112221996500001 153.42635696,-29.112285988 153.42631497599999,-29.112398986 153.42629696,-29.112507988 153.42630195199999,-29.112654989 153.42631596800001,-29.1128239865 153.42659296,-29.114498976499998 153.426638016,-29.114788002 153.42665196799999,-29.1148669785 153.426185984,-29.115120983500002 153.42580899199999,-29.115338987499999 153.42620700800001,-29.115870992 153.426188,-29.117346977499999 153.42605699200001,-29.117428988 153.42565001599999,-29.1177139805 153.42549702400001,-29.117823981500003 153.42556803199997,-29.117952982 153.42519504000001,-29.118221972 153.42533104,-29.118365976 153.42546403200001,-29.118506983 153.42559801600001,-29.118648989 153.42569401599997,-29.118751978500001 153.42572803199999,-29.118787979499999 153.42586704000001,-29.118932982500002 153.42600099200001,-29.119073009 153.42614803199999,-29.119226966 153.42627302400001,-29.119357964499997 153.426570016,-29.119668968 153.42656601600001,-29.119877962500002 153.42703104,-29.120137961499996 153.42704704,-29.120143955499998 153.427144032,-29.12019496 153.427288992,-29.120271957 153.42872598400001,-29.120966946499998 153.428797984,-29.120996935 153.42886598399997,-29.121025943 153.428928,-29.121046940500001 153.42898,-29.121060945 153.42901798400001,-29.121062943 153.42917699200001,-29.121041002 153.42986195200001,-29.120929946499999 153.43114896,-29.120760949 153.43107296,-29.121117943499996 153.43104297599999,-29.121502947 153.431091968,-29.121867952 153.43120995199999,-29.122320943 153.43124496,-29.1224559375 153.43137097600001,-29.122893925 153.43128108799999,-29.122934033 153.43119996799999,-29.122933940500001 153.431150976,-29.1229629485 153.43110195200001,-29.1229629485 153.430239008,-29.123223946499998 153.430076,-29.123309934499996 153.430057984,-29.12338695 153.429964,-29.123409945499997 153.4297,-29.123473937 153.429407008,-29.123575946 153.42869104,-29.123864934500006 153.42848003200001,-29.123979949 153.42807401600001,-29.124339940500001 153.42791203199999,-29.124540943 153.42776704,-29.124799961500003 153.427686016,-29.124871963500002 153.42758803199999,-29.124900953 153.42749001600001,-29.124915956499997 153.42708307199999,-29.125002962 153.42690406400001,-29.125103953500002 153.42641606399999,-29.125334963 153.42587907199999,-29.125480965 153.425570048,-29.125638955 153.42535910399999,-29.125797962500002 153.42464409600001,-29.126244959499999 153.42435110400001,-29.126374977499999 153.42415609599999,-29.126475987499997 153.423847104,-29.126648981 153.42257712,-29.1271119805 153.42248012799999,-29.127126984 153.42226812800001,-29.127198986 153.42218713599999,-29.127256983500001 153.42207312,-29.127285973 153.421845152,-29.127429977 153.42158515200001,-29.127660986499997 153.42150416,-29.127746974500003 153.42124515200001,-29.127933972499999 153.420935168,-29.128078994 153.42074016000001,-29.128108002 153.42062614400001,-29.1281369915 153.420541152,-29.128162003500002 153.430210496,-29.129356567 153.44836179199999,-29.131597786500002 153.4484128,-29.131883796500002 153.44846681600001,-29.132772795499999 153.44856780800001,-29.13338879 153.44876579199999,-29.133931802 153.44883180799999,-29.134046798 153.44884784000001,-29.134117801 153.448932832,-29.134251796500003 153.44902883200001,-29.134403792499999 153.449290816,-29.134631786500002 153.44958579199999,-29.134802782 153.44976579199999,-29.134988781 153.449798816,-29.135059784 153.45012681599997,-29.135445768 153.45032380800001,-29.135630768 153.4507008,-29.135901774499999 153.450798816,-29.135987781 153.45092979200001,-29.136144772 153.45109481599999,-29.136487780499998 153.4511288,-29.136745781499997 153.451294816,-29.137246761499998 153.4513768,-29.137446765 153.4515088,-29.1376177605 153.45159081599999,-29.137689762499999 153.45173779199999,-29.137860758 153.45173779199999,-29.137889766 153.45183580799997,-29.137917756500002 153.45203280000001,-29.138060761499997 153.45221379200001,-29.138345754 153.452361792,-29.138517767 153.45257379200001,-29.13864575 153.4527048,-29.138687763499998 153.452769792,-29.138759765500001 153.4528848,-29.138787756 153.452982816,-29.138873762499998 153.45319481600001,-29.138972737500001 153.45326080000001,-29.138972737500001 153.453390816,-29.139028737 153.45371779199999,-29.139113744500001 153.453929792,-29.139141735 153.45422380799999,-29.139140736 153.45433779199999,-29.139096743 153.45453276800001,-29.138995733 153.45485676800001,-29.138664731 153.455051776,-29.138535749 153.45537776,-29.138447744500002 153.45597977599999,-29.138173722499999 153.45609273599996,-29.138115725 153.456288736,-29.138028719499999 153.45661475200001,-29.1379987125 153.456809728,-29.137997713500003 153.45692473599999,-29.138040726 153.457054752,-29.138111729 153.45712073599998,-29.138168727500002 153.457169728,-29.13826872 153.45718675200001,-29.138340722 153.45715475200001,-29.1384987305 153.45707475200001,-29.1386847295 153.45691273599999,-29.138857723 153.456831744,-29.139043722 153.45676675199999,-29.139130727499996 153.456685728,-29.139187726 153.45658777599996,-29.139216715500002 153.456507776,-29.139317725500003 153.45644278399996,-29.139532714 153.45623276800001,-29.13974872 153.456167776,-29.139848712500001 153.45623276800001,-29.139920714500001 153.45644576000001,-29.140005722 153.45654377599999,-29.140062720499998 153.45665878400001,-29.140190722 153.45662678400001,-29.140248719499997 153.456495776,-29.140277727500003 153.45639878399999,-29.140292712499999 153.45618678400001,-29.140307716 153.45610476799999,-29.140321720499998 153.455795776,-29.140495713 153.45560076800001,-29.140538725500001 153.455290816,-29.140554728 153.45498179200001,-29.140555745500002 153.45489980799999,-29.140584735 153.45480179200001,-29.140642732499998 153.45468780799999,-29.140686744 153.454379808,-29.140902731499999 153.454265792,-29.140945744 153.4539408,-29.141204744 153.45363283199998,-29.1415217415 153.45332483199999,-29.141866748 153.45317884799996,-29.142053746 153.45295283199997,-29.142398734 153.45274182399999,-29.142671738500002 153.45256384000001,-29.142829747 153.45248284799999,-29.142915735 153.45215888000001,-29.143375737500001 153.451948864,-29.143763738 153.45180585599999,-29.143980743 153.45144787199999,-29.1445257345 153.45136688,-29.1446977475 153.45133491199996,-29.14479774 153.450913888,-29.145401746499999 153.45081689599999,-29.145573741 153.45075289600001,-29.145760739 153.45049491200001,-29.146205756499999 153.45046188800001,-29.146291763 153.450316896,-29.146535759500001 153.450251936,-29.146622765 153.45000992000001,-29.147067764 153.44992892799999,-29.1472397585 153.44978393599999,-29.147512763 153.44967094399999,-29.147827762499997 153.44942992,-29.148416765499999 153.44926896000001,-29.148789762500002 153.44891296,-29.149392751500002 153.44867097599999,-29.149838749500002 153.44833196799999,-29.150441757 153.44789398399999,-29.150987766 153.44732700799997,-29.151620762 153.44716499200001,-29.151792756499997 153.44669401600001,-29.152267762499996 153.44653203199999,-29.152468765 153.44646704,-29.152540767 153.446484032,-29.152555752 153.44646704,-29.152568757499999 153.44563904,-29.153246764 153.44544406399996,-29.153375764500005 153.445347072,-29.153433762 153.44523305599998,-29.153520767499998 153.44511907199998,-29.15356378 153.44471305599998,-29.15382278 153.444437056,-29.154053771 153.444210048,-29.154283781500002 153.44390208,-29.1546287695 153.44354508800001,-29.154973776 153.44305708799999,-29.155377779 153.442603136,-29.155880775500002 153.44247411199999,-29.156067773500002 153.44208512,-29.156498768 153.44192313600001,-29.156685784500002 153.44166313599999,-29.156901772 153.44154912,-29.156973774 153.44073814399999,-29.157722802 153.44065616,-29.157822794500003 153.44023516799999,-29.158253789 153.439748192,-29.158757803 153.43953718399999,-29.159002798499998 153.439294176,-29.159260799499997 153.43916419199999,-29.159318797 153.438676192,-29.159650798 153.438026208,-29.160010789499999 153.437733216,-29.160183801500001 153.43705123199999,-29.160716805 153.436856224,-29.160860809 153.43675824,-29.160918806500003 153.43628726399999,-29.161321810500006 153.43617324799999,-29.161393812499998 153.43609225599999,-29.161465814500001 153.435979264,-29.161537816500001 153.435605248,-29.161840809499996 153.43552425599998,-29.161926816 153.43541024000001,-29.161998818 153.434955296,-29.162372814 153.43450128000001,-29.16279084 153.43422528,-29.163006827500002 153.43328332799999,-29.163840826 153.433186304,-29.163912828 153.43307232000001,-29.163985829 153.43297731199999,-29.164059829 153.43290931199999,-29.164128834 153.43281232,-29.164186831499997 153.43252032000001,-29.164445831499997 153.43170835199996,-29.165193823499997 153.43104233599999,-29.1657268455 153.43079836800001,-29.1659858455 153.43053939199999,-29.166287858 153.430442368,-29.166373846 153.43032838400001,-29.166531854499997 153.43005238399999,-29.166704848 153.42987337599999,-29.166891846 153.42950038399999,-29.167251856 153.428948416,-29.167669845 153.427876416,-29.168633861500002 153.427730432,-29.168805874500002 153.42764944000001,-29.168892861500002 153.42722745599997,-29.169323874500002 153.426887456,-29.169797863 153.42672544000001,-29.169984861 153.426628448,-29.170157873 153.42656448,-29.170357876500002 153.42651548800001,-29.170458868 153.42627248,-29.170702864499997 153.425979488,-29.170933874 153.425638464,-29.171264876 153.42547648,-29.171436870499999 153.42536246399999,-29.171465878499998 153.425053504,-29.171681866 153.42433952,-29.172343888499999 153.42422550399999,-29.172415890499998 153.42359251199997,-29.173020896 153.42336553600001,-29.173293882 153.42294355199999,-29.173710890500001 153.42281353599998,-29.1737828925 153.42211555200001,-29.174415888499997 153.42180758399999,-29.17477588 153.42167756800001,-29.174962896500002 153.42127158400001,-29.175378887500003 153.42054060800001,-29.176083904 153.419307616,-29.177120903 153.41878764800001,-29.177666912 153.41851264,-29.178040908 153.41839862399999,-29.178227906 153.41833462400001,-29.178298909 153.41802662399999,-29.178772897499996 153.41796163199996,-29.178844899499996 153.41763766400001,-29.179318906500001 153.41708768000001,-29.180066898500002 153.41647065599997,-29.180799924 153.41608169599999,-29.181230918500003 153.41590371199999,-29.181489918500002 153.415806688,-29.181661931500003 153.415773696,-29.181747919500001 153.415514688,-29.182121934 153.41520668800001,-29.182480926499998 153.41476873600001,-29.1828979165 153.41454172799999,-29.183170921 153.41447673599998,-29.183257926500001 153.41415174400001,-29.183645927 153.41355177599999,-29.184263919500001 153.412918752,-29.184996926499998 153.41252876799996,-29.185284916 153.412399776,-29.1854859185 153.41227075200001,-29.185758923 153.4121248,-29.186016924 153.41209280000001,-29.186103948 153.41180080000001,-29.186548947 153.41163878399999,-29.186720941500003 153.4114928,-29.186907939499999 153.41053683199999,-29.188215945 153.41021283200001,-29.188675947499998 153.40985584000001,-29.189106942 153.409710816,-29.189307944500005 153.40946787199999,-29.189723935499998 153.40917686399999,-29.190340947499998 153.40906387199999,-29.190513941 153.408901856,-29.190786945499998 153.40882086400001,-29.190872952 153.40870787200001,-29.19105995 153.40862585599999,-29.191145938 153.408172896,-29.191849937 153.40788089599999,-29.192208948 153.40781590399996,-29.192294936 153.40767088000001,-29.1924819525 153.406923936,-29.193372968 153.406583936,-29.1937329595 153.40650291200001,-29.193847955500004 153.406404928,-29.193933962 153.40619392,-29.194177958499999 153.40562592000001,-29.194753956 153.40546396799999,-29.194954958500006 153.40536595199998,-29.195040965 153.40523696,-29.195213958499998 153.40507395200001,-29.195400956500002 153.40500896,-29.195486963 153.40484694400001,-29.195673961 153.40434396800001,-29.196291953500001 153.40325798399999,-29.197699988500002 153.40269203199998,-29.198618976 153.40249702399998,-29.198891980499997 153.40243203200001,-29.198977987 153.40218902399999,-29.199265976500001 153.40142704,-29.200185981500006 153.40121606400001,-29.200458986 153.40098905599999,-29.200731972 153.40051904000001,-29.201377973499998 153.40032505600001,-29.20172298 153.40014608000001,-29.201995984499998 153.399871072,-29.202426979 153.399823072,-29.202526971499999 153.39940108799999,-29.2031449825 153.39893110400001,-29.203776979500002 153.39878611200001,-29.204050002499997 153.39872112,-29.204122004499997 153.398575104,-29.204380005499999 153.39834912000001,-29.204738998 153.39815411199999,-29.205111995 153.39810611199999,-29.205183997 153.39802512,-29.205355991499996 153.39792816,-29.205529003499997 153.39763715199999,-29.205974002499996 153.39757216000001,-29.206059990500002 153.39752313599996,-29.206161000500003 153.39734515200001,-29.206404997 153.39724816,-29.206576991499997 153.397135136,-29.206807002 153.39711913599999,-29.206879004 153.39708614400001,-29.206906994500006 153.39630918399996,-29.208157002500002 153.396147168,-29.208328997 153.39587116799999,-29.208702993 153.395417216,-29.209249002 153.39514121600001,-29.209621999 153.394753216,-29.2102980075 153.39444524800001,-29.210756992500002 153.39436425599999,-29.210842999 153.39415324800001,-29.211116003500003 153.39407225599999,-29.211216995 153.39394224,-29.211403993 153.39389424000001,-29.211504004 153.39340825599999,-29.212223025 153.393278272,-29.212495012 153.39303526399999,-29.212854023 153.392906272,-29.213027016499996 153.39263126399999,-29.213558022 153.39230627200001,-29.213917014500002 153.39201430399999,-29.214262021 153.39188531199997,-29.214535025500002 153.39183632000001,-29.214607009 153.39180432000001,-29.21470702 153.39187030400001,-29.214893019 153.39182230399999,-29.215137015500002 153.39179030400001,-29.215223022 153.39177430399999,-29.215323014500001 153.39174230399999,-29.215409021 153.391726304,-29.215510012500001 153.39166230399999,-29.215682025500001 153.39116035200001,-29.216587008499999 153.39109532800001,-29.216673015 153.39096633599999,-29.2169460195 153.39070732799999,-29.217391018500003 153.39059433599996,-29.217549008499997 153.39052934399999,-29.217721021500001 153.390432352,-29.218008012 153.39035238400001,-29.218280017499996 153.39033638399999,-29.218381009 153.390256384,-29.218553022 153.39014336,-29.218854017 153.39001436800001,-29.219156011 153.38990137600001,-29.219428016499997 153.38964336000001,-29.220131016500002 153.38962736,-29.220260017 153.38948336000001,-29.220691011499998 153.3894344,-29.220820012 153.389321408,-29.221092017500002 153.38907939200001,-29.221609018499997 153.3889984,-29.221781013 153.38885241599999,-29.222054017499996 153.38882041599999,-29.222155009 153.38877241599997,-29.222269024500001 153.38874041599999,-29.222341026500001 153.38869139199997,-29.222427014499999 153.38836844799997,-29.223231024499999 153.388320448,-29.223360025 153.38822342399999,-29.223576012500001 153.388094432,-29.22392002 153.38803043199999,-29.224049020499997 153.38799744,-29.2241210225 153.387723424,-29.224652009500005 153.387463424,-29.225011020500006 153.38736643199999,-29.225112012 153.38717046400001,-29.225256016 153.38699248,-29.225457018500002 153.386814464,-29.225816011 153.38678246399999,-29.225974019499997 153.38678345599999,-29.226059008500002 153.38658848,-29.226418038 153.38652345599999,-29.226505043499998 153.38602051199999,-29.227108032499999 153.385923488,-29.22716603 153.38576051199999,-29.227338043 153.385484512,-29.227669045 153.385159488,-29.228000028500002 153.38488348800001,-29.228244043499998 153.38465654399999,-29.228503043499998 153.38441353600001,-29.228876040500001 153.38433254399999,-29.229063038500001 153.384089536,-29.229422031 153.38360252799998,-29.2299540355 153.38343952,-29.23012603 153.38319657599999,-29.2303990345 153.38282457599999,-29.231031031500002 153.38249955200001,-29.231362052 153.38227257599999,-29.231649061 153.38139459199999,-29.232541057 153.381232608,-29.232713051499996 153.37982064,-29.234409057499999 153.379625632,-29.234696048 153.379545632,-29.234883046 153.37951264,-29.234941062 153.37920467199999,-29.235429055 153.37904265599997,-29.235573059 153.378961664,-29.235673051500001 153.378847648,-29.235745053500004 153.378457664,-29.236091077499999 153.37827865599999,-29.236277076500002 153.37814867200001,-29.23645007 153.37810067199999,-29.236550081 153.37754870399999,-29.2371970815 153.37714268799999,-29.237757076499996 153.37701369600001,-29.237958079 153.376802688,-29.238231065 153.37612073599999,-29.239136066500002 153.37589372799999,-29.239409071 153.37582873599999,-29.239496076499996 153.37560172799999,-29.239769081 153.37545571199999,-29.2399840695 153.37530976,-29.240156064 153.375196768,-29.240329076 153.37492176000001,-29.240874067500005 153.37469376000001,-29.241147072 153.37417376,-29.241679095 153.37360480000001,-29.242154082500001 153.37337779200001,-29.242413082500001 153.37321577599997,-29.242657097500004 153.37305379200001,-29.24301609 153.373021792,-29.243116082499998 153.372843776,-29.243475093499999 153.37277980799999,-29.243647088 153.372617824,-29.243992094500001 153.372504832,-29.2442641 153.37227782400001,-29.244595083499998 153.37205081600001,-29.244868088 153.37198582399998,-29.244954094499999 153.37175782400001,-29.245227099 153.37170982399999,-29.245342095 153.371628864,-29.245399093499998 153.37161286399999,-29.245471095500001 153.37135286399999,-29.245759085 153.370493856,-29.247094100499996 153.37044486400001,-29.2472230825 153.37036387200001,-29.247281098500004 153.37003987200001,-29.247741082499999 153.36995788799999,-29.247827089 153.369941888,-29.247856097 153.36990089599999,-29.247912096500002 153.369771872,-29.2480730835 153.369725888,-29.248124088 153.36964089599996,-29.248209095500002 153.36954988799999,-29.248290107 153.36940387199996,-29.248410116500001 153.36927088,-29.248526111500002 153.36914489599999,-29.248647101500005 153.36890192000001,-29.248898109500001 153.368783904,-29.24902711 153.368634912,-29.249197106499999 153.368424928,-29.249485114499997 153.368343904,-29.249571102500003 153.36821392,-29.249759118 153.36813292799999,-29.249931112499997 153.36806992000001,-29.2503041095 153.36789193600001,-29.2506781055 153.367487936,-29.251383103499997 153.36714793600001,-29.251944116 153.36690496,-29.252304107499999 153.36669497599999,-29.252678103499999 153.366645984,-29.252779113499997 153.36643596799996,-29.253124101499996 153.36630598399998,-29.253311118 153.36560796800001,-29.254003110500001 153.365348,-29.254377106499998 153.36505702399998,-29.254909111 153.36484700799997,-29.255369113500002 153.36479900800001,-29.255441115499998 153.36467001599999,-29.255714101500001 153.36457302400001,-29.255887132 153.364508,-29.25597312 153.36445904000001,-29.25607413 153.36410304,-29.256606134499997 153.36369705600001,-29.257053131500001 153.36345404799999,-29.257499129500001 153.36314608000001,-29.257859121 153.362757088,-29.258463127499997 153.36267708799997,-29.258650125499997 153.36199609600001,-29.259686125499996 153.36183510399999,-29.260045136499997 153.36181910400001,-29.260146128 153.361787104,-29.260232134500001 153.36177110400001,-29.260332127 153.36173910400001,-29.260419132500001 153.36172310399999,-29.260519125 153.361643104,-29.2607921295 153.361595104,-29.26092113 153.36156211199997,-29.260979127499997 153.36151411200001,-29.261094123500001 153.36146512,-29.261166125500004 153.360608128,-29.26273413 153.36030012800001,-29.263108126 153.36013715199996,-29.2632811195 153.359800224,-29.2637145745 153.319692992,-29.239884003 153.317939008,-29.239635992 153.31768700799998,-29.239599991 153.31653900800001,-29.240483995 153.315226016,-29.241689991499996 153.31335900799999,-29.242717999500002 153.310640992,-29.245989003 153.30983900800001,-29.246657001 153.30717001599996,-29.246349993500001 153.305790016,-29.246280008 153.30536700799999,-29.246267002500002 153.3053,-29.246324001 153.30523801599998,-29.246387992500001 153.30516,-29.246488003500001 153.30401100799997,-29.2471570005 153.30223699199996,-29.2481910025 153.30206099200001,-29.248411004499996 153.299994016,-29.250490996500002 153.298227008,-29.250776007499997 153.29685801599999,-29.250995991 153.294564,-29.250989997 153.28837299200001,-29.251432998 153.287392,-29.251301999499997 153.28302201599999,-29.250713995499996 153.28204499200001,-29.249954996 153.280866016,-29.248777008499999 153.27996300800001,-29.248981008 153.27838700800001,-29.2496429935 153.27802601599998,-29.249796007 153.274512,-29.250944006 153.2726,-29.2501880035 153.271222016,-29.2499670025 153.26816,-29.248920994 153.26597699199999,-29.249110008499997 153.26309001600001,-29.248666008500006 153.26248899199999,-29.248411004499996 153.25840601600001,-29.246553993 153.258375008,-29.246771997 153.258008,-29.248411004499996 153.25788601599999,-29.249076005500001 153.25295500799999,-29.248411004499996 153.25107299199999,-29.248152004499996 153.2435,-29.247047998499998 153.24154105599999,-29.24678676 153.24178569599999,-29.246464915499999 153.24190371200001,-29.246312919499996 153.24202368,-29.246163920500003 153.24215366399997,-29.246007928500003 153.24228668800001,-29.245852917 153.24242166400001,-29.245699922 153.24255667200001,-29.245548925 153.242693664,-29.245398927 153.242840672,-29.245238920499997 153.24298966399999,-29.245080930500002 153.24313868799999,-29.24492492 153.24329068799997,-29.244769908500004 153.24344268799999,-29.244615914499999 153.243538656,-29.244520898499996 153.24363564800001,-29.2444269 153.24373264,-29.244332901499998 153.243830656,-29.244239902 153.24392864000001,-29.2441479015 153.243999648,-29.244086907 153.24406963199999,-29.244024913499999 153.24413964799999,-29.243961902499997 153.24420864000001,-29.243897911 153.24427664000001,-29.243833901 153.24442064,-29.243693911499999 153.244561632,-29.243550906500001 153.24469964799997,-29.2434049045 153.24483664,-29.243256904500001 153.24497264,-29.243108904500001 153.24510361599999,-29.242965899499996 153.2452336,-29.242821914 153.24536361599999,-29.242676911 153.24549062399998,-29.242530909 153.24561660800001,-29.242383908 153.2457136,-29.242269911 153.245808608,-29.242154896500001 153.24590361599999,-29.242038901499999 153.24599660800001,-29.241923887 153.246090624,-29.241806893 153.24624560000001,-29.241608887499996 153.24639961599999,-29.241408884 153.24655059200001,-29.241207881499999 153.246699584,-29.241004881 153.246846592,-29.2408008815 153.247162592,-29.240371885 153.24726758400001,-29.240217891 153.24908054400001,-29.237312873 153.24915350399999,-29.237194861500001 153.25069747200001,-29.234719876 153.25107248,-29.234105861 153.25114848000001,-29.233980875 153.25129049599997,-29.233813875499997 153.251455488,-29.233611874 153.25161548799997,-29.233405876499997 153.251748448,-29.233228868499999 153.25188044800001,-29.233050861500001 153.252008448,-29.232870875 153.252131456,-29.232686874 153.25224544,-29.232497841 153.252322464,-29.232358850500002 153.25239545599999,-29.232216844499998 153.25246646400001,-29.232072859 153.25253244800001,-29.231927856 153.252594464,-29.231780855 153.25480640000001,-29.2268858475 153.25851625600001,-29.219492840499999 153.25861827200001,-29.219269823 153.25872524799999,-29.219047823 153.258835264,-29.218828838500002 153.25894822399999,-29.218611833499999 153.25906624,-29.218395827499997 153.259115232,-29.218307823 153.25916521600001,-29.218219837 153.259216224,-29.2181328315 153.25926723200001,-29.218045826 153.259319232,-29.217959838 153.25935321599999,-29.217902839500002 153.25938822399999,-29.21784684 153.25942323199999,-29.217789823 153.25945824,-29.217733823500001 153.25949424000001,-29.217677824 153.267562016,-29.204526821500004 153.26759801599999,-29.204468805499999 153.27042592,-29.199858809 153.271496896,-29.198113815 153.27582476800001,-29.191058803 153.27585379199999,-29.191010795500002 153.27600179199999,-29.190751795500002 153.276143776,-29.190489798499996 153.27619177599999,-29.190396799 153.27627974399999,-29.190223787 153.27640976000001,-29.189954797 153.27653376000001,-29.189683790499998 153.27660073600001,-29.189528797499996 153.27666675200001,-29.189371788 153.27672976,-29.189214797 153.27679075200001,-29.189056788499997 153.27684976,-29.188897799499998 153.27690473599998,-29.18874079 153.27695776,-29.1885828 153.277007744,-29.188424791500001 153.27705574399999,-29.188264803500001 153.27710073599999,-29.188105796 153.27714771199999,-29.187927789 153.277189728,-29.187749800500001 153.27722972800001,-29.187570794500001 153.277265728,-29.1873907895 153.27729872,-29.187210803 153.277391712,-29.186708787 153.27962457599997,-29.174588789500003 153.27966259199999,-29.174299801 153.2797176,-29.174010794 153.27979059200001,-29.173723803499996 153.27987955200001,-29.173442788500001 153.279983552,-29.173170801499996 153.28005756799999,-29.173004801 153.28013756799996,-29.172840798500001 153.280223552,-29.172679793 153.28031555199999,-29.172521803 153.28041056000001,-29.172366791499996 153.280569568,-29.172133802499996 153.280741568,-29.171906789 153.28092454399996,-29.171688803499997 153.28111852800001,-29.171481788500003 153.28132051199998,-29.171284800500004 153.2867904,-29.165394770499997 153.28785436800001,-29.164248769500006 153.29186726399999,-29.1599267625 153.29342224000001,-29.158252734499996 153.293588992,-29.15807112 153.29371523200001,-29.157934738 153.29386723199997,-29.157778746 153.29402022400001,-29.157625732500001 153.29417622399998,-29.157475734499997 153.29429622399999,-29.157364734499996 153.294417216,-29.157254733499997 153.294540192,-29.157146730500003 153.2946632,-29.157039745 153.2947872,-29.15693374 153.29497520000001,-29.156776730500003 153.29537641600001,-29.156455071 153.29554921600001,-29.1563167465 153.295744192,-29.1561677475 153.29927312000001,-29.153516716 153.299680096,-29.153209727 153.29975411199999,-29.153154726499999 153.298320128,-29.152941717499999 153.29758,-29.152831994 153.29449817599999,-29.152375765499997 153.29434217599999,-29.152347756499999 153.29415916799996,-29.152301765500003 153.29408816,-29.152296752 153.29401616000001,-29.152299749 153.29387216000001,-29.152312754500002 153.2938,-29.152315992 153.29365820800001,-29.1523107565 153.293374016,-29.1522870025 153.293233216,-29.152267762499996 153.293094016,-29.152244008499999 153.29297299199999,-29.152215999500001 153.29261321600001,-29.152108755 153.292492,-29.152080006 153.2923472,-29.152053754500002 153.29212620800001,-29.152023766 153.28860425600001,-29.151493778 153.28835328,-29.1514267895 153.28824697600001,-29.151407438499998 153.288116992,-29.151390992 153.28797526400001,-29.151355786499998 153.28792726399996,-29.151339802500001 153.28788425599998,-29.151318786499999 153.28785203199999,-29.151289982 153.28783475200001,-29.151261899 153.28781328,-29.151194799500001 153.28778425600001,-29.151028799 153.28777827199997,-29.150931803500001 153.28778227199996,-29.150811794 153.28779728,-29.15070479 153.28782825600001,-29.15029779 153.27790307199996,-29.148755315500001 153.277710496,-29.148715614500002 153.27761868799999,-29.148689437 153.27750140800001,-29.148650846 153.27807801599999,-29.145559995499998 153.27808537600001,-29.145422855 153.27809536000001,-29.145339845499997 153.278093152,-29.145305158 153.27808163199998,-29.145278166499999 153.278055712,-29.1452625895 153.27802403199999,-29.145253672500001 153.27791820799999,-29.145238650500001 153.27777136,-29.14520585 153.27762371200001,-29.145175917 153.27717936,-29.145091853 153.2767384,-29.145021849 153.27659232,-29.144995468 153.27644761600001,-29.144963518500003 153.276320992,-29.144944001 153.27628438400001,-29.144931846499997 153.27625798400001,-29.144912995 153.2762464,-29.144895845500002 153.276230016,-29.1448569955 153.2762184,-29.144814852500001 153.276211808,-29.14477776 153.2762104,-29.144738854500002 153.27622201599999,-29.144568007 153.27624438399999,-29.1444128475 153.27720032,-29.139543869499999 153.25782588799999,-29.136712944 153.25786944000001,-29.136599002500006 153.25788457600001,-29.136564185499999 153.257889632,-29.136543965 153.257899616,-29.136504967 153.25790761600001,-29.136449966500003 153.257912576,-29.1363789635 153.2578896,-29.135412967500002 153.257822592,-29.135028963 153.2577896,-29.134959958 153.256527584,-29.131444958 153.25647558399999,-29.131352957500003 153.25642057600001,-29.131262955 153.25636057599999,-29.131175968 153.25629760000001,-29.131091959499997 153.25623059200001,-29.131010966499996 153.25618259199999,-29.130956965 153.25608057599996,-29.130855955 153.25592259199999,-29.130715965500002 153.2557056,-29.130553961 153.254932,-29.130065006 153.25469961600001,-29.129936986 153.254454624,-29.129827984 153.254252,-29.129749007499996 153.25409260799998,-29.129692971 153.25393161599999,-29.129641985 153.25320163200001,-29.129385982 153.25113299200001,-29.128661004 153.24935472000001,-29.1280377575 153.24397276799999,-29.12616602 153.24307276799999,-29.125854017499996 153.2429728,-29.125817017500001 153.242874016,-29.125778001 153.242775808,-29.125735025500003 153.2425848,-29.125639029 153.24230281600001,-29.125466035500001 153.242034816,-29.125289027500003 153.24190780800001,-29.125195029 153.24174681599999,-29.125057037499996 153.24166982399998,-29.124983037500002 153.241595808,-29.124906040499997 153.24152480000001,-29.124827027 153.239912,-29.123072006 153.239356832,-29.122468036500003 153.23685184000001,-29.119690058 153.236752,-29.119559004 153.236644832,-29.119431058 153.23653884800001,-29.11931806 153.23643488,-29.11921705 153.236327872,-29.119119055500001 153.23620787199999,-29.119023059 153.23617088,-29.118989056 153.236137888,-29.118952056 153.23611500800001,-29.118918996499996 153.23603888,-29.118769054 153.23600201599999,-29.118714997 153.235835872,-29.118506058 153.23565888,-29.1182720515 153.235472864,-29.118045056500002 153.235147872,-29.117676055500002 153.23499788800001,-29.117492054500001 153.23488601599999,-29.117384995 153.234844,-29.117357004499997 153.23470700799996,-29.117285002500001 153.234664,-29.117258991500002 153.23460700800001,-29.117216996499998 153.23455388799999,-29.117172078500005 153.234448864,-29.117076063500001 153.23439587199996,-29.1170300725 153.23431088000001,-29.116961067499997 153.23376889599999,-29.116539637499997 153.23372137600001,-29.116498234499996 153.23368860799999,-29.116466636499997 153.23362486400001,-29.1164010725 153.23353187199996,-29.116291071500001 153.23319686400001,-29.115805076500003 153.23297987199999,-29.115528076 153.232927872,-29.115456074 153.23283686400001,-29.115325075499996 153.23275286399999,-29.115189063500001 153.23271888,-29.115119078 153.23264588800001,-29.11489508 153.23260688,-29.114805077500002 153.23250288,-29.114601078 153.23238086399999,-29.114393064 153.232343872,-29.114323078499996 153.232308864,-29.114245064 153.23221388799999,-29.114006081 153.23214288,-29.113853067500003 153.23198288,-29.113561063500001 153.23180787199996,-29.113278069 153.23170988800001,-29.113101079499998 153.231695008,-29.113068001500004 153.23150288,-29.1126680685 153.23125488,-29.112188067499996 153.23113388799999,-29.111942073 153.231015872,-29.111691065 153.230905888,-29.111437078499996 153.23083488,-29.111255075500004 153.23073488,-29.110979074 153.23059088,-29.110614069 153.23054988800001,-29.110491099500006 153.23051788800001,-29.110366095 153.230499872,-29.110261089 153.23048988799999,-29.110155084 153.23043587199999,-29.10933509 153.230352864,-29.108402098 153.230327872,-29.108166093500003 153.23029286400001,-29.1079110895 153.230248832,-29.107656085499997 153.23022185599999,-29.107530082 153.23015683200001,-29.107285086499996 153.23007984,-29.107043088 153.22994384,-29.1066800995 153.22989283199999,-29.106559091 153.22983683199999,-29.106442097 153.22977484800001,-29.106328081499999 153.22969984,-29.106209089499998 153.229617856,-29.106094093500001 153.229530848,-29.105982094499996 153.229438848,-29.1058750905 153.22934201599998,-29.105773007500002 153.229281856,-29.105717082 153.229216,-29.1056650045 153.229089888,-29.105558093 153.22903488,-29.105498097499996 153.22900288,-29.105454086 153.22889088,-29.105264091 153.22866387199997,-29.104916087499998 153.22851488,-29.104677086 153.228425888,-29.104524091 153.22838588799996,-29.104445096 153.22832086400001,-29.104291083500001 153.228168864,-29.103895091 153.22810387199999,-29.1036840985 153.22801683199998,-29.103362087499999 153.227830848,-29.1027021 153.227784832,-29.102562110499999 153.22771283200001,-29.102380107499997 153.22759984000001,-29.102113115499996 153.22750985600001,-29.101931112500001 153.22739884800001,-29.101741117499998 153.22735984,-29.101688115 153.22723385599997,-29.101532104500002 153.227165856,-29.101431113 153.227085856,-29.101283113 153.227052,-29.101197513500001 153.22703084799997,-29.101127102500001 153.226996832,-29.100991109 153.22697084800001,-29.1008631075 153.22695228800001,-29.100733922 153.226938848,-29.100601110500001 153.22693484800001,-29.100468114 153.226938848,-29.100402106 153.22695283199999,-29.100304111500002 153.22697584,-29.100205118 153.227006848,-29.100108104 153.22708083200001,-29.099920107 153.227141856,-29.0997881095 153.22721084799997,-29.099661107 153.22729184,-29.099536102500004 153.22733584,-29.099474109 153.22743283200001,-29.099357115 153.22750483199997,-29.099279100500002 153.22737283199999,-29.099352101499996 153.22730384,-29.099388102500001 153.227232832,-29.099420107499999 153.226848832,-29.099575100500001 153.22659683200001,-29.0996691175 153.22648483200001,-29.0997051 153.22625785599999,-29.099771108 153.225939872,-29.099851102 153.225579872,-29.0999271 153.22520486400001,-29.099995106 153.22507888000001,-29.1000121075 153.22495286399999,-29.100026112 153.224712,-29.100040061 153.22462486399999,-29.100045111500002 153.22440489600001,-29.100044131 153.22425392,-29.100037119500001 153.22410291200001,-29.1000241325 153.22395289599999,-29.100005133 153.223802912,-29.099982119 153.22365392,-29.099953129500001 153.21735289599999,-29.098127882500002 153.21727548799998,-29.098116098 153.217198432,-29.098098726499998 153.21712300799999,-29.098076138 153.2170512,-29.098048406500002 153.21699072000001,-29.098018344 153.216876,-29.09794316 153.21669001599997,-29.097815158499998 153.21647267200001,-29.097660683500003 153.216396992,-29.097614008 153.21624192,-29.097527853499997 153.216162016,-29.09748843 153.21608099199997,-29.09745217 153.21599900800001,-29.097419166 153.215881024,-29.097380168 153.21576096000001,-29.097346942 153.215638208,-29.097320487 153.21551472,-29.097300877 153.21539104,-29.097288167499997 153.21161209600001,-29.097029186 153.20880112,-29.097512202499999 153.197481952,-29.099458976 153.19735500799999,-29.099486004500001 153.19727299199999,-29.099510998 153.197115008,-29.099587995 153.19701932800001,-29.099654243499998 153.19661033599999,-29.100000230500005 153.19529334399999,-29.101117242 153.19468,-29.101668005499999 153.19029843199999,-29.105603251500003 153.18383052799999,-29.111414268 153.18352656,-29.112299271 153.18328054400001,-29.113015276499997 153.18325401599998,-29.113093994 153.183524576,-29.116725266500001 153.18255958399999,-29.118593267 153.18095865599997,-29.121695291499996 153.180856,-29.121930001 153.18082963200001,-29.121999302 153.18079798400001,-29.122102994500004 153.180776,-29.122209998499997 153.18077100799999,-29.122263001 153.18077401599999,-29.122367008 153.180791648,-29.122470293499997 153.18080499199999,-29.122521002 153.18093964799996,-29.123150298 153.18096864,-29.123255285500001 153.181003648,-29.123411296 153.18102864,-29.123561294 153.181038016,-29.123745998 153.181038656,-29.123965297 153.18103363199998,-29.124047289 153.18102265600001,-29.124128300500001 153.18098864000001,-29.124274302500005 153.180939008,-29.124415994 153.18090963200001,-29.124483297 153.18086963199997,-29.124562292 153.18082368,-29.12463829 153.18077267199999,-29.12471229 153.18071868799998,-29.124783293 153.18065968,-29.124849301 153.176817728,-29.129628295 153.17675875200001,-29.129725290500001 153.176729728,-29.129788301499996 153.176706752,-29.12985529 153.17668774399999,-29.129924295 153.17665875200001,-29.130062286499999 153.176638752,-29.130185293 153.176625728,-29.1303112965 153.17662172799999,-29.1304373 153.176624992,-29.130564006500002 153.17663574400001,-29.130687290500003 153.17669372799998,-29.131765285499998 153.17679478400001,-29.133700293 153.17679577600001,-29.133922293 153.17679078399999,-29.134084297499999 153.17677376,-29.134296289 153.17675401599999,-29.134455000499997 153.17672278399996,-29.134627291 153.17670176,-29.134722288500001 153.17665478399999,-29.134910285500006 153.17662678400001,-29.135002286 153.17555379199996,-29.139443285 153.17487980799999,-29.142232289499997 153.17416179200001,-29.142200303 153.17395980800001,-29.141651315500003 153.17338284799999,-29.140798317499996 153.17277683200001,-29.140223319 153.17213184,-29.14012131 153.17145683199999,-29.140264315 153.17080284799999,-29.140273306 153.17034083199999,-29.14022232 153.17007088,-29.140027311499999 153.16988886399997,-29.139757304 153.16979385600001,-29.139325310499999 153.169707872,-29.139151318 153.169572864,-29.139063313499999 153.16917888,-29.138839315500004 153.16873587200001,-29.138682324500003 153.16818185599999,-29.138475328 153.16771488000001,-29.138403326 153.16702691200001,-29.138385325500003 153.166612896,-29.138542335 153.166468896,-29.138719324500002 153.16630291199999,-29.1389803225 153.16566192,-29.1393383345 153.16518592,-29.139477325 153.164858944,-29.139473329 153.16459392,-29.139219324 153.16432393599999,-29.139004335500001 153.16394393600001,-29.138978343 153.16344796800001,-29.138948354500002 153.16275996799999,-29.138889358 153.16209897600001,-29.138855355 153.16121798399999,-29.138732348499996 153.160688,-29.138656350499996 153.16006198400001,-29.138520357 153.15972099199999,-29.138229352 153.159428,-29.137738343500001 153.15917398400001,-29.1372353655 153.15902,-29.136864366499996 153.15896700799996,-29.136585368 153.15901100799999,-29.136374375500001 153.15924700799999,-29.136281376 153.159415008,-29.136205359499996 153.15947798400001,-29.135923364 153.15945398400001,-29.135737365 153.159243008,-29.135357375 153.15892099199996,-29.134900369500002 153.158608,-29.134575361499998 153.15832899200001,-29.134402368 153.15810300800001,-29.134224361 153.15800198399998,-29.134049369499998 153.157983008,-29.133678370499997 153.15800198399998,-29.133332365 153.157984,-29.132909362500001 153.15795500799999,-29.132656375 153.157984,-29.132234371500001 153.15774608000001,-29.130859063 153.15801398399998,-29.130596363 153.15813398399999,-29.130474374 153.158284,-29.130336993 153.158421984,-29.130221368 153.158564,-29.130111367 153.16200892800001,-29.127552354500004 153.162259904,-29.127366355500005 153.16239299200001,-29.127258001 153.162476,-29.127179006 153.16260099199999,-29.127035002 153.16263388799999,-29.127001350499999 153.16268,-29.126962001 153.16283001599999,-29.126855996 153.16288300799999,-29.126825008500003 153.162959008,-29.126785992 153.163039008,-29.126753006499996 153.16307900800001,-29.126740001 153.16313990399999,-29.126727347 153.163201888,-29.126721353 153.16346099200001,-29.1267190035 153.163663904,-29.126727347 153.16390300800001,-29.126722000499999 153.16395491200001,-29.126712343499996 153.164,-29.126692992500001 153.164028,-29.126670996 153.16405385600001,-29.126644356 153.16409699199997,-29.126582991500001 153.16411100799999,-29.126550006 153.165034848,-29.123540352 153.16510883199996,-29.123252344 153.16673676799999,-29.11840934 153.16735475199999,-29.116570329 153.16739372800001,-29.116375339 153.167410752,-29.11631033 153.167473728,-29.11611534 153.167498752,-29.116005339 153.167522752,-29.115825334 153.16753072,-29.113866332 153.16736,-29.1103990065 153.16733267199996,-29.109848335500001 153.167326688,-29.109671327499996 153.16733068799999,-29.109495337 153.167338688,-29.109398323 153.16735168,-29.109302326500003 153.16745468799999,-29.108620324 153.16747366399997,-29.10842933 153.167484672,-29.108246328 153.167485664,-29.108154327499996 153.16748166400001,-29.10797534 153.16746966399998,-29.107802328 153.16745667199999,-29.10771634 153.167437664,-29.107633330499997 153.16741366400001,-29.107555334500002 153.16738368,-29.107478337500002 153.167348672,-29.107403338499996 153.16731068799999,-29.107330337500002 153.16726768000001,-29.107260333500001 153.16665968,-29.106042330499999 153.16677664,-29.105661323 153.16803161600001,-29.101576338 153.17041654400001,-29.09992932 153.17061955200001,-29.098737309499999 153.171261504,-29.094961311500001 153.172322528,-29.093768320500001 153.172745472,-29.093326318500001 153.173168992,-29.092811001 153.17350048,-29.0924373195 153.17368547199999,-29.092277313 153.17380048000001,-29.092162317 153.17389948799999,-29.092050318 153.17402547200001,-29.0918923095 153.17411248,-29.091766306 153.17418048,-29.09164132 153.174299488,-29.091373310499996 153.17441849599999,-29.091084303499997 153.17478745599999,-29.090334295 153.17495945600001,-29.089960299 153.17503644799999,-29.089781293 153.17512201599996,-29.089572002500002 153.17530144,-29.089089300499996 153.17540944000001,-29.088788287 153.17548992,-29.088590762500001 153.175559456,-29.088448294 153.17574201599999,-29.088111002 153.175796,-29.0880289915 153.175844,-29.087972992 153.175870016,-29.087946000500001 153.17589744,-29.087920285500001 153.17592544,-29.08789729 153.17598201600001,-29.087860993 153.17604323200001,-29.087831874 153.17687145599999,-29.087523294 153.17743340800001,-29.087299296 153.177575424,-29.087247292499999 153.177732416,-29.087198286 153.17820841599999,-29.087067287500002 153.17836441599999,-29.087017300499998 153.17847043200001,-29.086979301499998 153.17878643199998,-29.086854297 153.178892416,-29.086816298 153.17897641600001,-29.086790287 153.17914540800001,-29.086744296 153.179228416,-29.086719302499997 153.17938243200001,-29.086659288500002 153.179454432,-29.086627302 153.17959443199999,-29.086556299 153.179747424,-29.086464298500001 153.18020438400001,-29.0861273025 153.18047139199999,-29.085921286500003 153.18061699200001,-29.085800999499998 153.18075638400001,-29.085685300499996 153.18082137600001,-29.085627303 153.181051392,-29.085409299 153.181195008,-29.085278004500005 153.1812784,-29.0852092955 153.18133001599998,-29.085177993499997 153.18149500800001,-29.085094003499997 153.18159299199999,-29.085021002499996 153.18163900799999,-29.084979007499999 153.18168201599997,-29.084933997 153.18176,-29.084837001500002 153.18523132799999,-29.081572269499997 153.19089225600001,-29.079600262 153.191720256,-29.079513256499997 153.19314921599999,-29.079317249 153.19323523200001,-29.079297250500002 153.19327699199999,-29.079284004499996 153.19331801600001,-29.079267003 153.19335824000001,-29.079248262500002 153.19339222400001,-29.079229263 153.19342521600001,-29.079207248 153.19345824000001,-29.079183253500002 153.19357500800001,-29.079085 153.193626016,-29.079032996500001 153.19377500799999,-29.078869993 153.19401024000001,-29.078627254500002 153.19412224000001,-29.078505265500002 153.19433401599997,-29.078262009 153.19455222400001,-29.077990244 153.19465401599999,-29.077870993 153.19479420799999,-29.077715241500002 153.19495001600001,-29.077556992499996 153.1949792,-29.077533238499999 153.19504419200001,-29.077493241500001 153.195276,-29.077377006 153.19546819199996,-29.077286245 153.195608,-29.0772100065 153.1956552,-29.0771912475 153.19570198400001,-29.077182996499999 153.19573020799999,-29.077183237 153.19578518399999,-29.077192246499997 153.19587920000001,-29.077216241 153.19613100800001,-29.077307002 153.19627699200001,-29.077347998 153.19634099199996,-29.077358006499999 153.196406016,-29.077363001499997 153.19660300800001,-29.077370993499997 153.1970752,-29.077415245499999 153.19718419200001,-29.077433246 153.197276,-29.077454003 153.197364,-29.077482992500002 153.19740620799999,-29.077501233500001 153.1974512,-29.077528243500002 153.197493184,-29.077558232 153.197572192,-29.077630234 153.19764019199999,-29.077702236 153.197699008,-29.077777993499996 153.19775299200001,-29.077857007 153.197828,-29.077993000500001 153.1978512,-29.0780222305 153.19788118400001,-29.0780492405 153.1979152,-29.078073235 153.19798918399999,-29.078111234 153.19802720000001,-29.0781252385 153.198110208,-29.07814224 153.19815401599996,-29.078145995499998 153.19819616000001,-29.078144238 153.19823699199998,-29.078137004499997 153.19827116799999,-29.078122241500001 153.19836816,-29.078056233499996 153.198523008,-29.077961994499997 153.19939100799999,-29.073271005 153.19980108799996,-29.071052226 153.1998,-29.071008991499998 153.199794016,-29.070964998500003 153.19978211200001,-29.070921227500001 153.199768,-29.070878992 153.19974809600001,-29.070840216 153.19972310399999,-29.070803216 153.19969209600001,-29.070770212 153.19965708800001,-29.070739243 153.19958508799999,-29.0706802465 153.199544992,-29.070649999 153.19946112,-29.070596238 153.199420992,-29.070568007 153.19938300800001,-29.070537001 153.19931612799999,-29.070468236499998 153.19928512000001,-29.0704322355 153.19925712,-29.070393237499999 153.199218016,-29.070328006500002 153.19918300800001,-29.070244997 153.198544,-29.068498005 153.19853811199999,-29.068457231 153.19854310400001,-29.068394238500002 153.19856099200001,-29.068349006 153.198608,-29.068268993499998 153.19866710400001,-29.06819923 153.19938310399999,-29.067253232499997 153.19983705599998,-29.066043221499999 153.20154499200001,-29.063094007 153.201710048,-29.062809218 153.20576099199999,-29.058815993 153.20778691199999,-29.057374195499996 153.20825401600001,-29.056472006 153.20883388799999,-29.055350184499996 153.2099608,-29.0508781795 153.21109078399999,-29.046989183500003 153.22211657599996,-29.0451551305 153.22270556800001,-29.045062131 153.22281856000001,-29.045054120499998 153.22301654399999,-29.045056118499996 153.22325756800001,-29.045050124500001 153.22675449600001,-29.045091102 153.226871488,-29.045108103500002 153.22709900800001,-29.045110009 153.22735148800001,-29.045132116499996 153.227655008,-29.045164991 153.228098464,-29.045221101500001 153.23807430400001,-29.046491052500002 153.23815331199998,-29.046507055 153.238236,-29.0465109955 153.23831900799999,-29.046502004500006 153.23836201599997,-29.046491996 153.238404,-29.046477991500002 153.23848531199999,-29.046445061500002 153.23852201599999,-29.046425007500002 153.23866099200001,-29.046329991500002 153.238741312,-29.046279061 153.2441752,-29.042879038500001 153.244304,-29.042803003499998 153.24443718399999,-29.042736033500002 153.24449817600001,-29.04271104 153.244570176,-29.042689043500005 153.24464499199999,-29.042673004 153.24468016,-29.0426650305 153.24479500800001,-29.042648991 153.24491001600001,-29.042641998 153.244968,-29.042641998 153.247146144,-29.042449043 153.24728812800001,-29.042420016499999 153.24742899200001,-29.042383997 153.2476,-29.042330994499999 153.247650144,-29.042314011499997 153.24774601600001,-29.042270999 153.247784096,-29.042247023 153.24782112,-29.042222011 153.24785712,-29.042194020500002 153.24792112,-29.042132008500001 153.24795299199999,-29.042091993 153.24798,-29.042048 153.24802499200001,-29.041952003499997 153.24806211200001,-29.041858023499998 153.248090112,-29.041764025 153.248110016,-29.041667991500002 153.24870508800001,-29.03930001 153.249505056,-29.034719021500006 153.25073699199999,-29.027766 153.250916,-29.026799005 153.25096998399999,-29.026509998 153.25112198400001,-29.025998991 153.25126694399998,-29.025511997 153.25132496,-29.025398999 153.251394944,-29.025281006 153.25147296,-29.025162994500004 153.25171193599999,-29.0253149905 153.25203696,-29.025729002 153.252215936,-29.026150006499996 153.25233795199998,-29.026671003500002 153.25241094399999,-29.027091989500001 153.25255696,-29.0275339915 153.25266096,-29.027723006 153.253038944,-29.028193997499997 153.253489952,-29.028532991500001 153.25398092799998,-29.028710998499999 153.254500928,-29.028800002 153.25506592,-29.028866990499999 153.25574492800001,-29.028913 153.25678089600001,-29.028841978499997 153.25765388799999,-29.028705985 153.25825484800001,-29.028255972500002 153.25908784000001,-29.027296988 153.25943283199999,-29.026989980500002 153.259798816,-29.026975976 153.26051382399999,-29.027118981 153.26117977600001,-29.027210981500001 153.26182979199999,-29.027446967499998 153.2622448,-29.027667968499998 153.262658784,-29.028016952499996 153.26282979199999,-29.028294952 153.26294377599999,-29.028594966499998 153.262959776,-29.029029957 153.26282979199999,-29.029307956499999 153.26261878400001,-29.0296369605 153.26244777599999,-29.029971958499999 153.26239078399999,-29.030356962 153.26249680000001,-29.030734954 153.262691776,-29.0310779625 153.26302480000001,-29.0316049535 153.2635368,-29.031276967 153.26433280000001,-29.030948962 153.26501574400001,-29.030791952500003 153.26574976000001,-29.030541943500001 153.266367712,-29.030099941500001 153.26704172800001,-29.029471940500002 153.26775670399999,-29.0286229385 153.26871568,-29.027045943 153.269247648,-29.026299930500002 153.26975267200001,-29.025725931 153.27035564799996,-29.025336931499996 153.27099664,-29.025239917500002 153.271747616,-29.02529292 153.27231363199999,-29.025411912 153.27280659199999,-29.025714905 153.27363158399999,-29.026244911500005 153.27449459199997,-29.026633911 153.27520860800001,-29.026860906 153.276452576,-29.027130895 153.27743756800001,-29.0274448955 153.27809052800001,-29.027768886 153.27843552,-29.028081887500001 153.278780544,-29.028590878 153.27899052800001,-29.029001892500006 153.27902752,-29.0295638855 153.278916544,-29.030061887 153.27871955200001,-29.030591893500006 153.27804256,-29.031791896 153.27767260799996,-29.032570894 153.27766060799999,-29.0333758845 153.27865356800001,-29.033880879 153.278634592,-29.0350458795 153.278952608,-29.035965884499998 153.27964560000001,-29.036884890500001 153.28073056,-29.037528894 153.28292057599998,-29.03893889 153.28665750399998,-29.041703863 153.29096147199999,-29.045428856499999 153.29347043199999,-29.047343828500001 153.29675641599997,-29.049619809500001 153.29887136,-29.050814798499999 153.30005036799997,-29.051412792500003 153.301492352,-29.052377771 153.30310233599999,-29.053741776 153.30494931199999,-29.055511763499997 153.30556729599999,-29.056323765499997 153.305923296,-29.057196762 153.306241312,-29.058269762 153.30616732799996,-29.059219755500003 153.30581132799998,-29.060032756499997 153.30599932800001,-29.060476756499998 153.30693532800001,-29.060675742500003 153.30800230400001,-29.060430747 153.30916227200001,-29.059755737499998 153.310247264,-29.058805725499997 153.31172620800001,-29.056950712 153.31307222399997,-29.055417728 153.31468115199999,-29.052458708500001 153.316523072,-29.048314708500005 153.317701056,-29.045356706500002 153.31850505599999,-29.043593675 153.319366016,-29.042290683 153.32110598400001,-29.041124683500001 153.32308896000001,-29.040082671 153.32511788799999,-29.03949167 153.327007904,-29.039138653 153.32878585599997,-29.03924562 153.33065782400001,-29.039796624 153.332023808,-29.040608607500001 153.3331848,-29.041880612 153.3343648,-29.043703602 153.33483379200001,-29.044699586500002 153.335467808,-29.046817596 153.33560083200001,-29.049331598 153.335470816,-29.051032599 153.33520883200001,-29.052534595499999 153.33438585600001,-29.053531597499997 153.33316988799999,-29.054282586499998 153.33184092799999,-29.054697615499997 153.33079292799999,-29.054988602 153.32993196800001,-29.055647609 153.329295968,-29.056460628499998 153.328624,-29.057783619 153.328156,-29.059362631 153.32826899200001,-29.060511629 153.328944,-29.062029609499998 153.33046099199998,-29.06515561 153.331862976,-29.067188593499999 153.33251097600001,-29.067843586 153.334212992,-29.069683577500001 153.335530944,-29.0705745745 153.33605196799999,-29.07081957 153.33630195200001,-29.069501574500002 153.33639993599999,-29.068989568499997 153.336428928,-29.068840569499997 153.33649292800001,-29.068503573499999 153.33773884799999,-29.061969577 153.33795587200001,-29.060836581500002 153.340345824,-29.0611995515 153.34216278400001,-29.061474535499997 153.34298380799999,-29.061598541 153.342248832,-29.065571527 153.34224083199999,-29.065618535499997 153.34180585600001,-29.067877533500003 153.34165385599999,-29.068688536500005 153.34175587199999,-29.068678528 153.341866848,-29.068668538 153.34193785599999,-29.068665541 153.342608864,-29.068649538499997 153.34360704,-29.068640825 153.34418233599999,-29.068459747 153.345053888,-29.068185429 153.34575580800001,-29.067952514 153.346561568,-29.067620124499996 153.34660876800001,-29.067600514499997 153.34788176000001,-29.066904507499999 153.348276736,-29.06690349 153.348525728,-29.066904507499999 153.34842976,-29.067460506499998 153.348200768,-29.068779501 153.348199776,-29.068783497 153.34967872000001,-29.067727498499998 153.35217971200001,-29.065293453499997 153.35424179200001,-29.064036415500002 153.35527027200001,-29.064052566 153.35756064,-29.064087457 153.363206496,-29.0638114 153.36439548800001,-29.063674407500002 153.36665443199996,-29.063263393 153.36948038400001,-29.062513366 153.371332352,-29.061932373499996 153.37349532799999,-29.061140351500001 153.37534329600001,-29.060326333 153.37716624000001,-29.059390325499997 153.37784121600001,-29.058890326 153.37866921599999,-29.058178316500001 153.37934918400001,-29.057358322499997 153.38036819199999,-29.055962312499997 153.381545152,-29.054337309499996 153.38244512,-29.052016318 153.382668096,-29.049306308499997 153.38239008,-29.047172315 153.38178707200001,-29.044852341 153.380857056,-29.043046334 153.37982809600001,-29.041548352 153.37785408,-29.039304357500004 153.376273088,-29.03721136 153.37559408000001,-29.034994375500002 153.375217088,-29.03316837 153.37506508800001,-29.031300369499998 153.37518905600001,-29.030027366 153.375485056,-29.027227372500001 153.37661104,-29.024475349500001 153.378063008,-29.02279135 153.38044192000001,-29.021024341 153.38344688,-29.018927310499997 153.38649379200001,-29.016700299 153.38992374399996,-29.013310285 153.39235168,-29.010311268500001 153.39402764799999,-29.008092249 153.39600060800001,-29.003835251 153.39790153600001,-29.001041251500006 153.399929504,-28.998986234500002 153.40205849599997,-28.998389239499996 153.403787456,-28.998449216499996 153.40521545600001,-28.998900228 153.40574345600001,-29.000151216500001 153.40647241600001,-29.001875194500002 153.40769641599999,-29.00531921 153.40860841599999,-29.007565184 153.40968940799999,-29.009540188500001 153.41110940799996,-29.011609191499996 153.41287542399999,-29.013510159 153.41404838400001,-29.014781146 153.415236384,-29.015808155 153.41596937599999,-29.016121138 153.41770336,-29.016861119499996 153.41941433599999,-29.017347114500001 153.42120233599999,-29.017534112499998 153.42262028799999,-29.017546100499999 153.424484256,-29.017260090499999 153.425629216,-29.016857086499996 153.42703020799999,-29.015989066500005 153.42820019199999,-29.014811079 153.42946217599999,-29.013389076499998 153.43089312,-29.012061054 153.43217011199999,-29.010909059 153.43297008,-29.009975049499999 153.43388704,-29.00864403 153.43445603200001,-29.007466042500003 153.43496201599999,-29.006071031499996 153.43529900799999,-29.004691042499999 153.43538905599999,-29.002669011 153.435849856,-29.0011010435 153.43630694399999,-29.000320935499996 153.43718694399999,-28.999465051499996 153.43814992,-28.998959039499997 153.43893091199999,-28.998505031 153.440265888,-28.99808904 153.440411872,-28.998084045 153.44194883200001,-28.998039016 153.44352784,-28.997794020499999 153.44798873600001,-28.996817979 153.45208169599999,-28.995396957 153.45572662399999,-28.994110948 153.458043584,-28.993157920499996 153.459277568,-28.992386933 153.45975856000001,-28.991923933499997 153.45991356799999,-28.991805922 153.46174787199999,-28.992720784 153.46207475200001,-28.992978008 153.46254851200001,-28.993253214 153.46366345600001,-28.9937015985 153.46397376,-28.993804921 153.46443132799999,-28.993957287 153.46508291200001,-28.994056558 153.46586016,-28.994164561 153.466458848,-28.994190202 153.46648620799999,-28.9941887775 153.467216,-28.9941539975 153.46759104,-28.9941055275 153.46802915200001,-28.993988515 153.468572032,-28.993795375 153.46905049599999,-28.993614482 153.46971036799997,-28.9932828325 153.46992096,-28.993182211 153.470513888,-28.9928986245 153.47067408000001,-28.992826974 153.470896192,-28.99272996 153.471570848,-28.99239696 153.47197369599999,-28.992232624500001 153.47221235200001,-28.992189057 153.47261664000001,-28.992115353 153.47312892799999,-28.992046403500002 153.473423392,-28.992045423 153.473761792,-28.992120847499997 153.47428633599998,-28.9922819455 153.47469097600001,-28.992419548499999 153.47478889600001,-28.992452756 153.47528352,-28.992616203500003 153.47535913600001,-28.992637071499999 153.47548691200001,-28.992672277 153.47575008000001,-28.992732124499998 153.47605033599999,-28.992751383 153.476391616,-28.992750125 153.47680704000001,-28.992732476 153.47709289599996,-28.992682803499996 153.47776140799999,-28.9925952245 153.4778352,-28.992558502 153.47787984000001,-28.992542037 153.47813472000001,-28.992447983 153.47824524800001,-28.992402991 153.47837449599999,-28.992406598500001 153.47842524800001,-28.992438807 153.47848105599999,-28.992535913499999 153.47855987199998,-28.992580295 153.47864268800001,-28.992567789 153.47879532799999,-28.992615926 153.47892457599997,-28.992615482 153.479067488,-28.992582533500006 153.47917801599999,-28.992534304 153.47924208000001,-28.9925142315 153.47945593599999,-28.992460766499999 153.47961827200001,-28.992347287499996 153.47979721600001,-28.992203635 153.480027968,-28.99206729 153.48009923199999,-28.992016174500005 153.480207232,-28.991938678 153.48036096000001,-28.991825273 153.48047219200001,-28.991779652 153.48065184000001,-28.991756434500001 153.48083184000001,-28.991748331500002 153.48108816000001,-28.991679659499997 153.481182112,-28.991619090500002 153.48134448,-28.991505593 153.48148992,-28.991444857499996 153.48163536,-28.991414258499997 153.481729312,-28.991361237499998 153.481976992,-28.991249368 153.4820112,-28.991194552500001 153.48208716799999,-28.990998637500002 153.48254201599997,-28.990944007 153.48353971199998,-28.990736233500002 153.483268,-28.991103995 153.48261299199999,-28.991770994 153.481954016,-28.992631003500001 153.481412,-28.993506997 153.480424,-28.994966998499997 153.47964899199999,-28.996152996500005 153.47866,-28.997494006 153.478068,-28.998409996500001 153.477180992,-28.999593996499996 153.47642,-29.000490007 153.47575900800001,-29.001385 153.47512940799999,-29.002232799499996 153.47469340799998,-29.0028798 153.474629408,-29.002965788 153.47458038400001,-29.003066798 153.474403392,-29.003325798 153.47435440000001,-29.0034257905 153.474031424,-29.003885793 153.47395043200001,-29.003971799499997 153.473336416,-29.0047907945 153.47320742400001,-29.0049777925 153.47317443200001,-29.005078802499998 153.47304544,-29.005265800500005 153.472980992,-29.005337007 153.472513472,-29.006155798499996 153.47244844799999,-29.006227800499996 153.47220646400001,-29.006600797500003 153.47201244799999,-29.006873802 153.47168950400001,-29.007419811 153.47149648000001,-29.007778822 153.47143148800001,-29.007850805499999 153.47127001599998,-29.008137999500004 153.47112448,-29.008310808 153.47039651200001,-29.0093168195 153.47002553600001,-29.009790808 153.46984752,-29.010063812499997 153.46976652800001,-29.0101358145 153.46954051200001,-29.010509810500004 153.46934652799999,-29.010782815 153.46926553599997,-29.010868821500004 153.46907100799999,-29.011155997 153.468925568,-29.0113288055 153.46871555199999,-29.011658808500002 153.468587552,-29.0119468165 153.468441568,-29.012204817499999 153.46828054400001,-29.012448814 153.46802259200001,-29.012908835 153.46795760000001,-29.012980837 153.467634592,-29.013454825499998 153.4675696,-29.013526827499998 153.46747257600001,-29.013713825499998 153.467408576,-29.013785827499998 153.46723059199999,-29.014072836499999 153.46708457599999,-29.014244831 153.466373632,-29.015222833500001 153.46630860799999,-29.015351834 153.46624460800001,-29.015423836 153.46619561599999,-29.015523828500001 153.465921632,-29.0160408295 153.465808608,-29.016213841500001 153.46572761600001,-29.016299829499999 153.46567961599999,-29.016400839500001 153.46561465600001,-29.016471824 153.46556665599999,-29.016600824499996 153.465485664,-29.0166588405 153.46491964800001,-29.017477835499996 153.46483964800001,-29.017664833499996 153.46451664,-29.018166831 153.46435468799999,-29.018353847499998 153.46415968,-29.0185268595 153.463998688,-29.018713857499996 153.46391769599998,-29.018900855499997 153.46386969599999,-29.018972857499996 153.46383667199999,-29.01907285 153.46372368,-29.019245843500002 153.46354700800001,-29.019575994500006 153.46335369600001,-29.02003485 153.46324070399999,-29.020206844500002 153.46316070399999,-29.020379856499996 153.463144704,-29.020479849 153.46301571199999,-29.020823856500002 153.46282272,-29.021183848 153.46278972799999,-29.021269854500002 153.46253171199999,-29.021700849 153.46243472,-29.021886848 153.46230572799996,-29.02205986 153.46198374400001,-29.022690858 153.46183875200001,-29.022949858 153.461692736,-29.023150842 153.46127273599998,-29.023868845500001 153.46108,-29.024300006500003 153.46101478400001,-29.024385846499996 153.460886784,-29.024658851 153.46083779200001,-29.024730853 153.46075779200001,-29.024917851 153.460466784,-29.025419867 153.46038678400001,-29.025606865 153.46027379200001,-29.025764873499998 153.46022476799999,-29.025864866 153.460030784,-29.026123866 153.45944982399999,-29.027157868 153.4593208,-29.027430872499998 153.45927280000001,-29.027559873 153.4592088,-29.027703877 153.45916080000001,-29.027903862 153.45899980799999,-29.028248868500004 153.458838848,-29.028607861 153.45849984,-29.029124862 153.458240832,-29.029583865500001 153.45799884799999,-29.0299148675 153.45793385600001,-29.030043868 153.457869856,-29.03011587 153.45767587200001,-29.030474862499997 153.45732288,-29.031450867 153.45724288,-29.031723871500002 153.45717888,-29.031895866 153.45695286399999,-29.032354869500001 153.45683987199999,-29.032527863 153.45679088,-29.032584861500002 153.45640291199999,-29.033159897 153.45622592000001,-29.033460892 153.45612889599997,-29.033618882 153.45601689599999,-29.034006882500002 153.45591990400001,-29.034178895499998 153.45583891199996,-29.03435089 153.455645952,-29.034710881500004 153.455451936,-29.035054889 153.45537193600001,-29.035226883500005 153.45535593599999,-29.03531289 153.45514595200001,-29.035657896499998 153.455080928,-29.035743884499997 153.45503292800001,-29.035844894500002 153.45467692799997,-29.036304897 153.454595936,-29.036390885 153.454530944,-29.036477890500002 153.45444998400001,-29.036577883 153.45432096,-29.036778885499999 153.454271968,-29.036864892 153.45424096,-29.036965883500002 153.45420796799999,-29.037022882 153.45398297599996,-29.037496889 153.45388598400001,-29.037668883499997 153.45382096,-29.037755889 153.45357897599999,-29.038185884500002 153.453386016,-29.038544895499996 153.453256,-29.038717889 153.453127008,-29.03897589 153.45309500799999,-29.039076881500002 153.452966016,-29.039248894500002 153.45274,-29.039693893500001 153.45261100799999,-29.0399668795 153.45232003199999,-29.040483899 153.45229702399999,-29.040530907500003 153.45219104,-29.0407419 153.45211104,-29.040928898 153.45190102399997,-29.0413168985 153.451596,-29.042006005 153.45151504,-29.0421639025 153.45138604799999,-29.042464897499997 153.451337056,-29.0425368995 153.45104806399999,-29.043239899499998 153.450516064,-29.044388897499996 153.45024211200001,-29.044905898499998 153.45012908800001,-29.0451638995 153.45009708800001,-29.045220898 153.45008108799999,-29.0452929 153.44998409600001,-29.045450908499998 153.449775104,-29.045938901500001 153.44972611200001,-29.046024908 153.449662112,-29.046182898 153.44956508800001,-29.046369914500001 153.449549088,-29.046426913 153.44950108799998,-29.046512901 153.44937212799999,-29.046757915 153.44925913599999,-29.047001911500001 153.449179136,-29.0471879105 153.44914713599999,-29.047316911 153.44911414399999,-29.047359905 153.44911513599999,-29.047417902500001 153.449019136,-29.047790899499997 153.448986144,-29.047833912 153.44897014399999,-29.047905914 153.448874144,-29.048063904 153.448535136,-29.048737914500002 153.44851913599999,-29.048795912 153.448470144,-29.0488819 153.44813216,-29.049627931 153.44806716799997,-29.049728922499998 153.447939168,-29.049986923500001 153.447907168,-29.050101919500005 153.44785817600001,-29.050173921499997 153.447761152,-29.050388928500002 153.44772915199999,-29.050446926 153.44771315200001,-29.050517929 153.447681152,-29.050575926500002 153.44766515200001,-29.050632925 153.447601152,-29.050747921 153.447584992,-29.050819997 153.44748816000001,-29.051020925500001 153.44748819200001,-29.051092927500001 153.447456192,-29.051149926 153.44744019199996,-29.051221928 153.44740819200001,-29.0512789265 153.447392192,-29.051350928499996 153.4473272,-29.0514659245 153.4473112,-29.051536927500003 153.4472792,-29.051594925 153.44726320000001,-29.051665928 153.4472312,-29.051723925499999 153.4472152,-29.051795927500002 153.44713420799999,-29.051967922 153.44711820800001,-29.052039924 153.44703820800001,-29.052211918499996 153.44702220799999,-29.052283920500003 153.44682918399999,-29.05269993 153.44681219200001,-29.052771932 153.44678019200001,-29.052814926 153.446764992,-29.052887002 153.44666720000001,-29.053043919 153.44649024,-29.053460927500002 153.446345216,-29.053775927 153.446297216,-29.053890923 153.44589424,-29.054709918 153.44578121599997,-29.054953933 153.44573321600001,-29.055096919500002 153.445668224,-29.055211934 153.44560422399999,-29.055398932 153.44557225599999,-29.055455930500003 153.445556256,-29.055527932500002 153.445524256,-29.055584931 153.44550825600001,-29.055656933 153.44547526400001,-29.055713931500001 153.44546025599999,-29.055785933499997 153.44542726399999,-29.055843931 153.44539526400001,-29.055972931500001 153.445299264,-29.056230932499997 153.44528326400001,-29.056302916 153.44525126399998,-29.056359933 153.44523526399999,-29.056431916499999 153.44520227199999,-29.056488933500003 153.445187264,-29.056560917 153.445154272,-29.056617934 153.44513900800001,-29.056689991500001 153.444961248,-29.057062933 153.44492924799999,-29.057105927 153.444848,-29.057292999 153.44447728,-29.05795393 153.44438128,-29.058211931 153.44434928000001,-29.058354917500001 153.44426928,-29.058613917500001 153.44423699199999,-29.058728007 153.444172288,-29.058914931 153.44409228800001,-29.059086944 153.44407628799999,-29.059158946 153.44404428799999,-29.059215944499996 153.444027296,-29.0592879465 153.44399529599997,-29.059345944 153.443948,-29.059531998500006 153.44375433600001,-29.059933948 153.443738336,-29.06000595 153.44364131200001,-29.06016394 153.443545312,-29.060435945499997 153.44349632000001,-29.060478939500001 153.44339932799997,-29.060694945499996 153.44338332800001,-29.060765948499999 153.443254336,-29.061010944 153.44319033599999,-29.061196943 153.443093312,-29.061368937499999 153.44293232000001,-29.0617279485 153.44290032000001,-29.061842944499997 153.44278700800001,-29.062015993500001 153.44267500800001,-29.062317007 153.44257936,-29.062689948500001 153.44257936,-29.0627609515 153.44246736,-29.063191946 153.44238736,-29.0633639405 153.442354368,-29.063406934500005 153.44232236799999,-29.063507944499996 153.44211235200001,-29.063866937 153.44209635199999,-29.06393794 153.44193536,-29.064210944500005 153.44191936000001,-29.064282946499997 153.441757376,-29.0645839415 153.44169337599999,-29.064770939500001 153.44159638400001,-29.064942952500001 153.441451392,-29.065287940499999 153.441419392,-29.065430945500005 153.44138739199997,-29.065488943 153.44135539199999,-29.065560945 153.44127539199999,-29.065846936499998 153.44124339199999,-29.065904952500002 153.4411304,-29.066277949499998 153.4410824,-29.066449944 153.4410504,-29.066506942500002 153.441003008,-29.066651002 153.440970432,-29.066765942500002 153.44095443200001,-29.066836945499997 153.44092243200001,-29.066894943 153.44071340799999,-29.067525941 153.44071443199999,-29.067597943 153.44068198400001,-29.067654997 153.44061740800001,-29.067855944 153.44039241600001,-29.068386949499999 153.44037641599999,-29.068458951499998 153.44034342399999,-29.068501945499996 153.440327424,-29.068573947500003 153.440295424,-29.0686169415 153.44023142399999,-29.068788936 153.440215424,-29.068845934500001 153.440150432,-29.068960949 153.44008646399999,-29.06921895 153.44005446399999,-29.069276947499997 153.44002246400001,-29.0693489495 153.439990464,-29.069462946499996 153.43986144,-29.069835943500003 153.43986246399999,-29.069893941 153.43979744,-29.070065935500004 153.43978144,-29.070137937499997 153.43974944000001,-29.0701949545 153.43971801599997,-29.070338995500002 153.43960444800001,-29.07056797 153.43952444799999,-29.070754968 153.439508448,-29.07082697 153.43947644799999,-29.070883968500002 153.43946044800001,-29.070940967 153.439395456,-29.071055963 153.439395456,-29.071127965 153.439363456,-29.071170959 153.43929945599999,-29.071356958 153.43926745600001,-29.071471954 153.43926745600001,-29.07152997 153.43925145599999,-29.07152997 153.43917248,-29.072002959499997 153.43914048,-29.072088966 153.43912448,-29.072188958499996 153.43894748799997,-29.072648961 153.43891548799999,-29.072906962 153.43888448000001,-29.072992968499996 153.43883699200001,-29.073264992499997 153.43838752,-29.074642965 153.43832352000001,-29.074914970499997 153.43825852800001,-29.075015962 153.43825952,-29.075086965 153.43821052799998,-29.075187956500002 153.43774550399999,-29.076636969 153.43768153600001,-29.076923959499997 153.43750454400001,-29.077382963 153.437473536,-29.077554957500002 153.43739254399998,-29.077741955499999 153.43734454400001,-29.077884960499997 153.437248544,-29.078171969500001 153.43719955200001,-29.078243953 153.43720054400001,-29.078329959499996 153.436606592,-29.080065962499997 153.436606592,-29.080165955 153.436574592,-29.080237957 153.43655859200001,-29.080338967 153.43650956799999,-29.08040997 153.43647859199999,-29.080610954 153.43644659200001,-29.080782967 153.43639859199999,-29.080969965 153.43633558400001,-29.081313954 153.43623958399999,-29.081657961499996 153.436223584,-29.081757954 153.43606262399999,-29.082202953 153.43603161600001,-29.082489962 153.43601660799999,-29.082675961 153.4359216,-29.083220971 153.4358896,-29.083292954499999 153.435696608,-29.083837964500006 153.435696608,-29.083938956 153.43561561600001,-29.084095965499998 153.435584608,-29.084268959 153.43523065599999,-29.085258968 153.435134656,-29.085631965 153.43508665600001,-29.085788956 153.43500764800001,-29.086133962499996 153.43500764800001,-29.086233955 153.43497564799998,-29.086319961499996 153.434943008,-29.0864210085 153.43492764800001,-29.086592966 153.43489664000001,-29.086850967 153.43483264,-29.087022961500001 153.434720992,-29.087381991 153.43468864,-29.087667964 153.434560672,-29.088141971 153.434449664,-29.088671959 153.43441766399999,-29.088843953499996 153.43438566399999,-29.088944963500005 153.43416268799999,-29.089933955 153.43386169600001,-29.091554962 153.43386169600001,-29.091754965500005 153.43381472,-29.09192696 153.43379872,-29.092098954500003 153.43373571199999,-29.092529967500006 153.43368870399999,-29.092887961 153.433672704,-29.09307396 153.433640704,-29.093145962 153.43343574400001,-29.094407958 153.43343574400001,-29.094507969 153.433404736,-29.094665959 153.43334172799999,-29.095110958 153.43334172799999,-29.095210969 153.43330972800001,-29.095382963500001 153.43323075199999,-29.095913969 153.43323174399998,-29.095998958 153.433201728,-29.0965299635 153.43318675200001,-29.096701958 153.433122752,-29.097074955 153.43314073600001,-29.097331957 153.43311078400001,-29.097848958 153.43309577599999,-29.098034957 153.43306576000001,-29.098564963499999 153.43304976,-29.098636965500003 153.432956768,-29.099725968 153.432908768,-29.099883958 153.43290976,-29.099948967 153.43290377599999,-29.099947968 153.432551776,-29.0998959645 153.43100380800001,-29.099663956 153.43104780799996,-29.099874967 153.42980182400001,-29.099942973 153.429694848,-29.099948985500003 153.42959184,-29.099954979499998 153.42908784,-29.099981989500005 153.42894899199999,-29.099345996500002 153.427529824,-29.099136983499999 153.42474889599998,-29.099510998 153.42180128000001,-29.099219808 153.42139980799999,-29.101718880500002 153.42133100799998,-29.1022679975 153.42170496,-29.103630023 153.42271596800001,-29.104659011499997 153.422817952,-29.104777004500001 153.42412992,-29.106118994500001 153.42455993600001,-29.106566990499996 153.424507936,-29.106602991499997 153.424256,-29.106779999500002 153.424088,-29.106843991 153.423992,-29.106875996 153.42362300799999,-29.106974009 153.423364384,-29.106958173 153.422815904,-29.106983388500002 153.4211704,-29.107033838 153.42095388800001,-29.107084287499998 153.42078070399998,-29.107147335500002 153.42066521599997,-29.107223019 153.420492,-29.1073112825 153.42034768,-29.107437397 153.42027548799999,-29.107538296 153.42010467200001,-29.107755708</coordinates></LinearRing></outerBoundaryIs></Polygon>

	</Placemark>
</kml>