<?xml version="1.0" encoding="UTF-8"?>
<kml xmlns="http://www.opengis.net/kml/2.2">
	<Placemark>
		<Style>
			<LineStyle>
				<color>ff0000ff</color>
			</LineStyle>
			<PolyStyle>
				<fill>1</fill>
				<color>330000cc</color>
			</PolyStyle>
		</Style>
			<ExtendedData><SchemaData>
		<SimpleData name="STATE_2006">1</SimpleData>
		<SimpleData name="POA_2006">2735</SimpleData>
	</SchemaData></ExtendedData>
      <Polygon><outerBoundaryIs><LinearRing><coordinates>143.38472124800001,-35.165915687500004 143.38474540799999,-35.165676205 143.38475443199999,-35.1655762125 143.384864416,-35.165245210500004 143.38504742399999,-35.164975221500001 143.38546841600001,-35.1645241915 143.38561542400001,-35.164314198 143.38574339199999,-35.164013203 143.3857984,-35.163682201 143.385944384,-35.163427178500001 143.386237376,-35.163127182499998 143.38632937599999,-35.163066169499999 143.386585376,-35.162856176 143.38680438399999,-35.162736185 143.38739036800001,-35.162375157500001 143.38744534400001,-35.162315162 143.38744534400001,-35.16210515 143.38733536000001,-35.162045154499999 143.38631040000001,-35.161954171499993 143.385944384,-35.161954171499993 143.38554243199999,-35.162059177499998 143.38440742399996,-35.162495204 143.383492448,-35.162915209499999 143.38323644799999,-35.162975205 143.38296144,-35.162990208499998 143.38279644799999,-35.162945216499999 143.38261344,-35.162810222 143.38244944,-35.162599211 143.38237545600001,-35.162329222 143.38235744,-35.161908217499999 143.38239446399999,-35.161787209 143.38248544000001,-35.161637211 143.38270544,-35.161397210499999 143.38283344000001,-35.161292223 143.38283344000001,-35.161262216 143.383400448,-35.160841193 143.38429740800001,-35.160480184 143.38493843199998,-35.160270172 143.38532243200001,-35.160195173 143.38577939199999,-35.160195154499995 143.386201376,-35.160195154499995 143.3865664,-35.160120155499996 143.38685939199999,-35.159925147 143.386933376,-35.159790134 143.38685939199999,-35.159504142499998 143.38667638399997,-35.159204146500002 143.386383392,-35.158873144499999 143.3858344,-35.158557164500003 143.385157408,-35.158256151 143.38449843199999,-35.158001165500004 143.38294345599996,-35.157549173499994 143.382668448,-35.157369168500004 143.38243145600001,-35.157128169 143.38232144,-35.156933179 143.382229408,-35.156362176499997 143.38228441599998,-35.156061181499993 143.38241241599999,-35.155685169 143.38255942399999,-35.155340181 143.382961376,-35.154694161 143.38352934400001,-35.1540171535 143.38367536000001,-35.153867137 143.38380336,-35.153747146 143.38400435200001,-35.153461136 143.38427932799999,-35.153146136499998 143.384645312,-35.152815134500003 143.385231328,-35.152440121 143.38557830400001,-35.152274120500003 143.38649324799999,-35.1518691 143.38762825599997,-35.151358093 143.38834224,-35.151013086500001 143.38907420800001,-35.150622070499999 143.38931120000001,-35.150397073500002 143.3894392,-35.150292067500004 143.38945820800001,-35.150232072 143.389842176,-35.149691039499992 143.39020816,-35.1490600415 143.39040915199999,-35.148654040499999 143.39044614400001,-35.148549053 143.39055612799999,-35.148353045499995 143.39088512000001,-35.14784202 143.39099513599999,-35.147602038 143.39114108800001,-35.147181033500004 143.39114108800001,-35.146715037 143.391068096,-35.146460033 143.39105011199999,-35.146339024500001 143.39095811199999,-35.146084020499998 143.39086710399999,-35.145798029 143.39079411200001,-35.145513036499999 143.39072009599997,-35.145362021 143.39064707200001,-35.145107035500004 143.39048208,-35.14476103 143.39028105599999,-35.144550037500004 143.39008006399996,-35.144400021 143.38986009600001,-35.144325022 143.38898211200001,-35.144234020499994 143.388341088,-35.144114048 143.38770112,-35.143918040500004 143.38722512000001,-35.143708047 143.38684112000001,-35.143392048500004 143.38669513599996,-35.14319704 143.386420128,-35.142746047 143.38636512,-35.142430048500003 143.38636508799999,-35.141949048500003 143.38649308800001,-35.141603043 143.386621088,-35.140912049500002 143.38665808,-35.140236041 143.38671305599999,-35.140070022 143.38684105600001,-35.139469031 143.386878048,-35.138988031 143.38698704000001,-35.138492027499993 143.38709702400001,-35.138162024499991 143.38711603199999,-35.137801034 143.38704204800001,-35.137590023 143.38676803199999,-35.137320034 143.386585024,-35.137154033499996 143.38552403200001,-35.136478025 143.38462704,-35.1357860325 143.38395004799997,-35.135320054499999 143.382962048,-35.134673054 143.38248707199998,-35.13431204499999 143.382231072,-35.134042056 143.38195606400001,-35.133711054 143.38186406400001,-35.1336200525 143.38166307200001,-35.133365048500004 143.381059072,-35.132838057500003 143.380675072,-35.132598057 143.379248064,-35.131786073500002 143.37866307199997,-35.131305073500002 143.37840707199999,-35.131034067 143.37824208000001,-35.130748057 143.378187072,-35.130598059 143.378041056,-35.130297064 143.37773008,-35.12992107 143.37747408,-35.129681069499995 143.37743705599999,-35.129620075 143.37665107199999,-35.129034087500003 143.37641305599999,-35.128748077499999 143.37610208000001,-35.128297084499991 143.37606505599999,-35.12816209 143.37601107200001,-35.128057084 143.37595606400001,-35.12787608 143.37593808,-35.126869069500003 143.37582806399999,-35.126629069 143.37518710399999,-35.126102059499999 143.37507811200001,-35.125967065 143.374767104,-35.125516072 143.37465708799999,-35.125305061 143.37449308800001,-35.125110071 143.37434611200001,-35.124824061 143.37401708799999,-35.124058068499998 143.374034112,-35.123491043500003 143.37405110399999,-35.122918043 143.37399609600001,-35.122738056500005 143.37390508799999,-35.122603043499993 143.373484096,-35.122257056500004 143.373283104,-35.122167054 143.372808128,-35.1220160385 143.37171113599999,-35.121730065500003 143.371290176,-35.121504069499998 143.37090617600001,-35.121188071 143.37028515200001,-35.120677064 143.37008416,-35.120467070499998 143.36957318399999,-35.120136068499995 143.36920720000001,-35.11994006099999 143.368768192,-35.1198050665 143.368420192,-35.119849078 143.36816419199997,-35.119954084 143.36723123199999,-35.120284105499998 143.366755232,-35.120404096500003 143.366353248,-35.1204191 143.36596825599997,-35.12029811 143.36569427200001,-35.1201031015 143.365566272,-35.120042107 143.36514627199998,-35.119712104 143.36476230400001,-35.119306103 143.36465328,-35.119140102499998 143.364507296,-35.118720097 143.36443430400001,-35.118629095500005 143.36434329599999,-35.118404098500001 143.36410630399999,-35.118103103500005 143.363740288,-35.117803107500002 143.36273532799999,-35.117396126 143.36218633600001,-35.117110116 143.36196732799999,-35.116900122499999 143.36180336,-35.116644119500002 143.361785344,-35.116539113500004 143.36171235200001,-35.116389115499999 143.361694368,-35.116148116 143.36176736,-35.115998099500004 143.36182236799999,-35.115743095499994 143.36187836799999,-35.115442100500005 143.361896352,-35.115277099 143.36193331199999,-35.1152021 143.36197033600001,-35.114902104 143.36204332799997,-35.1147211 143.36211731200001,-35.114571083500003 143.36213532799999,-35.11436109 143.36208131199999,-35.114225078 143.36197132800001,-35.114105087 143.36180736,-35.11403008799999 143.36158736,-35.1137900875 143.36158736,-35.113759081499992 143.361368352,-35.113519081 143.36056435199998,-35.112842092 143.36023638399999,-35.112602091500001 143.35939539200001,-35.111880092 143.35897539199999,-35.111369085 143.35886640000001,-35.111143089 143.35881139199998,-35.110948080500002 143.35886739200001,-35.110437092 143.358904384,-35.110317082500003 143.35892240000001,-35.11022708 143.35899638399999,-35.110077082 143.3592344,-35.109671062499999 143.35928937599999,-35.109626070499999 143.359656384,-35.1090700715 143.35978438399999,-35.108770057 143.359748384,-35.108440054 143.359547392,-35.108169047499992 143.359127392,-35.107808038500004 143.35874339200001,-35.107612068 143.35850640000001,-35.107417059500001 143.358396384,-35.107207047500005 143.35837939199999,-35.10678604299999 143.358452384,-35.106350053500002 143.35847139200001,-35.105900041 143.35838038399999,-35.105689048500004 143.35828937599999,-35.105599046 143.35825337599999,-35.105524047 143.35794243199999,-35.105223052 143.357869408,-35.105163056500004 143.35770540799999,-35.1049070535 143.35770540799999,-35.104592054 143.357778432,-35.1044570225 143.35794342400001,-35.104202037 143.357980384,-35.104081028499998 143.3580544,-35.104006029499999 143.35820038400001,-35.1039310305 143.358621376,-35.10381202 143.35915139199997,-35.103782013 143.35949939199998,-35.103842008500003 143.36001136,-35.103843007500004 143.360230368,-35.103888018 143.36079734399999,-35.103889017 143.360962368,-35.103814018 143.36099936,-35.103738001499998 143.36099936,-35.103407998500003 143.360762368,-35.10303198599999 143.36331929599999,-35.102851981 143.363582304,-35.102689976500002 143.36385728,-35.102437951 143.36415430400001,-35.102194953500003 143.364528256,-35.101933955499995 143.36488025599999,-35.101672939 143.365451232,-35.101285937500002 143.36567424,-35.101103934500003 143.365776224,-35.10118694399999 143.36597123199999,-35.101335943 143.36617523199999,-35.101475932500001 143.36638624,-35.101608929 143.36660422400001,-35.1017339335 143.36682918400001,-35.101850909 143.36706118399999,-35.101958912 143.36729820799999,-35.102057924 143.36754019200001,-35.102147926500002 143.36778720000001,-35.1022289195 143.368038176,-35.102300921500003 143.36829315200001,-35.102362915 143.36855116800001,-35.102414918500003 143.36881216,-35.1024579125 143.36907516799999,-35.102490916500003 143.369340128,-35.102513893500003 143.36960512,-35.102526899 143.36987113599997,-35.102529896 143.372165056,-35.102199874500002 143.372539072,-35.102137881 143.37292307199999,-35.102129870500001 143.37327404800001,-35.102129870500001 143.37361404800001,-35.102157861 143.373998048,-35.102239871500004 143.37432700799999,-35.102339864 143.376530976,-35.103299847500004 143.37679398399999,-35.103407850499998 143.377115936,-35.103471842 143.37733292799999,-35.103494837500001 143.37755094400001,-35.103517851500001 143.37775894399999,-35.103599825 143.37807692800001,-35.10375282 143.380477888,-35.104947827499998 143.38070787199999,-35.105065820500002 143.38099286400001,-35.105255834 143.38124384,-35.105490821 143.38148483200001,-35.105698798 143.38267785599999,-35.10741482099999 143.382852832,-35.107703828 143.38319180799999,-35.108191821 143.38347580799996,-35.1085708305 143.38363980799997,-35.108859819 143.38373782400001,-35.109175817500002 143.38377081600001,-35.109473834 143.38376982400001,-35.109807833 143.383537856,-35.110348847 143.383460832,-35.110618836 143.383426848,-35.110943844 143.38344784,-35.111385846 143.38344684800001,-35.111719845 143.38346883200001,-35.111998862 143.38354483199998,-35.1122698685 143.38359884799999,-35.112504855499999 143.38388384000001,-35.112928857 143.384156832,-35.113226855 143.384441856,-35.113498860500002 143.38481481599999,-35.113724856499999 143.3851768,-35.113896869500003 143.3854728,-35.114014844 143.38573580799996,-35.1141138375 143.39357964800001,-35.115822793500001 143.393819616,-35.115886766500005 143.39405462400001,-35.115962764499997 143.394283616,-35.116048771 143.394506624,-35.116146765499998 143.394722624,-35.116253769499998 143.39492963199999,-35.116371762500002 143.39512860799999,-35.116499764 143.39531862399997,-35.116636775 143.395498592,-35.116781778 143.3984336,-35.119943742499999 143.40268256,-35.124605761 143.40293456000001,-35.124930769 143.40616560000001,-35.128381796 143.40783654399999,-35.12739175 143.424473952,-35.116877386 143.42548492799997,-35.116156348499999 143.42608300800001,-35.115727000500002 143.434501568,-35.1096891185 143.445129184,-35.102828874499998 143.44683110400001,-35.101729845 143.44729312000001,-35.101424835499998 143.41895580799999,-35.059579667 143.41153081600001,-35.054446675500003 143.41147683200001,-35.054427676 143.41104883200001,-35.05427368199999 143.396443968,-35.049043787500004 143.38491913600001,-35.044914883499999 143.38378316800001,-35.044507902 143.382909184,-35.0434829095 143.38305916799999,-35.043373907499998 143.38342016,-35.043212883500004 143.38364214399999,-35.043028882500003 143.38375216,-35.04282288499999 143.38386012800001,-35.042295857 143.38399811199997,-35.042043868500002 143.38416412800001,-35.041860866500002 143.38460809599999,-35.041721839 143.38581305599999,-35.041607823500001 143.38627705600001,-35.041623826 143.386778048,-35.041553822 143.387916,-35.041069788 143.38886198399999,-35.041042796500001 143.38955795199999,-35.041154777 143.39081292799997,-35.041539743500003 143.39178691199999,-35.041627748 143.39298288000001,-35.041577742500003 143.39403990400001,-35.0413907075 143.394345888,-35.041366713 143.39495884799999,-35.041432721 143.39548787199996,-35.041568696 143.39624284799999,-35.042068695499999 143.396464864,-35.042159697 143.39696585599998,-35.042157699 143.39754982399998,-35.041972699 143.398160832,-35.041856685500001 143.39913481599999,-35.041852671 143.39952384,-35.041713662 143.39996678399999,-35.041414665 143.40031779200001,-35.041371652500004 143.400885792,-35.041548642 143.40144278400001,-35.041615649 143.402110752,-35.041544646 143.40358172800001,-35.041012604500004 143.404304736,-35.040849601 143.404665728,-35.040711609500001 143.40530473600001,-35.040594578499999 143.407781664,-35.040585569 143.40919968,-35.0404435445 143.41017164799999,-35.040233532500004 143.410505632,-35.040209538 143.41078464,-35.040277525499995 143.41106262400001,-35.040276508 143.41142364800001,-35.0401375175 143.41253459199996,-35.039836485499997 143.41307260799999,-35.039752495499997 143.41384156800001,-35.039625474499999 143.41470457599999,-35.039622477500004 143.41501056,-35.039666470500002 143.41651452799999,-35.039866455500004 143.41751753599999,-35.0400914525 143.41790854399997,-35.0402504415 143.41810355199999,-35.040386435 143.418132544,-35.04054646 143.417996544,-35.04102746 143.417998528,-35.041347454499999 143.41811056,-35.041507461 143.41836252799999,-35.041689464 143.41878054399996,-35.041756452500003 143.41967052800001,-35.0417304415 143.42056153600001,-35.041795432 143.42114752000001,-35.041976436 143.42175952,-35.042065421 143.42306748799999,-35.042060426 143.42326348799998,-35.042197418500002 143.42354348800001,-35.04258442 143.42385347199999,-35.043178418 143.42399347200001,-35.043314411499999 143.42416147200001,-35.043405413 143.42449548799999,-35.043473419 143.42491347199999,-35.043471402500003 143.425302464,-35.043401398500002 143.42610745600001,-35.043146376 143.42696841599999,-35.042800389 143.42766140799998,-35.042454365 143.428021376,-35.042178363499993 143.42813139200001,-35.042040372 143.428158368,-35.041880365499999 143.42807436800001,-35.0417213395 143.42807238399999,-35.0414233415 143.42820736,-35.0408283445 143.42817734400001,-35.040416349499999 143.42800736,-35.0400513445 143.427672352,-35.039755344499994 143.42736534400001,-35.039619351 143.42700236799996,-35.039575339500004 143.42577939200001,-35.039671373 143.42564041599999,-35.039671373 143.42519340800001,-35.039490369 143.4244424,-35.03937837 143.42371744,-35.039198365 143.423299456,-35.039200381500002 143.42268544000001,-35.038928376 143.42209945599998,-35.038564388499999 143.42187443200001,-35.038291384 143.42181744000001,-35.038039377 143.42186940799999,-35.037513385 143.421979424,-35.0372383825 143.422172416,-35.037008390499999 143.42272739200001,-35.036663384 143.42367136,-35.036363388 143.42389433599999,-35.036339356500001 143.42425433599999,-35.036200366 143.42469830399997,-35.03594736 143.425722272,-35.035120373 143.426027264,-35.034912359 143.426443264,-35.034751353499999 143.426916256,-35.034658354 143.42730422400001,-35.03451934499999 143.42741523199996,-35.034427344500003 143.42747020799999,-35.034243343499995 143.42741222399999,-35.034015349500002 143.42702121600001,-35.03367334 143.42696419200001,-35.033514369500004 143.42721318400001,-35.033284340500003 143.4274352,-35.033191341 143.42810214400001,-35.0330973425 143.42857616000001,-35.033164349499998 143.428881152,-35.033094345500004 143.42924112,-35.032796329 143.429623136,-35.032539327 143.42982313599998,-35.032405331499994 143.43032208,-35.032105335499999 143.430795104,-35.032104318 143.43193404799999,-35.031893307 143.43360304000001,-35.031795294 143.43418700800001,-35.031793296 143.43471699199998,-35.031883298499999 143.435135008,-35.03201829299999 143.43580297599999,-35.032015277500001 143.43616396799999,-35.032083265 143.436666976,-35.032286265499998 143.437667936,-35.032282251 143.43811292799998,-35.032212247 143.43888988800001,-35.031912251 143.43952790399999,-35.03156622699999 143.440801824,-35.030623226499998 143.441050848,-35.030462239500004 143.441411808,-35.030438226500003 143.44283177599999,-35.03054721 143.44394476799999,-35.030565192 143.44547574399996,-35.030696172 143.44667270400001,-35.030737186499998 143.447508704,-35.030825154 143.44867667199998,-35.030843154500005 143.44878768000001,-35.030889164 143.45098764799999,-35.031017128500004 143.47631728,-35.001437108499999 143.476739264,-35.001917109499999 143.47747625599999,-35.0021851005 143.47818425599999,-35.002192112 143.47896022399999,-35.001940086499992 143.479754208,-35.001350084500004 143.480645184,-35.000406085 143.48119014400001,-34.999572068 143.48176409600001,-34.999084075 143.48231011199999,-34.9990050615 143.482980064,-34.998919073499991 143.48390905599999,-34.999008077 143.48398505599997,-34.999701068500002 143.48433008000001,-35.00102306 143.48485708800001,-35.002156055500002 143.48570006400001,-35.003233051500004 143.487181088,-35.0052030425 143.488158048,-35.006335039 143.488914048,-35.007106026500004 143.489766016,-35.007531027 143.49051302399999,-35.007712031 143.49125996800001,-35.00782203199999 143.492015936,-35.007822013500004 143.492781952,-35.007893016499999 143.49352892799999,-35.007987015 143.49436188799999,-35.008121010499998 143.49498384,-35.008231011500001 143.495682848,-35.008395994499999 143.49619184,-35.008579995499993 143.49668083200001,-35.008902987 143.49720681599999,-35.009389981 143.497608864,-35.009901968500003 143.49777184,-35.01006697 143.49788585600001,-35.010384966499998 143.49812489600001,-35.011030949499997 143.49865187200001,-35.011840953499998 143.498948896,-35.012509932 143.499274912,-35.013012947 143.50002192,-35.014082913 143.50082694400001,-35.015120892500001 143.50129494399999,-35.0155479095 143.501742944,-35.016073883 143.50233593600001,-35.01658489 143.50322192,-35.016841873499999 143.503856928,-35.016870863 143.50488489599999,-35.016713872 143.50593481600001,-35.016443864500005 143.50731577600001,-35.016014868 143.50826172800001,-35.015772869500005 143.50905068799997,-35.015677853500002 143.50980969599999,-35.015667845 143.51084467199999,-35.015725842500004 143.511741632,-35.015845833500002 143.51264563199999,-35.016022823 143.51365865599999,-35.016410805 143.51463667199999,-35.017058767500004 143.51571868799999,-35.017870751 143.51715372799998,-35.019219715499993 143.51837376,-35.0199586795 143.51959376,-35.020362664 143.521615744,-35.020774622 143.522663744,-35.021016602 143.52410576,-35.021586568499998 143.52602278399996,-35.02230953 143.5271888,-35.022543499499996 143.528347744,-35.022522483499998 143.52981776,-35.022370450499992 143.53151676799996,-35.02249741599999 143.53434672,-35.022563387 143.53665168000001,-35.0224083385 143.53824467199999,-35.022163324499992 143.53953964799999,-35.022121311 143.54114166400001,-35.022289272500004 143.54246761600001,-35.022335245 143.54319961600001,-35.022196236 143.54407059199997,-35.022119220500002 143.54457958399999,-35.022137221 143.545162592,-35.022286201500002 143.54596860800001,-35.022601182500004 143.54720860800001,-35.0231521495 143.54850259200001,-35.023755101500001 143.54936358399999,-35.024319092500001 143.55004163199999,-35.024974048 143.55069862400001,-35.025802034 143.55129065599999,-35.0267799995 143.55177670399999,-35.027948959 143.55245276799999,-35.029448920500002 143.55287577600001,-35.030303898 143.55319878399999,-35.030715893 143.55387683199999,-35.031309872500003 143.55473481600001,-35.031894824 143.555932832,-35.032454819 143.557226816,-35.033013796500001 143.55842486399999,-35.033686752500003 143.55918784,-35.034236739 143.55983385600001,-35.03469972 143.56041689599999,-35.035206694 143.56112691199996,-35.035860687499998 143.56159392000001,-35.036210689 143.56217692800001,-35.036420664 143.563778912,-35.036788647500003 143.56495888000001,-35.036849623500004 143.566019872,-35.036658629500003 143.56693385599999,-35.036110622499997 143.56765683200001,-35.035483620500003 143.56794377599999,-35.034960625499998 143.56794476799999,-35.0343066505 143.56781872,-35.033469636500001 143.56776768,-35.032606667 143.56785363200001,-35.03177068899999 143.56809958400001,-35.030819678 143.56824656000001,-35.030181687 143.56856553599999,-35.029571705 143.569044512,-35.028927701500002 143.56938448,-35.028639693499997 143.56987248,-35.028387686500004 143.57065843199999,-35.028161672 143.57146540799999,-35.027944685500003 143.57231436800001,-35.027684686500002 143.573238336,-35.027458690499998 143.57401331200001,-35.027067693 143.57471526399999,-35.026536724499991 143.57524624,-35.026048713 143.57550121599999,-35.02570872 143.575713216,-35.025569711 143.5760432,-35.02553470899999 143.5764352,-35.025605712 143.57673222400001,-35.0257537305 143.57696521599999,-35.0260507295 143.5770072,-35.026390722500004 143.57715123200001,-35.026946721500003 143.57737232,-35.0280637145 143.57759334400001,-35.028865726500001 143.57784732799999,-35.029493709 143.57816438399999,-35.030138711500001 143.57848236800001,-35.030505714500002 143.5789064,-35.030950713500005 143.579287392,-35.031343709 143.57971139200001,-35.031718741 143.5801584,-35.031993743500003 143.58058841600001,-35.032097732 143.58108540800001,-35.03216074299999 143.58158140800001,-35.032236759500002 143.58194336,-35.032361745500005 143.58233939199999,-35.03263275199999 143.58245641600001,-35.0329367625 143.58201843200001,-35.033314754500005 143.58186243200001,-35.033749763499998 143.58200048,-35.034091754500004 143.581991456,-35.034375748 143.582015488,-35.034846758 143.581947488,-35.035303763500004 143.58180352,-35.035683753500003 143.58154156800001,-35.036029759 143.581204576,-35.036215739500001 143.58085955199999,-35.036236737 143.5805816,-35.036208728 143.58041360000001,-35.036111732500004 143.58024560000001,-35.035937721499998 143.58011056000001,-35.035695723 143.57982457599999,-35.035480716 143.57927756800001,-35.0352307255 143.57857056,-35.03497470399999 143.57777059200001,-35.034806705500003 143.576884608,-35.034651675500001 143.576287616,-35.034637671 143.57583161599999,-35.034747653499991 143.57549462399999,-35.034885663499999 143.57508966399999,-35.035189637 143.574793696,-35.035708636 143.57453273599998,-35.036081633 143.57421171199999,-35.036337617500003 143.57383276799999,-35.036523598 143.57325078400001,-35.036654615 143.5726608,-35.036833584 143.57214681599999,-35.037061596500003 143.57165785599997,-35.037427563500003 143.57120188799999,-35.03774556 143.57086489599999,-35.038160552 143.57075392,-35.038492553 143.57062790399996,-35.038983561500004 143.57058595199999,-35.0396355755 143.57060995199998,-35.0402375655 143.57071894399999,-35.040832581 143.57096998399999,-35.041808585499993 143.571211968,-35.042791601499999 143.571547968,-35.043677603500001 143.57182502399999,-35.044266625 143.57233299200001,-35.044700635 143.57293897599999,-35.044992639 143.57352899200001,-35.045027659500001 143.574025952,-35.044979670499998 143.57445593599999,-35.044827674499999 143.57494492800001,-35.044530675499999 143.575923872,-35.043722706499999 143.57683484799998,-35.042692700499998 143.57768780800001,-35.0418486935 143.57826080000001,-35.041330712 143.578623776,-35.041061722 143.57891875199999,-35.0409027145 143.57922176,-35.0408197235 143.57947475200001,-35.040840721 143.57974476800001,-35.040916737499998 143.57998876799999,-35.041124733 143.58013974400001,-35.0414297425 143.58026476800001,-35.042315763 143.5802368,-35.043754767 143.58037779200001,-35.045263775 143.58057782399996,-35.0463858 143.58073382399996,-35.047756816499998 143.58075782399999,-35.048496816499991 143.58061385600001,-35.049112811 143.580393856,-35.049762808499999 143.58003888,-35.050461831 143.57972592,-35.051284822 143.579403904,-35.051975834 143.57832198400001,-35.054425826 143.578001024,-35.055276826 143.577764032,-35.055988835500003 143.57772905599998,-35.056494847499998 143.577788032,-35.056902846500002 143.57806403199999,-35.057498842500003 143.578341056,-35.057893873 143.57894604800001,-35.05869089 143.57966105599999,-35.059680899 143.58044304,-35.060781926499992 143.580997024,-35.061716916500004 143.581384,-35.062464945499997 143.581659008,-35.063116941 143.58201904000001,-35.0644049665 143.582338048,-35.065311984499999 143.58270003199999,-35.06588598399999 143.58308700800001,-35.06623297 143.583676,-35.066648998 143.584483968,-35.06704401 143.585295968,-35.067489009 143.58587696,-35.067953026 143.586271936,-35.068576032 143.586565952,-35.069407033499999 143.58707795199996,-35.070335049 143.587792928,-35.071242067 143.58838992,-35.071727063 143.58890390400001,-35.07186607199999 143.58940988800001,-35.07186607199999 143.58988988799999,-35.07178408 143.58984489599999,-35.072068092 143.58964188799996,-35.072368088 143.58930588800001,-35.072549092 143.58902691200001,-35.072638095500004 143.58735593599999,-35.072694076499999 143.58713299199999,-35.072738069499998 143.58696499199999,-35.072920072500004 143.587016992,-35.07324106599999 143.58723596799999,-35.0736320635 143.58762198400001,-35.07400108299999 143.58806496,-35.074233091499998 143.58828595199998,-35.074326091 143.58928691200001,-35.0744940895 143.58973091199999,-35.074635096499996 143.59037088,-35.0746621065 143.59092889600001,-35.074507113500005 143.59148585599999,-35.074511109500001 143.59168086400001,-35.074558099500003 143.59209484799996,-35.074882108499999 143.59209184,-35.075225098499999 143.59167084800001,-35.07549610499999 143.59114288,-35.075492109 143.59069987199999,-35.075192113 143.59039488,-35.075052105 143.59019990399997,-35.075050107 143.58969792,-35.075207098 143.58955692800001,-35.075320114500002 143.58947190399999,-35.075480102500002 143.589470912,-35.075663104499995 143.58937193599999,-35.075821113 143.58940793599999,-35.076326107500002 143.58926096,-35.077080112 143.589033984,-35.0775361 143.588696992,-35.077877110499998 143.587996,-35.0783981075 143.58782601600001,-35.078626101499992 143.58782502400001,-35.078717103 143.58793500799999,-35.078833098 143.588794976,-35.079183118 143.589403968,-35.07955311799999 143.58967996800001,-35.079830118499999 143.58978499200001,-35.080093133 143.589673984,-35.080425115499999 143.58947699199996,-35.080584123 143.58897500800001,-35.080740133500001 143.58766604799999,-35.080685133 143.58741603199999,-35.080705131500004 143.58719203199996,-35.080864120500003 143.587078048,-35.081092133 143.58659907200001,-35.081661119 143.58623408,-35.081978135 143.58592310399999,-35.082411146 143.585751104,-35.082936139 143.58571910399999,-35.083370149 143.58590512000001,-35.083708144 143.58621510399996,-35.083878140499998 143.58716108799999,-35.08393114299999 143.58741107200001,-35.083978151499998 143.58763206399999,-35.084095145500001 143.58774208,-35.084255152 143.587741088,-35.084393162 143.58754406400001,-35.0845971615 143.587293088,-35.084687164 143.58706912,-35.084731157 143.58643011199996,-35.0846351605 143.58601312,-35.084632163499997 143.58584412799999,-35.084722166 143.58570115200001,-35.085133162 143.58558915200001,-35.08524616 143.58536515200001,-35.085336162499999 143.585254144,-35.085335163499998 143.58506012800001,-35.085242164 143.58492214399999,-35.085104154 143.58475814400001,-35.084805157 143.58467814400001,-35.084461168 143.584683136,-35.083935139 143.584601152,-35.083797147499993 143.584435136,-35.083704148 143.58421212799999,-35.08370215 143.58370716799999,-35.084065157 143.58326016000001,-35.084313168 143.58289619199999,-35.084447163500002 143.58250521599999,-35.084536167 143.58233820800001,-35.084535168 143.58197920000001,-35.084303159500003 143.58161824000001,-35.084140156 143.581284224,-35.084138158 143.58058624,-35.0844071665 143.58027827199999,-35.084588170499998 143.58002528,-35.084815165500004 143.57968528000001,-35.085361174500001 143.57942531200001,-35.0862751855 143.579340288,-35.0864581875 143.579115296,-35.086662187 143.57850131199999,-35.086840194 143.578305344,-35.086930196499999 143.57805232000001,-35.087180205500005 143.577967328,-35.087340193500005 143.577878336,-35.087820194500004 143.57786233600001,-35.089467231 143.57794233600001,-35.089788243 143.57802432,-35.089926234499998 143.57821833599999,-35.0900422295 143.578858336,-35.090093234 143.579386304,-35.090189230500002 143.57983030400001,-35.090375229499998 143.58013430399998,-35.0906292345 143.580298304,-35.090882240500001 143.58032428800001,-35.091043227500002 143.58021129599999,-35.091248244500001 143.580014304,-35.091406234499999 143.57917833600001,-35.091492259500001 143.578787328,-35.091603259500005 143.578506336,-35.09180725899999 143.57830832,-35.09214925 143.57816435199999,-35.092628270500001 143.57796636800001,-35.09297028 143.57771436799999,-35.09312827 143.57712736,-35.093307294500001 143.57640240000001,-35.093393282500003 143.57598339200001,-35.0935732875 143.57587040000001,-35.093732295 143.575753408,-35.094304315 143.57574838399998,-35.094807311499999 143.5756624,-35.09501231 143.574876416,-35.095601331499999 143.574176416,-35.096125344 143.57210704,-35.109204622 143.57184108800001,-35.110876652 143.57095942399999,-35.1163167805 143.57093046400001,-35.117232789500001 143.57104252799999,-35.118148817 143.57302579200001,-35.124791926500002 143.57473100799999,-35.130919996 143.57681305599999,-35.138055057500004 143.577777088,-35.141079067500002 143.57798713599999,-35.142052075 143.57805612799999,-35.142888071500003 143.57805616,-35.144950081499992 143.57787324799997,-35.150962137500002 143.577394368,-35.165094324500004 143.57721238400001,-35.166995366 143.57623241600001,-35.173809489500002 143.575811456,-35.176294539 143.575811456,-35.176866540500001 143.57591001599999,-35.177497002 143.578329408,-35.1821355995 143.57842742400001,-35.182479607 143.57972841599999,-35.184976626 143.581336384,-35.188148636 143.58245641600001,-35.19009565 143.58291740799999,-35.190725649 143.58189641600001,-35.191103659500001 143.58115443200001,-35.191126673500001 143.58059443199997,-35.191011677499993 143.58010544000001,-35.191011696 143.55800572800001,-35.188763872 143.555826752,-35.188541890499998 143.55425980800001,-35.188540873 143.551306848,-35.188722894500003 143.54958585599999,-35.188733902 143.54936188799999,-35.188824903499999 143.54264499199999,-35.189107935 143.542528,-35.189120940500004 143.54180499199998,-35.189198936499992 143.54054601600001,-35.189106954499998 143.539356064,-35.188911964500001 143.53840505599996,-35.188647951 143.53767705600001,-35.188360979 143.53721609600001,-35.188280966500002 143.532235136,-35.186720010500004 143.52782822399999,-35.185377021500003 143.525507264,-35.184659055 143.523043296,-35.183897058500001 143.51686041599999,-35.181991096 143.516133408,-35.18181912 143.50948854399999,-35.179752152 143.50753056,-35.179235169500004 143.50627158399996,-35.179039199 143.505040608,-35.17898122 143.502185664,-35.178681242499998 143.50129865599999,-35.1785922575 143.501078656,-35.17858224899999 143.49372979200001,-35.177896324500004 143.49352278399999,-35.177877325 143.48511193599998,-35.176927424 143.481473024,-35.176516446500003 143.48138700800001,-35.1765064565 143.48009100799999,-35.176360454499999 143.47791705599997,-35.176106468 143.47220614400001,-35.175487532 143.471931168,-35.175460522 143.47161318400001,-35.175442521500003 143.46822323200001,-35.175827562 143.46811024,-35.175839568500002 143.46123232,-35.176596644 143.45833238399999,-35.176891682 143.45784940799999,-35.1769446845 143.4575744,-35.176998686 143.45725539200001,-35.177097698 143.45693744,-35.177232692499999 143.45664041599997,-35.177367687 143.45631043200001,-35.1775027 143.45592544,-35.177700705499994 143.45556342399999,-35.177907720500002 143.455244448,-35.17805170599999 143.45493644800001,-35.178168718500004 143.45448646400001,-35.17824973 143.454211456,-35.178312741 143.45398044800001,-35.178357733 143.45382745599997,-35.178366724 143.45351948800001,-35.178392735 143.45308048000001,-35.178365743500002 143.45046652799999,-35.177902762500004 143.45015952,-35.177838771 143.44977452800001,-35.177820770499999 143.44939056000001,-35.177856771500004 143.44902755199999,-35.177918765 143.44861056,-35.178017795499997 143.44825856,-35.178035796 143.44779699200001,-35.178053001 143.447314592,-35.178025787500005 143.44074668799999,-35.177341842499999 143.43599174400001,-35.176857882500002 143.43383878399999,-35.1767109 143.43342179199999,-35.176656898499999 143.422966944,-35.175569986500001 143.41698201599999,-35.174949034 143.41288608,-35.174528048 143.40411212800001,-35.173613112 143.40355216,-35.173549102 143.40246515199999,-35.173440118500004 143.40042019200001,-35.173211144 143.40005020800001,-35.173169149 143.39946620800001,-35.173108136 143.39497526400001,-35.172635183499999 143.39456924800001,-35.1725981835 143.393932256,-35.172588175 143.39327526400001,-35.172625175 143.392918272,-35.172687168499998 143.39287724799999,-35.17269418 143.39256726400001,-35.172769197500003 143.39192928,-35.172852188500002 143.39182028799999,-35.172567196 143.391582304,-35.172251197500003 143.39066630400001,-35.171484187499999 143.390264288,-35.171214198500003 143.38993433600001,-35.17109319 143.38980633599996,-35.171078186500004 143.38953232,-35.171154203 143.38920233600001,-35.171304219499994 143.38885433600001,-35.171589212 143.38854336,-35.171965206 143.38823235199999,-35.172235232 143.38793936,-35.17238523 143.387665344,-35.172475232499998 143.38704240000001,-35.172475232499998 143.38669539199998,-35.172415255499999 143.3864384,-35.172325253 143.38596240000001,-35.172084253500003 143.38568838399999,-35.171859256499999 143.385212416,-35.171498247500004 143.38488243200001,-35.17139326 143.38469942399999,-35.171438252 143.38460841599999,-35.171543276500003 143.38453542400001,-35.1717682735 143.38457142399997,-35.172189278 143.38469942399999,-35.172520261500004 143.38482742400001,-35.172956269499998 143.38491942399997,-35.173181266500002 143.38491942399997,-35.173692273500002 143.38482742400001,-35.1738422715 143.38455340799999,-35.174023294 143.38426041599999,-35.174113296500003 143.38374745600001,-35.17403728 143.38352844799999,-35.17403728 143.38316246400001,-35.174173292 143.38296144,-35.174203299 143.382768992,-35.174129909500003 143.38274646400001,-35.174121307 143.38272246400001,-35.174112297500002 143.382411488,-35.173827305 143.38206448,-35.173361308499999 143.38193648000001,-35.173120309 143.381917472,-35.172865305 143.38199148800001,-35.172594298500002 143.38204547199999,-35.172519281 143.382119488,-35.172249292 143.38237548800001,-35.17143729 143.38241248,-35.170775286 143.38244848,-35.170295266499998 143.38250345599999,-35.170129266 143.382558464,-35.169949261 143.38277846400001,-35.169528275 143.38307145600001,-35.169047256500001 143.38318044799999,-35.168912243500003 143.383290464,-35.16870225 143.38336345600001,-35.168597244 143.383583456,-35.168401255 143.383583456,-35.168371248 143.38405942399996,-35.167965228500002 143.38438841600001,-35.1676202405 143.384663424,-35.167154225499992 143.384718432,-35.166913226 143.38473641600001,-35.166387215500002 143.38469942399999,-35.166132211499999 143.38472124800001,-35.165915687500004</coordinates></LinearRing></outerBoundaryIs></Polygon>

	</Placemark>
</kml>