<?xml version="1.0" encoding="UTF-8"?>
<kml xmlns="http://www.opengis.net/kml/2.2">
	<Placemark>
		<Style>
			<LineStyle>
				<color>ff0000ff</color>
			</LineStyle>
			<PolyStyle>
				<fill>1</fill>
				<color>330000cc</color>
			</PolyStyle>
		</Style>
			<ExtendedData><SchemaData>
		<SimpleData name="STATE_2006">8</SimpleData>
		<SimpleData name="POA_2006">2604</SimpleData>
	</SchemaData></ExtendedData>
      <Polygon><outerBoundaryIs><LinearRing><coordinates>149.14314976,-35.309565153500003 149.14321308800001,-35.3095900175 149.143299136,-35.309621967 149.14338588800001,-35.3096520295 149.14355004800001,-35.309720979 149.14363283200001,-35.309754982 149.143716,-35.309789003500001 149.14379808000001,-35.309823025 149.143915072,-35.309870995499999 149.14403209599999,-35.309918966 149.14414908800001,-35.309966048500002 149.144267168,-35.310014019 149.14438416,-35.310060990499998 149.144463008,-35.310092033499998 149.14454112000001,-35.310123983 149.14461888,-35.310156025 149.14469808000001,-35.310185995 149.14477692799997,-35.310215965 149.14490905599999,-35.310263047500001 149.14504297600001,-35.3103059675 149.14517795200001,-35.310347999500003 149.14531296000001,-35.310389032499998 149.14544796800001,-35.31043097199999 149.145571072,-35.310468952499996 149.14569491200001,-35.310507025500002 149.145818048,-35.310545006 149.14594188800001,-35.310582006 149.14606608,-35.310619986500001 149.14618307200001,-35.310655987499992 149.14630115200001,-35.310692969 149.14641888,-35.31072897 149.146538048,-35.310764971 149.14665612799999,-35.310797993500003 149.14669104000001,-35.310807983499998 149.14672489599999,-35.310817973500001 149.14675907200001,-35.310827963499996 149.146794016,-35.31083597399999 149.14682892799999,-35.310843984500004 149.14686384000001,-35.310849035 149.14689984,-35.310852994 149.146935136,-35.310855954 149.14697113599999,-35.31085902499999 149.14700713600001,-35.310861985 149.147049952,-35.310866036500002 149.14709209599999,-35.3108709945 149.14713385599998,-35.310875046 149.14717596799997,-35.310878006 149.14721916799999,-35.310879985500002 149.14726992000001,-35.310880984500002 149.14732105600001,-35.310879985500002 149.14737289600001,-35.310878006 149.147424,-35.310873954500003 149.147475136,-35.310869995499999 149.147520128,-35.310866036500002 149.14756512,-35.310860005500004 149.147610112,-35.310853974499999 149.14765404799999,-35.310846963 149.14769795199999,-35.310839045 149.14775088,-35.310828962500004 149.14780416,-35.310818972500002 149.14785708799999,-35.310807003 149.14790892799996,-35.310794034499999 149.14796003199999,-35.310779993 149.14799100799999,-35.310771002 149.14802016,-35.310760013 149.14805004799999,-35.310749042499999 149.14807993599999,-35.310740033 149.14812816,-35.310733021499999 149.14816201599999,-35.310731042 149.14819584,-35.310733021499999 149.14864988799999,-35.310440999 149.14885785599998,-35.310357989499998 149.14898787199999,-35.31030199 149.149063872,-35.310619986500001 149.149432864,-35.311259994 149.149512864,-35.311359986500001 149.14983587200001,-35.311763989500001 149.15054086399999,-35.312077971500003 149.15123286400001,-35.312203975 149.15194982400001,-35.312304948 149.15231584,-35.312405939500003 149.15268083199999,-35.312531943 149.15300784,-35.312757939 149.15365084800001,-35.312905939 149.154047808,-35.31295292899999 149.15438969600001,-35.3129070305 149.1543528,-35.313139927 149.154105824,-35.31467091299999 149.15407686399999,-35.314854507 149.154060832,-35.314952908500004 149.15404083199999,-35.315079911 149.15401884799999,-35.3152159045 149.153995872,-35.315351916499992 149.15398985600001,-35.315389915499999 149.15397385599999,-35.31548791 149.15395187199996,-35.315623903499997 149.15393088,-35.315759915500003 149.15390886399999,-35.315895909 149.15409987199999,-35.3159169065 149.15437385600001,-35.315946913499999 149.15433088,-35.316219918 149.15402390400001,-35.318125917499998 149.15400188799998,-35.318261911 149.15195296,-35.321195937 149.15194297599999,-35.321212938500004 149.151048,-35.322657936500001 149.15101100800001,-35.322706924500004 149.15094198400001,-35.322786937 149.15087203199997,-35.322857921500002 149.15078502399999,-35.322934937 149.15070003199997,-35.323001925500002 149.15058201599999,-35.323096923 149.15035603199996,-35.323277927 149.15043702400001,-35.323316925 149.15185104,-35.324550912 149.153072,-35.325278887 149.154483008,-35.326121876500004 149.15455900800001,-35.326166868500003 149.15678595200001,-35.327495853 149.15931894400001,-35.329007821 149.16040393599997,-35.329654803 149.16157494399999,-35.330353807 149.161562944,-35.330483806499998 149.16155792,-35.330539806 149.161504928,-35.331147808499999 149.16151193600001,-35.331583798 149.161516928,-35.3318958005 149.16158297599998,-35.3325057825 149.16160995199999,-35.33296778299999 149.16176697599997,-35.334264781 149.162044,-35.335926784 149.16215398400001,-35.336545775499999 149.162193984,-35.336766776499992 149.16223100799996,-35.337223763499999 149.16226,-35.337572766 149.162274016,-35.338325771499996 149.162081024,-35.339129763 149.161789056,-35.3398707805 149.16161606399999,-35.340215787 149.16145907200001,-35.340442782 149.161251072,-35.340651776500003 149.161172096,-35.340707776 149.16097609600001,-35.340845786 149.16065209600001,-35.340998781 149.15839216000001,-35.341701799500001 149.157663168,-35.341935824499998 149.15443820799996,-35.342970844 149.15432921600001,-35.34300684499999 149.15422726400001,-35.343038831500003 149.14720742399996,-35.345263919 149.1462464,-35.345489933499998 149.145291456,-35.345615937 149.14464345600001,-35.345647923500003 149.143929472,-35.345633956 149.14324048,-35.345570945 149.14303548800001,-35.345536942 149.14255046400001,-35.345457965500003 149.14150249599999,-35.345184961 149.139765504,-35.344550984500003 149.13911955200001,-35.344396990500002 149.138752544,-35.344310003499999 149.13874652800001,-35.344254004 149.13869052800001,-35.343736984499998 149.138581504,-35.343150997 149.13844451200001,-35.342621009 149.13812752000001,-35.341727995500001 149.13785849600001,-35.341152997 149.13782150399999,-35.341074002 149.13762352000001,-35.340706999 149.13742550399996,-35.340380011500002 149.13721750400001,-35.340065012 149.13710150399999,-35.3399050055 149.13698752,-35.339745998 149.136803488,-35.3395079955 149.13659248,-35.339254009 149.136522464,-35.339178011 149.136442496,-35.33910501 149.13637849599999,-35.339054005500003 149.13628051200001,-35.338987997499999 149.136149504,-35.338915995500003 149.13605350399996,-35.338873001499998 149.135969504,-35.33884101499999 149.13587251199999,-35.338811026499997 149.13580950400001,-35.338796023 149.13574051200001,-35.338780020500003 149.135574496,-35.338748015500002 149.13568451200001,-35.338391021 149.13573648,-35.338178030500004 149.13577548800001,-35.337965021500004 149.13580246399999,-35.337748016500001 149.13581747200001,-35.337530031 149.135847488,-35.33691202 149.13584947199999,-35.336872023 149.13585846399999,-35.336676015499997 149.13586246400001,-35.336475031499994 149.13586147199999,-35.336309031 149.13585347200001,-35.336091027 149.13583145600001,-35.335795027 149.135811456,-35.335620017 149.13578444800001,-35.335429023 149.13574844799999,-35.335221027499998 149.135550432,-35.334428043500004 149.135191456,-35.333513033500004 149.13531843199999,-35.333473036500003 149.13639241600001,-35.333130028 149.13643440000001,-35.333118021499999 149.13660441600001,-35.333067017 149.13671641600001,-35.333048017499998 149.13681840000001,-35.333037028500001 149.1369024,-35.333032015 149.137025408,-35.333036029499993 149.137104416,-35.3330430225 149.1371504,-35.3330430225 149.1372264,-35.333059025 149.13733340799999,-35.333083019500002 149.13748339200001,-35.333126013499999 149.13759638400001,-35.333166029 149.13764038400001,-35.333185028500004 149.13771638399996,-35.333222028500003 149.13781638399999,-35.333134024 149.13847836799999,-35.332548998500002 149.138544384,-35.332491001 149.13923635200001,-35.331879002500003 149.13940534400001,-35.331730003499999 149.13943536,-35.331703012 149.13880736,-35.331173024 149.13929132800001,-35.330793996 149.13974716800001,-35.330437575 149.14033830400001,-35.330899002 149.140478304,-35.3310220085 149.14050432,-35.331033996500004 149.14053830399999,-35.331045004 149.140566304,-35.331049 149.140647328,-35.33104800099999 149.14071632,-35.331057010500004 149.14075430400001,-35.3310679995 149.14078531199999,-35.331082004 149.14083632000001,-35.33111900399999 149.14078931200001,-35.331059008499999 149.140770304,-35.331016995 149.14075532800001,-35.330963012 149.14076432,-35.330888013 149.14075430400001,-35.330852012 149.14074432000001,-35.330833012500001 149.14070531199999,-35.330788002 149.14021715199999,-35.330219589500004 149.14069529599996,-35.329943995 149.14107929599999,-35.329723012500004 149.14121670399999,-35.329643758499998 149.14135328,-35.329565004 149.14176524800001,-35.329327982 149.142176256,-35.329090978499998 149.142332256,-35.32903398 149.14290124799999,-35.328705993500002 149.14292726400001,-35.328689991 149.14339820800001,-35.328419983499998 149.143842208,-35.328167976499998 149.14400723200001,-35.328068964499998 149.14469017600001,-35.32767497 149.14484617599999,-35.3275829695 149.14494518399999,-35.327524972 149.145201184,-35.3273689615 149.145269184,-35.327319973500003 149.14549216,-35.327128961 149.14556416,-35.327044971 149.145583168,-35.327022974500004 149.14566416,-35.326915970500004 149.14574115199997,-35.326792964 149.14580515200001,-35.3266679595 149.14584816000001,-35.326557958500004 149.14585616,-35.326502958 149.14589014399996,-35.326414972 149.14591315199996,-35.326300975 149.14592614399999,-35.326166961 149.14592515199996,-35.326012967 149.14591315199996,-35.325905963 149.14590416,-35.325848964500004 149.14588416000001,-35.325758962 149.14585014400001,-35.325646963 149.14581715200001,-35.325561974 149.14577916799999,-35.3254789645 149.145731168,-35.325388962 149.14567715199999,-35.325302974 149.14561315200001,-35.325215968500004 149.145607168,-35.325206959 149.14556115199997,-35.325156972 149.145626144,-35.325119972 149.14667312,-35.324515965499998 149.14663513599999,-35.32446596 149.14653612800001,-35.324335960500001 149.146451136,-35.324211973499999 149.14638713599996,-35.324103970499998 149.146315136,-35.323966959499991 149.14626012799999,-35.323842972500003 149.146215136,-35.323722963 149.146179136,-35.323612962 149.14615212800001,-35.323505958 149.14611510399999,-35.32331496399999 149.14610310399996,-35.323213972499993 149.14609510400001,-35.32309696 149.14609308799999,-35.322989974500004 149.146100096,-35.322844971500004 149.14611609599999,-35.322695972499993 149.14613609599999,-35.322582974499994 149.14618009599999,-35.322404967499999 149.14619408,-35.32235795899999 149.14491113599999,-35.322028992 149.145003008,-35.321795004 149.145018112,-35.321756043 149.14514412799997,-35.321412960499998 149.145167168,-35.321361031 149.14518803199999,-35.321323957 149.145211072,-35.321290028 149.14525104000001,-35.3212399855 149.14560707199999,-35.320844973500002 149.14562003200001,-35.320830025500001 149.14418608,-35.319975011 149.14399408,-35.3198599965 149.14239312000001,-35.318904027500004 149.14236912000001,-35.318890023 149.14083913600001,-35.317976049 149.14074412799999,-35.317920049500003 149.13926016,-35.317033067 149.13911814399998,-35.316949077 149.13887116800001,-35.317228075500005 149.13882316799999,-35.317282077 149.13838716800001,-35.317022078 149.13830816,-35.316975069500003 149.13812720000001,-35.3170480705 149.13802419199999,-35.317080075500002 149.1379072,-35.317106086500004 149.1378112,-35.317122070499998 149.13771219199998,-35.317132079 149.1376032,-35.317136075 149.13750419199999,-35.31713307799999 149.13731920000001,-35.317111081500002 149.1371912,-35.317083091 149.13709817599999,-35.3170560995 149.13698819199999,-35.317015103500005 149.13690217600001,-35.316975088 149.13675417600001,-35.316895094 149.136734176,-35.31688510399999 149.13667520000001,-35.316849103 149.13825414399997,-35.3150730845 149.139043136,-35.314185084500004 149.13983209599996,-35.3132970845 149.14062204800001,-35.312408085500003 149.14170304,-35.311192062 149.14172102399999,-35.311172063500003 149.14189001599999,-35.310982068499996 149.14192601600001,-35.310942053 149.14194704,-35.3109180585 149.14231798399999,-35.310498053 149.142716,-35.310053054 149.14314976,-35.309565153500003</coordinates></LinearRing></outerBoundaryIs></Polygon>

	</Placemark>
</kml>