<?xml version="1.0" encoding="UTF-8"?>
<kml xmlns="http://www.opengis.net/kml/2.2">
	<Placemark>
		<Style>
			<LineStyle>
				<color>ff0000ff</color>
			</LineStyle>
			<PolyStyle>
				<fill>1</fill>
				<color>330000cc</color>
			</PolyStyle>
		</Style>
			<ExtendedData><SchemaData>
		<SimpleData name="STATE_2006">1</SimpleData>
		<SimpleData name="POA_2006">2534</SimpleData>
	</SchemaData></ExtendedData>
      <Polygon><outerBoundaryIs><LinearRing><coordinates>150.83753753600001,-34.731791505499999 150.837092,-34.732225996499992 150.83679699199999,-34.732597994500004 150.836434016,-34.733285991 150.83620899199997,-34.733629998499993 150.83548099199999,-34.734388998 150.835239008,-34.734689993 150.83449401600001,-34.736123003 150.83423398400001,-34.736480996499999 150.83380099199999,-34.737398004500001 150.83351484799999,-34.738108256499999 150.83329900800001,-34.738643998 150.83310899200001,-34.73916 150.83300499200001,-34.739646994 150.83286700799999,-34.740779009 150.83285001600001,-34.741223009 150.83286700799999,-34.741538008500001 150.832954016,-34.74186699399999 150.83323100800001,-34.742439994500003 150.833474016,-34.742855005 150.83402899199999,-34.743585995499998 150.834203008,-34.743885991500001 150.834428,-34.744130006500001 150.83470499200001,-34.744286997499998 150.83507001599997,-34.744458992 150.83522908800001,-34.74450835 150.835270592,-34.744521226 150.83576300799996,-34.744673999 150.83590201600001,-34.744745002 150.836006016,-34.744888007 150.83614499199999,-34.745876998500002 150.83614499199999,-34.746105991500002 150.83605798400001,-34.746349007500001 150.83588499199999,-34.746593004 150.835764,-34.746908003500003 150.83574700799997,-34.747065993500001 150.835816,-34.747580996499998 150.83578201599997,-34.747766995500001 150.835746016,-34.747799000500002 150.83576300799996,-34.747929 150.83579299199999,-34.748016005499998 150.835768,-34.74814300799999 150.835748,-34.748265996 150.83576300799996,-34.748352002499992 150.83579299199999,-34.748427001499998 150.83576227200001,-34.748533321 150.83574099200001,-34.748607006500002 150.83586201599999,-34.748749993 150.83579299199999,-34.748835999500002 150.83574099200001,-34.749021998499998 150.83560201599997,-34.749150999 150.83537699199999,-34.749207997500001 150.83506499200001,-34.749437009 150.83487401599999,-34.749437009 150.83475299200001,-34.7495799955 150.83454499199999,-34.749666002 150.834476,-34.749723000499991 150.83435401599999,-34.749765994500002 150.834251008,-34.749752008500003 150.834180992,-34.749795002500001 150.83407699200001,-34.749809007 150.83393900799999,-34.749738004 150.833766016,-34.749867004500004 150.833575008,-34.749852001 150.833471008,-34.749895994 150.833384,-34.749966997 150.83336700800001,-34.750095997500004 150.833471008,-34.750167000499999 150.833471008,-34.750224998 150.83354,-34.750296001 150.83378300800001,-34.750338995 150.83383500799997,-34.750382007500001 150.83381699200001,-34.750497003500001 150.833731008,-34.750667999 150.83366099200001,-34.750725996499995 150.83361001599999,-34.750725996499995 150.83341900799999,-34.750826007500002 150.83335001599997,-34.750769009 150.83328,-34.750754005499999 150.833090016,-34.750826007500002 150.83300300799999,-34.750725996499995 150.832934016,-34.750725996499995 150.83283001599997,-34.750812003 150.832674016,-34.750812003 150.83253500800001,-34.750897991 150.83253299200001,-34.750921005 150.832492992,-34.7509760055 150.832432,-34.750998002 150.832368992,-34.750995005 150.832300992,-34.750979002500003 150.832258016,-34.751008991 150.832222016,-34.751067007 150.83220700800001,-34.751142006 150.83231001599998,-34.751240999499998 150.832414016,-34.751484996 150.832404384,-34.7515533535 150.832396,-34.751612997500004 150.8325,-34.751741998 150.83253500800001,-34.751885003 150.832674016,-34.752056997499999 150.83269100800001,-34.752143004 150.83281299199999,-34.752257001 150.83321100800001,-34.7523860015 150.833852,-34.752371997 150.833904,-34.752414991 150.833904,-34.752485994 150.834008,-34.752572000500003 150.83423398400001,-34.752628999 150.834476,-34.752857992 150.834823008,-34.753043991 150.83503100799999,-34.7532019995 150.835308,-34.753301992 150.835516,-34.753345004499998 150.83563801599999,-34.753459001499991 150.83568899199997,-34.753558994 150.83586300799999,-34.753701999 150.836106016,-34.753803009 150.83622700800001,-34.753816995 150.836591008,-34.754059992500004 150.83666,-34.754145999 150.83679900800001,-34.754145999 150.836868,-34.754202997500002 150.836851008,-34.754361006 150.837007008,-34.754489007499998 150.837007008,-34.754547005 150.83692,-34.754618008 150.83693699200001,-34.754775998 150.836851008,-34.754876009 150.836780992,-34.754889995 150.83667801600001,-34.754976001500005 150.83667801600001,-34.755048003500001 150.836608,-34.755119006500003 150.836556,-34.755133991500003 150.83648700800001,-34.755090997499998 150.836106016,-34.755062008 150.836036,-34.75510500199999 150.835828,-34.75510500199999 150.83570700800001,-34.755018995500002 150.83529100800001,-34.754934006500001 150.83522201599999,-34.754862004499998 150.835083008,-34.754791001500003 150.83496201599999,-34.754791001500003 150.83491001599998,-34.754890994 150.83484,-34.754934006500001 150.83470201599999,-34.754904998500002 150.834498016,-34.754930991 150.83432099199996,-34.754862004499998 150.83423398400001,-34.754862004499998 150.834112992,-34.754920002 150.83407801600001,-34.754962996 150.834182016,-34.755063007 150.83406099199999,-34.755162999500001 150.833904,-34.755219998 150.833766016,-34.755321008 150.833575008,-34.755378006500003 150.83338499199999,-34.755621004 150.83338499199999,-34.755663998 150.83343699199997,-34.755720996500003 150.83343699199997,-34.755792998499999 150.83340201600001,-34.755835992500003 150.833368,-34.756065004 150.83322899199999,-34.756394008 150.83319500799999,-34.756594992 150.83312499199999,-34.7567090075 150.83314300799998,-34.756838008 150.83322899199999,-34.756923996 150.833212,-34.756980994500005 150.83307299199998,-34.757123999500003 150.832864992,-34.757139003 150.83281299199999,-34.757196001499999 150.832831008,-34.757382000500002 150.83270899199999,-34.757597007500003 150.83270899199999,-34.757667992 150.83265699200001,-34.7577539985 150.83265699200001,-34.757897003499998 150.83250201600001,-34.75802600399999 150.83250201600001,-34.758197998500002 150.832448992,-34.758297991 150.832311008,-34.758356007 150.83224201600001,-34.758455999500001 150.83220700800001,-34.758599004499999 150.832068,-34.758728005 150.831930016,-34.758914004 150.83182499200001,-34.759114007500003 150.831704,-34.759229003500003 150.83142700799996,-34.759300006499998 150.83130598400001,-34.759429007 150.831132,-34.759501009 150.83104601599999,-34.759429007 150.830664,-34.75947200099999 150.83052601599999,-34.759400998 150.83047398400001,-34.759400998 150.83028300800001,-34.759443992 150.830231008,-34.759501009 150.830231008,-34.759643995499992 150.830196,-34.759715997500003 150.82979798400001,-34.7601170035 150.82965900799999,-34.760231000499999 150.829486016,-34.760159997500004 150.82943401599999,-34.760159997500004 150.82934700800001,-34.760216996 150.829330016,-34.760288998 150.829399008,-34.760360001 150.82941699200001,-34.760432003 150.82926,-34.760561003500001 150.82927801599999,-34.760646991500003 150.829174016,-34.760717994499991 150.82912585599999,-34.7607754 150.82901801599996,-34.760903993500001 150.82889699200001,-34.76087600299999 150.82879299199999,-34.760890007500002 150.82874099200001,-34.760947006 150.82875801599999,-34.761005003500003 150.82855001600001,-34.7611619945 150.82858499199997,-34.761218993 150.82856700799999,-34.761262005500001 150.82846300799997,-34.761334007500004 150.828204,-34.761419995499992 150.82803001600001,-34.761563000500004 150.827908992,-34.761721009 150.82766601599999,-34.762192999500002 150.82754499199999,-34.762364994 150.827076992,-34.7633809955 150.826990016,-34.763667005500004 150.826990016,-34.763895998500004 150.82696198400001,-34.763963005500003 150.827076992,-34.764024999 150.827112,-34.764097001 150.827216,-34.764183007500002 150.82735401599999,-34.764253992 150.82745801599998,-34.764396997 150.82751001599999,-34.764511993 150.82751001599999,-34.764640993500002 150.827684,-34.764840997 150.827822016,-34.765127007 150.82784,-34.765571007 150.82787401600001,-34.765614001 150.82797801599997,-34.76565699499999 150.828012992,-34.766144007500003 150.82818601599999,-34.766272009 150.828238016,-34.766343992499998 150.828238016,-34.766400991 150.828168992,-34.766472993 150.828168992,-34.766558999499999 150.828204,-34.766587008500004 150.82822099199998,-34.766672996499999 150.828168992,-34.766773007499999 150.82803001600001,-34.766773007499999 150.82799500799999,-34.766816001500004 150.82799500799999,-34.766873999 150.82809900800001,-34.7670020005 150.828048,-34.7672309935 150.828168992,-34.767317 150.828238016,-34.767488994499999 150.828256,-34.767647003 150.82822099199998,-34.767732991 150.82813401599998,-34.767790008 150.82813401599998,-34.767946999 150.82818601599999,-34.767989993 150.82832499200001,-34.768019001 150.82837699199999,-34.768061995 150.82837699199999,-34.768175992 150.828308,-34.76831899699999 150.82832499200001,-34.7684050035 150.82837699199999,-34.768463001 150.828412,-34.768948996 150.82853299199999,-34.769063992 150.82849801599997,-34.769191993500002 150.828428992,-34.769278 150.828308,-34.769293003500003 150.82822099199998,-34.769364006499998 150.82809900800001,-34.769565009 150.82796099199999,-34.769722 150.82796099199999,-34.769893994500002 150.82792601599999,-34.769950993 150.827684,-34.770252006500002 150.827372,-34.770553001499998 150.827180992,-34.770580992 150.82697299200001,-34.770696006499996 150.826886016,-34.770766991 150.82683401599999,-34.770868001 150.82671299200001,-34.770967993500001 150.826660992,-34.770981998 150.826436,-34.771153992500004 150.826088992,-34.771311002 150.825916,-34.771468992 150.825794016,-34.771626001500003 150.825604,-34.771755002 150.82551699199999,-34.771770005500002 150.82542998399998,-34.771740997500004 150.824772,-34.772214005500004 150.82465001599999,-34.772184997499998 150.824546016,-34.772227991500003 150.824355008,-34.7724000045 150.82416499199999,-34.772385001 150.82404300799999,-34.772457003 150.82388700800001,-34.7726289975 150.82376601600001,-34.772700000500002 150.82366201599996,-34.772800992 150.82361500799996,-34.772943997 150.82357500800001,-34.772972006 150.82310700799997,-34.772901003 150.82302099199998,-34.772958001500001 150.82289900800001,-34.773159004 150.822968992,-34.773258996500005 150.82309001600001,-34.773287005499995 150.82316,-34.773345003 150.82328099200001,-34.773315995 150.82333299199999,-34.773359007499998 150.82331500800001,-34.773545006500001 150.823419008,-34.773674007 150.82357500800001,-34.773773999500001 150.82355801599999,-34.773959998499997 150.82374899199996,-34.774103003500002 150.82374899199996,-34.774131993 150.82366201599996,-34.77420299599999 150.82354099200001,-34.774188991500004 150.82347100800001,-34.77423200399999 150.82350601600001,-34.774331996500003 150.823610016,-34.774403998499999 150.823610016,-34.774761992 150.823714016,-34.775204993 150.82369699200001,-34.775391991 150.82378300799996,-34.775462994 150.82378300799996,-34.775620003500002 150.82381801599996,-34.775678001 150.823992,-34.775806002499998 150.823978592,-34.775945511 150.82397401599999,-34.775993000500002 150.82374899199996,-34.77607900699999 150.82374899199996,-34.776178999499997 150.823714016,-34.776250002499999 150.82376601600001,-34.776308 150.82388700800001,-34.776278992 150.82392198400001,-34.776308 150.823939008,-34.776436001500002 150.82404300799999,-34.776580005499994 150.82416499199999,-34.776580005499994 150.82423401599999,-34.776622000499998 150.824286016,-34.776807999500001 150.82426899199996,-34.777095008499998 150.82430300799999,-34.777165993 150.82430300799999,-34.777237995 150.82423401599999,-34.777308998 150.82426899199996,-34.777381 150.824251008,-34.777480992500003 150.82414700800001,-34.777524005 150.82414700800001,-34.777581003500003 150.824251008,-34.777738993500002 150.824251008,-34.777782006 150.82418201600001,-34.777839004500002 150.82400899199999,-34.777896003 150.82399100800001,-34.777954000500003 150.824060992,-34.778010999 150.824060992,-34.778053993 150.82397401599999,-34.778226006 150.823800992,-34.778340003 150.82362700799996,-34.778382997 150.823436,-34.7784690035 150.82329801599997,-34.778568996 150.823038016,-34.778798007500001 150.823072,-34.778927008 150.82289900800001,-34.7791710045 150.823038016,-34.779543002499999 150.82321100799999,-34.779786 150.82321100799999,-34.779842998500001 150.82314201599999,-34.779915000499997 150.82314201599999,-34.779957994500002 150.82321100799999,-34.780028997500004 150.823194016,-34.78008699499999 150.82309001600001,-34.780115004 150.823038016,-34.78015799799999 150.82302099199998,-34.780215995500001 150.823038016,-34.780644992 150.82309001600001,-34.7809169975 150.823194016,-34.780973996 150.82329801599997,-34.780959991499998 150.82338499199997,-34.781060002499999 150.82338499199997,-34.781146009 150.823454016,-34.781203007500004 150.823628,-34.781274991 150.82366201599996,-34.7814039915 150.823732,-34.781461008499996 150.82395699200001,-34.781531993 150.824008,-34.781647007499998 150.824251008,-34.781761004499998 150.824355008,-34.781776008 150.824511008,-34.781890005 150.824511008,-34.781932999 150.82466700800001,-34.78204699599999 150.82471900799999,-34.782061999500002 150.82478899200001,-34.782019005500004 150.824927008,-34.78204699599999 150.825187008,-34.782205004499993 150.825118016,-34.782304997 150.82513500799999,-34.782505000500002 150.82508300800001,-34.782562998 150.824927008,-34.782562998 150.82484099199999,-34.782605992 150.824736992,-34.782591007 150.82465001599999,-34.782634001 150.824546016,-34.782605992 150.824286016,-34.782605992 150.82423401599999,-34.782577002499998 150.824060992,-34.782577002499998 150.82392198400001,-34.782619996500003 150.823800992,-34.782520004 150.82369699200001,-34.782476991499998 150.823454016,-34.782277006500003 150.82336700799999,-34.782161992 150.82333299199999,-34.782019005500004 150.82326300799997,-34.781932999 150.82317699199999,-34.781876000499999 150.82302099199998,-34.781861996 150.82289900800001,-34.781747 150.822847008,-34.781633003 150.82265699199999,-34.781489998 150.82250099199999,-34.781461008499996 150.82239699199999,-34.781375002 150.822362016,-34.781288995499999 150.82227500799999,-34.78123199699999 150.822171008,-34.781360997499995 150.82208499199999,-34.781360997499995 150.821911008,-34.781274991 150.82182499199996,-34.781203007500004 150.82182499199996,-34.781159995 150.82192899200001,-34.781088992 150.821911008,-34.781031993500001 150.821720992,-34.780888008 150.821530016,-34.7809169975 150.82147801599999,-34.780874003500003 150.82125299200001,-34.7805740075 150.821096,-34.780488001 150.820975008,-34.780344996 150.82095801599999,-34.780173001500003 150.820854016,-34.780073009 150.82080201599999,-34.779972998 150.82076700799999,-34.779700992500004 150.82066300799997,-34.779456996 150.82069801599997,-34.779371008 150.820684,-34.77927199599999 150.82057699200001,-34.7792850015 150.820403008,-34.7790560085 150.820403008,-34.778998991500004 150.82050700799996,-34.778913003500001 150.82047299199999,-34.778869991 150.82038601599999,-34.778884994500004 150.820264,-34.778799006499995 150.82012601599999,-34.7785839995 150.81993500799999,-34.778412005 150.81993500799999,-34.7783550065 150.820022016,-34.778269 150.820022016,-34.77819799699999 150.81981401599998,-34.777939996 150.81981401599998,-34.777897002 150.8199,-34.777810995499998 150.8199,-34.777725007499996 150.819848992,-34.777610992 150.8199,-34.7775390085 150.81997001600001,-34.777525004 150.82003900800001,-34.777468005500005 150.82005699199999,-34.777352991 150.819952992,-34.77715300599999 150.819952992,-34.777081004 150.82000499200001,-34.777010001 150.81997001600001,-34.776881000499998 150.819848992,-34.776766004500004 150.81979699199999,-34.776608995 150.81983100799999,-34.776509002499999 150.81997001600001,-34.776422996 150.81997001600001,-34.776380002 150.81993500799999,-34.776337008 150.81986601599999,-34.7763649985 150.81978,-34.77635099399999 150.81967500799999,-34.776208007499996 150.81965801599998,-34.776122001 150.81978,-34.776050998 150.81978,-34.775993000500002 150.81967500799999,-34.775921997499999 150.81958899200001,-34.775921997499999 150.81948499200001,-34.775864999 150.81936300800001,-34.775735998500004 150.81936300800001,-34.775678001 150.819416,-34.775592993499998 150.819416,-34.775492002 150.819312,-34.775306003 150.81925900799999,-34.775263009 150.81917299200001,-34.775263009 150.819052,-34.775162998 150.81903401599999,-34.775063005500002 150.81887798400001,-34.774976999 150.81879100800001,-34.774863002 150.81887798400001,-34.774791 150.81887798400001,-34.774761992 150.81879100800001,-34.774704993500002 150.81848,-34.774332995500004 150.818444992,-34.774318991 150.818376,-34.774362003500002 150.818150016,-34.774233003 150.818012,-34.774203995 150.81794201599999,-34.774233003 150.81787299199999,-34.774218998500004 150.81769900800001,-34.774074994500005 150.81771699199999,-34.774061008499999 150.81761299199999,-34.773774998500002 150.817544,-34.773702996499999 150.81631299200001,-34.773015999 150.815776,-34.772773001499999 150.81572300799999,-34.772773001499999 150.81511500799999,-34.772534 150.81466601599999,-34.772473005500004 150.81444099199999,-34.772473005500004 150.81338300799999,-34.772629996500001 150.812794016,-34.772758997 150.81267299199999,-34.772758997 150.81149398400001,-34.77297400399999 150.81029801599996,-34.773274999 150.810124992,-34.773274999 150.80983001600001,-34.773346002 150.809136,-34.7735899985 150.808686016,-34.7737039955 150.80852796799999,-34.773780345 150.80818300799999,-34.773946993 150.807472,-34.77411900599999 150.80634499199999,-34.774606 150.805115008,-34.775250003499998 150.8043,-34.775622001500004 150.80416099199996,-34.775722993 150.803884,-34.775850994500004 150.803728,-34.775894007 150.80317299199999,-34.776165994 150.802548992,-34.776423995 150.80249699199999,-34.776423995 150.799983008,-34.777640999 150.798924992,-34.778183992500004 150.798596,-34.778285002499999 150.797764,-34.778684991 150.7974,-34.77889999799999 150.796776,-34.779400996500001 150.796099008,-34.779829993 150.795388,-34.780345995 150.795354016,-34.780345995 150.795076,-34.780517009 150.79453900799999,-34.780903992 150.794036,-34.7811759975 150.79365401599998,-34.781432999499998 150.79249299200001,-34.782320999500001 150.79211100800001,-34.782536006500003 150.79157401599997,-34.782935995 150.79016899199999,-34.784110005 150.789596,-34.784539001500001 150.78873001599999,-34.785255007 150.788296,-34.785627005 150.78820899199997,-34.785726997499999 150.787516,-34.786299998 150.787342016,-34.786500001500002 150.787152,-34.786643006499993 150.786666016,-34.787114997 150.78644,-34.787387002500004 150.785728992,-34.788045991 150.78396,-34.789562991 150.78344,-34.790107002 150.78298899199999,-34.790635991 150.782780992,-34.790822008500001 150.78245100800001,-34.791036997 150.78212099199999,-34.791323007 150.78133683199999,-34.792182739 150.78066601599997,-34.791543009 150.77719500800001,-34.788087005500003 150.777051008,-34.787944999499999 150.776736992,-34.787634995 150.76343900800001,-34.774500994 150.76333728,-34.774401112500001 150.763012992,-34.774081007 150.76297801599998,-34.774047004 150.76249404800001,-34.773576882 150.762339008,-34.773425996 150.76212899199999,-34.773221996499998 150.76064806400001,-34.771782881500002 150.76008608,-34.771236909500004 150.75959801600001,-34.770761996 150.75730201600001,-34.768529009 150.75715100799999,-34.768561994500004 150.75420416,-34.765494916500003 150.754129568,-34.765416458 150.754192192,-34.765319962 150.754192192,-34.76506995299999 150.75415513600001,-34.764848915 150.754040992,-34.76461896 150.754040992,-34.764475955 150.75390313599999,-34.763931907 150.75390313599999,-34.7637459635 150.75397331199997,-34.763544905499998 150.75397331199997,-34.763330971500004 150.75397513600001,-34.763181917 150.75395811199996,-34.762818928500003 150.75392412799999,-34.762621922 150.75388012799999,-34.762516934499999 150.75379212799999,-34.762405934500002 150.75357715199996,-34.762158922499999 150.75352416000001,-34.762076930500001 150.75341014399999,-34.761879924 150.753359168,-34.761752921499998 150.753339168,-34.761627917 150.753349152,-34.761469927 150.753392128,-34.761269923500002 150.753436128,-34.761161920500001 150.75345212799999,-34.761112932499998 150.75346412799999,-34.760945933 150.753459136,-34.760801929 150.753428128,-34.760664918 150.75339312,-34.760554917 150.75331913599999,-34.760327922 150.75319312,-34.760053918499999 150.75317113599999,-34.759997919 150.753140288,-34.759880906500001 150.75310896,-34.759780914 150.75288396799999,-34.759422902 150.75269424000001,-34.759178905500001 150.75265897599999,-34.759093953499992 150.75248617599999,-34.758921959 150.752392192,-34.758775883 150.75232099199999,-34.758619003 150.75230508799999,-34.758582928 150.75207721599998,-34.758274958500003 150.75188601599999,-34.758004007499999 150.75185004799999,-34.757953928 150.75173916799997,-34.757698942499992 150.75165529599997,-34.757589959 150.75158329600001,-34.757365942500002 150.75158329600001,-34.757044912 150.75159408,-34.756682941 150.75157033599999,-34.756444883 150.75160307199999,-34.756086963500003 150.751542976,-34.755747932499993 150.75150227200001,-34.755293887 150.751476,-34.754945939 150.75148896,-34.754677911 150.75152028799999,-34.7544219635 150.75165923200001,-34.75414089299999 150.75171107200001,-34.753925886 150.75169705600001,-34.753790965500002 150.75171107200001,-34.753625002 150.75165996800001,-34.753410994 150.75155484800001,-34.753253041 150.75155484800001,-34.753223977499999 150.75141696,-34.753110036 150.751191968,-34.7529809615 150.75117289600001,-34.752976022 150.75109116799999,-34.752939022 150.751019136,-34.752861932500004 150.75095411199999,-34.752779922 150.75088713599999,-34.752692916500003 150.75084611199998,-34.752613921499993 150.75081712,-34.752536924499999 150.750782112,-34.752414917 150.75072812799996,-34.752160930500004 150.75067513600001,-34.75193291799999 150.75066313599999,-34.751758925499999 150.75065900800001,-34.751646001499999 150.75067404800001,-34.751539941 150.75046912,-34.751508916500001 150.74975414400001,-34.751398934 150.748711168,-34.751239926499998 150.74687417600001,-34.750958948499999 150.74664217599999,-34.750923946500002 150.744648256,-34.750618955499995 150.743704256,-34.750473971 150.74041632000001,-34.749971973500003 150.73742137599999,-34.749514006 150.73442044800001,-34.749054022 150.73422643200001,-34.749025014 150.73434499199999,-34.748428000499999 150.7344,-34.748155995 150.73490099200001,-34.745637997 150.734936992,-34.745460008500004 150.73566700800001,-34.741797008500001 150.735703008,-34.741618002500005 150.73577001599998,-34.7412850025 150.73631801600001,-34.73853599499999 150.73636201599999,-34.738380003 150.736402016,-34.738202995 150.736168,-34.738171008500004 150.73565500800001,-34.738100005500002 150.73590931199999,-34.736802989 150.73590745599998,-34.736797883 150.73582537600001,-34.736610681500004 150.73563136000001,-34.736026988 150.73556233599999,-34.73572899 150.73552134399998,-34.735453987500001 150.735522304,-34.734583988 150.735522304,-34.734503975499997 150.73539830399997,-34.7339879735 150.73530131199999,-34.733610980500004 150.73520508799999,-34.733278443 150.735094336,-34.733025973499998 150.73498336,-34.732762977500002 150.73490035200001,-34.732453972 150.73477635200001,-34.732041977 150.734624352,-34.731651978500004 150.734444352,-34.731296982 150.73391833599999,-34.730357977499999 150.73379433599999,-34.730082975 150.733600352,-34.729761981500005 150.73347536,-34.729566973 150.73329536,-34.729372982 150.73318435199999,-34.729143989 150.73301833599999,-34.7288799755 150.73290736000001,-34.728685984500004 150.73265881599997,-34.728502224 150.732339392,-34.728239006 150.731979392,-34.727986 150.731674368,-34.727768995 150.73142544000001,-34.727516729 150.73123139200001,-34.727184006500003 150.731010368,-34.7268520055 150.73067836800001,-34.726198992500002 150.73059529599999,-34.725913204500003 150.73048438399996,-34.725626991 150.73031836800001,-34.725271994499998 150.73015238400001,-34.724894002500001 150.72996528,-34.724419644 150.72988937599999,-34.724229001499999 150.72976537599996,-34.723852008500003 150.72965436800001,-34.723542004 150.72959987199999,-34.7231988845 150.72960038399998,-34.722831992499991 150.72964236799999,-34.722534993499998 150.729744256,-34.7222175335 150.72976764800001,-34.722145624 150.72984854399999,-34.722006134 150.72999539200001,-34.722027002 150.73016937599999,-34.722050996500002 150.73146534399999,-34.722249982500003 150.73557328000001,-34.722806962 150.73658924799997,-34.717523954 150.73622224,-34.71747596499999 150.736240256,-34.717385962500003 150.73706921600001,-34.713185944500005 150.73507926399998,-34.71291997 150.73567420800001,-34.70960795199999 150.734069248,-34.7093849715 150.73462220799999,-34.706705968 150.73465923200001,-34.706526962 150.7349792,-34.7049769395 150.73499718400001,-34.704886937 150.73592515199999,-34.7003869415 150.74035708799997,-34.700966898 150.740523104,-34.700173914 150.745504,-34.700822894 150.74871692799999,-34.701241863500002 150.749052992,-34.69963142 150.749092,-34.699443996500001 150.74922,-34.699361005500002 150.74993286399999,-34.695931845499999 150.75117283200001,-34.69611383 150.751388832,-34.696145835 150.75336899199996,-34.696438005499999 150.75358499199999,-34.696468993 150.75360601599999,-34.696370998499994 150.75397401599997,-34.694694991 150.76470355199999,-34.692662747500002 150.764821536,-34.692684744 150.766604992,-34.692746996499999 150.76736748799999,-34.692599718 150.767859488,-34.692576722499993 150.76948944,-34.69199573 150.76959945600001,-34.691715714 150.76968144,-34.691324698 150.76971846399999,-34.691143712499994 150.77016899199998,-34.691461006 150.77052899199998,-34.691541 150.770744,-34.691574004 150.770903008,-34.691597998500001 150.77130598400001,-34.691689999 150.77172201600001,-34.691781000500001 150.772124,-34.6918949975 150.773122016,-34.692214992 150.773336992,-34.692266995499999 150.773552,-34.692318 150.773787008,-34.692421008 150.77400899200001,-34.692546993 150.77431401600001,-34.692695992 150.774675008,-34.6927869935 150.77504899199997,-34.692833003 150.77553401599999,-34.6929240045 150.775880992,-34.693015006 150.776422016,-34.693198008 150.776824,-34.693347007 150.777087008,-34.693496006 150.777296,-34.693712992500004 150.777504,-34.693964999500004 150.77776700800001,-34.6941820045 150.778032,-34.694313003 150.77811299199999,-34.694353999 150.77853001599999,-34.694467996 150.77897299200001,-34.694536002 150.77937500799999,-34.694536002 150.77976300799997,-34.694466997 150.78004099200001,-34.694409998499999 150.78029001600001,-34.694444001500003 150.78047523199999,-34.694520684 150.78059500800001,-34.694570005 150.780890016,-34.694672994500003 150.780956,-34.694696008500003 150.781386016,-34.694878992 150.781704,-34.694982 150.78207900800001,-34.695016003 150.782204992,-34.695008991499996 150.78249500800001,-34.694993007500003 150.782812992,-34.695026992 150.783019008,-34.695072002499998 150.78328499200001,-34.69513 150.78400601600001,-34.695347005 150.784491008,-34.695518000500002 150.785032,-34.695644004 150.78557801599999,-34.695846005500002 150.785988,-34.695998001500001 150.78639100800001,-34.696112997500002 150.786696,-34.69620399899999 150.787180992,-34.696250008500002 150.78774899199999,-34.696351999 150.78817900799999,-34.69646699499999 150.78818700799999,-34.696468993 150.788623008,-34.696591999500001 150.789524,-34.696810003499998 150.78998099200001,-34.696946996 150.790356,-34.697094996 150.790719008,-34.697283992 150.790730016,-34.697290004499997 150.791076992,-34.697518997499998 150.79147900800001,-34.697862006 150.79151401600001,-34.697978001 150.791742016,-34.697929993500004 150.791992,-34.697942 150.7922,-34.697998998500005 150.792519008,-34.698112995500004 150.79274,-34.698285008500001 150.792976,-34.698226992500004 150.79330899199999,-34.698193008 150.79382201599998,-34.698158006 150.794056,-34.698138007499999 150.79829801599999,-34.697767008500001 150.79829795200001,-34.697766546 150.79858956800001,-34.697812685 150.79878294399998,-34.69789253099999 150.79900492799999,-34.698029542 150.799185728,-34.698190140500003 150.79936595199999,-34.698418523 150.79949094400001,-34.698601525 150.79965692799999,-34.698670511499998 150.800280896,-34.698750524 150.80359385599999,-34.699264491 150.80455043200001,-34.699412694499998 150.8051328,-34.699515480500004 150.805617824,-34.699538476 150.80665779200001,-34.699560454 150.80730876800001,-34.699537458500004 150.80782176,-34.699560028500002 150.80826473600001,-34.699616453499999 150.80868073600001,-34.6997084355 150.80911072000001,-34.699845446499999 150.80956848,-34.700051518 150.81006771200001,-34.700188418 150.81053868799998,-34.700302988499999 150.81106537599999,-34.700382908500004 150.81159168,-34.700451432500003 150.81210464,-34.700393416499999 150.81248064,-34.700293405499998 150.81253366399997,-34.700279401 150.81288064,-34.70013040199999 150.81325561599996,-34.699948399 150.81368460799999,-34.699740385 150.81405763199999,-34.699534387500002 150.81454297600001,-34.699305339 150.8150136,-34.699018385500004 150.81548454399999,-34.698721368 150.81581456,-34.6984423695 150.81614956799999,-34.698159375 150.816357536,-34.6977933525 150.816481536,-34.697461351500003 150.81655068800001,-34.697117880500002 150.81657852799998,-34.696808357 150.81652252800001,-34.696465348499999 150.81643852799999,-34.69621336 150.81635552,-34.695881359 150.81629952,-34.695503348500004 150.816368512,-34.695068358 150.81649350399996,-34.694782329500001 150.81668748800001,-34.694473342500004 150.81692249599999,-34.694186333499999 150.81721350399999,-34.693980336 150.817559456,-34.693763331 150.81779484800001,-34.693488365500002 150.81801644800001,-34.693167316500002 150.818224448,-34.692938323500002 150.818348512,-34.692858459 150.81873641600001,-34.692617311500001 150.81915344000001,-34.692460302 150.81955344,-34.692308287499998 150.81966438399999,-34.692262296500004 150.82005238399998,-34.69210229 150.82062038399999,-34.691873278500005 150.82094412800001,-34.691762075 150.82125737599998,-34.6916552745 150.82185312,-34.691425911499998 150.82242134399999,-34.691254268500003 150.82307232,-34.691070249 150.82364028800001,-34.69092125 150.824374304,-34.690772232500002 150.82513625600001,-34.690588231500001 150.82564928,-34.690520225500002 150.82609222399998,-34.690508200499998 150.82653622399999,-34.690519208 150.827007232,-34.690496212500001 150.82751920000001,-34.690438196500004 150.82799020799999,-34.690312193 150.8284472,-34.690106177 150.829763136,-34.689281169499999 150.83012313599997,-34.689052139499999 150.83016115199999,-34.689018155 150.83038614399999,-34.688812157499996 150.83053715200001,-34.688597150500001 150.83002918400001,-34.691313172500003 150.83031616,-34.691564162 150.83073913600001,-34.692068176 150.83059699200001,-34.692754008 150.83051017599999,-34.693165189 150.83015321600001,-34.694878196499999 150.82920227199997,-34.69943125 150.82915126399999,-34.6996752465 150.82846230399997,-34.702802283 150.83115222399999,-34.703194261 150.8314824,-34.703222214500002 150.832400224,-34.703423235500004 150.83309321600001,-34.703408232 150.83369920000001,-34.703451244499995 150.833942208,-34.703436222500002 150.834165216,-34.703360224499995 150.83423619199999,-34.70333623 150.83486016000001,-34.703064224500004 150.835414176,-34.702777197 150.83574316799999,-34.702519196 150.835763168,-34.702477201 150.83591616,-34.702390195500001 150.83607212800001,-34.70233319699999 150.83626313600001,-34.702232205500003 150.83656812800001,-34.702161202500001 150.8365512,-34.701986525500004 150.83660665599996,-34.701723178 150.83668944,-34.7016087 150.83686915199999,-34.701402184500004 150.83707715200001,-34.701253185500001 150.837368032,-34.701184883499998 150.83797712000001,-34.701058158500004 150.83850384,-34.7009096775 150.83883648,-34.700795107 150.839127072,-34.700589165 150.839362432,-34.700314051500001 150.83952806400001,-34.70005014899999 150.839540064,-34.699993150499999 150.83956979199999,-34.699844706500002 150.83948608,-34.699627146499999 150.83945808,-34.699375139499999 150.839541376,-34.699215059 150.83974905599999,-34.699089148 150.840004032,-34.699036145500003 150.840350048,-34.699265157 150.84076604800001,-34.699623150500003 150.84118204800001,-34.699838157500004 150.841442048,-34.699938131499991 150.84192704,-34.700010133500001 150.842724,-34.7003821315 150.84307116799997,-34.700467139 150.84336700799997,-34.700657134 150.843625024,-34.700467139 150.84393702399998,-34.70033812 150.84424899199999,-34.700266118 150.84492396799999,-34.700266118 150.845616992,-34.700108091 150.84601494399999,-34.700086094500001 150.84663894400001,-34.700050093500003 150.84719296,-34.700093087500001 150.847418944,-34.700065097 150.84762691200001,-34.699978073 150.84807692800001,-34.699863077 150.84830192000001,-34.699735075500001 150.84852691200001,-34.69957706699999 150.848734912,-34.699362078500002 150.84894188800001,-34.698846076500004 150.849184896,-34.698631051 150.84963488,-34.698488064500005 150.849869888,-34.6983840575 150.85015488,-34.698258054 150.85032784000001,-34.698172047500002 150.85060486399999,-34.698100064 150.85093385600001,-34.698043028500003 150.851349728,-34.697999072500004 150.85222566399997,-34.697896286500004 150.852304,-34.697939003 150.852652992,-34.698103005500002 150.852699008,-34.698124003 150.85330201599999,-34.698425997 150.85386,-34.698774000500002 150.854603008,-34.699122004 150.85522899200001,-34.699494002 150.85585699200001,-34.699911991 150.85601900799998,-34.700259994500001 150.85601900799998,-34.700537994 150.85567100799997,-34.701002991500005 150.85513699200001,-34.701235 150.85446300799998,-34.70149000399999 150.85376700799998,-34.701769002500001 150.85283801599999,-34.701931007 150.85177001599999,-34.702047002 150.851259008,-34.7022559965 150.85098099199999,-34.702558009 150.850516992,-34.7028129945 150.850168,-34.703208006499999 150.84998201599998,-34.703602001 150.85002899200001,-34.704043004 150.85035398400001,-34.704508001500002 150.85070201600001,-34.704856005 150.851236,-34.705135003500004 150.85191001600001,-34.705528998 150.852396992,-34.706063000500002 150.85258300800001,-34.706574007500002 150.852280992,-34.707199992 150.85170099199999,-34.7075020045 150.850772,-34.707781003 150.85037699200001,-34.707874002499999 150.84990099199996,-34.708056005499998 150.84978,-34.708300002 150.849763008,-34.708413999 150.84979801599999,-34.708542999500004 150.85005801599999,-34.708743003 150.850248,-34.708957991499993 150.85031801599999,-34.709058002499994 150.850596,-34.709931998 150.850648,-34.710160991 150.85068099200001,-34.710862992 150.850787008,-34.7112069995 150.851238016,-34.711879992500002 150.85137699200001,-34.712238004499994 150.851463008,-34.712481002 150.851551008,-34.713068007 150.851586016,-34.713326008 150.85153401599999,-34.713770008 150.85144700800001,-34.714128001500001 150.85137801600001,-34.714299996 150.85115299200001,-34.714557997 150.85063401599999,-34.714960002 150.85037401599999,-34.715116993 150.84928201599999,-34.715361008 150.84869299199997,-34.71544799499999 150.84796499199999,-34.715620008 150.847532,-34.715792002500002 150.84729001599999,-34.715906998499996 150.846926016,-34.716164999500002 150.84644099199997,-34.716608999499996 150.84635299199999,-34.716693008 150.846216,-34.716980997499995 150.846216,-34.717325005 150.84633801599998,-34.717682998499996 150.84671900800001,-34.7181990005 150.847014016,-34.718670991 150.847448,-34.719071997 150.847604,-34.719257996 150.847812,-34.719745008499999 150.847880992,-34.72003199899999 150.84805500799996,-34.720460995499998 150.84809001599996,-34.720718996500004 150.847744,-34.721219995 150.84764,-34.721477996 150.847240992,-34.721864997499999 150.847068,-34.722108994 150.84689500799999,-34.722639000500003 150.84680899200001,-34.722824999499998 150.846566016,-34.723083000500004 150.846236992,-34.723326997 150.84622,-34.723427008 150.84615100799996,-34.72395999299999 150.84622099200001,-34.724400996 150.84615100799996,-34.72484199899999 150.846058016,-34.725120997499999 150.846035008,-34.725446005500004 150.84580300799996,-34.725747999500001 150.84552499200001,-34.726281003 150.845339008,-34.726630005499992 150.84480099199999,-34.726864992499991 150.844056,-34.727281002 150.843606016,-34.727410002500001 150.843311008,-34.7275540065 150.843,-34.727855001500004 150.84272198400001,-34.728241004 150.84265299200001,-34.728412998499998 150.84251500799996,-34.728628005499999 150.84239299199999,-34.7287430015 150.84215100799997,-34.728900991499998 150.84161401599999,-34.729144007500004 150.841024992,-34.729301997500002 150.84029216,-34.729428001 150.84010601599996,-34.729460006 150.839708,-34.729589006499999 150.83930899199999,-34.729890001500003 150.838842016,-34.730376995500002 150.83837401599996,-34.7310079935 150.838096992,-34.731309007 150.83757699200001,-34.731753007 150.83753753600001,-34.731791505499999</coordinates></LinearRing></outerBoundaryIs></Polygon>

	</Placemark>
</kml>