<?xml version="1.0" encoding="UTF-8"?>
<kml xmlns="http://www.opengis.net/kml/2.2">
	<Placemark>
		<Style>
			<LineStyle>
				<color>ff0000ff</color>
			</LineStyle>
			<PolyStyle>
				<fill>1</fill>
				<color>330000cc</color>
			</PolyStyle>
		</Style>
			<ExtendedData><SchemaData>
		<SimpleData name="STATE_2006">1</SimpleData>
		<SimpleData name="POA_2006">2730</SimpleData>
	</SchemaData></ExtendedData>
      <Polygon><outerBoundaryIs><LinearRing><coordinates>148.15668022400001,-35.533179500500005 148.15702921600001,-35.533148494500004 148.15706521600001,-35.533163498 148.157396224,-35.533103502499998 148.157617184,-35.532967490499999 148.158002176,-35.532531501 148.15851513600001,-35.531884500499999 148.15877216000001,-35.531493503 148.159047104,-35.531207474499993 148.159396128,-35.530996482 148.15987312,-35.530559475 148.16013008,-35.530319474500004 148.16082707199999,-35.529852479 148.161745056,-35.529144465500003 148.16198403199999,-35.528978465 148.16198403199999,-35.528948458 148.16207603199999,-35.528918451 148.162589024,-35.528451455500004 148.162845984,-35.528136456 148.16306598399999,-35.527985459 148.16315798400001,-35.527940467 148.1633,-35.527925463500004 148.16330499200001,-35.527924464500003 148.163488992,-35.527924464500003 148.16448195199999,-35.528043456500001 148.164849952,-35.528163466 148.165143968,-35.528357457 148.16532796800001,-35.5285684495 148.16534694399999,-35.5285684495 148.16541996800001,-35.528733451 148.16554995199999,-35.529093461 148.16573398400001,-35.5295294505 148.16608499200001,-35.530235466 148.16630598399999,-35.530640449499991 148.16639798400001,-35.530715467 148.16639798400001,-35.530745455500004 148.166637984,-35.5309554675 148.16709798400001,-35.531195449500004 148.16731897599999,-35.531360451 148.167484,-35.531570463 148.16755798400001,-35.531735464500002 148.16761299199996,-35.531780456500002 148.16772499199999,-35.532186457500003 148.167798976,-35.532607462 148.168002016,-35.53326846699999 148.16842700800001,-35.534003453499999 148.16842700800001,-35.534048464 148.16864803199999,-35.534318453 148.169016032,-35.534649455 148.169127008,-35.534739457499995 148.169679008,-35.535053458 148.17021203199999,-35.535233463 148.17094700799998,-35.535337451499991 148.17129699200001,-35.535336452500005 148.17151699199999,-35.535291460499998 148.171756,-35.535095453 148.172030976,-35.534734444 148.17226896,-35.5345694425 148.172581952,-35.534433449 148.17304096,-35.534342447500002 148.173371968,-35.534371437 148.17372092799999,-35.534431432499993 148.17394192,-35.534536438499998 148.173978912,-35.534536438499998 148.173978912,-35.534596434 148.17430992000001,-35.5348964485 148.17440291200001,-35.535091438499997 148.17442096,-35.535181441 148.17462396799999,-35.535421441499992 148.17484496,-35.535526447500004 148.175451936,-35.535646438500002 148.17587491200001,-35.535735442 148.175857952,-35.536487448500004 148.17582195200001,-35.536727449 148.175822944,-35.537358447 148.175914944,-35.537569439499997 148.176025952,-35.537689449 148.17644896,-35.537868436499998 148.17661494399999,-35.538003431 148.17674396800001,-35.538199438500001 148.17676294399999,-35.538439439 148.176634976,-35.538649432500002 148.17645097600001,-35.538785444499993 148.17606499199999,-35.5388614425 148.1759,-35.538921438 148.17578998400001,-35.539042465 148.17578998400001,-35.539312454 148.17592003199999,-35.539567458 148.17604902399998,-35.539792455 148.176141024,-35.540078465 148.17616003200001,-35.540258451500002 148.17619801599997,-35.540709463 148.176493024,-35.541265462 148.176549024,-35.541505462499998 148.176550048,-35.542001466 148.17669705599999,-35.542211459500002 148.17699206399999,-35.542481467 148.17717606400001,-35.542571451 148.17756304,-35.542691460500002 148.17818902400001,-35.542743464 148.178280032,-35.542750457 148.17853702400001,-35.5427954675 148.17875801599999,-35.542839460499998 148.17894201600001,-35.542989458500003 148.17907100799999,-35.5431694635 148.17980803200001,-35.543679453 148.18013900799997,-35.543859458 148.18028700799999,-35.544024459500001 148.18026803199999,-35.544144450499999 148.180103008,-35.544310451 148.180005024,-35.544361455500002 148.179901024,-35.544416456 148.17951504000001,-35.544551450500002 148.17940505600001,-35.544657455500001 148.17938704,-35.5447324545 148.17942406399999,-35.544867467499998 148.179645056,-35.545047454 148.180050048,-35.5452124555 148.18045504,-35.545316462500004 148.18107104000001,-35.545580457500002 148.18154102400001,-35.54578146 148.18233203200001,-35.546125467499998 148.18273702400001,-35.546380453 148.18312403199999,-35.546515466 148.18406201600001,-35.546664446500003 148.18454,-35.546873441 148.18522099200001,-35.547293446499992 148.185404992,-35.547383449 148.185718976,-35.547638434500001 148.18588499200001,-35.547908442 148.185866976,-35.548179448499994 148.18579401599999,-35.54847946299999 148.18583203200001,-35.54882545 148.185924032,-35.549080454 148.18590700799999,-35.549426459500005 148.18576105599999,-35.549772465 148.18570604799999,-35.550013464500005 148.18570704000001,-35.550283472 148.18589206399997,-35.550734483500001 148.185948064,-35.551260475500001 148.18613308799999,-35.551680481 148.18646508800001,-35.552116470500003 148.18666809600001,-35.5522964755 148.18696307199997,-35.552566483 148.18703708800001,-35.552761491499993 148.187075072,-35.553152489 148.187088096,-35.553163496499998 148.18709308800001,-35.553167492500002 148.18713107199997,-35.553542487500003 148.187132096,-35.553843501 148.18694812800001,-35.55414449599999 148.186691104,-35.554249502 148.18599312000001,-35.554371509500001 148.18580915199999,-35.554521507499999 148.18571814399999,-35.554657519500005 148.18566313599999,-35.554973518 148.185647168,-35.556010535499993 148.18548316799999,-35.556296527 148.185244192,-35.5565365275 148.185042176,-35.5566125255 148.18465622400001,-35.556702528 148.18436220800001,-35.556898535500004 148.18412422399999,-35.556974533500004 148.1835352,-35.557065553500003 148.18307625599999,-35.557276546 148.18291123200001,-35.557412558 148.18287424,-35.557547552499997 148.18287424,-35.557624549499998 148.18287628799999,-35.558103551499997 148.18280227199998,-35.55822456 148.182692288,-35.558314544 148.182692288,-35.558344551 148.18245328,-35.558449575499992 148.18221526400001,-35.558495566499992 148.181792288,-35.5584965655 148.18142432,-35.55843657 148.18116630399999,-35.558301575500003 148.180982304,-35.558151577499999 148.18076032,-35.55795656899999 148.18066832,-35.557926562 148.18041129599999,-35.55795656899999 148.18024630400001,-35.558047570500001 148.18015430400001,-35.558152576499992 148.18011731199999,-35.55828857 148.180137312,-35.558588566 148.18024832,-35.558859572500005 148.18041433599998,-35.559099573 148.18046934399999,-35.559249571 148.18047033600001,-35.55944456099999 148.18043334399999,-35.559550584500002 148.180397344,-35.55961058 148.17986435200001,-35.559791584 148.179532352,-35.559761595499999 148.17903536,-35.559612596500003 148.17841036799999,-35.559492587 148.17791337599999,-35.559538596499998 148.17776736,-35.559569584 148.17762038399999,-35.559659586500004 148.17738140799997,-35.559840590500002 148.17721641599999,-35.559990588499993 148.17710640000001,-35.560231606500004 148.17705139200001,-35.5604416 148.17705244800001,-35.560877608 148.17716444799998,-35.561538613 148.17733043199999,-35.561914607 148.177552448,-35.562274617 148.177755424,-35.562439618500001 148.17797644800001,-35.562589616499999 148.178068448,-35.562739633 148.17808848000001,-35.56331161599999 148.17819945599999,-35.563596627 148.178218464,-35.563927629 148.17820048,-35.564122619 148.17810947199999,-35.564453639500002 148.17796249599999,-35.564769638 148.17779750400001,-35.564964646500002 148.177632512,-35.565039645500001 148.17735651199999,-35.56510064 148.17719148800001,-35.565281644 148.17715548800001,-35.565431642 148.17711849599999,-35.565461649 148.177082528,-35.565852665 148.17700953600001,-35.5661986705 148.17701052800001,-35.566501663499999 148.17701257600001,-35.567340657 148.17673756799999,-35.567957687499998 148.17651760000001,-35.568302675499993 148.1763536,-35.568588685500004 148.17607859200001,-35.569024693499998 148.17584064,-35.569611698500005 148.175657632,-35.570032703 148.175565632,-35.570318694500003 148.17554867199999,-35.570573698499999 148.17549366399996,-35.570844723500002 148.175420672,-35.571009725 148.17532867200001,-35.571190710499998 148.17518166400001,-35.57131072 148.17514569599999,-35.571566723 148.17520169599999,-35.571746709500005 148.17540470399999,-35.572257716500005 148.17540470399999,-35.572302708500004 148.17571968,-35.572903736500002 148.175940704,-35.573383737500002 148.17629168,-35.573969743500001 148.17647673600001,-35.574434741 148.176716736,-35.574765743 148.17673772799998,-35.574788738500004 148.17704873599999,-35.575125753 148.17739872,-35.575395760500001 148.17754672000001,-35.575620757500005 148.177583712,-35.575801761500003 148.177584736,-35.57631275 148.17764073599997,-35.576447763 148.17787971199999,-35.576687763500004 148.17802771199999,-35.576882753499994 148.17812073600001,-35.577243781 148.178158752,-35.577724781 148.17817776000001,-35.577904767500002 148.17828876799996,-35.57829476599999 148.17847276800001,-35.578610764499999 148.17862076799997,-35.578730774 148.17898876800001,-35.5790007815 148.17917376,-35.579105769 148.179228768,-35.579150779500004 148.179339744,-35.579270770500003 148.179984768,-35.579991771 148.18042774399999,-35.580306770500002 148.180758752,-35.580455769499999 148.18177075200001,-35.580544773 148.18219475199999,-35.580694771 148.18250774399999,-35.580904764499998 148.18274774400001,-35.581219764 148.18276576,-35.581219764 148.18278476799998,-35.581309766499999 148.18287776,-35.581564770500002 148.18295276799998,-35.582181782500001 148.18298976,-35.582316795499999 148.182990784,-35.582707793 148.18297379200001,-35.583338791 148.18313977599999,-35.583383783 148.18332377599998,-35.583548784500003 148.1835088,-35.583803788499999 148.18363779200001,-35.584149794 148.183766784,-35.584299792 148.18439379200001,-35.584734801 148.18481779199999,-35.585124818 148.185757792,-35.585648812 148.18607078400001,-35.585934803500002 148.18660579199999,-35.5865198105 148.18673577600001,-35.586774814500004 148.18690182399999,-35.586969804500001 148.18728883200001,-35.587269837500003 148.18771280000001,-35.587494834499999 148.18771280000001,-35.587524823 148.18780480000001,-35.587539826499992 148.18820979200001,-35.587779827 148.18857878399999,-35.5879148215 148.18913078400001,-35.588048835499997 148.18983078400001,-35.588273832500001 148.19005177599999,-35.588302822 148.19075075200001,-35.588286819499999 148.191228768,-35.588226824 148.192130752,-35.588194837499998 148.192332736,-35.588284821500004 148.19233376,-35.58847983 148.19207676799999,-35.588901833500003 148.192095744,-35.589051831500001 148.19222476799999,-35.589216833 148.19226176000001,-35.589336842500003 148.19224476799999,-35.589562838500001 148.19217078400001,-35.589787854 148.19217078400001,-35.589821838500001 148.19217177599998,-35.590163848 148.1919888,-35.590449839500003 148.1920448,-35.5906598515 148.19202681600001,-35.591065871 148.19193580800001,-35.591471872 148.19175286399999,-35.592012867500003 148.19149785600001,-35.59268987499999 148.19138784,-35.592944879 148.191277888,-35.593410875499998 148.19118688,-35.593591879500003 148.19100288000001,-35.593816895 148.19094787200001,-35.593937903499999 148.19096688,-35.594042909500004 148.19105888000001,-35.594147897 148.19139088,-35.594252903 148.19148288,-35.594357909 148.19148390399999,-35.594642901500002 148.191336928,-35.594913908 148.19126390400001,-35.595184896 148.19126492800001,-35.595529921 148.19137593599999,-35.596010921 148.19139593599999,-35.596611912 148.19143296,-35.596746925 148.191415968,-35.597257932 148.19143497600001,-35.597528938499998 148.191527968,-35.597798946 148.19165699199999,-35.597963947499998 148.19195196799998,-35.598128930500003 148.19204396800001,-35.598218933 148.19215497599998,-35.598398938 148.19226598399999,-35.59872994 148.19230502400001,-35.599525958 148.192232,-35.599976951 148.19223404799999,-35.601013968499998 148.19227104000001,-35.601193973500003 148.19238204800001,-35.601389981 148.192825056,-35.601764976 148.19284304000001,-35.601764976 148.19300905599999,-35.602004976499998 148.19306505599999,-35.602184981500002 148.19304704000001,-35.602424982 148.19291904,-35.602560975500005 148.19271708799999,-35.60269597 148.192680064,-35.602801975 148.192736064,-35.6029219845 148.19303107199997,-35.603131978 148.19327008,-35.603296979500001 148.19332608,-35.603402004 148.19332608,-35.603806987500001 148.19329008,-35.604092997500004 148.19330908800001,-35.604349000500001 148.193346112,-35.604483995 148.19354912,-35.604754002500002 148.19382611200001,-35.605069002 148.194011104,-35.605428993499999 148.194031104,-35.605940019 148.19408611200001,-35.60606001 148.194639104,-35.606465012 148.194934112,-35.6067350195 148.19519312,-35.606900021 148.19519312,-35.606930009500005 148.195248096,-35.606930009500005 148.195340096,-35.607020012 148.19535811200001,-35.607020012 148.19543209599999,-35.607155006500001 148.19543312,-35.60745602 148.195396096,-35.607561007500003 148.19536009599997,-35.607576011 148.19526812800001,-35.6077720185 148.19526812800001,-35.607967008500005 148.19537913600001,-35.608147013500002 148.19552713600001,-35.608297011499999 148.19560115199999,-35.608447009500004 148.19558313600001,-35.6088080185 148.19542313599999,-35.609138021500002 148.19540012799999,-35.609184012500002 148.19534518399999,-35.60938002 148.19532716800001,-35.609605017 148.19527216,-35.609710004500002 148.19538316800001,-35.609860021 148.19555017600001,-35.6103260175 148.195587168,-35.610626013500003 148.19556918399999,-35.610942012 148.195533184,-35.61109201 148.195498208,-35.611663012500003 148.19540620800001,-35.611904012 148.19527820799999,-35.612069013499998 148.1949472,-35.612295009499995 148.19452422399999,-35.612476032 148.19430224000001,-35.612672039499998 148.194285248,-35.612687024499998 148.19412022399999,-35.612943027500002 148.19401027200001,-35.613258027 148.19393728,-35.613649024499999 148.19392128000001,-35.6145960395 148.19381129600001,-35.615032029 148.19357331200001,-35.615603031500001 148.19331632000001,-35.616039039500002 148.19298633599999,-35.61640003 148.192949344,-35.616415033500004 148.19221436800001,-35.61697205 148.192140352,-35.617093058500004 148.19215936000001,-35.617333059 148.19232636800001,-35.617663025 148.19238137599999,-35.6178890395 148.19236438399997,-35.618310025500001 148.192309408,-35.618475027 148.19229238400001,-35.619302032499995 148.192219424,-35.619602028500005 148.19210944,-35.6199630375 148.19183443199998,-35.620489048 148.19163347199998,-35.620775058 148.19144947199999,-35.621151052 148.19130345600001,-35.6215870415 148.19126646399997,-35.621797053500003 148.19124950400001,-35.622203054499998 148.19114048,-35.622624059 148.19110348800001,-35.622864059500003 148.19106649599999,-35.622924055 148.19104848000001,-35.623045045 148.19097548799999,-35.623255057 148.19097552,-35.623451046 148.19103353599999,-35.623901058500003 148.19103251199999,-35.623922056 148.19094956800001,-35.625458037 148.19072262399999,-35.629391026 148.18831472,-35.631759026 148.18588774400001,-35.631587031500004 148.18463081600001,-35.633944042499998 148.183364896,-35.63798505299999 148.18417091200001,-35.638690051 148.182302048,-35.642644074499998 148.178891136,-35.644113085500003 148.17825216,-35.645264081500002 148.174722272,-35.646287113 148.171999328,-35.647584129500004 148.16862537599999,-35.647485136 148.16589740800001,-35.646538139500002 148.16491446399996,-35.646526151499998 148.16418265599998,-35.656011175499998 148.16537968,-35.658485180499994 148.16146476799997,-35.65840217099999 148.16015990400001,-35.664332198 148.157252992,-35.666248224500002 148.153687104,-35.667121221 148.15133014399999,-35.667153244499993 148.14966816,-35.666144236 148.14766019199999,-35.666652227500002 148.145216288,-35.667875262499997 148.13877529600001,-35.662557234 148.13801926400001,-35.660874233500003 148.13651424,-35.658148221499999 148.13695923200001,-35.656602195 148.141065088,-35.6555242 148.14187206399998,-35.6549921955 148.141084992,-35.650504169500003 148.13967196799999,-35.647978161 148.139679968,-35.647925158500001 148.13988396799999,-35.646627143 148.14151392,-35.6470851475 148.14260489599999,-35.647391137500001 148.14493385599999,-35.647765170500001 148.14772579199999,-35.647727153 148.14826678399999,-35.647064168500002 148.14750374400001,-35.644688139499998 148.147460736,-35.644668141 148.14719475199999,-35.644496146500003 148.14698473600001,-35.644318139500001 148.14682374399999,-35.644147144 148.14669772799999,-35.643969137 148.14656473599999,-35.6437911485 148.14632675199999,-35.643516146 148.14609574400001,-35.64329214799999 148.145906752,-35.643149143 148.14571075200001,-35.642994131500004 148.145479744,-35.642799123 148.14526972799999,-35.642598120500004 148.145108736,-35.64243212 148.14496873600001,-35.642243124 148.14487772800001,-35.642082118499999 148.14478774400001,-35.641859119500005 148.144745728,-35.641670123499999 148.14473974399999,-35.64154412 148.144781728,-35.641172122 148.14478275199997,-35.6410001275 148.14474073599999,-35.640845116 148.14466374400001,-35.640645131 148.14455974399999,-35.640485124500003 148.144419744,-35.640341120500004 148.14431475200001,-35.6402611265 148.14420275200001,-35.640158118500004 148.14406972800001,-35.640043122500003 148.14387273599999,-35.639905112500003 148.14372572799999,-35.639819106 148.14359273599999,-35.6397271055 148.14340374400001,-35.639549098499998 148.143249728,-35.639372109 148.14316675200001,-35.639234099 148.14306172799999,-35.639034114 148.14297772800001,-35.638822104 148.14291574399999,-35.638598106 148.14285971199999,-35.638352111499998 148.14284672,-35.638140101499999 148.14284672,-35.637934104 148.142867712,-35.637682097 148.14293171200001,-35.637419101 148.14300268799997,-35.637202096 148.14317168,-35.636835093 148.14322768,-35.636681080500004 148.143236672,-35.636623083 148.14325667200001,-35.636487089500001 148.14324268799999,-35.63632009 148.143201664,-35.636177085 148.14311766399999,-35.636028086 148.14290064,-35.635690091 148.14280963199997,-35.635484093499997 148.142719648,-35.635243094 148.14263664000001,-35.634820073 148.14258064000001,-35.634630078 148.14248963200001,-35.634350062 148.14238563200001,-35.634075078 148.14227363199998,-35.633851061500003 148.1421416,-35.633599073 148.141826624,-35.633141068499995 148.14172160000001,-35.632997064500003 148.14160960000001,-35.63282507 148.1414496,-35.632608065 148.1412536,-35.632384048500001 148.14112761600001,-35.632264057499995 148.140826624,-35.631971054499999 148.140714624,-35.631799041500003 148.1406376,-35.631622052 148.140568608,-35.631341055500002 148.140443584,-35.6308660495 148.140283584,-35.630167045500002 148.14022156799999,-35.6296920395 148.140159584,-35.62937704 148.140089536,-35.6290670355 148.13999254399999,-35.628707025499999 148.13989456,-35.628374025500001 148.13972054399997,-35.627865035 148.13968656,-35.627670026499999 148.13969350400001,-35.627492038 148.13970752,-35.62735502699999 148.13981452799999,-35.626880021 148.13990652800001,-35.626640020499998 148.140011488,-35.62640002 148.14013148800001,-35.626159020500005 148.14021648,-35.625925014 148.140301472,-35.625685013500004 148.14036448,-35.625450008 148.14039846399999,-35.625255018 148.140450464,-35.624924016 148.14047846399998,-35.624689010499999 148.14047945600001,-35.624471006500002 148.14046544000001,-35.624258996500004 148.140459424,-35.624013002 148.14047443199999,-35.6236299965 148.140516416,-35.623450990500004 148.14057942400001,-35.623128998 148.1406184,-35.622836994 148.1406504,-35.622533002 148.14068838399999,-35.621943 148.14069337599997,-35.621850999500005 148.14074137599999,-35.621655991 148.140830368,-35.62145497 148.14092636800001,-35.621258981 148.141065344,-35.621063972499996 148.141377312,-35.620700984 148.14170432,-35.620400969500004 148.14189232,-35.62023397 148.14212931200001,-35.62004897 148.14231728,-35.619893977 148.142547296,-35.619719984500001 148.14281129599999,-35.619534966 148.14304928000001,-35.619390962 148.143292256,-35.619228957499999 148.14334025599999,-35.6190849535 148.14338124799997,-35.618895957499994 148.14342124800001,-35.61868996 148.14341724799999,-35.618248957 148.14333824,-35.618031952 148.14322422399999,-35.617888965500001 148.14308224000001,-35.617757967 148.14294822399998,-35.617603954499998 148.14284822400001,-35.617449960499997 148.142748224,-35.617244962 148.14265523200001,-35.617032952 148.14255222400001,-35.616851948 148.142365216,-35.6167599475 148.14211222399999,-35.616709942 148.141824224,-35.616665949 148.141332224,-35.616610967 148.14091827199999,-35.616550953 148.14044726399999,-35.616472957 148.14005427199999,-35.616417956499994 148.13967427200001,-35.616311951500002 148.13941427200001,-35.616181952 148.13918825600001,-35.616010956499998 148.138934272,-35.61584096 148.13860227199999,-35.615641955500003 148.138214272,-35.615449962500001 148.13802425599997,-35.615278967 148.13790326399996,-35.615090951500001 148.13781625600001,-35.614867952499992 148.137717248,-35.614684950499999 148.137617248,-35.61450796099999 148.137436256,-35.614227945 148.13730425599999,-35.613999932500001 148.13711824000001,-35.61364094 148.13701721599998,-35.613417941 148.13693123199999,-35.61315494499999 148.13687923200001,-35.6128859365 148.13688422399997,-35.612616946500005 148.13685424,-35.612341944 148.1367952,-35.612083943 148.13670819199999,-35.611775936499996 148.1365792,-35.611460937 148.13643619199996,-35.611209947500001 148.13630118399999,-35.611009944 148.1361032,-35.610827941 148.1359192,-35.610645938 148.13568518399998,-35.610389935 148.1354792,-35.610086942 148.13537216,-35.609841946499998 148.13529916799996,-35.609583945499999 148.135226176,-35.609269926499998 148.13511817599999,-35.608920924 148.13503216000001,-35.608584927 148.13495116799996,-35.608354916499991 148.13472912,-35.607759919500005 148.13466313599997,-35.607467915500003 148.13461113599999,-35.607153915 148.13453014399997,-35.606781917 148.134436128,-35.606461922500003 148.13435011199999,-35.606221922 148.134303104,-35.605882928 148.13428108799999,-35.605637914 148.13427209599999,-35.605356917500004 148.134255104,-35.605099897 148.13422406399999,-35.604703904499999 148.13415705599999,-35.604343894499998 148.13409206399996,-35.604040901499999 148.13401408,-35.6037898935 148.13391107199999,-35.603479907500002 148.13379606399999,-35.603182908500003 148.13361004800001,-35.602731897 148.13353804799999,-35.602519905500003 148.13341603200001,-35.60227491 148.133274048,-35.6020629 148.13309702399999,-35.601857901500004 148.13289904000001,-35.601675898499998 148.13270704000001,-35.601536908 148.13242604800001,-35.60138691 148.13215203199999,-35.601267899499994 148.131800032,-35.601149906499998 148.13146304,-35.601054909 148.13116707200001,-35.6009529 148.13088608000001,-35.600879899 148.13074208,-35.600858883 148.13061206399996,-35.600846876499993 148.13046505599999,-35.600836886499998 148.13019907200001,-35.60086188 148.12988307200001,-35.600902876 148.12955408,-35.600979891499996 148.129282112,-35.601072891 148.12899510399998,-35.601200892500003 148.12868108800001,-35.601362878499998 148.12843708799997,-35.601524883 148.128180128,-35.601714878 148.127943136,-35.601928886 148.12777612799999,-35.602106893 148.12766412799999,-35.6022108815 148.12760214400001,-35.602268879 148.12752912,-35.602307877 148.12742812799999,-35.602361878499998 148.12730915200001,-35.602418877 148.12707116799999,-35.602460872 148.12642716799999,-35.602590871499999 148.12571318400001,-35.602691863 148.12480918399999,-35.602846874500003 148.12422822399998,-35.602917840499998 148.12385024,-35.602983848500003 148.12333923200001,-35.603083841 148.12298224,-35.603165851500002 148.12261827200001,-35.603265844 148.122275264,-35.603381839 148.12195427199998,-35.603527841 148.121542304,-35.603724829 148.12130528,-35.60390883 148.12109529599999,-35.6040408275 148.12101929599996,-35.604088835 148.12078230399999,-35.604211823 148.120586304,-35.604227825500004 148.12041030399999,-35.604183832499992 148.12005132799999,-35.604076828499998 148.11984131199998,-35.604031836499999 148.11960233600001,-35.603964829500001 148.119425312,-35.603856808 148.11928432,-35.603748805 148.119079328,-35.603566802 148.11882531200001,-35.603367816 148.11875932800001,-35.603319808499997 148.118267328,-35.602964812 148.11789433600001,-35.602731804500003 148.11752032000001,-35.602527805 148.117231328,-35.602379786500002 148.11688633599999,-35.602221796500004 148.116625312,-35.602056795 148.11644131200001,-35.601909794 148.116265312,-35.601801791 148.11606832,-35.601733785 148.11582233600001,-35.601700799500001 148.11545833599999,-35.601697784 148.115072352,-35.601688793 148.114385344,-35.601626781 148.11407536,-35.601596774 148.11364736,-35.601564769 148.11326134399999,-35.601554779 148.11281238399999,-35.601551782 148.11239939199999,-35.601542754 148.111999392,-35.601562752500001 148.11157939200001,-35.601593758500002 148.111011424,-35.601648759 148.110798432,-35.601664761500004 148.110682432,-35.601672753500004 148.11039443199996,-35.601680745499991 148.11003641600001,-35.601670755500002 148.109559456,-35.601616735500002 148.109152448,-35.60152973 148.10510150399998,-35.601706719499994 148.10244457600001,-35.603005678500004 148.099907648,-35.603642689 148.09844268799998,-35.603570687 148.098603744,-35.607027671 148.09454992,-35.612169727500003 148.09402595200001,-35.612213739 148.09279100800001,-35.61231574799999 148.09257500800001,-35.612333748499999 148.091017024,-35.612461768500005 148.09097302399999,-35.612465764500001 148.09069203199999,-35.612587772 148.09091203200001,-35.612284779 148.091183008,-35.611927747500005 148.091531008,-35.611570753 148.091855968,-35.611150729 148.09228096,-35.61069574 148.092690944,-35.610303725 148.09288492799996,-35.610125718 148.09326192,-35.609777714499998 148.09343590399999,-35.609606700500002 148.09419286400001,-35.608834677 148.09433888000001,-35.608633674499998 148.09440086399997,-35.608466675 148.09440585600001,-35.608312681 148.09438886399997,-35.607928676500002 148.09437884799999,-35.607596675499998 148.09438083200001,-35.6070117055 148.09437683199999,-35.606513704 148.094351808,-35.606072701 148.09431379199998,-35.605769708 148.09422681599997,-35.605403704 148.09409779200001,-35.6050377 148.094045792,-35.604913694499999 148.09378976,-35.604288709 148.093574784,-35.603779718499993 148.09340976,-35.603414713500001 148.093280768,-35.603077717499993 148.09317273600001,-35.602739741 148.093146752,-35.60263973 148.09304774399999,-35.602488733 148.09267772800001,-35.601925741 148.09277574399999,-35.601613738499999 148.092897728,-35.60122374 148.092961696,-35.601016743500004 148.09302169599999,-35.600632739 148.09310169599999,-35.600384728 148.093164704,-35.600190737 148.093253664,-35.599886763499995 148.09332668799999,-35.599450755500001 148.09335168000001,-35.599084751500001 148.093341632,-35.598746756499992 148.093311648,-35.598531749500005 148.09330464000001,-35.598482761499994 148.093253632,-35.598242761 148.09314364799999,-35.59795775 148.09305264,-35.5977567475 148.092882656,-35.597499764 148.09264864,-35.597220765499991 148.092499648,-35.597055764 148.09218163199998,-35.596736768500001 148.091835648,-35.596463764 148.09135564799999,-35.596116796499999 148.09086864,-35.595735789 148.09050864,-35.5954288 148.090126656,-35.595052806 148.08980262399999,-35.5946928145 148.08971561599998,-35.594596818 148.08947462399999,-35.594265816 148.089232608,-35.593848807500002 148.08904662399996,-35.593333823 148.088951616,-35.59292182799999 148.08889859199999,-35.592498825500002 148.08888057599998,-35.592057822500003 148.08892556800001,-35.591501823500003 148.08902656000001,-35.591031831 148.089176544,-35.5905608395 148.08937552,-35.590089848 148.08964451200001,-35.589566853 148.089859488,-35.589210839 148.09021248,-35.588761844 148.09054944,-35.588531852 148.09093046399997,-35.588226842499999 148.09195942400001,-35.587425848 148.092264384,-35.586739849499999 148.092264384,-35.586167848 148.09230236799999,-35.585786840499999 148.09220435200001,-35.585514853500001 148.09226336,-35.5850328545 148.09230032,-35.584442871 148.09230332800001,-35.583989861499994 148.09226432,-35.583503866500003 148.09221232,-35.583137862500003 148.09216729600001,-35.582753858 148.092151296,-35.582490862 148.09214230399999,-35.582324861499998 148.092104288,-35.581997892499999 148.09201728,-35.581637882500004 148.091865248,-35.58113488599999 148.09171427199999,-35.580676881500004 148.091528256,-35.58024289 148.091371264,-35.579922895500005 148.09131324800001,-35.579814911 148.09087222400001,-35.578991901500004 148.09038723200001,-35.578031918 148.090109216,-35.577489923500003 148.0896032,-35.576512901500003 148.0894112,-35.576146897500003 148.089140192,-35.575581907500002 148.088961184,-35.57512490199999 148.088816192,-35.574592897500004 148.08876316800001,-35.57419191 148.08877315199999,-35.573664900499999 148.088825152,-35.5731659 148.08891216000001,-35.5727589 148.08903513600001,-35.572328886 148.089151136,-35.5719728905 148.08935712,-35.57147289099999 148.08951510399996,-35.571156892499999 148.08976409600001,-35.570766875499999 148.09002108799999,-35.570415875 148.09038105600001,-35.569897856499999 148.090657056,-35.569443866500002 148.090913024,-35.568972856500004 148.09115404799999,-35.568495871 148.09125004800001,-35.568271873 148.09147001599999,-35.567720850500002 148.091612,-35.567164851500003 148.091746976,-35.566539847500003 148.09180598399999,-35.566204849499996 148.091847968,-35.565960853 148.09192092800001,-35.5655068445 148.092048928,-35.5648818405 148.09218995200001,-35.564222833500004 148.09235289599999,-35.563631832499993 148.092551904,-35.56302383 148.09276387200001,-35.562499836 148.09238588799997,-35.562405837500002 148.09199392,-35.562351836 148.08012707200001,-35.560712847 148.07946310400001,-35.560620846500001 148.07102822399997,-35.559454847 148.070849216,-35.56017187 148.06340934400001,-35.559153852 148.063177344,-35.559122846 148.0615384,-35.558898848 148.06132640000001,-35.558839851500004 148.06109238400001,-35.558809844500004 148.0610744,-35.558807846500002 148.06095238399999,-35.558792843 148.06081942399996,-35.558871838 148.06032243199996,-35.559172851500001 148.05980742400001,-35.558796839 148.05956841599996,-35.558706855 148.05927443199997,-35.558706855 148.05901644799999,-35.558782853 148.05894345600001,-35.558842848499999 148.05888745600001,-35.558977843 148.05890646399999,-35.55920284 148.05894246400001,-35.559307846 148.058924448,-35.559653851500002 148.05879545600001,-35.559833838 148.058317472,-35.560209869 148.05811449599997,-35.560585863 148.05798652799999,-35.560720857500002 148.05772851200001,-35.560855870499999 148.05754451199999,-35.560870874 148.05748950399999,-35.560870874 148.05712150400001,-35.560720857500002 148.05671750400001,-35.560480857 148.05622051200001,-35.560105843500004 148.05546656000001,-35.559805847500002 148.05482355199999,-35.559610839 148.05421654400001,-35.559325846500002 148.053591552,-35.558934849 148.05322355199999,-35.558799854499995 148.05300256000001,-35.558814839500002 148.05296656,-35.558814839500002 148.05281859199999,-35.558935848 148.05280057600001,-35.559220840500004 148.052837568,-35.559325846500002 148.05283657599998,-35.559671852 148.05276358399999,-35.55982185 148.05270659199999,-35.559867841 148.052524576,-35.56001684 148.05184361600001,-35.560242854500004 148.0516776,-35.560287846499996 148.0514576,-35.56030285 148.051218624,-35.560227851 148.05075862399997,-35.559852856 148.050611648,-35.559852856 148.05050163199999,-35.559882844499995 148.05037264000001,-35.559957843500001 148.05013264,-35.560153851 148.04983868799999,-35.560753843 148.04967267200001,-35.560979839 148.049452672,-35.561114852 148.04923168,-35.561129855499999 148.048495712,-35.56096485399999 148.04752169599999,-35.56096485399999 148.047539712,-35.560949850500002 148.04691475199999,-35.560920842500003 148.046730752,-35.56083084 148.04654675200001,-35.560664839499992 148.04636272,-35.560319851500005 148.04621571199996,-35.5601698535 148.04590275199999,-35.560019855500002 148.04555372799999,-35.55997484499999 148.044928736,-35.560034840500002 148.04454275200001,-35.5601398465 148.04432176,-35.560335854 148.04404476799999,-35.560786847 148.04343779199999,-35.561371854 148.04297782399999,-35.561762851499999 148.04277484799999,-35.562032840500002 148.042332864,-35.562679841 148.041927872,-35.563219856 148.041927872,-35.5632498445 148.04174387200001,-35.563475822 148.041412896,-35.563850835499998 148.04093491200001,-35.564241833 148.04062192000001,-35.564436823 148.04062192000001,-35.564451826500004 148.04056694400001,-35.564451826500004 148.04025392,-35.564632830500003 148.039793952,-35.564812854 148.039535968,-35.5647978505 148.03931497599999,-35.564647852500002 148.039186976,-35.564422855499998 148.03905795199998,-35.564347838 148.03883795199999,-35.564272839 148.038598976,-35.564046843 148.03845097599998,-35.563986847500004 148.03830496,-35.563836868 148.038249952,-35.56368687 148.03821296,-35.563536872 148.038138976,-35.563386874 148.037991968,-35.5632968715 148.03771596799999,-35.563266864499994 148.03755097600001,-35.563386874 148.03751395200001,-35.563446869499998 148.037494976,-35.563806861 148.03734796800001,-35.563972861499998 148.03674099200001,-35.564257872500001 148.03655699199999,-35.564407870499998 148.03639100800001,-35.564617864 148.03628,-35.564663873500002 148.03539801599999,-35.564693880500002 148.035361024,-35.564708884 148.03506704,-35.564768879500001 148.034932032,-35.5647298815 148.03469904,-35.564663892 148.03444102399999,-35.564693880500002 148.034147072,-35.564874884499993 148.03387004800001,-35.565174880500003 148.03357804800001,-35.565406889 148.03328208,-35.565640877 148.03254508800001,-35.566060882500004 148.032030112,-35.566256908499994 148.03169913599999,-35.566256908499994 148.031423136,-35.566166906 148.03116611199999,-35.566031911499998 148.03090812799999,-35.5658209005 148.03055913599999,-35.565700909499995 148.030173152,-35.565625929 148.029658144,-35.565415917 148.029051168,-35.565460927499998 148.028610144,-35.565445924 148.02837014400001,-35.5653559215 148.027911168,-35.564980945 148.02761718400001,-35.5648909425 148.02752518400001,-35.5648909425 148.02723017599999,-35.564980945 148.0269552,-35.564965941499999 148.02645817600001,-35.5648909425 148.02596121600001,-35.564980963499998 148.025538208,-35.565131960500004 148.02540921599999,-35.565236966500002 148.02524323200001,-35.565491952 148.02483824000001,-35.566062954499991 148.02459926399999,-35.566272966500001 148.024359264,-35.5663479655 148.02369728,-35.566377954 148.02342128000001,-35.566498962499999 148.02318227199999,-35.566633957 148.022501312,-35.566798958500002 148.021434304,-35.566918968 148.02101136,-35.566993985499998 148.02056934399999,-35.567174971 148.020330336,-35.5673699795 148.02005337599999,-35.567759978 148.01961139199997,-35.568135972 148.019409376,-35.568240978 148.0188944,-35.568480997 148.01836041600001,-35.568646997499997 148.01794544000001,-35.568815995 148.01791843199999,-35.568827002499994 148.01766144000001,-35.568886998 148.01727545599999,-35.568841987500001 148.017035456,-35.568737 148.01679644800001,-35.568541991499998 148.016687456,-35.568377008500001 148.01665043200001,-35.568211008 148.01666944,-35.567731007 148.01681641600001,-35.567415008499999 148.0169824,-35.567220018500002 148.0174064,-35.566800013 148.01773737600001,-35.56634902 148.017774368,-35.566274021 148.017775392,-35.565959021499999 148.01759139200001,-35.565643004500004 148.01724236800001,-35.565298016500002 148.01709539199999,-35.565223017500003 148.01694838399999,-35.565193010500003 148.01678236800001,-35.565193010500003 148.01663539200001,-35.565223017500003 148.01630438399997,-35.565343027 148.01584441599999,-35.565463036499999 148.0151824,-35.565493025 148.01488841599999,-35.565493025 148.01442841599999,-35.565598031 148.01426243200001,-35.565689032500003 148.01396745599996,-35.56595904 148.01341548799999,-35.566424037499999 148.012715488,-35.566920059499999 148.01258646399998,-35.567055054 148.012568512,-35.567160041500003 148.012770496,-35.567401041 148.01282550400001,-35.567566024 148.01289849599999,-35.56803104 148.012896512,-35.568917023499999 148.01282355199999,-35.569128034500004 148.01267555199999,-35.569203033500003 148.01252854399996,-35.56921803699999 148.012436544,-35.56918803 148.01203254399999,-35.568947030499992 148.01177452799996,-35.56887205 148.01148054399997,-35.5688570465 148.010928576,-35.568978055 148.010633568,-35.569098046 148.01050556799999,-35.569218055500002 148.01033958400001,-35.569488044499998 148.01019161599996,-35.569743048500001 148.0098056,-35.570134046 148.00927062400001,-35.570750077500001 148.00873664,-35.571140076 148.00834966400001,-35.57151607 148.008128672,-35.571801062500001 148.00805465599998,-35.572056066500004 148.00809168000001,-35.572297066 148.00810969599999,-35.572687064500002 148.00803571200001,-35.572882073 148.007869696,-35.573183068 148.00785068799999,-35.573288074 148.00781468799997,-35.5733180625 148.00779571199999,-35.573633062 148.00785072,-35.573904068499999 148.00799673599997,-35.574249075 148.00803372799999,-35.574444065 148.007959744,-35.574610065500003 148.00781273599998,-35.574700068 148.007591744,-35.574715071500002 148.00748172799999,-35.574670061 148.00718774399999,-35.574580095500004 148.00665376000001,-35.574580095500004 148.00646976,-35.574534086 148.005991776,-35.574429098499998 148.00490678400001,-35.574429117 148.00479580800001,-35.574384125 148.0045568,-35.574159128 148.004134752,-35.573543133500003 148.003987776,-35.573453131 148.00369379200001,-35.573228134 148.003528768,-35.573018140500004 148.00341875199999,-35.572777141 148.00325376000001,-35.572327147 148.00310675200001,-35.572087146500003 148.002996768,-35.571951134500004 148.00283075199999,-35.571831162 148.00255577600001,-35.5717411595 148.002187808,-35.5717411595 148.00187478399999,-35.571906161 148.001626784,-35.571975184500005 148.001229792,-35.572205176499999 148.00116678399999,-35.5722441745 148.00090982399999,-35.572291183 148.00052384,-35.572263174 148.00002483200001,-35.572117190500002 147.99950784,-35.571895190500001 147.998306848,-35.571332217 147.99797484799998,-35.57124423099999 147.997641856,-35.571096231 147.99719785600001,-35.570829239 147.99679187199999,-35.570681239 147.996570848,-35.570638245 147.996000896,-35.570702255 147.99513689599999,-35.570783266500001 147.99506390400001,-35.570814272500002 147.994953888,-35.570814272500002 147.99484688000001,-35.57083726799999 147.99480688,-35.570845278500002 147.99451392,-35.570938278 147.99438592000001,-35.571014276 147.99414793599999,-35.571090292500003 147.993963936,-35.571107294 147.99379792,-35.571033294 147.99363193600001,-35.570974297500001 147.99348393599999,-35.570975296500002 147.99300896,-35.571203290500002 147.992714944,-35.571250317500002 147.99249395199999,-35.571252315500004 147.99194195199996,-35.571166309 147.99162896000001,-35.571168325500004 147.991428,-35.571290333 147.99122697600001,-35.571366331 147.99084099199999,-35.571384331499999 147.99052899200001,-35.571476332 147.99023702400001,-35.571673338499998 147.98990700799999,-35.571811348499992 147.98939203200001,-35.571844352499994 147.98919100800001,-35.571891361 147.98875104,-35.572014367500003 147.988530048,-35.572001362 147.988161056,-35.571943364500001 147.98797705600001,-35.57189939 147.98736905600001,-35.5718433905 147.98663308799999,-35.571728394499999 147.985841088,-35.571613398499998 147.985729088,-35.571524395 147.985727072,-35.571298399 147.98599808,-35.570876395500001 147.98603408,-35.570801396500002 147.98603104,-35.5704254025 147.98597305600001,-35.570200405500003 147.98593606399999,-35.570170398500004 147.98518108799999,-35.570145405 147.98439107199999,-35.570211413 147.98358211199999,-35.570216445 147.98291910399996,-35.570101430500003 147.982330112,-35.5700454495 147.98181513599997,-35.570033461500003 147.98159414400001,-35.570065466500004 147.98135616,-35.570156449500004 147.981046144,-35.570399484 147.98086419200001,-35.570595473 147.98044518399999,-35.5708994835 147.98002316799997,-35.5710524785 147.979362208,-35.571102484 147.97893920000001,-35.571105481 147.97833120000001,-35.571063486 147.97763225599999,-35.571068499500001 147.976932256,-35.570923496500001 147.97665625600001,-35.570895487500003 147.976289248,-35.57097250299999 147.97605228800001,-35.571139502499996 147.975852288,-35.571396486 147.975635264,-35.571743490500005 147.97543728,-35.572180516 147.97520230399999,-35.572572512499995 147.97502032,-35.572739512 147.97496531199999,-35.572754515500002 147.97457929599997,-35.572757512500004 147.97456032,-35.572757512500004 147.97389632,-35.572491519499998 147.97361830400001,-35.572328516 147.97361830400001,-35.572298509 147.97346931199999,-35.572133507499998 147.972893344,-35.571596508 147.972725344,-35.571312514500001 147.97259129599999,-35.5708775055 147.972442304,-35.570668511 147.97205129599999,-35.570204512499998 147.971790304,-35.569830516499998 147.97171529600001,-35.569726509500001 147.97141833599997,-35.569457519499998 147.97125235199999,-35.569383519500001 147.970957344,-35.56932552199999 147.97027734400001,-35.569375509 147.97001932800001,-35.569347518500003 147.96943136,-35.56938050399999 147.96812940800001,-35.569705530500002 147.9677624,-35.569828537 147.967616416,-35.569934523500002 147.96739641600001,-35.569980533 147.9670104,-35.56998353 147.96675139199999,-35.569849534500001 147.966380448,-35.56956654 147.96584544000001,-35.569345539 147.965622432,-35.569166533 147.96530544000001,-35.568732523 147.96522944,-35.568658523 147.96519244800001,-35.568623539500003 147.96511942399999,-35.568553535500001 147.96493443200001,-35.568404536500005 147.96473043200001,-35.568285526 147.96443542399999,-35.568212525 147.96423344,-35.568228546 147.96390342399999,-35.568351552500005 147.96344646399999,-35.568624557 147.962532512,-35.569156543 147.962056512,-35.569340544 147.96089952,-35.569543563 147.96055152,-35.569665570499993 147.96033254400001,-35.569847573499999 147.96009753600001,-35.570164571 147.95982355199999,-35.570392565 147.95967756799999,-35.57046856299999 147.95916457600001,-35.570637579 147.95804659199999,-35.571095583500004 147.957130624,-35.571386607 147.95670963200001,-35.571600596499998 147.95642761600001,-35.571803597 147.956129632,-35.5717636 147.955275648,-35.571466601 147.94526784,-35.570138615499999 147.945048864,-35.570109626 147.939124,-35.569322617499999 147.93369712000001,-35.568601617 147.93366112000001,-35.568780623 147.93349814399997,-35.569608646 147.92575430400001,-35.568537644 147.92506732800001,-35.568441647499995 147.92505734400001,-35.568440648500001 147.92468633600001,-35.568389644 147.91887043200001,-35.567583654499998 147.919187424,-35.5672886535 147.919424416,-35.567016666500002 147.91949641599999,-35.566880654500004 147.91994940800001,-35.566201649 147.92011337599999,-35.566020645 147.92049536,-35.565552650500003 147.92085734400001,-35.564978651 147.92089334400001,-35.564858641500003 147.92118131199999,-35.564285641 147.92130729600001,-35.563968643500004 147.921614272,-35.56342565 147.92181225600001,-35.562913625500002 147.92195324799999,-35.562311617 147.92196422399999,-35.561574632500005 147.92188419199996,-35.560824624 147.92186521599999,-35.560808621500001 147.92178819200001,-35.560388616 147.921655168,-35.5599536255 147.92148617599997,-35.559623622499998 147.92129817599999,-35.559174627499999 147.92114816,-35.558919623500003 147.92096316799999,-35.558755621 147.92077817599997,-35.558696624500001 147.92055817599999,-35.55868262 147.92022816,-35.558775619500004 147.91966121600001,-35.559169632499994 147.91898624000001,-35.559714642499998 147.91856624,-35.560003649500004 147.917999264,-35.560337648500003 147.91746729600001,-35.560490643500003 147.91702630399999,-35.560508644 147.91686028800001,-35.560479636 147.91604931199998,-35.560244649 147.91555030399999,-35.560007645500001 147.915050304,-35.559589638 147.91501228800001,-35.559408634 147.914974304,-35.559364641 147.914973312,-35.559214643 147.91528131199999,-35.558715642500005 147.91540627200001,-35.558384640500002 147.915420256,-35.557903640500001 147.91528928,-35.557618648 147.91504726400001,-35.557364643 147.91469625600001,-35.557156647500001 147.91434528,-35.557053639500005 147.91364627199999,-35.556982636500003 147.91302028799998,-35.5568966485 147.912596288,-35.55674866699999 147.912022304,-35.55630167 147.91191830400001,-35.556204656 147.923263104,-35.557655611 147.92360307199999,-35.557699604 147.92393107199999,-35.557741599 147.92621305599999,-35.558033603 147.92980697600001,-35.558492606500003 147.93140678399999,-35.550229544499999 147.92985577600001,-35.550030577 147.92988777599999,-35.5498655755 147.92786681600001,-35.549601562 147.921961888,-35.548829594 147.921996896,-35.548650588 147.92308976000001,-35.542742557499999 147.91542489599999,-35.54172459499999 147.915688864,-35.540358573500001 147.91374790399999,-35.540117574 147.91397587200001,-35.538923565499999 147.90807699199999,-35.538194591500002 147.90945180799997,-35.531047542 147.90713987199999,-35.530756555499998 147.908019776,-35.526172514500004 147.92559648,-35.5285234575 147.92796921600001,-35.516335417 147.92596224,-35.516074437500002 147.90961753600001,-35.513949509 147.90883852799996,-35.513848517500001 147.90475961600001,-35.513309538500003 147.90630547200001,-35.505139605499998 147.90460748800001,-35.504926596499999 147.90512342400001,-35.502209631 147.90517942399998,-35.501917627 147.90499644799999,-35.5019016245 147.90562336,-35.498451652 147.90722118400001,-35.490300737 147.907167168,-35.490036742 147.906806176,-35.489997744 147.90521420799999,-35.489824732 147.90508524799998,-35.490517723499998 147.90404828800001,-35.490582714 147.90361827199996,-35.491320697500001 147.90248832,-35.491884707 147.89999836800001,-35.49270866 147.89926441599997,-35.492425665500001 147.89901139199998,-35.492504660500003 147.89923436800001,-35.491319661499993 147.899024384,-35.491289654500001 147.899440352,-35.489084676499999 147.892553472,-35.4881696295 147.89224649599998,-35.48952962 147.88381865599996,-35.488497616 147.88401264000001,-35.487449628 147.88570441600001,-35.478955612 147.88305945600001,-35.478585612 147.88309347200001,-35.478416614499999 147.88397532799999,-35.474034593500001 147.88596912,-35.464124569 147.880477216,-35.463361592 147.881464096,-35.458309593499997 147.88149507200001,-35.458149587 147.88016508800001,-35.457972579 147.873016224,-35.45701661 147.87446304,-35.449700526 147.87449504,-35.449539520500004 147.87508198399999,-35.446575487499999 147.871962016,-35.446140497 147.87278595199999,-35.442108459 147.88935766399999,-35.4442884065 147.89199136,-35.430651261 147.89320620800001,-35.424362186 147.907645952,-35.4261841215 147.90786896,-35.4262141285 147.90816192,-35.426253126500001 147.90815593599999,-35.425985117 147.90814294399999,-35.425786131 147.90807392,-35.425273126 147.908038944,-35.425047111499993 147.908048928,-35.424745099 147.90802988799999,-35.424348107500002 147.90802188800001,-35.424042099 147.90802489599997,-35.423640094 147.90800691199999,-35.423402091500002 147.90802790399999,-35.423190081500003 147.908113856,-35.422959090500001 147.90825088,-35.422720089 147.90842486399998,-35.422444069 147.90859888,-35.422128070499994 147.90877382400001,-35.421879060500004 147.90887184,-35.421685069499993 147.90890982400001,-35.421558048500003 147.90888083199999,-35.421373048500001 147.90885884799999,-35.421297050499994 147.90884182400001,-35.421252058500002 147.90871984,-35.421103059499998 147.90850284800001,-35.420892048499994 147.90826483199999,-35.420641059 147.90793782399999,-35.4203270585 147.907649824,-35.420057051 147.90737884800001,-35.419833053 147.907300832,-35.419792057 147.90719584000001,-35.419685053 147.90704083200001,-35.419518053499999 147.90664083199999,-35.419024029500001 147.90642483199997,-35.418813037 147.90623084800001,-35.418633032 147.90603782399998,-35.418472026499998 147.90584384,-35.418319031500005 147.905660832,-35.418140025500001 147.90545084799996,-35.41796903 147.90531782400001,-35.417866040500002 147.90484784,-35.417638028 147.90458284799996,-35.417486032 147.90389686399999,-35.4170560365 147.90375888,-35.416948033499992 147.90338288000001,-35.416760036500001 147.90322288,-35.416702039 147.902947872,-35.416645040500001 147.90270486399999,-35.416578033500002 147.90249488000001,-35.416525031 147.90227987200001,-35.416444038 147.90197686400001,-35.41634202899999 147.90164489599999,-35.41615403199999 147.90153388799999,-35.416028028500001 147.901438912,-35.415871037500004 147.90122291200001,-35.415642026 147.90101788800001,-35.41538102799999 147.90075788799999,-35.415206036500003 147.90049788799999,-35.415049027 147.90000089599999,-35.414844028499999 147.89967491199999,-35.414683023 147.899481888,-35.414530028 147.89913788800001,-35.4141660405 147.89895491199999,-35.413942024 147.898727904,-35.413695030500001 147.898499904,-35.413411037 147.898299904,-35.413133037500003 147.89806691199999,-35.412822034 147.89794988799997,-35.4126110045 147.89773091199999,-35.411999006 147.897701856,-35.411674016500001 147.897677856,-35.411327012 147.89754787199996,-35.410790993 147.89751286399999,-35.410492995 147.89743385599999,-35.410191001 147.89733785600001,-35.409866992 147.89724288,-35.409674 147.89720387199998,-35.409601998 147.89715382399999,-35.409457994 147.89714784,-35.409402993500002 147.89711984,-35.409330991499999 147.897080832,-35.409200992 147.896890848,-35.40875499399999 147.89673884800001,-35.408299968 147.89654384,-35.407858983499999 147.89638083200001,-35.407394985 147.89617283199999,-35.406678979500001 147.896109792,-35.406309978499998 147.89599180799999,-35.405858967 147.8958288,-35.405318952 147.89571180799999,-35.405034958500003 147.89549980800001,-35.404683958 147.895277792,-35.404283951 147.89510480000001,-35.403981957 147.89487577599999,-35.403518957500005 147.89468678399999,-35.4030869455 147.89451878400001,-35.402717944500004 147.89445078400001,-35.402424941500001 147.894399776,-35.402054941500005 147.89436976,-35.401671936 147.89435676799999,-35.401351941499996 147.89431574399998,-35.400959926499993 147.894250752,-35.400220925500001 147.89424873600001,-35.399940928 147.894219744,-35.399647925 147.894250752,-35.399399914 147.89425971200001,-35.399124911500003 147.89434169599997,-35.398948902500003 147.89441072,-35.398614903500004 147.894475712,-35.398275909500001 147.89452768000001,-35.397919877 147.894597664,-35.397558886500001 147.894656672,-35.397300885500002 147.89472566399999,-35.396953862499998 147.89484265600001,-35.396317851 147.89489564799999,-35.395969847499998 147.894970656,-35.395658844 147.89501865599999,-35.395324826500001 147.89506060799999,-35.394972827 147.8950856,-35.394629837 147.895160608,-35.394277819 147.89526960000001,-35.393979802499999 147.89530156800001,-35.393826807499998 147.89541459200001,-35.393537800499999 147.895599584,-35.393080795 147.89574656,-35.392818779500004 147.89587155199999,-35.392579778 147.89605155199999,-35.392321777 147.896171552,-35.392104753499993 147.896417504,-35.391774750499991 147.896700512,-35.39129073499999 147.896858528,-35.390997732 147.89701049600001,-35.390689725500003 147.89713049599996,-35.390414723 147.89746249599997,-35.389826700500002 147.89760345600001,-35.389582704 147.897767456,-35.389338707500002 147.89798544000001,-35.388990685499991 147.89812742399999,-35.3887416755 147.898306432,-35.388416686 147.89842041599999,-35.388131656500001 147.89850140799999,-35.387879668 147.89852243199999,-35.387752665500003 147.89851641600001,-35.387649657499999 147.89849939199996,-35.387563669500004 147.89851539200001,-35.387419647 147.898531392,-35.3872926445 147.898585376,-35.387103648500002 147.89865539199997,-35.38690864 147.89873638399999,-35.386651638 147.899002368,-35.386050628500001 147.89914134399999,-35.385441608499995 147.89919536,-35.3851486055 147.899247328,-35.384791611 147.89926233599999,-35.384521585 147.899294336,-35.384236592500002 147.89930233600001,-35.383876582500001 147.89933929599999,-35.3835555705 147.89943030399999,-35.383221571500002 147.89953430400001,-35.382995575500004 147.89964329599999,-35.382814571499999 147.89976230400001,-35.3825715555 147.89982124799999,-35.382322545500003 147.89982627200001,-35.382160559500001 147.89982326399999,-35.381686534 147.89982726400001,-35.381493523499998 147.89986723199999,-35.38080253 147.89986624,-35.380609519499998 147.899819232,-35.380243515499991 147.899763232,-35.380041514 147.89972323200001,-35.379865505 147.89961222400001,-35.379730510500004 147.89947424,-35.379623506500003 147.899132224,-35.379398491 147.89899923199999,-35.3792684915 147.89894723200001,-35.379149499500002 147.92258576,-35.37928035 147.92417769599999,-35.377794319 147.926431584,-35.375742262 147.92659657600001,-35.375570249 147.926756576,-35.375395257499996 147.9269096,-35.375216251499999 147.92705756800001,-35.375035229 147.92716854400001,-35.374891243500002 147.92719955199999,-35.374850229 147.92740156799999,-35.374567234499999 147.927589568,-35.374277228499999 147.92770752000001,-35.374081221 147.92781852799999,-35.373883215500001 147.927972512,-35.373580222500003 147.92805152,-35.373450223 147.92820249600001,-35.373078225 147.92833648000001,-35.372658201 147.92838448000001,-35.372125197500004 147.92837644799999,-35.371576191500004 147.92832745599998,-35.371061188500001 147.928396448,-35.370534179 147.92851542400001,-35.370174187499998 147.92859744,-35.369925177500001 147.92899942400001,-35.369217164 147.92916940800001,-35.3688951715 147.929215392,-35.368731150500004 147.92927539199999,-35.368516143500003 147.929866336,-35.365965141499998 147.92987232,-35.365942146 147.930058336,-35.365139135 147.93012432,-35.364855141500001 147.93023529600001,-35.364524139499999 147.930271296,-35.364418153 147.93095027199999,-35.363043140499997 147.93099625599999,-35.362940151 147.93105526400001,-35.362842138 147.931126272,-35.362748121 147.93120726399999,-35.362661134 147.93129926399999,-35.3625811215 147.93140128,-35.362509119500004 147.93151024,-35.362445128 147.93162723200001,-35.3623911265 147.93174924799999,-35.362347133500002 147.93187724800001,-35.362313130499999 147.93200822399999,-35.362289117499998 147.93336620799997,-35.361956099 147.93338419200001,-35.361951104 147.93360921600001,-35.361896103499994 147.93371916800001,-35.361839105 147.933823168,-35.361776094 147.93392217600001,-35.361707089 147.93401417600001,-35.36163209 147.934082176,-35.361569097500002 147.93410716799997,-35.361546083499995 147.93418016000001,-35.361469086500001 147.93425216,-35.361380083 147.93526512,-35.359018077 147.93529411199998,-35.358908076 147.93533411199999,-35.35880107199999 147.93538409600001,-35.358697065 147.93544512,-35.358597072500004 147.93551510399999,-35.358501076 147.93559408,-35.3584100745 147.93568208,-35.358324068 147.93577808000001,-35.35824507299999 147.93588208,-35.358172072 147.93600208000001,-35.358098072 147.936600032,-35.357574059500003 147.93704905600001,-35.357237045 147.93838396800001,-35.356320037 147.938479968,-35.356248035 147.93866598400001,-35.356099036 147.93875497600001,-35.356022020499999 147.938928992,-35.355863013 147.93909398400001,-35.355698011500003 147.93917296000001,-35.355614021500003 147.93927094399999,-35.355501023500004 147.93932393599999,-35.355440010500004 147.93946595200001,-35.355262022 147.941153888,-35.35268697 147.94187081600001,-35.351591955 147.94193782400001,-35.351497956500005 147.94208380800001,-35.3513169525 147.94216182400001,-35.351228966500003 147.94232883199999,-35.351060968 147.94241782399999,-35.350979956499998 147.94250982400001,-35.350901960500003 147.9426048,-35.350825962500004 147.94270278400001,-35.350752943 147.94280377600001,-35.350682939 147.942907776,-35.350615932 147.94301478400001,-35.350551940500004 147.94312377599999,-35.350489947 147.94323577599999,-35.350431949499999 147.94346579200001,-35.350324945499999 147.94814563200001,-35.348353844500004 147.95067555199998,-35.347140799500004 147.95072656,-35.347192784499995 147.95099456,-35.347461793 147.95183353599998,-35.348119801 147.95204652800001,-35.348376784500005 147.95235852799999,-35.34876378599999 147.953232544,-35.34957878499999 147.95360153600001,-35.350019788 147.953808544,-35.35016579 147.95393152,-35.350179794500001 147.95412352,-35.3500647985 147.954245536,-35.35002178599999 147.95450752,-35.350049795 147.954664544,-35.35012179699999 147.95482252799999,-35.350235794 147.95497952,-35.350436796499999 147.95497952,-35.350536789 147.954944544,-35.350665789499999 147.954630528,-35.351066795500003 147.95457852799998,-35.351223805 147.95468352,-35.351395818 147.954910528,-35.351567812500001 147.95501552,-35.351695814 147.95520854399999,-35.352196812500004 147.95517356799999,-35.352511812 147.95508656000001,-35.3527558085 147.95512156800001,-35.3528558195 147.95520857599999,-35.352912818 147.95529657599999,-35.352912818 147.95562755200001,-35.352754809499999 147.95583753599996,-35.352754809499999 147.95606454399999,-35.352868806499998 147.95625753600001,-35.353054805499994 147.95644953600001,-35.353297803 147.956589536,-35.353412817500001 147.95732352,-35.353755807500001 147.95762054400001,-35.354012809499999 147.95772553599997,-35.354098816 147.95783052799999,-35.354184804 147.95830153599999,-35.35442782 147.95879152000001,-35.354727816 147.959402528,-35.355199806500003 147.95963052799999,-35.355456827 147.959682528,-35.355542833500003 147.95980553599998,-35.355943821 147.95975353599999,-35.356301833 147.95975353599999,-35.356701821499996 147.95978854399999,-35.356802831499998 147.95982352,-35.35685983 147.96005152000001,-35.357045829 147.96020854400001,-35.357131835499992 147.96036054399997,-35.357260836 147.96047052799997,-35.357417827 147.96050553599997,-35.357560832 147.96045353599999,-35.357760835500002 147.96020956800001,-35.358219820500004 147.960225568,-35.358409834 147.960856576,-35.359005848500004 147.96103155200001,-35.359220855499998 147.961101568,-35.3594208405 147.96108457599999,-35.359592853500004 147.96092755199999,-35.359950847 147.960945568,-35.360408851500004 147.96105056,-35.360752840499998 147.9610856,-35.360966848499999 147.96106758400001,-35.361286843 147.96105158399999,-35.361639841500001 147.96098259199999,-35.361954841 147.960947584,-35.362040847500005 147.960633632,-35.3624708615 147.96046662399996,-35.362678875500002 147.96033664,-35.3629428705 147.960249632,-35.363329872 147.96026867199998,-35.364503863499998 147.96034665600001,-35.364916857499999 147.96032265599999,-35.365777866 147.960060704,-35.366378894 147.96005769600001,-35.366559879500002 147.961883648,-35.366457889 147.96220364800001,-35.366379893 147.962467616,-35.36628587599999 147.96266262399999,-35.366238886 147.96325664,-35.366232892 147.96364662400001,-35.366165885 147.96385561599999,-35.366112882499998 147.964076608,-35.365961885499999 147.96429760000001,-35.365792869499998 147.9645496,-35.365643870500001 147.96499360000001,-35.365585873 147.966021568,-35.365655858499991 147.96651756799997,-35.365628867 147.966957568,-35.3656188585 147.967461536,-35.365670862 147.968373536,-35.36594288599999 147.969116544,-35.366095881 147.97057449599998,-35.366378894 147.97083548800001,-35.366387885 147.970972512,-35.36639288 147.971241472,-35.366407883500003 147.971322464,-35.366411879499999 147.97177648,-35.366389883 147.97234848,-35.366327889499999 147.97281046399999,-35.366362891500003 147.973391424,-35.366460886 147.97478444800001,-35.366618876 147.97543340799999,-35.366606888 147.97552339200001,-35.366573884 147.975788416,-35.366476888500003 147.97669638400001,-35.365981884 147.97701536,-35.365834883 147.977530368,-35.3657038845 147.978004352,-35.365613863499995 147.979027296,-35.36536287399999 147.979929312,-35.365041862 147.98033430399997,-35.364897858 147.98093126399999,-35.364668865 147.98138227199999,-35.364463866500003 147.981736256,-35.364311889 147.98226521599997,-35.364151882500003 147.98252220800001,-35.364028876 147.98270121600001,-35.363860877500002 147.98286419199999,-35.363590888499999 147.98300617599998,-35.363251876 147.98304918400001,-35.362826894 147.98331817600001,-35.3631169 147.98355318399996,-35.363400912 147.98392816,-35.363688901499998 147.98424416,-35.363817920500004 147.985087104,-35.364100933499998 147.98543110400001,-35.364177949 147.98580912,-35.364276942499998 147.986225088,-35.364513964499999 147.98676009600001,-35.3647369635 147.98735606400001,-35.364914970499996 147.987946048,-35.365085984499991 147.988472032,-35.36524699 147.988901024,-35.36543199 147.989328992,-35.365508006500001 147.98967398400001,-35.365676023500001 147.989878976,-35.365829018500001 147.99008598399999,-35.366147033499999 147.990176,-35.366248025 147.990362976,-35.366459036 147.99082896,-35.366775034500002 147.99174294400001,-35.367150048 147.992150912,-35.367289075500004 147.99290092800001,-35.367488061499998 147.99350288,-35.367550092 147.99408284800001,-35.36756208 147.994536864,-35.367506099 147.995016832,-35.367375100499991 147.99556582400001,-35.367175134 147.99588579199997,-35.367086130499999 147.99619478399998,-35.3670261165 147.99626179200001,-35.367013129500002 147.99684876800001,-35.366985139 147.99752073600001,-35.367070146499998 147.998088736,-35.36721317 147.998502688,-35.367352160500005 147.99901571199999,-35.367530186 147.99917068799996,-35.367614176 147.99936771200001,-35.36772118 147.99969270400001,-35.367907179 147.99991865599998,-35.368065206 148.00009465599996,-35.368183199 148.000572672,-35.368379206500002 148.00075568,-35.368474204 148.00083465599999,-35.368577193500002 148.00089366399999,-35.368722215 148.000932672,-35.369034217500001 148.000912672,-35.369549220499998 148.00091769599996,-35.369870214 148.00095068799999,-35.370196221 148.00094070399999,-35.370499232500002 148.00085868799999,-35.370839244 148.00122569600001,-35.371242229499998 148.001443712,-35.371489241500001 148.00161670400001,-35.371769257499999 148.00170268799999,-35.372027258500005 148.00206569599999,-35.372573267500002 148.002544704,-35.373074266 148.002906688,-35.37345029699999 148.00360067199998,-35.374161307500003 148.00366467200001,-35.37421431 148.00367766400001,-35.374224318499998 148.00377568,-35.374304312500001 148.00403865600001,-35.374460304499998 148.00424867199999,-35.374445319499998 148.004422624,-35.374315301500005 148.00485664000001,-35.373870321 148.00543961599999,-35.373524334 148.0055136,-35.373450334 148.00565760000001,-35.373375335 148.00583456000001,-35.373219324499992 148.00599356800001,-35.372926321499996 148.00622256,-35.372627324500002 148.006424544,-35.372449336 148.00667852800001,-35.3723213345 148.00705449599999,-35.372201343500002 148.00750950400001,-35.372088345500003 148.00806848,-35.372055341500001 148.008627488,-35.372079373 148.00884544,-35.372144363499999 148.009132448,-35.372324387 148.00929744000001,-35.3724973805 148.00950544,-35.372791382500004 148.00984643199999,-35.373008387500001 148.010270432,-35.373288403499998 148.010384448,-35.373450408 148.010426432,-35.373519394500001 148.01051545600001,-35.373776396499998 148.01060345600001,-35.373933424500002 148.01069145599999,-35.374068419 148.010832448,-35.3741904265 148.01097244799996,-35.374332414 148.011393408,-35.374602421500001 148.01160441600001,-35.374702414 148.012024416,-35.37488641499999 148.012216416,-35.374942414499998 148.01277740800001,-35.375226426499999 148.01318041600001,-35.375454420499999 148.01337340800001,-35.375539428 148.013828416,-35.375723429 148.0140384,-35.375751419499991 148.01418742399997,-35.375786421500003 148.01898736,-35.3768994 148.019170336,-35.376830395 148.019564352,-35.376773396499999 148.01993232000001,-35.376857405 148.02014230399999,-35.376914403500002 148.020343328,-35.376999411 148.02056332800001,-35.377169407499998 148.02075532800001,-35.3772694 148.020826304,-35.37731139499999 148.02122832000001,-35.377396402500004 148.02142131199997,-35.377466406499998 148.021569312,-35.3775374095 148.02178931200001,-35.377722409500002 148.02196432,-35.377836406500002 148.02226332800001,-35.37812139899999 148.02243932799999,-35.378249400500003 148.02267532799999,-35.378377402 148.02305232000001,-35.3784904 148.02371632000001,-35.378516411 148.023943296,-35.378515412 148.02436227199999,-35.378556408 148.024572288,-35.378555409 148.02520128,-35.378624377 148.025743296,-35.378708385499998 148.02595328000001,-35.378750380500001 148.02635625600001,-35.378877383 148.02656624,-35.3789623905 148.02717926400001,-35.379288379 148.02753024,-35.379516391500005 148.027688256,-35.379644393 148.02786624000001,-35.380058386 148.027936256,-35.380230380500002 148.02799129600001,-35.380630406 148.02804528,-35.380802400500002 148.028152288,-35.3811733995 148.02825827199999,-35.381316404499998 148.02827628799997,-35.381402411 148.02848729600001,-35.381673399 148.02862828799996,-35.381830408500001 148.02892729600001,-35.382100397500004 148.02910227199999,-35.382228399 148.02929529599999,-35.382313406500003 148.02952227200001,-35.382341397 148.02988028799999,-35.382368407 148.030291264,-35.3823243955 148.03050025600001,-35.382265399 148.03093625599996,-35.382178412 148.031145248,-35.382077402 148.03147526399997,-35.381818383500004 148.03196220799998,-35.381458392 148.03215420799998,-35.381357382 148.03247622399999,-35.38127738799999 148.03271222399999,-35.381269377500004 148.032922176,-35.381282383 148.03337619199999,-35.381323360499998 148.03363817600001,-35.381265363 148.0339352,-35.381192362 148.0340392,-35.381134364499999 148.03417920000001,-35.381105375 148.03438819199999,-35.381076367 148.03475116800001,-35.381072371 148.03493116800001,-35.38097236 148.03511216000001,-35.380872367499997 148.03529414400001,-35.380728363500005 148.03571116800001,-35.380312354 148.03588512,-35.3801823545 148.03630313599999,-35.379966348499998 148.036355136,-35.379965349500004 148.036547136,-35.37987934299999 148.03696512,-35.3797773525 148.03719209600001,-35.37970433299999 148.03766310399999,-35.379616328499999 148.037907104,-35.37955833099999 148.03830908799998,-35.379513320500003 148.038535104,-35.379470326499998 148.039007072,-35.379468328500003 148.03921705600001,-35.379481334 148.03928707200001,-35.379524328 148.039707072,-35.379579328499993 148.039933056,-35.379549321500001 148.040405056,-35.379533319 148.040597056,-35.379532301499999 148.04108601600001,-35.379559311500003 148.04133104,-35.379558312500002 148.04176803199996,-35.379585304 148.04199504,-35.379584305 148.042485024,-35.379696304 148.042677024,-35.379752303499998 148.04309798400001,-35.379908314 148.043308,-35.379979317 148.043508992,-35.380078310500004 148.043764,-35.380306304500003 148.04390499199999,-35.380477318499999 148.04417699199999,-35.38084230499999 148.04433398399999,-35.380748306500003 148.044756992,-35.380496299500003 148.04507398399997,-35.380243293500001 148.04526496,-35.380042291 148.04541296,-35.379955285500003 148.045577952,-35.3798832835 148.04610995199999,-35.379802290499995 148.04643296,-35.379722278 148.04725193600001,-35.379375273500003 148.04776489599999,-35.37910127 148.048234912,-35.378784254 148.04894688,-35.378230253 148.049468864,-35.377770232 148.04997283200001,-35.37743123799999 148.05117379199996,-35.376825215 148.05152281599999,-35.376687223499999 148.05180179199999,-35.376643212 148.0522208,-35.376641214 148.052666816,-35.376704225 148.052867808,-35.376789214 148.053025792,-35.376895219 148.05333379199999,-35.377209219500003 148.053474816,-35.377430220500003 148.0536088,-35.37786621 148.0536888,-35.378073225 148.053759808,-35.378202225500004 148.05421680000001,-35.378615219499999 148.05458076799999,-35.378220226 148.054667776,-35.378083215 148.05473577599997,-35.37782521399999 148.05489177600001,-35.377631204499998 148.05502176,-35.377509197 148.05587372799999,-35.37699019799999 148.05677072,-35.376543182500001 148.05712771200001,-35.376434180499999 148.057547712,-35.376432182500004 148.058176704,-35.376522185 148.05850867199999,-35.37648518499999 148.059188672,-35.376353169 148.05993865600001,-35.376121160499999 148.06069564800001,-35.375810138499993 148.06168060799999,-35.375455142 148.06201161600001,-35.375367137499993 148.06269260799999,-35.375279151500003 148.064892544,-35.3751541285 148.06520656000001,-35.375124121500001 148.06560755199999,-35.375037116 148.065860544,-35.374957103500002 148.066121536,-35.374798114500003 148.06634752,-35.374575115500001 148.06698752,-35.373785091500004 148.06720547199998,-35.373450093500004 148.06729648000001,-35.373298097500005 148.06746848,-35.373151096500003 148.068270496,-35.372755085500003 148.069663456,-35.371987076499998 148.06984643199996,-35.371952074500001 148.07016140799999,-35.371953073500002 148.07046643199999,-35.3720040595 148.070632416,-35.37207004899999 148.070955424,-35.372107049 148.071147424,-35.372079058499999 148.07179539200001,-35.371737049 148.07211040000001,-35.371724043500002 148.07233737600001,-35.371582056 148.0724344,-35.37140305 148.07248937599999,-35.370931041 148.07255139200001,-35.370767038499991 148.07277136,-35.370445027499997 148.07285235199998,-35.370066036499999 148.07282835199999,-35.36975803 148.07271734400001,-35.369243008499993 148.072744352,-35.368971021500002 148.07280736000001,-35.368749021499994 148.07293033600001,-35.368578007499998 148.073070336,-35.368492019500003 148.073271328,-35.368457017499992 148.07358633600001,-35.368459015500001 148.074127328,-35.368532016499991 148.07466832,-35.368533996 148.07520230399999,-35.368385996 148.07529830399997,-35.368328997500001 148.07555030399999,-35.368102002499995 148.07574630400001,-35.367787003 148.07603827199998,-35.367107979 148.076074272,-35.366906976500005 148.07615721600001,-35.366083985499998 148.07612022399999,-35.364931953500005 148.07617424,-35.364616954 148.076422208,-35.363930955500003 148.076408192,-35.363300956499998 148.07606515200001,-35.362182946 148.07604016,-35.361910940500003 148.07606716800001,-35.361652939500004 148.07620915199999,-35.361252932500001 148.076911104,-35.35980392 148.078465056,-35.357986905499999 148.07920803199997,-35.357297891500004 148.080192,-35.356170871499998 148.08061299199997,-35.355749867 148.081173984,-35.355479859500001 148.081882976,-35.355367842 148.08207696,-35.355367842 148.082841952,-35.355231848500004 148.08411894400001,-35.3550208375 148.08469993599999,-35.355743836 148.08518492799999,-35.35641782799999 148.08532294400001,-35.356683821 148.086015936,-35.35773784 148.08657094399999,-35.358462855 148.08675196799999,-35.358900842499999 148.08704396799999,-35.359903857 148.08718998399996,-35.3602978515 148.08764096,-35.360972842500004 148.087769984,-35.361309857 148.087924,-35.361910848 148.088192,-35.362398859500004 148.08838300799999,-35.362642874500004 148.088712,-35.363166868500002 148.088852992,-35.363608870500002 148.08889299200001,-35.363732857500004 148.08917801600001,-35.364270874500001 148.08941100800001,-35.364822859 148.08961702400001,-35.365453875500002 148.089685024,-35.365854863 148.08972502399999,-35.366448879499991 148.08968003199999,-35.367148882500004 148.089813056,-35.368059878 148.09010307200001,-35.3694069 148.09020406400001,-35.370065907 148.090454112,-35.3707889055 148.090579104,-35.370984894500005 148.09102508800001,-35.371685896500004 148.09118211200001,-35.371886899 148.09167708800001,-35.37228291 148.09195609599999,-35.372454904500003 148.092209056,-35.372584904 148.09311507199999,-35.372845902 148.09371606400001,-35.373148895 148.094000064,-35.373336910500001 148.094089056,-35.3734499085 148.09433408000001,-35.373674905500003 148.09478105599999,-35.374085901500003 148.09494006400001,-35.374292898 148.09517008,-35.374821905499999 148.095360064,-35.375092912 148.09563507199996,-35.3754859075 148.09681107200001,-35.377173921499995 148.09713008,-35.377630927 148.09735107199998,-35.37805191299999 148.09749305599996,-35.378380917 148.097581056,-35.378727921500001 148.09768806400001,-35.379166926499998 148.097727072,-35.379323917500002 148.09797705599999,-35.380109945500003 148.09817308800001,-35.380609945 148.09843110400001,-35.381173936 148.09866009599997,-35.38146594 148.09904710399999,-35.381871941 148.099327104,-35.382400948499992 148.09978409600001,-35.383535960499998 148.100034112,-35.384249968 148.100687104,-35.385692968 148.10101910399999,-35.3864279545 148.101274112,-35.386669953 148.101485088,-35.386754960499999 148.10162508799999,-35.386846961 148.10180508799999,-35.387211966 148.10192809599999,-35.387484970499997 148.10193510400001,-35.38749797599999 148.10197708800001,-35.387626976499995 148.102240096,-35.387874969 148.102408096,-35.387901979 148.102645088,-35.387835952499998 148.102757088,-35.387848958 148.10279910400001,-35.387992962 148.102701088,-35.388215979499996 148.10263110400001,-35.38846597 148.102590144,-35.388766983499998 148.10257513600001,-35.388963971500004 148.102590144,-35.389357984500002 148.10390012799999,-35.390964968500001 148.104212128,-35.3916129865 148.104436128,-35.391928004500002 148.10471513600001,-35.392163990500002 148.10501913599998,-35.392275971 148.10536112,-35.392422972 148.10558912,-35.392475974500002 148.107172128,-35.392844975500005 148.10822211199999,-35.393019967 148.10872108800001,-35.393144953 148.10926809599999,-35.3933119525 148.10950611199999,-35.393481967499994 148.10975708800001,-35.393890965499999 148.10992508800001,-35.394320961 148.10999011199996,-35.394528956500004 148.11017712,-35.395133962 148.11031014400001,-35.395469977499999 148.11043414399998,-35.395662969500002 148.110822144,-35.396096979500001 148.11119913600001,-35.396380973 148.112891136,-35.397350965 148.11370512,-35.398029952 148.114275136,-35.398504958 148.11482112,-35.398976967 148.11533913599999,-35.399759961 148.11565712000001,-35.400222960499995 148.11593216,-35.400786951500002 148.11608316799999,-35.401274963 148.1168592,-35.403243973500004 148.117286208,-35.404214983 148.11785622400001,-35.405455981500005 148.11802422400001,-35.405849976 148.11829024,-35.406557989500001 148.11819126399999,-35.407003987499998 148.118333248,-35.407565999 148.118581248,-35.4079289875 148.118851264,-35.408259989500003 148.11923926399999,-35.408369990499999 148.120698272,-35.408534973500004 148.12093625599999,-35.4085619835 148.121260224,-35.408652985 148.12161123199999,-35.408836986 148.12196121599996,-35.408935979500001 148.12211526399997,-35.40925297699999 148.12245027200001,-35.409816986500005 148.122744256,-35.410039985499999 148.12286326399999,-35.4101249745 148.124073248,-35.4107879775 148.124458272,-35.410976973499999 148.12591225599996,-35.411868951 148.12628326399997,-35.412321960500002 148.12648025600001,-35.412597962 148.12696124799999,-35.413573966499996 148.127486304,-35.41483997699999 148.12786336,-35.418026990500003 148.12797536,-35.418919005 148.12797536,-35.418978001500001 148.12797536,-35.419613994500004 148.128199392,-35.420493022 148.12846339199996,-35.421761012 148.12912643199999,-35.423775033 148.12988246399999,-35.425524041500005 148.129935456,-35.42558104 148.13049548800001,-35.426859038499998 148.13062048,-35.427245041 148.130711488,-35.427702028 148.130759488,-35.428246057499997 148.13072851199999,-35.428761060500001 148.130757504,-35.429176052500004 148.130848512,-35.429634057 148.13099251200001,-35.430105048500003 148.13162256,-35.431397051499999 148.131905536,-35.431825049 148.13209254399999,-35.432217064 148.13225353600001,-35.4327170635 148.13234454400001,-35.433146078500002 148.13236553600001,-35.433718061500002 148.13242057599999,-35.434004071499999 148.132607584,-35.434469069 148.13357859199999,-35.435716061500003 148.13371257599999,-35.436030062 148.133766592,-35.436273096500003 148.13376956799999,-35.436674084 148.13358160000001,-35.437261089 148.1334976,-35.437691084500003 148.13345964800001,-35.4384350805 148.13351865599998,-35.439193099499995 148.13349465600001,-35.439580101 148.13333366399999,-35.440217111500004 148.13335168,-35.44024610099999 148.13329168000001,-35.440382113 148.133241664,-35.440783119 148.13323667199998,-35.441191118 148.13330067199999,-35.441627126 148.13351670399996,-35.442384127499999 148.13357171199999,-35.442670119 148.13357369600001,-35.44292812 148.13340371199999,-35.443644144 148.133379744,-35.443888140499993 148.13350675199999,-35.444560153 148.133480768,-35.445647139 148.13352876799999,-35.446234162499998 148.13374476800001,-35.447091156500001 148.13428576000001,-35.447983171 148.13462076799996,-35.448360164 148.134831776,-35.448553156 148.13520976000001,-35.44880816 148.135788768,-35.449097167 148.13634076799997,-35.449260170500004 148.13731478400001,-35.449670167500003 148.13784076799999,-35.449925153 148.13840275199999,-35.450251141500004 148.13894774400001,-35.450628153 148.13927372800001,-35.450941136 148.13960972800001,-35.451383138 148.14022976000001,-35.452417158500005 148.14034576,-35.452724166 148.14086876799999,-35.453688164 148.14139977599996,-35.454479168500001 148.14170076799999,-35.454957171499991 148.14217980799998,-35.4559271635 148.1426048,-35.456526156500004 148.1426488,-35.456662168500003 148.143771808,-35.458658189 148.14414780800001,-35.459337176 148.1444168,-35.4597241775 148.14525984,-35.460720180500005 148.14550784,-35.4611191885 148.14563283199999,-35.461433189 148.145685824,-35.461490187500004 148.14601884800001,-35.46264020299999 148.14607283199999,-35.462869196 148.14609385599999,-35.4632162005 148.14610288,-35.463355191 148.146079872,-35.463828199 148.14582691199999,-35.464960214 148.14564992000001,-35.466351210500001 148.14568092799999,-35.467486241 148.14580595199999,-35.468938232 148.145859968,-35.469195234 148.14604697600001,-35.469631260500002 148.14638297600001,-35.470051247500002 148.14670595199999,-35.470342252500004 148.147263968,-35.470862250499991 148.147669952,-35.471354258 148.14788195199998,-35.4715962565 148.14788195199998,-35.471639250499997 148.14800496000001,-35.471781256499995 148.14834198399998,-35.472321253 148.15006,-35.475005251500001 148.150360992,-35.475518275 148.150565984,-35.47596826899999 148.15072704,-35.476482273 148.15078304,-35.47689227 148.150668032,-35.477813274 148.15067004799999,-35.478142296500003 148.15074505600001,-35.478671285499992 148.150748064,-35.479115285500001 148.15067408,-35.479745284499991 148.150736096,-35.480612305500003 148.15085209599999,-35.481146308 148.15108908799999,-35.481728318 148.15207312000001,-35.484103329500002 148.15216313599998,-35.484395333500004 148.15221612799999,-35.484452332 148.15235411200001,-35.484832322 148.15260816,-35.485507331500003 148.15272614400001,-35.485859331 148.15281715200001,-35.48638832 148.152821152,-35.486831321 148.15240428800001,-35.491371369 148.15233328,-35.492072371 148.15221936,-35.493888368 148.15201641600001,-35.496227378500002 148.15183347199999,-35.498522377500002 148.15186048000001,-35.499139408 148.15175750399999,-35.500196405499999 148.15189555200001,-35.500832398500002 148.151876544,-35.501190410500001 148.15184256000001,-35.502186395 148.15182960000001,-35.502821407500001 148.1517576,-35.503551399 148.15172764799999,-35.504023426499998 148.15172064000001,-35.504230423 148.15163664,-35.504488424 148.15156364800001,-35.504974419 148.151512672,-35.505358423499999 148.15142265599999,-35.505822422 148.15133971200001,-35.506463428499998 148.151276704,-35.506692421499991 148.151185696,-35.506852428 148.15103971199997,-35.507018428500004 148.15087872000001,-35.507116423 148.15045872,-35.5073114315 148.15011574399998,-35.507494433499993 148.14984377600001,-35.507649445 148.14953475199999,-35.507753433499992 148.14861878400001,-35.508132443 148.148565792,-35.508169443 148.148394784,-35.50829243099999 148.148045792,-35.508584435 148.147709824,-35.5089514565 148.14747984,-35.509255467 148.14711785599999,-35.509986457499998 148.14692086400001,-35.510280459499995 148.14685385599998,-35.51038245 148.14678688000001,-35.510484459 148.14672089600001,-35.510587467 148.146655904,-35.510691455500002 148.14659289599999,-35.5107964615 148.14652489599999,-35.510923464 148.146363936,-35.511329465 148.146215936,-35.511671456 148.14606192,-35.512011467500002 148.145902944,-35.51235048 148.14573795199999,-35.512687476 148.145666944,-35.512819473500002 148.14559094399999,-35.512949473 148.14551696000001,-35.513079472499996 148.14544998400001,-35.513212469 148.145396,-35.51334948 148.14536899199999,-35.513446475500004 148.14534899200001,-35.513545469 148.145332,-35.51364548 148.14531699200001,-35.513745472499998 148.1453,-35.513845483499999 148.14526899200001,-35.514030483500001 148.145196032,-35.514359469 148.145196032,-35.514360468 148.145107008,-35.514689472 148.14502201600001,-35.515018476 148.14502003199999,-35.515027485499999 148.144962048,-35.515438481499999 148.14493004799996,-35.515659482499998 148.14492406400001,-35.515730485500001 148.14497804800001,-35.51593948 148.145120064,-35.516485470499994 148.14517408,-35.51657747099999 148.14520732799997,-35.516610863499999 148.145580064,-35.51667948 148.14587430399999,-35.516742528 148.14601206399999,-35.51664847399999 148.146268064,-35.516392471 148.146580032,-35.516107478500004 148.14724102400001,-35.515700478500001 148.148196,-35.5152184795 148.14881996799997,-35.514811461 148.14915094400001,-35.514691451499999 148.149405952,-35.514669455 148.14951792,-35.514660464 148.14984892800001,-35.514584466 148.15008691200001,-35.514404461 148.15041788799999,-35.514028467 148.150784896,-35.51371245 148.151169888,-35.513456465499999 148.15175785599999,-35.513184441500002 148.152179872,-35.513109442500003 148.152363872,-35.513154434500002 148.152529856,-35.5132894475 148.152731872,-35.513619432 148.15289785600001,-35.513799437 148.15303884799999,-35.51387044 148.15313686399998,-35.513919446500005 148.15344886400001,-35.513978443 148.15401881599996,-35.513978443 148.15434982400001,-35.513857434500004 148.154532832,-35.513721441 148.15475280000001,-35.513391438 148.15482780799999,-35.513329444500002 148.15489980800001,-35.513270448 148.15489980800001,-35.513309446 148.15490083200001,-35.513901446 148.155029824,-35.514171435 148.15519584,-35.514367442500003 148.15550784000001,-35.514667438499998 148.15567382399999,-35.514937446 148.15572982399999,-35.515177446500005 148.155748864,-35.515658446499998 148.155841856,-35.516064447499993 148.155896864,-35.5165144415 148.15597084800001,-35.51672543399999 148.156155904,-35.517085444 148.15633990399999,-35.517370436500002 148.156413888,-35.517566444 148.15661590400001,-35.51786644 148.156728896,-35.517962436499992 148.15608393599999,-35.519103461 148.15572192,-35.519182456 148.155921952,-35.519496456500001 148.15648992000001,-35.519749462499995 148.15700793599999,-35.519984449499994 148.15747091200001,-35.520194461500004 148.15776492800001,-35.520327458 148.15852892800001,-35.520666433500004 148.15871491199999,-35.520759433 148.15905891200001,-35.520933444 148.15961091200001,-35.521452443 148.16014192,-35.521933443 148.16054873600001,-35.522019616 148.16052192000001,-35.522124437 148.16024896,-35.523588453 148.15995699199999,-35.525159454499999 148.15963100799999,-35.52690846299999 148.15636409599998,-35.526500482499998 148.15618208000001,-35.526477468499991 148.15623907200001,-35.526343473 148.15598908799998,-35.526274468 148.15577507200001,-35.526214472500001 148.15518809599999,-35.526052468 148.15510608,-35.526251472499993 148.15419987199996,-35.5261375125 148.15420512,-35.526149482 148.15424211199999,-35.526179470500004 148.15437011200001,-35.526374479 148.15472012800001,-35.52678048 148.15497811200001,-35.527200485500003 148.15505212799999,-35.527350483500001 148.15514412799999,-35.527621471499998 148.155163104,-35.527801495 148.15525616,-35.528267491500003 148.15549616000001,-35.529018499 148.155570144,-35.529393494 148.15564416000001,-35.529543492 148.15566313599999,-35.529739499499996 148.155626144,-35.52976948799999 148.15564518400001,-35.5299795 148.15570019200001,-35.530265491500003 148.15570217600001,-35.531151493499998 148.155739168,-35.531362504500002 148.15575920000001,-35.532038494499993 148.15583222399999,-35.532308502 148.15601721600001,-35.532593494499999 148.15623820799996,-35.532804487 148.15656921600001,-35.5330135 148.156661216,-35.533103502499998 148.15668022400001,-35.533179500500005</coordinates></LinearRing></outerBoundaryIs></Polygon>

	</Placemark>
</kml>