<?xml version="1.0" encoding="UTF-8"?>
<kml xmlns="http://www.opengis.net/kml/2.2">
	<Placemark>
		<Style>
			<LineStyle>
				<color>ff0000ff</color>
			</LineStyle>
			<PolyStyle>
				<fill>1</fill>
				<color>330000cc</color>
			</PolyStyle>
		</Style>
			<ExtendedData><SchemaData>
		<SimpleData name="STATE_2006">1</SimpleData>
		<SimpleData name="POA_2006">2166</SimpleData>
	</SchemaData></ExtendedData>
      <Polygon><outerBoundaryIs><LinearRing><coordinates>150.96821667200001,-33.893810029500003 150.96814662400001,-33.894169355 150.96818966399999,-33.894785349500005 150.96824665599999,-33.8960613685 150.968390656,-33.896463355 150.96866265599996,-33.896735360500003 150.96916464,-33.896950349 150.97002566399999,-33.897180359499998 150.970886624,-33.897495340500001 150.971575616,-33.897667335 150.97213532800001,-33.897852261 150.97253062399997,-33.898083326 150.972668992,-33.898554706 150.972647424,-33.898693419 150.97273904,-33.899252692499999 150.97284684799999,-33.899995412 150.97306246400001,-33.900590483 150.97339129599999,-33.901020016 150.97391955200001,-33.901556923 150.97473366399998,-33.902190326 150.97538572799999,-33.902612847500002 150.975870848,-33.903087113499993 150.97668364800001,-33.903940296500004 150.977821632,-33.9046982785 150.978727744,-33.905261585 150.979288352,-33.905735851 150.979444672,-33.906353307 150.97911587199997,-33.906908103500001 150.97856265600001,-33.907568294500003 150.97811068799999,-33.908200291500002 150.97758672000001,-33.908886308500001 150.97664771199996,-33.909283318499995 150.97590774400001,-33.909085313 150.97545571200001,-33.908435315499993 150.975076704,-33.907767336 150.97460672,-33.907334343500004 150.97419171199999,-33.907063337 150.97366774400001,-33.907009335499993 150.97327075199999,-33.907135339 150.97310774399998,-33.90756835 150.97327075199999,-33.908218347500004 150.973505792,-33.908778361 150.97345078399999,-33.909211353499998 150.97348678399999,-33.909644346 150.973505792,-33.909797359500004 150.973509568,-33.910355652500002 150.973095392,-33.910360721499998 150.97274118399997,-33.910366160500004 150.972400096,-33.910404270500003 150.97203936,-33.910475033 150.97165891200001,-33.91056757 150.97113417599999,-33.910741766 150.97076585600001,-33.910859389 150.97026684799999,-33.910957383499998 150.96987888000001,-33.910997399 150.969431872,-33.911017397500004 150.96911388799998,-33.910994383500004 150.96880688,-33.910956403 150.96849888,-33.910902401500003 150.96810188800001,-33.910790402499998 150.968091872,-33.910786406500002 150.96764192000001,-33.910552418500004 150.967170912,-33.910310401499999 150.96614889599999,-33.909692427499991 150.96494489599999,-33.90879342 150.96429190399999,-33.90828744499999 150.96399190400001,-33.908006448500004 150.963410912,-33.907725452 150.96254889599999,-33.907031443 150.96187392,-33.90645146799999 150.961292896,-33.90583345699999 150.96109094400001,-33.90574946699999 150.96072492799999,-33.905587462500002 150.96042992,-33.904990467499999 150.96052390400001,-33.904315458 150.96082390399999,-33.903640467 150.96127388799999,-33.903135454 150.96243584000001,-33.902835439500002 150.96359884799998,-33.902722423 150.96581081599999,-33.902760403500004 150.96652278400001,-33.902722386 150.966912,-33.90235334799999 150.96698208000001,-33.901682205 150.96668560000001,-33.900800772499998 150.966206304,-33.900245476499997 150.96611075199999,-33.9001184 150.96509776,-33.899594406 150.962754784,-33.899069431500003 150.96118272000001,-33.8992306775 150.96001785600001,-33.899350465 150.958229856,-33.900036667 150.957186912,-33.900437488 150.95564892799999,-33.90113049799999 150.95456198400001,-33.901898525500002 150.95368099199999,-33.90227353899999 150.952883808,-33.902997573500002 150.95212908799996,-33.903561342499991 150.951449056,-33.904090553499998 150.950493088,-33.904915579499999 150.94985609599999,-33.905664570500001 150.949842112,-33.9056865855 150.949696096,-33.905668603500004 150.949493088,-33.905636598500003 150.949402144,-33.905593604499998 150.94903913600001,-33.905427604 150.94878214400001,-33.905230597500001 150.948692128,-33.904928603500004 150.948782112,-33.9045355895 150.94893411199996,-33.904217593 150.94911510399999,-33.903960591 150.94938710400001,-33.903643575 150.94972006399999,-33.903189585 150.94985606399999,-33.902917579499999 150.949841056,-33.902660577499994 150.94972006399999,-33.902479573500003 150.949524064,-33.902433582500002 150.949176064,-33.90246457 150.94881305600001,-33.902600600500001 150.94832908800001,-33.902630589 150.948041088,-33.902781604499999 150.94770809600001,-33.902842599 150.94736108800001,-33.902872606 150.94696710400001,-33.902993614499998 150.94658912,-33.903310612 150.94669513599999,-33.903673619 150.94670713599999,-33.904128608 150.94654912,-33.904239608 150.94639212800001,-33.904337621 150.94609916799999,-33.904403629 150.94599616,-33.904388625500005 150.945859168,-33.904357638 150.94570515199999,-33.904340636500002 150.94556816,-33.904338638500001 150.94544716799999,-33.90436563 150.94532316799996,-33.904563635500004 150.94527017600001,-33.904620634 150.94507817600001,-33.904746637500004 150.944766208,-33.904884647499991 150.94407420799999,-33.9051316595 150.94388518400001,-33.905157652 150.94371318399999,-33.905154655 150.94332118400001,-33.905047651 150.94314323200001,-33.905019864 150.94311622399999,-33.905015664499999 150.94304208,-33.905030131499998 150.942651232,-33.905094678 150.942291232,-33.905088665500003 150.94208224,-33.905214669 150.942011232,-33.905285672 150.94190422400001,-33.905483677500001 150.94190224,-33.905555661 150.94181427199999,-33.905668696 150.94177827199999,-33.905725694499999 150.94172627200001,-33.905767689500003 150.941707264,-33.905810683499993 150.94162124799999,-33.905837693500004 150.94156924800001,-33.905879688500001 150.94141324799998,-33.905920684500003 150.941345248,-33.905919685500002 150.94120726400001,-33.905945696499998 150.94091324799996,-33.906055679 150.94080924799999,-33.90605468 150.940672256,-33.906066686500004 150.94055324799999,-33.906035680500004 150.940501248,-33.906035680500004 150.94041628799999,-33.905990688500005 150.94034828799997,-33.905975685 150.94014528,-33.905871715 150.94012428799999,-33.905845704 150.93971129600001,-33.905320711 150.939526304,-33.905159705500004 150.93930828799998,-33.9049417015 150.93926028800001,-33.904797697500001 150.93928124799999,-33.904625703 150.93936924799999,-33.904541713 150.939388256,-33.904469711 150.93967926400001,-33.904474706 150.939816256,-33.904505712 150.94013827200001,-33.9046966875 150.94049625599999,-33.9047736845 150.94130121599997,-33.904858692 150.94143824,-33.90486069 150.94168022399998,-33.904792665500004 150.94185622399996,-33.904566669499999 150.941896224,-33.904366666 150.94186422399997,-33.90425167 150.94177923199999,-33.904206678 150.94174624,-33.9041636655 150.94164121599999,-33.9041176745 150.94161024,-33.90410367 150.94157622399999,-33.90410367 150.94144121599999,-33.904000680500005 150.94137424,-33.903899689 150.94137622400001,-33.903842690499999 150.94135923199997,-33.903798679 150.94136323199999,-33.903655692500003 150.94147321599999,-33.903370663 150.94159718399999,-33.903172676 150.94163420800001,-33.903072665 150.94151718399999,-33.902927662 150.94143219200001,-33.902883669 150.9412792,-33.902851664 150.94109024,-33.902834681 150.94045321600001,-33.902953691500002 150.93962723199996,-33.903026711 150.939488256,-33.9030956975 150.93943625599999,-33.90313871 150.939367264,-33.903165701500001 150.93924524799999,-33.90324971 150.93908627199997,-33.903433711 150.938996256,-33.903603707500004 150.93881926399999,-33.9038587115 150.938713248,-33.9039727085 150.938678272,-33.904028708 150.93848528000001,-33.904168697499998 150.93831328,-33.904223716499999 150.93824528,-33.9041797235 150.93819430400001,-33.90416472 150.93792528,-33.903930732 150.93774128000001,-33.903698723499993 150.937656288,-33.9036687165 150.93743328,-33.903665719500005 150.93729728,-33.903634732 150.93721228799998,-33.903575717 150.93709529599997,-33.903518718499996 150.936788288,-33.903368720499991 150.93658428800001,-33.90329374 150.93637830399999,-33.903304747500002 150.936239296,-33.903359748 150.93613433600001,-33.903472746 150.936150336,-33.903501735500001 150.93606432000001,-33.903528745500005 150.93609532799999,-33.903643741499998 150.936094336,-33.903701739 150.936127328,-33.9037597365 150.93626131199997,-33.9039047395 150.93636032000001,-33.904063747 150.93635833600001,-33.904149735 150.936374336,-33.904192747499998 150.936373312,-33.904264749500001 150.93619132800001,-33.9047057525 150.93611833599999,-33.904905737500002 150.936046336,-33.905033739 150.93601232,-33.90503274 150.93599331199999,-33.905075752499997 150.935855328,-33.905130734499998 150.93566736,-33.905070739 150.93549936,-33.904952746 150.93546534399999,-33.904909752 150.93536336,-33.904864741499999 150.93536435199997,-33.904835752 150.93503734399999,-33.9048737695 150.93481536,-33.904841764499992 150.934573344,-33.904895766 150.93432934399999,-33.905077769 150.934189344,-33.905189768 150.9340824,-33.905360763499999 150.93393737599999,-33.905687769499998 150.933865376,-33.905829775500003 150.933709376,-33.905898780500003 150.933639392,-33.9059407755 150.93362137599999,-33.906026782 150.93347840000001,-33.906253777 150.93338739199999,-33.906452781500001 150.93333443200001,-33.906523784500003 150.93312841599999,-33.9065207875 150.93306140799999,-33.9064907805 150.93273542399999,-33.906456777500004 150.932684416,-33.90644177399999 150.932549408,-33.90632478 150.932450432,-33.906179777 150.932382432,-33.906164792 150.93221043200001,-33.906161795 150.93198742399997,-33.906172802499995 150.93179740799999,-33.906212799500004 150.93165843199998,-33.906281804500004 150.931571424,-33.906366793499998 150.93139846400001,-33.906420795 150.931346464,-33.906420795 150.93117344,-33.9064747965 150.93101545600001,-33.906629808 150.93094144,-33.906857802 150.93090646399997,-33.906914819 150.93087145599998,-33.907016809499993 150.93061145600001,-33.90702482 150.93054345600001,-33.907023821 150.93021644800001,-33.907075824499998 150.93011248,-33.907102816 150.92999049599996,-33.90717282 150.92986947200001,-33.907198812499999 150.92962947199999,-33.907195815499996 150.929546496,-33.907093825 150.92948249599999,-33.906863814499999 150.92948848,-33.906619818 150.92954448,-33.906420813499999 150.92954745599999,-33.906291813 150.929431456,-33.906117820499993 150.92928544,-33.905756811499998 150.929207456,-33.905440813 150.92905644800001,-33.905308834 150.92892044800001,-33.905249837500001 150.92887446399999,-33.905236832 150.92871545599999,-33.905188843 150.92852646399999,-33.905200831 150.92845744,-33.905227841 150.928386496,-33.90531283 150.92831548800001,-33.905440831500002 150.92831449600001,-33.905483844 150.92829648,-33.905526838 150.92827747199999,-33.905597841 150.92826848000001,-33.905969839 150.92829948799999,-33.906099838499998 150.928298496,-33.906156837 150.92837849599999,-33.906401832500002 150.92839347200001,-33.906487839 150.928407488,-33.906587831499998 150.928407488,-33.906857839 150.928286528,-33.907048833 150.92813852800001,-33.907248836500003 150.92794352000001,-33.907397835499999 150.92773952,-33.907322855 150.927417504,-33.907131861 150.92718051200001,-33.906998846 150.926993504,-33.906938850499998 150.92680451199999,-33.90692085 150.92657155200001,-33.907346849500001 150.926383552,-33.907315862 150.92626656,-33.907184863499999 150.92620153600001,-33.9070408595 150.92620851199999,-33.906753850500003 150.92617952000001,-33.906495849500004 150.92588252799999,-33.906003879 150.92583952000001,-33.905978867 150.925596512,-33.906022878499996 150.925404544,-33.906091865 150.925291552,-33.906196871 150.925169536,-33.906300878 150.925047552,-33.906353880499999 150.924899552,-33.906353880499999 150.924743552,-33.906266875 150.92463056,-33.906118875 150.92448256,-33.905909880499998 150.924325536,-33.9057448975 150.92409955199997,-33.905578897 150.92390054399996,-33.905491891499992 150.923829536,-33.905456889500002 150.92347254399999,-33.905361892 150.92322854400001,-33.905300897499998 150.92303254399997,-33.9052799 150.92291456,-33.905239884499998 150.92267459199999,-33.905235907 150.922571584,-33.905248912499999 150.92240457599999,-33.9052799185 150.92222758400001,-33.905300916 150.92174057599999,-33.90534391 150.921455584,-33.905337916 150.921196576,-33.9053559165 150.92114457599999,-33.905340913 150.92107657599996,-33.905339932499999 150.92033660800001,-33.905442922 150.920216608,-33.905425920500001 150.9201136,-33.9054249215 150.92004560000001,-33.905380947 150.91997760000001,-33.905379948 150.91980761599999,-33.905290944500003 150.9197216,-33.905288946500001 150.91954960000001,-33.90530095299999 150.919464608,-33.90531394 150.919273632,-33.905396949499995 150.91909964800001,-33.9055089485 150.91894265600001,-33.905591958 150.91889164799997,-33.905590959 150.91871865600001,-33.9056319735 150.91865065600001,-33.905615971 150.91851465600001,-33.905556974500001 150.91839664,-33.905454965499992 150.91829763199999,-33.905295958 150.91826364799999,-33.9052659695 150.91823164799999,-33.905193967500004 150.91820464,-33.904877969 150.91822265599998,-33.90483597399999 150.91822364800001,-33.9047929615 150.91824163199999,-33.904749967500003 150.91827664,-33.904721958499998 150.918349632,-33.904550963 150.91831964799999,-33.904363965 150.91821865599999,-33.904262973500003 150.91808364799999,-33.90417397 150.91795964799999,-33.904123964500002 150.917981408,-33.903952025500004 150.918017056,-33.903687605 150.91818732799999,-33.903023843500002 150.91854409599998,-33.901770339 150.918671872,-33.901321418 150.919211168,-33.899583694499995 150.91925472,-33.899442835500004 150.91910755200001,-33.899428942 150.918943552,-33.899412939500003 150.91877955199999,-33.89939394 150.918617536,-33.8993719435 150.91845353599999,-33.899347967499999 150.91829056,-33.899322974 150.91812854400001,-33.899293966 150.91796755199999,-33.899260962 150.91780953599996,-33.899221964 150.91775056,-33.899205961500002 150.917692544,-33.89918896 150.91763456000001,-33.899171958499998 150.91757753600001,-33.899153958 150.91752025599999,-33.899135661500004 150.91720454399999,-33.89902098 150.91516758399999,-33.89808902399999 150.9140976,-33.897599033 150.91302131200001,-33.89710734 150.91276860799999,-33.896986054 150.91260262399999,-33.896898049500003 150.91248262400001,-33.896775061499994 150.912351616,-33.896688056 150.911978624,-33.896440063500002 150.9117816,-33.8963090835 150.91132537600001,-33.895981707499999 150.91090665600001,-33.89592208199999 150.90976764800001,-33.895762094 150.90937164799996,-33.895706113 150.90862268799998,-33.895601107 150.90604169599999,-33.895238174 150.904744736,-33.895055190500003 150.903046784,-33.8948162075 150.9008768,-33.894521243500002 150.90084412799999,-33.894517377 150.90081977599999,-33.894111246500003 150.90087376,-33.894011235500002 150.900962784,-33.893898237500004 150.90103376,-33.893770236 150.901198784,-33.893343237499998 150.901312768,-33.892886250499998 150.90144073600001,-33.892530236500001 150.90149372799996,-33.892474237 150.901546752,-33.892403215500003 150.901739744,-33.892220232 150.902122752,-33.892011219 150.90214073600001,-33.891968225 150.90252672,-33.891602202500003 150.90289171200001,-33.891379203500001 150.90296169600001,-33.891351213 150.903031712,-33.891295213500001 150.90306697599999,-33.891238714499998 150.90319171199999,-33.891040209499998 150.90333270400001,-33.890884199 150.90357868800001,-33.890659183499999 150.90366668799999,-33.890531182 150.90385968000001,-33.89034818 150.90394768,-33.890278194499999 150.90406867199997,-33.890223194 150.90413766399999,-33.890224193 150.904189664,-33.890196184 150.90436166399999,-33.890156187 150.90460265600001,-33.890117170499998 150.90489564800001,-33.890093176 150.90513664,-33.89002517 150.905549632,-33.890003173499998 150.905583648,-33.890004172499999 150.90592864000001,-33.889937147 150.906135648,-33.889869159500002 150.90632460800001,-33.889812142499999 150.906360608,-33.889801153500002 150.9067896,-33.889808146500002 150.90684060800001,-33.88982315 150.90699561599996,-33.889768131 150.90711862399999,-33.889684141 150.90717161599997,-33.889599133499999 150.90731161599999,-33.889487134500001 150.907398624,-33.889445139500005 150.90766358400001,-33.889106127 150.90774956800001,-33.889078136499997 150.90783859199999,-33.888965138499998 150.90792758399996,-33.888795105 150.907981568,-33.888724120499994 150.908285568,-33.888199109 150.90839155200001,-33.888057121500005 150.90857056,-33.887745119 150.90871056,-33.887632121 150.90895456000001,-33.887479089 150.909060544,-33.887337101500002 150.909330528,-33.886783100500004 150.90940252799999,-33.886669103500004 150.90949350400001,-33.886427086499992 150.90949536,-33.886411898 150.90951452799999,-33.886255092 150.90962652799999,-33.885884093 150.90969852800001,-33.885771095 150.90980649599999,-33.8855441 150.90989449599999,-33.8854590925 150.91000048000001,-33.885317068 150.91014147199996,-33.885133085500001 150.91038649599997,-33.884937078 150.91066448000001,-33.884798069 150.91091046400001,-33.884558068499999 150.91118844799999,-33.8843910505 150.911240448,-33.88436306 150.91140345599999,-33.884284065 150.91160544,-33.884182056 150.912127424,-33.883876066 150.91250940799998,-33.883681039 150.91294441599999,-33.883416045 150.9135904,-33.882925018 150.913713376,-33.882798015500001 150.91382038399996,-33.882613015499999 150.913912928,-33.882290727 150.91404534399996,-33.881829022499993 150.91411635200001,-33.881701021 150.91429334399999,-33.881460021500004 150.91448652799997,-33.881319995 150.915041312,-33.8810280095 150.91540784,-33.880890887499994 150.91543932799999,-33.880736005500005 150.915728288,-33.879302977 150.91592028799997,-33.878347988500003 150.916076256,-33.8775739855 150.916231264,-33.876803978499993 150.91640323199999,-33.875945985500003 150.916559232,-33.874914980499994 150.916550048,-33.874837021499999 150.91654572799999,-33.874758803500001 150.91654643199999,-33.874680141500001 150.91655363199999,-33.874593302500003 150.916563008,-33.874478917 150.91656723200001,-33.874462988499999 150.91656736,-33.874457938 150.91672121600001,-33.874491959499998 150.91701520000001,-33.874453960499999 150.91740419199999,-33.874401957 150.917806208,-33.874375964500004 150.91803920000001,-33.874504946500004 150.9181432,-33.874841942499998 150.9182072,-33.875139940499999 150.91824636800001,-33.875385935 150.918326272,-33.875577983500001 150.91841120000001,-33.875593949 150.91861318400001,-33.875768940500002 150.91869619199997,-33.875870949499998 150.91891820799998,-33.875902954499999 150.9190792,-33.875633946 150.9191672,-33.875534952500004 150.919236192,-33.8755069435 150.9193592,-33.875470924 150.91990617600001,-33.875476936499993 150.920282176,-33.8755679195 150.920697152,-33.875593912 150.92093017600001,-33.875619904499999 150.92118816,-33.875666913 150.92168012799999,-33.875889912 150.92195312000001,-33.87596591 150.92217513599999,-33.875997896500003 150.92243414399999,-33.875944894 150.922555136,-33.87587489 150.92269414399996,-33.875805885 150.922938144,-33.875637886499995 150.92302614399998,-33.8755678825 150.92307913600001,-33.875496898 150.92323609600001,-33.875355891 150.92365209600001,-33.875175886 150.92381011200001,-33.875035878 150.92402108799999,-33.874795877499999 150.924128096,-33.874624882 150.924163104,-33.874596873 150.92423411199999,-33.874511865500004 150.924286112,-33.874498878499999 150.92438611200001,-33.874585865499995 150.924514112,-33.875003873 150.924737088,-33.87500687 150.92479008000001,-33.874936866 150.92484208,-33.874908875500005 150.92491305600001,-33.874794878499998 150.924915072,-33.87473788 150.925109056,-33.874482876 150.92517907199999,-33.874412872 150.92531907200001,-33.874328882 150.925388064,-33.874300873 150.92557705600001,-33.874303851500002 150.92566208,-33.874319854 150.92576288,-33.874359296 150.92581507200001,-33.874379849500002 150.92591606400001,-33.874481858500005 150.92604707199999,-33.874726854 150.92613008000001,-33.874842849 150.92623107200001,-33.874930853500004 150.92638406399999,-33.875004853500002 150.92648608,-33.875020856 150.92655408,-33.875050863 150.92668905599999,-33.875138849 150.92678806399999,-33.875297856499998 150.92696905599999,-33.875644861 150.927045056,-33.876061851 150.92706208000001,-33.876090840499998 150.92724608,-33.876278837500003 150.927348064,-33.876309843500003 150.92762208,-33.876342829 150.92773907200001,-33.876444838 150.92778905599999,-33.876517839 150.927820064,-33.876660844 150.92781408,-33.876947834500001 150.927844064,-33.87711982899999 150.927876064,-33.877220839 150.927909056,-33.877264832 150.92794105600001,-33.877379828 150.92805808,-33.877509827499999 150.92815808,-33.87762684 150.92822608,-33.8776558295 150.928259072,-33.8776858365 150.92856806399999,-33.87770483599999 150.92870505600001,-33.877706815499998 150.92922204800001,-33.877585825499999 150.92939404800001,-33.877560813500004 150.92953302399999,-33.877504814 150.92989504,-33.877438824500004 150.93022102399999,-33.87742981499999 150.93032304,-33.877445799 150.93040003199999,-33.877463799499999 150.93046003200001,-33.877476805 150.93052704,-33.877520798 150.93067603200001,-33.877780797 150.93084403200001,-33.877941802500004 150.930962048,-33.878000799 150.930996032,-33.878029807 150.93104704000001,-33.878044792 150.93101104,-33.878115795 150.93097702399999,-33.878115795 150.93094204799999,-33.878143804 150.93068604800001,-33.878067806 150.93055004799999,-33.8780368 150.93049804799998,-33.878035801 150.93041302399999,-33.878005794 150.93037804799999,-33.878048806500004 150.93042304,-33.878235804500001 150.930441024,-33.878307806499997 150.93050803200001,-33.878336796 150.93054204800001,-33.87836680299999 150.93059302399996,-33.878381806500002 150.93059302399996,-33.878395792500001 150.930713024,-33.878383804500004 150.93088604799999,-33.878343807500002 150.931006048,-33.878345805500004 150.93109203200001,-33.8783328 150.931264032,-33.878320793499995 150.93133702399999,-33.878321792500003 150.93134902400001,-33.878321792500003 150.93158704000001,-33.878440803 150.93188902399999,-33.878717785 150.932108032,-33.878878772 150.93212803200001,-33.878888780499999 150.93226102400001,-33.878952772 150.93251801599999,-33.878985776 150.93265500800001,-33.878987774 150.93282601600001,-33.8790047755 150.932944,-33.879077776499997 150.93296099200001,-33.879078775499998 150.93299500800001,-33.879107783500004 150.93304,-33.879380788 150.933056,-33.879452771499999 150.933054016,-33.879523774500001 150.93307001599999,-33.879567786 150.93313699199999,-33.879625783500003 150.93313699199999,-33.879653774 150.933288992,-33.879728773 150.93364700799998,-33.8798347595 150.93472201599997,-33.880080754 150.934924,-33.880226756 150.93481900800001,-33.880339754 150.93448899200001,-33.880506753500001 150.93422899199999,-33.880616754499997 150.934176992,-33.880659767 150.934108,-33.880672754 150.93410499199999,-33.880801754499998 150.934256992,-33.880904762499995 150.934596,-33.881052762499998 150.935022016,-33.881217745500003 150.93520700799999,-33.881334739499998 150.93528601599999,-33.881403744499998 150.93563398399999,-33.87957674 150.93581497599996,-33.878618736 150.93599795200001,-33.87765074199999 150.93617593599998,-33.876710738500002 150.93627792000001,-33.876177735 150.93628390399999,-33.876140735 150.93929388799998,-33.876785700500001 150.93942688000001,-33.876102699 150.93943987200001,-33.876032713500003 150.9431928,-33.876550676500003 150.9431568,-33.876605677 150.94271084799999,-33.877308677 150.942210848,-33.878095667 150.94172486400001,-33.878855665499998 150.94454384,-33.8805656575 150.94752080000001,-33.8823796195 150.9477528,-33.882511506 150.946459264,-33.883997056 150.94496291199999,-33.885724641499991 150.9449272,-33.885768135 150.94504192,-33.885774628500002 150.94526592,-33.885808631499998 150.94558291199999,-33.885834624 150.945892896,-33.885885628499999 150.94603792000001,-33.885928622500003 150.94619888,-33.885991615 150.94631788800001,-33.886038605 150.94674387200001,-33.886159613499998 150.94703488,-33.886192617500001 150.94729388799996,-33.886125610500002 150.94726188799999,-33.885981606500003 150.94724688,-33.885895618500001 150.94724886399999,-33.885837621 150.94714988800001,-33.885664609 150.94704886400001,-33.885562618499996 150.94666188799999,-33.885255611 150.94649388799999,-33.885080619500002 150.94642787199999,-33.884965605 150.94642988800001,-33.884879617 150.94652387199997,-33.884739609 150.94666188799999,-33.884612606499999 150.946938848,-33.884474615 150.94726083200001,-33.88440561 150.94752585599997,-33.884348611500002 150.94796384,-33.884382596 150.94810185599999,-33.884405591499998 150.94822883200001,-33.8844375965 150.94827584000001,-33.884464588 150.94836083199999,-33.884465587 150.94842883199999,-33.884509598500003 150.94863385599999,-33.884541603500004 150.94880585600001,-33.8845446005 150.94909881599997,-33.88446259 150.94918681600001,-33.884349592 150.949222816,-33.884278589 150.9492248,-33.884221590500005 150.94920880000001,-33.8841785965 150.94919382399999,-33.884077586499998 150.9491128,-33.883846595500003 150.94901382399999,-33.88368758799999 150.94881382400001,-33.88342659 150.948783808,-33.883254595499999 150.94876681599996,-33.8832255875 150.94873481600001,-33.883153604 150.9487528,-33.883110591499999 150.94875382399999,-33.883067597500002 150.948805824,-33.883025602499998 150.94900582400001,-33.882905593 150.94928780800001,-33.882805600499992 150.94961078399999,-33.882782568 150.94999078399999,-33.882805582 150.95020876800001,-33.882886575 150.950393792,-33.883093571499998 150.95049779199999,-33.883404575 150.95056678399996,-33.883703572 150.95078476800001,-33.883956578 150.95114179199999,-33.884060566499997 150.95146476799999,-33.884060566499997 150.95177577600001,-33.8840025505 150.95210979199999,-33.883876565499996 150.95230576,-33.883738555500003 150.95242073599999,-33.883404556500004 150.952374752,-33.883001552499998 150.952247744,-33.882656564499996 150.95205174399999,-33.882333554500001 150.95210976000001,-33.8821495535 150.95228176000001,-33.881896566 150.95257072,-33.881770562500002 150.953009568,-33.881815721 150.95348937599996,-33.882010378 150.95396921599996,-33.882227642 150.9544272,-33.882390608500003 150.9549888,-33.882404187500001 150.95552313600001,-33.882146168 150.95597024,-33.881883634499999 150.95645548799999,-33.881625615 150.95711523200001,-33.881602971 150.95757964800001,-33.881931475500004 150.95778064000001,-33.882051485 150.95791564800001,-33.882150478500002 150.95798166399999,-33.882202482 150.958031648,-33.882222480499998 150.95801865600001,-33.882356476 150.95807065599999,-33.882584488500001 150.95809564800001,-33.882687478 150.95809065599997,-33.882821492 150.958111648,-33.882976485 150.95819766400001,-33.883609481 150.95825564800001,-33.884137489499999 150.958226688,-33.884825486 150.95823744,-33.885189862 150.95824067199999,-33.885309483 150.95849068800001,-33.885719461500003 150.95882768000001,-33.885997461 150.95925267199999,-33.886188473499999 150.95967766399997,-33.88621746299999 150.96037974399999,-33.886185032500002 150.96120758399999,-33.88593711399999 150.96194112,-33.88597626 150.962433632,-33.886422424500005 150.96256563200001,-33.886788428500004 150.96253891200001,-33.88687536 150.96241862400001,-33.887301433499992 150.96201123200001,-33.887689045500004 150.96014668800001,-33.888106442500003 150.959149728,-33.888590458 150.95888371199999,-33.889449468500004 150.95917872000001,-33.890084462499999 150.95964870399996,-33.890495458499998 150.96005872000001,-33.890612452500001 150.96048243199999,-33.890696960500001 150.96105187200001,-33.890749482 150.96184630400001,-33.890796176 150.962626656,-33.890766983 150.96337184000001,-33.890656112500004 150.96406064000001,-33.890495403 150.96474275200001,-33.890130879 150.96519974399999,-33.889955813500002 150.96565862400001,-33.889777399499998 150.96589363199999,-33.889747392499999 150.96630348799999,-33.889769056 150.96686588799997,-33.889920793 150.96733865600001,-33.890354137 150.96740057599999,-33.89038436599999 150.967802944,-33.890841815500004 150.96805836799999,-33.891235551 150.96835753600001,-33.891877630499998 150.96843782400001,-33.892380405 150.96831376,-33.892931631 150.96821667200001,-33.893810029500003</coordinates></LinearRing></outerBoundaryIs></Polygon>

	</Placemark>
</kml>