<?xml version="1.0" encoding="UTF-8"?>
<kml xmlns="http://www.opengis.net/kml/2.2">
	<Placemark>
		<Style>
			<LineStyle>
				<color>ff0000ff</color>
			</LineStyle>
			<PolyStyle>
				<fill>1</fill>
				<color>330000cc</color>
			</PolyStyle>
		</Style>
			<ExtendedData><SchemaData>
		<SimpleData name="STATE_2006">1</SimpleData>
		<SimpleData name="POA_2006">2050</SimpleData>
	</SchemaData></ExtendedData>
      <Polygon><outerBoundaryIs><LinearRing><coordinates>151.17916393600001,-33.886226602 151.17922224,-33.886421647500001 151.179312256,-33.8865650965 151.17940656,-33.886652934499999 151.179859808,-33.887076307 151.180299744,-33.887487044 151.180750432,-33.887905477 151.18115724800001,-33.888301284500002 151.18188176000001,-33.888956036499998 151.181919744,-33.889031035500004 151.18194374399997,-33.8891030375 151.182640768,-33.891296046 151.18269049599999,-33.891419885 151.18270905599999,-33.891473905 151.18264476799999,-33.891483599 151.182589312,-33.89149296 151.18236467200001,-33.891522023500002 151.18219225600001,-33.891541374499994 151.182092576,-33.891546554500003 151.18196867200001,-33.891552992500003 151.18174441599999,-33.891549385 151.18163315199996,-33.891541374499994 151.18151795200001,-33.891527703 151.18131024,-33.891490074 151.18117417599998,-33.891459752499998 151.18106076800001,-33.891432298499993 151.18093692799999,-33.891398813500004 151.18081382400001,-33.891361055 151.18056972799999,-33.891280561500004 151.180046656,-33.891113784 151.17975504,-33.891038285500002 151.17959987199998,-33.891006965 151.17939756800001,-33.890983562500004 151.17928128,-33.890984099 151.17921216,-33.890991832 151.17914377599999,-33.891004449 151.17929385599999,-33.891338059500001 151.17957984,-33.892002061500001 151.179827776,-33.892584386 151.18004784,-33.893111062500004 151.17998384000001,-33.893130062 151.17964188799999,-33.893231053500003 151.17923088000001,-33.893353079500002 151.178817888,-33.893475087 151.17839190399999,-33.893601072 151.17798592,-33.893721081500004 151.177567904,-33.893843089 151.17720192,-33.893951092 151.17704992,-33.893602089499993 151.17692889599996,-33.893326106499998 151.17623593600001,-33.89353510099999 151.175577952,-33.893735123 151.17489897600001,-33.893941120500003 151.17445996800001,-33.894061111500001 151.174202976,-33.894133113500004 151.17423696,-33.894010125500003 151.174371968,-33.893520116 151.17401996800001,-33.893459121500001 151.17390697599998,-33.893811139500002 151.17389398399999,-33.893856131500002 151.17385798399999,-33.893958140500004 151.17378700800001,-33.894181139499999 151.173768,-33.894253141500002 151.173752,-33.894318132 151.173664992,-33.89465313 151.17250304000001,-33.894509126 151.172588,-33.89410212599999 151.17209504,-33.89404115 151.17203104000001,-33.894387155499999 151.17156604799996,-33.894328159 151.17177900799996,-33.893169152500001 151.172099968,-33.891478141500002 151.171647968,-33.891421161499999 151.17181296000001,-33.890983137 151.172558976,-33.891090141 151.172673952,-33.890444139499998 151.17284793600001,-33.88950014 151.17306089600001,-33.888359115500002 151.17313587199999,-33.887914116499999 151.17326288000001,-33.887811108500003 151.172728896,-33.887880132 151.172669152,-33.887547002499993 151.17320483200001,-33.887474815499999 151.173569536,-33.887430989 151.17441408,-33.887291499 151.174641952,-33.887248024 151.17642899200001,-33.886848331499998 151.176484448,-33.886833124500001 151.17653952000001,-33.88682097 151.17651072000001,-33.886754555 151.17631561600001,-33.8861396705 151.17617376000001,-33.885692451499999 151.176102176,-33.885466899500003 151.17573708800001,-33.884319233500001 151.17563616000001,-33.884002495 151.17551017599999,-33.883606280500004 151.175592768,-33.883573091500004 151.17569779199997,-33.883488084 151.17590675199997,-33.8833630795 151.176010752,-33.883264086 151.17602873599998,-33.883221073500003 151.176134752,-33.88312208 151.17615792000001,-33.882807062 151.176514752,-33.882970084 151.17697376,-33.883177080499998 151.17714825600001,-33.8832288065 151.177280736,-33.88326808199999 151.17736672000001,-33.883255076499999 151.177504704,-33.883228066500003 151.177625632,-33.8831870335 151.177728608,-33.883159043 151.17791670400001,-33.883205052500003 151.17798470399998,-33.883249064 151.17806672,-33.883394067 151.17813472,-33.883466069 151.17837171199997,-33.883570057499995 151.17859372799998,-33.883616067 151.17879372799999,-33.883631052 151.17910345600001,-33.883463257 151.179836032,-33.883066080500001 151.17987564799998,-33.883117381 151.180161696,-33.883484051 151.179789696,-33.883692046500002 151.179867008,-33.883746991500004 151.179902016,-33.88376099599999 151.17989801600001,-33.883775999500003 151.17991500799997,-33.883782992500002 151.18008700799996,-33.883942 151.18010700799999,-33.883934008 151.180116,-33.883941001 151.18014300799999,-33.8839259975 151.18024768000001,-33.884035036499995 151.18035801600001,-33.884107001499999 151.18033699200001,-33.884119008 151.18035699199999,-33.884126001 151.18037100800001,-33.884128998 151.18048,-33.884182000500005 151.180576,-33.884246991 151.18055100800001,-33.8842530035 151.18076268799999,-33.884408033500002 151.18081401599997,-33.884396008499991 151.18098601599996,-33.884494003 151.18104188799998,-33.884525804500001 151.181185696,-33.884611034 151.18112201599999,-33.884641004 151.18110201600001,-33.88464699799999 151.18123568,-33.884770041499998 151.18136169600001,-33.8847950165 151.18158169599999,-33.884953025 151.18176368,-33.885084023499999 151.18179769599999,-33.885113031499998 151.18184700800001,-33.885147996500002 151.181871008,-33.885177004499994 151.18190268800001,-33.885167033 151.18195900800001,-33.885280993 151.18197801599999,-33.885346002 151.181992,-33.885403000499998 151.182004992,-33.885462996 151.18203132799999,-33.88552893 151.18205740799999,-33.885612476 151.18093692799999,-33.885806226499994 151.18037712,-33.885929159 151.17961356800001,-33.88611915399999 151.17916393600001,-33.886226602</coordinates></LinearRing></outerBoundaryIs></Polygon>

	</Placemark>
</kml>