<?xml version="1.0" encoding="UTF-8"?>
<kml xmlns="http://www.opengis.net/kml/2.2">
	<Placemark>
		<Style>
			<LineStyle>
				<color>ff0000ff</color>
			</LineStyle>
			<PolyStyle>
				<fill>1</fill>
				<color>330000cc</color>
			</PolyStyle>
		</Style>
			<ExtendedData><SchemaData>
		<SimpleData name="STATE_2006">1</SimpleData>
		<SimpleData name="POA_2006">2198</SimpleData>
	</SchemaData></ExtendedData>
      <Polygon><outerBoundaryIs><LinearRing><coordinates>150.99839315200001,-33.915756690500004 150.99838777599999,-33.915780444500001 150.99786451200001,-33.917994136 150.997552576,-33.919317441 150.9970976,-33.921202147 150.99681686400001,-33.921125261 150.99672857600001,-33.9214401495 150.99670758400001,-33.921597159 150.99666758399997,-33.92185516 150.99664659199999,-33.9220121695 150.996566624,-33.922527172500004 150.99654662399999,-33.922641169500004 150.99649961599999,-33.923213171 150.996497664,-33.924804171 150.99661366399999,-33.925751186 150.996736672,-33.926398186500002 150.99673868799999,-33.9264271945 150.99676368,-33.926728189500004 150.99675168,-33.927243192500001 150.996668704,-33.927887196 150.99665072,-33.92793019 150.99659270399999,-33.928201196499998 150.996521728,-33.928315193499998 150.99648371200001,-33.928472184500002 150.99633670399999,-33.928928191 150.99631670400001,-33.929028183500002 150.99628070399999,-33.929085200499998 150.99605065599997,-33.930185229 150.99597075200001,-33.930656202 150.99596976000001,-33.930713200500001 150.99589763200001,-33.9308561685 150.995858752,-33.930925913499998 150.99527772799999,-33.930796857499992 150.993923776,-33.930505445500003 150.99323833599999,-33.930360183499999 150.99300540799999,-33.930310862500001 150.991959968,-33.930086124500001 150.99141673599999,-33.929976234500003 150.991021088,-33.929908025 150.99079571199999,-33.929878869 150.99052393599999,-33.929843756 150.98950547199996,-33.929706412 150.98919625600001,-33.929666544500002 150.9878448,-33.929490961 150.98652144,-33.929321131 150.98649948799999,-33.9293183375 150.98608691199999,-33.929290088 150.98562288,-33.929266315500001 150.98509369600001,-33.92925227399999 150.98480928000001,-33.929269201499999 150.98453171200001,-33.929280727 150.984252352,-33.929300429500003 150.98382323199996,-33.929345976500002 150.98369904,-33.929359111499998 150.98340707200001,-33.929407618499994 150.98305715199999,-33.929459918 150.98280048000001,-33.929504188500005 150.982491232,-33.929562056500004 150.981972128,-33.929640626 150.98164560000001,-33.929688596499993 150.981365888,-33.929722710500002 150.98115852800001,-33.929726225499998 150.98107536000001,-33.9297276685 150.98084352000001,-33.929716772 150.98075603199999,-33.9297127205 150.98050115199999,-33.929689133 150.98036473599998,-33.929662141500003 150.98024771199999,-33.929638924 150.98010192000001,-33.929610027 150.97981932799996,-33.929548107499997 150.97974371199999,-33.929531457499998 150.97933548799998,-33.929396019 150.979019776,-33.929291161 150.97898969600001,-33.929267111 150.97904700799998,-33.929161346500003 150.97887398399999,-33.927779359500001 150.97800998400001,-33.926397354 150.97697296,-33.925245377499998 150.97605097600001,-33.9238063735 150.975301952,-33.922424368 150.97449494399999,-33.9205813795 150.97386089599999,-33.9185083805 150.97369190399996,-33.91701038 150.97377488000001,-33.915901379 150.97410307199999,-33.914243631 150.97432182399999,-33.91297035 150.97441379200001,-33.911471202500003 150.97401366400001,-33.910545795499999 150.973509568,-33.910355652500002 150.973505792,-33.909797359500004 150.97348678399999,-33.909644346 150.97345078399999,-33.909211353499998 150.973505792,-33.908778361 150.97327075199999,-33.908218347500004 150.97310774399998,-33.90756835 150.97327075199999,-33.907135339 150.97366774400001,-33.907009335499993 150.97419171199999,-33.907063337 150.97460672,-33.907334343500004 150.975076704,-33.907767336 150.97545571200001,-33.908435315499993 150.97590774400001,-33.909085313 150.97664771199996,-33.909283318499995 150.97758672000001,-33.908886308500001 150.97811068799999,-33.908200291500002 150.97856265600001,-33.907568294500003 150.97911587199997,-33.906908103500001 150.979444672,-33.906353307 150.979288352,-33.905735851 150.978727744,-33.905261585 150.97901724799999,-33.905185383500005 150.981020992,-33.904573829 150.98094358399999,-33.904461256499999 150.98082160000001,-33.904295256 150.98064912,-33.904079287 150.98047059199999,-33.903877267 150.980280128,-33.903683461 150.98018112,-33.903588963 150.98007958400001,-33.903496259500002 150.97992259200001,-33.903361265 150.97986937600001,-33.903317253499999 150.9796496,-33.903146258 150.9794784,-33.903023584499998 150.9793616,-33.9029442565 150.97892659199999,-33.902662261 150.980115552,-33.902192268500002 150.980430592,-33.902067153 150.981445536,-33.9016632425 150.98359715199999,-33.90080697 150.986005216,-33.899848929 150.986036896,-33.899832186499999 150.98615820799998,-33.899768454 150.986322368,-33.89959899399999 150.987867392,-33.900618159 150.98789772800001,-33.900642005500004 150.987925088,-33.900667739 150.98796108799999,-33.9007096785 150.98807740800001,-33.900899155499999 150.988179968,-33.90086025 150.9882504,-33.900837143499999 150.98832144,-33.900817681500001 150.9883944,-33.900800143499993 150.98850432,-33.9007797935 150.988578496,-33.900769618499993 150.988716,-33.90076035 150.98888339199996,-33.900768157 150.98899427200001,-33.900782753500003 150.98906739200001,-33.900796147500003 150.9891664,-33.900820160500004 150.989262368,-33.900850149 150.98938668799997,-33.900898859500003 150.98947561599999,-33.900941964499992 150.98953283199998,-33.900973562499999 150.98997817599999,-33.901265881 150.99017040000001,-33.9010537415 150.99021504000001,-33.90098120299999 150.99056537599998,-33.90061013 150.992602336,-33.901953119 150.992715968,-33.902028636 150.99357334399997,-33.902594088500003 150.99478307199999,-33.903392215499998 150.99485334400001,-33.9034380955 150.9948072,-33.903487805 150.994252448,-33.904072793499999 150.99389712000001,-33.904448288 150.99383881599999,-33.904508764500001 150.9937488,-33.904597953 150.993615968,-33.904739256 150.99356736,-33.9047801225 150.99351299200001,-33.904812516 150.99347232,-33.904828981 150.99342912,-33.904842745 150.993384128,-33.904853549 150.993339136,-33.904861208 150.99329411199997,-33.904865518500003 150.99331968000001,-33.904934190500001 150.99333660799999,-33.904998274500002 150.99334236799999,-33.905030113 150.993345952,-33.905063431500004 150.99334704,-33.905095917499999 150.993344896,-33.905134434499999 150.993339392,-33.905173118 150.99333552,-33.905191951 150.993150112,-33.9055741795 150.994687328,-33.905794403500003 150.99647900799999,-33.906054994500003 150.997336,-33.906229005500002 150.99785491200001,-33.906333900500002 150.997856928,-33.906334307500003 150.998276,-33.906419000500001 150.999371008,-33.906649991500004 150.99976620800001,-33.906598617 150.99976624000001,-33.906598617 151.00062499200001,-33.906487006500001 151.00090633600001,-33.906439258 151.00115801600001,-33.906399002 151.00103161600001,-33.9066919865 151.00100963200001,-33.906731669 151.000978688,-33.906799971 151.00076230400001,-33.907458034500003 151.00051465600001,-33.908585498499995 151.00043219200001,-33.908962232500002 151.00029632,-33.909579059499997 151.0001568,-33.910240508500003 150.9976144,-33.909893097 150.997303808,-33.911290531500001 150.99726342400001,-33.911471091500005 150.99771097600001,-33.911535157 151.00037836800001,-33.911915073 151.00154963200001,-33.912088381 151.00161536,-33.911764057500001 151.00282233600001,-33.911931038500001 151.00385632000001,-33.912073044499998 151.00415712,-33.912115298499998 151.00482060799999,-33.912119424 151.00469568,-33.912675626500004 151.00467696000001,-33.9127380085 151.00465068799997,-33.912798577499991 151.00462873599997,-33.9128375385 151.00452899199999,-33.9129745125 151.00449228799999,-33.913042648 151.00411536,-33.913968832 151.00439616,-33.914015285499993 151.004441888,-33.914024739 151.00448688,-33.914036708499999 151.004552416,-33.914059204499999 151.00493433599999,-33.914212033 151.00444736,-33.915061035 151.004096352,-33.915674051 151.004098368,-33.915683060500001 151.004229632,-33.9161326475 151.004298624,-33.916487459 151.00347673600001,-33.916549767 151.00328412799999,-33.916549859500002 151.003116,-33.91653456 151.00200144,-33.916351077 151.00103664,-33.916192735499997 150.99839315200001,-33.915756690500004</coordinates></LinearRing></outerBoundaryIs></Polygon>

	</Placemark>
</kml>