<?xml version="1.0" encoding="UTF-8"?>
<kml xmlns="http://www.opengis.net/kml/2.2">
	<Placemark>
		<Style>
			<LineStyle>
				<color>ff0000ff</color>
			</LineStyle>
			<PolyStyle>
				<fill>1</fill>
				<color>330000cc</color>
			</PolyStyle>
		</Style>
			<ExtendedData><SchemaData>
		<SimpleData name="STATE_2006">1</SimpleData>
		<SimpleData name="POA_2006">2726</SimpleData>
	</SchemaData></ExtendedData>
      <Polygon><outerBoundaryIs><LinearRing><coordinates>148.359494144,-34.817703711 148.35964304000001,-34.818244762 148.35970304,-34.818414758499998 148.35981104000001,-34.818719768 148.35993904,-34.819321758 148.36021203199999,-34.819396757 148.36034902399999,-34.819621754 148.36016803199999,-34.819885786 148.36012304,-34.82026178 148.36030601600001,-34.820448778 148.36031104,-34.82052377699999 148.360412032,-34.8206437865 148.360693024,-34.820679769 148.36108601599997,-34.820769771500004 148.36118403200001,-34.821123769 148.36101302399999,-34.821417771 148.36054704,-34.821478784 148.359848064,-34.821701783 148.35872905599999,-34.822183782 148.35722310399998,-34.82305479899999 148.35621811199999,-34.823621805500004 148.35527513599996,-34.823905799 148.35444112,-34.823946795 148.35395116800001,-34.823875792 148.35332614399999,-34.823876791 148.35149414399996,-34.82373682 148.35073417599997,-34.82373682 148.350060192,-34.823848819 148.34946019200001,-34.824151812 148.34895721599997,-34.824465812500002 148.34768323200001,-34.824830817500001 148.34686220799998,-34.825003829499998 148.345391264,-34.825014837 148.344300256,-34.82508584 148.34286227199999,-34.825277833 148.34164928000001,-34.825379842 148.34017830400001,-34.825299848 148.338964352,-34.825057849499998 148.337988352,-34.824796851500004 148.33735136000001,-34.8247168575 148.33634636799999,-34.824676860499999 148.33527939199999,-34.824707866499999 148.33432339199999,-34.824828875 148.33319641599996,-34.824961871500001 148.33192745599999,-34.825143893 148.33087344,-34.825467883500004 148.32996646399999,-34.82589288399999 148.328557472,-34.826460908 148.32751552,-34.826703905500004 148.326657504,-34.826693915500002 148.32614249599999,-34.826471915499994 148.32552950399997,-34.8261889025 148.32494153599998,-34.826006899500001 148.324450528,-34.825996909499999 148.32382553599999,-34.826037924 148.32328252799999,-34.826039922 148.32284656,-34.826172918499999 148.322516576,-34.826376918 148.32208556800001,-34.826821917 148.32248457599997,-34.825451918 148.32254457600001,-34.825245920500002 148.32258057600001,-34.825123931500002 148.322717536,-34.824652921500004 148.322705536,-34.824427924499993 148.322671552,-34.823753932500004 148.322638528,-34.823104915500004 148.32262054399999,-34.822739910500005 148.32258854400001,-34.822128911 148.32255452800001,-34.8214469085 148.32254054399999,-34.821174903 148.322538528,-34.821141899 148.322493536,-34.820250902 148.32249052799997,-34.820195901499993 148.322448544,-34.819369913500005 148.322437536,-34.819154906499996 148.32274854400001,-34.818782908499998 148.323065504,-34.818570898499999 148.32320249599999,-34.818472904 148.32347251199997,-34.818279912 148.32368649599999,-34.818127916 148.32427152,-34.817710889 148.32443651200001,-34.817614892500004 148.32475750399999,-34.817429892499995 148.32520848,-34.8171688945 148.32524246400001,-34.81715489 148.32577948799999,-34.816929893 148.32588547200001,-34.816885881499999 148.32597347199999,-34.8168488815 148.32723644799998,-34.816797895500002 148.32725244799997,-34.817089881 148.328367456,-34.817041873499996 148.32946140799999,-34.816994865 148.3297304,-34.816982877 148.33072240000001,-34.8169398645 148.332256384,-34.816872857500002 148.33356534399999,-34.816815859 148.33389536000001,-34.8168028535 148.33828928,-34.816625827 148.33938428799999,-34.816581834 148.33982326399999,-34.816563833499998 148.34203820799999,-34.816474811500001 148.34265123200001,-34.816449818 148.34621318399999,-34.8163057955 148.34858416,-34.815563797500005 148.34927411199999,-34.815347791500002 148.34981612799999,-34.815177776500001 148.35002112,-34.815113785 148.35105110399999,-34.814790775 148.35238409600001,-34.814373785 148.352692096,-34.814276771 148.35475305599999,-34.813631768500002 148.35506204800001,-34.813534754500004 148.35709302399999,-34.81289874299999 148.35718704,-34.812910749499991 148.357472992,-34.812946732 148.35809500799999,-34.813023747500004 148.35828998400001,-34.813052737 148.35805904,-34.814525762500004 148.35846803199999,-34.815454758500003 148.35928704,-34.817236752500001 148.35936704,-34.817433759 148.359494144,-34.817703711</coordinates></LinearRing></outerBoundaryIs></Polygon>

	</Placemark>
</kml>